UTC_timestamp,device_name,timestamp,x,y,z,lat,long,event,speed
2019-10-26 10:00:46.400,LG-H970,1572084046406.0,-1.668,10.609,0.404,41.1038124,16.8800902,False,NONE
2019-10-26 10:00:46.420,LG-H970,1572084046428.8333,0.653,8.926,2.81,41.1038124,16.8800902,False,NONE
2019-10-26 10:00:46.440,LG-H970,1572084046451.5,-1.814,10.01,-1.156,41.1038124,16.8800902,False,NONE
2019-10-26 10:00:46.460,LG-H970,1572084046471.75,-5.406,12.049,-1.973,41.1038124,16.8800902,False,NONE
2019-10-26 10:00:46.480,LG-H970,1572084046492.25,-2.774,9.473,-0.325,41.1038124,16.8800902,False,NONE
2019-10-26 10:00:46.500,LG-H970,1572084046511.75,0.933,8.217,2.432,41.1038124,16.8800902,False,NONE
2019-10-26 10:00:46.520,LG-H970,1572084046531.5,-0.454,10.447,1.315,41.1038124,16.8800902,False,NONE
2019-10-26 10:00:46.540,LG-H970,1572084046551.5,-5.807,11.119,-1.671,41.1038124,16.8800902,False,NONE
2019-10-26 10:00:46.560,LG-H970,1572084046571.25,-4.277,10.658,-1.503,41.1038124,16.8800902,False,NONE
2019-10-26 10:00:46.580,LG-H970,1572084046590.5,0.108,7.348,-0.689,41.1038124,16.8800902,False,NONE
2019-10-26 10:00:46.600,LG-H970,1572084046608.0,1.477,8.953,1.907,41.1038124,16.8800902,False,NONE
2019-10-26 10:00:46.620,LG-H970,1572084046627.8,-1.41,10.863,-0.524,41.1038124,16.8800902,False,NONE
2019-10-26 10:00:46.640,LG-H970,1572084046649.25,-2.95,13.022,0.2,41.1038124,16.8800902,False,NONE
2019-10-26 10:00:46.660,LG-H970,1572084046669.0,-0.815,9.528,-0.643,41.1038124,16.8800902,False,NONE
2019-10-26 10:00:46.680,LG-H970,1572084046689.25,0.348,6.709,-0.842,41.1038124,16.8800902,False,NONE
2019-10-26 10:00:46.700,LG-H970,1572084046708.5,-3.088,5.323,-1.657,41.1038124,16.8800902,False,NONE
2019-10-26 10:00:46.720,LG-H970,1572084046728.5,-5.965,7.549,-4.165,41.1038124,16.8800902,False,NONE
2019-10-26 10:00:46.740,LG-H970,1572084046749.75,-1.589,11.387,-1.064,41.1038124,16.8800902,False,NONE
2019-10-26 10:00:46.760,LG-H970,1572084046767.75,1.727,7.564,1.391,41.1038124,16.8800902,False,NONE
2019-10-26 10:00:46.780,LG-H970,1572084046787.75,1.714,10.476,3.721,41.1038124,16.8800902,False,NONE
2019-10-26 10:00:46.800,LG-H970,1572084046810.2,-1.668,10.987,-2.349,41.1038124,16.8800902,False,NONE
2019-10-26 10:00:46.820,LG-H970,1572084046832.0,-0.047,10.85,-1.094,41.1038124,16.8800902,False,NONE
2019-10-26 10:00:46.840,LG-H970,1572084046852.0,2.792,8.38,0.008,41.1038124,16.8800902,False,NONE
2019-10-26 10:00:46.860,LG-H970,1572084046871.25,2.262,10.546,1.125,41.1038124,16.8800902,False,NONE
2019-10-26 10:00:46.880,LG-H970,1572084046891.25,-0.336,11.928,-0.119,41.1038124,16.8800902,False,NONE
2019-10-26 10:00:46.900,LG-H970,1572084046909.3333,0.171,12.369,-1.019,41.1038124,16.8800902,False,NONE
2019-10-26 10:00:46.920,LG-H970,1572084046928.2,2.941,8.903,0.646,41.1038124,16.8800902,False,NONE
2019-10-26 10:00:46.940,LG-H970,1572084046949.5,4.091,9.989,-0.863,41.1038124,16.8800902,False,NONE
2019-10-26 10:00:46.960,LG-H970,1572084046969.5,-0.31,10.838,-1.619,41.1038124,16.8800902,False,NONE
2019-10-26 10:00:46.980,LG-H970,1572084046989.75,-1.578,11.443,-0.747,41.1038124,16.8800902,False,NONE
2019-10-26 10:00:47.000,LG-H970,1572084047009.5,2.449,10.719,1.6,41.1038124,16.8800902,False,NONE
2019-10-26 10:00:47.020,LG-H970,1572084047028.75,2.828,10.232,1.162,41.1038124,16.8800902,False,NONE
2019-10-26 10:00:47.040,LG-H970,1572084047048.75,-2.038,11.647,-1.917,41.1038124,16.8800902,False,NONE
2019-10-26 10:00:47.060,LG-H970,1572084047068.5,-3.069,11.397,0.174,41.1038124,16.8800902,False,NONE
2019-10-26 10:00:47.080,LG-H970,1572084047088.5,1.171,10.509,-0.131,41.1038124,16.8800902,False,NONE
2019-10-26 10:00:47.100,LG-H970,1572084047108.5,1.053,11.507,2.299,41.1038124,16.8800902,False,NONE
2019-10-26 10:00:47.120,LG-H970,1572084047128.0,-3.435,11.726,-1.33,41.1038124,16.8800902,False,NONE
2019-10-26 10:00:47.140,LG-H970,1572084047147.75,-4.089,10.922,-1.027,41.1038124,16.8800902,False,NONE
2019-10-26 10:00:47.160,LG-H970,1572084047169.8,0.635,9.02,-0.47,41.1038124,16.8800902,False,NONE
2019-10-26 10:00:47.180,LG-H970,1572084047189.6667,0.949,8.279,1.74,41.1038124,16.8800902,False,NONE
2019-10-26 10:00:47.200,LG-H970,1572084047209.2,-2.971,10.307,-1.027,41.1038124,16.8800902,False,NONE
2019-10-26 10:00:47.220,LG-H970,1572084047229.6667,-4.303,12.045,-0.422,41.1038124,16.8800902,False,NONE
2019-10-26 10:00:47.240,LG-H970,1572084047247.25,-0.916,10.879,0.042,41.1038124,16.8800902,False,NONE
2019-10-26 10:00:47.260,LG-H970,1572084047269.4,1.799,8.353,2.397,41.1038124,16.8800902,False,NONE
2019-10-26 10:00:47.280,LG-H970,1572084047290.75,-1.17,9.225,-0.837,41.1038124,16.8800902,False,NONE
2019-10-26 10:00:47.300,LG-H970,1572084047310.75,-4.264,11.123,-2.92,41.1038124,16.8800902,False,NONE
2019-10-26 10:00:47.320,LG-H970,1572084047330.0,-2.555,8.566,-0.229,41.1038124,16.8800902,False,NONE
2019-10-26 10:00:47.340,LG-H970,1572084047348.75,0.651,6.131,0.322,41.1038124,16.8800902,False,NONE
2019-10-26 10:00:47.360,LG-H970,1572084047369.25,-2.146,7.156,1.191,41.1038124,16.8800902,False,NONE
2019-10-26 10:00:47.380,LG-H970,1572084047389.0,-6.294,8.446,-0.647,41.1038124,16.8800902,False,NONE
2019-10-26 10:00:47.400,LG-H970,1572084047409.5,-3.331,10.528,-0.664,41.1038124,16.8800902,False,NONE
2019-10-26 10:00:47.420,LG-H970,1572084047428.25,-0.408,5.409,0.831,41.1038124,16.8800902,False,NONE
2019-10-26 10:00:47.440,LG-H970,1572084047448.0,1.854,10.656,1.221,41.1038124,16.8800902,False,NONE
2019-10-26 10:00:47.460,LG-H970,1572084047467.75,-1.475,10.891,-2.4,41.1038124,16.8800902,False,NONE
2019-10-26 10:00:47.480,LG-H970,1572084047487.5,-2.018,11.966,0.452,41.1038124,16.8800902,False,NONE
2019-10-26 10:00:47.500,LG-H970,1572084047507.75,0.214,10.09,-0.197,41.1038124,16.8800902,False,NONE
2019-10-26 10:00:47.520,LG-H970,1572084047527.75,0.892,10.648,0.137,41.1038124,16.8800902,False,NONE
2019-10-26 10:00:47.540,LG-H970,1572084047549.6,-0.121,9.48,-2.334,41.1038124,16.8800902,False,NONE
2019-10-26 10:00:47.560,LG-H970,1572084047571.75,0.499,9.921,-1.152,41.1038124,16.8800902,False,NONE
2019-10-26 10:00:47.580,LG-H970,1572084047591.5,1.51,10.127,0.203,41.1038124,16.8800902,False,NONE
2019-10-26 10:00:47.600,LG-H970,1572084047610.75,0.594,11.288,-0.355,41.1038124,16.8800902,False,NONE
2019-10-26 10:00:47.620,LG-H970,1572084047630.75,-0.19,11.6,-1.37,41.1038124,16.8800902,False,NONE
2019-10-26 10:00:47.640,LG-H970,1572084047650.0,0.743,9.323,-1.433,41.1038124,16.8800902,False,NONE
2019-10-26 10:00:47.660,LG-H970,1572084047669.5,1.095,9.166,-1.004,41.1038124,16.8800902,False,NONE
2019-10-26 10:00:47.680,LG-H970,1572084047689.25,-0.293,11.141,-2.341,41.1038124,16.8800902,False,NONE
2019-10-26 10:00:47.700,LG-H970,1572084047709.0,-1.794,11.022,0.085,41.1038124,16.8800902,False,NONE
2019-10-26 10:00:47.720,LG-H970,1572084047728.75,-0.599,11.032,-0.179,41.1038124,16.8800902,False,NONE
2019-10-26 10:00:47.740,LG-H970,1572084047748.5,-0.582,7.982,-0.393,41.1038124,16.8800902,False,NONE
2019-10-26 10:00:47.760,LG-H970,1572084047768.0,-0.808,9.043,-1.616,41.1038124,16.8800902,False,NONE
2019-10-26 10:00:47.780,LG-H970,1572084047787.5,-1.434,9.102,-1.49,41.1038124,16.8800902,False,NONE
2019-10-26 10:00:47.800,LG-H970,1572084047807.25,1.045,12.408,0.538,41.1038124,16.8800902,False,NONE
2019-10-26 10:00:47.820,LG-H970,1572084047828.25,1.244,10.948,1.773,41.1038124,16.8800902,False,NONE
2019-10-26 10:00:47.840,LG-H970,1572084047849.25,-0.913,9.393,1.003,41.1038124,16.8800902,False,NONE
2019-10-26 10:00:47.860,LG-H970,1572084047870.75,-1.805,8.902,-1.877,41.1038124,16.8800902,False,NONE
2019-10-26 10:00:47.880,LG-H970,1572084047891.0,-0.4,8.822,-2.333,41.1038124,16.8800902,False,NONE
2019-10-26 10:00:47.900,LG-H970,1572084047910.75,0.119,7.988,0.314,41.1038124,16.8800902,True,NONE
2019-10-26 10:00:47.920,LG-H970,1572084047929.75,0.064,10.26,1.262,41.1038124,16.8800902,True,NONE
2019-10-26 10:00:47.940,LG-H970,1572084047950.0,-1.06,9.886,-0.885,41.1038124,16.8800902,False,NONE
2019-10-26 10:00:47.960,LG-H970,1572084047969.5,-1.49,9.704,1.351,41.1038124,16.8800902,False,NONE
2019-10-26 10:00:47.980,LG-H970,1572084047989.75,-1.519,10.238,-0.238,41.1038124,16.8800902,False,NONE
2019-10-26 10:00:48.000,LG-H970,1572084048010.0,-2.725,10.294,1.002,41.1038124,16.8800902,False,NONE
2019-10-26 10:00:48.020,LG-H970,1572084048030.5,-2.297,9.892,0.667,41.1038124,16.8800902,False,NONE
2019-10-26 10:00:48.040,LG-H970,1572084048050.25,-1.46,10.697,1.374,41.1038124,16.8800902,False,NONE
2019-10-26 10:00:48.060,LG-H970,1572084048069.25,-2.752,8.627,0.607,41.1038124,16.8800902,False,NONE
2019-10-26 10:00:48.080,LG-H970,1572084048089.25,-3.456,10.998,0.476,41.1038124,16.8800902,False,NONE
2019-10-26 10:00:48.100,LG-H970,1572084048109.0,-3.353,10.72,-2.073,41.1038124,16.8800902,False,NONE
2019-10-26 10:00:48.120,LG-H970,1572084048128.5,-1.595,9.852,0.462,41.1038124,16.8800902,False,NONE
2019-10-26 10:00:48.140,LG-H970,1572084048148.75,-0.775,8.185,-0.072,41.1038124,16.8800902,False,NONE
2019-10-26 10:00:48.160,LG-H970,1572084048168.0,-1.121,10.674,-0.106,41.1038124,16.8800902,False,NONE
2019-10-26 10:00:48.180,LG-H970,1572084048187.75,-2.946,9.82,-0.807,41.1038124,16.8800902,False,NONE
2019-10-26 10:00:48.200,LG-H970,1572084048209.6,-2.436,10.287,-1.001,41.1038124,16.8800902,False,NONE
2019-10-26 10:00:48.220,LG-H970,1572084048232.0,-2.151,9.925,-0.409,41.1038124,16.8800902,False,NONE
2019-10-26 10:00:48.240,LG-H970,1572084048252.0,-0.897,9.838,-0.538,41.1038124,16.8800902,False,NONE
2019-10-26 10:00:48.260,LG-H970,1572084048268.6667,-1.453,8.275,-1.169,41.1038124,16.8800902,False,NONE
2019-10-26 10:00:48.280,LG-H970,1572084048289.2,-2.357,10.522,-0.476,41.1038124,16.8800902,False,NONE
2019-10-26 10:00:48.300,LG-H970,1572084048311.25,-1.688,10.396,-1.494,41.1038124,16.8800902,False,NONE
2019-10-26 10:00:48.320,LG-H970,1572084048332.0,-0.6,9.702,0.579,41.1038124,16.8800902,False,NONE
2019-10-26 10:00:48.340,LG-H970,1572084048349.75,-0.497,9.85,-0.475,41.1038124,16.8800902,False,NONE
2019-10-26 10:00:48.360,LG-H970,1572084048369.5,-2.251,10.454,0.269,41.1038124,16.8800902,False,NONE
2019-10-26 10:00:48.380,LG-H970,1572084048389.5,-1.859,9.119,-1.665,41.1038124,16.8800902,False,NONE
2019-10-26 10:00:48.400,LG-H970,1572084048409.25,-0.091,9.122,0.874,41.1038124,16.8800902,False,NONE
2019-10-26 10:00:48.420,LG-H970,1572084048429.5,0.109,8.799,-0.286,41.1038124,16.8800902,False,NONE
2019-10-26 10:00:48.440,LG-H970,1572084048450.0,-0.773,10.659,-0.456,41.1038124,16.8800902,False,NONE
2019-10-26 10:00:48.460,LG-H970,1572084048468.75,-0.596,10.52,-1.188,41.1038124,16.8800902,False,NONE
2019-10-26 10:00:48.480,LG-H970,1572084048489.4,0.04,8.725,1.287,41.1038124,16.8800902,False,NONE
2019-10-26 10:00:48.500,LG-H970,1572084048510.0,0.316,10.527,-1.494,41.1038124,16.8800902,False,NONE
2019-10-26 10:00:48.520,LG-H970,1572084048527.25,-0.977,10.392,-0.161,41.1038124,16.8800902,False,NONE
2019-10-26 10:00:48.540,LG-H970,1572084048549.2,0.007,9.533,-0.133,41.1038124,16.8800902,False,NONE
2019-10-26 10:00:48.560,LG-H970,1572084048572.25,1.136,8.592,1.212,41.1038124,16.8800902,False,NONE
2019-10-26 10:00:48.580,LG-H970,1572084048591.5,-0.092,9.124,0.327,41.1038124,16.8800902,False,NONE
2019-10-26 10:00:48.600,LG-H970,1572084048611.75,-2.129,10.86,-1.911,41.1038124,16.8800902,False,NONE
2019-10-26 10:00:48.620,LG-H970,1572084048631.75,-2.278,10.772,-1.735,41.1038124,16.8800902,False,NONE
2019-10-26 10:00:48.640,LG-H970,1572084048650.0,0.283,8.54,0.601,41.1038124,16.8800902,False,NONE
2019-10-26 10:00:48.660,LG-H970,1572084048669.0,1.661,8.473,0.837,41.1038124,16.8800902,False,NONE
2019-10-26 10:00:48.680,LG-H970,1572084048690.75,-2.414,10.024,-1.135,41.1038124,16.8800902,False,NONE
2019-10-26 10:00:48.700,LG-H970,1572084048710.5,-3.586,12.199,-2.097,41.1038124,16.8800902,False,NONE
2019-10-26 10:00:48.720,LG-H970,1572084048730.5,-2.21,9.14,-0.259,41.1038124,16.8800902,False,NONE
2019-10-26 10:00:48.740,LG-H970,1572084048749.5,0.008,8.621,0.21,41.1038124,16.8800902,False,NONE
2019-10-26 10:00:48.760,LG-H970,1572084048769.25,-1.866,9.275,-0.101,41.1038124,16.8800902,False,NONE
2019-10-26 10:00:48.780,LG-H970,1572084048788.75,-3.623,10.835,-1.798,41.1038124,16.8800902,False,NONE
2019-10-26 10:00:48.800,LG-H970,1572084048809.25,-2.526,10.392,-0.573,41.1038124,16.8800902,False,NONE
2019-10-26 10:00:48.820,LG-H970,1572084048826.3333,0.327,9.769,0.424,41.1038124,16.8800902,False,NONE
2019-10-26 10:00:48.840,LG-H970,1572084048847.0,0.361,9.161,-0.004,41.1038124,16.8800902,False,NONE
2019-10-26 10:00:48.860,LG-H970,1572084048870.0,-3.152,10.013,-0.597,41.1038124,16.8800902,False,NONE
2019-10-26 10:00:48.880,LG-H970,1572084048889.3333,-2.393,9.579,-0.777,41.1038124,16.8800902,False,NONE
2019-10-26 10:00:48.900,LG-H970,1572084048909.4,0.601,8.439,0.581,41.1038124,16.8800902,False,NONE
2019-10-26 10:00:48.920,LG-H970,1572084048932.0,0.047,8.634,0.808,41.1038124,16.8800902,False,NONE
2019-10-26 10:00:48.940,LG-H970,1572084048950.75,-2.253,9.89,-1.038,41.1038124,16.8800902,False,NONE
2019-10-26 10:00:48.960,LG-H970,1572084048970.75,-2.835,10.56,-0.702,41.1038124,16.8800902,False,NONE
2019-10-26 10:00:48.980,LG-H970,1572084048990.0,-0.478,10.32,0.033,41.1038124,16.8800902,False,NONE
2019-10-26 10:00:49.000,LG-H970,1572084049010.5,0.727,9.32,1.498,41.1038124,16.8800902,False,NONE
2019-10-26 10:00:49.020,LG-H970,1572084049030.75,-0.885,9.821,0.104,41.1038124,16.8800902,False,NONE
2019-10-26 10:00:49.040,LG-H970,1572084049050.5,-2.826,10.706,-0.68,41.1038124,16.8800902,False,NONE
2019-10-26 10:00:49.060,LG-H970,1572084049070.25,-2.181,10.005,-0.3,41.1038124,16.8800902,False,NONE
2019-10-26 10:00:49.080,LG-H970,1572084049090.0,-0.14,9.621,0.397,41.1038124,16.8800902,False,NONE
2019-10-26 10:00:49.100,LG-H970,1572084049109.75,0.232,10.824,-0.36,41.1038124,16.8800902,False,NONE
2019-10-26 10:00:49.120,LG-H970,1572084049129.25,-1.276,10.557,0.186,41.1038124,16.8800902,False,NONE
2019-10-26 10:00:49.140,LG-H970,1572084049148.75,-1.525,10.307,-0.791,41.1038124,16.8800902,False,NONE
2019-10-26 10:00:49.160,LG-H970,1572084049168.75,-0.542,10.969,0.246,41.1038124,16.8800902,False,NONE
2019-10-26 10:00:49.180,LG-H970,1572084049187.5,-0.12,10.173,0.371,41.1038124,16.8800902,False,NONE
2019-10-26 10:00:49.200,LG-H970,1572084049207.25,-0.153,10.944,0.164,41.1038124,16.8800902,False,NONE
2019-10-26 10:00:49.220,LG-H970,1572084049229.6,-0.756,10.634,-0.329,41.1038124,16.8800902,False,NONE
2019-10-26 10:00:49.240,LG-H970,1572084049251.5,-0.077,10.139,-0.506,41.1038124,16.8800902,False,NONE
2019-10-26 10:00:49.260,LG-H970,1572084049269.3333,-0.289,8.758,-0.43,41.1038124,16.8800902,False,NONE
2019-10-26 10:00:49.280,LG-H970,1572084049289.6,-0.113,9.876,-0.548,41.1038124,16.8800902,False,NONE
2019-10-26 10:00:49.300,LG-H970,1572084049309.3333,-0.579,9.108,-0.199,41.1038124,16.8800902,False,NONE
2019-10-26 10:00:49.320,LG-H970,1572084049331.2,-0.122,10.267,0.112,41.1038124,16.8800902,False,NONE
2019-10-26 10:00:49.340,LG-H970,1572084049350.0,-0.684,9.049,-0.136,41.1038124,16.8800902,False,NONE
2019-10-26 10:00:49.360,LG-H970,1572084049369.75,-1.175,9.448,-0.52,41.1038124,16.8800902,False,NONE
2019-10-26 10:00:49.380,LG-H970,1572084049390.0,-1.425,9.031,-0.702,41.1038124,16.8800902,False,NONE
