UTC_timestamp,device_name,timestamp,x,y,z,lat,long,event,speed
2019-10-26 10:29:28.060,LG-H970,1572085768068.5,0.245,10.968,-0.41,41.1039867,16.8796145,False,NONE
2019-10-26 10:29:28.080,LG-H970,1572085768087.5,2.705,7.272,-0.712,41.1039867,16.8796145,False,NONE
2019-10-26 10:29:28.100,LG-H970,1572085768109.8,5.819,8.146,2.936,41.1039867,16.8796145,False,NONE
2019-10-26 10:29:28.120,LG-H970,1572085768132.25,2.247,9.244,0.316,41.1039867,16.8796145,False,NONE
2019-10-26 10:29:28.140,LG-H970,1572085768152.25,-0.108,12.771,0.537,41.1039867,16.8796145,False,NONE
2019-10-26 10:29:28.160,LG-H970,1572085768169.3333,1.58,10.593,-0.385,41.1039867,16.8796145,False,NONE
2019-10-26 10:29:28.180,LG-H970,1572085768189.6,4.805,7.404,1.631,41.1039867,16.8796145,False,NONE
2019-10-26 10:29:28.200,LG-H970,1572085768211.0,3.867,8.233,0.655,41.1039867,16.8796145,False,NONE
2019-10-26 10:29:28.220,LG-H970,1572085768228.3333,-0.286,9.271,-2.562,41.1039867,16.8796145,False,NONE
2019-10-26 10:29:28.240,LG-H970,1572085768248.8,-0.675,11.439,-0.153,41.1039867,16.8796145,False,NONE
2019-10-26 10:29:28.260,LG-H970,1572085768270.3333,1.182,9.296,1.372,41.1039867,16.8796145,False,NONE
2019-10-26 10:29:28.280,LG-H970,1572085768289.75,2.315,8.859,1.335,41.1039867,16.8796145,False,NONE
2019-10-26 10:29:28.300,LG-H970,1572085768309.75,0.193,9.773,-2.213,41.1039867,16.8796145,False,NONE
2019-10-26 10:29:28.320,LG-H970,1572085768329.75,-1.632,10.019,-2.057,41.1039867,16.8796145,False,NONE
2019-10-26 10:29:28.340,LG-H970,1572085768349.5,0.102,9.637,-0.146,41.1039867,16.8796145,False,NONE
2019-10-26 10:29:28.360,LG-H970,1572085768369.25,1.915,9.38,0.704,41.1039867,16.8796145,False,NONE
2019-10-26 10:29:28.380,LG-H970,1572085768389.0,0.594,10.309,0.117,41.1039867,16.8796145,False,NONE
2019-10-26 10:29:28.400,LG-H970,1572085768408.5,-1.045,10.85,-2.335,41.1039867,16.8796145,False,NONE
2019-10-26 10:29:28.420,LG-H970,1572085768428.75,-0.708,10.032,-2.15,41.1039867,16.8796145,False,NONE
2019-10-26 10:29:28.440,LG-H970,1572085768448.25,0.962,9.477,-0.846,41.1039867,16.8796145,False,NONE
2019-10-26 10:29:28.460,LG-H970,1572085768467.75,0.514,10.254,0.822,41.1039867,16.8796145,False,NONE
2019-10-26 10:29:28.480,LG-H970,1572085768488.0,-0.99,11.251,0.404,41.1039867,16.8796145,False,NONE
2019-10-26 10:29:28.500,LG-H970,1572085768507.5,-0.544,12.716,-1.191,41.1039867,16.8796145,False,NONE
2019-10-26 10:29:28.520,LG-H970,1572085768529.2,0.737,9.503,-0.415,41.1039867,16.8796145,False,NONE
2019-10-26 10:29:28.540,LG-H970,1572085768551.75,1.325,8.424,0.002,41.1039867,16.8796145,False,NONE
2019-10-26 10:29:28.560,LG-H970,1572085768572.5,-1.88,9.522,0.927,41.1039867,16.8796145,False,NONE
2019-10-26 10:29:28.580,LG-H970,1572085768591.0,-2.995,11.837,0.669,41.1039867,16.8796145,False,NONE
2019-10-26 10:29:28.600,LG-H970,1572085768610.5,-0.155,11.225,-0.897,41.1039867,16.8796145,False,NONE
2019-10-26 10:29:28.620,LG-H970,1572085768627.0,0.531,10.216,2.318,41.1039867,16.8796145,False,NONE
2019-10-26 10:29:28.640,LG-H970,1572085768648.0,-0.451,8.641,-1.089,41.1039867,16.8796145,False,NONE
2019-10-26 10:29:28.660,LG-H970,1572085768669.25,-0.031,9.381,-0.386,41.1039867,16.8796145,False,NONE
2019-10-26 10:29:28.680,LG-H970,1572085768689.0,0.841,9.596,0.775,41.1039867,16.8796145,False,NONE
2019-10-26 10:29:28.700,LG-H970,1572085768708.5,0.314,10.903,1.02,41.1039867,16.8796145,False,NONE
2019-10-26 10:29:28.720,LG-H970,1572085768728.5,0.504,10.298,0.292,41.1039867,16.8796145,False,NONE
2019-10-26 10:29:28.740,LG-H970,1572085768748.75,2.208,8.591,-0.877,41.1039867,16.8796145,False,NONE
2019-10-26 10:29:28.760,LG-H970,1572085768768.5,1.954,8.266,0.507,41.1039867,16.8796145,False,NONE
2019-10-26 10:29:28.780,LG-H970,1572085768790.6,1.253,10.212,-0.26,41.1039867,16.8796145,False,NONE
2019-10-26 10:29:28.800,LG-H970,1572085768809.3333,0.299,10.993,0.896,41.1039867,16.8796145,False,NONE
2019-10-26 10:29:28.820,LG-H970,1572085768829.8,1.429,10.287,0.626,41.1039867,16.8796145,False,NONE
2019-10-26 10:29:28.840,LG-H970,1572085768851.75,2.83,8.97,-0.335,41.1039867,16.8796145,False,NONE
2019-10-26 10:29:28.860,LG-H970,1572085768871.5,2.705,9.438,-0.397,41.1039867,16.8796145,False,NONE
2019-10-26 10:29:28.880,LG-H970,1572085768891.25,2.442,9.907,-0.778,41.1039867,16.8796145,False,NONE
2019-10-26 10:29:28.900,LG-H970,1572085768911.75,2.789,10.0,1.172,41.1039867,16.8796145,False,NONE
2019-10-26 10:29:28.920,LG-H970,1572085768931.5,2.971,9.485,-0.235,41.1039867,16.8796145,False,NONE
2019-10-26 10:29:28.940,LG-H970,1572085768950.5,2.495,8.746,-1.342,41.1039867,16.8796145,False,NONE
2019-10-26 10:29:28.960,LG-H970,1572085768969.75,2.088,8.281,-2.188,41.1039867,16.8796145,False,NONE
2019-10-26 10:29:28.980,LG-H970,1572085768990.25,1.497,8.806,-1.029,41.1039867,16.8796145,False,NONE
2019-10-26 10:29:29.000,LG-H970,1572085769009.75,0.901,10.041,0.207,41.1039867,16.8796145,False,NONE
2019-10-26 10:29:29.020,LG-H970,1572085769029.75,0.612,10.681,1.308,41.1039867,16.8796145,False,NONE
2019-10-26 10:29:29.040,LG-H970,1572085769049.5,0.044,10.235,-0.42,41.1039867,16.8796145,False,NONE
2019-10-26 10:29:29.060,LG-H970,1572085769069.5,0.367,9.315,-1.231,41.1039867,16.8796145,False,NONE
2019-10-26 10:29:29.080,LG-H970,1572085769089.0,0.613,8.896,-1.357,41.1039867,16.8796145,False,NONE
2019-10-26 10:29:29.100,LG-H970,1572085769108.75,1.41,10.165,0.049,41.1039867,16.8796145,False,NONE
2019-10-26 10:29:29.120,LG-H970,1572085769128.5,0.472,9.626,1.209,41.1039867,16.8796145,False,NONE
2019-10-26 10:29:29.140,LG-H970,1572085769148.25,0.368,10.02,-0.116,41.1039867,16.8796145,False,NONE
2019-10-26 10:29:29.160,LG-H970,1572085769167.5,-1.016,9.285,-0.971,41.1039867,16.8796145,False,NONE
2019-10-26 10:29:29.180,LG-H970,1572085769192.25,-0.694,9.508,-1.234,41.1039867,16.8796145,False,NONE
2019-10-26 10:29:29.200,LG-H970,1572085769208.6667,-0.107,10.523,0.309,41.1039867,16.8796145,False,NONE
2019-10-26 10:29:29.220,LG-H970,1572085769228.8,-0.174,10.992,0.866,41.1039867,16.8796145,False,NONE
2019-10-26 10:29:29.240,LG-H970,1572085769251.5,0.429,10.494,0.311,41.1039867,16.8796145,False,NONE
2019-10-26 10:29:29.260,LG-H970,1572085769271.25,0.609,8.018,-0.948,41.1039867,16.8796145,False,NONE
2019-10-26 10:29:29.280,LG-H970,1572085769290.25,1.817,7.738,-1.942,41.1039867,16.8796145,False,NONE
2019-10-26 10:29:29.300,LG-H970,1572085769309.5,2.711,7.203,-0.773,41.1039867,16.8796145,False,NONE
2019-10-26 10:29:29.320,LG-H970,1572085769330.0,3.579,5.9,0.683,41.1039867,16.8796145,False,NONE
2019-10-26 10:29:29.340,LG-H970,1572085769350.5,0.123,8.521,1.091,41.1039867,16.8796145,False,NONE
2019-10-26 10:29:29.360,LG-H970,1572085769370.25,-2.527,14.115,0.732,41.1039867,16.8796145,False,NONE
2019-10-26 10:29:29.380,LG-H970,1572085769389.5,-2.698,12.977,2.574,41.1039867,16.8796145,False,NONE
2019-10-26 10:29:29.400,LG-H970,1572085769409.0,-2.119,11.88,3.253,41.1039867,16.8796145,False,NONE
2019-10-26 10:29:29.420,LG-H970,1572085769429.0,-1.751,11.901,0.452,41.1039867,16.8796145,False,NONE
2019-10-26 10:29:29.440,LG-H970,1572085769449.0,-3.692,11.429,-0.018,41.1039867,16.8796145,False,NONE
2019-10-26 10:29:29.460,LG-H970,1572085769467.5,-0.863,12.2,0.141,41.1039867,16.8796145,False,NONE
2019-10-26 10:29:29.480,LG-H970,1572085769490.0,2.973,10.59,0.927,41.1039867,16.8796145,False,NONE
2019-10-26 10:29:29.500,LG-H970,1572085769512.75,2.376,12.241,2.444,41.1039867,16.8796145,False,NONE
2019-10-26 10:29:29.520,LG-H970,1572085769532.25,0.426,13.012,-1.17,41.1039867,16.8796145,False,NONE
2019-10-26 10:29:29.540,LG-H970,1572085769554.5,1.537,10.96,-0.377,41.1039867,16.8796145,False,NONE
2019-10-26 10:29:29.560,LG-H970,1572085769572.0,3.365,8.078,0.627,41.1039867,16.8796145,True,NONE
2019-10-26 10:29:29.580,LG-H970,1572085769590.5,3.342,9.381,1.748,41.1039867,16.8796145,True,NONE
2019-10-26 10:29:29.600,LG-H970,1572085769610.0,1.546,10.489,-0.017,41.1039867,16.8796145,False,NONE
2019-10-26 10:29:29.620,LG-H970,1572085769629.5,0.5,10.197,-1.64,41.1039867,16.8796145,False,NONE
2019-10-26 10:29:29.640,LG-H970,1572085769649.75,1.98,8.89,-0.137,41.1039867,16.8796145,False,NONE
2019-10-26 10:29:29.660,LG-H970,1572085769670.0,3.525,6.66,0.737,41.1039867,16.8796145,False,NONE
2019-10-26 10:29:29.680,LG-H970,1572085769689.75,3.274,8.649,-0.292,41.1039867,16.8796145,False,NONE
2019-10-26 10:29:29.700,LG-H970,1572085769709.5,1.738,10.137,-2.007,41.1039867,16.8796145,False,NONE
2019-10-26 10:29:29.720,LG-H970,1572085769729.0,2.149,9.174,0.342,41.1039867,16.8796145,False,NONE
2019-10-26 10:29:29.740,LG-H970,1572085769749.5,3.844,8.203,1.509,41.1039867,16.8796145,False,NONE
2019-10-26 10:29:29.760,LG-H970,1572085769769.0,3.035,9.52,0.959,41.1039867,16.8796145,False,NONE
2019-10-26 10:29:29.780,LG-H970,1572085769788.5,-0.36,10.171,-1.239,41.1039867,16.8796145,False,NONE
2019-10-26 10:29:29.800,LG-H970,1572085769808.5,0.181,10.971,-0.486,41.1039867,16.8796145,False,NONE
2019-10-26 10:29:29.820,LG-H970,1572085769828.5,1.975,9.326,1.143,41.1039867,16.8796145,False,NONE
2019-10-26 10:29:29.840,LG-H970,1572085769848.0,2.672,9.576,1.07,41.1039867,16.8796145,False,NONE
2019-10-26 10:29:29.860,LG-H970,1572085769867.5,0.401,9.973,-0.053,41.1039867,16.8796145,False,NONE
2019-10-26 10:29:29.880,LG-H970,1572085769890.2,0.221,9.964,-1.563,41.1039867,16.8796145,False,NONE
2019-10-26 10:29:29.900,LG-H970,1572085769912.25,0.92,7.863,1.418,41.1039867,16.8796145,False,NONE
2019-10-26 10:29:29.920,LG-H970,1572085769931.75,2.212,8.88,0.205,41.1039867,16.8796145,False,NONE
2019-10-26 10:29:29.940,LG-H970,1572085769951.5,2.175,10.759,0.616,41.1039867,16.8796145,False,NONE
2019-10-26 10:29:29.960,LG-H970,1572085769971.0,0.773,8.824,0.19,41.1039867,16.8796145,False,NONE
2019-10-26 10:29:29.980,LG-H970,1572085769991.0,1.114,9.915,0.068,41.1039867,16.8796145,False,NONE
2019-10-26 10:29:30.000,LG-H970,1572085770012.5,1.125,9.345,-0.328,41.1039867,16.8796145,False,NONE
2019-10-26 10:29:30.020,LG-H970,1572085770026.0,0.855,8.914,1.25,41.1039867,16.8796145,False,NONE
2019-10-26 10:29:30.040,LG-H970,1572085770049.25,1.151,10.19,-0.44,41.1039867,16.8796145,False,NONE
2019-10-26 10:29:30.060,LG-H970,1572085770069.75,0.978,9.973,0.69,41.1039867,16.8796145,False,NONE
2019-10-26 10:29:30.080,LG-H970,1572085770089.0,1.718,10.067,-0.419,41.1039867,16.8796145,False,NONE
2019-10-26 10:29:30.100,LG-H970,1572085770108.25,0.932,10.79,0.656,41.1039867,16.8796145,False,NONE
2019-10-26 10:29:30.120,LG-H970,1572085770128.5,-0.181,10.196,-0.379,41.1039867,16.8796145,False,NONE
2019-10-26 10:29:30.140,LG-H970,1572085770148.75,0.761,11.62,-0.079,41.1039867,16.8796145,False,NONE
2019-10-26 10:29:30.160,LG-H970,1572085770169.0,1.694,11.114,0.069,41.1039867,16.8796145,False,NONE
2019-10-26 10:29:30.180,LG-H970,1572085770190.8,1.354,10.37,0.836,41.1039867,16.8796145,False,NONE
2019-10-26 10:29:30.200,LG-H970,1572085770209.0,-0.277,9.681,-0.466,41.1039867,16.8796145,False,NONE
2019-10-26 10:29:30.220,LG-H970,1572085770227.25,-1.031,10.731,-1.053,41.1039867,16.8796145,False,NONE
2019-10-26 10:29:30.240,LG-H970,1572085770249.6,-0.658,10.132,-0.102,41.1039867,16.8796145,False,NONE
2019-10-26 10:29:30.260,LG-H970,1572085770271.5,0.433,9.696,1.041,41.1039867,16.8796145,False,NONE
2019-10-26 10:29:30.280,LG-H970,1572085770291.25,-0.336,10.744,-0.634,41.1039867,16.8796145,False,NONE
2019-10-26 10:29:30.300,LG-H970,1572085770310.5,-0.87,10.095,-1.211,41.1039867,16.8796145,False,NONE
2019-10-26 10:29:30.320,LG-H970,1572085770330.5,0.581,7.206,-0.752,41.1039867,16.8796145,False,NONE
2019-10-26 10:29:30.340,LG-H970,1572085770350.5,1.694,6.448,-0.787,41.1039867,16.8796145,False,NONE
2019-10-26 10:29:30.360,LG-H970,1572085770370.25,1.186,7.476,-1.624,41.1039867,16.8796145,False,NONE
2019-10-26 10:29:30.380,LG-H970,1572085770390.5,1.659,7.695,-2.18,41.1039867,16.8796145,False,NONE
2019-10-26 10:29:30.400,LG-H970,1572085770409.5,2.929,7.884,-0.545,41.1039867,16.8796145,False,NONE
2019-10-26 10:29:30.420,LG-H970,1572085770429.5,1.482,9.232,1.755,41.1039867,16.8796145,False,NONE
2019-10-26 10:29:30.440,LG-H970,1572085770449.5,0.492,11.775,-0.344,41.1039867,16.8796145,False,NONE
2019-10-26 10:29:30.460,LG-H970,1572085770469.25,-2.376,11.385,-0.638,41.1039867,16.8796145,False,NONE
2019-10-26 10:29:30.480,LG-H970,1572085770489.25,1.085,11.089,-1.723,41.1039867,16.8796145,False,NONE
2019-10-26 10:29:30.500,LG-H970,1572085770508.75,2.924,7.72,1.162,41.1039867,16.8796145,False,NONE
2019-10-26 10:29:30.520,LG-H970,1572085770529.0,0.882,9.301,0.498,41.1039867,16.8796145,False,NONE
2019-10-26 10:29:30.540,LG-H970,1572085770547.75,0.384,12.419,-2.454,41.1039867,16.8796145,False,NONE
2019-10-26 10:29:30.560,LG-H970,1572085770570.8,0.512,9.933,0.5,41.1039867,16.8796145,False,NONE
2019-10-26 10:29:30.580,LG-H970,1572085770591.5,-0.316,9.919,1.658,41.1039867,16.8796145,False,NONE
2019-10-26 10:29:30.600,LG-H970,1572085770611.5,-2.375,11.604,1.199,41.1039867,16.8796145,False,NONE
2019-10-26 10:29:30.620,LG-H970,1572085770631.5,-2.728,12.318,0.167,41.1039867,16.8796145,False,NONE
2019-10-26 10:29:30.640,LG-H970,1572085770651.25,-3.254,12.287,-0.225,41.1039867,16.8796145,False,NONE
2019-10-26 10:29:30.660,LG-H970,1572085770668.6667,-2.154,11.895,0.937,41.1039867,16.8796145,False,NONE
2019-10-26 10:29:30.680,LG-H970,1572085770688.8,-0.478,10.901,-0.254,41.1039867,16.8796145,False,NONE
2019-10-26 10:29:30.700,LG-H970,1572085770710.25,-3.166,12.835,-1.056,41.1039867,16.8796145,False,NONE
2019-10-26 10:29:30.720,LG-H970,1572085770729.75,-3.822,11.852,-4.362,41.1039867,16.8796145,False,NONE
2019-10-26 10:29:30.740,LG-H970,1572085770750.25,0.612,10.055,-1.199,41.1039867,16.8796145,False,NONE
2019-10-26 10:29:30.760,LG-H970,1572085770770.0,3.328,8.454,-0.726,41.1039867,16.8796145,False,NONE
2019-10-26 10:29:30.780,LG-H970,1572085770789.75,-0.657,10.659,-1.199,41.1039867,16.8796145,False,NONE
2019-10-26 10:29:30.800,LG-H970,1572085770809.5,-3.397,11.614,-2.863,41.1039867,16.8796145,False,NONE
2019-10-26 10:29:30.820,LG-H970,1572085770829.0,-1.435,8.886,-1.823,41.1039867,16.8796145,False,NONE
2019-10-26 10:29:30.840,LG-H970,1572085770849.25,2.049,7.759,-0.253,41.1039867,16.8796145,False,NONE
2019-10-26 10:29:30.860,LG-H970,1572085770868.0,1.15,7.459,-0.625,41.1039867,16.8796145,False,NONE
2019-10-26 10:29:30.880,LG-H970,1572085770890.6,-1.186,8.833,-1.897,41.1039867,16.8796145,False,NONE
2019-10-26 10:29:30.900,LG-H970,1572085770909.6667,0.098,9.403,-2.106,41.1039867,16.8796145,False,NONE
2019-10-26 10:29:30.920,LG-H970,1572085770927.75,2.043,7.902,-0.239,41.1039867,16.8796145,False,NONE
2019-10-26 10:29:30.940,LG-H970,1572085770949.6,3.275,7.828,0.159,41.1039867,16.8796145,False,NONE
2019-10-26 10:29:30.960,LG-H970,1572085770971.75,1.034,9.804,-1.498,41.1039867,16.8796145,False,NONE
2019-10-26 10:29:30.980,LG-H970,1572085770991.5,-1.669,10.759,-2.884,41.1039867,16.8796145,False,NONE
2019-10-26 10:29:31.000,LG-H970,1572085771011.5,-0.863,11.147,-1.799,41.1039867,16.8796145,False,NONE
2019-10-26 10:29:31.020,LG-H970,1572085771030.5,0.583,8.657,-0.702,41.1039867,16.8796145,False,NONE
2019-10-26 10:29:31.040,LG-H970,1572085771051.25,0.847,7.859,-0.892,41.1039867,16.8796145,False,NONE
