UTC_timestamp,device_name,timestamp,x,y,z,lat,long,event,speed
2019-10-25 09:42:36.020,LG-H970,1571996556027.5,1.584,8.266,-2.084,41.1077959,16.8803074,False,NONE
2019-10-25 09:42:36.040,LG-H970,1571996556047.5,1.214,8.885,-0.958,41.1077959,16.8803074,False,NONE
2019-10-25 09:42:36.060,LG-H970,1571996556066.75,-2.452,10.444,-1.501,41.1077959,16.8803074,False,NONE
2019-10-25 09:42:36.080,LG-H970,1571996556089.4,-2.473,11.435,-0.381,41.1077959,16.8803074,False,NONE
2019-10-25 09:42:36.100,LG-H970,1571996556109.0,0.545,8.816,-0.675,41.1077959,16.8803074,False,NONE
2019-10-25 09:42:36.120,LG-H970,1571996556129.0,0.182,9.172,-0.426,41.1077959,16.8803074,False,NONE
2019-10-25 09:42:36.140,LG-H970,1571996556150.5,-2.506,11.072,-2.397,41.1077959,16.8803074,False,NONE
2019-10-25 09:42:36.160,LG-H970,1571996556170.5,-1.136,12.486,-0.818,41.1077959,16.8803074,False,NONE
2019-10-25 09:42:36.180,LG-H970,1571996556190.75,0.97,10.024,0.473,41.1077959,16.8803074,False,NONE
2019-10-25 09:42:36.200,LG-H970,1571996556212.0,0.78,10.541,-0.357,41.1077959,16.8803074,False,NONE
2019-10-25 09:42:36.220,LG-H970,1571996556229.5,-1.684,10.44,-2.694,41.1077959,16.8803074,False,NONE
2019-10-25 09:42:36.240,LG-H970,1571996556249.5,-1.036,10.055,-2.621,41.1077959,16.8803074,False,NONE
2019-10-25 09:42:36.260,LG-H970,1571996556269.25,1.262,9.543,-0.839,41.1077959,16.8803074,False,NONE
2019-10-25 09:42:36.280,LG-H970,1571996556288.75,1.16,9.275,0.37,41.1077959,16.8803074,False,NONE
2019-10-25 09:42:36.300,LG-H970,1571996556308.5,-0.423,10.744,-0.681,41.1077959,16.8803074,False,NONE
2019-10-25 09:42:36.320,LG-H970,1571996556328.5,-1.497,10.429,-2.318,41.1077959,16.8803074,False,NONE
2019-10-25 09:42:36.340,LG-H970,1571996556348.0,-0.652,8.961,-2.215,41.1077959,16.8803074,False,NONE
2019-10-25 09:42:36.360,LG-H970,1571996556367.5,0.467,8.596,-1.042,41.1077959,16.8803074,False,NONE
2019-10-25 09:42:36.380,LG-H970,1571996556385.0,0.025,9.502,-0.7,41.1077959,16.8803074,False,NONE
2019-10-25 09:42:36.400,LG-H970,1571996556407.6,-1.302,10.508,-0.753,41.1077959,16.8803074,False,NONE
2019-10-25 09:42:36.420,LG-H970,1571996556429.4,-0.848,10.074,-0.873,41.1077959,16.8803074,False,NONE
2019-10-25 09:42:36.440,LG-H970,1571996556451.5,-0.392,8.514,-2.088,41.1077959,16.8803074,False,NONE
2019-10-25 09:42:36.460,LG-H970,1571996556471.5,-1.19,9.494,-1.745,41.1077959,16.8803074,False,NONE
2019-10-25 09:42:36.480,LG-H970,1571996556490.5,-1.611,9.797,-1.794,41.1077959,16.8803074,False,NONE
2019-10-25 09:42:36.500,LG-H970,1571996556510.5,-0.537,10.167,-0.812,41.1077959,16.8803074,False,NONE
2019-10-25 09:42:36.520,LG-H970,1571996556530.5,-0.355,9.8,-0.719,41.1077959,16.8803074,False,NONE
2019-10-25 09:42:36.540,LG-H970,1571996556550.5,-1.013,10.036,-1.899,41.1077959,16.8803074,False,NONE
2019-10-25 09:42:36.560,LG-H970,1571996556569.6667,-1.105,9.476,-2.343,41.1077959,16.8803074,False,NONE
2019-10-25 09:42:36.580,LG-H970,1571996556591.8,-0.471,9.247,-1.254,41.1077959,16.8803074,False,NONE
2019-10-25 09:42:36.600,LG-H970,1571996556609.75,-0.802,9.661,-1.3,41.1077959,16.8803074,False,NONE
2019-10-25 09:42:36.620,LG-H970,1571996556629.25,-1.291,10.286,-1.33,41.1077959,16.8803074,False,NONE
2019-10-25 09:42:36.640,LG-H970,1571996556648.5,-1.25,9.091,-1.694,41.1077959,16.8803074,False,NONE
2019-10-25 09:42:36.660,LG-H970,1571996556668.5,-1.277,8.007,-1.431,41.1077959,16.8803074,False,NONE
2019-10-25 09:42:36.680,LG-H970,1571996556688.75,-1.95,8.276,-1.244,41.1077959,16.8803074,False,NONE
2019-10-25 09:42:36.700,LG-H970,1571996556710.0,-3.206,7.952,-0.859,41.1077959,16.8803074,False,NONE
2019-10-25 09:42:36.720,LG-H970,1571996556727.5,-2.738,8.015,-0.516,41.1077959,16.8803074,False,NONE
2019-10-25 09:42:36.740,LG-H970,1571996556747.5,-3.445,6.116,-0.78,41.1077959,16.8803074,False,NONE
2019-10-25 09:42:36.760,LG-H970,1571996556768.5,-4.752,5.862,-2.081,41.1077959,16.8803074,False,NONE
2019-10-25 09:42:36.780,LG-H970,1571996556790.0,-3.342,8.237,-4.16,41.1077959,16.8803074,False,NONE
2019-10-25 09:42:36.800,LG-H970,1571996556811.5,1.162,8.464,-0.358,41.1077959,16.8803074,False,NONE
2019-10-25 09:42:36.820,LG-H970,1571996556831.25,2.914,7.528,0.667,41.1077959,16.8803074,False,NONE
2019-10-25 09:42:36.840,LG-H970,1571996556851.75,0.984,10.905,0.57,41.1077959,16.8803074,False,NONE
2019-10-25 09:42:36.860,LG-H970,1571996556870.5,-0.296,12.106,-2.879,41.1077959,16.8803074,False,NONE
2019-10-25 09:42:36.880,LG-H970,1571996556888.0,2.41,11.964,0.376,41.1077959,16.8803074,False,NONE
2019-10-25 09:42:36.900,LG-H970,1571996556908.4,5.485,12.068,1.342,41.1077959,16.8803074,False,NONE
2019-10-25 09:42:36.920,LG-H970,1571996556929.75,7.328,21.079,-3.448,41.1077959,16.8803074,False,NONE
2019-10-25 09:42:36.940,LG-H970,1571996556949.5,6.357,18.161,3.251,41.1077959,16.8803074,False,NONE
2019-10-25 09:42:36.960,LG-H970,1571996556969.0,9.494,15.613,-0.077,41.1077959,16.8803074,False,NONE
2019-10-25 09:42:36.980,LG-H970,1571996556988.5,6.543,16.705,-0.085,41.1077959,16.8803074,False,NONE
2019-10-25 09:42:37.000,LG-H970,1571996557008.75,-0.011,10.512,-2.886,41.1077959,16.8803074,False,NONE
2019-10-25 09:42:37.020,LG-H970,1571996557028.5,-2.746,9.471,-2.574,41.1077959,16.8803074,False,NONE
2019-10-25 09:42:37.040,LG-H970,1571996557048.5,-0.833,8.948,-3.364,41.1077959,16.8803074,False,NONE
2019-10-25 09:42:37.060,LG-H970,1571996557067.5,0.144,7.889,-1.167,41.1077959,16.8803074,False,NONE
2019-10-25 09:42:37.080,LG-H970,1571996557087.75,0.103,8.601,-0.49,41.1077959,16.8803074,False,NONE
2019-10-25 09:42:37.100,LG-H970,1571996557111.6,-2.348,7.915,-1.437,41.1077959,16.8803074,False,NONE
2019-10-25 09:42:37.120,LG-H970,1571996557133.75,-4.112,8.764,-2.819,41.1077959,16.8803074,False,NONE
2019-10-25 09:42:37.140,LG-H970,1571996557151.5,-4.337,6.728,-2.42,41.1077959,16.8803074,False,NONE
2019-10-25 09:42:37.160,LG-H970,1571996557171.5,-3.4,7.213,-1.117,41.1077959,16.8803074,False,NONE
2019-10-25 09:42:37.180,LG-H970,1571996557188.3333,-3.823,7.608,-1.932,41.1077959,16.8803074,False,NONE
2019-10-25 09:42:37.200,LG-H970,1571996557209.0,-4.975,8.351,-1.07,41.1077959,16.8803074,False,NONE
2019-10-25 09:42:37.220,LG-H970,1571996557230.5,-4.533,7.52,-2.266,41.1077959,16.8803074,False,NONE
2019-10-25 09:42:37.240,LG-H970,1571996557250.0,-2.609,8.015,-1.671,41.1077959,16.8803074,False,NONE
2019-10-25 09:42:37.260,LG-H970,1571996557269.75,-1.832,7.423,-2.077,41.1077959,16.8803074,False,NONE
2019-10-25 09:42:37.280,LG-H970,1571996557289.5,-1.599,9.229,-0.732,41.1077959,16.8803074,False,NONE
2019-10-25 09:42:37.300,LG-H970,1571996557309.25,-1.741,9.07,-1.312,41.1077959,16.8803074,False,NONE
2019-10-25 09:42:37.320,LG-H970,1571996557326.3333,-0.815,9.034,-1.106,41.1077959,16.8803074,False,NONE
2019-10-25 09:42:37.340,LG-H970,1571996557345.5,-0.268,8.531,-1.436,41.1077959,16.8803074,False,NONE
2019-10-25 09:42:37.360,LG-H970,1571996557368.0,-0.8,8.662,-1.599,41.1077959,16.8803074,False,NONE
2019-10-25 09:42:37.380,LG-H970,1571996557393.5,-1.044,9.59,-1.46,41.1077959,16.8803074,False,NONE
2019-10-25 09:42:37.400,LG-H970,1571996557407.5,-0.556,9.603,-0.517,41.1077959,16.8803074,False,NONE
2019-10-25 09:42:37.420,LG-H970,1571996557430.5,-0.099,9.242,-0.819,41.1077959,16.8803074,False,NONE
2019-10-25 09:42:37.440,LG-H970,1571996557448.0,-0.114,9.626,-1.039,41.1077959,16.8803074,False,NONE
2019-10-25 09:42:37.460,LG-H970,1571996557469.2,-0.58,9.436,-1.451,41.1077959,16.8803074,False,NONE
2019-10-25 09:42:37.480,LG-H970,1571996557491.5,-0.429,10.001,-0.654,41.1077959,16.8803074,False,NONE
2019-10-25 09:42:37.500,LG-H970,1571996557506.5,-0.696,9.891,0.099,41.1077959,16.8803074,False,NONE
2019-10-25 09:42:37.520,LG-H970,1571996557527.5,-0.723,10.678,0.018,41.1077959,16.8803074,True,NONE
2019-10-25 09:42:37.540,LG-H970,1571996557550.5,-1.727,10.05,0.851,41.1077959,16.8803074,True,NONE
2019-10-25 09:42:37.560,LG-H970,1571996557570.5,-2.204,10.42,0.307,41.1077959,16.8803074,False,NONE
2019-10-25 09:42:37.580,LG-H970,1571996557590.75,-1.125,10.41,-0.994,41.1077959,16.8803074,False,NONE
2019-10-25 09:42:37.600,LG-H970,1571996557610.25,0.181,10.486,-2.266,41.1077959,16.8803074,False,NONE
2019-10-25 09:42:37.620,LG-H970,1571996557629.75,-0.354,9.284,-1.63,41.1077959,16.8803074,False,NONE
2019-10-25 09:42:37.640,LG-H970,1571996557649.5,-0.893,8.457,-1.618,41.1077959,16.8803074,False,NONE
2019-10-25 09:42:37.660,LG-H970,1571996557669.0,-0.338,7.876,0.777,41.1077959,16.8803074,False,NONE
2019-10-25 09:42:37.680,LG-H970,1571996557688.75,3.021,12.933,-2.82,41.1077959,16.8803074,False,NONE
2019-10-25 09:42:37.700,LG-H970,1571996557708.75,3.264,10.362,-4.397,41.1077959,16.8803074,False,NONE
2019-10-25 09:42:37.720,LG-H970,1571996557728.5,6.166,10.907,-4.512,41.1077959,16.8803074,False,NONE
2019-10-25 09:42:37.740,LG-H970,1571996557747.75,4.382,5.642,-5.005,41.1077959,16.8803074,False,NONE
2019-10-25 09:42:37.760,LG-H970,1571996557767.5,2.694,11.954,-4.928,41.1077959,16.8803074,False,NONE
2019-10-25 09:42:37.780,LG-H970,1571996557787.5,1.922,12.293,-4.69,41.1077959,16.8803074,False,NONE
2019-10-25 09:42:37.800,LG-H970,1571996557807.0,2.604,11.26,0.351,41.1077959,16.8803074,False,NONE
2019-10-25 09:42:37.820,LG-H970,1571996557829.2,2.643,11.801,-1.696,41.1077959,16.8803074,False,NONE
2019-10-25 09:42:37.840,LG-H970,1571996557851.5,-0.263,12.269,-2.666,41.1077959,16.8803074,False,NONE
2019-10-25 09:42:37.860,LG-H970,1571996557871.5,-0.845,12.618,-1.267,41.1077959,16.8803074,False,NONE
2019-10-25 09:42:37.880,LG-H970,1571996557891.0,-0.535,9.982,-0.901,41.1077959,16.8803074,False,NONE
2019-10-25 09:42:37.900,LG-H970,1571996557910.75,-1.386,10.387,1.463,41.1077959,16.8803074,False,NONE
2019-10-25 09:42:37.920,LG-H970,1571996557930.5,-4.113,9.551,-0.842,41.1077959,16.8803074,False,NONE
2019-10-25 09:42:37.940,LG-H970,1571996557950.25,-4.046,10.419,-0.171,41.1077959,16.8803074,False,NONE
2019-10-25 09:42:37.960,LG-H970,1571996557969.5,-2.133,8.396,-0.809,41.1077959,16.8803074,False,NONE
2019-10-25 09:42:37.980,LG-H970,1571996557989.75,-1.642,8.026,0.478,41.1077959,16.8803074,False,NONE
2019-10-25 09:42:38.000,LG-H970,1571996558009.5,-3.633,8.544,0.346,41.1077959,16.8803074,False,NONE
2019-10-25 09:42:38.020,LG-H970,1571996558028.75,-3.71,9.567,-0.087,41.1077959,16.8803074,False,NONE
2019-10-25 09:42:38.040,LG-H970,1571996558048.75,-1.109,8.966,0.112,41.1077959,16.8803074,False,NONE
2019-10-25 09:42:38.060,LG-H970,1571996558068.5,-0.541,8.215,0.16,41.1077959,16.8803074,False,NONE
2019-10-25 09:42:38.080,LG-H970,1571996558088.75,-1.671,9.343,-0.603,41.1077959,16.8803074,False,NONE
2019-10-25 09:42:38.100,LG-H970,1571996558108.25,-1.438,8.938,-0.577,41.1077959,16.8803074,False,NONE
2019-10-25 09:42:38.120,LG-H970,1571996558127.5,0.008,8.425,-0.827,41.1077959,16.8803074,False,NONE
2019-10-25 09:42:38.140,LG-H970,1571996558147.5,-0.511,8.752,-1.377,41.1077959,16.8803074,False,NONE
2019-10-25 09:42:38.160,LG-H970,1571996558169.6,-2.241,8.959,-1.378,41.1077959,16.8803074,False,NONE
2019-10-25 09:42:38.180,LG-H970,1571996558191.75,-1.386,9.496,-1.513,41.1077959,16.8803074,False,NONE
2019-10-25 09:42:38.200,LG-H970,1571996558211.5,0.263,9.138,-1.046,41.1077959,16.8803074,False,NONE
2019-10-25 09:42:38.220,LG-H970,1571996558231.25,0.528,9.543,-1.496,41.1077959,16.8803074,False,NONE
2019-10-25 09:42:38.240,LG-H970,1571996558250.75,-1.226,9.918,-2.672,41.1077959,16.8803074,False,NONE
2019-10-25 09:42:38.260,LG-H970,1571996558271.0,-1.604,11.122,-3.114,41.1077959,16.8803074,False,NONE
2019-10-25 09:42:38.280,LG-H970,1571996558287.1667,0.375,10.001,-4.025,41.1077959,16.8803074,False,NONE
2019-10-25 09:42:38.300,LG-H970,1571996558309.75,2.393,9.776,-2.189,41.1077959,16.8803074,False,NONE
2019-10-25 09:42:38.320,LG-H970,1571996558329.75,0.526,10.236,-3.592,41.1077959,16.8803074,False,NONE
2019-10-25 09:42:38.340,LG-H970,1571996558349.5,-1.306,11.153,-3.107,41.1077959,16.8803074,False,NONE
2019-10-25 09:42:38.360,LG-H970,1571996558369.5,-0.642,8.825,-2.798,41.1077959,16.8803074,False,NONE
2019-10-25 09:42:38.380,LG-H970,1571996558388.5,0.628,8.935,-2.585,41.1077959,16.8803074,False,NONE
2019-10-25 09:42:38.400,LG-H970,1571996558408.75,-0.109,9.224,-2.587,41.1077959,16.8803074,False,NONE
2019-10-25 09:42:38.420,LG-H970,1571996558428.5,-0.791,9.126,-2.463,41.1077959,16.8803074,False,NONE
2019-10-25 09:42:38.440,LG-H970,1571996558448.0,-0.077,10.042,-0.659,41.1077959,16.8803074,False,NONE
2019-10-25 09:42:38.460,LG-H970,1571996558467.5,-0.299,8.289,-1.067,41.1077959,16.8803074,False,NONE
2019-10-25 09:42:38.480,LG-H970,1571996558487.5,-0.995,9.204,-1.42,41.1077959,16.8803074,False,NONE
2019-10-25 09:42:38.500,LG-H970,1571996558509.8,-1.418,9.1,-1.67,41.1077959,16.8803074,False,NONE
2019-10-25 09:42:38.520,LG-H970,1571996558531.75,0.619,11.471,-0.905,41.1077959,16.8803074,False,NONE
2019-10-25 09:42:38.540,LG-H970,1571996558551.75,0.964,8.657,0.345,41.1077959,16.8803074,False,NONE
2019-10-25 09:42:38.560,LG-H970,1571996558571.5,-0.271,7.876,-0.015,41.1077959,16.8803074,False,NONE
2019-10-25 09:42:38.580,LG-H970,1571996558591.0,-2.878,9.177,-4.269,41.1077959,16.8803074,False,NONE
2019-10-25 09:42:38.600,LG-H970,1571996558610.5,-2.455,9.955,-2.621,41.1077959,16.8803074,False,NONE
2019-10-25 09:42:38.620,LG-H970,1571996558630.5,2.501,9.801,0.647,41.1077959,16.8803074,False,NONE
2019-10-25 09:42:38.640,LG-H970,1571996558650.5,4.895,10.947,1.807,41.1077959,16.8803074,False,NONE
2019-10-25 09:42:38.660,LG-H970,1571996558669.5,1.419,13.155,1.282,41.1077959,16.8803074,False,NONE
2019-10-25 09:42:38.680,LG-H970,1571996558689.5,-1.905,12.671,-1.912,41.1077959,16.8803074,False,NONE
2019-10-25 09:42:38.700,LG-H970,1571996558709.5,0.771,11.551,-1.155,41.1077959,16.8803074,False,NONE
2019-10-25 09:42:38.720,LG-H970,1571996558728.75,4.023,9.894,-0.776,41.1077959,16.8803074,False,NONE
2019-10-25 09:42:38.740,LG-H970,1571996558748.5,2.264,10.992,0.485,41.1077959,16.8803074,False,NONE
2019-10-25 09:42:38.760,LG-H970,1571996558768.5,-2.227,12.912,-2.607,41.1077959,16.8803074,False,NONE
2019-10-25 09:42:38.780,LG-H970,1571996558788.5,-1.81,12.466,-2.55,41.1077959,16.8803074,False,NONE
2019-10-25 09:42:38.800,LG-H970,1571996558808.0,1.495,7.301,-2.375,41.1077959,16.8803074,False,NONE
2019-10-25 09:42:38.820,LG-H970,1571996558827.5,2.282,8.197,-1.488,41.1077959,16.8803074,False,NONE
2019-10-25 09:42:38.840,LG-H970,1571996558847.5,-0.976,10.131,-3.653,41.1077959,16.8803074,False,NONE
2019-10-25 09:42:38.860,LG-H970,1571996558869.6,-1.939,11.791,-1.356,41.1077959,16.8803074,False,NONE
2019-10-25 09:42:38.880,LG-H970,1571996558891.5,0.848,8.87,-0.565,41.1077959,16.8803074,False,NONE
2019-10-25 09:42:38.900,LG-H970,1571996558911.5,0.69,8.363,-0.499,41.1077959,16.8803074,False,NONE
2019-10-25 09:42:38.920,LG-H970,1571996558931.0,-2.518,9.358,-3.47,41.1077959,16.8803074,False,NONE
2019-10-25 09:42:38.940,LG-H970,1571996558950.5,-3.474,9.095,-2.485,41.1077959,16.8803074,False,NONE
2019-10-25 09:42:38.960,LG-H970,1571996558970.5,-0.562,8.413,-0.997,41.1077959,16.8803074,False,NONE
2019-10-25 09:42:38.980,LG-H970,1571996558990.5,0.903,8.358,-0.126,41.1077959,16.8803074,False,NONE
2019-10-25 09:42:39.000,LG-H970,1571996559010.25,-0.641,9.45,-0.353,41.1077959,16.8803074,False,NONE
