UTC_timestamp,device_name,timestamp,x,y,z,lat,long,event,speed
2019-10-26 10:40:53.760,LG-H970,1572086453769.3333,-2.002,12.615,-1.36,41.1040218,16.8799975,False,NONE
2019-10-26 10:40:53.780,LG-H970,1572086453789.6,-0.852,10.871,-1.868,41.1040218,16.8799975,False,NONE
2019-10-26 10:40:53.800,LG-H970,1572086453811.5,2.851,8.009,-1.057,41.1040218,16.8799975,False,NONE
2019-10-26 10:40:53.820,LG-H970,1572086453831.5,2.047,7.928,0.872,41.1040218,16.8799975,False,NONE
2019-10-26 10:40:53.840,LG-H970,1572086453851.25,-1.239,11.317,-1.109,41.1040218,16.8799975,False,NONE
2019-10-26 10:40:53.860,LG-H970,1572086453870.5,-3.385,12.919,-0.919,41.1040218,16.8799975,False,NONE
2019-10-26 10:40:53.880,LG-H970,1572086453890.75,-1.808,10.28,0.739,41.1040218,16.8799975,False,NONE
2019-10-26 10:40:53.900,LG-H970,1572086453911.0,1.746,7.932,0.124,41.1040218,16.8799975,False,NONE
2019-10-26 10:40:53.920,LG-H970,1572086453929.75,0.355,8.257,-1.218,41.1040218,16.8799975,False,NONE
2019-10-26 10:40:53.940,LG-H970,1572086453949.5,-3.249,8.959,-2.198,41.1040218,16.8799975,False,NONE
2019-10-26 10:40:53.960,LG-H970,1572086453969.5,-2.813,11.31,-0.443,41.1040218,16.8799975,False,NONE
2019-10-26 10:40:53.980,LG-H970,1572086453989.25,-1.346,10.233,2.204,41.1040218,16.8799975,False,NONE
2019-10-26 10:40:54.000,LG-H970,1572086454009.25,-0.396,8.294,1.048,41.1040218,16.8799975,False,NONE
2019-10-26 10:40:54.020,LG-H970,1572086454029.0,-1.51,10.217,-0.573,41.1040218,16.8799975,False,NONE
2019-10-26 10:40:54.040,LG-H970,1572086454048.75,-2.422,10.452,-2.178,41.1040218,16.8799975,False,NONE
2019-10-26 10:40:54.060,LG-H970,1572086454068.5,-1.683,9.428,0.913,41.1040218,16.8799975,False,NONE
2019-10-26 10:40:54.080,LG-H970,1572086454088.5,-1.167,8.482,0.475,41.1040218,16.8799975,False,NONE
2019-10-26 10:40:54.100,LG-H970,1572086454109.2,-1.46,10.283,-0.093,41.1040218,16.8799975,False,NONE
2019-10-26 10:40:54.120,LG-H970,1572086454131.5,-3.562,9.204,-1.455,41.1040218,16.8799975,False,NONE
2019-10-26 10:40:54.140,LG-H970,1572086454151.25,-1.359,9.159,0.07,41.1040218,16.8799975,False,NONE
2019-10-26 10:40:54.160,LG-H970,1572086454171.0,-1.024,7.315,-1.093,41.1040218,16.8799975,False,NONE
2019-10-26 10:40:54.180,LG-H970,1572086454191.75,-1.607,10.873,-0.047,41.1040218,16.8799975,False,NONE
2019-10-26 10:40:54.200,LG-H970,1572086454208.6667,-2.532,10.583,-0.924,41.1040218,16.8799975,False,NONE
2019-10-26 10:40:54.220,LG-H970,1572086454228.4,-1.572,9.874,-0.122,41.1040218,16.8799975,False,NONE
2019-10-26 10:40:54.240,LG-H970,1572086454255.3333,0.076,8.997,-1.827,41.1040218,16.8799975,False,NONE
2019-10-26 10:40:54.260,LG-H970,1572086454270.0,-1.241,8.853,0.918,41.1040218,16.8799975,False,NONE
2019-10-26 10:40:54.280,LG-H970,1572086454289.25,-0.307,12.135,0.184,41.1040218,16.8799975,False,NONE
2019-10-26 10:40:54.300,LG-H970,1572086454309.5,-1.638,10.679,0.728,41.1040218,16.8799975,False,NONE
2019-10-26 10:40:54.320,LG-H970,1572086454329.25,0.499,8.989,-0.809,41.1040218,16.8799975,False,NONE
2019-10-26 10:40:54.340,LG-H970,1572086454348.75,1.826,9.515,-1.713,41.1040218,16.8799975,False,NONE
2019-10-26 10:40:54.360,LG-H970,1572086454369.0,0.037,9.921,2.389,41.1040218,16.8799975,False,NONE
2019-10-26 10:40:54.380,LG-H970,1572086454388.75,-4.092,9.794,0.257,41.1040218,16.8799975,False,NONE
2019-10-26 10:40:54.400,LG-H970,1572086454409.0,-2.587,13.324,-1.734,41.1040218,16.8799975,False,NONE
2019-10-26 10:40:54.420,LG-H970,1572086454427.5,-0.162,7.691,-1.046,41.1040218,16.8799975,False,NONE
2019-10-26 10:40:54.440,LG-H970,1572086454447.25,2.965,8.446,2.861,41.1040218,16.8799975,False,NONE
2019-10-26 10:40:54.460,LG-H970,1572086454467.5,-1.389,7.977,-0.045,41.1040218,16.8799975,False,NONE
2019-10-26 10:40:54.480,LG-H970,1572086454490.6,-3.572,13.229,-2.095,41.1040218,16.8799975,False,NONE
2019-10-26 10:40:54.500,LG-H970,1572086454511.75,-2.328,12.401,1.302,41.1040218,16.8799975,False,NONE
2019-10-26 10:40:54.520,LG-H970,1572086454531.25,3.679,9.266,2.509,41.1040218,16.8799975,False,NONE
2019-10-26 10:40:54.540,LG-H970,1572086454551.0,1.852,6.401,0.279,41.1040218,16.8799975,False,NONE
2019-10-26 10:40:54.560,LG-H970,1572086454570.5,-3.258,10.928,-3.938,41.1040218,16.8799975,False,NONE
2019-10-26 10:40:54.580,LG-H970,1572086454591.25,-4.069,11.341,-0.671,41.1040218,16.8799975,False,NONE
2019-10-26 10:40:54.600,LG-H970,1572086454609.75,0.779,10.38,4.148,41.1040218,16.8799975,False,NONE
2019-10-26 10:40:54.620,LG-H970,1572086454630.0,1.292,10.832,2.799,41.1040218,16.8799975,False,NONE
2019-10-26 10:40:54.640,LG-H970,1572086454650.0,-3.542,12.002,-3.265,41.1040218,16.8799975,False,NONE
2019-10-26 10:40:54.660,LG-H970,1572086454669.5,-3.965,9.118,-1.076,41.1040218,16.8799975,False,NONE
2019-10-26 10:40:54.680,LG-H970,1572086454689.0,1.366,6.404,-0.477,41.1040218,16.8799975,False,NONE
2019-10-26 10:40:54.700,LG-H970,1572086454709.5,-0.06,8.562,-0.349,41.1040218,16.8799975,False,NONE
2019-10-26 10:40:54.720,LG-H970,1572086454729.0,-4.371,11.637,0.904,41.1040218,16.8799975,False,NONE
2019-10-26 10:40:54.740,LG-H970,1572086454748.5,-3.69,11.385,-0.477,41.1040218,16.8799975,False,NONE
2019-10-26 10:40:54.760,LG-H970,1572086454768.25,2.172,11.82,0.519,41.1040218,16.8799975,False,NONE
2019-10-26 10:40:54.780,LG-H970,1572086454787.5,1.474,6.184,-2.539,41.1040218,16.8799975,False,NONE
2019-10-26 10:40:54.800,LG-H970,1572086454807.75,-0.898,7.988,1.066,41.1040218,16.8799975,False,NONE
2019-10-26 10:40:54.820,LG-H970,1572086454827.0,-2.008,9.172,-0.611,41.1040218,16.8799975,False,NONE
2019-10-26 10:40:54.840,LG-H970,1572086454847.0,1.675,13.52,2.07,41.1040218,16.8799975,False,NONE
2019-10-26 10:40:54.860,LG-H970,1572086454867.0,-2.346,11.348,-2.227,41.1040218,16.8799975,False,NONE
2019-10-26 10:40:54.880,LG-H970,1572086454886.5,-2.458,10.881,0.79,41.1040218,16.8799975,False,NONE
2019-10-26 10:40:54.900,LG-H970,1572086454909.6,2.082,4.268,-0.255,41.1040218,16.8799975,False,NONE
2019-10-26 10:40:54.920,LG-H970,1572086454930.75,2.265,10.34,0.612,41.1040218,16.8799975,False,NONE
2019-10-26 10:40:54.940,LG-H970,1572086454950.75,-3.851,12.525,-3.423,41.1040218,16.8799975,False,NONE
2019-10-26 10:40:54.960,LG-H970,1572086454970.0,-2.667,12.496,1.367,41.1040218,16.8799975,False,NONE
2019-10-26 10:40:54.980,LG-H970,1572086454990.0,3.238,8.19,0.952,41.1040218,16.8799975,False,NONE
2019-10-26 10:40:55.000,LG-H970,1572086455008.5,2.957,9.785,2.117,41.1040218,16.8799975,False,NONE
2019-10-26 10:40:55.020,LG-H970,1572086455029.5,-4.287,10.474,-2.079,41.1040218,16.8799975,False,NONE
2019-10-26 10:40:55.040,LG-H970,1572086455049.0,-3.127,10.354,-1.493,41.1040218,16.8799975,False,NONE
2019-10-26 10:40:55.060,LG-H970,1572086455068.5,1.463,9.651,-1.052,41.1040218,16.8799975,False,NONE
2019-10-26 10:40:55.080,LG-H970,1572086455088.5,1.583,10.238,2.66,41.1040218,16.8799975,False,NONE
2019-10-26 10:40:55.100,LG-H970,1572086455108.25,-1.64,11.023,0.446,41.1040218,16.8799975,False,NONE
2019-10-26 10:40:55.120,LG-H970,1572086455128.25,-1.68,11.583,-1.288,41.1040218,16.8799975,False,NONE
2019-10-26 10:40:55.140,LG-H970,1572086455147.75,-0.722,9.156,-1.63,41.1040218,16.8799975,False,NONE
2019-10-26 10:40:55.160,LG-H970,1572086455167.75,-0.376,7.414,-0.046,41.1040218,16.8799975,False,NONE
2019-10-26 10:40:55.180,LG-H970,1572086455189.6,-1.192,9.311,0.534,41.1040218,16.8799975,False,NONE
2019-10-26 10:40:55.200,LG-H970,1572086455211.75,-3.114,10.018,-1.573,41.1040218,16.8799975,False,NONE
2019-10-26 10:40:55.220,LG-H970,1572086455231.5,-2.826,9.093,0.058,41.1040218,16.8799975,False,NONE
2019-10-26 10:40:55.240,LG-H970,1572086455251.5,-1.077,8.587,-0.815,41.1040218,16.8799975,False,NONE
2019-10-26 10:40:55.260,LG-H970,1572086455270.75,0.388,10.166,0.033,41.1040218,16.8799975,False,NONE
2019-10-26 10:40:55.280,LG-H970,1572086455290.5,-0.794,11.453,1.568,41.1040218,16.8799975,False,NONE
2019-10-26 10:40:55.300,LG-H970,1572086455310.25,-2.055,11.827,0.565,41.1040218,16.8799975,False,NONE
2019-10-26 10:40:55.320,LG-H970,1572086455330.25,-0.822,10.945,0.376,41.1040218,16.8799975,False,NONE
2019-10-26 10:40:55.340,LG-H970,1572086455349.75,-0.123,9.448,0.119,41.1040218,16.8799975,False,NONE
2019-10-26 10:40:55.360,LG-H970,1572086455369.5,-0.415,9.723,-1.74,41.1040218,16.8799975,False,NONE
2019-10-26 10:40:55.380,LG-H970,1572086455389.75,-0.636,12.818,0.719,41.1040218,16.8799975,False,NONE
2019-10-26 10:40:55.400,LG-H970,1572086455411.0,-0.975,11.028,2.428,41.1040218,16.8799975,False,NONE
2019-10-26 10:40:55.420,LG-H970,1572086455427.75,-0.293,10.387,0.204,41.1040218,16.8799975,False,NONE
2019-10-26 10:40:55.440,LG-H970,1572086455447.5,-0.542,10.934,-0.37,41.1040218,16.8799975,False,NONE
2019-10-26 10:40:55.460,LG-H970,1572086455467.5,-1.505,9.375,-1.156,41.1040218,16.8799975,False,NONE
2019-10-26 10:40:55.480,LG-H970,1572086455487.25,-0.257,11.136,0.333,41.1040218,16.8799975,False,NONE
2019-10-26 10:40:55.500,LG-H970,1572086455507.75,-1.152,9.88,-2.5,41.1040218,16.8799975,False,NONE
2019-10-26 10:40:55.520,LG-H970,1572086455527.0,-0.541,8.603,1.181,41.1040218,16.8799975,False,NONE
2019-10-26 10:40:55.540,LG-H970,1572086455549.2,2.753,6.262,-1.943,41.1040218,16.8799975,False,NONE
2019-10-26 10:40:55.560,LG-H970,1572086455571.75,0.041,10.168,0.837,41.1040218,16.8799975,False,NONE
2019-10-26 10:40:55.580,LG-H970,1572086455589.3333,-2.325,12.653,-3.269,41.1040218,16.8799975,False,NONE
2019-10-26 10:40:55.600,LG-H970,1572086455606.0,-3.689,10.265,1.23,41.1040218,16.8799975,False,NONE
2019-10-26 10:40:55.620,LG-H970,1572086455628.4,0.935,8.317,0.405,41.1040218,16.8799975,False,NONE
2019-10-26 10:40:55.640,LG-H970,1572086455650.25,-0.251,8.222,0.358,41.1040218,16.8799975,False,NONE
2019-10-26 10:40:55.660,LG-H970,1572086455670.25,-1.66,9.96,-1.79,41.1040218,16.8799975,False,NONE
2019-10-26 10:40:55.680,LG-H970,1572086455689.75,-1.64,10.436,-1.395,41.1040218,16.8799975,False,NONE
2019-10-26 10:40:55.700,LG-H970,1572086455709.75,-2.914,8.654,3.942,41.1040218,16.8799975,False,NONE
2019-10-26 10:40:55.720,LG-H970,1572086455729.5,0.221,10.769,-0.256,41.1040218,16.8799975,False,NONE
2019-10-26 10:40:55.740,LG-H970,1572086455749.0,-2.619,9.937,0.847,41.1040218,16.8799975,False,NONE
2019-10-26 10:40:55.760,LG-H970,1572086455768.75,-0.188,10.554,-2.822,41.1040218,16.8799975,False,NONE
2019-10-26 10:40:55.780,LG-H970,1572086455788.5,-2.236,7.402,-0.811,41.1040218,16.8799975,False,NONE
2019-10-26 10:40:55.800,LG-H970,1572086455807.75,-1.961,9.157,-0.539,41.1040218,16.8799975,False,NONE
2019-10-26 10:40:55.820,LG-H970,1572086455827.5,-0.135,9.409,-0.997,41.1040218,16.8799975,False,NONE
2019-10-26 10:40:55.840,LG-H970,1572086455847.75,0.054,10.37,-0.156,41.1040218,16.8799975,False,NONE
2019-10-26 10:40:55.860,LG-H970,1572086455869.8,-0.378,10.684,0.221,41.1040218,16.8799975,False,NONE
2019-10-26 10:40:55.880,LG-H970,1572086455891.75,-0.877,10.35,-0.259,41.1040218,16.8799975,False,NONE
2019-10-26 10:40:55.900,LG-H970,1572086455911.0,0.004,11.028,-0.162,41.1040218,16.8799975,False,NONE
2019-10-26 10:40:55.920,LG-H970,1572086455930.75,1.515,9.836,0.191,41.1040218,16.8799975,False,NONE
2019-10-26 10:40:55.940,LG-H970,1572086455950.5,1.023,9.937,-0.91,41.1040218,16.8799975,False,NONE
2019-10-26 10:40:55.960,LG-H970,1572086455970.5,-1.608,11.221,-0.455,41.1040218,16.8799975,False,NONE
2019-10-26 10:40:55.980,LG-H970,1572086455990.5,-1.799,11.333,-0.347,41.1040218,16.8799975,False,NONE
2019-10-26 10:40:56.000,LG-H970,1572086456007.3333,0.446,11.283,1.319,41.1040218,16.8799975,False,NONE
2019-10-26 10:40:56.020,LG-H970,1572086456030.25,0.377,9.002,1.491,41.1040218,16.8799975,False,NONE
2019-10-26 10:40:56.040,LG-H970,1572086456048.5,0.496,9.877,1.294,41.1040218,16.8799975,False,NONE
2019-10-26 10:40:56.060,LG-H970,1572086456068.75,-0.452,10.496,-1.445,41.1040218,16.8799975,False,NONE
2019-10-26 10:40:56.080,LG-H970,1572086456088.5,-2.434,11.48,-0.796,41.1040218,16.8799975,False,NONE
2019-10-26 10:40:56.100,LG-H970,1572086456108.75,-0.864,9.06,1.645,41.1040218,16.8799975,False,NONE
2019-10-26 10:40:56.120,LG-H970,1572086456128.5,1.199,5.952,-0.544,41.1040218,16.8799975,False,NONE
2019-10-26 10:40:56.140,LG-H970,1572086456147.5,0.039,10.926,-0.573,41.1040218,16.8799975,False,NONE
2019-10-26 10:40:56.160,LG-H970,1572086456168.0,-1.52,10.387,-3.583,41.1040218,16.8799975,False,NONE
2019-10-26 10:40:56.180,LG-H970,1572086456187.5,0.228,7.081,3.745,41.1040218,16.8799975,False,NONE
2019-10-26 10:40:56.200,LG-H970,1572086456207.5,2.037,9.478,0.349,41.1040218,16.8799975,False,NONE
2019-10-26 10:40:56.220,LG-H970,1572086456227.0,-3.515,10.968,-1.546,41.1040218,16.8799975,False,NONE
2019-10-26 10:40:56.240,LG-H970,1572086456249.6,-2.29,10.61,-1.398,41.1040218,16.8799975,False,NONE
2019-10-26 10:40:56.260,LG-H970,1572086456271.5,1.709,6.395,-1.621,41.1040218,16.8799975,False,NONE
2019-10-26 10:40:56.280,LG-H970,1572086456290.5,1.712,10.213,3.187,41.1040218,16.8799975,False,NONE
2019-10-26 10:40:56.300,LG-H970,1572086456310.75,-0.576,12.477,-0.587,41.1040218,16.8799975,False,NONE
2019-10-26 10:40:56.320,LG-H970,1572086456330.25,-2.431,12.581,2.779,41.1040218,16.8799975,False,NONE
2019-10-26 10:40:56.340,LG-H970,1572086456350.0,0.502,9.369,-2.23,41.1040218,16.8799975,False,NONE
2019-10-26 10:40:56.360,LG-H970,1572086456369.75,0.182,9.245,-0.439,41.1040218,16.8799975,False,NONE
2019-10-26 10:40:56.380,LG-H970,1572086456390.0,-0.673,9.223,-2.157,41.1040218,16.8799975,False,NONE
2019-10-26 10:40:56.400,LG-H970,1572086456410.25,-0.931,11.45,0.833,41.1040218,16.8799975,False,NONE
2019-10-26 10:40:56.420,LG-H970,1572086456431.0,0.25,12.344,0.1,41.1040218,16.8799975,False,NONE
2019-10-26 10:40:56.440,LG-H970,1572086456448.5,-2.109,11.017,2.11,41.1040218,16.8799975,False,NONE
2019-10-26 10:40:56.460,LG-H970,1572086456468.75,-0.502,9.49,-0.24,41.1040218,16.8799975,False,NONE
2019-10-26 10:40:56.480,LG-H970,1572086456488.25,-1.178,7.66,-1.989,41.1039952,16.8796442,False,NONE
2019-10-26 10:40:56.500,LG-H970,1572086456509.8,-1.165,10.445,-1.966,41.1039864,16.8795265,False,NONE
2019-10-26 10:40:56.520,LG-H970,1572086456530.3333,-2.145,10.166,0.306,41.1039864,16.8795265,False,NONE
2019-10-26 10:40:56.540,LG-H970,1572086456548.75,0.142,10.205,3.044,41.1039864,16.8795265,False,NONE
2019-10-26 10:40:56.560,LG-H970,1572086456569.25,-0.129,8.331,-1.036,41.1039864,16.8795265,False,NONE
2019-10-26 10:40:56.580,LG-H970,1572086456588.25,-0.898,10.748,-0.685,41.1039864,16.8795265,False,NONE
2019-10-26 10:40:56.600,LG-H970,1572086456608.0,-2.262,7.473,-2.634,41.1039864,16.8795265,False,NONE
2019-10-26 10:40:56.620,LG-H970,1572086456629.25,-1.438,7.538,1.8,41.1039864,16.8795265,False,NONE
2019-10-26 10:40:56.640,LG-H970,1572086456648.75,1.858,10.715,0.322,41.1039864,16.8795265,False,NONE
2019-10-26 10:40:56.660,LG-H970,1572086456668.25,-2.837,10.378,1.886,41.1039864,16.8795265,False,NONE
2019-10-26 10:40:56.680,LG-H970,1572086456689.8,-2.673,10.506,-1.874,41.1039864,16.8795265,False,NONE
2019-10-26 10:40:56.700,LG-H970,1572086456710.0,0.615,7.93,-3.369,41.1039864,16.8795265,False,NONE
2019-10-26 10:40:56.720,LG-H970,1572086456727.5,2.086,7.74,1.733,41.1039864,16.8795265,False,NONE
2019-10-26 10:40:56.740,LG-H970,1572086456747.0,1.72,9.895,0.441,41.1039864,16.8795265,False,NONE
2019-10-26 10:40:56.760,LG-H970,1572086456767.0,-0.72,11.031,-0.156,41.1039864,16.8795265,False,NONE
2019-10-26 10:40:56.780,LG-H970,1572086456789.0,1.373,12.228,0.09,41.1039864,16.8795265,False,NONE
2019-10-26 10:40:56.800,LG-H970,1572086456811.75,2.808,7.799,-1.889,41.1039864,16.8795265,False,NONE
2019-10-26 10:40:56.820,LG-H970,1572086456831.25,1.003,7.702,0.034,41.1039864,16.8795265,False,NONE
2019-10-26 10:40:56.840,LG-H970,1572086456851.25,0.298,9.745,-3.056,41.1039864,16.8795265,False,NONE
2019-10-26 10:40:56.860,LG-H970,1572086456870.25,-1.296,10.909,0.608,41.1039864,16.8795265,False,NONE
2019-10-26 10:40:56.880,LG-H970,1572086456889.5,-0.488,12.128,1.552,41.1039864,16.8795265,False,NONE
2019-10-26 10:40:56.900,LG-H970,1572086456910.5,0.748,11.155,0.957,41.1039864,16.8795265,False,NONE
2019-10-26 10:40:56.920,LG-H970,1572086456930.0,-1.276,9.112,0.599,41.1039864,16.8795265,False,NONE
2019-10-26 10:40:56.940,LG-H970,1572086456950.25,-3.611,10.11,-1.624,41.1039864,16.8795265,False,NONE
2019-10-26 10:40:56.960,LG-H970,1572086456969.75,-3.84,10.936,-1.333,41.1039864,16.8795265,False,NONE
2019-10-26 10:40:56.980,LG-H970,1572086456990.0,-2.217,10.315,1.103,41.1039864,16.8795265,False,NONE
2019-10-26 10:40:57.000,LG-H970,1572086457009.5,-2.002,10.084,1.61,41.1039864,16.8795265,False,NONE
2019-10-26 10:40:57.020,LG-H970,1572086457029.25,-2.752,9.61,-0.028,41.1039864,16.8795265,False,NONE
2019-10-26 10:40:57.040,LG-H970,1572086457048.0,-2.539,7.769,-1.334,41.1039864,16.8795265,False,NONE
2019-10-26 10:40:57.060,LG-H970,1572086457070.3333,-1.613,7.129,-1.817,41.1039864,16.8795265,False,NONE
2019-10-26 10:40:57.080,LG-H970,1572086457089.4,-1.576,9.853,0.439,41.1039864,16.8795265,False,NONE
2019-10-26 10:40:57.100,LG-H970,1572086457109.0,-0.884,11.395,0.982,41.1039864,16.8795265,False,NONE
2019-10-26 10:40:57.120,LG-H970,1572086457129.8,-0.661,11.301,1.921,41.1039864,16.8795265,False,NONE
2019-10-26 10:40:57.140,LG-H970,1572086457151.5,-0.884,10.689,-0.049,41.1039864,16.8795265,False,NONE
2019-10-26 10:40:57.160,LG-H970,1572086457171.25,-2.379,10.48,-1.4,41.1039864,16.8795265,False,NONE
2019-10-26 10:40:57.180,LG-H970,1572086457191.25,-2.735,9.409,1.076,41.1039864,16.8795265,False,NONE
2019-10-26 10:40:57.200,LG-H970,1572086457211.25,1.469,10.595,-0.164,41.1039864,16.8795265,False,NONE
2019-10-26 10:40:57.220,LG-H970,1572086457230.75,1.093,11.264,1.825,41.1039864,16.8795265,False,NONE
2019-10-26 10:40:57.240,LG-H970,1572086457250.75,-1.221,10.783,-0.282,41.1039864,16.8795265,False,NONE
2019-10-26 10:40:57.260,LG-H970,1572086457270.5,-1.405,10.945,-1.132,41.1039864,16.8795265,False,NONE
2019-10-26 10:40:57.280,LG-H970,1572086457289.75,0.95,9.255,-1.387,41.1039864,16.8795265,False,NONE
2019-10-26 10:40:57.300,LG-H970,1572086457308.5,2.473,9.983,0.796,41.1039864,16.8795265,False,NONE
2019-10-26 10:40:57.320,LG-H970,1572086457328.75,0.787,10.791,1.416,41.1039864,16.8795265,False,NONE
2019-10-26 10:40:57.340,LG-H970,1572086457349.0,-0.742,10.892,-1.126,41.1039864,16.8795265,False,NONE
2019-10-26 10:40:57.360,LG-H970,1572086457369.0,-0.313,9.541,-0.642,41.1039864,16.8795265,False,NONE
2019-10-26 10:40:57.380,LG-H970,1572086457389.75,2.063,8.051,-2.138,41.1039864,16.8795265,False,NONE
2019-10-26 10:40:57.400,LG-H970,1572086457409.75,0.822,9.448,0.751,41.1039864,16.8795265,False,NONE
2019-10-26 10:40:57.420,LG-H970,1572086457429.0,-0.497,12.23,-2.065,41.1039864,16.8795265,False,NONE
2019-10-26 10:40:57.440,LG-H970,1572086457450.0,-1.894,11.907,1.625,41.1039864,16.8795265,False,NONE
2019-10-26 10:40:57.460,LG-H970,1572086457471.75,0.585,8.161,-0.485,41.1039864,16.8795265,False,NONE
2019-10-26 10:40:57.480,LG-H970,1572086457491.5,-0.713,9.402,0.491,41.1039864,16.8795265,False,NONE
2019-10-26 10:40:57.500,LG-H970,1572086457511.25,-2.416,9.536,-2.641,41.1039864,16.8795265,False,NONE
2019-10-26 10:40:57.520,LG-H970,1572086457530.25,-0.293,9.324,-0.032,41.1039864,16.8795265,False,NONE
2019-10-26 10:40:57.540,LG-H970,1572086457549.5,1.023,7.089,1.365,41.1039864,16.8795265,False,NONE
2019-10-26 10:40:57.560,LG-H970,1572086457571.0,0.761,7.884,1.208,41.1039864,16.8795265,False,NONE
2019-10-26 10:40:57.580,LG-H970,1572086457590.5,0.36,8.079,-2.15,41.1039864,16.8795265,False,NONE
2019-10-26 10:40:57.600,LG-H970,1572086457610.5,0.839,7.321,-3.124,41.1039864,16.8795265,False,NONE
2019-10-26 10:40:57.620,LG-H970,1572086457630.25,2.12,5.3,-0.85,41.1039864,16.8795265,False,NONE
2019-10-26 10:40:57.640,LG-H970,1572086457650.25,3.867,5.919,0.708,41.1039864,16.8795265,False,NONE
2019-10-26 10:40:57.660,LG-H970,1572086457670.5,-1.645,9.58,-0.851,41.1039864,16.8795265,False,NONE
2019-10-26 10:40:57.680,LG-H970,1572086457689.5,-3.854,12.918,-0.494,41.1039864,16.8795265,False,NONE
2019-10-26 10:40:57.700,LG-H970,1572086457708.75,-1.246,10.28,0.351,41.1039864,16.8795265,False,NONE
2019-10-26 10:40:57.720,LG-H970,1572086457729.75,-0.177,9.399,2.21,41.1039864,16.8795265,False,NONE
2019-10-26 10:40:57.740,LG-H970,1572086457749.0,-2.635,10.528,-1.191,41.1039864,16.8795265,False,NONE
2019-10-26 10:40:57.760,LG-H970,1572086457768.75,-4.618,11.453,0.075,41.1039864,16.8795265,False,NONE
2019-10-26 10:40:57.780,LG-H970,1572086457788.75,-0.454,12.79,0.736,41.1039864,16.8795265,False,NONE
2019-10-26 10:40:57.800,LG-H970,1572086457808.25,-3.189,12.849,2.433,41.1039864,16.8795265,False,NONE
2019-10-26 10:40:57.820,LG-H970,1572086457828.25,-4.453,13.683,-0.177,41.1039864,16.8795265,False,NONE
2019-10-26 10:40:57.840,LG-H970,1572086457848.25,-0.896,10.065,-1.615,41.1039864,16.8795265,False,NONE
2019-10-26 10:40:57.860,LG-H970,1572086457869.8,-0.574,8.374,-0.147,41.1039864,16.8795265,False,NONE
2019-10-26 10:40:57.880,LG-H970,1572086457889.3333,-4.1,9.639,-1.524,41.1039864,16.8795265,False,NONE
2019-10-26 10:40:57.900,LG-H970,1572086457906.0,-4.713,12.705,1.622,41.1039864,16.8795265,False,NONE
2019-10-26 10:40:57.920,LG-H970,1572086457929.0,-1.966,14.088,0.723,41.1039864,16.8795265,False,NONE
2019-10-26 10:40:57.940,LG-H970,1572086457950.25,-1.065,12.936,2.593,41.1039864,16.8795265,False,NONE
2019-10-26 10:40:57.960,LG-H970,1572086457970.25,0.843,8.185,-0.295,41.1039864,16.8795265,False,NONE
2019-10-26 10:40:57.980,LG-H970,1572086457990.5,1.285,8.44,-1.36,41.1039864,16.8795265,False,NONE
2019-10-26 10:40:58.000,LG-H970,1572086458010.5,-1.583,9.441,-2.332,41.1039864,16.8795265,False,NONE
2019-10-26 10:40:58.020,LG-H970,1572086458031.75,-1.998,10.116,0.368,41.1039864,16.8795265,False,NONE
2019-10-26 10:40:58.040,LG-H970,1572086458049.75,0.772,11.537,2.564,41.1039864,16.8795265,False,NONE
2019-10-26 10:40:58.060,LG-H970,1572086458069.5,1.603,11.267,3.009,41.1039864,16.8795265,False,NONE
2019-10-26 10:40:58.080,LG-H970,1572086458089.0,0.196,10.616,0.605,41.1039864,16.8795265,False,NONE
2019-10-26 10:40:58.100,LG-H970,1572086458109.25,1.565,10.56,-0.696,41.1039864,16.8795265,False,NONE
2019-10-26 10:40:58.120,LG-H970,1572086458129.0,2.592,7.933,-0.72,41.1039864,16.8795265,False,NONE
2019-10-26 10:40:58.140,LG-H970,1572086458149.0,4.036,8.415,2.599,41.1039864,16.8795265,False,NONE
2019-10-26 10:40:58.160,LG-H970,1572086458168.25,0.487,8.24,1.514,41.1039864,16.8795265,False,NONE
2019-10-26 10:40:58.180,LG-H970,1572086458188.75,-1.023,11.01,-0.078,41.1039864,16.8795265,False,NONE
2019-10-26 10:40:58.200,LG-H970,1572086458208.75,0.314,11.805,-3.037,41.1039864,16.8795265,False,NONE
2019-10-26 10:40:58.220,LG-H970,1572086458228.0,-0.356,8.799,0.352,41.1039864,16.8795265,False,NONE
2019-10-26 10:40:58.240,LG-H970,1572086458247.5,-0.794,6.263,-0.332,41.1039864,16.8795265,False,NONE
2019-10-26 10:40:58.260,LG-H970,1572086458266.5,-2.308,8.45,-1.943,41.1039864,16.8795265,False,NONE
2019-10-26 10:40:58.280,LG-H970,1572086458289.0,-1.439,9.931,-3.486,41.1039864,16.8795265,False,NONE
2019-10-26 10:40:58.300,LG-H970,1572086458310.75,-2.579,8.974,-2.423,41.1039864,16.8795265,False,NONE
2019-10-26 10:40:58.320,LG-H970,1572086458331.5,-1.72,8.428,0.482,41.1039864,16.8795265,False,NONE
2019-10-26 10:40:58.340,LG-H970,1572086458351.25,0.646,8.739,-2.554,41.1039864,16.8795265,False,NONE
2019-10-26 10:40:58.360,LG-H970,1572086458371.0,-1.874,10.529,1.576,41.1039864,16.8795265,False,NONE
2019-10-26 10:40:58.380,LG-H970,1572086458390.75,-1.248,10.843,-1.792,41.1039864,16.8795265,False,NONE
2019-10-26 10:40:58.400,LG-H970,1572086458411.6667,-1.723,8.299,1.406,41.1039864,16.8795265,False,NONE
2019-10-26 10:40:58.420,LG-H970,1572086458429.5,0.836,10.617,-2.782,41.1039864,16.8795265,False,NONE
2019-10-26 10:40:58.440,LG-H970,1572086458451.25,-2.121,11.474,-0.292,41.1039864,16.8795265,False,NONE
2019-10-26 10:40:58.460,LG-H970,1572086458468.5,-1.139,10.665,1.271,41.1039864,16.8795265,False,NONE
2019-10-26 10:40:58.480,LG-H970,1572086458488.0,0.397,9.397,0.96,41.1039864,16.8795265,False,NONE
2019-10-26 10:40:58.500,LG-H970,1572086458508.75,-0.576,10.585,1.336,41.1039864,16.8795265,False,NONE
2019-10-26 10:40:58.520,LG-H970,1572086458531.2,-1.927,9.533,-1.417,41.1039864,16.8795265,False,NONE
2019-10-26 10:40:58.540,LG-H970,1572086458551.0,0.632,8.805,-0.143,41.1039864,16.8795265,False,NONE
2019-10-26 10:40:58.560,LG-H970,1572086458567.75,2.833,6.711,-0.055,41.1039864,16.8795265,False,NONE
2019-10-26 10:40:58.580,LG-H970,1572086458587.0,1.392,9.249,0.229,41.1039864,16.8795265,False,NONE
2019-10-26 10:40:58.600,LG-H970,1572086458607.0,-1.518,10.687,-1.855,41.1039864,16.8795265,False,NONE
2019-10-26 10:40:58.620,LG-H970,1572086458629.6,-0.482,10.142,-0.369,41.1039864,16.8795265,False,NONE
2019-10-26 10:40:58.640,LG-H970,1572086458651.5,2.608,6.928,1.203,41.1039864,16.8795265,False,NONE
2019-10-26 10:40:58.660,LG-H970,1572086458671.5,1.553,9.883,0.549,41.1039864,16.8795265,False,NONE
2019-10-26 10:40:58.680,LG-H970,1572086458691.0,-1.86,12.096,-1.249,41.1039864,16.8795265,False,NONE
2019-10-26 10:40:58.700,LG-H970,1572086458710.75,-0.133,11.742,-0.509,41.1039864,16.8795265,False,NONE
2019-10-26 10:40:58.720,LG-H970,1572086458730.5,2.231,8.185,2.149,41.1039864,16.8795265,False,NONE
2019-10-26 10:40:58.740,LG-H970,1572086458751.25,2.25,9.722,3.011,41.1039864,16.8795265,False,NONE
2019-10-26 10:40:58.760,LG-H970,1572086458769.5,-3.767,12.654,-3.283,41.1039864,16.8795265,True,NONE
2019-10-26 10:40:58.780,LG-H970,1572086458789.0,-4.695,13.174,1.005,41.1039864,16.8795265,True,NONE
2019-10-26 10:40:58.800,LG-H970,1572086458809.0,2.758,9.068,1.742,41.1039864,16.8795265,False,NONE
2019-10-26 10:40:58.820,LG-H970,1572086458828.75,2.919,9.451,3.446,41.1039864,16.8795265,False,NONE
2019-10-26 10:40:58.840,LG-H970,1572086458849.5,-4.199,12.6,-0.761,41.1039864,16.8795265,False,NONE
2019-10-26 10:40:58.860,LG-H970,1572086458869.0,-2.246,12.152,-2.514,41.1039864,16.8795265,False,NONE
2019-10-26 10:40:58.880,LG-H970,1572086458886.6667,1.924,6.934,1.407,41.1039864,16.8795265,False,NONE
2019-10-26 10:40:58.900,LG-H970,1572086458907.6667,3.628,7.81,2.773,41.1039864,16.8795265,False,NONE
2019-10-26 10:40:58.920,LG-H970,1572086458930.5,-3.376,9.98,0.153,41.1039864,16.8795265,False,NONE
2019-10-26 10:40:58.940,LG-H970,1572086458949.0,-4.726,13.736,-0.669,41.1039864,16.8795265,False,NONE
2019-10-26 10:40:58.960,LG-H970,1572086458968.75,-0.129,10.905,1.152,41.1039864,16.8795265,False,NONE
2019-10-26 10:40:58.980,LG-H970,1572086458988.5,3.269,8.597,4.368,41.1039864,16.8795265,False,NONE
2019-10-26 10:40:59.000,LG-H970,1572086459008.5,0.482,7.907,0.336,41.1039864,16.8795265,False,NONE
2019-10-26 10:40:59.020,LG-H970,1572086459028.5,-3.465,10.791,-1.943,41.1039864,16.8795265,False,NONE
2019-10-26 10:40:59.040,LG-H970,1572086459048.5,-4.719,10.456,-0.851,41.1039864,16.8795265,False,NONE
2019-10-26 10:40:59.060,LG-H970,1572086459069.4,-0.875,10.162,3.451,41.1039864,16.8795265,False,NONE
2019-10-26 10:40:59.080,LG-H970,1572086459091.25,0.283,8.801,3.251,41.1039864,16.8795265,False,NONE
2019-10-26 10:40:59.100,LG-H970,1572086459111.0,-1.386,11.318,0.373,41.1039864,16.8795265,False,NONE
2019-10-26 10:40:59.120,LG-H970,1572086459130.25,-2.912,10.463,-0.348,41.1039864,16.8795265,False,NONE
2019-10-26 10:40:59.140,LG-H970,1572086459150.5,-0.368,8.628,2.456,41.1039864,16.8795265,False,NONE
2019-10-26 10:40:59.160,LG-H970,1572086459170.5,1.65,9.281,1.101,41.1039864,16.8795265,False,NONE
2019-10-26 10:40:59.180,LG-H970,1572086459190.5,-1.855,10.999,0.717,41.1039864,16.8795265,False,NONE
2019-10-26 10:40:59.200,LG-H970,1572086459210.0,-0.98,10.865,0.611,41.1039864,16.8795265,False,NONE
2019-10-26 10:40:59.220,LG-H970,1572086459229.25,3.686,8.133,0.992,41.1039864,16.8795265,False,NONE
2019-10-26 10:40:59.240,LG-H970,1572086459249.75,4.383,7.807,2.072,41.1039864,16.8795265,False,NONE
2019-10-26 10:40:59.260,LG-H970,1572086459269.6667,0.371,9.535,-0.806,41.1039864,16.8795265,False,NONE
2019-10-26 10:40:59.280,LG-H970,1572086459289.8,-1.464,10.778,0.375,41.1039864,16.8795265,False,NONE
2019-10-26 10:40:59.300,LG-H970,1572086459311.25,2.911,8.803,1.053,41.1039864,16.8795265,False,NONE
2019-10-26 10:40:59.320,LG-H970,1572086459329.0,4.397,9.346,2.135,41.1039864,16.8795265,False,NONE
2019-10-26 10:40:59.340,LG-H970,1572086459350.0,-1.596,9.365,0.872,41.1039864,16.8795265,False,NONE
2019-10-26 10:40:59.360,LG-H970,1572086459370.0,-4.325,10.647,-0.514,41.1039864,16.8795265,False,NONE
2019-10-26 10:40:59.380,LG-H970,1572086459387.25,-0.667,10.348,1.581,41.1039864,16.8795265,False,NONE
2019-10-26 10:40:59.400,LG-H970,1572086459412.5,0.604,9.18,2.292,41.1039864,16.8795265,False,NONE
2019-10-26 10:40:59.420,LG-H970,1572086459431.25,-1.414,10.875,2.037,41.1039864,16.8795265,False,NONE
2019-10-26 10:40:59.440,LG-H970,1572086459450.25,-3.447,9.499,0.517,41.1039864,16.8795265,False,NONE
2019-10-26 10:40:59.460,LG-H970,1572086459471.5,-0.81,11.001,2.945,41.1039864,16.8795265,False,NONE
2019-10-26 10:40:59.480,LG-H970,1572086459491.0,-0.852,10.257,3.873,41.1039864,16.8795265,False,NONE
2019-10-26 10:40:59.500,LG-H970,1572086459510.25,-2.345,12.598,3.571,41.1039864,16.8795265,False,NONE
2019-10-26 10:40:59.520,LG-H970,1572086459530.75,-2.678,11.115,0.831,41.1039864,16.8795265,False,NONE
2019-10-26 10:40:59.540,LG-H970,1572086459550.25,-1.766,9.614,1.557,41.1039864,16.8795265,False,NONE
2019-10-26 10:40:59.560,LG-H970,1572086459569.5,0.242,9.43,0.856,41.1039864,16.8795265,False,NONE
2019-10-26 10:40:59.580,LG-H970,1572086459590.5,-1.237,10.28,2.632,41.1039864,16.8795265,False,NONE
2019-10-26 10:40:59.600,LG-H970,1572086459609.75,-2.605,12.287,1.977,41.1039864,16.8795265,False,NONE
2019-10-26 10:40:59.620,LG-H970,1572086459628.75,-2.589,11.074,2.482,41.1039864,16.8795265,False,NONE
2019-10-26 10:40:59.640,LG-H970,1572086459649.75,0.01,9.109,2.681,41.1039864,16.8795265,False,NONE
2019-10-26 10:40:59.660,LG-H970,1572086459668.75,1.18,7.969,1.212,41.1039864,16.8795265,False,NONE
2019-10-26 10:40:59.680,LG-H970,1572086459689.25,-0.152,9.796,0.041,41.1039864,16.8795265,False,NONE
2019-10-26 10:40:59.700,LG-H970,1572086459707.5,-1.665,10.388,0.319,41.1039864,16.8795265,False,NONE
2019-10-26 10:40:59.720,LG-H970,1572086459729.0,-1.094,9.487,2.693,41.1039864,16.8795265,False,NONE
2019-10-26 10:40:59.740,LG-H970,1572086459747.75,0.46,8.719,2.093,41.1039864,16.8795265,False,NONE
2019-10-26 10:40:59.760,LG-H970,1572086459767.75,-0.485,8.885,0.542,41.1039864,16.8795265,False,NONE
2019-10-26 10:40:59.780,LG-H970,1572086459789.8,-1.868,9.525,-0.222,41.1039864,16.8795265,False,NONE
2019-10-26 10:40:59.800,LG-H970,1572086459810.0,-1.4,9.032,1.58,41.1039864,16.8795265,False,NONE
2019-10-26 10:40:59.820,LG-H970,1572086459829.4,0.43,9.66,2.712,41.1039864,16.8795265,False,NONE
2019-10-26 10:40:59.840,LG-H970,1572086459851.25,-0.892,10.209,2.371,41.1039864,16.8795265,False,NONE
2019-10-26 10:40:59.860,LG-H970,1572086459870.75,-1.554,10.948,1.089,41.1039864,16.8795265,False,NONE
2019-10-26 10:40:59.880,LG-H970,1572086459890.0,-0.229,10.024,1.277,41.1039864,16.8795265,False,NONE
2019-10-26 10:40:59.900,LG-H970,1572086459910.6667,0.96,9.483,2.274,41.1039864,16.8795265,False,NONE
2019-10-26 10:40:59.920,LG-H970,1572086459931.0,0.892,10.516,2.031,41.1039864,16.8795265,False,NONE
2019-10-26 10:40:59.940,LG-H970,1572086459949.5,0.048,11.041,1.923,41.1039864,16.8795265,False,NONE
2019-10-26 10:40:59.960,LG-H970,1572086459969.75,0.566,10.414,1.715,41.1039864,16.8795265,False,NONE
2019-10-26 10:40:59.980,LG-H970,1572086459989.5,1.248,9.18,2.509,41.1039864,16.8795265,False,NONE
2019-10-26 10:41:00.000,LG-H970,1572086460009.75,0.51,9.833,1.654,41.1039864,16.8795265,False,NONE
2019-10-26 10:41:00.020,LG-H970,1572086460028.5,-0.802,11.05,1.006,41.1039864,16.8795265,False,NONE
2019-10-26 10:41:00.040,LG-H970,1572086460048.0,0.153,10.441,1.019,41.1039864,16.8795265,False,NONE
2019-10-26 10:41:00.060,LG-H970,1572086460068.0,1.605,8.827,3.064,41.1039864,16.8795265,False,NONE
2019-10-26 10:41:00.080,LG-H970,1572086460089.6,0.904,9.347,2.049,41.1039864,16.8795265,False,NONE
2019-10-26 10:41:00.100,LG-H970,1572086460110.25,-1.808,11.075,0.597,41.1039864,16.8795265,False,NONE
2019-10-26 10:41:00.120,LG-H970,1572086460131.5,-1.62,10.711,0.439,41.1039864,16.8795265,False,NONE
2019-10-26 10:41:00.140,LG-H970,1572086460150.5,0.429,8.807,2.562,41.1039864,16.8795265,False,NONE
2019-10-26 10:41:00.160,LG-H970,1572086460170.5,0.494,9.022,2.413,41.1039864,16.8795265,False,NONE
2019-10-26 10:41:00.180,LG-H970,1572086460190.5,-1.926,10.559,0.817,41.1039864,16.8795265,False,NONE
2019-10-26 10:41:00.200,LG-H970,1572086460210.5,-2.672,11.023,0.891,41.1039864,16.8795265,False,NONE
2019-10-26 10:41:00.220,LG-H970,1572086460230.25,-1.501,9.485,1.769,41.1039864,16.8795265,False,NONE
2019-10-26 10:41:00.240,LG-H970,1572086460250.25,-0.444,8.98,2.482,41.1039864,16.8795265,False,NONE
2019-10-26 10:41:00.260,LG-H970,1572086460271.25,-2.46,9.579,0.728,41.1039864,16.8795265,False,NONE
2019-10-26 10:41:00.280,LG-H970,1572086460290.25,-3.139,11.008,0.725,41.1039864,16.8795265,False,NONE
2019-10-26 10:41:00.300,LG-H970,1572086460311.3333,-1.501,9.871,1.389,41.1039864,16.8795265,False,NONE
2019-10-26 10:41:00.320,LG-H970,1572086460329.5,-0.114,9.183,2.434,41.1039864,16.8795265,False,NONE
2019-10-26 10:41:00.340,LG-H970,1572086460348.75,-1.731,9.439,0.725,41.1039864,16.8795265,False,NONE
2019-10-26 10:41:00.360,LG-H970,1572086460370.6,-2.291,9.761,0.05,41.1039864,16.8795265,False,NONE
2019-10-26 10:41:00.380,LG-H970,1572086460391.3333,-0.21,9.326,0.677,41.1039864,16.8795265,False,NONE
2019-10-26 10:41:00.400,LG-H970,1572086460408.25,0.788,7.869,2.178,41.1039864,16.8795265,False,NONE
2019-10-26 10:41:00.420,LG-H970,1572086460428.5,-0.087,8.971,1.558,41.1039864,16.8795265,False,NONE
2019-10-26 10:41:00.440,LG-H970,1572086460448.75,-2.076,10.516,0.847,41.1039864,16.8795265,False,NONE
2019-10-26 10:41:00.460,LG-H970,1572086460470.8,-0.903,9.86,0.888,41.1039864,16.8795265,False,NONE
2019-10-26 10:41:00.480,LG-H970,1572086460492.0,1.034,9.348,2.819,41.1039864,16.8795265,False,NONE
2019-10-26 10:41:00.500,LG-H970,1572086460509.6667,0.931,9.824,2.305,41.1039864,16.8795265,False,NONE
2019-10-26 10:41:00.520,LG-H970,1572086460527.5,-0.6,10.614,2.064,41.1039864,16.8795265,False,NONE
2019-10-26 10:41:00.540,LG-H970,1572086460547.0,-1.459,10.887,0.553,41.1039864,16.8795265,False,NONE
2019-10-26 10:41:00.560,LG-H970,1572086460568.75,-0.35,10.49,1.858,41.1039864,16.8795265,False,NONE
2019-10-26 10:41:00.580,LG-H970,1572086460591.75,0.381,9.576,2.791,41.1039864,16.8795265,False,NONE
2019-10-26 10:41:00.600,LG-H970,1572086460611.75,-0.539,10.95,1.966,41.1039864,16.8795265,False,NONE
2019-10-26 10:41:00.620,LG-H970,1572086460631.25,-2.893,11.51,1.493,41.1039864,16.8795265,False,NONE
2019-10-26 10:41:00.640,LG-H970,1572086460650.0,-2.29,10.964,1.51,41.1039864,16.8795265,False,NONE
2019-10-26 10:41:00.660,LG-H970,1572086460670.25,-0.169,9.26,2.601,41.1039864,16.8795265,False,NONE
2019-10-26 10:41:00.680,LG-H970,1572086460690.25,-0.951,9.957,1.949,41.1039864,16.8795265,False,NONE
2019-10-26 10:41:00.700,LG-H970,1572086460709.75,-3.329,11.543,1.107,41.1039864,16.8795265,False,NONE
2019-10-26 10:41:00.720,LG-H970,1572086460730.5,-2.173,11.172,1.932,41.1039864,16.8795265,False,NONE
2019-10-26 10:41:00.740,LG-H970,1572086460749.5,0.301,9.399,2.729,41.1039864,16.8795265,False,NONE
2019-10-26 10:41:00.760,LG-H970,1572086460769.5,-0.118,9.596,2.498,41.1039864,16.8795265,False,NONE
2019-10-26 10:41:00.780,LG-H970,1572086460789.25,-2.666,10.356,0.816,41.1039864,16.8795265,False,NONE
2019-10-26 10:41:00.800,LG-H970,1572086460808.75,-1.805,10.72,1.193,41.1039864,16.8795265,False,NONE
2019-10-26 10:41:00.820,LG-H970,1572086460828.75,0.082,9.27,2.617,41.1039864,16.8795265,False,NONE
2019-10-26 10:41:00.840,LG-H970,1572086460848.5,0.141,9.564,3.116,41.1039864,16.8795265,False,NONE
2019-10-26 10:41:00.860,LG-H970,1572086460870.6,-1.883,10.521,1.455,41.1039864,16.8795265,False,NONE
2019-10-26 10:41:00.880,LG-H970,1572086460890.3333,-1.683,10.495,1.001,41.1039864,16.8795265,False,NONE
2019-10-26 10:41:00.900,LG-H970,1572086460906.75,-0.608,9.55,2.127,41.1039864,16.8795265,False,NONE
2019-10-26 10:41:00.920,LG-H970,1572086460931.5,-0.034,9.56,2.926,41.1039864,16.8795265,False,NONE
2019-10-26 10:41:00.940,LG-H970,1572086460949.0,-1.181,10.1,1.87,41.1039864,16.8795265,False,NONE
2019-10-26 10:41:00.960,LG-H970,1572086460967.75,-1.756,10.53,1.04,41.1039864,16.8795265,False,NONE
2019-10-26 10:41:00.980,LG-H970,1572086460989.6,-0.571,9.42,1.822,41.1039864,16.8795265,False,NONE
2019-10-26 10:41:01.000,LG-H970,1572086461009.6667,-0.075,9.101,2.481,41.1039864,16.8795265,False,NONE
2019-10-26 10:41:01.020,LG-H970,1572086461029.8,-1.24,10.208,1.521,41.1039864,16.8795265,False,NONE
2019-10-26 10:41:01.040,LG-H970,1572086461051.5,-1.585,10.361,1.399,41.1039864,16.8795265,False,NONE
2019-10-26 10:41:01.060,LG-H970,1572086461070.75,-0.391,9.56,1.886,41.1039864,16.8795265,False,NONE
2019-10-26 10:41:01.080,LG-H970,1572086461089.75,0.188,9.202,1.982,41.1039864,16.8795265,False,NONE
2019-10-26 10:41:01.100,LG-H970,1572086461109.5,-0.889,9.716,1.362,41.1039864,16.8795265,False,NONE
2019-10-26 10:41:01.120,LG-H970,1572086461130.0,-1.314,10.587,1.061,41.1039864,16.8795265,False,NONE
2019-10-26 10:41:01.140,LG-H970,1572086461149.25,-0.268,9.918,1.998,41.1039864,16.8795265,False,NONE
2019-10-26 10:41:01.160,LG-H970,1572086461169.25,0.424,9.554,2.267,41.1039864,16.8795265,False,NONE
2019-10-26 10:41:01.180,LG-H970,1572086461189.75,-0.491,10.103,1.555,41.1039864,16.8795265,False,NONE
2019-10-26 10:41:01.200,LG-H970,1572086461209.25,-1.282,10.338,1.29,41.1039864,16.8795265,False,NONE
2019-10-26 10:41:01.220,LG-H970,1572086461229.0,-0.895,10.402,1.834,41.1039864,16.8795265,False,NONE
2019-10-26 10:41:01.240,LG-H970,1572086461247.75,-0.431,9.912,2.244,41.1039864,16.8795265,False,NONE
2019-10-26 10:41:01.260,LG-H970,1572086461268.25,-0.819,9.976,2.0,41.1039864,16.8795265,False,NONE
2019-10-26 10:41:01.280,LG-H970,1572086461287.25,-1.471,10.174,1.229,41.1039864,16.8795265,False,NONE
2019-10-26 10:41:01.300,LG-H970,1572086461306.75,-0.793,9.658,1.629,41.1039864,16.8795265,False,NONE
2019-10-26 10:41:01.320,LG-H970,1572086461330.0,-0.325,9.519,2.008,41.1039864,16.8795265,False,NONE
2019-10-26 10:41:01.340,LG-H970,1572086461350.0,-0.987,9.746,1.864,41.1039864,16.8795265,False,NONE
2019-10-26 10:41:01.360,LG-H970,1572086461369.4,-1.075,10.23,1.466,41.1039864,16.8795265,False,NONE
2019-10-26 10:41:01.380,LG-H970,1572086461388.6667,-0.875,10.54,1.017,41.1039864,16.8795265,False,NONE
2019-10-26 10:41:01.400,LG-H970,1572086461406.0,-0.697,10.146,0.591,41.1039864,16.8795265,False,NONE
2019-10-26 10:41:01.420,LG-H970,1572086461429.75,-0.691,10.101,0.175,41.1039864,16.8795265,False,NONE
2019-10-26 10:41:01.440,LG-H970,1572086461449.75,-0.936,10.478,-0.444,41.1039864,16.8795265,False,NONE
2019-10-26 10:41:01.460,LG-H970,1572086461469.25,-0.857,10.482,0.1,41.1039864,16.8795265,False,NONE
2019-10-26 10:41:01.480,LG-H970,1572086461489.5,-0.557,10.206,-0.174,41.1039864,16.8795265,False,NONE
2019-10-26 10:41:01.500,LG-H970,1572086461509.5,-0.527,10.031,-0.417,41.1039864,16.8795265,False,NONE
2019-10-26 10:41:01.520,LG-H970,1572086461529.25,-0.936,9.69,-0.899,41.1039864,16.8795265,False,NONE
2019-10-26 10:41:01.540,LG-H970,1572086461549.25,-0.976,10.214,-0.733,41.1039864,16.8795265,False,NONE
2019-10-26 10:41:01.560,LG-H970,1572086461570.6667,-0.769,9.656,-0.497,41.1039864,16.8795265,False,NONE
2019-10-26 10:41:01.580,LG-H970,1572086461588.5,-0.651,9.643,-0.333,41.1039864,16.8795265,False,NONE
2019-10-26 10:41:01.600,LG-H970,1572086461608.25,-1.115,9.639,-0.871,41.1039864,16.8795265,False,NONE
2019-10-26 10:41:01.620,LG-H970,1572086461628.5,-1.146,9.492,-0.786,41.1039864,16.8795265,False,NONE
2019-10-26 10:41:01.640,LG-H970,1572086461648.5,-0.886,9.626,-0.685,41.1039864,16.8795265,False,NONE
2019-10-26 10:41:01.660,LG-H970,1572086461669.4,-0.899,9.478,-0.572,41.1039864,16.8795265,False,NONE
2019-10-26 10:41:01.680,LG-H970,1572086461692.0,-0.943,9.597,-0.532,41.1039864,16.8795265,False,NONE
2019-10-26 10:41:01.700,LG-H970,1572086461708.6667,-1.085,9.611,-0.8,41.1039864,16.8795265,False,NONE
2019-10-26 10:41:01.720,LG-H970,1572086461729.4,-0.796,9.374,-0.618,41.1039864,16.8795265,False,NONE
2019-10-26 10:41:01.740,LG-H970,1572086461751.5,-0.872,9.682,-0.416,41.1039864,16.8795265,False,NONE
2019-10-26 10:41:01.760,LG-H970,1572086461771.75,-1.068,9.882,-0.5,41.1039864,16.8795265,False,NONE
2019-10-26 10:41:01.780,LG-H970,1572086461791.5,-0.889,9.969,0.085,41.1039864,16.8795265,False,NONE
2019-10-26 10:41:01.800,LG-H970,1572086461810.5,-0.84,10.076,-0.091,41.1039864,16.8795265,False,NONE
2019-10-26 10:41:01.820,LG-H970,1572086461830.75,-0.836,10.097,0.132,41.1039864,16.8795265,False,NONE
2019-10-26 10:41:01.840,LG-H970,1572086461850.75,-1.013,10.019,-0.028,41.1039864,16.8795265,False,NONE
2019-10-26 10:41:01.860,LG-H970,1572086461870.25,-0.894,10.091,-0.091,41.1039864,16.8795265,False,NONE
2019-10-26 10:41:01.880,LG-H970,1572086461889.5,-0.585,9.677,0.273,41.1039864,16.8795265,False,NONE
2019-10-26 10:41:01.900,LG-H970,1572086461910.25,-0.659,9.834,-0.033,41.1039864,16.8795265,False,NONE
2019-10-26 10:41:01.920,LG-H970,1572086461929.5,-0.868,9.942,-0.122,41.1039864,16.8795265,False,NONE
2019-10-26 10:41:01.940,LG-H970,1572086461949.75,-0.946,9.612,-0.139,41.1039864,16.8795265,False,NONE
2019-10-26 10:41:01.960,LG-H970,1572086461968.5,-0.714,9.937,-0.217,41.1039864,16.8795265,False,NONE
2019-10-26 10:41:01.980,LG-H970,1572086461988.25,-0.78,9.739,-0.15,41.1039864,16.8795265,False,NONE
2019-10-26 10:41:02.000,LG-H970,1572086462010.4,-0.882,10.03,-0.378,41.1039864,16.8795265,False,NONE
2019-10-26 10:41:02.020,LG-H970,1572086462030.0,-0.829,10.145,-0.316,41.1039864,16.8795265,False,NONE
2019-10-26 10:41:02.040,LG-H970,1572086462048.0,-0.676,9.72,-0.173,41.1039864,16.8795265,False,NONE
2019-10-26 10:41:02.060,LG-H970,1572086462067.0,-0.637,10.061,-0.228,41.1039864,16.8795265,False,NONE
2019-10-26 10:41:02.080,LG-H970,1572086462087.0,-0.983,9.867,-0.359,41.1039864,16.8795265,False,NONE
2019-10-26 10:41:02.100,LG-H970,1572086462108.2,-0.877,9.899,-0.142,41.1039864,16.8795265,False,NONE
2019-10-26 10:41:02.120,LG-H970,1572086462131.25,-0.873,9.912,-0.125,41.1039864,16.8795265,False,NONE
2019-10-26 10:41:02.140,LG-H970,1572086462150.75,-0.882,9.684,-0.068,41.1039864,16.8795265,False,NONE
2019-10-26 10:41:02.160,LG-H970,1572086462171.5,-0.957,10.148,-0.247,41.1039864,16.8795265,False,NONE
2019-10-26 10:41:02.180,LG-H970,1572086462190.5,-0.941,9.873,-0.212,41.1039864,16.8795265,False,NONE
2019-10-26 10:41:02.200,LG-H970,1572086462210.5,-0.685,9.783,0.069,41.1039864,16.8795265,False,NONE
2019-10-26 10:41:02.220,LG-H970,1572086462231.25,-0.933,10.034,-0.215,41.1039864,16.8795265,False,NONE
2019-10-26 10:41:02.240,LG-H970,1572086462250.75,-0.95,9.931,-0.165,41.1039864,16.8795265,False,NONE
2019-10-26 10:41:02.260,LG-H970,1572086462269.5,-0.898,9.913,-0.174,41.1039864,16.8795265,False,NONE
2019-10-26 10:41:02.280,LG-H970,1572086462289.5,-0.942,9.751,-0.3,41.1039864,16.8795265,False,NONE
2019-10-26 10:41:02.300,LG-H970,1572086462309.0,-0.884,9.819,-0.095,41.1039864,16.8795265,False,NONE
2019-10-26 10:41:02.320,LG-H970,1572086462328.75,-0.947,10.043,-0.358,41.1039864,16.8795265,False,NONE
2019-10-26 10:41:02.340,LG-H970,1572086462349.0,-0.722,9.942,-0.098,41.1039864,16.8795265,False,NONE
2019-10-26 10:41:02.360,LG-H970,1572086462368.75,-0.779,9.683,-0.173,41.1039864,16.8795265,False,NONE
2019-10-26 10:41:02.380,LG-H970,1572086462388.75,-0.913,10.032,-0.349,41.1039864,16.8795265,False,NONE
2019-10-26 10:41:02.400,LG-H970,1572086462408.5,-0.834,9.843,-0.153,41.1039864,16.8795265,False,NONE
2019-10-26 10:41:02.420,LG-H970,1572086462430.4,-0.785,9.946,-0.187,41.1039864,16.8795265,False,NONE
2019-10-26 10:41:02.440,LG-H970,1572086462450.3333,-0.811,9.985,-0.124,41.1039864,16.8795265,False,NONE
2019-10-26 10:41:02.460,LG-H970,1572086462469.4,-0.881,9.826,-0.157,41.1039864,16.8795265,False,NONE
2019-10-26 10:41:02.480,LG-H970,1572086462491.0,-0.862,9.967,-0.363,41.1039864,16.8795265,False,NONE
2019-10-26 10:41:02.500,LG-H970,1572086462511.0,-0.739,9.742,-0.041,41.1039864,16.8795265,False,NONE
2019-10-26 10:41:02.520,LG-H970,1572086462531.25,-0.802,9.919,-0.131,41.1039864,16.8795265,False,NONE
2019-10-26 10:41:02.540,LG-H970,1572086462551.25,-0.857,10.074,-0.128,41.1039864,16.8795265,False,NONE
2019-10-26 10:41:02.560,LG-H970,1572086462570.75,-0.936,9.782,-0.08,41.1039864,16.8795265,False,NONE
2019-10-26 10:41:02.580,LG-H970,1572086462590.25,-0.809,10.124,-0.195,41.1039864,16.8795265,False,NONE
2019-10-26 10:41:02.600,LG-H970,1572086462610.0,-0.865,9.703,-0.215,41.1039864,16.8795265,False,NONE
2019-10-26 10:41:02.620,LG-H970,1572086462629.75,-0.776,9.823,-0.262,41.1039864,16.8795265,False,NONE
2019-10-26 10:41:02.640,LG-H970,1572086462650.25,-0.97,9.986,-0.427,41.1039864,16.8795265,False,NONE
2019-10-26 10:41:02.660,LG-H970,1572086462670.25,-0.883,9.784,-0.17,41.1039864,16.8795265,False,NONE
2019-10-26 10:41:02.680,LG-H970,1572086462693.6667,-0.816,9.911,-0.154,41.1039864,16.8795265,False,NONE
2019-10-26 10:41:02.700,LG-H970,1572086462709.6,-0.881,9.82,-0.162,41.1039864,16.8795265,False,NONE
2019-10-26 10:41:02.720,LG-H970,1572086462727.5,-0.881,9.87,-0.016,41.1039864,16.8795265,False,NONE
2019-10-26 10:41:02.740,LG-H970,1572086462747.75,-1.012,10.064,-0.221,41.1039864,16.8795265,False,NONE
2019-10-26 10:41:02.760,LG-H970,1572086462770.0,-0.788,9.818,0.041,41.1039864,16.8795265,False,NONE
2019-10-26 10:41:02.780,LG-H970,1572086462790.6667,-0.738,9.928,-0.09,41.1039864,16.8795265,False,NONE
2019-10-26 10:41:02.800,LG-H970,1572086462807.25,-0.903,9.959,-0.341,41.1039864,16.8795265,False,NONE
2019-10-26 10:41:02.820,LG-H970,1572086462827.25,-0.901,9.779,-0.183,41.1039864,16.8795265,False,NONE
2019-10-26 10:41:02.840,LG-H970,1572086462850.0,-0.858,9.932,-0.334,41.1039864,16.8795265,False,NONE
2019-10-26 10:41:02.860,LG-H970,1572086462870.5,-0.764,9.84,-0.125,41.1039864,16.8795265,False,NONE
2019-10-26 10:41:02.880,LG-H970,1572086462890.25,-0.884,9.892,-0.221,41.1039864,16.8795265,False,NONE
2019-10-26 10:41:02.900,LG-H970,1572086462910.75,-0.894,9.976,-0.392,41.1039864,16.8795265,False,NONE
2019-10-26 10:41:02.920,LG-H970,1572086462931.0,-0.753,9.766,-0.049,41.1039864,16.8795265,False,NONE
2019-10-26 10:41:02.940,LG-H970,1572086462950.0,-0.8,9.933,-0.215,41.1039864,16.8795265,False,NONE
2019-10-26 10:41:02.960,LG-H970,1572086462969.25,-0.815,10.04,-0.065,41.1039864,16.8795265,False,NONE
2019-10-26 10:41:02.980,LG-H970,1572086462990.0,-0.874,9.807,-0.085,41.1039864,16.8795265,False,NONE
2019-10-26 10:41:03.000,LG-H970,1572086463009.75,-0.847,10.049,-0.185,41.1039864,16.8795265,False,NONE
2019-10-26 10:41:03.020,LG-H970,1572086463029.25,-0.835,9.751,-0.08,41.1039864,16.8795265,False,NONE
2019-10-26 10:41:03.040,LG-H970,1572086463050.0,-0.85,9.925,-0.17,41.1039864,16.8795265,False,NONE
2019-10-26 10:41:03.060,LG-H970,1572086463069.0,-0.945,10.017,-0.221,41.1039864,16.8795265,False,NONE
2019-10-26 10:41:03.080,LG-H970,1572086463089.5,-0.834,9.721,-0.047,41.1039864,16.8795265,False,NONE
2019-10-26 10:41:03.100,LG-H970,1572086463109.5,-0.798,9.976,-0.162,41.1039864,16.8795265,False,NONE
2019-10-26 10:41:03.120,LG-H970,1572086463128.25,-0.905,9.825,-0.296,41.1039864,16.8795265,False,NONE
2019-10-26 10:41:03.140,LG-H970,1572086463147.25,-0.855,9.789,-0.122,41.1039864,16.8795265,False,NONE
2019-10-26 10:41:03.160,LG-H970,1572086463167.5,-0.924,10.004,-0.205,41.1039864,16.8795265,False,NONE
2019-10-26 10:41:03.180,LG-H970,1572086463190.8,-0.781,9.833,-0.071,41.1039864,16.8795265,False,NONE
2019-10-26 10:41:03.200,LG-H970,1572086463210.3333,-0.777,10.116,-0.051,41.1039864,16.8795265,False,NONE
2019-10-26 10:41:03.220,LG-H970,1572086463227.75,-0.997,9.868,-0.334,41.1039864,16.8795265,False,NONE
2019-10-26 10:41:03.240,LG-H970,1572086463250.2,-0.829,9.852,-0.098,41.1039864,16.8795265,False,NONE
2019-10-26 10:41:03.260,LG-H970,1572086463271.0,-0.917,9.948,-0.276,41.1039864,16.8795265,False,NONE
2019-10-26 10:41:03.280,LG-H970,1572086463290.5,-0.797,9.864,-0.08,41.1039864,16.8795265,False,NONE
2019-10-26 10:41:03.300,LG-H970,1572086463309.75,-0.816,9.999,-0.156,41.1039864,16.8795265,False,NONE
2019-10-26 10:41:03.320,LG-H970,1572086463331.0,-0.924,9.882,-0.29,41.1039864,16.8795265,False,NONE
2019-10-26 10:41:03.340,LG-H970,1572086463351.25,-0.758,9.749,-0.097,41.1039864,16.8795265,False,NONE
2019-10-26 10:41:03.360,LG-H970,1572086463370.5,-0.882,10.01,-0.294,41.1039864,16.8795265,False,NONE
2019-10-26 10:41:03.380,LG-H970,1572086463390.25,-0.833,9.931,-0.067,41.1039864,16.8795265,False,NONE
2019-10-26 10:41:03.400,LG-H970,1572086463409.5,-0.806,9.818,-0.117,41.1039864,16.8795265,False,NONE
2019-10-26 10:41:03.420,LG-H970,1572086463432.0,-0.934,9.902,-0.286,41.1039864,16.8795265,False,NONE
2019-10-26 10:41:03.440,LG-H970,1572086463450.0,-0.86,9.846,-0.167,41.1039864,16.8795265,False,NONE
2019-10-26 10:41:03.460,LG-H970,1572086463468.75,-0.873,9.92,-0.257,41.1039864,16.8795265,False,NONE
2019-10-26 10:41:03.480,LG-H970,1572086463487.5,-0.771,9.931,-0.15,41.1039864,16.8795265,False,NONE
2019-10-26 10:41:03.500,LG-H970,1572086463510.8,-0.86,9.89,-0.141,41.1039864,16.8795265,False,NONE
2019-10-26 10:41:03.520,LG-H970,1572086463530.6667,-1.036,10.024,-0.257,41.1039864,16.8795265,False,NONE
2019-10-26 10:41:03.540,LG-H970,1572086463550.6,-0.787,9.783,-0.177,41.1039864,16.8795265,False,NONE
2019-10-26 10:41:03.560,LG-H970,1572086463568.6667,-0.724,9.85,-0.266,41.1039864,16.8795265,False,NONE
2019-10-26 10:41:03.580,LG-H970,1572086463589.4,-0.853,9.99,-0.211,41.1039864,16.8795265,False,NONE
2019-10-26 10:41:03.600,LG-H970,1572086463612.0,-0.911,9.835,-0.17,41.1039864,16.8795265,False,NONE
2019-10-26 10:41:03.620,LG-H970,1572086463631.75,-0.811,10.0,-0.244,41.1039864,16.8795265,False,NONE
2019-10-26 10:41:03.640,LG-H970,1572086463651.25,-0.696,9.789,-0.166,41.1039864,16.8795265,False,NONE
2019-10-26 10:41:03.660,LG-H970,1572086463671.0,-0.873,9.856,-0.261,41.1039864,16.8795265,False,NONE
2019-10-26 10:41:03.680,LG-H970,1572086463690.75,-0.945,10.052,-0.248,41.1039864,16.8795265,False,NONE
2019-10-26 10:41:03.700,LG-H970,1572086463710.25,-0.854,9.741,-0.071,41.1039864,16.8795265,False,NONE
2019-10-26 10:41:03.720,LG-H970,1572086463730.0,-0.829,10.074,-0.187,41.1039864,16.8795265,False,NONE
2019-10-26 10:41:03.740,LG-H970,1572086463749.5,-0.914,9.84,-0.34,41.1039864,16.8795265,False,NONE
