UTC_timestamp,device_name,timestamp,x,y,z,lat,long,event,speed
2019-10-26 10:40:41.400,LG-H970,1572086441409.75,-3.575,10.958,0.58,41.1037524,16.8801939,False,NONE
2019-10-26 10:40:41.420,LG-H970,1572086441430.0,-3.461,11.056,0.406,41.1037524,16.8801939,False,NONE
2019-10-26 10:40:41.440,LG-H970,1572086441450.0,-0.916,9.25,1.112,41.1037524,16.8801939,False,NONE
2019-10-26 10:40:41.460,LG-H970,1572086441469.25,-0.27,7.982,-0.065,41.1037524,16.8801939,False,NONE
2019-10-26 10:40:41.480,LG-H970,1572086441489.5,-1.559,9.141,-1.48,41.1037524,16.8801939,False,NONE
2019-10-26 10:40:41.500,LG-H970,1572086441509.0,-1.738,8.895,-0.596,41.1037524,16.8801939,False,NONE
2019-10-26 10:40:41.520,LG-H970,1572086441528.25,-0.095,8.409,1.131,41.1037524,16.8801939,False,NONE
2019-10-26 10:40:41.540,LG-H970,1572086441549.8,0.007,8.397,0.797,41.1037524,16.8801939,True,NONE
2019-10-26 10:40:41.560,LG-H970,1572086441571.5,-1.686,9.11,-0.963,41.1037524,16.8801939,True,NONE
2019-10-26 10:40:41.580,LG-H970,1572086441591.5,-1.801,8.927,-0.398,41.1037524,16.8801939,False,NONE
2019-10-26 10:40:41.600,LG-H970,1572086441611.25,-0.461,8.783,0.705,41.1037524,16.8801939,False,NONE
2019-10-26 10:40:41.620,LG-H970,1572086441631.25,-0.76,9.758,2.241,41.1037524,16.8801939,False,NONE
2019-10-26 10:40:41.640,LG-H970,1572086441649.0,-2.532,10.412,0.373,41.1037524,16.8801939,False,NONE
2019-10-26 10:40:41.660,LG-H970,1572086441670.0,-2.662,10.316,0.971,41.1037524,16.8801939,False,NONE
2019-10-26 10:40:41.680,LG-H970,1572086441691.25,-1.801,8.316,1.444,41.1037524,16.8801939,False,NONE
2019-10-26 10:40:41.700,LG-H970,1572086441711.0,-2.246,9.596,2.654,41.1037524,16.8801939,False,NONE
2019-10-26 10:40:41.720,LG-H970,1572086441731.0,-1.37,11.825,0.814,41.1037524,16.8801939,False,NONE
2019-10-26 10:40:41.740,LG-H970,1572086441751.25,-3.016,10.68,1.694,41.1037524,16.8801939,False,NONE
2019-10-26 10:40:41.760,LG-H970,1572086441771.0,-2.518,10.21,1.64,41.1037524,16.8801939,False,NONE
2019-10-26 10:40:41.780,LG-H970,1572086441787.6667,-1.487,9.925,2.25,41.1037524,16.8801939,False,NONE
2019-10-26 10:40:41.800,LG-H970,1572086441808.6,-1.23,10.699,1.751,41.1037524,16.8801939,False,NONE
2019-10-26 10:40:41.820,LG-H970,1572086441830.0,-1.112,11.45,-0.31,41.1037524,16.8801939,False,NONE
2019-10-26 10:40:41.840,LG-H970,1572086441849.5,-0.453,10.028,-0.819,41.1037524,16.8801939,False,NONE
2019-10-26 10:40:41.860,LG-H970,1572086441868.25,0.301,7.661,0.587,41.1037524,16.8801939,False,NONE
2019-10-26 10:40:41.880,LG-H970,1572086441888.5,1.073,9.761,-0.636,41.1037524,16.8801939,False,NONE
2019-10-26 10:40:41.900,LG-H970,1572086441907.75,-0.585,10.566,-1.461,41.1037524,16.8801939,False,NONE
2019-10-26 10:40:41.920,LG-H970,1572086441927.5,0.163,11.19,-1.017,41.1037524,16.8801939,False,NONE
2019-10-26 10:40:41.940,LG-H970,1572086441950.6,2.452,9.847,0.8,41.1037524,16.8801939,False,NONE
2019-10-26 10:40:41.960,LG-H970,1572086441971.25,1.465,8.762,-0.566,41.1037524,16.8801939,False,NONE
2019-10-26 10:40:41.980,LG-H970,1572086441991.5,0.068,11.463,-1.892,41.1037524,16.8801939,False,NONE
2019-10-26 10:40:42.000,LG-H970,1572086442011.25,-0.717,10.355,-0.972,41.1037524,16.8801939,False,NONE
2019-10-26 10:40:42.020,LG-H970,1572086442031.0,1.998,9.909,0.488,41.1037524,16.8801939,False,NONE
2019-10-26 10:40:42.040,LG-H970,1572086442051.25,0.906,8.513,-0.896,41.1037524,16.8801939,False,NONE
2019-10-26 10:40:42.060,LG-H970,1572086442071.0,-2.841,8.102,-2.075,41.1037524,16.8801939,False,NONE
2019-10-26 10:40:42.080,LG-H970,1572086442090.5,-5.025,6.568,-2.395,41.1037524,16.8801939,False,NONE
2019-10-26 10:40:42.100,LG-H970,1572086442111.0,-3.078,8.031,-2.481,41.1037524,16.8801939,False,NONE
2019-10-26 10:40:42.120,LG-H970,1572086442130.5,-1.745,7.696,1.688,41.1037524,16.8801939,False,NONE
2019-10-26 10:40:42.140,LG-H970,1572086442150.75,-0.678,10.786,2.022,41.1037524,16.8801939,False,NONE
2019-10-26 10:40:42.160,LG-H970,1572086442170.0,-1.057,13.097,0.837,41.1037524,16.8801939,False,NONE
2019-10-26 10:40:42.180,LG-H970,1572086442189.5,-1.808,10.329,2.134,41.1037524,16.8801939,False,NONE
2019-10-26 10:40:42.200,LG-H970,1572086442209.0,0.603,10.355,2.249,41.1037524,16.8801939,False,NONE
2019-10-26 10:40:42.220,LG-H970,1572086442228.5,0.868,13.553,2.44,41.1037524,16.8801939,False,NONE
2019-10-26 10:40:42.240,LG-H970,1572086442248.0,0.597,15.359,1.19,41.1037524,16.8801939,False,NONE
2019-10-26 10:40:42.260,LG-H970,1572086442267.75,1.795,12.764,2.287,41.1037524,16.8801939,False,NONE
2019-10-26 10:40:42.280,LG-H970,1572086442287.5,2.324,9.721,1.241,41.1037524,16.8801939,False,NONE
2019-10-26 10:40:42.300,LG-H970,1572086442307.25,-0.89,11.363,-1.272,41.1037524,16.8801939,False,NONE
2019-10-26 10:40:42.320,LG-H970,1572086442327.25,-3.448,11.984,-2.106,41.1037524,16.8801939,False,NONE
2019-10-26 10:40:42.340,LG-H970,1572086442347.25,-1.179,10.754,0.815,41.1037524,16.8801939,False,NONE
2019-10-26 10:40:42.360,LG-H970,1572086442369.2,2.395,8.782,0.995,41.1037524,16.8801939,False,NONE
2019-10-26 10:40:42.380,LG-H970,1572086442390.25,0.486,9.955,0.805,41.1037524,16.8801939,False,NONE
2019-10-26 10:40:42.400,LG-H970,1572086442410.5,-3.466,10.555,-2.558,41.1037524,16.8801939,False,NONE
2019-10-26 10:40:42.420,LG-H970,1572086442430.0,-3.524,10.884,-2.165,41.1037524,16.8801939,False,NONE
2019-10-26 10:40:42.440,LG-H970,1572086442450.25,-1.566,8.58,-1.521,41.1037524,16.8801939,False,NONE
2019-10-26 10:40:42.460,LG-H970,1572086442470.75,-0.474,9.19,0.002,41.1037524,16.8801939,False,NONE
2019-10-26 10:40:42.480,LG-H970,1572086442490.5,-2.579,9.76,-0.281,41.1037524,16.8801939,False,NONE
2019-10-26 10:40:42.500,LG-H970,1572086442508.75,-4.061,11.199,-2.429,41.1037524,16.8801939,False,NONE
2019-10-26 10:40:42.520,LG-H970,1572086442528.5,-3.266,10.959,-1.601,41.1037524,16.8801939,False,NONE
2019-10-26 10:40:42.540,LG-H970,1572086442549.0,-1.666,8.922,0.028,41.1037524,16.8801939,False,NONE
2019-10-26 10:40:42.560,LG-H970,1572086442568.5,-2.202,8.981,-0.572,41.1037524,16.8801939,False,NONE
2019-10-26 10:40:42.580,LG-H970,1572086442588.0,-4.715,9.782,-2.399,41.1037524,16.8801939,False,NONE
2019-10-26 10:40:42.600,LG-H970,1572086442608.75,-4.293,9.458,-2.16,41.1037524,16.8801939,False,NONE
2019-10-26 10:40:42.620,LG-H970,1572086442628.0,-2.102,8.315,0.092,41.1037524,16.8801939,False,NONE
2019-10-26 10:40:42.640,LG-H970,1572086442647.25,-1.629,7.794,-0.362,41.1037524,16.8801939,False,NONE
2019-10-26 10:40:42.660,LG-H970,1572086442676.5,-2.626,8.764,-1.285,41.1037524,16.8801939,False,NONE
2019-10-26 10:40:42.680,LG-H970,1572086442691.0,-3.391,8.582,-2.093,41.1037524,16.8801939,False,NONE
2019-10-26 10:40:42.700,LG-H970,1572086442710.75,-2.231,8.005,0.122,41.1037524,16.8801939,False,NONE
2019-10-26 10:40:42.720,LG-H970,1572086442730.5,-1.587,8.341,0.222,41.1037524,16.8801939,False,NONE
2019-10-26 10:40:42.740,LG-H970,1572086442749.75,-3.599,9.76,-0.774,41.1037524,16.8801939,False,NONE
2019-10-26 10:40:42.760,LG-H970,1572086442769.25,-4.269,10.065,-1.091,41.1037524,16.8801939,False,NONE
2019-10-26 10:40:42.780,LG-H970,1572086442789.75,-1.723,8.363,0.066,41.1037524,16.8801939,False,NONE
2019-10-26 10:40:42.800,LG-H970,1572086442809.5,-0.258,8.098,0.942,41.1037524,16.8801939,False,NONE
2019-10-26 10:40:42.820,LG-H970,1572086442829.25,-2.118,9.734,-0.397,41.1037524,16.8801939,False,NONE
2019-10-26 10:40:42.840,LG-H970,1572086442848.0,-3.405,11.004,-0.583,41.1037524,16.8801939,False,NONE
2019-10-26 10:40:42.860,LG-H970,1572086442867.75,-1.918,9.421,0.221,41.1037524,16.8801939,False,NONE
2019-10-26 10:40:42.880,LG-H970,1572086442887.75,-0.988,8.769,0.555,41.1037524,16.8801939,False,NONE
2019-10-26 10:40:42.900,LG-H970,1572086442910.2,-2.599,10.02,-0.699,41.1037524,16.8801939,True,NONE
2019-10-26 10:40:42.920,LG-H970,1572086442931.5,-3.226,10.462,-0.631,41.1037524,16.8801939,False,NONE
2019-10-26 10:40:42.940,LG-H970,1572086442951.5,-1.802,9.506,0.195,41.1037524,16.8801939,False,NONE
2019-10-26 10:40:42.960,LG-H970,1572086442971.5,-1.437,9.839,0.839,41.1037524,16.8801939,False,NONE
2019-10-26 10:40:42.980,LG-H970,1572086442991.5,-2.322,10.092,-0.631,41.1037524,16.8801939,False,NONE
2019-10-26 10:40:43.000,LG-H970,1572086443009.3333,-2.455,10.257,-0.339,41.1037524,16.8801939,False,NONE
2019-10-26 10:40:43.020,LG-H970,1572086443029.0,-1.758,9.98,-0.26,41.1037524,16.8801939,False,NONE
2019-10-26 10:40:43.040,LG-H970,1572086443051.75,-1.736,9.906,0.744,41.1037524,16.8801939,False,NONE
2019-10-26 10:40:43.060,LG-H970,1572086443070.75,-1.906,10.725,0.416,41.1037524,16.8801939,False,NONE
2019-10-26 10:40:43.080,LG-H970,1572086443090.75,-3.052,9.955,0.374,41.1037524,16.8801939,False,NONE
2019-10-26 10:40:43.100,LG-H970,1572086443110.25,-2.113,9.867,0.327,41.1037524,16.8801939,False,NONE
2019-10-26 10:40:43.120,LG-H970,1572086443129.5,-0.697,10.116,0.28,41.1037524,16.8801939,False,NONE
2019-10-26 10:40:43.140,LG-H970,1572086443149.25,-1.783,9.83,-0.712,41.1037524,16.8801939,False,NONE
2019-10-26 10:40:43.160,LG-H970,1572086443168.75,-2.767,11.106,-0.366,41.1037524,16.8801939,False,NONE
2019-10-26 10:40:43.180,LG-H970,1572086443189.25,-1.767,9.91,-0.289,41.1037524,16.8801939,False,NONE
2019-10-26 10:40:43.200,LG-H970,1572086443209.0,0.545,10.17,1.145,41.1037524,16.8801939,False,NONE
2019-10-26 10:40:43.220,LG-H970,1572086443228.0,-0.588,10.674,-0.256,41.1037524,16.8801939,False,NONE
2019-10-26 10:40:43.240,LG-H970,1572086443248.0,-2.135,11.357,-0.701,41.1037524,16.8801939,False,NONE
2019-10-26 10:40:43.260,LG-H970,1572086443267.25,-0.52,10.392,0.148,41.1037524,16.8801939,False,NONE
2019-10-26 10:40:43.280,LG-H970,1572086443288.0,0.681,9.165,1.239,41.1037524,16.8801939,False,NONE
2019-10-26 10:40:43.300,LG-H970,1572086443307.75,-0.49,10.125,1.137,41.1037524,16.8801939,False,NONE
2019-10-26 10:40:43.320,LG-H970,1572086443328.0,-2.301,10.808,-0.045,41.1037524,16.8801939,False,NONE
2019-10-26 10:40:43.340,LG-H970,1572086443348.5,-1.426,10.675,0.889,41.1037524,16.8801939,False,NONE
2019-10-26 10:40:43.360,LG-H970,1572086443369.5,-0.053,8.899,2.067,41.1037524,16.8801939,False,NONE
2019-10-26 10:40:43.380,LG-H970,1572086443391.5,-1.532,9.894,1.667,41.1037524,16.8801939,False,NONE
2019-10-26 10:40:43.400,LG-H970,1572086443411.5,-3.215,11.528,0.646,41.1037524,16.8801939,False,NONE
2019-10-26 10:40:43.420,LG-H970,1572086443431.25,-2.907,10.592,0.925,41.1037524,16.8801939,False,NONE
2019-10-26 10:40:43.440,LG-H970,1572086443451.0,-1.153,9.254,2.353,41.1037524,16.8801939,False,NONE
2019-10-26 10:40:43.460,LG-H970,1572086443470.75,-1.095,8.98,2.004,41.1037524,16.8801939,False,NONE
2019-10-26 10:40:43.480,LG-H970,1572086443490.75,-2.729,10.143,0.901,41.1037524,16.8801939,False,NONE
2019-10-26 10:40:43.500,LG-H970,1572086443509.75,-3.198,10.821,0.609,41.1037524,16.8801939,False,NONE
2019-10-26 10:40:43.520,LG-H970,1572086443530.0,-1.915,9.882,1.595,41.1037524,16.8801939,False,NONE
2019-10-26 10:40:43.540,LG-H970,1572086443550.75,-1.067,9.46,1.966,41.1037524,16.8801939,False,NONE
2019-10-26 10:40:43.560,LG-H970,1572086443569.5,-2.165,10.164,0.456,41.1037524,16.8801939,False,NONE
2019-10-26 10:40:43.580,LG-H970,1572086443589.25,-2.591,10.719,-0.117,41.1037524,16.8801939,False,NONE
2019-10-26 10:40:43.600,LG-H970,1572086443608.75,-1.262,10.216,0.702,41.1037524,16.8801939,False,NONE
2019-10-26 10:40:43.620,LG-H970,1572086443629.0,-0.549,9.837,1.509,41.1037524,16.8801939,False,NONE
2019-10-26 10:40:43.640,LG-H970,1572086443648.75,-0.901,10.554,0.876,41.1037524,16.8801939,False,NONE
2019-10-26 10:40:43.660,LG-H970,1572086443670.2,-1.681,10.84,-0.177,41.1037524,16.8801939,False,NONE
2019-10-26 10:40:43.680,LG-H970,1572086443692.75,-0.794,9.896,0.587,41.1037524,16.8801939,False,NONE
2019-10-26 10:40:43.700,LG-H970,1572086443711.5,0.306,10.051,1.536,41.1037524,16.8801939,False,NONE
2019-10-26 10:40:43.720,LG-H970,1572086443731.25,-0.523,10.548,0.329,41.1037524,16.8801939,False,NONE
2019-10-26 10:40:43.740,LG-H970,1572086443751.25,-1.839,10.966,0.601,41.1037524,16.8801939,False,NONE
2019-10-26 10:40:43.760,LG-H970,1572086443771.25,-1.534,9.53,-0.775,41.1037524,16.8801939,False,NONE
2019-10-26 10:40:43.780,LG-H970,1572086443790.25,-0.969,9.101,0.124,41.1037524,16.8801939,False,NONE
2019-10-26 10:40:43.800,LG-H970,1572086443810.0,-1.446,8.661,-0.65,41.1037524,16.8801939,False,NONE
2019-10-26 10:40:43.820,LG-H970,1572086443827.3333,-2.191,9.886,-0.029,41.1037524,16.8801939,False,NONE
2019-10-26 10:40:43.840,LG-H970,1572086443849.0,-1.935,9.691,-0.15,41.1037524,16.8801939,False,NONE
2019-10-26 10:40:43.860,LG-H970,1572086443869.0,-0.681,9.417,0.63,41.1037524,16.8801939,False,NONE
2019-10-26 10:40:43.880,LG-H970,1572086443889.25,-0.882,9.777,0.121,41.1037524,16.8801939,False,NONE
2019-10-26 10:40:43.900,LG-H970,1572086443908.75,-1.346,10.355,-0.029,41.1037524,16.8801939,False,NONE
2019-10-26 10:40:43.920,LG-H970,1572086443929.5,-0.727,10.328,0.541,41.1037524,16.8801939,False,NONE
2019-10-26 10:40:43.940,LG-H970,1572086443948.75,-1.164,9.579,0.337,41.1037524,16.8801939,False,NONE
2019-10-26 10:40:43.960,LG-H970,1572086443968.0,-2.025,9.486,-0.253,41.1037524,16.8801939,False,NONE
2019-10-26 10:40:43.980,LG-H970,1572086443987.5,-2.395,8.913,-0.924,41.1037524,16.8801939,False,NONE
2019-10-26 10:40:44.000,LG-H970,1572086444008.5,-1.742,8.855,-0.75,41.1037524,16.8801939,False,NONE
2019-10-26 10:40:44.020,LG-H970,1572086444027.5,-1.292,9.259,0.435,41.1037524,16.8801939,False,NONE
2019-10-26 10:40:44.040,LG-H970,1572086444049.6,-1.386,10.162,0.813,41.1037524,16.8801939,False,NONE
2019-10-26 10:40:44.060,LG-H970,1572086444071.75,-1.38,10.621,0.485,41.1037524,16.8801939,False,NONE
2019-10-26 10:40:44.080,LG-H970,1572086444091.5,-1.342,9.462,0.365,41.1037524,16.8801939,False,NONE
2019-10-26 10:40:44.100,LG-H970,1572086444111.0,-1.324,9.525,0.447,41.1037524,16.8801939,False,NONE
2019-10-26 10:40:44.120,LG-H970,1572086444129.0,-1.836,10.127,0.048,41.1037524,16.8801939,False,NONE
2019-10-26 10:40:44.140,LG-H970,1572086444148.4,-1.605,10.883,0.316,41.1037524,16.8801939,False,NONE
2019-10-26 10:40:44.160,LG-H970,1572086444170.5,-1.17,10.466,0.483,41.1037524,16.8801939,False,NONE
2019-10-26 10:40:44.180,LG-H970,1572086444189.75,-0.866,9.581,-0.023,41.1037524,16.8801939,False,NONE
2019-10-26 10:40:44.200,LG-H970,1572086444210.75,-1.0,9.613,-0.268,41.1037524,16.8801939,False,NONE
2019-10-26 10:40:44.220,LG-H970,1572086444230.0,-1.06,9.887,-0.668,41.1037524,16.8801939,False,NONE
2019-10-26 10:40:44.240,LG-H970,1572086444249.75,-0.746,10.772,0.359,41.1037524,16.8801939,False,NONE
2019-10-26 10:40:44.260,LG-H970,1572086444269.25,-0.793,10.33,0.107,41.1037524,16.8801939,False,NONE
2019-10-26 10:40:44.280,LG-H970,1572086444289.0,-0.471,10.287,-0.243,41.1037524,16.8801939,False,NONE
2019-10-26 10:40:44.300,LG-H970,1572086444308.5,-1.179,9.532,-0.943,41.1037524,16.8801939,False,NONE
2019-10-26 10:40:44.320,LG-H970,1572086444328.25,-1.437,9.777,-1.082,41.1037524,16.8801939,False,NONE
2019-10-26 10:40:44.340,LG-H970,1572086444348.0,-1.64,10.074,-0.435,41.1037524,16.8801939,False,NONE
2019-10-26 10:40:44.360,LG-H970,1572086444370.2,-1.719,10.105,-0.356,41.1037524,16.8801939,False,NONE
2019-10-26 10:40:44.380,LG-H970,1572086444389.0,-1.394,10.24,-0.393,41.1037524,16.8801939,False,NONE
