UTC_timestamp,device_name,timestamp,x,y,z,lat,long,event,speed
2019-10-27 16:07:04.740,LG-H970,1572192424748.0,-2.872,10.111,-0.66,41.1073936,16.8777661,False,6.776
2019-10-27 16:07:04.760,LG-H970,1572192424767.25,-2.564,9.964,-0.987,41.1073936,16.8777661,False,6.776
2019-10-27 16:07:04.780,LG-H970,1572192424789.6,-3.356,9.976,-1.665,41.1073936,16.8777661,False,6.775999999999999
2019-10-27 16:07:04.800,LG-H970,1572192424809.0,-3.135,9.128,-1.208,41.1073936,16.8777661,False,6.776
2019-10-27 16:07:04.820,LG-H970,1572192424829.6,-2.259,8.726,-1.672,41.1073936,16.8777661,False,6.775999999999999
2019-10-27 16:07:04.840,LG-H970,1572192424852.75,-3.405,9.138,-1.34,41.1073936,16.8777661,False,6.776
2019-10-27 16:07:04.860,LG-H970,1572192424868.3333,-4.63,10.132,-2.341,41.1073936,16.8777661,False,6.776
2019-10-27 16:07:04.880,LG-H970,1572192424889.6,-3.905,10.908,-1.385,41.1073936,16.8777661,False,6.775999999999999
2019-10-27 16:07:04.900,LG-H970,1572192424910.75,-2.583,9.445,-0.809,41.1073936,16.8777661,False,6.776
2019-10-27 16:07:04.920,LG-H970,1572192424929.75,-3.045,9.329,-1.35,41.1073936,16.8777661,False,6.776
2019-10-27 16:07:04.940,LG-H970,1572192424949.25,-3.931,10.196,-2.321,41.1073936,16.8777661,False,6.776
2019-10-27 16:07:04.960,LG-H970,1572192424969.5,-3.343,10.386,-1.34,41.1073936,16.8777661,False,6.776
2019-10-27 16:07:04.980,LG-H970,1572192424989.5,-1.965,10.039,-0.727,41.1073936,16.8777661,False,6.776
2019-10-27 16:07:05.000,LG-H970,1572192425010.25,-2.813,10.101,-0.889,41.1073936,16.8777661,False,6.776
2019-10-27 16:07:05.020,LG-H970,1572192425028.75,-4.532,10.504,-2.579,41.1073936,16.8777661,False,6.776
2019-10-27 16:07:05.040,LG-H970,1572192425047.25,-3.977,10.438,-1.792,41.1073936,16.8777661,False,6.776
2019-10-27 16:07:05.060,LG-H970,1572192425068.25,-2.47,9.384,-0.407,41.1073936,16.8777661,False,6.776
2019-10-27 16:07:05.080,LG-H970,1572192425087.75,-2.845,9.426,-0.966,41.1073936,16.8777661,False,6.776
2019-10-27 16:07:05.100,LG-H970,1572192425107.5,-4.245,9.83,-2.64,41.1073936,16.8777661,False,6.776
2019-10-27 16:07:05.120,LG-H970,1572192425130.0,-3.314,9.61,-1.38,41.1073936,16.8777661,False,6.775999999999999
2019-10-27 16:07:05.140,LG-H970,1572192425149.3333,-1.429,9.445,-0.245,41.1073936,16.8777661,False,6.776
2019-10-27 16:07:05.160,LG-H970,1572192425169.2,-2.337,9.929,-0.888,41.1073936,16.8777661,False,6.775999999999999
2019-10-27 16:07:05.180,LG-H970,1572192425191.5,-4.401,10.023,-2.813,41.1073936,16.8777661,False,6.776
2019-10-27 16:07:05.200,LG-H970,1572192425210.75,-2.64,9.588,-1.589,41.1073936,16.8777661,False,6.776
2019-10-27 16:07:05.220,LG-H970,1572192425231.25,-0.796,9.095,-0.481,41.1073936,16.8777661,False,6.776
2019-10-27 16:07:05.240,LG-H970,1572192425250.75,-2.714,10.09,-1.1,41.1073936,16.8777661,False,6.776
2019-10-27 16:07:05.260,LG-H970,1572192425270.0,-4.212,10.464,-2.969,41.1073936,16.8777661,False,6.776
2019-10-27 16:07:05.280,LG-H970,1572192425291.25,-1.586,9.875,-1.127,41.1073936,16.8777661,False,6.776
2019-10-27 16:07:05.300,LG-H970,1572192425309.25,-0.593,8.942,-0.705,41.1073936,16.8777661,False,6.776
2019-10-27 16:07:05.320,LG-H970,1572192425330.5,-3.262,10.019,-1.943,41.1073936,16.8777661,False,6.776
2019-10-27 16:07:05.340,LG-H970,1572192425350.0,-4.314,10.707,-3.398,41.1073936,16.8777661,False,6.776
2019-10-27 16:07:05.360,LG-H970,1572192425369.0,-1.504,10.258,-0.635,41.1073936,16.8777661,False,6.776
2019-10-27 16:07:05.380,LG-H970,1572192425389.5,-0.318,9.494,-0.601,41.1073936,16.8777661,False,6.776
2019-10-27 16:07:05.400,LG-H970,1572192425407.5,-2.838,9.957,-1.923,41.1073936,16.8777661,False,6.776
2019-10-27 16:07:05.420,LG-H970,1572192425427.25,-3.939,9.913,-3.007,41.1073936,16.8777661,False,6.776
2019-10-27 16:07:05.440,LG-H970,1572192425448.0,-1.935,10.106,-0.954,41.1073936,16.8777661,False,6.776
2019-10-27 16:07:05.460,LG-H970,1572192425469.8,-1.477,10.11,-0.353,41.1073936,16.8777661,False,6.775999999999999
2019-10-27 16:07:05.480,LG-H970,1572192425490.0,-3.114,10.33,-1.446,41.1073936,16.8777661,False,6.776
2019-10-27 16:07:05.500,LG-H970,1572192425508.2,-2.77,9.95,-2.144,41.1073936,16.8777661,False,6.775999999999999
2019-10-27 16:07:05.520,LG-H970,1572192425530.75,-1.451,9.936,-0.719,41.1073936,16.8777661,False,6.776
2019-10-27 16:07:05.540,LG-H970,1572192425548.3333,-2.147,10.159,-0.441,41.1073936,16.8777661,False,6.776
2019-10-27 16:07:05.560,LG-H970,1572192425568.6,-3.668,10.425,-1.999,41.1073936,16.8777661,False,6.775999999999999
2019-10-27 16:07:05.580,LG-H970,1572192425591.0,-3.439,9.457,-2.329,41.1073936,16.8777661,False,6.776
2019-10-27 16:07:05.600,LG-H970,1572192425607.6667,-2.016,8.918,-1.088,41.1073936,16.8777661,False,6.776
2019-10-27 16:07:05.620,LG-H970,1572192425628.8,-2.081,9.007,-1.167,41.1073936,16.8777661,False,6.775999999999999
2019-10-27 16:07:05.640,LG-H970,1572192425648.75,-3.588,9.618,-1.92,41.1073936,16.8777661,False,6.776
2019-10-27 16:07:05.660,LG-H970,1572192425669.0,-3.171,9.636,-2.596,41.1073936,16.8777661,False,6.776
2019-10-27 16:07:05.680,LG-H970,1572192425686.8,-1.139,9.263,-0.97,41.1073936,16.8777661,False,6.775999999999999
2019-10-27 16:07:05.700,LG-H970,1572192425709.25,-1.404,9.739,-1.416,41.1073936,16.8777661,False,6.776
2019-10-27 16:07:05.720,LG-H970,1572192425727.5,-3.978,10.077,-1.146,41.1073936,16.8777661,False,6.776
2019-10-27 16:07:05.740,LG-H970,1572192425748.0,-4.417,10.738,-2.518,41.1073936,16.8777661,False,6.776
2019-10-27 16:07:05.760,LG-H970,1572192425768.5,-2.841,9.821,-1.32,41.1073936,16.8777661,False,6.776
2019-10-27 16:07:05.780,LG-H970,1572192425787.0,-2.279,9.105,-0.747,41.1073936,16.8777661,False,6.776
2019-10-27 16:07:05.800,LG-H970,1572192425809.6,-3.989,10.036,-2.372,41.1073936,16.8777661,False,6.775999999999999
2019-10-27 16:07:05.820,LG-H970,1572192425831.5,-4.157,10.863,-1.923,41.1073936,16.8777661,False,6.776
2019-10-27 16:07:05.840,LG-H970,1572192425850.75,-2.152,10.193,-0.402,41.1073936,16.8777661,False,6.776
2019-10-27 16:07:05.860,LG-H970,1572192425870.75,-2.994,9.674,-0.557,41.1073936,16.8777661,False,6.776
2019-10-27 16:07:05.880,LG-H970,1572192425887.6667,-5.447,9.314,-2.567,41.1073936,16.8777661,False,6.776
2019-10-27 16:07:05.900,LG-H970,1572192425908.0,-5.492,9.441,-2.518,41.1073936,16.8777661,False,6.775999999999999
2019-10-27 16:07:05.920,LG-H970,1572192425929.5,-2.705,9.254,-0.818,41.1073936,16.8777661,False,6.776
2019-10-27 16:07:05.940,LG-H970,1572192425949.5,-2.284,10.044,0.216,41.1073936,16.8777661,False,6.776
2019-10-27 16:07:05.960,LG-H970,1572192425969.0,-4.355,10.189,-1.332,41.1073936,16.8777661,False,6.776
2019-10-27 16:07:05.980,LG-H970,1572192425989.25,-3.724,9.757,-2.271,41.1073936,16.8777661,False,6.776
2019-10-27 16:07:06.000,LG-H970,1572192426009.75,-1.754,9.032,-0.862,41.1073936,16.8777661,False,6.776
2019-10-27 16:07:06.020,LG-H970,1572192426031.0,-2.889,10.357,-1.194,41.1073936,16.8777661,False,6.775999999999999
2019-10-27 16:07:06.040,LG-H970,1572192426050.0,-5.024,10.583,-1.944,41.1073936,16.8777661,False,6.776
2019-10-27 16:07:06.060,LG-H970,1572192426067.75,-3.977,10.312,-0.861,41.1073936,16.8777661,False,6.776
2019-10-27 16:07:06.080,LG-H970,1572192426087.5,-2.356,9.011,-0.338,41.1073936,16.8777661,False,6.776
2019-10-27 16:07:06.100,LG-H970,1572192426107.0,-3.072,9.472,-0.575,41.1073936,16.8777661,False,6.776
2019-10-27 16:07:06.120,LG-H970,1572192426129.4,-4.258,10.743,-1.853,41.1073936,16.8777661,False,6.775999999999999
2019-10-27 16:07:06.140,LG-H970,1572192426149.0,-3.754,10.918,-0.15,41.1073936,16.8777661,False,6.776
2019-10-27 16:07:06.160,LG-H970,1572192426168.8,-3.15,10.479,-0.159,41.1073936,16.8777661,False,6.775999999999999
2019-10-27 16:07:06.180,LG-H970,1572192426191.25,-4.027,10.059,-0.874,41.1073936,16.8777661,False,6.776
2019-10-27 16:07:06.200,LG-H970,1572192426210.5,-4.474,9.867,-0.23,41.1073936,16.8777661,False,6.776
2019-10-27 16:07:06.220,LG-H970,1572192426227.6667,-3.976,9.919,0.986,41.1073936,16.8777661,False,6.776
2019-10-27 16:07:06.240,LG-H970,1572192426259.0,-3.549,10.676,0.644,41.1073936,16.8777661,True,6.776
2019-10-27 16:07:06.260,LG-H970,1572192426264.5,-4.177,11.045,0.675,41.1073936,16.8777661,False,6.776
2019-10-27 16:07:06.280,LG-H970,1572192426296.5,-3.794,10.494,0.149,41.1073936,16.8777661,False,6.776
2019-10-27 16:07:06.300,LG-H970,1572192426309.5,-3.4,9.127,0.877,41.1073936,16.8777661,False,6.776
2019-10-27 16:07:06.320,LG-H970,1572192426328.5,-5.322,10.354,-0.001,41.1073936,16.8777661,False,6.776
2019-10-27 16:07:06.340,LG-H970,1572192426348.5,-5.501,11.477,-0.727,41.1073936,16.8777661,False,6.776
2019-10-27 16:07:06.360,LG-H970,1572192426368.25,-3.757,9.985,0.841,41.1073936,16.8777661,False,6.776
2019-10-27 16:07:06.380,LG-H970,1572192426388.5,-3.872,8.751,0.093,41.1073936,16.8777661,False,6.776
2019-10-27 16:07:06.400,LG-H970,1572192426408.0,-5.722,8.993,-1.902,41.1073936,16.8777661,False,6.776
2019-10-27 16:07:06.420,LG-H970,1572192426427.75,-5.206,9.472,-1.713,41.1073936,16.8777661,False,6.776
2019-10-27 16:07:06.440,LG-H970,1572192426450.2,-2.765,10.071,0.666,41.1073936,16.8777661,False,6.775999999999999
2019-10-27 16:07:06.460,LG-H970,1572192426467.5,-2.22,11.49,-0.75,41.1073936,16.8777661,False,6.776
2019-10-27 16:07:06.480,LG-H970,1572192426488.0,-3.979,11.094,-0.165,41.1073936,16.8777661,False,6.776
2019-10-27 16:07:06.500,LG-H970,1572192426509.0,-4.316,10.563,-0.526,41.1073936,16.8777661,False,6.775999999999999
2019-10-27 16:07:06.520,LG-H970,1572192426529.0,-3.784,10.051,0.466,41.1073936,16.8777661,False,6.776
2019-10-27 16:07:06.540,LG-H970,1572192426548.8,-4.315,10.021,-0.043,41.1073936,16.8777661,False,6.775999999999999
2019-10-27 16:07:06.560,LG-H970,1572192426572.0,-4.696,9.87,-0.77,41.1073936,16.8777661,False,6.776
2019-10-27 16:07:06.580,LG-H970,1572192426589.3333,-5.208,10.164,-0.549,41.1073936,16.8777661,False,6.776
2019-10-27 16:07:06.600,LG-H970,1572192426608.6667,-4.115,10.537,-0.232,41.1073936,16.8777661,False,6.776
2019-10-27 16:07:06.620,LG-H970,1572192426628.0,-3.116,10.542,0.175,41.1073936,16.8777661,False,6.775999999999999
2019-10-27 16:07:06.640,LG-H970,1572192426649.0,-3.681,12.288,0.451,41.1073936,16.8777661,False,6.776
2019-10-27 16:07:06.660,LG-H970,1572192426674.3333,-3.985,12.168,-0.038,41.1075097,16.8776615,False,7.4430000000000005
2019-10-27 16:07:06.680,LG-H970,1572192426688.75,-3.053,11.11,-0.235,41.1075097,16.8776615,False,7.443
2019-10-27 16:07:06.700,LG-H970,1572192426707.25,-2.635,10.723,-0.416,41.1075097,16.8776615,False,7.443
2019-10-27 16:07:06.720,LG-H970,1572192426729.0,-2.989,11.286,-0.126,41.1075097,16.8776615,False,7.4430000000000005
2019-10-27 16:07:06.740,LG-H970,1572192426747.75,-3.294,11.954,0.643,41.1075097,16.8776615,False,7.443
2019-10-27 16:07:06.760,LG-H970,1572192426768.5,-3.156,11.717,-0.35,41.1075097,16.8776615,False,7.443
2019-10-27 16:07:06.780,LG-H970,1572192426787.5,-2.932,11.078,-0.638,41.1075097,16.8776615,False,7.443
2019-10-27 16:07:06.800,LG-H970,1572192426807.25,-3.144,9.58,-0.905,41.1075097,16.8776615,False,7.443
2019-10-27 16:07:06.820,LG-H970,1572192426828.0,-3.085,9.138,-1.203,41.1075097,16.8776615,False,7.443
2019-10-27 16:07:06.840,LG-H970,1572192426849.8,-2.841,9.233,-1.438,41.1075097,16.8776615,False,7.443
2019-10-27 16:07:06.860,LG-H970,1572192426871.25,-2.355,8.762,-0.941,41.1075097,16.8776615,False,7.443
2019-10-27 16:07:06.880,LG-H970,1572192426889.0,-2.826,8.741,-0.855,41.1075097,16.8776615,False,7.4430000000000005
2019-10-27 16:07:06.900,LG-H970,1572192426909.4,-3.657,8.704,-1.711,41.1075097,16.8776615,False,7.443
2019-10-27 16:07:06.920,LG-H970,1572192426933.0,-3.952,8.492,-0.622,41.1075097,16.8776615,False,7.443
2019-10-27 16:07:06.940,LG-H970,1572192426950.0,-3.76,9.001,-0.938,41.1075097,16.8776615,False,7.443
2019-10-27 16:07:06.960,LG-H970,1572192426970.0,-3.379,9.757,-0.89,41.1075097,16.8776615,False,7.443
2019-10-27 16:07:06.980,LG-H970,1572192426989.75,-3.528,9.213,-1.565,41.1075097,16.8776615,False,7.443
2019-10-27 16:07:07.000,LG-H970,1572192427009.5,-3.502,9.41,-1.809,41.1075097,16.8776615,False,7.443
2019-10-27 16:07:07.020,LG-H970,1572192427029.5,-3.752,9.307,-1.539,41.1075097,16.8776615,False,7.443
2019-10-27 16:07:07.040,LG-H970,1572192427047.75,-3.758,9.967,-1.105,41.1075097,16.8776615,False,7.443
2019-10-27 16:07:07.060,LG-H970,1572192427068.25,-3.964,9.756,-1.042,41.1075097,16.8776615,False,7.443
2019-10-27 16:07:07.080,LG-H970,1572192427089.25,-3.123,9.948,-1.223,41.1075097,16.8776615,False,7.443
2019-10-27 16:07:07.100,LG-H970,1572192427107.75,-2.309,9.49,-0.554,41.1075097,16.8776615,False,7.443
2019-10-27 16:07:07.120,LG-H970,1572192427128.0,-2.485,10.039,-1.035,41.1075097,16.8776615,False,7.443
2019-10-27 16:07:07.140,LG-H970,1572192427147.25,-2.901,10.819,-1.785,41.1075097,16.8776615,False,7.443
2019-10-27 16:07:07.160,LG-H970,1572192427167.5,-2.925,10.472,-1.06,41.1075097,16.8776615,False,7.443
2019-10-27 16:07:07.180,LG-H970,1572192427189.0,-2.142,9.599,0.454,41.1075097,16.8776615,False,7.443
2019-10-27 16:07:07.200,LG-H970,1572192427209.0,-3.094,10.191,-1.341,41.1075097,16.8776615,False,7.4430000000000005
2019-10-27 16:07:07.220,LG-H970,1572192427229.4,-4.1,9.547,-0.734,41.1075097,16.8776615,False,7.443
2019-10-27 16:07:07.240,LG-H970,1572192427251.25,-2.199,8.93,-0.189,41.1075097,16.8776615,False,7.443
2019-10-27 16:07:07.260,LG-H970,1572192427270.0,-2.255,8.761,1.056,41.1075097,16.8776615,False,7.443
2019-10-27 16:07:07.280,LG-H970,1572192427291.25,-3.943,9.439,-1.253,41.1075097,16.8776615,False,7.443
2019-10-27 16:07:07.300,LG-H970,1572192427310.5,-3.317,9.62,-0.929,41.1075097,16.8776615,False,7.443
2019-10-27 16:07:07.320,LG-H970,1572192427330.25,-0.863,9.075,-0.154,41.1075097,16.8776615,False,7.443
2019-10-27 16:07:07.340,LG-H970,1572192427350.25,-0.805,9.447,0.378,41.1075097,16.8776615,False,7.443
2019-10-27 16:07:07.360,LG-H970,1572192427370.0,-2.392,10.004,-1.436,41.1075097,16.8776615,False,7.443
2019-10-27 16:07:07.380,LG-H970,1572192427390.0,-2.786,9.961,-1.008,41.1075097,16.8776615,False,7.443
2019-10-27 16:07:07.400,LG-H970,1572192427408.25,-1.456,9.561,-0.874,41.1075097,16.8776615,False,7.443
2019-10-27 16:07:07.420,LG-H970,1572192427428.5,-0.838,9.634,-0.569,41.1075097,16.8776615,False,7.443
2019-10-27 16:07:07.440,LG-H970,1572192427449.0,-1.813,9.876,-0.972,41.1075097,16.8776615,False,7.443
2019-10-27 16:07:07.460,LG-H970,1572192427468.0,-1.575,10.431,-0.947,41.1075097,16.8776615,False,7.443
2019-10-27 16:07:07.480,LG-H970,1572192427487.5,-0.955,9.932,-0.874,41.1075097,16.8776615,False,7.443
2019-10-27 16:07:07.500,LG-H970,1572192427509.4,-1.924,10.585,-0.862,41.1075097,16.8776615,False,7.443
2019-10-27 16:07:07.520,LG-H970,1572192427531.25,-2.375,10.583,-0.973,41.1075097,16.8776615,False,7.443
2019-10-27 16:07:07.540,LG-H970,1572192427549.3333,-1.286,10.663,-0.652,41.1075097,16.8776615,False,7.4430000000000005
2019-10-27 16:07:07.560,LG-H970,1572192427569.0,-1.816,10.483,0.002,41.1075097,16.8776615,False,7.443
2019-10-27 16:07:07.580,LG-H970,1572192427590.75,-2.82,11.112,-0.323,41.1075097,16.8776615,False,7.443
2019-10-27 16:07:07.600,LG-H970,1572192427611.75,-2.324,11.654,-0.386,41.1075097,16.8776615,False,7.443
2019-10-27 16:07:07.620,LG-H970,1572192427630.0,-2.088,11.192,0.242,41.1075097,16.8776615,False,7.443
2019-10-27 16:07:07.640,LG-H970,1572192427650.5,-2.122,11.307,0.409,41.1075097,16.8776615,False,7.443
2019-10-27 16:07:07.660,LG-H970,1572192427670.5,-3.09,11.484,-0.368,41.1075374,16.8775786,False,6.643
2019-10-27 16:07:07.680,LG-H970,1572192427687.0,-2.722,11.688,-0.913,41.1075374,16.8775786,False,6.642999999999999
2019-10-27 16:07:07.700,LG-H970,1572192427709.0,-0.948,10.788,-0.276,41.1075374,16.8775786,False,6.643
2019-10-27 16:07:07.720,LG-H970,1572192427729.25,-1.681,11.07,-0.018,41.1075374,16.8775786,False,6.643
