UTC_timestamp,device_name,timestamp,x,y,z,lat,long,event,speed
2019-10-26 09:45:55.000,LG-H970,1572083155009.5,-0.708,9.461,-0.712,41.1078101,16.8811152,False,NONE
2019-10-26 09:45:55.020,LG-H970,1572083155030.0,-0.535,10.308,0.152,41.1078101,16.8811152,False,NONE
2019-10-26 09:45:55.040,LG-H970,1572083155050.0,-0.664,9.498,-0.791,41.1078101,16.8811152,False,NONE
2019-10-26 09:45:55.060,LG-H970,1572083155069.5,-0.439,10.227,0.26,41.1078101,16.8811152,False,NONE
2019-10-26 09:45:55.080,LG-H970,1572083155089.25,-0.67,9.515,-0.816,41.1078101,16.8811152,False,NONE
2019-10-26 09:45:55.100,LG-H970,1572083155108.75,-0.543,10.308,0.225,41.1078101,16.8811152,False,NONE
2019-10-26 09:45:55.120,LG-H970,1572083155128.0,-0.681,9.48,-0.819,41.1078101,16.8811152,False,NONE
2019-10-26 09:45:55.140,LG-H970,1572083155147.75,-0.491,10.22,0.314,41.1078101,16.8811152,False,NONE
2019-10-26 09:45:55.160,LG-H970,1572083155170.0,-0.617,9.615,-0.686,41.1078101,16.8811152,False,NONE
2019-10-26 09:45:55.180,LG-H970,1572083155190.6667,-0.482,10.287,0.421,41.1078101,16.8811152,False,NONE
2019-10-26 09:45:55.200,LG-H970,1572083155210.2,-0.649,9.625,-0.743,41.1078101,16.8811152,False,NONE
2019-10-26 09:45:55.220,LG-H970,1572083155230.0,-0.501,10.329,0.428,41.1078101,16.8811152,False,NONE
2019-10-26 09:45:55.240,LG-H970,1572083155250.2,-0.626,9.568,-0.682,41.1078101,16.8811152,False,NONE
2019-10-26 09:45:55.260,LG-H970,1572083155272.0,-0.468,10.351,0.169,41.1078101,16.8811152,False,NONE
2019-10-26 09:45:55.280,LG-H970,1572083155292.75,-0.738,9.481,-0.802,41.1078101,16.8811152,False,NONE
2019-10-26 09:45:55.300,LG-H970,1572083155309.6667,-0.507,10.256,0.469,41.1078101,16.8811152,False,NONE
2019-10-26 09:45:55.320,LG-H970,1572083155329.0,-0.638,9.641,-0.736,41.1078101,16.8811152,False,NONE
2019-10-26 09:45:55.340,LG-H970,1572083155351.25,-0.475,10.296,0.218,41.1078101,16.8811152,False,NONE
2019-10-26 09:45:55.360,LG-H970,1572083155370.5,-0.685,9.417,-0.769,41.1078101,16.8811152,False,NONE
2019-10-26 09:45:55.380,LG-H970,1572083155390.0,-0.462,10.325,0.205,41.1078101,16.8811152,False,NONE
2019-10-26 09:45:55.400,LG-H970,1572083155409.25,-0.679,9.453,-0.807,41.1078101,16.8811152,False,NONE
2019-10-26 09:45:55.420,LG-H970,1572083155429.75,-0.47,10.249,0.275,41.1078101,16.8811152,False,NONE
2019-10-26 09:45:55.440,LG-H970,1572083155449.5,-0.673,9.54,-0.813,41.1078101,16.8811152,False,NONE
2019-10-26 09:45:55.460,LG-H970,1572083155468.5,-0.483,10.301,0.232,41.1078101,16.8811152,False,NONE
2019-10-26 09:45:55.480,LG-H970,1572083155490.0,-0.638,9.423,-0.86,41.1078101,16.8811152,False,NONE
2019-10-26 09:45:55.500,LG-H970,1572083155507.5,-0.49,10.265,0.206,41.1078101,16.8811152,False,NONE
2019-10-26 09:45:55.520,LG-H970,1572083155529.8,-0.661,9.57,-0.704,41.1078101,16.8811152,False,NONE
2019-10-26 09:45:55.540,LG-H970,1572083155551.75,-0.459,10.264,0.212,41.1078101,16.8811152,False,NONE
2019-10-26 09:45:55.560,LG-H970,1572083155569.6667,-0.729,9.373,-0.944,41.1078101,16.8811152,False,NONE
2019-10-26 09:45:55.580,LG-H970,1572083155589.4,-0.498,10.225,0.101,41.1078101,16.8811152,False,NONE
2019-10-26 09:45:55.600,LG-H970,1572083155610.6667,-0.714,9.323,-0.902,41.1078101,16.8811152,False,NONE
2019-10-26 09:45:55.620,LG-H970,1572083155633.0,-0.494,10.346,-0.034,41.1078101,16.8811152,False,NONE
2019-10-26 09:45:55.640,LG-H970,1572083155650.25,-0.723,9.469,-0.771,41.1078101,16.8811152,False,NONE
2019-10-26 09:45:55.660,LG-H970,1572083155669.5,-0.441,10.274,0.224,41.1078101,16.8811152,False,NONE
2019-10-26 09:45:55.680,LG-H970,1572083155689.0,-0.691,9.526,-0.805,41.1078101,16.8811152,False,NONE
2019-10-26 09:45:55.700,LG-H970,1572083155708.75,-0.49,10.261,0.239,41.1078101,16.8811152,False,NONE
2019-10-26 09:45:55.720,LG-H970,1572083155728.0,-0.679,9.423,-0.757,41.1078101,16.8811152,False,NONE
2019-10-26 09:45:55.740,LG-H970,1572083155748.25,-0.465,10.319,0.243,41.1078101,16.8811152,False,NONE
2019-10-26 09:45:55.760,LG-H970,1572083155767.5,-0.693,9.466,-0.831,41.1078101,16.8811152,False,NONE
2019-10-26 09:45:55.780,LG-H970,1572083155788.5,-0.487,10.266,0.285,41.1078101,16.8811152,False,NONE
2019-10-26 09:45:55.800,LG-H970,1572083155809.25,-0.669,9.482,-0.859,41.1078101,16.8811152,False,NONE
2019-10-26 09:45:55.820,LG-H970,1572083155827.75,-0.489,10.293,0.213,41.1078101,16.8811152,False,NONE
2019-10-26 09:45:55.840,LG-H970,1572083155847.75,-0.682,9.449,-0.808,41.1078101,16.8811152,False,NONE
2019-10-26 09:45:55.860,LG-H970,1572083155868.0,-0.511,10.267,0.279,41.1078101,16.8811152,False,NONE
2019-10-26 09:45:55.880,LG-H970,1572083155890.4,-0.639,9.612,-0.72,41.1078101,16.8811152,False,NONE
2019-10-26 09:45:55.900,LG-H970,1572083155912.25,-0.488,10.235,0.2,41.1078101,16.8811152,False,NONE
2019-10-26 09:45:55.920,LG-H970,1572083155929.6667,-0.758,9.364,-1.009,41.1078101,16.8811152,False,NONE
2019-10-26 09:45:55.940,LG-H970,1572083155947.5,-0.646,10.197,0.305,41.1078101,16.8811152,False,NONE
2019-10-26 09:45:55.960,LG-H970,1572083155967.5,-0.804,9.579,-0.868,41.1078101,16.8811152,False,NONE
2019-10-26 09:45:55.980,LG-H970,1572083155987.25,-0.558,10.062,0.295,41.1078101,16.8811152,False,NONE
2019-10-26 09:45:56.000,LG-H970,1572083156008.0,-0.435,9.623,-0.591,41.1078101,16.8811152,False,NONE
2019-10-26 09:45:56.020,LG-H970,1572083156030.25,-0.502,10.288,0.155,41.1078101,16.8811152,False,NONE
2019-10-26 09:45:56.040,LG-H970,1572083156050.25,-0.739,9.643,-0.881,41.1078101,16.8811152,False,NONE
2019-10-26 09:45:56.060,LG-H970,1572083156069.75,-0.36,10.264,0.143,41.1078101,16.8811152,False,NONE
2019-10-26 09:45:56.080,LG-H970,1572083156089.25,-0.469,9.412,-0.596,41.1078101,16.8811152,False,NONE
2019-10-26 09:45:56.100,LG-H970,1572083156108.5,-0.572,10.233,0.158,41.1078101,16.8811152,False,NONE
2019-10-26 09:45:56.120,LG-H970,1572083156127.75,-0.823,9.645,-0.819,41.1078101,16.8811152,False,NONE
2019-10-26 09:45:56.140,LG-H970,1572083156147.75,-0.517,10.19,0.19,41.1078101,16.8811152,False,NONE
2019-10-26 09:45:56.160,LG-H970,1572083156167.75,-0.502,9.486,-0.733,41.1078101,16.8811152,False,NONE
2019-10-26 09:45:56.180,LG-H970,1572083156187.5,-0.46,10.181,0.176,41.1078101,16.8811152,False,NONE
2019-10-26 09:45:56.200,LG-H970,1572083156207.5,-0.794,9.626,-0.762,41.1078101,16.8811152,False,NONE
2019-10-26 09:45:56.220,LG-H970,1572083156225.0,-0.839,10.046,0.225,41.1078101,16.8811152,False,NONE
2019-10-26 09:45:56.240,LG-H970,1572083156248.25,-0.602,9.639,-0.631,41.1078101,16.8811152,False,NONE
2019-10-26 09:45:56.260,LG-H970,1572083156270.0,-0.404,10.043,0.153,41.1078101,16.8811152,False,NONE
2019-10-26 09:45:56.280,LG-H970,1572083156289.0,-0.794,9.558,-0.938,41.1078101,16.8811152,False,NONE
2019-10-26 09:45:56.300,LG-H970,1572083156309.2,-0.709,10.216,0.028,41.1078101,16.8811152,False,NONE
2019-10-26 09:45:56.320,LG-H970,1572083156331.25,-0.588,9.472,-0.645,41.1078101,16.8811152,False,NONE
2019-10-26 09:45:56.340,LG-H970,1572083156350.0,-0.303,10.219,0.178,41.1078101,16.8811152,False,NONE
2019-10-26 09:45:56.360,LG-H970,1572083156370.0,-0.697,9.529,-0.746,41.1078101,16.8811152,False,NONE
2019-10-26 09:45:56.380,LG-H970,1572083156389.25,-0.627,10.269,0.142,41.1078101,16.8811152,False,NONE
2019-10-26 09:45:56.400,LG-H970,1572083156409.5,-0.672,9.588,-0.776,41.1078101,16.8811152,False,NONE
2019-10-26 09:45:56.420,LG-H970,1572083156429.25,-0.363,10.144,0.178,41.1078101,16.8811152,False,NONE
2019-10-26 09:45:56.440,LG-H970,1572083156448.5,-0.613,9.451,-0.646,41.1078101,16.8811152,False,NONE
2019-10-26 09:45:56.460,LG-H970,1572083156468.5,-0.547,10.33,0.065,41.1078101,16.8811152,False,NONE
2019-10-26 09:45:56.480,LG-H970,1572083156490.0,-0.729,9.562,-0.763,41.1078101,16.8811152,False,NONE
2019-10-26 09:45:56.500,LG-H970,1572083156510.6,-0.465,10.045,0.095,41.1078101,16.8811152,True,NONE
2019-10-26 09:45:56.520,LG-H970,1572083156531.5,-0.639,9.663,-0.682,41.1078101,16.8811152,True,NONE
2019-10-26 09:45:56.540,LG-H970,1572083156551.75,-0.591,10.22,0.064,41.1078101,16.8811152,False,NONE
2019-10-26 09:45:56.560,LG-H970,1572083156571.5,-0.772,9.564,-0.668,41.1078101,16.8811152,False,NONE
2019-10-26 09:45:56.580,LG-H970,1572083156591.75,-0.46,10.241,0.116,41.1078101,16.8811152,False,NONE
2019-10-26 09:45:56.600,LG-H970,1572083156611.5,-0.666,9.497,-0.678,41.1078101,16.8811152,False,NONE
2019-10-26 09:45:56.620,LG-H970,1572083156632.0,-0.574,10.194,0.161,41.1078101,16.8811152,False,NONE
2019-10-26 09:45:56.640,LG-H970,1572083156651.5,-0.728,9.632,-0.763,41.1078101,16.8811152,False,NONE
2019-10-26 09:45:56.660,LG-H970,1572083156671.5,-0.472,10.18,0.126,41.1078101,16.8811152,False,NONE
2019-10-26 09:45:56.680,LG-H970,1572083156690.75,-0.649,9.479,-0.66,41.1078101,16.8811152,False,NONE
2019-10-26 09:45:56.700,LG-H970,1572083156710.75,-0.539,10.312,0.114,41.1078101,16.8811152,False,NONE
2019-10-26 09:45:56.720,LG-H970,1572083156730.25,-0.73,9.539,-0.76,41.1078101,16.8811152,False,NONE
2019-10-26 09:45:56.740,LG-H970,1572083156750.75,-0.466,10.162,0.172,41.1078101,16.8811152,False,NONE
2019-10-26 09:45:56.760,LG-H970,1572083156770.25,-0.607,9.542,-0.705,41.1078101,16.8811152,False,NONE
2019-10-26 09:45:56.780,LG-H970,1572083156789.75,-0.463,10.231,0.133,41.1078101,16.8811152,False,NONE
2019-10-26 09:45:56.800,LG-H970,1572083156808.5,-0.719,9.561,-0.728,41.1078101,16.8811152,False,NONE
2019-10-26 09:45:56.820,LG-H970,1572083156828.5,-0.537,10.274,0.151,41.1078101,16.8811152,False,NONE
2019-10-26 09:45:56.840,LG-H970,1572083156848.75,-0.605,9.472,-0.696,41.1078101,16.8811152,False,NONE
2019-10-26 09:45:56.860,LG-H970,1572083156868.25,-0.429,10.161,0.209,41.1078101,16.8811152,False,NONE
2019-10-26 09:45:56.880,LG-H970,1572083156888.0,-0.717,9.654,-0.78,41.1078101,16.8811152,False,NONE
2019-10-26 09:45:56.900,LG-H970,1572083156907.75,-0.587,10.237,0.14,41.1078101,16.8811152,False,NONE
2019-10-26 09:45:56.920,LG-H970,1572083156927.5,-0.63,9.506,-0.696,41.1078101,16.8811152,False,NONE
2019-10-26 09:45:56.940,LG-H970,1572083156950.6,-0.482,10.138,0.054,41.1078101,16.8811152,False,NONE
2019-10-26 09:45:56.960,LG-H970,1572083156969.3333,-0.757,9.417,-0.9,41.1078101,16.8811152,False,NONE
2019-10-26 09:45:56.980,LG-H970,1572083156989.8,-0.564,10.138,0.056,41.1078101,16.8811152,False,NONE
2019-10-26 09:45:57.000,LG-H970,1572083157011.75,-0.657,9.587,-0.711,41.1078101,16.8811152,False,NONE
2019-10-26 09:45:57.020,LG-H970,1572083157030.25,-0.499,10.23,0.155,41.1078101,16.8811152,False,NONE
2019-10-26 09:45:57.040,LG-H970,1572083157049.5,-0.719,9.505,-0.66,41.1078101,16.8811152,False,NONE
2019-10-26 09:45:57.060,LG-H970,1572083157069.5,-0.509,10.301,0.109,41.1078101,16.8811152,False,NONE
2019-10-26 09:45:57.080,LG-H970,1572083157089.0,-0.679,9.497,-0.718,41.1078101,16.8811152,False,NONE
2019-10-26 09:45:57.100,LG-H970,1572083157109.25,-0.476,10.192,0.238,41.1078101,16.8811152,False,NONE
2019-10-26 09:45:57.120,LG-H970,1572083157128.75,-0.686,9.591,-0.767,41.1078101,16.8811152,False,NONE
2019-10-26 09:45:57.140,LG-H970,1572083157148.25,-0.531,10.225,0.148,41.1078101,16.8811152,False,NONE
2019-10-26 09:45:57.160,LG-H970,1572083157165.3333,-0.65,9.443,-0.815,41.1078101,16.8811152,False,NONE
2019-10-26 09:45:57.180,LG-H970,1572083157188.75,-0.477,10.171,0.121,41.1078101,16.8811152,False,NONE
2019-10-26 09:45:57.200,LG-H970,1572083157210.4,-0.659,9.643,-0.628,41.1078101,16.8811152,False,NONE
2019-10-26 09:45:57.220,LG-H970,1572083157232.25,-0.547,10.174,0.104,41.1078101,16.8811152,False,NONE
2019-10-26 09:45:57.240,LG-H970,1572083157251.25,-0.658,9.599,-0.689,41.1078101,16.8811152,False,NONE
2019-10-26 09:45:57.260,LG-H970,1572083157270.5,-0.448,10.141,0.102,41.1078101,16.8811152,False,NONE
2019-10-26 09:45:57.280,LG-H970,1572083157288.6667,-0.722,9.401,-0.806,41.1078101,16.8811152,False,NONE
2019-10-26 09:45:57.300,LG-H970,1572083157309.4,-0.585,10.222,0.056,41.1078101,16.8811152,False,NONE
2019-10-26 09:45:57.320,LG-H970,1572083157330.25,-0.715,9.51,-0.706,41.1078101,16.8811152,False,NONE
2019-10-26 09:45:57.340,LG-H970,1572083157351.75,-0.467,10.175,0.217,41.1078101,16.8811152,False,NONE
2019-10-26 09:45:57.360,LG-H970,1572083157370.0,-0.71,9.552,-0.719,41.1078101,16.8811152,False,NONE
2019-10-26 09:45:57.380,LG-H970,1572083157388.5,-0.553,10.28,0.113,41.1078101,16.8811152,False,NONE
2019-10-26 09:45:57.400,LG-H970,1572083157408.5,-0.736,9.475,-0.677,41.1078101,16.8811152,False,NONE
2019-10-26 09:45:57.420,LG-H970,1572083157428.5,-0.449,10.289,0.153,41.1078101,16.8811152,False,NONE
2019-10-26 09:45:57.440,LG-H970,1572083157448.5,-0.675,9.448,-0.738,41.1078101,16.8811152,False,NONE
2019-10-26 09:45:57.460,LG-H970,1572083157468.25,-0.508,10.216,0.161,41.1078101,16.8811152,False,NONE
2019-10-26 09:45:57.480,LG-H970,1572083157489.5,-0.705,9.549,-0.787,41.1078101,16.8811152,False,NONE
2019-10-26 09:45:57.500,LG-H970,1572083157508.5,-0.453,10.228,0.172,41.1078101,16.8811152,False,NONE
2019-10-26 09:45:57.520,LG-H970,1572083157527.75,-0.642,9.474,-0.712,41.1078101,16.8811152,False,NONE
2019-10-26 09:45:57.540,LG-H970,1572083157547.75,-0.494,10.302,0.186,41.1078101,16.8811152,False,NONE
2019-10-26 09:45:57.560,LG-H970,1572083157569.4,-0.706,9.617,-0.647,41.1078101,16.8811152,False,NONE
2019-10-26 09:45:57.580,LG-H970,1572083157591.75,-0.5,10.158,0.143,41.1078101,16.8811152,False,NONE
2019-10-26 09:45:57.600,LG-H970,1572083157610.75,-0.624,9.602,-0.655,41.1078101,16.8811152,False,NONE
2019-10-26 09:45:57.620,LG-H970,1572083157631.5,-0.494,10.187,0.094,41.1078101,16.8811152,False,NONE
2019-10-26 09:45:57.640,LG-H970,1572083157651.75,-0.758,9.532,-0.647,41.1078101,16.8811152,False,NONE
2019-10-26 09:45:57.660,LG-H970,1572083157671.5,-0.498,10.311,0.073,41.1078101,16.8811152,False,NONE
2019-10-26 09:45:57.680,LG-H970,1572083157691.5,-0.672,9.457,-0.666,41.1078101,16.8811152,False,NONE
2019-10-26 09:45:57.700,LG-H970,1572083157711.0,-0.49,10.187,0.169,41.1078101,16.8811152,False,NONE
2019-10-26 09:45:57.720,LG-H970,1572083157730.5,-0.728,9.637,-0.72,41.1078101,16.8811152,False,NONE
2019-10-26 09:45:57.740,LG-H970,1572083157750.5,-0.521,10.216,0.106,41.1078101,16.8811152,False,NONE
2019-10-26 09:45:57.760,LG-H970,1572083157770.0,-0.667,9.477,-0.677,41.1078101,16.8811152,False,NONE
2019-10-26 09:45:57.780,LG-H970,1572083157791.5,-0.428,10.267,0.119,41.1078101,16.8811152,False,NONE
2019-10-26 09:45:57.800,LG-H970,1572083157808.75,-0.742,9.414,-0.674,41.1078101,16.8811152,False,NONE
2019-10-26 09:45:57.820,LG-H970,1572083157828.0,-0.416,10.095,0.239,41.1079008,16.8813189,False,NONE
2019-10-26 09:45:57.840,LG-H970,1572083157847.5,-0.436,9.441,-0.807,41.1079008,16.8813189,False,NONE
2019-10-26 09:45:57.860,LG-H970,1572083157869.2,-0.491,9.991,-0.123,41.1079008,16.8813189,False,NONE
2019-10-26 09:45:57.880,LG-H970,1572083157891.5,-0.784,9.578,-0.699,41.1079008,16.8813189,False,NONE
2019-10-26 09:45:57.900,LG-H970,1572083157911.5,-0.321,10.18,-0.064,41.1079008,16.8813189,False,NONE
2019-10-26 09:45:57.920,LG-H970,1572083157931.5,-0.399,9.557,-0.517,41.1079008,16.8813189,False,NONE
2019-10-26 09:45:57.940,LG-H970,1572083157951.5,-0.524,10.033,0.057,41.1079008,16.8813189,False,NONE
2019-10-26 09:45:57.960,LG-H970,1572083157971.75,-0.697,9.773,-0.641,41.1079008,16.8813189,False,NONE
2019-10-26 09:45:57.980,LG-H970,1572083157988.6667,-0.351,10.237,0.147,41.1079008,16.8813189,False,NONE
