UTC_timestamp,device_name,timestamp,x,y,z,lat,long,event,speed
2019-10-26 10:40:40.040,LG-H970,1572086440049.0,-1.22,10.622,-0.193,41.1037524,16.8801939,False,NONE
2019-10-26 10:40:40.060,LG-H970,1572086440069.5,-2.505,10.595,0.59,41.1037524,16.8801939,False,NONE
2019-10-26 10:40:40.080,LG-H970,1572086440089.75,-1.238,10.057,-0.575,41.1037524,16.8801939,False,NONE
2019-10-26 10:40:40.100,LG-H970,1572086440109.5,0.105,9.22,0.498,41.1037524,16.8801939,False,NONE
2019-10-26 10:40:40.120,LG-H970,1572086440129.0,-0.208,8.641,0.264,41.1037524,16.8801939,False,NONE
2019-10-26 10:40:40.140,LG-H970,1572086440148.5,-1.924,9.187,-0.791,41.1037524,16.8801939,False,NONE
2019-10-26 10:40:40.160,LG-H970,1572086440167.5,-1.159,10.007,0.088,41.1037524,16.8801939,False,NONE
2019-10-26 10:40:40.180,LG-H970,1572086440187.5,-0.422,8.11,0.501,41.1037524,16.8801939,False,NONE
2019-10-26 10:40:40.200,LG-H970,1572086440207.5,-0.187,9.153,0.626,41.1037524,16.8801939,False,NONE
2019-10-26 10:40:40.220,LG-H970,1572086440227.75,-1.647,9.317,0.037,41.1037524,16.8801939,False,NONE
2019-10-26 10:40:40.240,LG-H970,1572086440247.0,-2.278,10.214,0.939,41.1037524,16.8801939,False,NONE
2019-10-26 10:40:40.260,LG-H970,1572086440269.4,-0.861,9.498,0.018,41.1037524,16.8801939,False,NONE
2019-10-26 10:40:40.280,LG-H970,1572086440291.75,-0.553,8.977,1.753,41.1037524,16.8801939,False,NONE
2019-10-26 10:40:40.300,LG-H970,1572086440312.5,-1.049,9.202,-0.596,41.1037524,16.8801939,False,NONE
2019-10-26 10:40:40.320,LG-H970,1572086440330.5,-1.73,10.832,1.278,41.1037524,16.8801939,False,NONE
2019-10-26 10:40:40.340,LG-H970,1572086440350.5,-1.591,9.811,-0.465,41.1037524,16.8801939,False,NONE
2019-10-26 10:40:40.360,LG-H970,1572086440370.0,-0.29,10.272,2.44,41.1037524,16.8801939,False,NONE
2019-10-26 10:40:40.380,LG-H970,1572086440390.0,0.223,9.131,-0.049,41.1037524,16.8801939,False,NONE
2019-10-26 10:40:40.400,LG-H970,1572086440409.75,0.116,10.13,0.448,41.1037524,16.8801939,False,NONE
2019-10-26 10:40:40.420,LG-H970,1572086440429.5,-0.806,9.514,-0.596,41.1037524,16.8801939,False,NONE
2019-10-26 10:40:40.440,LG-H970,1572086440449.3333,-0.041,11.187,0.849,41.1037524,16.8801939,False,NONE
2019-10-26 10:40:40.460,LG-H970,1572086440468.75,0.516,10.08,0.923,41.1037524,16.8801939,False,NONE
2019-10-26 10:40:40.480,LG-H970,1572086440487.5,1.505,9.708,0.337,41.1037524,16.8801939,False,NONE
2019-10-26 10:40:40.500,LG-H970,1572086440507.75,0.803,9.44,-1.141,41.1037524,16.8801939,False,NONE
2019-10-26 10:40:40.520,LG-H970,1572086440527.75,-0.064,10.105,0.258,41.1037524,16.8801939,False,NONE
2019-10-26 10:40:40.540,LG-H970,1572086440547.5,-0.256,10.556,1.402,41.1037524,16.8801939,False,NONE
2019-10-26 10:40:40.560,LG-H970,1572086440569.6,-0.521,11.628,1.127,41.1037524,16.8801939,False,NONE
2019-10-26 10:40:40.580,LG-H970,1572086440592.0,-0.202,11.26,0.585,41.1037524,16.8801939,False,NONE
2019-10-26 10:40:40.600,LG-H970,1572086440612.25,-0.196,9.06,0.582,41.1037524,16.8801939,False,NONE
2019-10-26 10:40:40.620,LG-H970,1572086440631.25,-0.269,8.808,0.331,41.1037524,16.8801939,False,NONE
2019-10-26 10:40:40.640,LG-H970,1572086440650.0,-0.681,10.156,-0.134,41.1037524,16.8801939,False,NONE
2019-10-26 10:40:40.660,LG-H970,1572086440671.0,-1.877,11.053,1.502,41.1037524,16.8801939,False,NONE
2019-10-26 10:40:40.680,LG-H970,1572086440690.5,-0.934,10.561,0.971,41.1037524,16.8801939,False,NONE
2019-10-26 10:40:40.700,LG-H970,1572086440709.75,-0.806,10.083,1.94,41.1037524,16.8801939,False,NONE
2019-10-26 10:40:40.720,LG-H970,1572086440728.75,-2.026,9.645,0.238,41.1037524,16.8801939,False,NONE
2019-10-26 10:40:40.740,LG-H970,1572086440749.0,-2.573,10.608,0.516,41.1037524,16.8801939,False,NONE
2019-10-26 10:40:40.760,LG-H970,1572086440768.25,-1.346,10.538,-0.365,41.1037524,16.8801939,False,NONE
2019-10-26 10:40:40.780,LG-H970,1572086440789.0,-0.746,10.641,2.195,41.1037524,16.8801939,False,NONE
2019-10-26 10:40:40.800,LG-H970,1572086440808.0,0.188,10.21,1.701,41.1037524,16.8801939,False,NONE
2019-10-26 10:40:40.820,LG-H970,1572086440827.0,-0.437,9.861,1.009,41.1037524,16.8801939,False,NONE
2019-10-26 10:40:40.840,LG-H970,1572086440844.3333,-1.843,9.741,-0.615,41.1037524,16.8801939,False,NONE
2019-10-26 10:40:40.860,LG-H970,1572086440868.3333,-2.22,8.57,-0.132,41.1037524,16.8801939,False,NONE
2019-10-26 10:40:40.880,LG-H970,1572086440891.5,-2.609,6.135,0.378,41.1037524,16.8801939,False,NONE
2019-10-26 10:40:40.900,LG-H970,1572086440911.75,-3.065,5.777,-0.5,41.1037524,16.8801939,False,NONE
2019-10-26 10:40:40.920,LG-H970,1572086440931.5,-3.272,8.903,-2.862,41.1037524,16.8801939,False,NONE
2019-10-26 10:40:40.940,LG-H970,1572086440949.6667,-3.853,7.724,0.269,41.1037524,16.8801939,False,NONE
2019-10-26 10:40:40.960,LG-H970,1572086440970.0,0.534,8.291,2.099,41.1037524,16.8801939,False,NONE
2019-10-26 10:40:40.980,LG-H970,1572086440990.75,1.276,12.027,2.093,41.1037524,16.8801939,False,NONE
2019-10-26 10:40:41.000,LG-H970,1572086441011.25,-0.834,11.817,0.916,41.1037524,16.8801939,False,NONE
2019-10-26 10:40:41.020,LG-H970,1572086441030.75,0.753,10.175,0.076,41.1037524,16.8801939,False,NONE
2019-10-26 10:40:41.040,LG-H970,1572086441050.75,1.608,8.944,-0.432,41.1037524,16.8801939,False,NONE
2019-10-26 10:40:41.060,LG-H970,1572086441070.75,1.937,10.863,0.176,41.1037524,16.8801939,False,NONE
2019-10-26 10:40:41.080,LG-H970,1572086441090.0,1.366,10.968,1.284,41.1037524,16.8801939,False,NONE
2019-10-26 10:40:41.100,LG-H970,1572086441109.75,1.748,11.557,2.323,41.1037524,16.8801939,False,NONE
2019-10-26 10:40:41.120,LG-H970,1572086441129.5,1.86,11.039,1.166,41.1037524,16.8801939,False,NONE
2019-10-26 10:40:41.140,LG-H970,1572086441149.5,1.259,12.522,1.043,41.1037524,16.8801939,False,NONE
2019-10-26 10:40:41.160,LG-H970,1572086441169.25,2.38,12.373,1.285,41.1037524,16.8801939,False,NONE
2019-10-26 10:40:41.180,LG-H970,1572086441189.0,5.271,11.944,2.528,41.1037524,16.8801939,False,NONE
2019-10-26 10:40:41.200,LG-H970,1572086441208.25,3.221,11.492,2.378,41.1037524,16.8801939,False,NONE
2019-10-26 10:40:41.220,LG-H970,1572086441227.75,0.245,10.814,1.402,41.1037524,16.8801939,False,NONE
2019-10-26 10:40:41.240,LG-H970,1572086441247.75,-0.399,10.933,-0.752,41.1037524,16.8801939,False,NONE
2019-10-26 10:40:41.260,LG-H970,1572086441267.75,-1.089,10.997,0.024,41.1037524,16.8801939,False,NONE
2019-10-26 10:40:41.280,LG-H970,1572086441289.8,-0.603,9.698,1.533,41.1037524,16.8801939,False,NONE
2019-10-26 10:40:41.300,LG-H970,1572086441311.5,-1.267,10.572,1.272,41.1037524,16.8801939,False,NONE
2019-10-26 10:40:41.320,LG-H970,1572086441331.25,-2.658,11.344,-0.997,41.1037524,16.8801939,False,NONE
2019-10-26 10:40:41.340,LG-H970,1572086441348.0,-3.135,8.805,-0.977,41.1037524,16.8801939,False,NONE
2019-10-26 10:40:41.360,LG-H970,1572086441369.75,-0.588,7.787,-0.153,41.1037524,16.8801939,False,NONE
2019-10-26 10:40:41.380,LG-H970,1572086441389.75,-1.557,8.545,0.246,41.1037524,16.8801939,False,NONE
2019-10-26 10:40:41.400,LG-H970,1572086441409.75,-3.575,10.958,0.58,41.1037524,16.8801939,False,NONE
2019-10-26 10:40:41.420,LG-H970,1572086441430.0,-3.461,11.056,0.406,41.1037524,16.8801939,False,NONE
2019-10-26 10:40:41.440,LG-H970,1572086441450.0,-0.916,9.25,1.112,41.1037524,16.8801939,False,NONE
2019-10-26 10:40:41.460,LG-H970,1572086441469.25,-0.27,7.982,-0.065,41.1037524,16.8801939,False,NONE
2019-10-26 10:40:41.480,LG-H970,1572086441489.5,-1.559,9.141,-1.48,41.1037524,16.8801939,False,NONE
2019-10-26 10:40:41.500,LG-H970,1572086441509.0,-1.738,8.895,-0.596,41.1037524,16.8801939,False,NONE
2019-10-26 10:40:41.520,LG-H970,1572086441528.25,-0.095,8.409,1.131,41.1037524,16.8801939,False,NONE
2019-10-26 10:40:41.540,LG-H970,1572086441549.8,0.007,8.397,0.797,41.1037524,16.8801939,True,NONE
2019-10-26 10:40:41.560,LG-H970,1572086441571.5,-1.686,9.11,-0.963,41.1037524,16.8801939,True,NONE
2019-10-26 10:40:41.580,LG-H970,1572086441591.5,-1.801,8.927,-0.398,41.1037524,16.8801939,False,NONE
2019-10-26 10:40:41.600,LG-H970,1572086441611.25,-0.461,8.783,0.705,41.1037524,16.8801939,False,NONE
2019-10-26 10:40:41.620,LG-H970,1572086441631.25,-0.76,9.758,2.241,41.1037524,16.8801939,False,NONE
2019-10-26 10:40:41.640,LG-H970,1572086441649.0,-2.532,10.412,0.373,41.1037524,16.8801939,False,NONE
2019-10-26 10:40:41.660,LG-H970,1572086441670.0,-2.662,10.316,0.971,41.1037524,16.8801939,False,NONE
2019-10-26 10:40:41.680,LG-H970,1572086441691.25,-1.801,8.316,1.444,41.1037524,16.8801939,False,NONE
2019-10-26 10:40:41.700,LG-H970,1572086441711.0,-2.246,9.596,2.654,41.1037524,16.8801939,False,NONE
2019-10-26 10:40:41.720,LG-H970,1572086441731.0,-1.37,11.825,0.814,41.1037524,16.8801939,False,NONE
2019-10-26 10:40:41.740,LG-H970,1572086441751.25,-3.016,10.68,1.694,41.1037524,16.8801939,False,NONE
2019-10-26 10:40:41.760,LG-H970,1572086441771.0,-2.518,10.21,1.64,41.1037524,16.8801939,False,NONE
2019-10-26 10:40:41.780,LG-H970,1572086441787.6667,-1.487,9.925,2.25,41.1037524,16.8801939,False,NONE
2019-10-26 10:40:41.800,LG-H970,1572086441808.6,-1.23,10.699,1.751,41.1037524,16.8801939,False,NONE
2019-10-26 10:40:41.820,LG-H970,1572086441830.0,-1.112,11.45,-0.31,41.1037524,16.8801939,False,NONE
2019-10-26 10:40:41.840,LG-H970,1572086441849.5,-0.453,10.028,-0.819,41.1037524,16.8801939,False,NONE
2019-10-26 10:40:41.860,LG-H970,1572086441868.25,0.301,7.661,0.587,41.1037524,16.8801939,False,NONE
2019-10-26 10:40:41.880,LG-H970,1572086441888.5,1.073,9.761,-0.636,41.1037524,16.8801939,False,NONE
2019-10-26 10:40:41.900,LG-H970,1572086441907.75,-0.585,10.566,-1.461,41.1037524,16.8801939,False,NONE
2019-10-26 10:40:41.920,LG-H970,1572086441927.5,0.163,11.19,-1.017,41.1037524,16.8801939,False,NONE
2019-10-26 10:40:41.940,LG-H970,1572086441950.6,2.452,9.847,0.8,41.1037524,16.8801939,False,NONE
2019-10-26 10:40:41.960,LG-H970,1572086441971.25,1.465,8.762,-0.566,41.1037524,16.8801939,False,NONE
2019-10-26 10:40:41.980,LG-H970,1572086441991.5,0.068,11.463,-1.892,41.1037524,16.8801939,False,NONE
2019-10-26 10:40:42.000,LG-H970,1572086442011.25,-0.717,10.355,-0.972,41.1037524,16.8801939,False,NONE
2019-10-26 10:40:42.020,LG-H970,1572086442031.0,1.998,9.909,0.488,41.1037524,16.8801939,False,NONE
2019-10-26 10:40:42.040,LG-H970,1572086442051.25,0.906,8.513,-0.896,41.1037524,16.8801939,False,NONE
2019-10-26 10:40:42.060,LG-H970,1572086442071.0,-2.841,8.102,-2.075,41.1037524,16.8801939,False,NONE
2019-10-26 10:40:42.080,LG-H970,1572086442090.5,-5.025,6.568,-2.395,41.1037524,16.8801939,False,NONE
2019-10-26 10:40:42.100,LG-H970,1572086442111.0,-3.078,8.031,-2.481,41.1037524,16.8801939,False,NONE
2019-10-26 10:40:42.120,LG-H970,1572086442130.5,-1.745,7.696,1.688,41.1037524,16.8801939,False,NONE
2019-10-26 10:40:42.140,LG-H970,1572086442150.75,-0.678,10.786,2.022,41.1037524,16.8801939,False,NONE
2019-10-26 10:40:42.160,LG-H970,1572086442170.0,-1.057,13.097,0.837,41.1037524,16.8801939,False,NONE
2019-10-26 10:40:42.180,LG-H970,1572086442189.5,-1.808,10.329,2.134,41.1037524,16.8801939,False,NONE
2019-10-26 10:40:42.200,LG-H970,1572086442209.0,0.603,10.355,2.249,41.1037524,16.8801939,False,NONE
2019-10-26 10:40:42.220,LG-H970,1572086442228.5,0.868,13.553,2.44,41.1037524,16.8801939,False,NONE
2019-10-26 10:40:42.240,LG-H970,1572086442248.0,0.597,15.359,1.19,41.1037524,16.8801939,False,NONE
2019-10-26 10:40:42.260,LG-H970,1572086442267.75,1.795,12.764,2.287,41.1037524,16.8801939,False,NONE
2019-10-26 10:40:42.280,LG-H970,1572086442287.5,2.324,9.721,1.241,41.1037524,16.8801939,False,NONE
2019-10-26 10:40:42.300,LG-H970,1572086442307.25,-0.89,11.363,-1.272,41.1037524,16.8801939,False,NONE
2019-10-26 10:40:42.320,LG-H970,1572086442327.25,-3.448,11.984,-2.106,41.1037524,16.8801939,False,NONE
2019-10-26 10:40:42.340,LG-H970,1572086442347.25,-1.179,10.754,0.815,41.1037524,16.8801939,False,NONE
2019-10-26 10:40:42.360,LG-H970,1572086442369.2,2.395,8.782,0.995,41.1037524,16.8801939,False,NONE
2019-10-26 10:40:42.380,LG-H970,1572086442390.25,0.486,9.955,0.805,41.1037524,16.8801939,False,NONE
2019-10-26 10:40:42.400,LG-H970,1572086442410.5,-3.466,10.555,-2.558,41.1037524,16.8801939,False,NONE
2019-10-26 10:40:42.420,LG-H970,1572086442430.0,-3.524,10.884,-2.165,41.1037524,16.8801939,False,NONE
2019-10-26 10:40:42.440,LG-H970,1572086442450.25,-1.566,8.58,-1.521,41.1037524,16.8801939,False,NONE
2019-10-26 10:40:42.460,LG-H970,1572086442470.75,-0.474,9.19,0.002,41.1037524,16.8801939,False,NONE
2019-10-26 10:40:42.480,LG-H970,1572086442490.5,-2.579,9.76,-0.281,41.1037524,16.8801939,False,NONE
2019-10-26 10:40:42.500,LG-H970,1572086442508.75,-4.061,11.199,-2.429,41.1037524,16.8801939,False,NONE
2019-10-26 10:40:42.520,LG-H970,1572086442528.5,-3.266,10.959,-1.601,41.1037524,16.8801939,False,NONE
2019-10-26 10:40:42.540,LG-H970,1572086442549.0,-1.666,8.922,0.028,41.1037524,16.8801939,False,NONE
2019-10-26 10:40:42.560,LG-H970,1572086442568.5,-2.202,8.981,-0.572,41.1037524,16.8801939,False,NONE
2019-10-26 10:40:42.580,LG-H970,1572086442588.0,-4.715,9.782,-2.399,41.1037524,16.8801939,False,NONE
2019-10-26 10:40:42.600,LG-H970,1572086442608.75,-4.293,9.458,-2.16,41.1037524,16.8801939,False,NONE
2019-10-26 10:40:42.620,LG-H970,1572086442628.0,-2.102,8.315,0.092,41.1037524,16.8801939,False,NONE
2019-10-26 10:40:42.640,LG-H970,1572086442647.25,-1.629,7.794,-0.362,41.1037524,16.8801939,False,NONE
2019-10-26 10:40:42.660,LG-H970,1572086442676.5,-2.626,8.764,-1.285,41.1037524,16.8801939,False,NONE
2019-10-26 10:40:42.680,LG-H970,1572086442691.0,-3.391,8.582,-2.093,41.1037524,16.8801939,False,NONE
2019-10-26 10:40:42.700,LG-H970,1572086442710.75,-2.231,8.005,0.122,41.1037524,16.8801939,False,NONE
2019-10-26 10:40:42.720,LG-H970,1572086442730.5,-1.587,8.341,0.222,41.1037524,16.8801939,False,NONE
2019-10-26 10:40:42.740,LG-H970,1572086442749.75,-3.599,9.76,-0.774,41.1037524,16.8801939,False,NONE
2019-10-26 10:40:42.760,LG-H970,1572086442769.25,-4.269,10.065,-1.091,41.1037524,16.8801939,False,NONE
2019-10-26 10:40:42.780,LG-H970,1572086442789.75,-1.723,8.363,0.066,41.1037524,16.8801939,False,NONE
2019-10-26 10:40:42.800,LG-H970,1572086442809.5,-0.258,8.098,0.942,41.1037524,16.8801939,False,NONE
2019-10-26 10:40:42.820,LG-H970,1572086442829.25,-2.118,9.734,-0.397,41.1037524,16.8801939,False,NONE
2019-10-26 10:40:42.840,LG-H970,1572086442848.0,-3.405,11.004,-0.583,41.1037524,16.8801939,False,NONE
2019-10-26 10:40:42.860,LG-H970,1572086442867.75,-1.918,9.421,0.221,41.1037524,16.8801939,False,NONE
2019-10-26 10:40:42.880,LG-H970,1572086442887.75,-0.988,8.769,0.555,41.1037524,16.8801939,False,NONE
2019-10-26 10:40:42.900,LG-H970,1572086442910.2,-2.599,10.02,-0.699,41.1037524,16.8801939,True,NONE
2019-10-26 10:40:42.920,LG-H970,1572086442931.5,-3.226,10.462,-0.631,41.1037524,16.8801939,False,NONE
2019-10-26 10:40:42.940,LG-H970,1572086442951.5,-1.802,9.506,0.195,41.1037524,16.8801939,False,NONE
2019-10-26 10:40:42.960,LG-H970,1572086442971.5,-1.437,9.839,0.839,41.1037524,16.8801939,False,NONE
2019-10-26 10:40:42.980,LG-H970,1572086442991.5,-2.322,10.092,-0.631,41.1037524,16.8801939,False,NONE
2019-10-26 10:40:43.000,LG-H970,1572086443009.3333,-2.455,10.257,-0.339,41.1037524,16.8801939,False,NONE
2019-10-26 10:40:43.020,LG-H970,1572086443029.0,-1.758,9.98,-0.26,41.1037524,16.8801939,False,NONE
