UTC_timestamp,device_name,x,y,z,lat,long,speed,event
2019-10-26 09:52:45.600,LG-H970,0.097,-0.974,9.475,41.1060588,16.87366,NONE,False
2019-10-26 09:52:45.620,LG-H970,-0.315,0.014,9.514,41.1060588,16.87366,NONE,False
2019-10-26 09:52:45.640,LG-H970,0.05,-0.635,8.868,41.1060588,16.87366,NONE,False
2019-10-26 09:52:45.660,LG-H970,-0.258,-1.042,10.105,41.1060588,16.87366,NONE,False
2019-10-26 09:52:45.680,LG-H970,-0.442,-0.97,10.077,41.1060588,16.87366,NONE,False
2019-10-26 09:52:45.700,LG-H970,0.045,0.137,9.548,41.1060588,16.87366,NONE,False
2019-10-26 09:52:45.720,LG-H970,0.031,-0.509,9.29,41.1060588,16.87366,NONE,False
2019-10-26 09:52:45.740,LG-H970,-0.496,-1.565,10.137,41.1060588,16.87366,NONE,False
2019-10-26 09:52:45.760,LG-H970,-0.294,-1.48,10.035,41.1060588,16.87366,NONE,False
2019-10-26 09:52:45.780,LG-H970,0.243,0.114,10.299,41.1060588,16.87366,NONE,False
2019-10-26 09:52:45.800,LG-H970,-0.268,-0.059,9.819,41.1060588,16.87366,NONE,False
2019-10-26 09:52:45.820,LG-H970,0.076,-1.115,10.847,41.1060588,16.87366,NONE,False
2019-10-26 09:52:45.840,LG-H970,-0.683,-1.302,10.863,41.1060588,16.87366,NONE,False
2019-10-26 09:52:45.860,LG-H970,0.627,-0.043,10.318,41.1060588,16.87366,NONE,False
2019-10-26 09:52:45.880,LG-H970,-0.042,-0.151,9.248,41.1060588,16.87366,NONE,False
2019-10-26 09:52:45.900,LG-H970,0.227,-1.182,10.607,41.1060588,16.87366,NONE,False
2019-10-26 09:52:45.920,LG-H970,-0.87,-1.386,10.619,41.1060588,16.87366,NONE,False
2019-10-26 09:52:45.940,LG-H970,0.562,-0.041,10.548,41.1060588,16.87366,NONE,False
2019-10-26 09:52:45.960,LG-H970,0.142,0.266,9.51,41.1060588,16.87366,NONE,False
2019-10-26 09:52:45.980,LG-H970,0.373,-0.534,9.925,41.1060588,16.87366,NONE,False
2019-10-26 09:52:46.000,LG-H970,-1.298,-1.011,9.55,41.1060588,16.87366,NONE,False
2019-10-26 09:52:46.020,LG-H970,-0.183,-0.498,9.489,41.1060588,16.87366,NONE,False
2019-10-26 09:52:46.040,LG-H970,-0.449,0.041,8.351,41.1060588,16.87366,NONE,False
2019-10-26 09:52:46.060,LG-H970,-0.027,0.105,9.569,41.1060588,16.87366,NONE,False
2019-10-26 09:52:46.080,LG-H970,-0.826,-0.599,9.995,41.1060588,16.87366,NONE,False
2019-10-26 09:52:46.100,LG-H970,0.736,-0.626,10.179,41.1060588,16.87366,NONE,False
2019-10-26 09:52:46.120,LG-H970,0.41,-0.038,10.0,41.1060588,16.87366,NONE,False
2019-10-26 09:52:46.140,LG-H970,-0.083,-0.954,10.614,41.1060588,16.87366,NONE,False
2019-10-26 09:52:46.160,LG-H970,-0.849,-1.699,9.741,41.1060588,16.87366,NONE,False
2019-10-26 09:52:46.180,LG-H970,-0.276,-0.751,9.03,41.1060588,16.87366,NONE,False
2019-10-26 09:52:46.200,LG-H970,-0.189,0.145,10.238,41.1060588,16.87366,NONE,False
2019-10-26 09:52:46.220,LG-H970,0.069,-1.007,11.124,41.1060588,16.87366,NONE,False
2019-10-26 09:52:46.240,LG-H970,0.131,-1.628,10.993,41.1060588,16.87366,NONE,False
2019-10-26 09:52:46.260,LG-H970,-0.036,-0.755,9.908,41.1060588,16.87366,NONE,False
2019-10-26 09:52:46.280,LG-H970,-0.774,0.393,9.484,41.1060588,16.87366,NONE,False
2019-10-26 09:52:46.300,LG-H970,-1.38,-0.286,8.225,41.1060588,16.87366,NONE,False
2019-10-26 09:52:46.320,LG-H970,-0.499,-1.296,10.042,41.1060588,16.87366,NONE,False
2019-10-26 09:52:46.340,LG-H970,-0.413,-1.048,10.277,41.1060588,16.87366,NONE,False
2019-10-26 09:52:46.360,LG-H970,0.768,0.059,10.633,41.1060588,16.87366,NONE,False
2019-10-26 09:52:46.380,LG-H970,-0.507,-0.52,9.569,41.1060588,16.87366,NONE,False
2019-10-26 09:52:46.400,LG-H970,0.139,-0.545,10.132,41.1060588,16.87366,NONE,False
2019-10-26 09:52:46.420,LG-H970,-1.326,-0.518,9.516,41.1060588,16.87366,NONE,False
2019-10-26 09:52:46.440,LG-H970,0.856,-0.383,9.64,41.1060588,16.87366,NONE,False
2019-10-26 09:52:46.460,LG-H970,-0.319,-0.996,9.632,41.1060588,16.87366,NONE,False
2019-10-26 09:52:46.480,LG-H970,0.429,-0.842,10.591,41.1060588,16.87366,NONE,False
2019-10-26 09:52:46.500,LG-H970,-1.36,-0.511,8.981,41.1060588,16.87366,NONE,False
2019-10-26 09:52:46.520,LG-H970,0.327,-0.165,9.153,41.1060588,16.87366,NONE,False
2019-10-26 09:52:46.540,LG-H970,-0.755,-0.396,9.425,41.1060588,16.87366,NONE,False
2019-10-26 09:52:46.560,LG-H970,0.453,-0.652,10.453,41.1060588,16.87366,NONE,False
2019-10-26 09:52:46.580,LG-H970,-0.69,-0.42,9.819,41.1060588,16.87366,NONE,False
2019-10-26 09:52:46.600,LG-H970,0.064,0.15,9.954,41.1060588,16.87366,NONE,False
2019-10-26 09:52:46.620,LG-H970,-0.971,-0.316,9.748,41.1060588,16.87366,NONE,False
2019-10-26 09:52:46.640,LG-H970,-0.303,-1.446,10.569,41.1060588,16.87366,NONE,False
2019-10-26 09:52:46.660,LG-H970,-0.336,-1.098,10.401,41.1060588,16.87366,NONE,False
2019-10-26 09:52:46.680,LG-H970,1.169,-0.39,9.848,41.1060588,16.87366,NONE,False
2019-10-26 09:52:46.700,LG-H970,-0.155,-0.201,10.058,41.1060588,16.87366,NONE,False
2019-10-26 09:52:46.720,LG-H970,-1.06,-1.639,10.108,41.1060588,16.87366,NONE,False
2019-10-26 09:52:46.740,LG-H970,-0.32,-1.4,10.131,41.1060588,16.87366,NONE,False
2019-10-26 09:52:46.760,LG-H970,0.008,-0.046,9.699,41.1060588,16.87366,NONE,False
2019-10-26 09:52:46.780,LG-H970,0.794,-0.033,10.405,41.1060588,16.87366,NONE,False
2019-10-26 09:52:46.800,LG-H970,-0.399,-1.074,10.039,41.1060588,16.87366,NONE,False
2019-10-26 09:52:46.820,LG-H970,-0.267,-0.985,9.429,41.1060588,16.87366,NONE,False
2019-10-26 09:52:46.840,LG-H970,-0.615,-0.083,8.925,41.1060588,16.87366,NONE,False
2019-10-26 09:52:46.860,LG-H970,0.023,-0.11,9.356,41.1060588,16.87366,NONE,False
2019-10-26 09:52:46.880,LG-H970,-0.328,-1.131,9.791,41.1060588,16.87366,NONE,False
2019-10-26 09:52:46.900,LG-H970,0.356,-1.309,10.636,41.1060588,16.87366,NONE,False
2019-10-26 09:52:46.920,LG-H970,-0.324,-0.499,9.459,41.1060588,16.87366,NONE,False
2019-10-26 09:52:46.940,LG-H970,-0.232,-0.105,9.503,41.1060588,16.87366,NONE,False
2019-10-26 09:52:46.960,LG-H970,-0.72,-0.581,9.12,41.1060588,16.87366,NONE,False
2019-10-26 09:52:46.980,LG-H970,-0.623,-0.671,10.307,41.1060588,16.87366,NONE,False
2019-10-26 09:52:47.000,LG-H970,-0.051,-0.854,9.979,41.1060588,16.87366,NONE,False
2019-10-26 09:52:47.020,LG-H970,0.357,-0.818,10.007,41.1060588,16.87366,NONE,False
2019-10-26 09:52:47.040,LG-H970,-0.184,-0.615,10.307,41.1060588,16.87366,NONE,False
2019-10-26 09:52:47.060,LG-H970,-0.915,-0.478,9.745,41.1060588,16.87366,NONE,False
2019-10-26 09:52:47.080,LG-H970,-0.559,0.02,9.871,41.1060588,16.87366,NONE,False
2019-10-26 09:52:47.100,LG-H970,-0.022,-0.083,9.705,41.1060588,16.87366,NONE,True
2019-10-26 09:52:47.120,LG-H970,-0.396,-0.174,10.487,41.1060588,16.87366,NONE,True
2019-10-26 09:52:47.140,LG-H970,-0.607,-0.815,9.669,41.1060588,16.87366,NONE,False
2019-10-26 09:52:47.160,LG-H970,-0.323,-0.403,9.775,41.1060588,16.87366,NONE,False
2019-10-26 09:52:47.180,LG-H970,-0.335,-0.117,10.192,41.1060588,16.87366,NONE,False
2019-10-26 09:52:47.200,LG-H970,0.075,-0.497,10.638,41.1060588,16.87366,NONE,False
2019-10-26 09:52:47.220,LG-H970,-0.121,-0.819,10.293,41.1060588,16.87366,NONE,False
2019-10-26 09:52:47.240,LG-H970,0.051,-0.287,9.678,41.1060588,16.87366,NONE,False
2019-10-26 09:52:47.260,LG-H970,-1.176,-0.329,9.164,41.1060588,16.87366,NONE,False
2019-10-26 09:52:47.280,LG-H970,-0.383,-0.948,9.634,41.1060588,16.87366,NONE,False
2019-10-26 09:52:47.300,LG-H970,-0.846,-1.078,9.756,41.1060588,16.87366,NONE,False
2019-10-26 09:52:47.320,LG-H970,0.805,-0.052,10.286,41.1060588,16.87366,NONE,False
2019-10-26 09:52:47.340,LG-H970,-0.693,-0.132,9.535,41.1060588,16.87366,NONE,False
2019-10-26 09:52:47.360,LG-H970,0.244,-0.69,9.821,41.1060588,16.87366,NONE,False
2019-10-26 09:52:47.380,LG-H970,-1.628,-0.707,9.199,41.1060588,16.87366,NONE,False
2019-10-26 09:52:47.400,LG-H970,0.274,-0.241,10.302,41.1060588,16.87366,NONE,False
2019-10-26 09:52:47.420,LG-H970,-0.605,-0.833,9.555,41.1060588,16.87366,NONE,False
2019-10-26 09:52:47.440,LG-H970,1.292,-1.277,10.444,41.1060588,16.87366,NONE,False
2019-10-26 09:52:47.460,LG-H970,-1.214,-0.673,10.627,41.1060588,16.87366,NONE,False
2019-10-26 09:52:47.480,LG-H970,0.215,-0.542,9.883,41.1060588,16.87366,NONE,False
2019-10-26 09:52:47.500,LG-H970,-1.067,-0.393,8.785,41.1060588,16.87366,NONE,False
2019-10-26 09:52:47.520,LG-H970,-0.089,-0.781,9.64,41.1060588,16.87366,NONE,False
2019-10-26 09:52:47.540,LG-H970,-1.061,-0.743,10.763,41.1060588,16.87366,NONE,False
2019-10-26 09:52:47.560,LG-H970,0.152,-0.362,9.756,41.1060588,16.87366,NONE,False
2019-10-26 09:52:47.580,LG-H970,-0.189,0.409,9.646,41.1060588,16.87366,NONE,False
2019-10-26 09:52:47.600,LG-H970,-0.48,-0.345,9.937,41.1060588,16.87366,NONE,False
2019-10-26 09:52:47.620,LG-H970,-0.707,-0.803,10.41,41.1060588,16.87366,NONE,False
2019-10-26 09:52:47.640,LG-H970,-0.366,-0.478,9.566,41.1060588,16.87366,NONE,False
2019-10-26 09:52:47.660,LG-H970,0.443,0.428,9.934,41.1060588,16.87366,NONE,False
2019-10-26 09:52:47.680,LG-H970,-0.671,-0.345,9.479,41.1060588,16.87366,NONE,False
2019-10-26 09:52:47.700,LG-H970,-0.828,-0.951,9.782,41.1060588,16.87366,NONE,False
2019-10-26 09:52:47.720,LG-H970,-0.854,-0.471,9.389,41.1060588,16.87366,NONE,False
2019-10-26 09:52:47.740,LG-H970,0.359,0.147,10.045,41.1060588,16.87366,NONE,False
2019-10-26 09:52:47.760,LG-H970,-0.465,-0.436,9.88,41.1060588,16.87366,NONE,False
2019-10-26 09:52:47.780,LG-H970,0.249,-1.019,10.533,41.1060588,16.87366,NONE,False
2019-10-26 09:52:47.800,LG-H970,-0.877,-0.8,10.178,41.1060588,16.87366,NONE,False
2019-10-26 09:52:47.820,LG-H970,0.303,0.024,10.57,41.1060588,16.87366,NONE,False
2019-10-26 09:52:47.840,LG-H970,-0.511,-0.043,9.743,41.1060588,16.87366,NONE,False
2019-10-26 09:52:47.860,LG-H970,0.319,-0.598,10.129,41.1060588,16.87366,NONE,False
2019-10-26 09:52:47.880,LG-H970,-1.023,-0.716,10.015,41.1060588,16.87366,NONE,False
2019-10-26 09:52:47.900,LG-H970,-0.121,-0.365,9.653,41.1060588,16.87366,NONE,False
2019-10-26 09:52:47.920,LG-H970,-0.739,0.073,9.257,41.1060588,16.87366,NONE,False
2019-10-26 09:52:47.940,LG-H970,-0.491,-0.429,9.291,41.1060588,16.87366,NONE,False
2019-10-26 09:52:47.960,LG-H970,-0.637,-0.587,10.145,41.1060588,16.87366,NONE,False
2019-10-26 09:52:47.980,LG-H970,-0.042,-0.752,9.512,41.1060588,16.87366,NONE,False
2019-10-26 09:52:48.000,LG-H970,-0.688,-0.487,9.576,41.1060588,16.87366,NONE,False
2019-10-26 09:52:48.020,LG-H970,-0.308,-0.834,9.291,41.1060588,16.87366,NONE,False
2019-10-26 09:52:48.040,LG-H970,-0.681,-0.717,9.868,41.1060588,16.87366,NONE,False
2019-10-26 09:52:48.060,LG-H970,-0.758,-0.841,9.752,41.1060588,16.87366,NONE,False
2019-10-26 09:52:48.080,LG-H970,0.455,-0.327,10.913,41.1060588,16.87366,NONE,False
2019-10-26 09:52:48.100,LG-H970,0.07,-0.388,10.327,41.1060588,16.87366,NONE,False
2019-10-26 09:52:48.120,LG-H970,-0.123,-0.121,10.868,41.1060588,16.87366,NONE,False
2019-10-26 09:52:48.140,LG-H970,-1.146,-0.649,9.374,41.1060588,16.87366,NONE,False
2019-10-26 09:52:48.160,LG-H970,-0.089,-0.303,10.19,41.1060588,16.87366,NONE,False
2019-10-26 09:52:48.180,LG-H970,-1.421,-0.451,9.196,41.1060588,16.87366,NONE,False
2019-10-26 09:52:48.200,LG-H970,0.066,-0.497,9.881,41.1060588,16.87366,NONE,False
2019-10-26 09:52:48.220,LG-H970,-0.844,-0.929,9.096,41.1060588,16.87366,NONE,False
2019-10-26 09:52:48.240,LG-H970,0.112,-0.484,10.059,41.1060588,16.87366,NONE,False
2019-10-26 09:52:48.260,LG-H970,-1.32,-0.423,9.449,41.1060588,16.87366,NONE,False
2019-10-26 09:52:48.280,LG-H970,0.383,-0.448,9.816,41.1060588,16.87366,NONE,False
2019-10-26 09:52:48.300,LG-H970,-1.06,-0.73,9.82,41.1060588,16.87366,NONE,False
2019-10-26 09:52:48.320,LG-H970,0.222,-0.751,11.161,41.1060588,16.87366,NONE,False
2019-10-26 09:52:48.340,LG-H970,-0.905,-0.666,10.068,41.1060588,16.87366,NONE,False
2019-10-26 09:52:48.360,LG-H970,0.854,-0.363,9.882,41.1060588,16.87366,NONE,False
2019-10-26 09:52:48.380,LG-H970,-0.65,-0.256,9.617,41.1060588,16.87366,NONE,False
2019-10-26 09:52:48.400,LG-H970,-0.157,-0.179,10.816,41.1060588,16.87366,NONE,False
2019-10-26 09:52:48.420,LG-H970,-1.406,-0.771,9.111,41.1060588,16.87366,NONE,False
2019-10-26 09:52:48.440,LG-H970,-0.13,-0.251,9.876,41.1060588,16.87366,NONE,False
2019-10-26 09:52:48.460,LG-H970,-0.498,-0.186,9.573,41.1060588,16.87366,NONE,False
2019-10-26 09:52:48.480,LG-H970,0.322,-0.554,9.879,41.1060588,16.87366,NONE,False
2019-10-26 09:52:48.500,LG-H970,-1.562,-0.711,9.759,41.1060588,16.87366,NONE,False
2019-10-26 09:52:48.520,LG-H970,-0.462,-0.982,9.318,41.1060588,16.87366,NONE,False
2019-10-26 09:52:48.540,LG-H970,-0.586,-0.353,9.228,41.1060588,16.87366,NONE,False
2019-10-26 09:52:48.560,LG-H970,-0.59,-0.361,8.894,41.1060588,16.87366,NONE,False
2019-10-26 09:52:48.580,LG-H970,-0.427,-0.591,10.397,41.1060588,16.87366,NONE,False
