UTC_timestamp,device_name,x,y,z,lat,long,speed,event
2019-10-26 10:02:05.560,LG-H970,0.854,-0.029,9.575,41.1047513,16.8789321,NONE,False
2019-10-26 10:02:05.580,LG-H970,-0.124,-0.868,10.635,41.1047513,16.8789321,NONE,False
2019-10-26 10:02:05.600,LG-H970,-0.486,-2.41,10.586,41.1047513,16.8789321,NONE,False
2019-10-26 10:02:05.620,LG-H970,-0.805,-0.969,9.976,41.1047513,16.8789321,NONE,False
2019-10-26 10:02:05.640,LG-H970,-0.168,0.511,8.944,41.1047513,16.8789321,NONE,False
2019-10-26 10:02:05.660,LG-H970,-0.543,0.084,9.787,41.1047513,16.8789321,NONE,False
2019-10-26 10:02:05.680,LG-H970,-0.174,-1.63,10.098,41.1047513,16.8789321,NONE,False
2019-10-26 10:02:05.700,LG-H970,-0.221,-1.28,10.35,41.1047513,16.8789321,NONE,False
2019-10-26 10:02:05.720,LG-H970,-0.243,-0.728,9.105,41.1047513,16.8789321,NONE,False
2019-10-26 10:02:05.740,LG-H970,-0.501,-0.737,9.102,41.1047513,16.8789321,NONE,False
2019-10-26 10:02:05.760,LG-H970,-1.167,-1.339,8.977,41.1047513,16.8789321,NONE,False
2019-10-26 10:02:05.780,LG-H970,-0.81,-1.056,9.866,41.1047513,16.8789321,NONE,False
2019-10-26 10:02:05.800,LG-H970,-0.089,-1.216,9.13,41.1047513,16.8789321,NONE,False
2019-10-26 10:02:05.820,LG-H970,-0.066,-0.33,10.111,41.1047513,16.8789321,NONE,False
2019-10-26 10:02:05.840,LG-H970,-0.499,-0.632,9.502,41.1047513,16.8789321,NONE,False
2019-10-26 10:02:05.860,LG-H970,-1.194,-1.045,9.351,41.1047513,16.8789321,NONE,False
2019-10-26 10:02:05.880,LG-H970,-0.861,-1.326,9.865,41.1047513,16.8789321,NONE,False
2019-10-26 10:02:05.900,LG-H970,0.039,-1.116,10.028,41.1047513,16.8789321,NONE,False
2019-10-26 10:02:05.920,LG-H970,0.127,-0.44,9.7,41.1047513,16.8789321,NONE,False
2019-10-26 10:02:05.940,LG-H970,0.073,-0.009,9.982,41.1047513,16.8789321,NONE,False
2019-10-26 10:02:05.960,LG-H970,-1.076,-0.955,9.215,41.1047513,16.8789321,NONE,False
2019-10-26 10:02:05.980,LG-H970,-1.245,-1.114,10.258,41.1047513,16.8789321,NONE,False
2019-10-26 10:02:06.000,LG-H970,0.144,-0.548,10.603,41.1047513,16.8789321,NONE,False
2019-10-26 10:02:06.020,LG-H970,-0.021,-0.018,10.646,41.1047513,16.8789321,NONE,False
2019-10-26 10:02:06.040,LG-H970,0.431,-0.222,10.343,41.1047513,16.8789321,NONE,False
2019-10-26 10:02:06.060,LG-H970,-1.123,-0.597,9.87,41.1047513,16.8789321,NONE,False
2019-10-26 10:02:06.080,LG-H970,-0.383,-1.089,9.12,41.1047513,16.8789321,NONE,False
2019-10-26 10:02:06.100,LG-H970,-0.263,-1.112,10.153,41.1047513,16.8789321,NONE,False
2019-10-26 10:02:06.120,LG-H970,0.434,-1.455,10.197,41.1047513,16.8789321,NONE,False
2019-10-26 10:02:06.140,LG-H970,0.106,-1.255,10.03,41.1047513,16.8789321,NONE,False
2019-10-26 10:02:06.160,LG-H970,-0.267,-1.105,10.062,41.1047513,16.8789321,NONE,False
2019-10-26 10:02:06.180,LG-H970,-1.32,-1.304,9.505,41.1047513,16.8789321,NONE,False
2019-10-26 10:02:06.200,LG-H970,-1.525,-0.709,9.607,41.1047513,16.8789321,NONE,False
2019-10-26 10:02:06.220,LG-H970,-0.011,-0.001,9.671,41.1047513,16.8789321,NONE,False
2019-10-26 10:02:06.240,LG-H970,-0.004,-0.482,9.481,41.1047513,16.8789321,NONE,False
2019-10-26 10:02:06.260,LG-H970,-0.789,-1.242,10.241,41.1047513,16.8789321,NONE,False
2019-10-26 10:02:06.280,LG-H970,-1.556,-1.573,9.497,41.1047513,16.8789321,NONE,False
2019-10-26 10:02:06.300,LG-H970,-0.712,-0.723,9.361,41.1047513,16.8789321,NONE,False
2019-10-26 10:02:06.320,LG-H970,-0.747,0.193,9.725,41.1047513,16.8789321,NONE,False
2019-10-26 10:02:06.340,LG-H970,0.261,-0.177,9.687,41.1047513,16.8789321,NONE,False
2019-10-26 10:02:06.360,LG-H970,-0.951,-0.961,9.566,41.1047513,16.8789321,NONE,False
2019-10-26 10:02:06.380,LG-H970,-0.152,-1.942,9.678,41.1047513,16.8789321,NONE,False
2019-10-26 10:02:06.400,LG-H970,-1.601,-1.25,10.122,41.1047513,16.8789321,NONE,False
2019-10-26 10:02:06.420,LG-H970,0.374,0.205,9.819,41.1047513,16.8789321,NONE,False
2019-10-26 10:02:06.440,LG-H970,-0.303,-0.046,9.832,41.1047513,16.8789321,NONE,False
2019-10-26 10:02:06.460,LG-H970,-0.318,-2.135,10.86,41.1047513,16.8789321,NONE,False
2019-10-26 10:02:06.480,LG-H970,-0.625,-2.056,10.225,41.1047513,16.8789321,NONE,False
2019-10-26 10:02:06.500,LG-H970,0.085,-0.47,9.085,41.1047513,16.8789321,NONE,False
2019-10-26 10:02:06.520,LG-H970,-0.139,-0.482,9.18,41.1047513,16.8789321,NONE,False
2019-10-26 10:02:06.540,LG-H970,-0.49,-1.657,10.493,41.1047513,16.8789321,NONE,False
2019-10-26 10:02:06.560,LG-H970,-0.275,-1.505,10.498,41.1047513,16.8789321,NONE,False
2019-10-26 10:02:06.580,LG-H970,-0.115,-0.253,10.17,41.1047513,16.8789321,NONE,False
2019-10-26 10:02:06.600,LG-H970,-0.227,-0.016,10.06,41.1047513,16.8789321,NONE,False
2019-10-26 10:02:06.620,LG-H970,-0.821,-0.555,10.784,41.1047513,16.8789321,NONE,False
2019-10-26 10:02:06.640,LG-H970,-0.481,-0.721,9.819,41.1047513,16.8789321,NONE,False
2019-10-26 10:02:06.660,LG-H970,0.421,-0.313,10.011,41.1047513,16.8789321,NONE,False
2019-10-26 10:02:06.680,LG-H970,-0.587,-0.952,9.928,41.1047513,16.8789321,NONE,False
2019-10-26 10:02:06.700,LG-H970,-0.566,-1.414,9.936,41.1047513,16.8789321,NONE,False
2019-10-26 10:02:06.720,LG-H970,-0.948,-0.764,9.739,41.1047513,16.8789321,NONE,False
2019-10-26 10:02:06.740,LG-H970,-0.097,-0.554,9.115,41.1047513,16.8789321,NONE,False
2019-10-26 10:02:06.760,LG-H970,-0.899,-1.059,9.825,41.1047513,16.8789321,NONE,False
2019-10-26 10:02:06.780,LG-H970,-0.447,-1.79,11.061,41.1047513,16.8789321,NONE,False
2019-10-26 10:02:06.800,LG-H970,-0.698,-1.704,10.389,41.1047513,16.8789321,NONE,False
2019-10-26 10:02:06.820,LG-H970,-0.226,-0.422,10.298,41.1047513,16.8789321,NONE,False
2019-10-26 10:02:06.840,LG-H970,-0.311,-0.601,9.555,41.1047513,16.8789321,NONE,False
2019-10-26 10:02:06.860,LG-H970,-0.433,-1.832,9.975,41.1047513,16.8789321,NONE,False
2019-10-26 10:02:06.880,LG-H970,-1.353,-1.748,10.065,41.1047513,16.8789321,NONE,False
2019-10-26 10:02:06.900,LG-H970,-0.007,-0.724,9.819,41.1047513,16.8789321,NONE,False
2019-10-26 10:02:06.920,LG-H970,-0.722,-0.195,9.013,41.1047513,16.8789321,NONE,False
2019-10-26 10:02:06.940,LG-H970,-0.152,-0.624,9.64,41.1047513,16.8789321,NONE,False
2019-10-26 10:02:06.960,LG-H970,-1.521,-1.543,10.053,41.1047513,16.8789321,NONE,False
2019-10-26 10:02:06.980,LG-H970,-0.527,-1.45,10.5,41.1047513,16.8789321,NONE,False
2019-10-26 10:02:07.000,LG-H970,0.119,-0.348,9.965,41.1047513,16.8789321,NONE,False
2019-10-26 10:02:07.020,LG-H970,-0.023,0.402,10.441,41.1047513,16.8789321,NONE,False
2019-10-26 10:02:07.040,LG-H970,-0.866,-0.455,9.173,41.1047513,16.8789321,NONE,False
2019-10-26 10:02:07.060,LG-H970,-1.013,-1.235,9.545,41.1047513,16.8789321,NONE,True
2019-10-26 10:02:07.080,LG-H970,-0.727,-1.311,9.428,41.1047513,16.8789321,NONE,True
2019-10-26 10:02:07.100,LG-H970,-0.24,-0.448,9.44,41.1047513,16.8789321,NONE,False
2019-10-26 10:02:07.120,LG-H970,-0.057,-0.428,9.493,41.1047513,16.8789321,NONE,False
2019-10-26 10:02:07.140,LG-H970,-0.507,-1.001,10.129,41.1047513,16.8789321,NONE,False
2019-10-26 10:02:07.160,LG-H970,-1.132,-1.365,9.801,41.1047513,16.8789321,NONE,False
2019-10-26 10:02:07.180,LG-H970,-0.47,-0.562,10.258,41.1047513,16.8789321,NONE,False
2019-10-26 10:02:07.200,LG-H970,-0.06,-0.096,10.25,41.1047513,16.8789321,NONE,False
2019-10-26 10:02:07.220,LG-H970,0.148,-0.545,9.955,41.1047513,16.8789321,NONE,False
2019-10-26 10:02:07.240,LG-H970,-0.416,-0.855,10.17,41.1047513,16.8789321,NONE,False
2019-10-26 10:02:07.260,LG-H970,-0.811,-1.065,9.552,41.1047513,16.8789321,NONE,False
2019-10-26 10:02:07.280,LG-H970,-0.676,-0.819,9.408,41.1047513,16.8789321,NONE,False
2019-10-26 10:02:07.300,LG-H970,-0.45,-0.229,9.648,41.1047513,16.8789321,NONE,False
2019-10-26 10:02:07.320,LG-H970,0.131,-0.357,9.415,41.1047513,16.8789321,NONE,False
2019-10-26 10:02:07.340,LG-H970,-1.001,-1.077,10.143,41.1047513,16.8789321,NONE,False
2019-10-26 10:02:07.360,LG-H970,-0.402,-1.172,10.44,41.1047513,16.8789321,NONE,False
2019-10-26 10:02:07.380,LG-H970,0.063,-0.374,9.327,41.1047513,16.8789321,NONE,False
2019-10-26 10:02:07.400,LG-H970,-0.667,0.295,9.797,41.1047513,16.8789321,NONE,False
2019-10-26 10:02:07.420,LG-H970,-0.706,-0.53,10.174,41.1047513,16.8789321,NONE,False
2019-10-26 10:02:07.440,LG-H970,-0.157,-1.322,10.042,41.1047513,16.8789321,NONE,False
2019-10-26 10:02:07.460,LG-H970,-0.152,-0.735,9.702,41.1047513,16.8789321,NONE,False
2019-10-26 10:02:07.480,LG-H970,-0.365,-0.21,10.135,41.1047513,16.8789321,NONE,False
2019-10-26 10:02:07.500,LG-H970,-0.284,-1.162,9.903,41.1047513,16.8789321,NONE,False
2019-10-26 10:02:07.520,LG-H970,-0.408,-1.323,10.031,41.1047513,16.8789321,NONE,False
2019-10-26 10:02:07.540,LG-H970,-0.716,-0.781,10.508,41.1047513,16.8789321,NONE,False
2019-10-26 10:02:07.560,LG-H970,-0.282,-0.747,10.517,41.1047513,16.8789321,NONE,False
2019-10-26 10:02:07.580,LG-H970,-0.02,-0.936,9.681,41.1047513,16.8789321,NONE,False
2019-10-26 10:02:07.600,LG-H970,-0.452,-0.586,9.46,41.1047513,16.8789321,NONE,False
2019-10-26 10:02:07.620,LG-H970,-1.103,-0.673,9.567,41.1047513,16.8789321,NONE,False
2019-10-26 10:02:07.640,LG-H970,-1.092,-1.052,9.763,41.1047513,16.8789321,NONE,False
2019-10-26 10:02:07.660,LG-H970,-0.188,-1.334,9.514,41.1047513,16.8789321,NONE,False
2019-10-26 10:02:07.680,LG-H970,0.045,-0.425,9.925,41.1047513,16.8789321,NONE,False
2019-10-26 10:02:07.700,LG-H970,0.508,-0.429,9.239,41.1047513,16.8789321,NONE,False
2019-10-26 10:02:07.720,LG-H970,-1.177,-1.001,10.311,41.1047513,16.8789321,NONE,False
2019-10-26 10:02:07.740,LG-H970,-0.477,-1.125,10.583,41.1047513,16.8789321,NONE,False
2019-10-26 10:02:07.760,LG-H970,-0.512,-0.057,9.614,41.1047513,16.8789321,NONE,False
2019-10-26 10:02:07.780,LG-H970,0.094,0.041,9.933,41.1047513,16.8789321,NONE,False
2019-10-26 10:02:07.800,LG-H970,-0.523,-1.259,10.417,41.1047513,16.8789321,NONE,False
2019-10-26 10:02:07.820,LG-H970,-0.53,-2.042,10.289,41.1047513,16.8789321,NONE,False
2019-10-26 10:02:07.840,LG-H970,-0.541,-1.235,9.598,41.1047513,16.8789321,NONE,False
2019-10-26 10:02:07.860,LG-H970,-0.2,0.224,9.005,41.1047513,16.8789321,NONE,False
2019-10-26 10:02:07.880,LG-H970,-0.004,0.058,8.524,41.1047513,16.8789321,NONE,False
2019-10-26 10:02:07.900,LG-H970,-0.648,-1.349,9.952,41.1047513,16.8789321,NONE,False
2019-10-26 10:02:07.920,LG-H970,-0.79,-1.693,11.316,41.1047513,16.8789321,NONE,False
2019-10-26 10:02:07.940,LG-H970,0.819,-0.298,11.015,41.1047513,16.8789321,NONE,False
2019-10-26 10:02:07.960,LG-H970,0.249,0.351,10.088,41.1047513,16.8789321,NONE,False
2019-10-26 10:02:07.980,LG-H970,-0.474,-0.793,9.706,41.1047513,16.8789321,NONE,False
2019-10-26 10:02:08.000,LG-H970,-1.485,-1.534,9.554,41.1047513,16.8789321,NONE,False
2019-10-26 10:02:08.020,LG-H970,-0.57,-1.03,10.261,41.1047513,16.8789321,NONE,False
2019-10-26 10:02:08.040,LG-H970,0.634,-0.458,10.001,41.1047513,16.8789321,NONE,False
2019-10-26 10:02:08.060,LG-H970,1.01,-0.054,10.205,41.1047513,16.8789321,NONE,False
2019-10-26 10:02:08.080,LG-H970,-0.857,-0.901,10.032,41.1047513,16.8789321,NONE,False
2019-10-26 10:02:08.100,LG-H970,-2.025,-1.543,10.266,41.1047513,16.8789321,NONE,False
2019-10-26 10:02:08.120,LG-H970,-0.717,-0.878,9.436,41.1047513,16.8789321,NONE,False
2019-10-26 10:02:08.140,LG-H970,0.495,0.683,9.528,41.1047513,16.8789321,NONE,False
2019-10-26 10:02:08.160,LG-H970,0.93,-0.64,9.56,41.1047513,16.8789321,NONE,False
2019-10-26 10:02:08.180,LG-H970,-1.607,-2.11,10.862,41.1047513,16.8789321,NONE,False
2019-10-26 10:02:08.200,LG-H970,-1.186,-1.61,8.947,41.1047513,16.8789321,NONE,False
2019-10-26 10:02:08.220,LG-H970,-0.759,0.722,8.168,41.1047513,16.8789321,NONE,False
2019-10-26 10:02:08.240,LG-H970,-0.161,0.304,8.576,41.1047513,16.8789321,NONE,False
2019-10-26 10:02:08.260,LG-H970,-0.572,-1.425,11.506,41.1047513,16.8789321,NONE,False
2019-10-26 10:02:08.280,LG-H970,0.113,-1.277,10.612,41.1047513,16.8789321,NONE,False
2019-10-26 10:02:08.300,LG-H970,0.653,-0.047,9.141,41.1047513,16.8789321,NONE,False
2019-10-26 10:02:08.320,LG-H970,-1.03,0.248,9.028,41.1047513,16.8789321,NONE,False
2019-10-26 10:02:08.340,LG-H970,-0.94,-0.635,9.878,41.1047513,16.8789321,NONE,False
2019-10-26 10:02:08.360,LG-H970,-0.588,-0.896,9.856,41.1047513,16.8789321,NONE,False
2019-10-26 10:02:08.380,LG-H970,0.674,-0.435,10.551,41.1047513,16.8789321,NONE,False
2019-10-26 10:02:08.400,LG-H970,0.303,-0.66,10.017,41.1047513,16.8789321,NONE,False
2019-10-26 10:02:08.420,LG-H970,-0.357,-1.307,9.288,41.1047513,16.8789321,NONE,False
2019-10-26 10:02:08.440,LG-H970,-0.944,-0.916,9.172,41.1047513,16.8789321,NONE,False
2019-10-26 10:02:08.460,LG-H970,-0.416,-0.024,9.932,41.1047513,16.8789321,NONE,False
2019-10-26 10:02:08.480,LG-H970,0.607,-0.597,10.123,41.1047513,16.8789321,NONE,False
2019-10-26 10:02:08.500,LG-H970,0.079,-0.734,10.538,41.1047513,16.8789321,NONE,False
2019-10-26 10:02:08.520,LG-H970,-0.388,-0.527,9.697,41.1047513,16.8789321,NONE,False
2019-10-26 10:02:08.540,LG-H970,-0.615,-0.396,9.038,41.1047513,16.8789321,NONE,False
