UTC_timestamp,device_name,x,y,z,lat,long,speed,event
2019-11-13 10:09:21.960,Mi 9T,-0.021,-0.473,-9.815,41.4583326,15.5338939,0.086,False
2019-11-13 10:09:21.980,Mi 9T,0.121,-0.623,-9.595,41.4583326,15.5338939,0.086,False
2019-11-13 10:09:22.000,Mi 9T,0.055,-0.666,-9.861,41.4583326,15.5338939,0.086,False
2019-11-13 10:09:22.020,Mi 9T,0.404,-0.487,-9.685,41.4583326,15.5338939,0.086,False
2019-11-13 10:09:22.040,Mi 9T,-0.026,-0.501,-10.015,41.4583326,15.5338939,0.086,False
2019-11-13 10:09:22.060,Mi 9T,0.317,-0.475,-9.646,41.4583326,15.5338939,0.086,False
2019-11-13 10:09:22.080,Mi 9T,0.03,-0.655,-9.899,41.4583326,15.5338939,0.086,False
2019-11-13 10:09:22.100,Mi 9T,0.458,-0.661,-9.494,41.4583326,15.5338939,0.086,False
2019-11-13 10:09:22.120,Mi 9T,-0.15,-0.51,-9.826,41.4583326,15.5338939,0.086,False
2019-11-13 10:09:22.140,Mi 9T,0.221,-0.488,-9.777,41.4583326,15.5338939,0.086,False
2019-11-13 10:09:22.160,Mi 9T,0.217,-0.629,-9.753,41.4583326,15.5338939,0.086,False
2019-11-13 10:09:22.180,Mi 9T,0.096,-0.603,-9.904,41.4583326,15.5338939,0.086,False
2019-11-13 10:09:22.200,Mi 9T,0.333,-0.513,-9.677,41.4583326,15.5338939,0.086,False
2019-11-13 10:09:22.220,Mi 9T,-0.18,-0.586,-9.868,41.4583326,15.5338939,0.086,False
2019-11-13 10:09:22.240,Mi 9T,0.417,-0.483,-9.629,41.4583326,15.5338939,0.086,False
2019-11-13 10:09:22.260,Mi 9T,-0.038,-0.759,-9.984,41.4583326,15.5338939,0.086,False
2019-11-13 10:09:22.280,Mi 9T,0.447,-0.5,-9.641,41.4583326,15.5338939,0.086,False
2019-11-13 10:09:22.300,Mi 9T,-0.226,-0.529,-9.955,41.4583326,15.5338939,0.086,False
2019-11-13 10:09:22.320,Mi 9T,0.269,-0.542,-9.708,41.4583326,15.5338939,0.086,False
2019-11-13 10:09:22.340,Mi 9T,-0.147,-0.657,-9.858,41.4583326,15.5338939,0.086,False
2019-11-13 10:09:22.360,Mi 9T,0.244,-0.608,-9.809,41.4583326,15.5338939,0.086,False
2019-11-13 10:09:22.380,Mi 9T,0.073,-0.56,-9.732,41.4583326,15.5338939,0.086,False
2019-11-13 10:09:22.400,Mi 9T,0.1,-0.412,-9.916,41.4583326,15.5338939,0.086,False
2019-11-13 10:09:22.420,Mi 9T,0.368,-0.546,-9.649,41.4583326,15.5338939,0.086,False
2019-11-13 10:09:22.440,Mi 9T,-0.179,-0.719,-9.965,41.4583326,15.5338939,0.086,False
2019-11-13 10:09:22.460,Mi 9T,0.504,-0.542,-9.562,41.4583326,15.5338939,0.086,False
2019-11-13 10:09:22.480,Mi 9T,-0.145,-0.611,-9.865,41.4583326,15.5338939,0.086,False
2019-11-13 10:09:22.500,Mi 9T,0.27,-0.412,-9.686,41.4583326,15.5338939,0.086,False
2019-11-13 10:09:22.520,Mi 9T,-0.064,-0.627,-10.034,41.4583326,15.5338939,0.086,False
2019-11-13 10:09:22.540,Mi 9T,0.423,-0.649,-9.725,41.4583326,15.5338939,0.086,False
2019-11-13 10:09:22.560,Mi 9T,-0.002,-0.541,-9.77,41.4583326,15.5338939,0.086,False
2019-11-13 10:09:22.580,Mi 9T,-0.039,-0.55,-9.859,41.4583326,15.5338939,0.086,False
2019-11-13 10:09:22.600,Mi 9T,0.231,-0.591,-9.589,41.4583326,15.5338939,0.086,False
2019-11-13 10:09:22.620,Mi 9T,0.021,-0.627,-9.997,41.4583326,15.5338939,0.086,False
2019-11-13 10:09:22.640,Mi 9T,0.466,-0.521,-9.6,41.4583326,15.5338939,0.086,False
2019-11-13 10:09:22.660,Mi 9T,-0.253,-0.516,-10.0,41.4583326,15.5338939,0.086,False
2019-11-13 10:09:22.680,Mi 9T,0.353,-0.477,-9.677,41.4583326,15.5338939,0.086,False
2019-11-13 10:09:22.700,Mi 9T,0.084,-0.697,-9.668,41.4583326,15.5338939,0.086,False
2019-11-13 10:09:22.720,Mi 9T,0.035,-0.583,-9.921,41.4583326,15.5338939,0.086,False
2019-11-13 10:09:22.740,Mi 9T,0.372,-0.508,-9.659,41.4583326,15.5338939,0.086,False
2019-11-13 10:09:22.760,Mi 9T,-0.01,-0.493,-10.003,41.4583326,15.5338939,0.086,False
2019-11-13 10:09:22.780,Mi 9T,0.438,-0.451,-9.612,41.4583326,15.5338939,0.086,False
2019-11-13 10:09:22.800,Mi 9T,-0.115,-0.771,-9.934,41.4583326,15.5338939,0.086,False
2019-11-13 10:09:22.820,Mi 9T,0.222,-0.587,-9.653,41.4583326,15.5338939,0.086,False
2019-11-13 10:09:22.840,Mi 9T,0.046,-0.5,-9.798,41.4583326,15.5338939,0.086,False
2019-11-13 10:09:22.860,Mi 9T,0.24,-0.524,-9.683,41.4583326,15.5338939,0.086,False
2019-11-13 10:09:22.880,Mi 9T,0.277,-0.509,-9.767,41.4583326,15.5338939,0.086,False
2019-11-13 10:09:22.900,Mi 9T,0.197,-0.605,-9.924,41.4583326,15.5338939,0.086,False
2019-11-13 10:09:22.920,Mi 9T,0.239,-0.537,-9.564,41.4583326,15.5338939,0.086,False
2019-11-13 10:09:22.940,Mi 9T,-0.258,-0.59,-10.014,41.4583326,15.5338939,0.086,False
2019-11-13 10:09:22.960,Mi 9T,0.409,-0.616,-9.521,41.4583326,15.5338939,0.086,False
2019-11-13 10:09:22.980,Mi 9T,-0.012,-0.536,-9.948,41.4583326,15.5338939,0.086,False
2019-11-13 10:09:23.000,Mi 9T,0.346,-0.452,-9.723,41.4583326,15.5338939,0.086,False
2019-11-13 10:09:23.020,Mi 9T,0.156,-0.612,-9.724,41.4583326,15.5338939,0.086,False
2019-11-13 10:09:23.040,Mi 9T,0.061,-0.604,-9.886,41.4583326,15.5338939,0.086,False
2019-11-13 10:09:23.060,Mi 9T,0.205,-0.572,-9.694,41.4583326,15.5338939,0.086,False
2019-11-13 10:09:23.080,Mi 9T,-0.14,-0.54,-9.965,41.4583326,15.5338939,0.086,False
2019-11-13 10:09:23.100,Mi 9T,0.367,-0.45,-9.645,41.4583326,15.5338939,0.086,False
2019-11-13 10:09:23.120,Mi 9T,0.002,-0.717,-9.904,41.4583326,15.5338939,0.086,False
2019-11-13 10:09:23.140,Mi 9T,0.208,-0.493,-9.692,41.4583326,15.5338939,0.086,False
2019-11-13 10:09:23.160,Mi 9T,0.042,-0.483,-9.81,41.4583326,15.5338939,0.086,False
2019-11-13 10:09:23.180,Mi 9T,0.125,-0.559,-9.723,41.4583326,15.5338939,0.086,False
2019-11-13 10:09:23.200,Mi 9T,0.15,-0.602,-9.798,41.4583326,15.5338939,0.086,False
2019-11-13 10:09:23.220,Mi 9T,-0.019,-0.699,-9.982,41.4583326,15.5338939,0.086,False
2019-11-13 10:09:23.240,Mi 9T,0.261,-0.442,-9.622,41.4583326,15.5338939,0.086,False
2019-11-13 10:09:23.260,Mi 9T,-0.048,-0.436,-9.968,41.4583326,15.5338939,0.086,False
2019-11-13 10:09:23.280,Mi 9T,0.386,-0.634,-9.591,41.4583326,15.5338939,0.086,False
2019-11-13 10:09:23.300,Mi 9T,-0.021,-0.716,-9.897,41.4583326,15.5338939,0.086,False
2019-11-13 10:09:23.320,Mi 9T,0.209,-0.557,-9.78,41.4583326,15.5338939,0.086,False
2019-11-13 10:09:23.340,Mi 9T,0.081,-0.464,-9.69,41.4583326,15.5338939,0.086,False
2019-11-13 10:09:23.360,Mi 9T,0.054,-0.454,-9.961,41.4583326,15.5338939,0.086,False
2019-11-13 10:09:23.380,Mi 9T,0.465,-0.683,-9.582,41.4583326,15.5338939,0.086,False
2019-11-13 10:09:23.400,Mi 9T,-0.149,-0.71,-10.001,41.4583326,15.5338939,0.086,False
2019-11-13 10:09:23.420,Mi 9T,0.366,-0.418,-9.531,41.4583326,15.5338939,0.086,False
2019-11-13 10:09:23.440,Mi 9T,-0.117,-0.455,-9.955,41.4583326,15.5338939,0.086,False
2019-11-13 10:09:23.460,Mi 9T,0.129,-0.524,-9.755,41.4583326,15.5338939,0.086,True
2019-11-13 10:09:23.480,Mi 9T,0.129,-0.524,-9.755,41.4583326,15.5338939,0.086,True
2019-11-13 10:09:23.500,Mi 9T,0.015,-0.59,-9.898,41.4583326,15.5338939,0.086,True
2019-11-13 10:09:23.520,Mi 9T,0.193,-0.364,-9.671,41.4583326,15.5338939,0.086,True
2019-11-13 10:09:23.540,Mi 9T,-0.091,-0.684,-9.933,41.4583326,15.5338939,0.086,True
2019-11-13 10:09:23.560,Mi 9T,0.391,-0.672,-9.592,41.4583326,15.5338939,0.086,False
2019-11-13 10:09:23.580,Mi 9T,0.031,-0.542,-9.979,41.4583326,15.5338939,0.086,False
2019-11-13 10:09:23.600,Mi 9T,0.326,-0.435,-9.585,41.4583326,15.5338939,0.086,False
2019-11-13 10:09:23.620,Mi 9T,-0.162,-0.575,-9.927,41.4583326,15.5338939,0.086,False
2019-11-13 10:09:23.640,Mi 9T,0.329,-0.664,-9.749,41.4583326,15.5338939,0.086,False
2019-11-13 10:09:23.660,Mi 9T,0.178,-0.645,-9.638,41.4583326,15.5338939,0.086,False
2019-11-13 10:09:23.680,Mi 9T,-0.084,-0.446,-9.984,41.4583326,15.5338939,0.086,False
2019-11-13 10:09:23.700,Mi 9T,0.405,-0.528,-9.577,41.4583326,15.5338939,0.086,False
2019-11-13 10:09:23.720,Mi 9T,-0.034,-0.638,-9.983,41.4583326,15.5338939,0.086,False
2019-11-13 10:09:23.740,Mi 9T,0.357,-0.544,-9.628,41.4583326,15.5338939,0.086,False
2019-11-13 10:09:23.760,Mi 9T,-0.049,-0.615,-9.831,41.4583326,15.5338939,0.086,False
2019-11-13 10:09:23.780,Mi 9T,0.187,-0.482,-9.762,41.4583326,15.5338939,0.086,False
2019-11-13 10:09:23.800,Mi 9T,0.169,-0.557,-9.806,41.4583326,15.5338939,0.086,False
2019-11-13 10:09:23.820,Mi 9T,0.087,-0.612,-9.88,41.4583332,15.5338947,0.091,False
2019-11-13 10:09:23.840,Mi 9T,0.241,-0.513,-9.675,41.4583339,15.5338956,0.097,False
2019-11-13 10:09:23.860,Mi 9T,-0.015,-0.605,-9.901,41.4583339,15.5338956,0.097,False
2019-11-13 10:09:23.880,Mi 9T,0.243,-0.544,-9.561,41.4583339,15.5338956,0.097,False
2019-11-13 10:09:23.900,Mi 9T,-0.076,-0.577,-10.048,41.4583339,15.5338956,0.097,False
2019-11-13 10:09:23.920,Mi 9T,0.459,-0.567,-9.587,41.4583339,15.5338956,0.097,False
2019-11-13 10:09:23.940,Mi 9T,-0.105,-0.534,-9.949,41.4583339,15.5338956,0.097,False
2019-11-13 10:09:23.960,Mi 9T,0.255,-0.559,-9.761,41.4583339,15.5338956,0.097,False
2019-11-13 10:09:23.980,Mi 9T,0.137,-0.639,-9.712,41.4583339,15.5338956,0.097,False
2019-11-13 10:09:24.000,Mi 9T,0.069,-0.528,-9.88,41.4583339,15.5338956,0.097,False
2019-11-13 10:09:24.020,Mi 9T,0.261,-0.52,-9.676,41.4583339,15.5338956,0.097,False
2019-11-13 10:09:24.040,Mi 9T,0.014,-0.601,-9.889,41.4583339,15.5338956,0.097,False
2019-11-13 10:09:24.060,Mi 9T,0.392,-0.503,-9.63,41.4583339,15.5338956,0.097,False
2019-11-13 10:09:24.080,Mi 9T,-0.078,-0.658,-9.973,41.4583339,15.5338956,0.097,False
2019-11-13 10:09:24.100,Mi 9T,0.257,-0.486,-9.672,41.4583339,15.5338956,0.097,False
2019-11-13 10:09:24.120,Mi 9T,-0.003,-0.579,-9.917,41.4583339,15.5338956,0.097,False
2019-11-13 10:09:24.140,Mi 9T,0.385,-0.596,-9.648,41.4583339,15.5338956,0.097,False
2019-11-13 10:09:24.160,Mi 9T,-0.032,-0.562,-9.875,41.4583339,15.5338956,0.097,False
2019-11-13 10:09:24.180,Mi 9T,0.263,-0.523,-9.815,41.4583339,15.5338956,0.097,False
2019-11-13 10:09:24.200,Mi 9T,0.094,-0.582,-9.72,41.4583339,15.5338956,0.097,False
2019-11-13 10:09:24.220,Mi 9T,0.005,-0.566,-9.945,41.4583339,15.5338956,0.097,False
2019-11-13 10:09:24.240,Mi 9T,0.408,-0.6,-9.555,41.4583339,15.5338956,0.097,False
2019-11-13 10:09:24.260,Mi 9T,-0.164,-0.582,-9.963,41.4583339,15.5338956,0.097,False
2019-11-13 10:09:24.280,Mi 9T,0.349,-0.452,-9.631,41.4583339,15.5338956,0.097,False
2019-11-13 10:09:24.300,Mi 9T,-0.021,-0.66,-9.868,41.4583339,15.5338956,0.097,False
2019-11-13 10:09:24.320,Mi 9T,0.256,-0.58,-9.775,41.4583339,15.5338956,0.097,False
2019-11-13 10:09:24.340,Mi 9T,0.109,-0.553,-9.839,41.4583339,15.5338956,0.097,False
2019-11-13 10:09:24.360,Mi 9T,0.102,-0.504,-9.823,41.4583339,15.5338956,0.097,False
2019-11-13 10:09:24.380,Mi 9T,0.159,-0.511,-9.734,41.4583339,15.5338956,0.097,False
2019-11-13 10:09:24.400,Mi 9T,0.079,-0.746,-9.904,41.4583339,15.5338956,0.097,False
2019-11-13 10:09:24.420,Mi 9T,0.302,-0.56,-9.582,41.4583339,15.5338956,0.097,False
2019-11-13 10:09:24.440,Mi 9T,-0.082,-0.42,-9.976,41.4583339,15.5338956,0.097,False
2019-11-13 10:09:24.460,Mi 9T,0.396,-0.505,-9.571,41.4583339,15.5338956,0.097,False
2019-11-13 10:09:24.480,Mi 9T,-0.151,-0.729,-9.991,41.4583339,15.5338956,0.097,False
2019-11-13 10:09:24.500,Mi 9T,0.333,-0.618,-9.774,41.4583339,15.5338956,0.097,False
2019-11-13 10:09:24.520,Mi 9T,0.039,-0.493,-9.74,41.4583339,15.5338956,0.097,False
2019-11-13 10:09:24.540,Mi 9T,0.132,-0.388,-9.825,41.4583339,15.5338956,0.097,False
2019-11-13 10:09:24.560,Mi 9T,0.048,-0.66,-9.892,41.4583339,15.5338956,0.097,False
2019-11-13 10:09:24.580,Mi 9T,0.347,-0.692,-9.762,41.4583339,15.5338956,0.097,False
2019-11-13 10:09:24.600,Mi 9T,0.199,-0.459,-9.641,41.4583339,15.5338956,0.097,False
2019-11-13 10:09:24.620,Mi 9T,-0.152,-0.525,-9.937,41.4583339,15.5338956,0.097,False
2019-11-13 10:09:24.640,Mi 9T,0.379,-0.564,-9.563,41.4583339,15.5338956,0.097,False
2019-11-13 10:09:24.660,Mi 9T,0.05,-0.643,-9.994,41.4583339,15.5338956,0.097,False
2019-11-13 10:09:24.680,Mi 9T,0.401,-0.555,-9.612,41.4583339,15.5338956,0.097,False
2019-11-13 10:09:24.700,Mi 9T,-0.039,-0.48,-9.856,41.4583339,15.5338956,0.097,False
2019-11-13 10:09:24.720,Mi 9T,0.213,-0.602,-9.825,41.4583339,15.5338956,0.097,False
2019-11-13 10:09:24.740,Mi 9T,0.195,-0.676,-9.7,41.4583339,15.5338956,0.097,False
2019-11-13 10:09:24.760,Mi 9T,0.081,-0.519,-9.913,41.4583339,15.5338956,0.097,False
2019-11-13 10:09:24.780,Mi 9T,0.373,-0.461,-9.598,41.4583339,15.5338956,0.097,False
2019-11-13 10:09:24.800,Mi 9T,-0.099,-0.6,-9.921,41.4583339,15.5338956,0.097,False
2019-11-13 10:09:24.820,Mi 9T,0.385,-0.569,-9.631,41.4583339,15.5338956,0.097,False
2019-11-13 10:09:24.840,Mi 9T,-0.014,-0.687,-9.863,41.4583339,15.5338956,0.097,False
2019-11-13 10:09:24.860,Mi 9T,0.24,-0.435,-9.707,41.4583339,15.5338956,0.097,False
2019-11-13 10:09:24.880,Mi 9T,-0.015,-0.526,-9.947,41.4583339,15.5338956,0.097,False
2019-11-13 10:09:24.900,Mi 9T,0.361,-0.595,-9.746,41.4583339,15.5338956,0.097,False
2019-11-13 10:09:24.920,Mi 9T,0.135,-0.581,-9.761,41.4583339,15.5338956,0.097,False
2019-11-13 10:09:24.940,Mi 9T,0.037,-0.61,-9.871,41.4583339,15.5338956,0.097,False
