UTC_timestamp,device_name,x,y,z,lat,long,speed,event
2019-11-13 10:08:51.380,Mi 9T,4.118,4.007,-7.41,41.4572109,15.5348655,10.01,False
2019-11-13 10:08:51.400,Mi 9T,-4.124,3.05,-12.696,41.4572109,15.5348655,10.01,False
2019-11-13 10:08:51.420,Mi 9T,1.058,-2.031,-9.782,41.4572109,15.5348655,10.01,False
2019-11-13 10:08:51.440,Mi 9T,4.161,-4.096,-6.638,41.4572109,15.5348655,10.01,False
2019-11-13 10:08:51.460,Mi 9T,-1.066,-2.421,-8.636,41.4572109,15.5348655,10.01,False
2019-11-13 10:08:51.480,Mi 9T,-2.243,0.195,-9.311,41.4572109,15.5348655,10.01,False
2019-11-13 10:08:51.500,Mi 9T,-1.178,2.382,-11.487,41.4572109,15.5348655,10.01,False
2019-11-13 10:08:51.520,Mi 9T,2.4,1.268,-8.615,41.4572109,15.5348655,10.01,False
2019-11-13 10:08:51.540,Mi 9T,0.547,-2.335,-10.239,41.4572109,15.5348655,10.01,False
2019-11-13 10:08:51.560,Mi 9T,0.255,-4.173,-10.237,41.4572109,15.5348655,10.01,False
2019-11-13 10:08:51.580,Mi 9T,2.966,-0.781,-8.101,41.4572109,15.5348655,10.01,False
2019-11-13 10:08:51.600,Mi 9T,-4.467,1.12,-11.73,41.4572109,15.5348655,10.01,False
2019-11-13 10:08:51.620,Mi 9T,0.328,2.77,-10.195,41.4572109,15.5348655,10.01,False
2019-11-13 10:08:51.640,Mi 9T,1.516,-0.085,-9.346,41.4572109,15.5348655,10.01,False
2019-11-13 10:08:51.660,Mi 9T,1.136,-2.82,-10.019,41.4572109,15.5348655,10.01,False
2019-11-13 10:08:51.680,Mi 9T,-1.032,-2.398,-10.459,41.4572109,15.5348655,10.01,False
2019-11-13 10:08:51.700,Mi 9T,2.718,1.508,-9.581,41.4572109,15.5348655,10.01,False
2019-11-13 10:08:51.720,Mi 9T,-0.197,0.726,-10.305,41.4572109,15.5348655,10.01,False
2019-11-13 10:08:51.740,Mi 9T,0.624,0.682,-10.283,41.4572109,15.5348655,10.01,False
2019-11-13 10:08:51.760,Mi 9T,-0.075,-2.648,-9.599,41.4572109,15.5348655,10.01,False
2019-11-13 10:08:51.780,Mi 9T,0.039,-2.915,-10.081,41.4572109,15.5348655,10.01,False
2019-11-13 10:08:51.800,Mi 9T,-0.269,0.572,-9.364,41.4572109,15.5348655,10.01,False
2019-11-13 10:08:51.820,Mi 9T,-0.582,2.249,-12.374,41.4572357,15.5348429,9.947,False
2019-11-13 10:08:51.840,Mi 9T,0.571,0.067,-13.274,41.4572852,15.5347978,9.82,False
2019-11-13 10:08:51.860,Mi 9T,5.062,0.548,-10.498,41.4572852,15.5347978,9.82,False
2019-11-13 10:08:51.880,Mi 9T,0.537,-1.182,-9.712,41.4572852,15.5347978,9.82,False
2019-11-13 10:08:51.900,Mi 9T,-1.127,-2.732,-8.696,41.4572852,15.5347978,9.82,False
2019-11-13 10:08:51.920,Mi 9T,-0.131,-0.284,-6.55,41.4572852,15.5347978,9.82,False
2019-11-13 10:08:51.940,Mi 9T,-3.544,2.803,-8.856,41.4572852,15.5347978,9.82,False
2019-11-13 10:08:51.960,Mi 9T,-0.075,3.39,-10.392,41.4572852,15.5347978,9.82,False
2019-11-13 10:08:51.980,Mi 9T,-0.38,-1.503,-15.259,41.4572852,15.5347978,9.82,False
2019-11-13 10:08:52.000,Mi 9T,7.869,-3.025,-8.222,41.4572852,15.5347978,9.82,False
2019-11-13 10:08:52.020,Mi 9T,2.23,-1.175,-8.579,41.4572852,15.5347978,9.82,False
2019-11-13 10:08:52.040,Mi 9T,-3.973,0.862,-12.242,41.4572852,15.5347978,9.82,False
2019-11-13 10:08:52.060,Mi 9T,0.639,0.661,-7.275,41.4572852,15.5347978,9.82,False
2019-11-13 10:08:52.080,Mi 9T,-7.204,-1.256,-11.134,41.4572852,15.5347978,9.82,False
2019-11-13 10:08:52.100,Mi 9T,3.058,-0.076,-6.375,41.4572852,15.5347978,9.82,False
2019-11-13 10:08:52.120,Mi 9T,-2.828,-1.335,-12.069,41.4572852,15.5347978,9.82,False
2019-11-13 10:08:52.140,Mi 9T,4.097,-0.053,-9.608,41.4572852,15.5347978,9.82,False
2019-11-13 10:08:52.160,Mi 9T,0.845,1.237,-12.146,41.4572852,15.5347978,9.82,False
2019-11-13 10:08:52.180,Mi 9T,3.373,2.416,-9.268,41.4572852,15.5347978,9.82,False
2019-11-13 10:08:52.200,Mi 9T,-1.945,-0.414,-10.35,41.4572852,15.5347978,9.82,False
2019-11-13 10:08:52.220,Mi 9T,0.424,-1.351,-10.79,41.4572852,15.5347978,9.82,False
2019-11-13 10:08:52.240,Mi 9T,1.018,-1.923,-7.158,41.4572852,15.5347978,9.82,False
2019-11-13 10:08:52.260,Mi 9T,-0.743,1.023,-9.85,41.4572852,15.5347978,9.82,False
2019-11-13 10:08:52.280,Mi 9T,-0.32,0.799,-9.77,41.4572852,15.5347978,9.82,False
2019-11-13 10:08:52.300,Mi 9T,0.622,-0.538,-10.158,41.4572852,15.5347978,9.82,False
2019-11-13 10:08:52.320,Mi 9T,0.117,-1.442,-9.102,41.4572852,15.5347978,9.82,False
2019-11-13 10:08:52.340,Mi 9T,-0.913,0.093,-9.993,41.4572852,15.5347978,9.82,False
2019-11-13 10:08:52.360,Mi 9T,0.793,-0.509,-9.3,41.4572852,15.5347978,9.82,False
2019-11-13 10:08:52.380,Mi 9T,0.879,-0.22,-9.054,41.4572852,15.5347978,9.82,False
2019-11-13 10:08:52.400,Mi 9T,-1.276,0.586,-10.943,41.4572852,15.5347978,9.82,False
2019-11-13 10:08:52.420,Mi 9T,0.881,-0.321,-10.224,41.4572852,15.5347978,9.82,False
2019-11-13 10:08:52.440,Mi 9T,1.756,-0.912,-7.503,41.4572852,15.5347978,9.82,False
2019-11-13 10:08:52.460,Mi 9T,-1.942,1.994,-11.447,41.4572852,15.5347978,9.82,False
2019-11-13 10:08:52.480,Mi 9T,-1.64,2.726,-11.009,41.4572852,15.5347978,9.82,False
2019-11-13 10:08:52.500,Mi 9T,3.031,1.23,-6.721,41.4572852,15.5347978,9.82,False
2019-11-13 10:08:52.520,Mi 9T,-1.747,-1.031,-10.012,41.4572852,15.5347978,9.82,False
2019-11-13 10:08:52.540,Mi 9T,0.648,1.892,-7.426,41.4572852,15.5347978,9.82,False
2019-11-13 10:08:52.560,Mi 9T,-2.359,3.524,-11.025,41.4572852,15.5347978,9.82,False
2019-11-13 10:08:52.580,Mi 9T,-0.041,0.474,-9.915,41.4572852,15.5347978,9.82,False
2019-11-13 10:08:52.600,Mi 9T,0.262,-2.211,-12.427,41.4572852,15.5347978,9.82,False
2019-11-13 10:08:52.620,Mi 9T,5.105,-2.526,-7.8,41.4572852,15.5347978,9.82,False
2019-11-13 10:08:52.640,Mi 9T,-3.269,-0.059,-12.301,41.4572852,15.5347978,9.82,False
2019-11-13 10:08:52.660,Mi 9T,0.068,1.902,-10.402,41.4572852,15.5347978,9.82,False
2019-11-13 10:08:52.680,Mi 9T,1.738,-0.87,-7.72,41.4572852,15.5347978,9.82,False
2019-11-13 10:08:52.700,Mi 9T,-0.579,-0.928,-10.699,41.4572852,15.5347978,9.82,False
2019-11-13 10:08:52.720,Mi 9T,0.825,2.958,-8.501,41.4572852,15.5347978,9.82,False
2019-11-13 10:08:52.740,Mi 9T,-1.728,3.645,-12.087,41.4572852,15.5347978,9.82,False
2019-11-13 10:08:52.760,Mi 9T,1.299,-1.992,-9.115,41.4572852,15.5347978,9.82,False
2019-11-13 10:08:52.780,Mi 9T,2.933,-3.078,-8.658,41.4572852,15.5347978,9.82,False
2019-11-13 10:08:52.800,Mi 9T,-0.361,2.381,-10.159,41.4572852,15.5347978,9.82,False
2019-11-13 10:08:52.820,Mi 9T,-2.013,5.334,-11.313,41.457304,15.5347816,9.875,False
2019-11-13 10:08:52.840,Mi 9T,-0.678,2.239,-12.135,41.4573605,15.5347331,10.04,False
2019-11-13 10:08:52.860,Mi 9T,3.21,-1.143,-8.06,41.4573605,15.5347331,10.04,False
2019-11-13 10:08:52.880,Mi 9T,3.071,-2.726,-7.11,41.4573605,15.5347331,10.04,True
2019-11-13 10:08:52.900,Mi 9T,-1.738,-3.016,-11.145,41.4573605,15.5347331,10.04,True
2019-11-13 10:08:52.920,Mi 9T,1.034,0.734,-9.746,41.4573605,15.5347331,10.04,True
2019-11-13 10:08:52.940,Mi 9T,-3.98,2.278,-13.313,41.4573605,15.5347331,10.04,True
2019-11-13 10:08:52.960,Mi 9T,1.849,1.674,-8.468,41.4573605,15.5347331,10.04,True
2019-11-13 10:08:52.980,Mi 9T,-1.647,-0.096,-10.433,41.4573605,15.5347331,10.04,False
2019-11-13 10:08:53.000,Mi 9T,-1.479,-1.936,-11.582,41.4573605,15.5347331,10.04,False
2019-11-13 10:08:53.020,Mi 9T,2.052,-0.752,-6.015,41.4573605,15.5347331,10.04,False
2019-11-13 10:08:53.040,Mi 9T,0.462,1.898,-6.47,41.4573605,15.5347331,10.04,False
2019-11-13 10:08:53.060,Mi 9T,-5.461,1.556,-12.917,41.4573605,15.5347331,10.04,False
2019-11-13 10:08:53.080,Mi 9T,1.651,-0.428,-8.423,41.4573605,15.5347331,10.04,False
2019-11-13 10:08:53.100,Mi 9T,1.227,-1.485,-10.104,41.4573605,15.5347331,10.04,False
2019-11-13 10:08:53.120,Mi 9T,1.005,-2.342,-11.565,41.4573605,15.5347331,10.04,False
2019-11-13 10:08:53.140,Mi 9T,2.804,0.03,-9.623,41.4573605,15.5347331,10.04,False
2019-11-13 10:08:53.160,Mi 9T,-0.174,1.96,-11.739,41.4573605,15.5347331,10.04,False
2019-11-13 10:08:53.180,Mi 9T,-2.222,1.242,-10.091,41.4573605,15.5347331,10.04,False
2019-11-13 10:08:53.200,Mi 9T,1.888,0.726,-7.973,41.4573605,15.5347331,10.04,False
2019-11-13 10:08:53.220,Mi 9T,-1.638,-2.069,-9.265,41.4573605,15.5347331,10.04,False
2019-11-13 10:08:53.240,Mi 9T,-1.352,-2.854,-10.046,41.4573605,15.5347331,10.04,False
2019-11-13 10:08:53.260,Mi 9T,1.911,-0.998,-8.692,41.4573605,15.5347331,10.04,False
2019-11-13 10:08:53.280,Mi 9T,1.995,3.096,-9.382,41.4573605,15.5347331,10.04,False
2019-11-13 10:08:53.300,Mi 9T,-2.657,3.683,-12.554,41.4573605,15.5347331,10.04,False
2019-11-13 10:08:53.320,Mi 9T,1.794,0.892,-9.875,41.4573605,15.5347331,10.04,False
2019-11-13 10:08:53.340,Mi 9T,1.037,-3.195,-8.552,41.4573605,15.5347331,10.04,False
2019-11-13 10:08:53.360,Mi 9T,-0.835,-3.679,-8.975,41.4573605,15.5347331,10.04,False
2019-11-13 10:08:53.380,Mi 9T,-1.396,-2.449,-8.665,41.4573605,15.5347331,10.04,False
2019-11-13 10:08:53.400,Mi 9T,-1.135,1.458,-11.205,41.4573605,15.5347331,10.04,False
2019-11-13 10:08:53.420,Mi 9T,1.836,3.722,-9.014,41.4573605,15.5347331,10.04,False
2019-11-13 10:08:53.440,Mi 9T,-0.706,1.512,-12.29,41.4573605,15.5347331,10.04,False
2019-11-13 10:08:53.460,Mi 9T,0.091,-4.277,-10.335,41.4573605,15.5347331,10.04,False
2019-11-13 10:08:53.480,Mi 9T,5.082,-4.638,-5.717,41.4573605,15.5347331,10.04,False
2019-11-13 10:08:53.500,Mi 9T,-4.372,-1.901,-8.851,41.4573605,15.5347331,10.04,False
2019-11-13 10:08:53.520,Mi 9T,-2.246,4.441,-9.082,41.4573605,15.5347331,10.04,False
2019-11-13 10:08:53.540,Mi 9T,-1.949,5.228,-10.457,41.4573605,15.5347331,10.04,False
2019-11-13 10:08:53.560,Mi 9T,1.067,-0.215,-10.306,41.4573605,15.5347331,10.04,False
2019-11-13 10:08:53.580,Mi 9T,3.187,-4.797,-10.142,41.4573605,15.5347331,10.04,False
2019-11-13 10:08:53.600,Mi 9T,2.987,-1.716,-7.478,41.4573605,15.5347331,10.04,False
2019-11-13 10:08:53.620,Mi 9T,-2.912,2.469,-11.12,41.4573605,15.5347331,10.04,False
2019-11-13 10:08:53.640,Mi 9T,-2.935,2.871,-11.852,41.4573605,15.5347331,10.04,False
2019-11-13 10:08:53.660,Mi 9T,4.56,-0.917,-4.249,41.4573605,15.5347331,10.04,False
2019-11-13 10:08:53.680,Mi 9T,-3.697,-4.057,-11.518,41.4573605,15.5347331,10.04,False
2019-11-13 10:08:53.700,Mi 9T,-0.698,-4.965,-11.542,41.4573605,15.5347331,10.04,False
2019-11-13 10:08:53.720,Mi 9T,5.077,-1.24,-8.468,41.4573605,15.5347331,10.04,False
2019-11-13 10:08:53.740,Mi 9T,0.215,0.883,-11.291,41.4573605,15.5347331,10.04,False
2019-11-13 10:08:53.760,Mi 9T,-0.061,2.216,-12.433,41.4573605,15.5347331,10.04,False
2019-11-13 10:08:53.780,Mi 9T,2.476,1.677,-9.822,41.4573605,15.5347331,10.04,False
2019-11-13 10:08:53.800,Mi 9T,-0.695,-0.576,-9.877,41.4573605,15.5347331,10.04,False
2019-11-13 10:08:53.820,Mi 9T,0.912,-2.276,-5.815,41.4573605,15.5347331,10.04,False
2019-11-13 10:08:53.840,Mi 9T,-2.736,-0.166,-9.307,41.4573605,15.5347331,10.04,False
2019-11-13 10:08:53.860,Mi 9T,-1.881,1.629,-11.506,41.4573605,15.5347331,10.04,False
2019-11-13 10:08:53.880,Mi 9T,0.974,0.881,-12.421,41.4573605,15.5347331,10.04,False
2019-11-13 10:08:53.900,Mi 9T,5.51,0.52,-8.133,41.4573605,15.5347331,10.04,False
2019-11-13 10:08:53.920,Mi 9T,-0.08,-1.637,-10.65,41.4573605,15.5347331,10.04,False
2019-11-13 10:08:53.940,Mi 9T,-2.283,-3.754,-10.477,41.4573605,15.5347331,10.04,False
2019-11-13 10:08:53.960,Mi 9T,-1.628,-3.392,-7.91,41.4573605,15.5347331,10.04,False
2019-11-13 10:08:53.980,Mi 9T,-0.134,0.089,-7.741,41.4573605,15.5347331,10.04,False
2019-11-13 10:08:54.000,Mi 9T,-4.295,1.415,-13.312,41.4573605,15.5347331,10.04,False
2019-11-13 10:08:54.020,Mi 9T,3.848,0.599,-10.187,41.4573605,15.5347331,10.04,False
2019-11-13 10:08:54.040,Mi 9T,1.76,-3.342,-11.64,41.4573605,15.5347331,10.04,False
2019-11-13 10:08:54.060,Mi 9T,6.023,-3.115,-6.01,41.4573605,15.5347331,10.04,False
2019-11-13 10:08:54.080,Mi 9T,-3.209,0.856,-10.571,41.4573605,15.5347331,10.04,False
2019-11-13 10:08:54.100,Mi 9T,-3.548,3.513,-10.453,41.4573605,15.5347331,10.04,False
2019-11-13 10:08:54.120,Mi 9T,-3.248,0.512,-10.345,41.4573605,15.5347331,10.04,False
2019-11-13 10:08:54.140,Mi 9T,4.661,-1.963,-8.083,41.4573605,15.5347331,10.04,False
2019-11-13 10:08:54.160,Mi 9T,0.382,-3.115,-11.529,41.4573605,15.5347331,10.04,False
2019-11-13 10:08:54.180,Mi 9T,4.082,-1.009,-9.649,41.4573605,15.5347331,10.04,False
2019-11-13 10:08:54.200,Mi 9T,-0.167,0.932,-10.32,41.4573605,15.5347331,10.04,False
2019-11-13 10:08:54.220,Mi 9T,-1.085,2.967,-9.417,41.4573605,15.5347331,10.04,False
2019-11-13 10:08:54.240,Mi 9T,-1.936,0.486,-9.981,41.4573605,15.5347331,10.04,False
2019-11-13 10:08:54.260,Mi 9T,0.664,-1.712,-8.169,41.4573605,15.5347331,10.04,False
2019-11-13 10:08:54.280,Mi 9T,0.891,-0.605,-8.36,41.4573605,15.5347331,10.04,False
2019-11-13 10:08:54.300,Mi 9T,0.163,2.081,-9.0,41.4573605,15.5347331,10.04,False
2019-11-13 10:08:54.320,Mi 9T,-2.227,-0.589,-11.924,41.4573605,15.5347331,10.04,False
2019-11-13 10:08:54.340,Mi 9T,2.434,-3.917,-8.617,41.4573605,15.5347331,10.04,False
2019-11-13 10:08:54.360,Mi 9T,2.037,-1.856,-6.897,41.4573605,15.5347331,10.04,False
