UTC_timestamp,device_name,x,y,z,lat,long,speed,event
2019-11-13 12:01:29.640,Mi 9T,-3.872,0.746,-9.701,41.4634113,15.5280733,11.744,False
2019-11-13 12:01:29.660,Mi 9T,-2.167,1.105,-8.968,41.4634113,15.5280733,11.744,False
2019-11-13 12:01:29.680,Mi 9T,-1.912,0.365,-10.075,41.4634113,15.5280733,11.744,False
2019-11-13 12:01:29.700,Mi 9T,-0.993,0.128,-10.51,41.4634113,15.5280733,11.744,False
2019-11-13 12:01:29.720,Mi 9T,-0.37,0.979,-9.939,41.4634113,15.5280733,11.744,False
2019-11-13 12:01:29.740,Mi 9T,-1.716,1.206,-9.887,41.4634113,15.5280733,11.744,False
2019-11-13 12:01:29.760,Mi 9T,-2.419,0.864,-9.497,41.4634113,15.5280733,11.744,False
2019-11-13 12:01:29.780,Mi 9T,-2.79,0.082,-9.026,41.4634113,15.5280733,11.744,False
2019-11-13 12:01:29.800,Mi 9T,-1.718,0.571,-9.606,41.4634113,15.5280733,11.744,False
2019-11-13 12:01:29.820,Mi 9T,-2.142,0.077,-10.286,41.4634113,15.5280733,11.744,False
2019-11-13 12:01:29.840,Mi 9T,-0.403,0.622,-9.473,41.4634113,15.5280733,11.744,False
2019-11-13 12:01:29.860,Mi 9T,-1.484,1.215,-10.004,41.4634113,15.5280733,11.744,False
2019-11-13 12:01:29.880,Mi 9T,-1.665,1.703,-9.541,41.4634113,15.5280733,11.744,False
2019-11-13 12:01:29.900,Mi 9T,-2.814,0.739,-9.774,41.4634113,15.5280733,11.744,False
2019-11-13 12:01:29.920,Mi 9T,-2.485,-0.608,-10.078,41.4634113,15.5280733,11.744,False
2019-11-13 12:01:29.940,Mi 9T,-0.734,-1.079,-8.921,41.4634113,15.5280733,11.744,False
2019-11-13 12:01:29.960,Mi 9T,-2.212,-0.353,-9.96,41.4634113,15.5280733,11.744,False
2019-11-13 12:01:29.980,Mi 9T,-2.77,1.888,-10.579,41.4634113,15.5280733,11.744,False
2019-11-13 12:01:30.000,Mi 9T,-1.318,2.295,-9.241,41.4634113,15.5280733,11.744,False
2019-11-13 12:01:30.020,Mi 9T,-1.38,0.299,-9.634,41.4634113,15.5280733,11.744,False
2019-11-13 12:01:30.040,Mi 9T,-2.004,-1.172,-9.881,41.4634113,15.5280733,11.744,False
2019-11-13 12:01:30.060,Mi 9T,-1.813,-0.729,-9.004,41.4634113,15.5280733,11.744,False
2019-11-13 12:01:30.080,Mi 9T,-2.191,0.654,-9.189,41.4634113,15.5280733,11.744,False
2019-11-13 12:01:30.100,Mi 9T,-2.946,1.167,-10.093,41.4634113,15.5280733,11.744,False
2019-11-13 12:01:30.120,Mi 9T,-0.847,1.262,-9.397,41.4634113,15.5280733,11.744,False
2019-11-13 12:01:30.140,Mi 9T,-1.258,0.446,-10.205,41.4634113,15.5280733,11.744,False
2019-11-13 12:01:30.160,Mi 9T,-1.464,0.77,-10.011,41.4634113,15.5280733,11.744,False
2019-11-13 12:01:30.180,Mi 9T,-1.719,0.936,-9.282,41.4634113,15.5280733,11.744,False
2019-11-13 12:01:30.200,Mi 9T,-1.556,1.448,-7.56,41.4635186,15.5283176,12.089,False
2019-11-13 12:01:30.220,Mi 9T,-3.528,1.61,-10.601,41.4635186,15.5283176,12.089,False
2019-11-13 12:01:30.240,Mi 9T,-1.883,-1.651,-9.872,41.4635186,15.5283176,12.089,False
2019-11-13 12:01:30.260,Mi 9T,0.416,-3.413,-8.581,41.4635186,15.5283176,12.089,False
2019-11-13 12:01:30.280,Mi 9T,-0.588,-0.475,-7.823,41.4635186,15.5283176,12.089,False
2019-11-13 12:01:30.300,Mi 9T,-4.699,4.71,-11.436,41.4635186,15.5283176,12.089,False
2019-11-13 12:01:30.320,Mi 9T,-2.644,5.072,-11.477,41.4635186,15.5283176,12.089,False
2019-11-13 12:01:30.340,Mi 9T,0.087,-0.124,-9.439,41.4635186,15.5283176,12.089,False
2019-11-13 12:01:30.360,Mi 9T,-0.734,-3.97,-9.277,41.4635186,15.5283176,12.089,False
2019-11-13 12:01:30.380,Mi 9T,-2.206,-1.377,-9.143,41.4635186,15.5283176,12.089,False
2019-11-13 12:01:30.400,Mi 9T,-1.974,3.52,-8.462,41.4635186,15.5283176,12.089,False
2019-11-13 12:01:30.420,Mi 9T,-3.437,4.506,-10.995,41.4635186,15.5283176,12.089,False
2019-11-13 12:01:30.440,Mi 9T,-1.055,0.979,-9.053,41.4635186,15.5283176,12.089,False
2019-11-13 12:01:30.460,Mi 9T,0.898,-2.834,-7.795,41.4635186,15.5283176,12.089,False
2019-11-13 12:01:30.480,Mi 9T,-2.504,-1.175,-10.318,41.4635186,15.5283176,12.089,False
2019-11-13 12:01:30.500,Mi 9T,-0.748,2.012,-9.008,41.4635186,15.5283176,12.089,False
2019-11-13 12:01:30.520,Mi 9T,-4.023,1.978,-10.59,41.4635186,15.5283176,12.089,False
2019-11-13 12:01:30.540,Mi 9T,-0.901,1.571,-9.507,41.4635186,15.5283176,12.089,False
2019-11-13 12:01:30.560,Mi 9T,-0.23,-0.27,-8.853,41.4635186,15.5283176,12.089,False
2019-11-13 12:01:30.580,Mi 9T,-1.571,-1.226,-9.731,41.4635186,15.5283176,12.089,False
2019-11-13 12:01:30.600,Mi 9T,-2.312,0.271,-9.255,41.4635186,15.5283176,12.089,False
2019-11-13 12:01:30.620,Mi 9T,-2.763,1.501,-9.165,41.4635186,15.5283176,12.089,False
2019-11-13 12:01:30.640,Mi 9T,-2.036,1.726,-10.001,41.4635186,15.5283176,12.089,False
2019-11-13 12:01:30.660,Mi 9T,-0.796,1.153,-9.336,41.4635186,15.5283176,12.089,False
2019-11-13 12:01:30.680,Mi 9T,-0.946,-0.001,-9.632,41.4635186,15.5283176,12.089,False
2019-11-13 12:01:30.700,Mi 9T,-2.734,-0.059,-10.864,41.4635186,15.5283176,12.089,False
2019-11-13 12:01:30.720,Mi 9T,-1.946,0.363,-9.032,41.4635186,15.5283176,12.089,False
2019-11-13 12:01:30.740,Mi 9T,-2.86,0.092,-9.775,41.4635186,15.5283176,12.089,False
2019-11-13 12:01:30.760,Mi 9T,-2.436,-0.524,-9.981,41.4635186,15.5283176,12.089,False
2019-11-13 12:01:30.780,Mi 9T,-0.859,0.187,-9.526,41.4635186,15.5283176,12.089,False
2019-11-13 12:01:30.800,Mi 9T,-1.255,1.021,-10.053,41.4635186,15.5283176,12.089,False
2019-11-13 12:01:30.820,Mi 9T,-1.41,1.465,-10.022,41.4635186,15.5283176,12.089,False
2019-11-13 12:01:30.840,Mi 9T,-2.202,0.413,-10.106,41.4635186,15.5283176,12.089,False
2019-11-13 12:01:30.860,Mi 9T,-1.394,-0.49,-9.695,41.4635186,15.5283176,12.089,False
2019-11-13 12:01:30.880,Mi 9T,-1.393,-0.812,-8.645,41.4635186,15.5283176,12.089,False
2019-11-13 12:01:30.900,Mi 9T,-2.93,0.349,-10.04,41.4635186,15.5283176,12.089,False
2019-11-13 12:01:30.920,Mi 9T,-1.745,1.376,-9.294,41.4635186,15.5283176,12.089,False
2019-11-13 12:01:30.940,Mi 9T,-1.088,1.483,-9.331,41.4635186,15.5283176,12.089,False
2019-11-13 12:01:30.960,Mi 9T,-1.96,0.579,-10.875,41.4635186,15.5283176,12.089,False
2019-11-13 12:01:30.980,Mi 9T,-1.138,-0.215,-9.854,41.4635186,15.5283176,12.089,False
2019-11-13 12:01:31.000,Mi 9T,-1.509,-0.23,-9.603,41.4635186,15.5283176,12.089,False
2019-11-13 12:01:31.020,Mi 9T,-2.019,0.293,-9.338,41.4635186,15.5283176,12.089,False
2019-11-13 12:01:31.040,Mi 9T,-2.594,0.867,-9.275,41.4635186,15.5283176,12.089,False
2019-11-13 12:01:31.060,Mi 9T,-1.74,0.806,-9.089,41.4635186,15.5283176,12.089,False
2019-11-13 12:01:31.080,Mi 9T,-2.049,-0.276,-9.347,41.4635186,15.5283176,12.089,False
2019-11-13 12:01:31.100,Mi 9T,-1.16,-0.174,-9.734,41.4635186,15.5283176,12.089,False
2019-11-13 12:01:31.120,Mi 9T,-1.16,-0.174,-9.734,41.4635186,15.5283176,12.089,False
2019-11-13 12:01:31.140,Mi 9T,-1.784,0.322,-9.87,41.4635186,15.5283176,12.089,True
2019-11-13 12:01:31.160,Mi 9T,-1.784,0.322,-9.87,41.4635186,15.5283176,12.089,True
2019-11-13 12:01:31.180,Mi 9T,-1.637,0.649,-10.221,41.4635186,15.5283176,12.089,True
2019-11-13 12:01:31.200,Mi 9T,-0.469,-0.056,-8.835,41.4635186,15.5283176,12.089,True
2019-11-13 12:01:31.220,Mi 9T,-2.656,0.857,-9.628,41.4635186,15.5283176,12.089,True
2019-11-13 12:01:31.240,Mi 9T,-2.435,1.469,-10.657,41.4635186,15.5283176,12.089,False
2019-11-13 12:01:31.260,Mi 9T,-0.854,0.123,-9.753,41.4635186,15.5283176,12.089,False
2019-11-13 12:01:31.280,Mi 9T,0.196,-1.084,-9.666,41.4635186,15.5283176,12.089,False
2019-11-13 12:01:31.300,Mi 9T,-1.34,-0.491,-9.218,41.4635186,15.5283176,12.089,False
2019-11-13 12:01:31.320,Mi 9T,-2.842,1.192,-10.101,41.4635186,15.5283176,12.089,False
2019-11-13 12:01:31.340,Mi 9T,-1.546,2.423,-8.408,41.4635186,15.5283176,12.089,False
2019-11-13 12:01:31.360,Mi 9T,-2.014,1.144,-10.003,41.4635186,15.5283176,12.089,False
2019-11-13 12:01:31.380,Mi 9T,-0.911,-1.396,-9.714,41.4635186,15.5283176,12.089,False
2019-11-13 12:01:31.400,Mi 9T,-0.17,-0.973,-9.262,41.4635186,15.5283176,12.089,False
2019-11-13 12:01:31.420,Mi 9T,-1.642,0.645,-9.35,41.4635186,15.5283176,12.089,False
2019-11-13 12:01:31.440,Mi 9T,-1.994,2.368,-9.412,41.4635186,15.5283176,12.089,False
2019-11-13 12:01:31.460,Mi 9T,-2.322,1.499,-9.837,41.4635186,15.5283176,12.089,False
2019-11-13 12:01:31.480,Mi 9T,0.109,0.101,-8.866,41.4635186,15.5283176,12.089,False
2019-11-13 12:01:31.500,Mi 9T,0.028,-1.192,-8.788,41.4635186,15.5283176,12.089,False
2019-11-13 12:01:31.520,Mi 9T,-2.264,-0.77,-10.303,41.4635186,15.5283176,12.089,False
2019-11-13 12:01:31.540,Mi 9T,-0.962,1.295,-9.471,41.4635186,15.5283176,12.089,False
2019-11-13 12:01:31.560,Mi 9T,-1.043,2.042,-9.491,41.4635186,15.5283176,12.089,False
2019-11-13 12:01:31.580,Mi 9T,-1.398,1.04,-10.775,41.4635186,15.5283176,12.089,False
2019-11-13 12:01:31.600,Mi 9T,-0.441,-0.383,-9.432,41.4635186,15.5283176,12.089,False
2019-11-13 12:01:31.620,Mi 9T,-1.126,-0.156,-10.101,41.4635186,15.5283176,12.089,False
2019-11-13 12:01:31.640,Mi 9T,-1.406,0.753,-9.463,41.4635186,15.5283176,12.089,False
2019-11-13 12:01:31.660,Mi 9T,-2.076,0.622,-10.21,41.4635186,15.5283176,12.089,False
2019-11-13 12:01:31.680,Mi 9T,-0.371,0.039,-9.617,41.4635186,15.5283176,12.089,False
2019-11-13 12:01:31.700,Mi 9T,-0.782,-0.26,-9.475,41.4635186,15.5283176,12.089,False
2019-11-13 12:01:31.720,Mi 9T,-1.336,0.401,-9.605,41.4635186,15.5283176,12.089,False
2019-11-13 12:01:31.740,Mi 9T,-2.049,1.595,-9.451,41.4635186,15.5283176,12.089,False
2019-11-13 12:01:31.760,Mi 9T,-1.561,1.28,-9.92,41.4635186,15.5283176,12.089,False
2019-11-13 12:01:31.780,Mi 9T,-0.24,-0.791,-9.651,41.4635186,15.5283176,12.089,False
2019-11-13 12:01:31.800,Mi 9T,-0.438,-1.257,-9.666,41.4635186,15.5283176,12.089,False
2019-11-13 12:01:31.820,Mi 9T,-1.599,0.756,-10.35,41.4635186,15.5283176,12.089,False
2019-11-13 12:01:31.840,Mi 9T,-1.572,2.954,-9.32,41.4635186,15.5283176,12.089,False
2019-11-13 12:01:31.860,Mi 9T,-2.255,1.771,-10.021,41.4635186,15.5283176,12.089,False
2019-11-13 12:01:31.880,Mi 9T,-1.116,-0.43,-9.678,41.4635186,15.5283176,12.089,False
2019-11-13 12:01:31.900,Mi 9T,-0.674,-1.877,-9.074,41.4635186,15.5283176,12.089,False
2019-11-13 12:01:31.920,Mi 9T,-1.773,-0.048,-10.401,41.4635186,15.5283176,12.089,False
2019-11-13 12:01:31.940,Mi 9T,-1.73,2.025,-9.756,41.4635186,15.5283176,12.089,False
2019-11-13 12:01:31.960,Mi 9T,-1.254,2.104,-10.137,41.4635186,15.5283176,12.089,False
2019-11-13 12:01:31.980,Mi 9T,-0.56,0.072,-10.048,41.4635186,15.5283176,12.089,False
2019-11-13 12:01:32.000,Mi 9T,-0.49,-0.611,-9.348,41.4635186,15.5283176,12.089,False
2019-11-13 12:01:32.020,Mi 9T,-1.769,0.828,-10.198,41.4635186,15.5283176,12.089,False
2019-11-13 12:01:32.040,Mi 9T,-1.846,1.596,-9.715,41.4635186,15.5283176,12.089,False
2019-11-13 12:01:32.060,Mi 9T,-1.017,0.337,-10.294,41.4635186,15.5283176,12.089,False
2019-11-13 12:01:32.080,Mi 9T,-0.433,-0.961,-9.788,41.4635186,15.5283176,12.089,False
2019-11-13 12:01:32.100,Mi 9T,-1.21,-0.425,-9.882,41.4635186,15.5283176,12.089,False
2019-11-13 12:01:32.120,Mi 9T,-1.893,1.733,-9.982,41.4635186,15.5283176,12.089,False
2019-11-13 12:01:32.140,Mi 9T,-1.655,2.89,-9.361,41.4635186,15.5283176,12.089,False
2019-11-13 12:01:32.160,Mi 9T,-1.246,0.604,-9.913,41.4635186,15.5283176,12.089,False
2019-11-13 12:01:32.180,Mi 9T,-0.102,-1.74,-8.904,41.4635323,15.5283489,12.073,False
2019-11-13 12:01:32.200,Mi 9T,-1.645,-1.483,-9.045,41.4636283,15.5285678,11.961,False
2019-11-13 12:01:32.220,Mi 9T,-1.632,1.78,-8.38,41.4636283,15.5285678,11.961,False
2019-11-13 12:01:32.240,Mi 9T,-2.79,2.84,-9.353,41.4636283,15.5285678,11.961,False
2019-11-13 12:01:32.260,Mi 9T,-2.493,0.96,-11.273,41.4636283,15.5285678,11.961,False
2019-11-13 12:01:32.280,Mi 9T,1.361,-1.472,-8.623,41.4636283,15.5285678,11.961,False
2019-11-13 12:01:32.300,Mi 9T,-0.739,-0.625,-11.175,41.4636283,15.5285678,11.961,False
2019-11-13 12:01:32.320,Mi 9T,-1.295,1.861,-9.772,41.4636283,15.5285678,11.961,False
2019-11-13 12:01:32.340,Mi 9T,-1.254,2.857,-10.255,41.4636283,15.5285678,11.961,False
2019-11-13 12:01:32.360,Mi 9T,-1.31,-0.064,-9.098,41.4636283,15.5285678,11.961,False
2019-11-13 12:01:32.380,Mi 9T,-1.34,-1.823,-9.389,41.4636283,15.5285678,11.961,False
2019-11-13 12:01:32.400,Mi 9T,-0.424,-0.691,-8.503,41.4636283,15.5285678,11.961,False
2019-11-13 12:01:32.420,Mi 9T,-1.863,1.709,-9.712,41.4636283,15.5285678,11.961,False
2019-11-13 12:01:32.440,Mi 9T,-0.696,2.339,-9.691,41.4636283,15.5285678,11.961,False
2019-11-13 12:01:32.460,Mi 9T,-1.089,-1.86,-9.598,41.4636283,15.5285678,11.961,False
2019-11-13 12:01:32.480,Mi 9T,0.588,-1.626,-7.346,41.4636283,15.5285678,11.961,False
2019-11-13 12:01:32.500,Mi 9T,-2.841,1.043,-7.121,41.4636283,15.5285678,11.961,False
2019-11-13 12:01:32.520,Mi 9T,-3.762,3.754,-8.334,41.4636283,15.5285678,11.961,False
2019-11-13 12:01:32.540,Mi 9T,-3.901,3.689,-9.498,41.4636283,15.5285678,11.961,False
2019-11-13 12:01:32.560,Mi 9T,-0.635,1.13,-9.731,41.4636283,15.5285678,11.961,False
2019-11-13 12:01:32.580,Mi 9T,1.478,-1.66,-8.786,41.4636283,15.5285678,11.961,False
2019-11-13 12:01:32.600,Mi 9T,-0.551,-1.952,-11.199,41.4636283,15.5285678,11.961,False
2019-11-13 12:01:32.620,Mi 9T,-0.695,0.588,-11.072,41.4636283,15.5285678,11.961,False
