UTC_timestamp,device_name,x,y,z,lat,long,speed,event
2019-11-11 08:35:19.480,SmartbBox,-0.143,0.008,-1.007,0,0,0.0,False
2019-11-11 08:35:19.500,SmartbBox,-0.178,0.014,-1.056,0,0,0.0,False
2019-11-11 08:35:19.520,SmartbBox,-0.179,-0.016,-1.03,0,0,0.0,False
2019-11-11 08:35:19.540,SmartbBox,-0.114,0.004,-1.01,0,0,0.0,False
2019-11-11 08:35:19.560,SmartbBox,-0.054,0.025,-1.018,0,0,0.0,False
2019-11-11 08:35:19.580,SmartbBox,-0.086,0.0,-1.014,0,0,0.0,False
2019-11-11 08:35:19.600,SmartbBox,-0.086,0.0,-1.014,0,0,0.0,False
2019-11-11 08:35:19.620,SmartbBox,-0.053,0.025,-1.018,0,0,0.0,False
2019-11-11 08:35:19.640,SmartbBox,0.064,0.008,-1.008,0,0,0.0,False
2019-11-11 08:35:19.660,SmartbBox,-0.001,-0.042,-1.0,0,0,0.0,False
2019-11-11 08:35:19.680,SmartbBox,-0.09,0.001,-1.041,0,0,0.0,False
2019-11-11 08:35:19.700,SmartbBox,-0.008,-0.01,-1.08,0,0,0.0,False
2019-11-11 08:35:19.720,SmartbBox,0.024,-0.045,-1.031,0,0,0.0,False
2019-11-11 08:35:19.740,SmartbBox,-0.005,-0.041,-1.027,0,0,0.0,False
2019-11-11 08:35:19.760,SmartbBox,-0.008,-0.01,-1.08,0,0,0.0,False
2019-11-11 08:35:19.780,SmartbBox,0.02,-0.044,-1.058,0,0,0.0,False
2019-11-11 08:35:19.800,SmartbBox,-0.07,-0.061,-1.046,0,0,0.0,False
2019-11-11 08:35:19.820,SmartbBox,-0.036,-0.006,-1.076,0,0,0.0,False
2019-11-11 08:35:19.840,SmartbBox,-0.04,-0.005,-1.102,0,0,0.0,False
2019-11-11 08:35:19.860,SmartbBox,-0.04,-0.035,-1.076,0,0,0.0,False
2019-11-11 08:35:19.880,SmartbBox,-0.028,0.022,-1.048,0,0,0.0,False
2019-11-11 08:35:19.900,SmartbBox,-0.029,-0.008,-1.022,0,0,0.0,False
2019-11-11 08:35:19.920,SmartbBox,-0.037,-0.066,-1.023,0,0,0.0,False
2019-11-11 08:35:19.940,SmartbBox,-0.004,-0.011,-1.053,0,0,0.0,False
2019-11-11 08:35:19.960,SmartbBox,-0.026,-0.008,-0.996,0,0,0.0,False
2019-11-11 08:35:19.980,SmartbBox,-0.03,-0.067,-0.97,0,0,0.0,False
2019-11-11 08:35:20.000,SmartbBox,-0.032,-0.007,-1.049,0,0,0.0,False
2019-11-11 08:35:20.020,SmartbBox,0.006,-0.014,-0.974,0,0,0.0,False
2019-11-11 08:35:20.040,SmartbBox,-0.018,0.019,-0.969,0,0,0.0,False
2019-11-11 08:35:20.060,SmartbBox,-0.03,-0.038,-0.996,0,0,0.0,False
2019-11-11 08:35:20.080,SmartbBox,0.028,-0.046,-1.004,0,0,0.0,False
2019-11-11 08:35:20.100,SmartbBox,0.002,-0.042,-0.974,0,0,0.0,False
2019-11-11 08:35:20.120,SmartbBox,-0.026,-0.039,-0.97,0,0,0.0,False
2019-11-11 08:35:20.140,SmartbBox,-0.033,-0.037,-1.023,0,0,0.0,False
2019-11-11 08:35:20.160,SmartbBox,-0.03,-0.038,-0.996,0,0,0.0,False
2019-11-11 08:35:20.180,SmartbBox,-0.045,-0.093,-1.05,0,0,0.0,False
2019-11-11 08:35:20.200,SmartbBox,0.006,-0.014,-0.974,0,0,0.0,False
2019-11-11 08:35:20.220,SmartbBox,-0.034,-0.066,-0.997,0,0,0.0,False
2019-11-11 08:35:20.240,SmartbBox,-0.012,-0.068,-1.054,0,0,0.0,False
2019-11-11 08:35:20.260,SmartbBox,0.002,-0.042,-0.974,0,0,0.0,False
2019-11-11 08:35:20.280,SmartbBox,0.002,-0.042,-0.974,0,0,0.0,False
2019-11-11 08:35:20.300,SmartbBox,-0.005,-0.07,-1.001,0,0,0.0,False
2019-11-11 08:35:20.320,SmartbBox,0.003,-0.012,-1.0,0,0,0.0,False
2019-11-11 08:35:20.340,SmartbBox,-0.037,-0.036,-1.049,0,0,0.0,False
2019-11-11 08:35:20.360,SmartbBox,-0.001,-0.041,-1.0,0,0,0.0,False
2019-11-11 08:35:20.380,SmartbBox,-0.008,-0.07,-1.027,0,0,0.0,False
2019-11-11 08:35:20.400,SmartbBox,0.002,-0.042,-0.974,0,0,0.0,False
2019-11-11 08:35:20.420,SmartbBox,-0.03,-0.038,-0.996,0,0,0.0,False
2019-11-11 08:35:20.440,SmartbBox,-0.026,-0.038,-0.97,0,0,0.0,False
2019-11-11 08:35:20.460,SmartbBox,-0.008,-0.07,-1.027,0,0,0.0,False
2019-11-11 08:35:20.480,SmartbBox,-0.034,-0.066,-0.997,0,0,0.0,False
2019-11-11 08:35:20.500,SmartbBox,-0.03,-0.038,-0.996,0,0,0.0,False
2019-11-11 08:35:20.520,SmartbBox,-0.001,-0.012,-1.026,0,0,0.0,False
2019-11-11 08:35:20.540,SmartbBox,-0.029,-0.008,-1.022,0,0,0.0,False
2019-11-11 08:35:20.560,SmartbBox,-0.002,-0.071,-0.974,0,0,0.0,False
2019-11-11 08:35:20.580,SmartbBox,-0.005,-0.041,-1.027,0,0,0.0,False
2019-11-11 08:35:20.600,SmartbBox,-0.037,-0.036,-1.049,0,0,0.0,False
2019-11-11 08:35:20.620,SmartbBox,-0.001,-0.041,-1.0,0,0,0.0,False
2019-11-11 08:35:20.640,SmartbBox,-0.012,-0.098,-1.028,0,0,0.0,False
2019-11-11 08:35:20.660,SmartbBox,-0.012,-0.039,-1.08,0,0,0.0,False
2019-11-11 08:35:20.680,SmartbBox,0.024,-0.045,-1.031,0,0,0.0,False
2019-11-11 08:35:20.700,SmartbBox,-0.037,-0.036,-1.049,0,0,0.0,False
2019-11-11 08:35:20.720,SmartbBox,-0.044,-0.064,-1.076,0,0,0.0,False
2019-11-11 08:35:20.740,SmartbBox,-0.016,-0.038,-1.106,0,0,0.0,False
2019-11-11 08:35:20.760,SmartbBox,-0.04,-0.035,-1.076,0,0,0.0,False
2019-11-11 08:35:20.780,SmartbBox,0.008,-0.1,-1.085,0,0,0.0,False
2019-11-11 08:35:20.800,SmartbBox,-0.02,-0.037,-1.133,0,0,0.0,False
2019-11-11 08:35:20.820,SmartbBox,-0.016,-0.038,-1.106,0,0,0.0,False
2019-11-11 08:35:20.840,SmartbBox,0.02,-0.044,-1.058,0,0,0.0,False
2019-11-11 08:35:20.860,SmartbBox,0.005,-0.07,-1.138,0,0,0.0,False
2019-11-11 08:35:20.880,SmartbBox,0.013,-0.042,-1.11,0,0,0.0,False
2019-11-11 08:35:20.900,SmartbBox,-0.04,-0.005,-1.102,0,0,0.0,False
2019-11-11 08:35:20.920,SmartbBox,-0.02,-0.066,-1.107,0,0,0.0,False
2019-11-11 08:35:20.940,SmartbBox,0.005,-0.07,-1.138,0,0,0.0,False
2019-11-11 08:35:20.960,SmartbBox,-0.048,-0.062,-1.103,0,0,0.0,False
2019-11-11 08:35:20.980,SmartbBox,-0.008,-0.04,-1.053,0,0,0.0,True
2019-11-11 08:35:21.000,SmartbBox,-0.04,-0.035,-1.076,0,0,0.0,False
2019-11-11 08:35:21.020,SmartbBox,-0.057,-0.004,-1.018,0,0,0.0,False
2019-11-11 08:35:21.040,SmartbBox,-0.008,-0.01,-1.08,0,0,0.0,False
2019-11-11 08:35:21.060,SmartbBox,0.003,-0.013,-1.0,0,0,0.0,False
2019-11-11 08:35:21.080,SmartbBox,-0.037,-0.036,-1.05,0,0,0.0,False
2019-11-11 08:35:21.100,SmartbBox,-0.005,-0.041,-1.027,0,0,0.0,False
2019-11-11 08:35:21.120,SmartbBox,-0.062,-0.033,-1.019,0,0,0.0,False
2019-11-11 08:35:21.140,SmartbBox,-0.026,-0.038,-0.97,0,0,0.0,False
2019-11-11 08:35:21.160,SmartbBox,-0.026,-0.038,-0.97,0,0,0.0,False
2019-11-11 08:35:21.180,SmartbBox,0.002,-0.072,-0.948,0,0,0.0,False
2019-11-11 08:35:21.200,SmartbBox,-0.03,-0.038,-0.996,0,0,0.0,False
2019-11-11 08:35:21.220,SmartbBox,0.01,-0.044,-0.921,0,0,0.0,False
2019-11-11 08:35:21.240,SmartbBox,-0.055,-0.034,-0.966,0,0,0.0,False
2019-11-11 08:35:21.260,SmartbBox,-0.001,-0.041,-1.0,0,0,0.0,False
2019-11-11 08:35:21.280,SmartbBox,-0.022,-0.01,-0.97,0,0,0.0,False
2019-11-11 08:35:21.300,SmartbBox,-0.022,-0.039,-0.944,0,0,0.0,False
2019-11-11 08:35:21.320,SmartbBox,-0.026,-0.038,-0.97,0,0,0.0,False
2019-11-11 08:35:21.340,SmartbBox,-0.03,-0.038,-0.996,0,0,0.0,False
2019-11-11 08:35:21.360,SmartbBox,-0.018,0.019,-0.969,0,0,0.0,False
2019-11-11 08:35:21.380,SmartbBox,-0.026,-0.038,-0.97,0,0,0.0,False
2019-11-11 08:35:21.400,SmartbBox,-0.03,-0.038,-0.996,0,0,0.0,False
2019-11-11 08:35:21.420,SmartbBox,-0.03,-0.038,-0.996,0,0,0.0,False
2019-11-11 08:35:21.440,SmartbBox,-0.019,-0.04,-0.917,0,0,0.0,False
2019-11-11 08:35:21.460,SmartbBox,-0.034,-0.066,-0.997,0,0,0.0,False
2019-11-11 08:35:21.480,SmartbBox,-0.03,-0.038,-0.996,0,0,0.0,False
2019-11-11 08:35:21.500,SmartbBox,-0.037,-0.036,-1.049,0,0,0.0,False
2019-11-11 08:35:21.520,SmartbBox,-0.019,-0.01,-0.943,0,0,0.0,False
2019-11-11 08:35:21.540,SmartbBox,-0.03,-0.038,-0.996,0,0,0.0,False
2019-11-11 08:35:21.560,SmartbBox,-0.008,-0.04,-1.054,0,0,0.0,False
2019-11-11 08:35:21.580,SmartbBox,-0.033,-0.037,-1.023,0,0,0.0,False
2019-11-11 08:35:21.600,SmartbBox,-0.032,-0.007,-1.049,0,0,0.0,False
2019-11-11 08:35:21.620,SmartbBox,-0.033,-0.037,-1.023,0,0,0.0,False
2019-11-11 08:35:21.640,SmartbBox,-0.037,-0.066,-1.023,0,0,0.0,False
2019-11-11 08:35:21.660,SmartbBox,-0.037,-0.066,-1.023,0,0,0.0,False
2019-11-11 08:35:21.680,SmartbBox,-0.005,-0.041,-1.027,0,0,0.0,False
2019-11-11 08:35:21.700,SmartbBox,-0.026,-0.008,-0.996,0,0,0.0,False
2019-11-11 08:35:21.720,SmartbBox,-0.049,-0.092,-1.077,0,0,0.0,False
2019-11-11 08:35:21.740,SmartbBox,-0.03,-0.038,-0.996,0,0,0.0,False
2019-11-11 08:35:21.760,SmartbBox,-0.008,-0.04,-1.053,0,0,0.0,False
2019-11-11 08:35:21.780,SmartbBox,-0.026,-0.009,-0.996,0,0,0.0,False
2019-11-11 08:35:21.800,SmartbBox,-0.033,-0.037,-1.023,0,0,0.0,False
2019-11-11 08:35:21.820,SmartbBox,-0.033,-0.037,-1.023,0,0,0.0,False
2019-11-11 08:35:21.840,SmartbBox,-0.012,-0.039,-1.08,0,0,0.0,False
2019-11-11 08:35:21.860,SmartbBox,-0.025,0.021,-1.022,0,0,0.0,False
2019-11-11 08:35:21.880,SmartbBox,-0.037,-0.006,-1.076,0,0,0.0,False
2019-11-11 08:35:21.900,SmartbBox,-0.037,-0.036,-1.049,0,0,0.0,False
2019-11-11 08:35:21.920,SmartbBox,-0.032,0.023,-1.075,0,0,0.0,False
2019-11-11 08:35:21.940,SmartbBox,-0.04,-0.005,-1.102,0,0,0.0,False
2019-11-11 08:35:21.960,SmartbBox,-0.033,-0.037,-1.023,0,0,0.0,False
2019-11-11 08:35:21.980,SmartbBox,-0.064,0.027,-1.098,0,0,0.0,False
2019-11-11 08:35:22.000,SmartbBox,-0.065,-0.032,-1.046,0,0,0.0,False
2019-11-11 08:35:22.020,SmartbBox,-0.048,-0.062,-1.103,0,0,0.0,False
2019-11-11 08:35:22.040,SmartbBox,-0.04,-0.005,-1.102,0,0,0.0,False
2019-11-11 08:35:22.060,SmartbBox,-0.044,-0.034,-1.102,0,0,0.0,False
2019-11-11 08:35:22.080,SmartbBox,-0.026,-0.009,-0.996,0,0,0.0,False
2019-11-11 08:35:22.100,SmartbBox,-0.044,-0.004,-1.128,0,0,0.0,False
2019-11-11 08:35:22.120,SmartbBox,-0.061,-0.003,-1.045,0,0,0.0,False
2019-11-11 08:35:22.140,SmartbBox,-0.032,-0.007,-1.049,0,0,0.0,False
2019-11-11 08:35:22.160,SmartbBox,-0.016,-0.008,-1.132,0,0,0.0,False
2019-11-11 08:35:22.180,SmartbBox,-0.028,0.022,-1.048,0,0,0.0,False
2019-11-11 08:35:22.200,SmartbBox,-0.097,0.003,-1.094,0,0,0.0,False
2019-11-11 08:35:22.220,SmartbBox,0.007,0.016,-1.0,0,0,0.0,False
2019-11-11 08:35:22.240,SmartbBox,-0.028,0.022,-1.048,0,0,0.0,False
2019-11-11 08:35:22.260,SmartbBox,-0.032,0.023,-1.075,0,0,0.0,False
2019-11-11 08:35:22.280,SmartbBox,-0.025,0.021,-1.022,0,0,0.0,False
2019-11-11 08:35:22.300,SmartbBox,-0.026,-0.008,-0.996,0,0,0.0,False
2019-11-11 08:35:22.320,SmartbBox,-0.05,0.024,-0.992,0,0,0.0,False
2019-11-11 08:35:22.340,SmartbBox,-0.054,-0.005,-0.992,0,0,0.0,False
2019-11-11 08:35:22.360,SmartbBox,-0.022,0.02,-0.996,0,0,0.0,False
2019-11-11 08:35:22.380,SmartbBox,-0.007,0.016,-0.89,0,0,0.0,False
2019-11-11 08:35:22.400,SmartbBox,-0.018,-0.01,-0.943,0,0,0.0,False
2019-11-11 08:35:22.420,SmartbBox,-0.05,0.024,-0.992,0,0,0.0,False
2019-11-11 08:35:22.440,SmartbBox,-0.042,0.022,-0.938,0,0,0.0,False
2019-11-11 08:35:22.460,SmartbBox,-0.018,0.019,-0.969,0,0,0.0,False
