UTC_timestamp,device_name,x,y,z,lat,long,speed,event
2019-11-07 08:53:31.480,SmartbBox,-0.057,-0.004,-1.018,0,0,0.0,False
2019-11-07 08:53:31.500,SmartbBox,-0.086,0.0,-1.014,0,0,0.0,False
2019-11-07 08:53:31.520,SmartbBox,-0.055,-0.034,-0.966,0,0,0.0,False
2019-11-07 08:53:31.540,SmartbBox,-0.083,-0.03,-0.962,0,0,0.0,False
2019-11-07 08:53:31.560,SmartbBox,-0.086,-0.03,-0.988,0,0,0.0,False
2019-11-07 08:53:31.580,SmartbBox,-0.054,-0.005,-0.992,0,0,0.0,False
2019-11-07 08:53:31.600,SmartbBox,-0.082,-0.001,-0.988,0,0,0.0,False
2019-11-07 08:53:31.620,SmartbBox,-0.055,-0.034,-0.966,0,0,0.0,False
2019-11-07 08:53:31.640,SmartbBox,-0.03,-0.038,-0.996,0,0,0.0,False
2019-11-07 08:53:31.660,SmartbBox,-0.079,-0.001,-0.962,0,0,0.0,False
2019-11-07 08:53:31.680,SmartbBox,-0.09,-0.029,-1.015,0,0,0.0,False
2019-11-07 08:53:31.700,SmartbBox,-0.075,0.027,-0.961,0,0,0.0,False
2019-11-07 08:53:31.720,SmartbBox,-0.058,-0.034,-0.992,0,0,0.0,False
2019-11-07 08:53:31.740,SmartbBox,-0.062,-0.032,-1.019,0,0,0.0,False
2019-11-07 08:53:31.760,SmartbBox,-0.037,-0.036,-1.049,0,0,0.0,False
2019-11-07 08:53:31.780,SmartbBox,-0.094,-0.028,-1.042,0,0,0.0,False
2019-11-07 08:53:31.800,SmartbBox,-0.054,-0.005,-0.992,0,0,0.0,False
2019-11-07 08:53:31.820,SmartbBox,-0.058,-0.034,-0.992,0,0,0.0,False
2019-11-07 08:53:31.840,SmartbBox,-0.062,-0.033,-1.019,0,0,0.0,False
2019-11-07 08:53:31.860,SmartbBox,-0.057,-0.004,-1.018,0,0,0.0,False
2019-11-07 08:53:31.880,SmartbBox,-0.022,-0.01,-0.97,0,0,0.0,False
2019-11-07 08:53:31.900,SmartbBox,-0.053,0.025,-1.018,0,0,0.0,False
2019-11-07 08:53:31.920,SmartbBox,-0.058,-0.034,-0.992,0,0,0.0,False
2019-11-07 08:53:31.940,SmartbBox,-0.058,-0.034,-0.992,0,0,0.0,False
2019-11-07 08:53:31.960,SmartbBox,-0.086,0.001,-1.014,0,0,0.0,False
2019-11-07 08:53:31.980,SmartbBox,-0.068,-0.031,-1.072,0,0,0.0,False
2019-11-07 08:53:32.000,SmartbBox,-0.066,-0.062,-1.019,0,0,0.0,False
2019-11-07 08:53:32.020,SmartbBox,-0.09,-0.058,-0.989,0,0,0.0,False
2019-11-07 08:53:32.040,SmartbBox,-0.055,-0.034,-0.966,0,0,0.0,False
2019-11-07 08:53:32.060,SmartbBox,-0.022,-0.01,-0.97,0,0,0.0,False
2019-11-07 08:53:32.080,SmartbBox,-0.082,-0.001,-0.988,0,0,0.0,False
2019-11-07 08:53:32.100,SmartbBox,-0.022,-0.039,-0.944,0,0,0.0,False
2019-11-07 08:53:32.120,SmartbBox,-0.057,0.026,-1.044,0,0,0.0,False
2019-11-07 08:53:32.140,SmartbBox,-0.082,-0.001,-0.988,0,0,0.0,False
2019-11-07 08:53:32.160,SmartbBox,-0.094,-0.028,-1.042,0,0,0.0,False
2019-11-07 08:53:32.180,SmartbBox,-0.09,-0.029,-1.015,0,0,0.0,False
2019-11-07 08:53:32.200,SmartbBox,-0.086,0.0,-1.014,0,0,0.0,False
2019-11-07 08:53:32.220,SmartbBox,-0.094,-0.057,-1.015,0,0,0.0,False
2019-11-07 08:53:32.240,SmartbBox,-0.058,-0.034,-0.992,0,0,0.0,False
2019-11-07 08:53:32.260,SmartbBox,-0.046,-0.006,-0.939,0,0,0.0,False
2019-11-07 08:53:32.280,SmartbBox,-0.026,-0.039,-0.97,0,0,0.0,False
2019-11-07 08:53:32.300,SmartbBox,-0.082,-0.001,-0.988,0,0,0.0,False
2019-11-07 08:53:32.320,SmartbBox,-0.086,0.0,-1.014,0,0,0.0,False
2019-11-07 08:53:32.340,SmartbBox,-0.075,0.027,-0.961,0,0,0.0,False
2019-11-07 08:53:32.360,SmartbBox,-0.057,-0.004,-1.018,0,0,0.0,False
2019-11-07 08:53:32.380,SmartbBox,-0.058,-0.034,-0.992,0,0,0.0,False
2019-11-07 08:53:32.400,SmartbBox,-0.05,-0.005,-0.966,0,0,0.0,False
2019-11-07 08:53:32.420,SmartbBox,-0.055,-0.034,-0.966,0,0,0.0,False
2019-11-07 08:53:32.440,SmartbBox,-0.055,-0.034,-0.966,0,0,0.0,False
2019-11-07 08:53:32.460,SmartbBox,-0.086,-0.03,-0.988,0,0,0.0,False
2019-11-07 08:53:32.480,SmartbBox,-0.058,-0.034,-0.992,0,0,0.0,False
2019-11-07 08:53:32.500,SmartbBox,-0.09,-0.029,-1.015,0,0,0.0,False
2019-11-07 08:53:32.520,SmartbBox,-0.061,-0.003,-1.045,0,0,0.0,False
2019-11-07 08:53:32.540,SmartbBox,-0.065,-0.032,-1.045,0,0,0.0,False
2019-11-07 08:53:32.560,SmartbBox,-0.082,-0.001,-0.988,0,0,0.0,False
2019-11-07 08:53:32.580,SmartbBox,-0.055,-0.034,-0.966,0,0,0.0,False
2019-11-07 08:53:32.600,SmartbBox,-0.022,0.02,-0.996,0,0,0.0,False
2019-11-07 08:53:32.620,SmartbBox,-0.057,-0.004,-1.018,0,0,0.0,False
2019-11-07 08:53:32.640,SmartbBox,-0.03,-0.038,-0.996,0,0,0.0,False
2019-11-07 08:53:32.660,SmartbBox,-0.029,-0.008,-1.022,0,0,0.0,False
2019-11-07 08:53:32.680,SmartbBox,-0.057,-0.004,-1.018,0,0,0.0,False
2019-11-07 08:53:32.700,SmartbBox,-0.062,-0.033,-1.019,0,0,0.0,False
2019-11-07 08:53:32.720,SmartbBox,-0.062,-0.033,-1.019,0,0,0.0,False
2019-11-07 08:53:32.740,SmartbBox,-0.086,-0.03,-0.988,0,0,0.0,False
2019-11-07 08:53:32.760,SmartbBox,-0.079,-0.031,-0.936,0,0,0.0,False
2019-11-07 08:53:32.780,SmartbBox,-0.062,-0.062,-0.993,0,0,0.0,False
2019-11-07 08:53:32.800,SmartbBox,-0.075,-0.002,-0.935,0,0,0.0,False
2019-11-07 08:53:32.820,SmartbBox,-0.03,-0.038,-0.996,0,0,0.0,False
2019-11-07 08:53:32.840,SmartbBox,-0.054,-0.005,-0.992,0,0,0.0,False
2019-11-07 08:53:32.860,SmartbBox,-0.054,-0.004,-0.992,0,0,0.0,False
2019-11-07 08:53:32.880,SmartbBox,-0.058,-0.034,-0.992,0,0,0.0,False
2019-11-07 08:53:32.900,SmartbBox,-0.062,-0.032,-1.019,0,0,0.0,False
2019-11-07 08:53:32.920,SmartbBox,-0.082,-0.001,-0.988,0,0,0.0,False
2019-11-07 08:53:32.940,SmartbBox,-0.054,-0.004,-0.992,0,0,0.0,False
2019-11-07 08:53:32.960,SmartbBox,-0.058,-0.034,-0.992,0,0,0.0,False
2019-11-07 08:53:32.980,SmartbBox,-0.022,-0.01,-0.97,0,0,0.0,True
2019-11-07 08:53:33.000,SmartbBox,-0.086,-0.03,-0.988,0,0,0.0,False
2019-11-07 08:53:33.020,SmartbBox,-0.09,-0.029,-1.015,0,0,0.0,False
2019-11-07 08:53:33.040,SmartbBox,-0.062,-0.033,-1.019,0,0,0.0,False
2019-11-07 08:53:33.060,SmartbBox,-0.079,-0.001,-0.962,0,0,0.0,False
2019-11-07 08:53:33.080,SmartbBox,-0.082,-0.001,-0.988,0,0,0.0,False
2019-11-07 08:53:33.100,SmartbBox,-0.082,-0.03,-0.962,0,0,0.0,False
2019-11-07 08:53:33.120,SmartbBox,-0.051,-0.035,-0.94,0,0,0.0,False
2019-11-07 08:53:33.140,SmartbBox,-0.046,0.023,-0.965,0,0,0.0,False
2019-11-07 08:53:33.160,SmartbBox,-0.086,-0.03,-0.988,0,0,0.0,False
2019-11-07 08:53:33.180,SmartbBox,-0.041,-0.064,-1.05,0,0,0.0,False
2019-11-07 08:53:33.200,SmartbBox,-0.037,-0.036,-1.049,0,0,0.0,False
2019-11-07 08:53:33.220,SmartbBox,-0.083,-0.03,-0.962,0,0,0.0,False
2019-11-07 08:53:33.240,SmartbBox,-0.09,-0.029,-1.015,0,0,0.0,False
2019-11-07 08:53:33.260,SmartbBox,-0.053,0.025,-1.018,0,0,0.0,False
2019-11-07 08:53:33.280,SmartbBox,-0.05,0.024,-0.992,0,0,0.0,False
2019-11-07 08:53:33.300,SmartbBox,-0.046,0.023,-0.965,0,0,0.0,False
2019-11-07 08:53:33.320,SmartbBox,-0.083,-0.03,-0.962,0,0,0.0,False
2019-11-07 08:53:33.340,SmartbBox,-0.047,-0.036,-0.913,0,0,0.0,False
2019-11-07 08:53:33.360,SmartbBox,-0.054,-0.034,-0.966,0,0,0.0,False
2019-11-07 08:53:33.380,SmartbBox,-0.094,-0.028,-1.042,0,0,0.0,False
2019-11-07 08:53:33.400,SmartbBox,-0.057,-0.004,-1.018,0,0,0.0,False
2019-11-07 08:53:33.420,SmartbBox,-0.09,-0.058,-0.989,0,0,0.0,False
2019-11-07 08:53:33.440,SmartbBox,-0.078,0.058,-1.013,0,0,0.0,False
2019-11-07 08:53:33.460,SmartbBox,-0.054,-0.005,-0.992,0,0,0.0,False
2019-11-07 08:53:33.480,SmartbBox,-0.075,0.027,-0.961,0,0,0.0,False
2019-11-07 08:53:33.500,SmartbBox,-0.046,-0.007,-0.939,0,0,0.0,False
2019-11-07 08:53:33.520,SmartbBox,-0.062,-0.032,-1.019,0,0,0.0,False
2019-11-07 08:53:33.540,SmartbBox,-0.062,-0.033,-1.019,0,0,0.0,False
2019-11-07 08:53:33.560,SmartbBox,-0.065,-0.032,-1.046,0,0,0.0,False
2019-11-07 08:53:33.580,SmartbBox,-0.058,-0.063,-0.966,0,0,0.0,False
2019-11-07 08:53:33.600,SmartbBox,-0.086,-0.03,-0.988,0,0,0.0,False
2019-11-07 08:53:33.620,SmartbBox,-0.058,-0.034,-0.992,0,0,0.0,False
2019-11-07 08:53:33.640,SmartbBox,-0.054,-0.005,-0.992,0,0,0.0,False
2019-11-07 08:53:33.660,SmartbBox,-0.111,0.003,-0.984,0,0,0.0,False
2019-11-07 08:53:33.680,SmartbBox,-0.054,-0.034,-0.966,0,0,0.0,False
2019-11-07 08:53:33.700,SmartbBox,-0.053,0.025,-1.018,0,0,0.0,False
2019-11-07 08:53:33.720,SmartbBox,-0.054,-0.005,-0.992,0,0,0.0,False
2019-11-07 08:53:33.740,SmartbBox,-0.058,-0.034,-0.992,0,0,0.0,False
2019-11-07 08:53:33.760,SmartbBox,-0.086,-0.03,-0.988,0,0,0.0,False
2019-11-07 08:53:33.780,SmartbBox,-0.094,-0.028,-1.042,0,0,0.0,False
2019-11-07 08:53:33.800,SmartbBox,-0.027,-0.068,-0.944,0,0,0.0,False
2019-11-07 08:53:33.820,SmartbBox,-0.065,-0.032,-1.045,0,0,0.0,False
2019-11-07 08:53:33.840,SmartbBox,-0.086,-0.03,-0.988,0,0,0.0,False
2019-11-07 08:53:33.860,SmartbBox,-0.055,-0.034,-0.966,0,0,0.0,False
2019-11-07 08:53:33.880,SmartbBox,-0.033,-0.037,-1.023,0,0,0.0,False
2019-11-07 08:53:33.900,SmartbBox,-0.037,-0.066,-1.023,0,0,0.0,False
2019-11-07 08:53:33.920,SmartbBox,-0.082,-0.001,-0.988,0,0,0.0,False
2019-11-07 08:53:33.940,SmartbBox,-0.05,-0.006,-0.966,0,0,0.0,False
2019-11-07 08:53:33.960,SmartbBox,-0.09,-0.029,-1.015,0,0,0.0,False
2019-11-07 08:53:33.980,SmartbBox,-0.078,-0.002,-0.961,0,0,0.0,False
2019-11-07 08:53:34.000,SmartbBox,-0.058,-0.034,-0.992,0,0,0.0,False
2019-11-07 08:53:34.020,SmartbBox,-0.055,-0.034,-0.966,0,0,0.0,False
2019-11-07 08:53:34.040,SmartbBox,-0.055,-0.034,-0.966,0,0,0.0,False
2019-11-07 08:53:34.060,SmartbBox,-0.062,-0.033,-1.019,0,0,0.0,False
2019-11-07 08:53:34.080,SmartbBox,-0.062,-0.032,-1.019,0,0,0.0,False
2019-11-07 08:53:34.100,SmartbBox,-0.082,-0.001,-0.988,0,0,0.0,False
2019-11-07 08:53:34.120,SmartbBox,-0.054,-0.005,-0.992,0,0,0.0,False
2019-11-07 08:53:34.140,SmartbBox,-0.062,-0.033,-1.019,0,0,0.0,False
2019-11-07 08:53:34.160,SmartbBox,-0.055,-0.034,-0.966,0,0,0.0,False
2019-11-07 08:53:34.180,SmartbBox,-0.054,-0.004,-0.992,0,0,0.0,False
2019-11-07 08:53:34.200,SmartbBox,-0.046,-0.007,-0.939,0,0,0.0,False
2019-11-07 08:53:34.220,SmartbBox,-0.058,-0.034,-0.992,0,0,0.0,False
2019-11-07 08:53:34.240,SmartbBox,-0.054,-0.034,-0.966,0,0,0.0,False
2019-11-07 08:53:34.260,SmartbBox,-0.058,-0.034,-0.992,0,0,0.0,False
2019-11-07 08:53:34.280,SmartbBox,-0.082,-0.001,-0.988,0,0,0.0,False
2019-11-07 08:53:34.300,SmartbBox,-0.086,0.0,-1.014,0,0,0.0,False
2019-11-07 08:53:34.320,SmartbBox,-0.086,0.0,-1.014,0,0,0.0,False
2019-11-07 08:53:34.340,SmartbBox,-0.086,-0.03,-0.988,0,0,0.0,False
2019-11-07 08:53:34.360,SmartbBox,-0.086,0.0,-1.014,0,0,0.0,False
2019-11-07 08:53:34.380,SmartbBox,-0.09,-0.029,-1.015,0,0,0.0,False
2019-11-07 08:53:34.400,SmartbBox,-0.058,-0.034,-0.992,0,0,0.0,False
2019-11-07 08:53:34.420,SmartbBox,-0.054,-0.004,-0.992,0,0,0.0,False
2019-11-07 08:53:34.440,SmartbBox,-0.054,-0.005,-0.992,0,0,0.0,False
2019-11-07 08:53:34.460,SmartbBox,-0.07,-0.061,-1.046,0,0,0.0,False
