UTC_timestamp,device_name,x,y,z,lat,long,speed,event
2019-11-13 07:14:11.480,SmartbBox,-0.088,0.042,-1.014,0,0,0.0,False
2019-11-13 07:14:11.500,SmartbBox,-0.082,0.012,-0.988,0,0,0.0,False
2019-11-13 07:14:11.520,SmartbBox,-0.076,-0.017,-0.962,0,0,0.0,False
2019-11-13 07:14:11.540,SmartbBox,-0.042,0.014,-0.912,0,0,0.0,False
2019-11-13 07:14:11.560,SmartbBox,-0.073,-0.017,-0.935,0,0,0.0,False
2019-11-13 07:14:11.580,SmartbBox,-0.073,-0.017,-0.935,0,0,0.0,False
2019-11-13 07:14:11.600,SmartbBox,-0.075,0.012,-0.935,0,0,0.0,False
2019-11-13 07:14:11.620,SmartbBox,-0.07,-0.017,-0.908,0,0,0.0,False
2019-11-13 07:14:11.640,SmartbBox,-0.078,0.012,-0.961,0,0,0.0,False
2019-11-13 07:14:11.660,SmartbBox,-0.07,-0.017,-0.908,0,0,0.0,False
2019-11-13 07:14:11.680,SmartbBox,-0.074,0.012,-0.934,0,0,0.0,False
2019-11-13 07:14:11.700,SmartbBox,-0.082,0.012,-0.988,0,0,0.0,False
2019-11-13 07:14:11.720,SmartbBox,-0.088,-0.016,-1.041,0,0,0.0,False
2019-11-13 07:14:11.740,SmartbBox,-0.05,0.014,-0.965,0,0,0.0,False
2019-11-13 07:14:11.760,SmartbBox,-0.08,-0.016,-0.988,0,0,0.0,False
2019-11-13 07:14:11.780,SmartbBox,-0.086,0.013,-1.014,0,0,0.0,False
2019-11-13 07:14:11.800,SmartbBox,-0.086,0.013,-1.014,0,0,0.0,False
2019-11-13 07:14:11.820,SmartbBox,-0.086,0.013,-1.014,0,0,0.0,False
2019-11-13 07:14:11.840,SmartbBox,-0.082,0.012,-0.988,0,0,0.0,False
2019-11-13 07:14:11.860,SmartbBox,-0.084,0.041,-0.987,0,0,0.0,False
2019-11-13 07:14:11.880,SmartbBox,-0.052,-0.015,-0.992,0,0,0.0,False
2019-11-13 07:14:11.900,SmartbBox,-0.073,-0.017,-0.935,0,0,0.0,False
2019-11-13 07:14:11.920,SmartbBox,-0.073,-0.017,-0.935,0,0,0.0,False
2019-11-13 07:14:11.940,SmartbBox,-0.076,-0.017,-0.962,0,0,0.0,False
2019-11-13 07:14:11.960,SmartbBox,-0.075,-0.046,-0.962,0,0,0.0,False
2019-11-13 07:14:11.980,SmartbBox,-0.088,-0.016,-1.041,0,0,0.0,False
2019-11-13 07:14:12.000,SmartbBox,-0.057,0.014,-1.018,0,0,0.0,False
2019-11-13 07:14:12.020,SmartbBox,-0.082,0.012,-0.988,0,0,0.0,False
2019-11-13 07:14:12.040,SmartbBox,-0.084,-0.016,-1.014,0,0,0.0,False
2019-11-13 07:14:12.060,SmartbBox,-0.078,0.012,-0.961,0,0,0.0,False
2019-11-13 07:14:12.080,SmartbBox,-0.078,0.012,-0.961,0,0,0.0,False
2019-11-13 07:14:12.100,SmartbBox,-0.079,-0.046,-0.988,0,0,0.0,False
2019-11-13 07:14:12.120,SmartbBox,-0.075,-0.046,-0.962,0,0,0.0,False
2019-11-13 07:14:12.140,SmartbBox,-0.075,-0.046,-0.962,0,0,0.0,False
2019-11-13 07:14:12.160,SmartbBox,-0.075,-0.046,-0.962,0,0,0.0,False
2019-11-13 07:14:12.180,SmartbBox,-0.086,0.013,-1.014,0,0,0.0,False
2019-11-13 07:14:12.200,SmartbBox,-0.086,0.013,-1.014,0,0,0.0,False
2019-11-13 07:14:12.220,SmartbBox,-0.09,0.013,-1.04,0,0,0.0,False
2019-11-13 07:14:12.240,SmartbBox,-0.053,0.014,-0.992,0,0,0.0,False
2019-11-13 07:14:12.260,SmartbBox,-0.088,-0.016,-1.041,0,0,0.0,False
2019-11-13 07:14:12.280,SmartbBox,-0.114,0.012,-1.01,0,0,0.0,False
2019-11-13 07:14:12.300,SmartbBox,-0.079,-0.046,-0.988,0,0,0.0,False
2019-11-13 07:14:12.320,SmartbBox,-0.079,-0.046,-0.988,0,0,0.0,False
2019-11-13 07:14:12.340,SmartbBox,-0.087,-0.045,-1.042,0,0,0.0,False
2019-11-13 07:14:12.360,SmartbBox,-0.083,-0.045,-1.015,0,0,0.0,False
2019-11-13 07:14:12.380,SmartbBox,-0.053,0.014,-0.992,0,0,0.0,False
2019-11-13 07:14:12.400,SmartbBox,-0.086,0.013,-1.014,0,0,0.0,False
2019-11-13 07:14:12.420,SmartbBox,-0.084,-0.016,-1.014,0,0,0.0,False
2019-11-13 07:14:12.440,SmartbBox,-0.072,-0.046,-0.936,0,0,0.0,False
2019-11-13 07:14:12.460,SmartbBox,-0.042,0.014,-0.912,0,0,0.0,False
2019-11-13 07:14:12.480,SmartbBox,-0.094,0.014,-1.067,0,0,0.0,False
2019-11-13 07:14:12.500,SmartbBox,-0.089,0.07,-1.013,0,0,0.0,False
2019-11-13 07:14:12.520,SmartbBox,-0.044,-0.016,-0.939,0,0,0.0,False
2019-11-13 07:14:12.540,SmartbBox,-0.084,-0.016,-1.014,0,0,0.0,False
2019-11-13 07:14:12.560,SmartbBox,-0.083,-0.046,-1.015,0,0,0.0,False
2019-11-13 07:14:12.580,SmartbBox,-0.106,-0.018,-0.958,0,0,0.0,False
2019-11-13 07:14:12.600,SmartbBox,-0.046,-0.044,-0.966,0,0,0.0,False
2019-11-13 07:14:12.620,SmartbBox,-0.079,-0.046,-0.988,0,0,0.0,False
2019-11-13 07:14:12.640,SmartbBox,-0.113,-0.018,-1.01,0,0,0.0,False
2019-11-13 07:14:12.660,SmartbBox,-0.086,0.013,-1.014,0,0,0.0,False
2019-11-13 07:14:12.680,SmartbBox,-0.082,0.012,-0.988,0,0,0.0,False
2019-11-13 07:14:12.700,SmartbBox,-0.084,-0.016,-1.014,0,0,0.0,False
2019-11-13 07:14:12.720,SmartbBox,-0.084,-0.016,-1.014,0,0,0.0,False
2019-11-13 07:14:12.740,SmartbBox,-0.08,-0.016,-0.988,0,0,0.0,False
2019-11-13 07:14:12.760,SmartbBox,-0.036,-0.016,-0.886,0,0,0.0,False
2019-11-13 07:14:12.780,SmartbBox,-0.13,-0.02,-0.927,0,0,0.0,False
2019-11-13 07:14:12.800,SmartbBox,-0.094,0.013,-1.067,0,0,0.0,False
2019-11-13 07:14:12.820,SmartbBox,-0.023,-0.014,-0.996,0,0,0.0,False
2019-11-13 07:14:12.840,SmartbBox,-0.106,-0.018,-0.958,0,0,0.0,False
2019-11-13 07:14:12.860,SmartbBox,-0.118,0.011,-1.036,0,0,0.0,False
2019-11-13 07:14:12.880,SmartbBox,-0.088,-0.016,-1.041,0,0,0.0,False
2019-11-13 07:14:12.900,SmartbBox,-0.087,-0.045,-1.042,0,0,0.0,False
2019-11-13 07:14:12.920,SmartbBox,-0.118,0.012,-1.037,0,0,0.0,False
2019-11-13 07:14:12.940,SmartbBox,-0.027,-0.013,-1.022,0,0,0.0,False
2019-11-13 07:14:12.960,SmartbBox,-0.082,0.012,-0.988,0,0,0.0,False
2019-11-13 07:14:12.980,SmartbBox,-0.078,0.012,-0.961,0,0,0.0,True
2019-11-13 07:14:13.000,SmartbBox,-0.074,0.012,-0.934,0,0,0.0,False
2019-11-13 07:14:13.020,SmartbBox,-0.074,0.012,-0.934,0,0,0.0,False
2019-11-13 07:14:13.040,SmartbBox,-0.073,-0.017,-0.935,0,0,0.0,False
2019-11-13 07:14:13.060,SmartbBox,-0.053,0.014,-0.992,0,0,0.0,False
2019-11-13 07:14:13.080,SmartbBox,-0.079,-0.046,-0.988,0,0,0.0,False
2019-11-13 07:14:13.100,SmartbBox,-0.108,-0.047,-0.984,0,0,0.0,False
2019-11-13 07:14:13.120,SmartbBox,-0.076,-0.017,-0.962,0,0,0.0,False
2019-11-13 07:14:13.140,SmartbBox,-0.076,-0.017,-0.962,0,0,0.0,False
2019-11-13 07:14:13.160,SmartbBox,-0.078,0.012,-0.961,0,0,0.0,False
2019-11-13 07:14:13.180,SmartbBox,-0.08,-0.016,-0.988,0,0,0.0,False
2019-11-13 07:14:13.200,SmartbBox,-0.079,-0.046,-0.988,0,0,0.0,False
2019-11-13 07:14:13.220,SmartbBox,-0.079,-0.046,-0.988,0,0,0.0,False
2019-11-13 07:14:13.240,SmartbBox,-0.079,-0.046,-0.988,0,0,0.0,False
2019-11-13 07:14:13.260,SmartbBox,-0.079,-0.046,-0.988,0,0,0.0,False
2019-11-13 07:14:13.280,SmartbBox,-0.079,-0.046,-0.988,0,0,0.0,False
2019-11-13 07:14:13.300,SmartbBox,-0.076,-0.017,-0.962,0,0,0.0,False
2019-11-13 07:14:13.320,SmartbBox,-0.079,-0.046,-0.988,0,0,0.0,False
2019-11-13 07:14:13.340,SmartbBox,-0.084,-0.016,-1.014,0,0,0.0,False
2019-11-13 07:14:13.360,SmartbBox,-0.079,-0.046,-0.988,0,0,0.0,False
2019-11-13 07:14:13.380,SmartbBox,-0.079,-0.046,-0.988,0,0,0.0,False
2019-11-13 07:14:13.400,SmartbBox,-0.075,-0.046,-0.962,0,0,0.0,False
2019-11-13 07:14:13.420,SmartbBox,-0.084,-0.016,-1.014,0,0,0.0,False
2019-11-13 07:14:13.440,SmartbBox,-0.106,-0.019,-0.958,0,0,0.0,False
2019-11-13 07:14:13.460,SmartbBox,-0.078,0.012,-0.961,0,0,0.0,False
2019-11-13 07:14:13.480,SmartbBox,-0.076,-0.017,-0.962,0,0,0.0,False
2019-11-13 07:14:13.500,SmartbBox,-0.075,-0.046,-0.962,0,0,0.0,False
2019-11-13 07:14:13.520,SmartbBox,-0.082,0.012,-0.988,0,0,0.0,False
2019-11-13 07:14:13.540,SmartbBox,-0.075,-0.046,-0.962,0,0,0.0,False
2019-11-13 07:14:13.560,SmartbBox,-0.079,-0.046,-0.988,0,0,0.0,False
2019-11-13 07:14:13.580,SmartbBox,-0.075,-0.046,-0.962,0,0,0.0,False
2019-11-13 07:14:13.600,SmartbBox,-0.075,-0.046,-0.962,0,0,0.0,False
2019-11-13 07:14:13.620,SmartbBox,-0.075,-0.046,-0.962,0,0,0.0,False
2019-11-13 07:14:13.640,SmartbBox,-0.079,-0.046,-0.988,0,0,0.0,False
2019-11-13 07:14:13.660,SmartbBox,-0.112,-0.046,-1.011,0,0,0.0,False
2019-11-13 07:14:13.680,SmartbBox,-0.082,0.012,-0.988,0,0,0.0,False
2019-11-13 07:14:13.700,SmartbBox,-0.092,-0.016,-1.068,0,0,0.0,False
2019-11-13 07:14:13.720,SmartbBox,-0.09,0.013,-1.04,0,0,0.0,False
2019-11-13 07:14:13.740,SmartbBox,-0.118,0.012,-1.037,0,0,0.0,False
2019-11-13 07:14:13.760,SmartbBox,-0.114,0.012,-1.01,0,0,0.0,False
2019-11-13 07:14:13.780,SmartbBox,-0.116,-0.046,-1.038,0,0,0.0,False
2019-11-13 07:14:13.800,SmartbBox,-0.114,0.012,-1.01,0,0,0.0,False
2019-11-13 07:14:13.820,SmartbBox,-0.082,0.012,-0.988,0,0,0.0,False
2019-11-13 07:14:13.840,SmartbBox,-0.084,-0.016,-1.014,0,0,0.0,False
2019-11-13 07:14:13.860,SmartbBox,-0.104,-0.047,-0.958,0,0,0.0,False
2019-11-13 07:14:13.880,SmartbBox,-0.082,0.012,-0.988,0,0,0.0,False
2019-11-13 07:14:13.900,SmartbBox,-0.084,-0.016,-1.014,0,0,0.0,False
2019-11-13 07:14:13.920,SmartbBox,-0.076,-0.017,-0.962,0,0,0.0,False
2019-11-13 07:14:13.940,SmartbBox,-0.106,-0.018,-0.958,0,0,0.0,False
2019-11-13 07:14:13.960,SmartbBox,-0.138,-0.02,-0.98,0,0,0.0,False
2019-11-13 07:14:13.980,SmartbBox,-0.114,0.012,-1.01,0,0,0.0,False
2019-11-13 07:14:14.000,SmartbBox,-0.078,0.012,-0.961,0,0,0.0,False
2019-11-13 07:14:14.020,SmartbBox,-0.102,-0.019,-0.931,0,0,0.0,False
2019-11-13 07:14:14.040,SmartbBox,-0.104,-0.048,-0.958,0,0,0.0,False
2019-11-13 07:14:14.060,SmartbBox,-0.068,-0.046,-0.909,0,0,0.0,False
2019-11-13 07:14:14.080,SmartbBox,-0.079,-0.046,-0.988,0,0,0.0,False
2019-11-13 07:14:14.100,SmartbBox,-0.088,-0.016,-1.041,0,0,0.0,False
2019-11-13 07:14:14.120,SmartbBox,-0.083,-0.045,-1.015,0,0,0.0,False
2019-11-13 07:14:14.140,SmartbBox,-0.084,-0.016,-1.014,0,0,0.0,False
2019-11-13 07:14:14.160,SmartbBox,-0.111,0.011,-0.984,0,0,0.0,False
2019-11-13 07:14:14.180,SmartbBox,-0.112,-0.046,-1.011,0,0,0.0,False
2019-11-13 07:14:14.200,SmartbBox,-0.113,-0.018,-1.01,0,0,0.0,False
2019-11-13 07:14:14.220,SmartbBox,-0.15,-0.019,-1.06,0,0,0.0,False
2019-11-13 07:14:14.240,SmartbBox,-0.104,-0.047,-0.958,0,0,0.0,False
2019-11-13 07:14:14.260,SmartbBox,-0.073,-0.017,-0.935,0,0,0.0,False
2019-11-13 07:14:14.280,SmartbBox,-0.118,0.012,-1.037,0,0,0.0,False
2019-11-13 07:14:14.300,SmartbBox,-0.094,-0.019,-0.878,0,0,0.0,False
2019-11-13 07:14:14.320,SmartbBox,-0.069,-0.018,-0.908,0,0,0.0,False
2019-11-13 07:14:14.340,SmartbBox,-0.111,0.011,-0.984,0,0,0.0,False
2019-11-13 07:14:14.360,SmartbBox,-0.108,-0.047,-0.985,0,0,0.0,False
2019-11-13 07:14:14.380,SmartbBox,-0.072,-0.046,-0.936,0,0,0.0,False
2019-11-13 07:14:14.400,SmartbBox,-0.117,-0.018,-1.037,0,0,0.0,False
2019-11-13 07:14:14.420,SmartbBox,-0.087,-0.045,-1.042,0,0,0.0,False
2019-11-13 07:14:14.440,SmartbBox,-0.082,0.012,-0.988,0,0,0.0,False
2019-11-13 07:14:14.460,SmartbBox,-0.087,-0.044,-1.042,0,0,0.0,False
