UTC_timestamp,device_name,x,y,z,lat,long,speed,event
2019-11-08 09:46:08.480,SmartbBox,-0.025,0.021,-1.022,0,0,0.0,False
2019-11-08 09:46:08.500,SmartbBox,-0.025,0.021,-1.022,0,0,0.0,False
2019-11-08 09:46:08.520,SmartbBox,-0.086,0.0,-1.014,0,0,0.0,False
2019-11-08 09:46:08.540,SmartbBox,-0.033,-0.037,-1.023,0,0,0.0,False
2019-11-08 09:46:08.560,SmartbBox,-0.018,0.019,-0.969,0,0,0.0,False
2019-11-08 09:46:08.580,SmartbBox,-0.046,-0.007,-0.939,0,0,0.0,False
2019-11-08 09:46:08.600,SmartbBox,-0.086,0.0,-1.014,0,0,0.0,False
2019-11-08 09:46:08.620,SmartbBox,-0.021,0.02,-0.996,0,0,0.0,False
2019-11-08 09:46:08.640,SmartbBox,-0.057,0.026,-1.044,0,0,0.0,False
2019-11-08 09:46:08.660,SmartbBox,-0.061,0.027,-1.071,0,0,0.0,False
2019-11-08 09:46:08.680,SmartbBox,-0.036,0.024,-1.102,0,0,0.0,False
2019-11-08 09:46:08.700,SmartbBox,-0.053,0.025,-1.018,0,0,0.0,False
2019-11-08 09:46:08.720,SmartbBox,-0.032,0.023,-1.075,0,0,0.0,False
2019-11-08 09:46:08.740,SmartbBox,-0.008,0.02,-1.106,0,0,0.0,False
2019-11-08 09:46:08.760,SmartbBox,-0.057,0.026,-1.044,0,0,0.0,False
2019-11-08 09:46:08.780,SmartbBox,-0.04,-0.005,-1.102,0,0,0.0,False
2019-11-08 09:46:08.800,SmartbBox,-0.028,0.022,-1.048,0,0,0.0,False
2019-11-08 09:46:08.820,SmartbBox,-0.032,-0.007,-1.049,0,0,0.0,False
2019-11-08 09:46:08.840,SmartbBox,-0.036,-0.006,-1.076,0,0,0.0,False
2019-11-08 09:46:08.860,SmartbBox,-0.032,0.022,-1.075,0,0,0.0,False
2019-11-08 09:46:08.880,SmartbBox,-0.029,-0.008,-1.022,0,0,0.0,False
2019-11-08 09:46:08.900,SmartbBox,-0.032,-0.007,-1.049,0,0,0.0,False
2019-11-08 09:46:08.920,SmartbBox,-0.025,0.021,-1.022,0,0,0.0,False
2019-11-08 09:46:08.940,SmartbBox,-0.057,-0.004,-1.018,0,0,0.0,False
2019-11-08 09:46:08.960,SmartbBox,-0.014,0.018,-0.942,0,0,0.0,False
2019-11-08 09:46:08.980,SmartbBox,-0.014,0.018,-0.942,0,0,0.0,False
2019-11-08 09:46:09.000,SmartbBox,-0.03,-0.038,-0.996,0,0,0.0,False
2019-11-08 09:46:09.020,SmartbBox,-0.054,-0.005,-0.992,0,0,0.0,False
2019-11-08 09:46:09.040,SmartbBox,-0.042,0.022,-0.938,0,0,0.0,False
2019-11-08 09:46:09.060,SmartbBox,-0.05,-0.006,-0.966,0,0,0.0,False
2019-11-08 09:46:09.080,SmartbBox,-0.026,-0.009,-0.996,0,0,0.0,False
2019-11-08 09:46:09.100,SmartbBox,-0.046,0.023,-0.965,0,0,0.0,False
2019-11-08 09:46:09.120,SmartbBox,-0.075,0.027,-0.961,0,0,0.0,False
2019-11-08 09:46:09.140,SmartbBox,-0.026,-0.009,-0.996,0,0,0.0,False
2019-11-08 09:46:09.160,SmartbBox,-0.042,0.022,-0.938,0,0,0.0,False
2019-11-08 09:46:09.180,SmartbBox,-0.078,0.028,-0.988,0,0,0.0,False
2019-11-08 09:46:09.200,SmartbBox,-0.029,-0.008,-1.022,0,0,0.0,False
2019-11-08 09:46:09.220,SmartbBox,-0.022,0.02,-0.996,0,0,0.0,False
2019-11-08 09:46:09.240,SmartbBox,-0.082,-0.001,-0.988,0,0,0.0,False
2019-11-08 09:46:09.260,SmartbBox,-0.028,0.022,-1.048,0,0,0.0,False
2019-11-08 09:46:09.280,SmartbBox,-0.046,0.023,-0.965,0,0,0.0,False
2019-11-08 09:46:09.300,SmartbBox,-0.057,0.025,-1.044,0,0,0.0,False
2019-11-08 09:46:09.320,SmartbBox,-0.029,-0.008,-1.022,0,0,0.0,False
2019-11-08 09:46:09.340,SmartbBox,-0.046,0.052,-0.991,0,0,0.0,False
2019-11-08 09:46:09.360,SmartbBox,-0.03,-0.038,-0.996,0,0,0.0,False
2019-11-08 09:46:09.380,SmartbBox,-0.029,-0.008,-1.022,0,0,0.0,False
2019-11-08 09:46:09.400,SmartbBox,-0.025,0.021,-1.022,0,0,0.0,False
2019-11-08 09:46:09.420,SmartbBox,-0.06,0.027,-1.071,0,0,0.0,False
2019-11-08 09:46:09.440,SmartbBox,-0.037,-0.036,-1.049,0,0,0.0,False
2019-11-08 09:46:09.460,SmartbBox,-0.057,0.026,-1.044,0,0,0.0,False
2019-11-08 09:46:09.480,SmartbBox,-0.072,0.0,-1.124,0,0,0.0,False
2019-11-08 09:46:09.500,SmartbBox,-0.032,0.023,-1.075,0,0,0.0,False
2019-11-08 09:46:09.520,SmartbBox,-0.064,0.028,-1.098,0,0,0.0,False
2019-11-08 09:46:09.540,SmartbBox,-0.085,0.029,-1.04,0,0,0.0,False
2019-11-08 09:46:09.560,SmartbBox,-0.064,0.028,-1.098,0,0,0.0,False
2019-11-08 09:46:09.580,SmartbBox,-0.05,0.054,-1.018,0,0,0.0,False
2019-11-08 09:46:09.600,SmartbBox,-0.057,0.056,-1.07,0,0,0.0,False
2019-11-08 09:46:09.620,SmartbBox,-0.014,0.018,-0.942,0,0,0.0,False
2019-11-08 09:46:09.640,SmartbBox,-0.05,-0.006,-0.965,0,0,0.0,False
2019-11-08 09:46:09.660,SmartbBox,-0.057,0.056,-1.07,0,0,0.0,False
2019-11-08 09:46:09.680,SmartbBox,0.011,0.015,-0.973,0,0,0.0,False
2019-11-08 09:46:09.700,SmartbBox,-0.057,-0.004,-1.018,0,0,0.0,False
2019-11-08 09:46:09.720,SmartbBox,-0.053,0.055,-1.044,0,0,0.0,False
2019-11-08 09:46:09.740,SmartbBox,-0.026,-0.009,-0.996,0,0,0.0,False
2019-11-08 09:46:09.760,SmartbBox,-0.062,-0.033,-1.019,0,0,0.0,False
2019-11-08 09:46:09.780,SmartbBox,-0.046,0.023,-0.965,0,0,0.0,False
2019-11-08 09:46:09.800,SmartbBox,-0.046,0.023,-0.965,0,0,0.0,False
2019-11-08 09:46:09.820,SmartbBox,-0.075,-0.002,-0.935,0,0,0.0,False
2019-11-08 09:46:09.840,SmartbBox,-0.046,-0.007,-0.939,0,0,0.0,False
2019-11-08 09:46:09.860,SmartbBox,-0.01,0.017,-0.916,0,0,0.0,False
2019-11-08 09:46:09.880,SmartbBox,-0.071,0.026,-0.934,0,0,0.0,False
2019-11-08 09:46:09.900,SmartbBox,-0.046,0.023,-0.965,0,0,0.0,False
2019-11-08 09:46:09.920,SmartbBox,-0.022,-0.01,-0.97,0,0,0.0,False
2019-11-08 09:46:09.940,SmartbBox,-0.078,0.028,-0.988,0,0,0.0,False
2019-11-08 09:46:09.960,SmartbBox,-0.029,-0.008,-1.022,0,0,0.0,False
2019-11-08 09:46:09.980,SmartbBox,-0.018,0.019,-0.969,0,0,0.0,True
2019-11-08 09:46:10.000,SmartbBox,-0.086,0.001,-1.014,0,0,0.0,False
2019-11-08 09:46:10.020,SmartbBox,-0.057,0.026,-1.044,0,0,0.0,False
2019-11-08 09:46:10.040,SmartbBox,-0.029,-0.008,-1.022,0,0,0.0,False
2019-11-08 09:46:10.060,SmartbBox,-0.078,0.057,-1.014,0,0,0.0,False
2019-11-08 09:46:10.080,SmartbBox,-0.068,-0.001,-1.098,0,0,0.0,False
2019-11-08 09:46:10.100,SmartbBox,-0.032,0.023,-1.075,0,0,0.0,False
2019-11-08 09:46:10.120,SmartbBox,-0.09,0.031,-1.067,0,0,0.0,False
2019-11-08 09:46:10.140,SmartbBox,-0.032,0.023,-1.075,0,0,0.0,False
2019-11-08 09:46:10.160,SmartbBox,-0.028,0.052,-1.074,0,0,0.0,False
2019-11-08 09:46:10.180,SmartbBox,-0.089,0.031,-1.067,0,0,0.0,False
2019-11-08 09:46:10.200,SmartbBox,-0.028,0.022,-1.048,0,0,0.0,False
2019-11-08 09:46:10.220,SmartbBox,-0.024,0.05,-1.048,0,0,0.0,False
2019-11-08 09:46:10.240,SmartbBox,-0.068,0.029,-1.124,0,0,0.0,False
2019-11-08 09:46:10.260,SmartbBox,-0.028,0.022,-1.048,0,0,0.0,False
2019-11-08 09:46:10.280,SmartbBox,-0.053,0.054,-1.044,0,0,0.0,False
2019-11-08 09:46:10.300,SmartbBox,-0.057,-0.004,-1.018,0,0,0.0,False
2019-11-08 09:46:10.320,SmartbBox,-0.026,-0.009,-0.996,0,0,0.0,False
2019-11-08 09:46:10.340,SmartbBox,-0.018,0.019,-0.969,0,0,0.0,False
2019-11-08 09:46:10.360,SmartbBox,-0.075,0.027,-0.961,0,0,0.0,False
2019-11-08 09:46:10.380,SmartbBox,-0.043,-0.008,-0.912,0,0,0.0,False
2019-11-08 09:46:10.400,SmartbBox,-0.096,0.029,-0.904,0,0,0.0,False
2019-11-08 09:46:10.420,SmartbBox,-0.082,0.028,-1.014,0,0,0.0,False
2019-11-08 09:46:10.440,SmartbBox,-0.046,0.023,-0.965,0,0,0.0,False
2019-11-08 09:46:10.460,SmartbBox,-0.038,0.021,-0.912,0,0,0.0,False
2019-11-08 09:46:10.480,SmartbBox,-0.079,-0.001,-0.962,0,0,0.0,False
2019-11-08 09:46:10.500,SmartbBox,-0.022,-0.01,-0.969,0,0,0.0,False
2019-11-08 09:46:10.520,SmartbBox,-0.047,-0.036,-0.913,0,0,0.0,False
2019-11-08 09:46:10.540,SmartbBox,-0.082,0.029,-1.014,0,0,0.0,False
2019-11-08 09:46:10.560,SmartbBox,-0.05,0.024,-0.992,0,0,0.0,False
2019-11-08 09:46:10.580,SmartbBox,-0.04,-0.035,-1.076,0,0,0.0,False
2019-11-08 09:46:10.600,SmartbBox,-0.078,0.058,-1.014,0,0,0.0,False
2019-11-08 09:46:10.620,SmartbBox,-0.04,-0.035,-1.076,0,0,0.0,False
2019-11-08 09:46:10.640,SmartbBox,-0.048,-0.033,-1.129,0,0,0.0,False
2019-11-08 09:46:10.660,SmartbBox,-0.094,-0.028,-1.042,0,0,0.0,False
2019-11-08 09:46:10.680,SmartbBox,-0.039,0.05,-0.938,0,0,0.0,False
2019-11-08 09:46:10.700,SmartbBox,-0.068,-0.031,-1.072,0,0,0.0,False
2019-11-08 09:46:10.720,SmartbBox,-0.032,-0.007,-1.049,0,0,0.0,False
2019-11-08 09:46:10.740,SmartbBox,-0.054,-0.005,-0.992,0,0,0.0,False
2019-11-08 09:46:10.760,SmartbBox,-0.082,-0.001,-0.988,0,0,0.0,False
2019-11-08 09:46:10.780,SmartbBox,-0.086,0.0,-1.014,0,0,0.0,False
2019-11-08 09:46:10.800,SmartbBox,-0.046,0.023,-0.965,0,0,0.0,False
2019-11-08 09:46:10.820,SmartbBox,-0.083,-0.03,-0.962,0,0,0.0,False
2019-11-08 09:46:10.840,SmartbBox,-0.062,-0.032,-1.019,0,0,0.0,False
2019-11-08 09:46:10.860,SmartbBox,-0.026,-0.008,-0.996,0,0,0.0,False
2019-11-08 09:46:10.880,SmartbBox,-0.057,-0.004,-1.018,0,0,0.0,False
2019-11-08 09:46:10.900,SmartbBox,-0.026,-0.038,-0.97,0,0,0.0,False
2019-11-08 09:46:10.920,SmartbBox,-0.001,-0.012,-1.026,0,0,0.0,False
2019-11-08 09:46:10.940,SmartbBox,-0.062,-0.002,-1.045,0,0,0.0,False
2019-11-08 09:46:10.960,SmartbBox,-0.068,-0.001,-1.098,0,0,0.0,False
2019-11-08 09:46:10.980,SmartbBox,-0.032,-0.007,-1.049,0,0,0.0,False
2019-11-08 09:46:11.000,SmartbBox,-0.064,-0.002,-1.072,0,0,0.0,False
2019-11-08 09:46:11.020,SmartbBox,-0.072,0.0,-1.124,0,0,0.0,False
2019-11-08 09:46:11.040,SmartbBox,-0.032,-0.007,-1.049,0,0,0.0,False
2019-11-08 09:46:11.060,SmartbBox,-0.064,-0.002,-1.072,0,0,0.0,False
2019-11-08 09:46:11.080,SmartbBox,-0.061,-0.003,-1.045,0,0,0.0,False
2019-11-08 09:46:11.100,SmartbBox,-0.029,-0.008,-1.022,0,0,0.0,False
2019-11-08 09:46:11.120,SmartbBox,-0.114,0.004,-1.01,0,0,0.0,False
2019-11-08 09:46:11.140,SmartbBox,-0.032,0.023,-1.075,0,0,0.0,False
2019-11-08 09:46:11.160,SmartbBox,-0.022,-0.039,-0.944,0,0,0.0,False
2019-11-08 09:46:11.180,SmartbBox,-0.085,0.03,-1.04,0,0,0.0,False
2019-11-08 09:46:11.200,SmartbBox,-0.058,-0.034,-0.992,0,0,0.0,False
2019-11-08 09:46:11.220,SmartbBox,0.006,-0.014,-0.974,0,0,0.0,False
2019-11-08 09:46:11.240,SmartbBox,-0.093,0.002,-1.068,0,0,0.0,False
2019-11-08 09:46:11.260,SmartbBox,-0.036,-0.006,-1.076,0,0,0.0,False
2019-11-08 09:46:11.280,SmartbBox,0.003,0.017,-1.026,0,0,0.0,False
2019-11-08 09:46:11.300,SmartbBox,-0.064,-0.002,-1.072,0,0,0.0,False
2019-11-08 09:46:11.320,SmartbBox,-0.064,-0.002,-1.072,0,0,0.0,False
2019-11-08 09:46:11.340,SmartbBox,-0.025,0.021,-1.022,0,0,0.0,False
2019-11-08 09:46:11.360,SmartbBox,-0.061,0.027,-1.071,0,0,0.0,False
2019-11-08 09:46:11.380,SmartbBox,-0.068,-0.031,-1.072,0,0,0.0,False
2019-11-08 09:46:11.400,SmartbBox,-0.018,0.048,-0.995,0,0,0.0,False
2019-11-08 09:46:11.420,SmartbBox,-0.061,0.027,-1.071,0,0,0.0,False
2019-11-08 09:46:11.440,SmartbBox,-0.057,-0.004,-1.018,0,0,0.0,False
2019-11-08 09:46:11.460,SmartbBox,-0.05,0.024,-0.992,0,0,0.0,False
