UTC_timestamp,device_name,x,y,z,lat,long,speed,event
2019-11-13 15:59:01.480,SmartbBox,-0.023,-0.013,-0.996,0,0,0.0,False
2019-11-13 15:59:01.500,SmartbBox,-0.021,0.015,-0.969,0,0,0.0,False
2019-11-13 15:59:01.520,SmartbBox,-0.024,0.016,-0.996,0,0,0.0,False
2019-11-13 15:59:01.540,SmartbBox,-0.022,-0.042,-0.996,0,0,0.0,False
2019-11-13 15:59:01.560,SmartbBox,-0.022,-0.042,-0.996,0,0,0.0,False
2019-11-13 15:59:01.580,SmartbBox,-0.03,-0.042,-1.049,0,0,0.0,False
2019-11-13 15:59:01.600,SmartbBox,-0.046,-0.044,-0.966,0,0,0.0,False
2019-11-13 15:59:01.620,SmartbBox,-0.021,0.015,-0.969,0,0,0.0,False
2019-11-13 15:59:01.640,SmartbBox,-0.024,-0.014,-0.996,0,0,0.0,False
2019-11-13 15:59:01.660,SmartbBox,-0.02,-0.014,-0.97,0,0,0.0,False
2019-11-13 15:59:01.680,SmartbBox,-0.054,0.014,-0.992,0,0,0.0,False
2019-11-13 15:59:01.700,SmartbBox,-0.052,-0.015,-0.992,0,0,0.0,False
2019-11-13 15:59:01.720,SmartbBox,-0.024,0.016,-0.996,0,0,0.0,False
2019-11-13 15:59:01.740,SmartbBox,-0.033,-0.042,-1.076,0,0,0.0,False
2019-11-13 15:59:01.760,SmartbBox,-0.046,-0.044,-0.966,0,0,0.0,False
2019-11-13 15:59:01.780,SmartbBox,-0.052,-0.015,-0.992,0,0,0.0,False
2019-11-13 15:59:01.800,SmartbBox,-0.048,-0.015,-0.966,0,0,0.0,False
2019-11-13 15:59:01.820,SmartbBox,-0.015,0.044,-0.916,0,0,0.0,False
2019-11-13 15:59:01.840,SmartbBox,-0.046,0.014,-0.938,0,0,0.0,False
2019-11-13 15:59:01.860,SmartbBox,-0.017,0.015,-0.942,0,0,0.0,False
2019-11-13 15:59:01.880,SmartbBox,-0.018,0.015,-0.942,0,0,0.0,False
2019-11-13 15:59:01.900,SmartbBox,-0.056,-0.014,-1.018,0,0,0.0,False
2019-11-13 15:59:01.920,SmartbBox,-0.052,-0.015,-0.992,0,0,0.0,False
2019-11-13 15:59:01.940,SmartbBox,-0.024,0.016,-0.996,0,0,0.0,False
2019-11-13 15:59:01.960,SmartbBox,-0.087,-0.044,-1.042,0,0,0.0,False
2019-11-13 15:59:01.980,SmartbBox,-0.086,0.013,-1.014,0,0,0.0,False
2019-11-13 15:59:02.000,SmartbBox,-0.084,-0.016,-1.014,0,0,0.0,False
2019-11-13 15:59:02.020,SmartbBox,-0.084,-0.016,-1.014,0,0,0.0,False
2019-11-13 15:59:02.040,SmartbBox,-0.05,0.014,-0.965,0,0,0.0,False
2019-11-13 15:59:02.060,SmartbBox,-0.075,-0.046,-0.962,0,0,0.0,False
2019-11-13 15:59:02.080,SmartbBox,-0.078,0.012,-0.961,0,0,0.0,False
2019-11-13 15:59:02.100,SmartbBox,-0.076,-0.017,-0.962,0,0,0.0,False
2019-11-13 15:59:02.120,SmartbBox,-0.072,-0.046,-0.936,0,0,0.0,False
2019-11-13 15:59:02.140,SmartbBox,-0.109,-0.018,-0.984,0,0,0.0,False
2019-11-13 15:59:02.160,SmartbBox,-0.075,-0.046,-0.962,0,0,0.0,False
2019-11-13 15:59:02.180,SmartbBox,-0.082,0.012,-0.988,0,0,0.0,False
2019-11-13 15:59:02.200,SmartbBox,-0.082,0.012,-0.988,0,0,0.0,False
2019-11-13 15:59:02.220,SmartbBox,-0.084,-0.016,-1.014,0,0,0.0,False
2019-11-13 15:59:02.240,SmartbBox,-0.082,0.012,-0.988,0,0,0.0,False
2019-11-13 15:59:02.260,SmartbBox,-0.09,0.013,-1.04,0,0,0.0,False
2019-11-13 15:59:02.280,SmartbBox,-0.083,-0.046,-1.015,0,0,0.0,False
2019-11-13 15:59:02.300,SmartbBox,-0.08,-0.016,-0.988,0,0,0.0,False
2019-11-13 15:59:02.320,SmartbBox,-0.08,-0.016,-0.988,0,0,0.0,False
2019-11-13 15:59:02.340,SmartbBox,-0.079,-0.046,-0.988,0,0,0.0,False
2019-11-13 15:59:02.360,SmartbBox,-0.078,0.012,-0.961,0,0,0.0,False
2019-11-13 15:59:02.380,SmartbBox,-0.075,-0.046,-0.962,0,0,0.0,False
2019-11-13 15:59:02.400,SmartbBox,-0.076,-0.017,-0.962,0,0,0.0,False
2019-11-13 15:59:02.420,SmartbBox,-0.082,0.012,-0.988,0,0,0.0,False
2019-11-13 15:59:02.440,SmartbBox,-0.08,-0.016,-0.988,0,0,0.0,False
2019-11-13 15:59:02.460,SmartbBox,-0.1,-0.048,-0.932,0,0,0.0,False
2019-11-13 15:59:02.480,SmartbBox,-0.082,0.012,-0.988,0,0,0.0,False
2019-11-13 15:59:02.500,SmartbBox,-0.108,-0.047,-0.984,0,0,0.0,False
2019-11-13 15:59:02.520,SmartbBox,-0.079,-0.046,-0.988,0,0,0.0,False
2019-11-13 15:59:02.540,SmartbBox,-0.076,-0.017,-0.962,0,0,0.0,False
2019-11-13 15:59:02.560,SmartbBox,-0.075,-0.046,-0.962,0,0,0.0,False
2019-11-13 15:59:02.580,SmartbBox,-0.086,0.013,-1.014,0,0,0.0,False
2019-11-13 15:59:02.600,SmartbBox,-0.08,-0.016,-0.988,0,0,0.0,False
2019-11-13 15:59:02.620,SmartbBox,-0.11,-0.018,-0.984,0,0,0.0,False
2019-11-13 15:59:02.640,SmartbBox,-0.107,0.011,-0.957,0,0,0.0,False
2019-11-13 15:59:02.660,SmartbBox,-0.08,-0.016,-0.988,0,0,0.0,False
2019-11-13 15:59:02.680,SmartbBox,-0.104,-0.048,-0.958,0,0,0.0,False
2019-11-13 15:59:02.700,SmartbBox,-0.111,0.011,-0.984,0,0,0.0,False
2019-11-13 15:59:02.720,SmartbBox,-0.108,-0.047,-0.984,0,0,0.0,False
2019-11-13 15:59:02.740,SmartbBox,-0.109,-0.018,-0.984,0,0,0.0,False
2019-11-13 15:59:02.760,SmartbBox,-0.082,0.012,-0.988,0,0,0.0,False
2019-11-13 15:59:02.780,SmartbBox,-0.082,-0.075,-1.016,0,0,0.0,False
2019-11-13 15:59:02.800,SmartbBox,-0.073,-0.017,-0.935,0,0,0.0,False
2019-11-13 15:59:02.820,SmartbBox,-0.112,-0.046,-1.011,0,0,0.0,False
2019-11-13 15:59:02.840,SmartbBox,-0.088,-0.016,-1.041,0,0,0.0,False
2019-11-13 15:59:02.860,SmartbBox,-0.082,0.012,-0.988,0,0,0.0,False
2019-11-13 15:59:02.880,SmartbBox,-0.082,0.012,-0.988,0,0,0.0,False
2019-11-13 15:59:02.900,SmartbBox,-0.073,-0.017,-0.935,0,0,0.0,False
2019-11-13 15:59:02.920,SmartbBox,-0.082,0.012,-0.988,0,0,0.0,False
2019-11-13 15:59:02.940,SmartbBox,-0.083,-0.045,-1.015,0,0,0.0,False
2019-11-13 15:59:02.960,SmartbBox,-0.082,0.012,-0.988,0,0,0.0,False
2019-11-13 15:59:02.980,SmartbBox,-0.083,-0.045,-1.015,0,0,0.0,True
2019-11-13 15:59:03.000,SmartbBox,-0.083,-0.045,-1.015,0,0,0.0,False
2019-11-13 15:59:03.020,SmartbBox,-0.142,-0.019,-1.006,0,0,0.0,False
2019-11-13 15:59:03.040,SmartbBox,-0.08,-0.016,-0.988,0,0,0.0,False
2019-11-13 15:59:03.060,SmartbBox,-0.109,-0.018,-0.984,0,0,0.0,False
2019-11-13 15:59:03.080,SmartbBox,-0.107,0.011,-0.957,0,0,0.0,False
2019-11-13 15:59:03.100,SmartbBox,-0.078,0.012,-0.961,0,0,0.0,False
2019-11-13 15:59:03.120,SmartbBox,-0.111,0.011,-0.984,0,0,0.0,False
2019-11-13 15:59:03.140,SmartbBox,-0.109,0.04,-0.956,0,0,0.0,False
2019-11-13 15:59:03.160,SmartbBox,-0.104,-0.048,-0.958,0,0,0.0,False
2019-11-13 15:59:03.180,SmartbBox,-0.106,-0.018,-0.958,0,0,0.0,False
2019-11-13 15:59:03.200,SmartbBox,-0.086,0.013,-1.014,0,0,0.0,False
2019-11-13 15:59:03.220,SmartbBox,-0.133,-0.049,-0.954,0,0,0.0,False
2019-11-13 15:59:03.240,SmartbBox,-0.084,0.041,-0.987,0,0,0.0,False
2019-11-13 15:59:03.260,SmartbBox,-0.08,-0.016,-0.988,0,0,0.0,False
2019-11-13 15:59:03.280,SmartbBox,-0.077,-0.016,-0.961,0,0,0.0,False
2019-11-13 15:59:03.300,SmartbBox,-0.09,0.013,-1.04,0,0,0.0,False
2019-11-13 15:59:03.320,SmartbBox,-0.106,-0.018,-0.958,0,0,0.0,False
2019-11-13 15:59:03.340,SmartbBox,-0.117,-0.018,-1.037,0,0,0.0,False
2019-11-13 15:59:03.360,SmartbBox,-0.076,-0.017,-0.962,0,0,0.0,False
2019-11-13 15:59:03.380,SmartbBox,-0.136,-0.048,-0.981,0,0,0.0,False
2019-11-13 15:59:03.400,SmartbBox,-0.08,-0.016,-0.988,0,0,0.0,False
2019-11-13 15:59:03.420,SmartbBox,-0.104,-0.048,-0.958,0,0,0.0,False
2019-11-13 15:59:03.440,SmartbBox,-0.114,0.012,-1.01,0,0,0.0,False
2019-11-13 15:59:03.460,SmartbBox,-0.078,0.012,-0.961,0,0,0.0,False
2019-11-13 15:59:03.480,SmartbBox,-0.107,0.01,-0.957,0,0,0.0,False
2019-11-13 15:59:03.500,SmartbBox,-0.078,0.012,-0.961,0,0,0.0,False
2019-11-13 15:59:03.520,SmartbBox,-0.084,-0.016,-1.014,0,0,0.0,False
2019-11-13 15:59:03.540,SmartbBox,-0.076,-0.017,-0.962,0,0,0.0,False
2019-11-13 15:59:03.560,SmartbBox,-0.109,-0.018,-0.984,0,0,0.0,False
2019-11-13 15:59:03.580,SmartbBox,-0.136,-0.048,-0.981,0,0,0.0,False
2019-11-13 15:59:03.600,SmartbBox,-0.108,-0.047,-0.985,0,0,0.0,False
2019-11-13 15:59:03.620,SmartbBox,-0.086,0.013,-1.014,0,0,0.0,False
2019-11-13 15:59:03.640,SmartbBox,-0.102,-0.018,-0.931,0,0,0.0,False
2019-11-13 15:59:03.660,SmartbBox,-0.117,-0.018,-1.037,0,0,0.0,False
2019-11-13 15:59:03.680,SmartbBox,-0.086,0.013,-1.014,0,0,0.0,False
2019-11-13 15:59:03.700,SmartbBox,-0.087,-0.045,-1.042,0,0,0.0,False
2019-11-13 15:59:03.720,SmartbBox,-0.082,0.012,-0.988,0,0,0.0,False
2019-11-13 15:59:03.740,SmartbBox,-0.086,0.013,-1.014,0,0,0.0,False
2019-11-13 15:59:03.760,SmartbBox,-0.078,-0.075,-0.989,0,0,0.0,False
2019-11-13 15:59:03.780,SmartbBox,-0.106,-0.019,-0.958,0,0,0.0,False
2019-11-13 15:59:03.800,SmartbBox,-0.08,-0.016,-0.988,0,0,0.0,False
2019-11-13 15:59:03.820,SmartbBox,-0.078,0.012,-0.961,0,0,0.0,False
2019-11-13 15:59:03.840,SmartbBox,-0.073,-0.017,-0.935,0,0,0.0,False
2019-11-13 15:59:03.860,SmartbBox,-0.08,-0.016,-0.988,0,0,0.0,False
2019-11-13 15:59:03.880,SmartbBox,-0.114,0.012,-1.01,0,0,0.0,False
2019-11-13 15:59:03.900,SmartbBox,-0.11,-0.018,-0.984,0,0,0.0,False
2019-11-13 15:59:03.920,SmartbBox,-0.138,-0.02,-0.98,0,0,0.0,False
2019-11-13 15:59:03.940,SmartbBox,-0.138,-0.02,-0.98,0,0,0.0,False
2019-11-13 15:59:03.960,SmartbBox,-0.134,-0.02,-0.954,0,0,0.0,False
2019-11-13 15:59:03.980,SmartbBox,-0.109,0.04,-0.956,0,0,0.0,False
2019-11-13 15:59:04.000,SmartbBox,-0.14,0.01,-0.98,0,0,0.0,False
2019-11-13 15:59:04.020,SmartbBox,-0.106,-0.018,-0.958,0,0,0.0,False
2019-11-13 15:59:04.040,SmartbBox,-0.111,0.011,-0.984,0,0,0.0,False
2019-11-13 15:59:04.060,SmartbBox,-0.077,-0.017,-0.962,0,0,0.0,False
2019-11-13 15:59:04.080,SmartbBox,-0.138,-0.02,-0.98,0,0,0.0,False
2019-11-13 15:59:04.100,SmartbBox,-0.106,-0.019,-0.958,0,0,0.0,False
2019-11-13 15:59:04.120,SmartbBox,-0.086,-0.074,-1.042,0,0,0.0,False
2019-11-13 15:59:04.140,SmartbBox,-0.116,-0.046,-1.038,0,0,0.0,False
2019-11-13 15:59:04.160,SmartbBox,-0.09,0.013,-1.04,0,0,0.0,False
2019-11-13 15:59:04.180,SmartbBox,-0.083,-0.045,-1.015,0,0,0.0,False
2019-11-13 15:59:04.200,SmartbBox,-0.114,0.012,-1.01,0,0,0.0,False
2019-11-13 15:59:04.220,SmartbBox,-0.108,-0.047,-0.985,0,0,0.0,False
2019-11-13 15:59:04.240,SmartbBox,-0.111,0.011,-0.984,0,0,0.0,False
2019-11-13 15:59:04.260,SmartbBox,-0.084,-0.016,-1.014,0,0,0.0,False
2019-11-13 15:59:04.280,SmartbBox,-0.133,-0.049,-0.954,0,0,0.0,False
2019-11-13 15:59:04.300,SmartbBox,-0.077,-0.016,-0.962,0,0,0.0,False
2019-11-13 15:59:04.320,SmartbBox,-0.104,-0.048,-0.958,0,0,0.0,False
2019-11-13 15:59:04.340,SmartbBox,-0.104,-0.048,-0.958,0,0,0.0,False
2019-11-13 15:59:04.360,SmartbBox,-0.107,0.01,-0.957,0,0,0.0,False
2019-11-13 15:59:04.380,SmartbBox,-0.08,-0.016,-0.988,0,0,0.0,False
2019-11-13 15:59:04.400,SmartbBox,-0.111,0.011,-0.984,0,0,0.0,False
2019-11-13 15:59:04.420,SmartbBox,-0.114,0.012,-1.01,0,0,0.0,False
2019-11-13 15:59:04.440,SmartbBox,-0.083,-0.046,-1.015,0,0,0.0,False
2019-11-13 15:59:04.460,SmartbBox,-0.084,-0.016,-1.014,0,0,0.0,False
