UTC_timestamp,device_name,x,y,z,lat,long,speed,event
2019-11-11 10:16:55.480,SmartbBox,-0.086,-0.029,-0.988,0,0,0.0,False
2019-11-11 10:16:55.500,SmartbBox,-0.062,-0.032,-1.019,0,0,0.0,False
2019-11-11 10:16:55.520,SmartbBox,-0.109,-0.023,-1.148,0,0,0.0,False
2019-11-11 10:16:55.540,SmartbBox,-0.09,0.001,-1.041,0,0,0.0,False
2019-11-11 10:16:55.560,SmartbBox,-0.068,-0.031,-1.072,0,0,0.0,False
2019-11-11 10:16:55.580,SmartbBox,-0.05,-0.006,-0.966,0,0,0.0,False
2019-11-11 10:16:55.600,SmartbBox,-0.13,-0.022,-1.09,0,0,0.0,False
2019-11-11 10:16:55.620,SmartbBox,-0.094,-0.058,-1.016,0,0,0.0,False
2019-11-11 10:16:55.640,SmartbBox,-0.082,0.028,-1.014,0,0,0.0,False
2019-11-11 10:16:55.660,SmartbBox,-0.098,-0.027,-1.068,0,0,0.0,False
2019-11-11 10:16:55.680,SmartbBox,-0.118,0.006,-1.037,0,0,0.0,False
2019-11-11 10:16:55.700,SmartbBox,-0.126,-0.053,-1.038,0,0,0.0,False
2019-11-11 10:16:55.720,SmartbBox,-0.09,0.001,-1.041,0,0,0.0,False
2019-11-11 10:16:55.740,SmartbBox,-0.068,0.029,-1.124,0,0,0.0,False
2019-11-11 10:16:55.760,SmartbBox,-0.079,-0.031,-0.936,0,0,0.0,False
2019-11-11 10:16:55.780,SmartbBox,-0.114,0.004,-1.01,0,0,0.0,False
2019-11-11 10:16:55.800,SmartbBox,-0.094,-0.028,-1.042,0,0,0.0,False
2019-11-11 10:16:55.820,SmartbBox,-0.086,0.0,-1.014,0,0,0.0,False
2019-11-11 10:16:55.840,SmartbBox,-0.151,-0.05,-1.008,0,0,0.0,False
2019-11-11 10:16:55.860,SmartbBox,-0.115,-0.026,-0.985,0,0,0.0,False
2019-11-11 10:16:55.880,SmartbBox,-0.122,-0.024,-1.038,0,0,0.0,False
2019-11-11 10:16:55.900,SmartbBox,-0.09,-0.029,-1.015,0,0,0.0,False
2019-11-11 10:16:55.920,SmartbBox,-0.104,0.001,-0.931,0,0,0.0,False
2019-11-11 10:16:55.940,SmartbBox,-0.118,0.005,-1.037,0,0,0.0,False
2019-11-11 10:16:55.960,SmartbBox,-0.082,-0.001,-0.988,0,0,0.0,False
2019-11-11 10:16:55.980,SmartbBox,-0.09,0.031,-1.067,0,0,0.0,False
2019-11-11 10:16:56.000,SmartbBox,-0.118,-0.024,-1.011,0,0,0.0,False
2019-11-11 10:16:56.020,SmartbBox,-0.065,-0.032,-1.045,0,0,0.0,False
2019-11-11 10:16:56.040,SmartbBox,-0.126,-0.023,-1.064,0,0,0.0,False
2019-11-11 10:16:56.060,SmartbBox,-0.136,0.036,-0.98,0,0,0.0,False
2019-11-11 10:16:56.080,SmartbBox,-0.098,-0.056,-1.042,0,0,0.0,False
2019-11-11 10:16:56.100,SmartbBox,-0.082,0.029,-1.014,0,0,0.0,False
2019-11-11 10:16:56.120,SmartbBox,-0.147,-0.021,-1.007,0,0,0.0,False
2019-11-11 10:16:56.140,SmartbBox,-0.09,-0.028,-1.015,0,0,0.0,False
2019-11-11 10:16:56.160,SmartbBox,-0.118,-0.025,-1.011,0,0,0.0,False
2019-11-11 10:16:56.180,SmartbBox,-0.09,-0.028,-1.015,0,0,0.0,False
2019-11-11 10:16:56.200,SmartbBox,-0.082,-0.001,-0.988,0,0,0.0,False
2019-11-11 10:16:56.220,SmartbBox,-0.104,0.002,-0.931,0,0,0.0,False
2019-11-11 10:16:56.240,SmartbBox,-0.086,-0.03,-0.988,0,0,0.0,False
2019-11-11 10:16:56.260,SmartbBox,-0.103,0.031,-0.957,0,0,0.0,False
2019-11-11 10:16:56.280,SmartbBox,-0.108,-0.027,-0.932,0,0,0.0,False
2019-11-11 10:16:56.300,SmartbBox,-0.087,-0.06,-0.962,0,0,0.0,False
2019-11-11 10:16:56.320,SmartbBox,-0.082,-0.001,-0.988,0,0,0.0,False
2019-11-11 10:16:56.340,SmartbBox,-0.111,0.003,-0.984,0,0,0.0,False
2019-11-11 10:16:56.360,SmartbBox,-0.108,0.003,-0.958,0,0,0.0,False
2019-11-11 10:16:56.380,SmartbBox,-0.079,-0.001,-0.962,0,0,0.0,False
2019-11-11 10:16:56.400,SmartbBox,-0.086,0.001,-1.014,0,0,0.0,False
2019-11-11 10:16:56.420,SmartbBox,-0.13,-0.022,-1.09,0,0,0.0,False
2019-11-11 10:16:56.440,SmartbBox,-0.118,0.035,-1.063,0,0,0.0,False
2019-11-11 10:16:56.460,SmartbBox,-0.093,0.002,-1.068,0,0,0.0,False
2019-11-11 10:16:56.480,SmartbBox,-0.093,0.002,-1.068,0,0,0.0,False
2019-11-11 10:16:56.500,SmartbBox,-0.11,0.033,-1.01,0,0,0.0,False
2019-11-11 10:16:56.520,SmartbBox,-0.097,0.003,-1.094,0,0,0.0,False
2019-11-11 10:16:56.540,SmartbBox,-0.097,0.003,-1.094,0,0,0.0,False
2019-11-11 10:16:56.560,SmartbBox,-0.101,0.004,-1.12,0,0,0.0,False
2019-11-11 10:16:56.580,SmartbBox,-0.154,0.04,-1.112,0,0,0.0,False
2019-11-11 10:16:56.600,SmartbBox,-0.129,-0.022,-1.09,0,0,0.0,False
2019-11-11 10:16:56.620,SmartbBox,-0.094,0.002,-1.068,0,0,0.0,False
2019-11-11 10:16:56.640,SmartbBox,-0.09,0.001,-1.041,0,0,0.0,False
2019-11-11 10:16:56.660,SmartbBox,-0.14,0.008,-0.98,0,0,0.0,False
2019-11-11 10:16:56.680,SmartbBox,-0.154,0.041,-1.112,0,0,0.0,False
2019-11-11 10:16:56.700,SmartbBox,-0.082,0.029,-1.014,0,0,0.0,False
2019-11-11 10:16:56.720,SmartbBox,-0.126,-0.023,-1.064,0,0,0.0,False
2019-11-11 10:16:56.740,SmartbBox,-0.147,-0.021,-1.007,0,0,0.0,False
2019-11-11 10:16:56.760,SmartbBox,-0.114,0.004,-1.01,0,0,0.0,False
2019-11-11 10:16:56.780,SmartbBox,-0.118,0.035,-1.063,0,0,0.0,False
2019-11-11 10:16:56.800,SmartbBox,-0.082,-0.03,-0.962,0,0,0.0,False
2019-11-11 10:16:56.820,SmartbBox,-0.146,0.009,-1.033,0,0,0.0,False
2019-11-11 10:16:56.840,SmartbBox,-0.118,0.005,-1.037,0,0,0.0,False
2019-11-11 10:16:56.860,SmartbBox,-0.146,0.039,-1.059,0,0,0.0,False
2019-11-11 10:16:56.880,SmartbBox,-0.154,-0.048,-1.034,0,0,0.0,False
2019-11-11 10:16:56.900,SmartbBox,-0.132,0.064,-0.979,0,0,0.0,False
2019-11-11 10:16:56.920,SmartbBox,-0.09,-0.028,-1.015,0,0,0.0,False
2019-11-11 10:16:56.940,SmartbBox,-0.118,0.005,-1.037,0,0,0.0,False
2019-11-11 10:16:56.960,SmartbBox,-0.144,-0.022,-0.981,0,0,0.0,False
2019-11-11 10:16:56.980,SmartbBox,-0.114,0.004,-1.01,0,0,0.0,True
2019-11-11 10:16:57.000,SmartbBox,-0.122,0.006,-1.064,0,0,0.0,False
2019-11-11 10:16:57.020,SmartbBox,-0.158,-0.048,-1.06,0,0,0.0,False
2019-11-11 10:16:57.040,SmartbBox,-0.154,-0.019,-1.06,0,0,0.0,False
2019-11-11 10:16:57.060,SmartbBox,-0.093,0.032,-1.094,0,0,0.0,False
2019-11-11 10:16:57.080,SmartbBox,-0.11,0.062,-1.036,0,0,0.0,False
2019-11-11 10:16:57.100,SmartbBox,-0.151,-0.019,-1.034,0,0,0.0,False
2019-11-11 10:16:57.120,SmartbBox,-0.126,-0.023,-1.064,0,0,0.0,False
2019-11-11 10:16:57.140,SmartbBox,-0.097,-0.027,-1.068,0,0,0.0,False
2019-11-11 10:16:57.160,SmartbBox,-0.138,0.066,-1.032,0,0,0.0,False
2019-11-11 10:16:57.180,SmartbBox,-0.152,-0.078,-0.982,0,0,0.0,False
2019-11-11 10:16:57.200,SmartbBox,-0.143,0.038,-1.033,0,0,0.0,False
2019-11-11 10:16:57.220,SmartbBox,-0.082,0.029,-1.014,0,0,0.0,False
2019-11-11 10:16:57.240,SmartbBox,-0.158,-0.018,-1.086,0,0,0.0,False
2019-11-11 10:16:57.260,SmartbBox,-0.13,-0.022,-1.09,0,0,0.0,False
2019-11-11 10:16:57.280,SmartbBox,-0.09,0.001,-1.041,0,0,0.0,False
2019-11-11 10:16:57.300,SmartbBox,-0.13,-0.022,-1.09,0,0,0.0,False
2019-11-11 10:16:57.320,SmartbBox,-0.114,0.033,-1.036,0,0,0.0,False
2019-11-11 10:16:57.340,SmartbBox,-0.147,-0.02,-1.007,0,0,0.0,False
2019-11-11 10:16:57.360,SmartbBox,-0.126,-0.023,-1.064,0,0,0.0,False
2019-11-11 10:16:57.380,SmartbBox,-0.126,-0.023,-1.064,0,0,0.0,False
2019-11-11 10:16:57.400,SmartbBox,-0.13,-0.022,-1.09,0,0,0.0,False
2019-11-11 10:16:57.420,SmartbBox,-0.15,0.01,-1.06,0,0,0.0,False
2019-11-11 10:16:57.440,SmartbBox,-0.143,0.038,-1.033,0,0,0.0,False
2019-11-11 10:16:57.460,SmartbBox,-0.132,0.006,-0.927,0,0,0.0,False
2019-11-11 10:16:57.480,SmartbBox,-0.114,-0.026,-0.984,0,0,0.0,False
2019-11-11 10:16:57.500,SmartbBox,-0.122,-0.024,-1.038,0,0,0.0,False
2019-11-11 10:16:57.520,SmartbBox,-0.122,0.006,-1.064,0,0,0.0,False
2019-11-11 10:16:57.540,SmartbBox,-0.14,0.007,-0.98,0,0,0.0,False
2019-11-11 10:16:57.560,SmartbBox,-0.118,-0.024,-1.011,0,0,0.0,False
2019-11-11 10:16:57.580,SmartbBox,-0.122,-0.024,-1.038,0,0,0.0,False
2019-11-11 10:16:57.600,SmartbBox,-0.101,-0.026,-1.094,0,0,0.0,False
2019-11-11 10:16:57.620,SmartbBox,-0.151,0.01,-1.06,0,0,0.0,False
2019-11-11 10:16:57.640,SmartbBox,-0.101,0.004,-1.12,0,0,0.0,False
2019-11-11 10:16:57.660,SmartbBox,-0.122,0.006,-1.064,0,0,0.0,False
2019-11-11 10:16:57.680,SmartbBox,-0.126,0.007,-1.09,0,0,0.0,False
2019-11-11 10:16:57.700,SmartbBox,-0.146,0.009,-1.033,0,0,0.0,False
2019-11-11 10:16:57.720,SmartbBox,-0.122,0.006,-1.064,0,0,0.0,False
2019-11-11 10:16:57.740,SmartbBox,-0.111,0.003,-0.984,0,0,0.0,False
2019-11-11 10:16:57.760,SmartbBox,-0.114,0.004,-1.01,0,0,0.0,False
2019-11-11 10:16:57.780,SmartbBox,-0.082,-0.001,-0.988,0,0,0.0,False
2019-11-11 10:16:57.800,SmartbBox,0.002,-0.042,-0.974,0,0,0.0,False
2019-11-11 10:16:57.820,SmartbBox,-0.046,-0.006,-0.939,0,0,0.0,False
2019-11-11 10:16:57.840,SmartbBox,-0.075,-0.002,-0.935,0,0,0.0,False
2019-11-11 10:16:57.860,SmartbBox,-0.14,-0.052,-0.928,0,0,0.0,False
2019-11-11 10:16:57.880,SmartbBox,-0.094,-0.028,-1.042,0,0,0.0,False
2019-11-11 10:16:57.900,SmartbBox,-0.082,-0.001,-0.988,0,0,0.0,False
2019-11-11 10:16:57.920,SmartbBox,-0.122,0.006,-1.064,0,0,0.0,False
2019-11-11 10:16:57.940,SmartbBox,-0.075,-0.002,-0.935,0,0,0.0,False
2019-11-11 10:16:57.960,SmartbBox,-0.09,0.001,-1.041,0,0,0.0,False
2019-11-11 10:16:57.980,SmartbBox,-0.082,0.029,-1.014,0,0,0.0,False
2019-11-11 10:16:58.000,SmartbBox,-0.094,-0.028,-1.042,0,0,0.0,False
2019-11-11 10:16:58.020,SmartbBox,-0.066,-0.032,-1.046,0,0,0.0,False
2019-11-11 10:16:58.040,SmartbBox,-0.098,-0.027,-1.068,0,0,0.0,False
2019-11-11 10:16:58.060,SmartbBox,-0.09,0.001,-1.041,0,0,0.0,False
2019-11-11 10:16:58.080,SmartbBox,-0.094,-0.028,-1.042,0,0,0.0,False
2019-11-11 10:16:58.100,SmartbBox,-0.085,0.03,-1.04,0,0,0.0,False
2019-11-11 10:16:58.120,SmartbBox,-0.09,0.031,-1.067,0,0,0.0,False
2019-11-11 10:16:58.140,SmartbBox,-0.094,0.002,-1.068,0,0,0.0,False
2019-11-11 10:16:58.160,SmartbBox,-0.066,-0.061,-1.019,0,0,0.0,False
2019-11-11 10:16:58.180,SmartbBox,-0.053,0.054,-1.044,0,0,0.0,False
2019-11-11 10:16:58.200,SmartbBox,-0.086,-0.03,-0.988,0,0,0.0,False
2019-11-11 10:16:58.220,SmartbBox,-0.086,0.0,-1.014,0,0,0.0,False
2019-11-11 10:16:58.240,SmartbBox,-0.054,-0.005,-0.992,0,0,0.0,False
2019-11-11 10:16:58.260,SmartbBox,-0.094,-0.058,-1.016,0,0,0.0,False
2019-11-11 10:16:58.280,SmartbBox,-0.082,-0.001,-0.988,0,0,0.0,False
2019-11-11 10:16:58.300,SmartbBox,-0.083,-0.03,-0.962,0,0,0.0,False
2019-11-11 10:16:58.320,SmartbBox,-0.058,-0.034,-0.992,0,0,0.0,False
2019-11-11 10:16:58.340,SmartbBox,-0.062,-0.033,-1.019,0,0,0.0,False
2019-11-11 10:16:58.360,SmartbBox,-0.086,-0.03,-0.988,0,0,0.0,False
2019-11-11 10:16:58.380,SmartbBox,-0.079,-0.031,-0.936,0,0,0.0,False
2019-11-11 10:16:58.400,SmartbBox,-0.098,-0.056,-1.042,0,0,0.0,False
2019-11-11 10:16:58.420,SmartbBox,-0.062,-0.032,-1.019,0,0,0.0,False
2019-11-11 10:16:58.440,SmartbBox,-0.102,-0.056,-1.068,0,0,0.0,False
2019-11-11 10:16:58.460,SmartbBox,-0.094,-0.028,-1.042,0,0,0.0,False
