UTC_timestamp,device_name,timestamp,x,y,z,lat,long,event,speed
2019-11-13 12:02:03.420,Mi 9T,1573646523430.1667,0.911,-9.198,-3.558,41.4648388,15.5298057,False,7.134
2019-11-13 12:02:03.440,Mi 9T,1573646523449.0,0.77,-9.012,-2.652,41.4648388,15.5298057,False,7.134
2019-11-13 12:02:03.460,Mi 9T,1573646523470.5,-0.218,-9.579,-3.195,41.4648388,15.5298057,False,7.134
2019-11-13 12:02:03.480,Mi 9T,1573646523489.4285,-0.204,-9.029,-2.095,41.4648388,15.5298057,False,7.134
2019-11-13 12:02:03.500,Mi 9T,1573646523510.0,-0.006,-9.225,-2.566,41.4648388,15.5298057,False,7.134
2019-11-13 12:02:03.520,Mi 9T,1573646523529.4285,0.716,-9.127,-3.42,41.4648388,15.5298057,False,7.134
2019-11-13 12:02:03.540,Mi 9T,1573646523550.5715,1.306,-9.465,-3.297,41.4648388,15.5298057,False,7.134
2019-11-13 12:02:03.560,Mi 9T,1573646523571.6667,0.107,-9.533,-2.902,41.4648388,15.5298057,False,7.134
2019-11-13 12:02:03.580,Mi 9T,1573646523590.4443,-0.295,-9.417,-2.232,41.4648388,15.5298057,False,7.134
2019-11-13 12:02:03.600,Mi 9T,1573646523609.0,0.745,-9.808,-2.625,41.4648388,15.5298057,False,7.134
2019-11-13 12:02:03.620,Mi 9T,1573646523628.6,1.776,-9.617,-3.196,41.4648388,15.5298057,False,7.134
2019-11-13 12:02:03.640,Mi 9T,1573646523648.5557,1.963,-9.24,-2.794,41.4648388,15.5298057,False,7.134
2019-11-13 12:02:03.660,Mi 9T,1573646523667.375,1.177,-9.231,-3.321,41.4648388,15.5298057,False,7.134
2019-11-13 12:02:03.680,Mi 9T,1573646523689.1428,0.876,-9.046,-2.971,41.4648388,15.5298057,False,7.134
2019-11-13 12:02:03.700,Mi 9T,1573646523709.0,1.069,-9.154,-2.853,41.4648388,15.5298057,False,7.134
2019-11-13 12:02:03.720,Mi 9T,1573646523728.3333,1.964,-8.961,-2.689,41.4648388,15.5298057,False,7.134
2019-11-13 12:02:03.740,Mi 9T,1573646523748.625,2.52,-10.0,-3.678,41.4648388,15.5298057,False,7.134
2019-11-13 12:02:03.760,Mi 9T,1573646523769.5557,1.773,-9.443,-2.527,41.4648388,15.5298057,False,7.134
2019-11-13 12:02:03.780,Mi 9T,1573646523789.125,0.85,-9.156,-2.627,41.4648388,15.5298057,False,7.134
2019-11-13 12:02:03.800,Mi 9T,1573646523808.8,1.673,-9.431,-3.118,41.4648388,15.5298057,False,7.134
2019-11-13 12:02:03.820,Mi 9T,1573646523830.375,2.035,-9.55,-3.634,41.4648388,15.5298057,False,7.134
2019-11-13 12:02:03.840,Mi 9T,1573646523850.5715,1.567,-8.854,-2.932,41.4648388,15.5298057,False,7.134
2019-11-13 12:02:03.860,Mi 9T,1573646523869.4443,1.284,-9.25,-2.85,41.4648388,15.5298057,False,7.134
2019-11-13 12:02:03.880,Mi 9T,1573646523888.7,0.773,-9.388,-3.371,41.4648388,15.5298057,False,7.134
2019-11-13 12:02:03.900,Mi 9T,1573646523909.3333,0.527,-9.062,-2.933,41.4648388,15.5298057,False,7.134
2019-11-13 12:02:03.920,Mi 9T,1573646523929.8333,0.559,-8.867,-3.228,41.4648388,15.5298057,False,7.134
2019-11-13 12:02:03.940,Mi 9T,1573646523948.3333,1.21,-9.137,-3.829,41.4648388,15.5298057,False,7.134
2019-11-13 12:02:03.960,Mi 9T,1573646523969.1428,0.965,-9.875,-3.696,41.4648388,15.5298057,False,7.134
2019-11-13 12:02:03.980,Mi 9T,1573646523988.2222,0.184,-9.268,-2.324,41.4648388,15.5298057,False,7.134
2019-11-13 12:02:04.000,Mi 9T,1573646524010.4285,0.408,-9.111,-2.837,41.4648388,15.5298057,False,7.134
2019-11-13 12:02:04.020,Mi 9T,1573646524028.9,0.914,-10.163,-3.782,41.4648388,15.5298057,False,7.134
2019-11-13 12:02:04.040,Mi 9T,1573646524049.1,0.537,-8.95,-2.929,41.4648388,15.5298057,False,7.134
2019-11-13 12:02:04.060,Mi 9T,1573646524069.7778,-0.043,-8.566,-3.181,41.4648388,15.5298057,False,7.134
2019-11-13 12:02:04.080,Mi 9T,1573646524089.875,0.144,-9.88,-3.74,41.4648388,15.5298057,False,7.134
2019-11-13 12:02:04.100,Mi 9T,1573646524110.111,-0.08,-8.751,-2.638,41.4648388,15.5298057,False,7.134
2019-11-13 12:02:04.120,Mi 9T,1573646524130.3333,-0.004,-9.015,-3.167,41.4648388,15.5298057,False,7.134
2019-11-13 12:02:04.140,Mi 9T,1573646524149.4,0.33,-9.651,-3.517,41.4648388,15.5298057,False,7.134
2019-11-13 12:02:04.160,Mi 9T,1573646524170.0,-0.099,-9.209,-3.241,41.4648388,15.5298057,False,7.134
2019-11-13 12:02:04.180,Mi 9T,1573646524188.889,-0.294,-9.302,-2.955,41.4648388,15.5298057,False,7.134
2019-11-13 12:02:04.200,Mi 9T,1573646524209.2,-0.13,-9.866,-3.744,41.4648388,15.5298057,False,7.134
2019-11-13 12:02:04.220,Mi 9T,1573646524229.8,0.136,-9.145,-3.035,41.4648388,15.5298057,False,7.134
2019-11-13 12:02:04.240,Mi 9T,1573646524249.4,-0.048,-8.93,-2.876,41.4648388,15.5298057,False,7.134
2019-11-13 12:02:04.260,Mi 9T,1573646524270.7778,0.025,-9.443,-3.434,41.4648388,15.5298057,False,7.134
2019-11-13 12:02:04.280,Mi 9T,1573646524289.9,-0.416,-9.327,-3.367,41.4648388,15.5298057,False,7.134
2019-11-13 12:02:04.300,Mi 9T,1573646524308.5557,-0.939,-8.928,-3.091,41.4648388,15.5298057,False,7.134
2019-11-13 12:02:04.320,Mi 9T,1573646524328.7,-0.664,-9.115,-3.338,41.4648388,15.5298057,False,7.134
2019-11-13 12:02:04.340,Mi 9T,1573646524350.2,0.044,-9.559,-3.793,41.4648388,15.5298057,False,7.134
2019-11-13 12:02:04.360,Mi 9T,1573646524370.2856,0.01,-9.368,-3.168,41.4648388,15.5298057,False,7.134
2019-11-13 12:02:04.380,Mi 9T,1573646524389.3333,-0.46,-9.744,-2.96,41.4648388,15.5298057,False,7.134
2019-11-13 12:02:04.400,Mi 9T,1573646524408.6,-0.419,-9.092,-2.662,41.4648388,15.5298057,False,7.134
2019-11-13 12:02:04.420,Mi 9T,1573646524430.375,-0.462,-9.438,-3.677,41.4648388,15.5298057,False,7.134
2019-11-13 12:02:04.440,Mi 9T,1573646524448.8,0.255,-8.719,-3.218,41.4648388,15.5298057,False,7.134
2019-11-13 12:02:04.460,Mi 9T,1573646524468.6667,0.464,-9.192,-3.901,41.4648388,15.5298057,False,7.134
2019-11-13 12:02:04.480,Mi 9T,1573646524490.5,-0.431,-9.268,-3.118,41.4648388,15.5298057,False,7.134
2019-11-13 12:02:04.500,Mi 9T,1573646524509.6667,-1.029,-9.018,-2.978,41.4648388,15.5298057,False,7.134
2019-11-13 12:02:04.520,Mi 9T,1573646524529.5,-0.007,-9.28,-2.953,41.4648388,15.5298057,False,7.134
2019-11-13 12:02:04.540,Mi 9T,1573646524548.6667,0.272,-9.97,-3.982,41.4648388,15.5298057,False,7.134
2019-11-13 12:02:04.560,Mi 9T,1573646524569.375,0.309,-9.137,-2.461,41.4648388,15.5298057,False,7.134
2019-11-13 12:02:04.580,Mi 9T,1573646524589.889,-0.283,-9.32,-2.901,41.4648388,15.5298057,False,7.134
2019-11-13 12:02:04.600,Mi 9T,1573646524609.1,-0.152,-9.799,-3.408,41.4648388,15.5298057,False,7.134
2019-11-13 12:02:04.620,Mi 9T,1573646524629.4,0.276,-8.623,-2.972,41.4648388,15.5298057,False,7.134
2019-11-13 12:02:04.640,Mi 9T,1573646524649.5,0.579,-9.199,-3.683,41.4648388,15.5298057,False,7.134
2019-11-13 12:02:04.660,Mi 9T,1573646524670.8572,-0.456,-9.397,-3.643,41.4648388,15.5298057,False,7.134
2019-11-13 12:02:04.680,Mi 9T,1573646524690.3333,-1.276,-8.657,-2.891,41.4648388,15.5298057,False,7.134
2019-11-13 12:02:04.700,Mi 9T,1573646524710.111,-0.692,-9.407,-3.172,41.4648388,15.5298057,False,7.134
2019-11-13 12:02:04.720,Mi 9T,1573646524729.0,0.439,-9.666,-3.467,41.4648388,15.5298057,False,7.134
2019-11-13 12:02:04.740,Mi 9T,1573646524749.1,1.067,-9.882,-3.117,41.4648388,15.5298057,False,7.134
2019-11-13 12:02:04.760,Mi 9T,1573646524769.2,0.118,-9.557,-2.73,41.4648388,15.5298057,False,7.134
2019-11-13 12:02:04.780,Mi 9T,1573646524789.3,-0.634,-9.652,-2.902,41.4648388,15.5298057,False,7.134
2019-11-13 12:02:04.800,Mi 9T,1573646524809.5,-0.371,-8.377,-2.969,41.4648388,15.5298057,False,7.134
2019-11-13 12:02:04.820,Mi 9T,1573646524829.9,0.729,-9.102,-4.183,41.4648388,15.5298057,False,7.134
2019-11-13 12:02:04.840,Mi 9T,1573646524849.8,0.323,-8.978,-3.695,41.4648388,15.5298057,False,7.134
2019-11-13 12:02:04.860,Mi 9T,1573646524869.8,-0.886,-9.018,-3.099,41.4648388,15.5298057,False,7.134
2019-11-13 12:02:04.880,Mi 9T,1573646524890.0,-1.214,-9.324,-2.988,41.4648388,15.5298057,False,7.134
2019-11-13 12:02:04.900,Mi 9T,1573646524906.3333,-0.278,-9.41,-2.766,41.4648388,15.5298057,False,7.134
2019-11-13 12:02:04.920,Mi 9T,1573646524939.0,0.321,-8.934,-2.32,41.4648388,15.5298057,True,7.134
2019-11-13 12:02:04.940,Mi 9T,1573646524941.0,0.725,-9.656,-3.178,41.4648388,15.5298057,True,7.134
2019-11-13 12:02:04.960,Mi 9T,1573646524970.5,0.001,-9.741,-3.235,41.4648388,15.5298057,True,7.134
2019-11-13 12:02:04.980,Mi 9T,1573646524989.4443,-0.835,-8.754,-2.671,41.4648388,15.5298057,True,7.134
2019-11-13 12:02:05.000,Mi 9T,1573646525009.0,0.533,-9.214,-3.88,41.4648388,15.5298057,True,7.134
2019-11-13 12:02:05.020,Mi 9T,1573646525029.0,0.668,-8.877,-3.762,41.4648388,15.5298057,False,7.134
2019-11-13 12:02:05.040,Mi 9T,1573646525048.8,-0.427,-8.781,-3.04,41.4648388,15.5298057,False,7.134
2019-11-13 12:02:05.060,Mi 9T,1573646525069.0,-1.179,-9.584,-3.125,41.4648388,15.5298057,False,7.134
2019-11-13 12:02:05.080,Mi 9T,1573646525088.3333,-0.618,-9.64,-3.122,41.4648388,15.5298057,False,7.134
2019-11-13 12:02:05.100,Mi 9T,1573646525109.0,0.607,-9.428,-2.986,41.4648388,15.5298057,False,7.134
2019-11-13 12:02:05.120,Mi 9T,1573646525129.111,0.658,-9.867,-3.469,41.4648388,15.5298057,False,7.134
2019-11-13 12:02:05.140,Mi 9T,1573646525149.5,-0.494,-9.439,-2.738,41.4648388,15.5298057,False,7.134
2019-11-13 12:02:05.160,Mi 9T,1573646525168.5,-1.07,-8.81,-3.02,41.4648388,15.5298057,False,7.134
2019-11-13 12:02:05.180,Mi 9T,1573646525189.5,-0.02,-9.243,-3.9,41.4648811,15.52981,False,7.609
2019-11-13 12:02:05.200,Mi 9T,1573646525210.0,0.319,-8.653,-3.678,41.4649799,15.52982,False,8.718
2019-11-13 12:02:05.220,Mi 9T,1573646525229.2,-0.477,-9.57,-4.077,41.4649799,15.52982,False,8.718
2019-11-13 12:02:05.240,Mi 9T,1573646525249.4443,-1.266,-9.345,-2.803,41.4649799,15.52982,False,8.718
2019-11-13 12:02:05.260,Mi 9T,1573646525269.7,-0.92,-9.721,-3.086,41.4649799,15.52982,False,8.718
2019-11-13 12:02:05.280,Mi 9T,1573646525289.75,0.203,-10.003,-3.399,41.4649799,15.52982,False,8.718
2019-11-13 12:02:05.300,Mi 9T,1573646525306.375,0.429,-8.796,-2.978,41.4649799,15.52982,False,8.718
2019-11-13 12:02:05.320,Mi 9T,1573646525329.1,-0.725,-8.916,-3.278,41.4649799,15.52982,False,8.718
2019-11-13 12:02:05.340,Mi 9T,1573646525349.111,-0.92,-8.792,-3.232,41.4649799,15.52982,False,8.718
2019-11-13 12:02:05.360,Mi 9T,1573646525369.2727,-0.426,-8.986,-3.363,41.4649799,15.52982,False,8.718
2019-11-13 12:02:05.380,Mi 9T,1573646525390.3,-0.156,-9.33,-3.162,41.4649799,15.52982,False,8.718
2019-11-13 12:02:05.400,Mi 9T,1573646525410.4,-0.875,-9.607,-2.811,41.4649799,15.52982,False,8.718
2019-11-13 12:02:05.420,Mi 9T,1573646525430.3333,-1.316,-10.186,-3.108,41.4649799,15.52982,False,8.718
2019-11-13 12:02:05.440,Mi 9T,1573646525449.111,-0.722,-9.545,-2.94,41.4649799,15.52982,False,8.718
2019-11-13 12:02:05.460,Mi 9T,1573646525469.2727,0.208,-9.581,-3.538,41.4649799,15.52982,False,8.718
2019-11-13 12:02:05.480,Mi 9T,1573646525490.5,0.131,-9.367,-3.484,41.4649799,15.52982,False,8.718
2019-11-13 12:02:05.500,Mi 9T,1573646525509.375,-0.564,-9.294,-3.127,41.4649799,15.52982,False,8.718
2019-11-13 12:02:05.520,Mi 9T,1573646525528.4,-1.283,-9.115,-2.853,41.4649799,15.52982,False,8.718
2019-11-13 12:02:05.540,Mi 9T,1573646525548.5715,-1.323,-9.083,-2.929,41.4649799,15.52982,False,8.718
2019-11-13 12:02:05.560,Mi 9T,1573646525577.0,-0.609,-9.236,-3.092,41.4649799,15.52982,False,8.718
2019-11-13 12:02:05.580,Mi 9T,1573646525589.5557,-0.419,-9.396,-3.207,41.4649799,15.52982,False,8.718
2019-11-13 12:02:05.600,Mi 9T,1573646525609.375,-0.094,-9.123,-2.755,41.4649799,15.52982,False,8.718
2019-11-13 12:02:05.620,Mi 9T,1573646525628.7,-0.093,-9.587,-3.534,41.4649799,15.52982,False,8.718
2019-11-13 12:02:05.640,Mi 9T,1573646525649.7778,-0.659,-8.839,-2.631,41.4649799,15.52982,False,8.718
2019-11-13 12:02:05.660,Mi 9T,1573646525669.0,-1.041,-8.686,-3.391,41.4649799,15.52982,False,8.718
2019-11-13 12:02:05.680,Mi 9T,1573646525690.111,-0.48,-8.933,-4.063,41.4649799,15.52982,False,8.718
2019-11-13 12:02:05.700,Mi 9T,1573646525709.2222,-0.088,-8.622,-3.391,41.4649799,15.52982,False,8.718
2019-11-13 12:02:05.720,Mi 9T,1573646525729.5,-0.558,-9.654,-3.435,41.4649799,15.52982,False,8.718
2019-11-13 12:02:05.740,Mi 9T,1573646525751.125,-0.851,-9.41,-2.003,41.4649799,15.52982,False,8.718
2019-11-13 12:02:05.760,Mi 9T,1573646525769.0,-0.596,-9.812,-2.861,41.4649799,15.52982,False,8.718
2019-11-13 12:02:05.780,Mi 9T,1573646525788.7273,0.385,-9.718,-3.061,41.4649799,15.52982,False,8.718
2019-11-13 12:02:05.800,Mi 9T,1573646525809.3,0.572,-9.466,-3.14,41.4649799,15.52982,False,8.718
2019-11-13 12:02:05.820,Mi 9T,1573646525828.125,-0.375,-8.499,-3.019,41.4649799,15.52982,False,8.718
2019-11-13 12:02:05.840,Mi 9T,1573646525849.1,-0.538,-9.036,-3.353,41.4649799,15.52982,False,8.718
2019-11-13 12:02:05.860,Mi 9T,1573646525868.889,-0.385,-8.92,-3.249,41.4649799,15.52982,False,8.718
2019-11-13 12:02:05.880,Mi 9T,1573646525890.7778,0.071,-9.775,-2.771,41.4649799,15.52982,False,8.718
2019-11-13 12:02:05.900,Mi 9T,1573646525908.25,-0.392,-9.552,-2.114,41.4649799,15.52982,False,8.718
2019-11-13 12:02:05.920,Mi 9T,1573646525929.5557,-0.734,-10.058,-2.397,41.4649799,15.52982,False,8.718
2019-11-13 12:02:05.940,Mi 9T,1573646525950.125,-0.369,-9.434,-2.515,41.4649799,15.52982,False,8.718
2019-11-13 12:02:05.960,Mi 9T,1573646525968.4,0.055,-10.304,-3.596,41.4649799,15.52982,False,8.718
2019-11-13 12:02:05.980,Mi 9T,1573646525988.3,0.144,-8.803,-2.846,41.4649799,15.52982,False,8.718
2019-11-13 12:02:06.000,Mi 9T,1573646526010.0,0.168,-9.497,-3.474,41.4649799,15.52982,False,8.718
2019-11-13 12:02:06.020,Mi 9T,1573646526029.5,-0.001,-9.079,-2.502,41.4649799,15.52982,False,8.718
2019-11-13 12:02:06.040,Mi 9T,1573646526047.375,-0.045,-9.881,-3.294,41.4649799,15.52982,False,8.718
2019-11-13 12:02:06.060,Mi 9T,1573646526068.25,-0.038,-9.31,-2.443,41.4649799,15.52982,False,8.718
2019-11-13 12:02:06.080,Mi 9T,1573646526089.875,0.169,-9.951,-3.193,41.4649799,15.52982,False,8.718
2019-11-13 12:02:06.100,Mi 9T,1573646526108.8,0.802,-9.096,-2.856,41.4649799,15.52982,False,8.718
2019-11-13 12:02:06.120,Mi 9T,1573646526128.6,0.981,-9.681,-3.128,41.4649799,15.52982,False,8.718
2019-11-13 12:02:06.140,Mi 9T,1573646526148.2222,0.388,-9.062,-3.044,41.4649799,15.52982,False,8.718
2019-11-13 12:02:06.160,Mi 9T,1573646526171.4285,0.291,-9.423,-3.177,41.4649799,15.52982,False,8.718
2019-11-13 12:02:06.180,Mi 9T,1573646526189.889,-0.065,-8.708,-3.119,41.4649799,15.52982,False,8.718
2019-11-13 12:02:06.200,Mi 9T,1573646526209.889,0.23,-9.77,-3.338,41.465065,15.5298348,False,9.646
2019-11-13 12:02:06.220,Mi 9T,1573646526229.0,-0.015,-9.207,-2.463,41.465065,15.5298348,False,9.646
2019-11-13 12:02:06.240,Mi 9T,1573646526249.3,0.343,-9.633,-2.161,41.465065,15.5298348,False,9.646
2019-11-13 12:02:06.260,Mi 9T,1573646526268.2222,0.46,-10.205,-3.004,41.465065,15.5298348,False,9.646
2019-11-13 12:02:06.280,Mi 9T,1573646526288.5,0.94,-9.111,-1.624,41.465065,15.5298348,False,9.646
2019-11-13 12:02:06.300,Mi 9T,1573646526310.1667,0.264,-9.069,-2.756,41.465065,15.5298348,False,9.646
2019-11-13 12:02:06.320,Mi 9T,1573646526329.7144,0.343,-9.367,-2.793,41.465065,15.5298348,False,9.646
2019-11-13 12:02:06.340,Mi 9T,1573646526348.7778,0.326,-8.213,-2.353,41.465065,15.5298348,False,9.646
2019-11-13 12:02:06.360,Mi 9T,1573646526368.5715,0.519,-10.113,-3.042,41.465065,15.5298348,False,9.646
2019-11-13 12:02:06.380,Mi 9T,1573646526389.5557,0.244,-9.709,-1.816,41.465065,15.5298348,False,9.646
2019-11-13 12:02:06.400,Mi 9T,1573646526409.2222,0.295,-9.673,-1.29,41.465065,15.5298348,False,9.646
