UTC_timestamp,device_name,timestamp,x,y,z,lat,long,event,speed
2019-11-13 11:59:28.560,Mi 9T,1573646368569.2222,-1.723,-9.508,0.311,41.4566074,15.529466,False,5.47
2019-11-13 11:59:28.580,Mi 9T,1573646368589.7,-1.9,-8.934,-0.027,41.4566074,15.529466,False,5.47
2019-11-13 11:59:28.600,Mi 9T,1573646368609.375,1.128,-10.434,-2.054,41.4566074,15.529466,False,5.47
2019-11-13 11:59:28.620,Mi 9T,1573646368629.4,2.879,-10.144,-2.332,41.4566074,15.529466,False,5.47
2019-11-13 11:59:28.640,Mi 9T,1573646368650.6667,2.891,-10.042,-0.85,41.4566074,15.529466,False,5.47
2019-11-13 11:59:28.660,Mi 9T,1573646368670.3333,-0.462,-11.507,-2.449,41.4566074,15.529466,False,5.47
2019-11-13 11:59:28.680,Mi 9T,1573646368689.8,-3.514,-7.749,-0.584,41.4566074,15.529466,False,5.47
2019-11-13 11:59:28.700,Mi 9T,1573646368709.111,-1.31,-8.914,-2.093,41.4566074,15.529466,False,5.47
2019-11-13 11:59:28.720,Mi 9T,1573646368729.6667,2.642,-9.772,-2.074,41.4566074,15.529466,False,5.47
2019-11-13 11:59:28.740,Mi 9T,1573646368749.111,2.478,-11.073,-2.488,41.4566074,15.529466,False,5.47
2019-11-13 11:59:28.760,Mi 9T,1573646368768.4,0.491,-9.268,-0.118,41.4566074,15.529466,False,5.47
2019-11-13 11:59:28.780,Mi 9T,1573646368788.111,-1.233,-9.682,0.172,41.4566074,15.529466,False,5.47
2019-11-13 11:59:28.800,Mi 9T,1573646368808.4,-1.923,-9.712,-1.822,41.4566074,15.529466,False,5.47
2019-11-13 11:59:28.820,Mi 9T,1573646368828.4,0.291,-8.879,-1.054,41.4566074,15.529466,False,5.47
2019-11-13 11:59:28.840,Mi 9T,1573646368848.3333,1.216,-9.219,-2.031,41.4566074,15.529466,False,5.47
2019-11-13 11:59:28.860,Mi 9T,1573646368868.4,0.593,-9.523,-1.296,41.4566074,15.529466,False,5.47
2019-11-13 11:59:28.880,Mi 9T,1573646368889.25,-1.251,-9.634,-0.681,41.4566074,15.529466,False,5.47
2019-11-13 11:59:28.900,Mi 9T,1573646368907.7778,-1.531,-9.328,0.075,41.4566074,15.529466,False,5.47
2019-11-13 11:59:28.920,Mi 9T,1573646368930.375,-0.34,-9.343,-0.623,41.4566074,15.529466,False,5.47
2019-11-13 11:59:28.940,Mi 9T,1573646368949.889,0.69,-10.292,-1.139,41.4566074,15.529466,False,5.47
2019-11-13 11:59:28.960,Mi 9T,1573646368969.0,0.394,-10.257,-0.387,41.4566074,15.529466,False,5.47
2019-11-13 11:59:28.980,Mi 9T,1573646368989.0,-0.69,-10.061,0.045,41.4566074,15.529466,False,5.47
2019-11-13 11:59:29.000,Mi 9T,1573646369010.111,-1.491,-10.104,-0.374,41.4566074,15.529466,False,5.47
2019-11-13 11:59:29.020,Mi 9T,1573646369029.2222,-1.25,-9.536,-0.858,41.4566074,15.529466,False,5.47
2019-11-13 11:59:29.040,Mi 9T,1573646369049.5,-0.237,-9.659,-1.014,41.4566074,15.529466,False,5.47
2019-11-13 11:59:29.060,Mi 9T,1573646369068.125,-0.016,-9.97,-0.944,41.4566074,15.529466,False,5.47
2019-11-13 11:59:29.080,Mi 9T,1573646369089.5,-0.368,-9.709,-0.01,41.4566074,15.529466,False,5.47
2019-11-13 11:59:29.100,Mi 9T,1573646369109.5,-1.325,-9.766,-0.388,41.4566074,15.529466,False,5.47
2019-11-13 11:59:29.120,Mi 9T,1573646369129.0,-1.105,-9.229,0.287,41.4566074,15.529466,False,5.47
2019-11-13 11:59:29.140,Mi 9T,1573646369150.5557,-0.447,-9.854,-0.553,41.4566074,15.529466,False,5.47
2019-11-13 11:59:29.160,Mi 9T,1573646369170.1428,0.216,-10.22,-0.076,41.4566074,15.529466,False,5.47
2019-11-13 11:59:29.180,Mi 9T,1573646369188.5,-0.019,-10.148,0.088,41.4566074,15.529466,False,5.47
2019-11-13 11:59:29.200,Mi 9T,1573646369208.7144,-0.768,-9.889,0.109,41.4565611,15.5293334,False,7.283
2019-11-13 11:59:29.220,Mi 9T,1573646369227.889,-1.202,-9.609,-0.632,41.4565534,15.5293113,False,7.585
2019-11-13 11:59:29.240,Mi 9T,1573646369249.7273,-0.403,-9.466,-0.764,41.4565534,15.5293113,False,7.585
2019-11-13 11:59:29.260,Mi 9T,1573646369269.5,0.54,-9.922,-0.569,41.4565534,15.5293113,False,7.585
2019-11-13 11:59:29.280,Mi 9T,1573646369288.889,0.384,-10.022,-0.607,41.4565534,15.5293113,False,7.585
2019-11-13 11:59:29.300,Mi 9T,1573646369307.8572,-0.071,-9.772,0.391,41.4565534,15.5293113,False,7.585
2019-11-13 11:59:29.320,Mi 9T,1573646369328.0,-0.973,-9.829,-0.449,41.4565534,15.5293113,False,7.585
2019-11-13 11:59:29.340,Mi 9T,1573646369348.889,-0.732,-9.546,-0.121,41.4565534,15.5293113,False,7.585
2019-11-13 11:59:29.360,Mi 9T,1573646369368.8,-0.152,-9.782,-0.784,41.4565534,15.5293113,False,7.585
2019-11-13 11:59:29.380,Mi 9T,1573646369389.5715,0.287,-9.836,0.369,41.4565534,15.5293113,False,7.585
2019-11-13 11:59:29.400,Mi 9T,1573646369408.5,0.008,-9.935,0.227,41.4565534,15.5293113,False,7.585
2019-11-13 11:59:29.420,Mi 9T,1573646369431.125,-0.082,-9.688,-0.237,41.4565534,15.5293113,False,7.585
2019-11-13 11:59:29.440,Mi 9T,1573646369449.2856,-0.095,-9.434,-0.323,41.4565534,15.5293113,False,7.585
2019-11-13 11:59:29.460,Mi 9T,1573646369470.5715,-0.334,-9.512,0.183,41.4565534,15.5293113,False,7.585
2019-11-13 11:59:29.480,Mi 9T,1573646369489.7144,-0.778,-9.875,0.177,41.4565534,15.5293113,False,7.585
2019-11-13 11:59:29.500,Mi 9T,1573646369510.125,-0.85,-9.864,0.53,41.4565534,15.5293113,False,7.585
2019-11-13 11:59:29.520,Mi 9T,1573646369529.2856,-0.577,-9.689,0.517,41.4565534,15.5293113,False,7.585
2019-11-13 11:59:29.540,Mi 9T,1573646369549.0,-0.101,-10.315,0.381,41.4565534,15.5293113,False,7.585
2019-11-13 11:59:29.560,Mi 9T,1573646369568.5,-0.245,-9.446,0.637,41.4565534,15.5293113,False,7.585
2019-11-13 11:59:29.580,Mi 9T,1573646369588.3,-0.336,-10.289,0.417,41.4565534,15.5293113,False,7.585
2019-11-13 11:59:29.600,Mi 9T,1573646369609.6667,-0.813,-9.424,1.659,41.4565534,15.5293113,False,7.585
2019-11-13 11:59:29.620,Mi 9T,1573646369629.75,-1.024,-9.744,1.586,41.4565534,15.5293113,False,7.585
2019-11-13 11:59:29.640,Mi 9T,1573646369648.25,-0.768,-9.631,1.884,41.4565534,15.5293113,False,7.585
2019-11-13 11:59:29.660,Mi 9T,1573646369669.625,-0.469,-10.076,1.809,41.4565534,15.5293113,False,7.585
2019-11-13 11:59:29.680,Mi 9T,1573646369689.0,-0.007,-9.149,1.965,41.4565534,15.5293113,False,7.585
2019-11-13 11:59:29.700,Mi 9T,1573646369708.5,-0.232,-10.368,-0.267,41.4565534,15.5293113,False,7.585
2019-11-13 11:59:29.720,Mi 9T,1573646369729.5,-1.072,-9.952,1.092,41.4565534,15.5293113,False,7.585
2019-11-13 11:59:29.740,Mi 9T,1573646369750.0,-1.298,-10.115,1.429,41.4565534,15.5293113,False,7.585
2019-11-13 11:59:29.760,Mi 9T,1573646369770.1667,-0.19,-10.84,0.75,41.4565534,15.5293113,False,7.585
2019-11-13 11:59:29.780,Mi 9T,1573646369789.5454,0.373,-11.095,0.136,41.4565534,15.5293113,False,7.585
2019-11-13 11:59:29.800,Mi 9T,1573646369809.25,-0.53,-10.714,0.594,41.4565534,15.5293113,False,7.585
2019-11-13 11:59:29.820,Mi 9T,1573646369829.0908,-1.668,-9.946,0.92,41.4565534,15.5293113,False,7.585
2019-11-13 11:59:29.840,Mi 9T,1573646369850.0,-1.302,-9.926,-0.293,41.4565534,15.5293113,False,7.585
2019-11-13 11:59:29.860,Mi 9T,1573646369870.1,-0.257,-9.996,0.045,41.4565534,15.5293113,False,7.585
2019-11-13 11:59:29.880,Mi 9T,1573646369889.0,0.595,-9.604,1.284,41.4565534,15.5293113,False,7.585
2019-11-13 11:59:29.900,Mi 9T,1573646369908.1,-0.327,-10.014,-0.057,41.4565534,15.5293113,False,7.585
2019-11-13 11:59:29.920,Mi 9T,1573646369929.111,-1.774,-9.537,0.893,41.4565534,15.5293113,False,7.585
2019-11-13 11:59:29.940,Mi 9T,1573646369949.2727,-2.225,-9.656,1.341,41.4565534,15.5293113,False,7.585
2019-11-13 11:59:29.960,Mi 9T,1573646369969.2222,-0.594,-9.79,0.889,41.4565534,15.5293113,False,7.585
2019-11-13 11:59:29.980,Mi 9T,1573646369988.3,1.335,-10.047,0.938,41.4565534,15.5293113,False,7.585
2019-11-13 11:59:30.000,Mi 9T,1573646370008.4,0.354,-10.745,1.111,41.4565534,15.5293113,False,7.585
2019-11-13 11:59:30.020,Mi 9T,1573646370025.8572,-1.408,-9.222,1.663,41.4565534,15.5293113,False,7.585
2019-11-13 11:59:30.040,Mi 9T,1573646370025.8572,-1.408,-9.222,1.663,41.4565534,15.5293113,False,7.585
2019-11-13 11:59:30.060,Mi 9T,1573646370065.0,-1.875,-9.616,-0.179,41.4565534,15.5293113,True,7.585
2019-11-13 11:59:30.080,Mi 9T,1573646370094.0,0.228,-9.755,-0.212,41.4565534,15.5293113,True,7.585
2019-11-13 11:59:30.100,Mi 9T,1573646370108.111,-0.208,-9.935,0.43,41.4565534,15.5293113,True,7.585
2019-11-13 11:59:30.120,Mi 9T,1573646370129.4443,-1.551,-10.065,0.853,41.4565534,15.5293113,True,7.585
2019-11-13 11:59:30.140,Mi 9T,1573646370150.7778,-2.033,-9.152,1.237,41.4565534,15.5293113,False,7.585
2019-11-13 11:59:30.160,Mi 9T,1573646370168.375,-1.197,-9.365,0.307,41.4565534,15.5293113,False,7.585
2019-11-13 11:59:30.180,Mi 9T,1573646370189.3,-0.246,-9.795,0.219,41.4565501,15.529302,False,7.626
2019-11-13 11:59:30.200,Mi 9T,1573646370209.3,-0.794,-10.189,1.221,41.4565202,15.5292183,False,7.995
2019-11-13 11:59:30.220,Mi 9T,1573646370228.6667,-1.971,-9.609,1.574,41.4565202,15.5292183,False,7.995
2019-11-13 11:59:30.240,Mi 9T,1573646370247.111,-2.165,-9.469,0.522,41.4565202,15.5292183,False,7.995
2019-11-13 11:59:30.260,Mi 9T,1573646370269.1,-1.504,-9.517,-0.028,41.4565202,15.5292183,False,7.995
2019-11-13 11:59:30.280,Mi 9T,1573646370289.5,-1.083,-9.603,0.467,41.4565202,15.5292183,False,7.995
2019-11-13 11:59:30.300,Mi 9T,1573646370310.0,-1.543,-9.85,0.445,41.4565202,15.5292183,False,7.995
2019-11-13 11:59:30.320,Mi 9T,1573646370329.7,-2.1,-10.139,0.528,41.4565202,15.5292183,False,7.995
2019-11-13 11:59:30.340,Mi 9T,1573646370350.0,-2.199,-10.164,0.936,41.4565202,15.5292183,False,7.995
2019-11-13 11:59:30.360,Mi 9T,1573646370369.9,-1.919,-9.913,0.549,41.4565202,15.5292183,False,7.995
2019-11-13 11:59:30.380,Mi 9T,1573646370390.2,-1.601,-10.22,0.286,41.4565202,15.5292183,False,7.995
2019-11-13 11:59:30.400,Mi 9T,1573646370409.75,-1.635,-10.501,0.607,41.4565202,15.5292183,False,7.995
2019-11-13 11:59:30.420,Mi 9T,1573646370430.1428,-2.216,-10.169,1.228,41.4565202,15.5292183,False,7.995
2019-11-13 11:59:30.440,Mi 9T,1573646370448.7144,-2.716,-9.743,0.881,41.4565202,15.5292183,False,7.995
2019-11-13 11:59:30.460,Mi 9T,1573646370468.7144,-2.57,-9.604,0.28,41.4565202,15.5292183,False,7.995
2019-11-13 11:59:30.480,Mi 9T,1573646370489.75,-1.787,-9.941,0.533,41.4565202,15.5292183,False,7.995
2019-11-13 11:59:30.500,Mi 9T,1573646370508.8572,-1.598,-9.562,0.889,41.4565202,15.5292183,False,7.995
2019-11-13 11:59:30.520,Mi 9T,1573646370529.125,-1.91,-10.022,0.32,41.4565202,15.5292183,False,7.995
2019-11-13 11:59:30.540,Mi 9T,1573646370549.625,-2.487,-9.975,0.905,41.4565202,15.5292183,False,7.995
2019-11-13 11:59:30.560,Mi 9T,1573646370569.2,-2.608,-10.296,0.916,41.4565202,15.5292183,False,7.995
2019-11-13 11:59:30.580,Mi 9T,1573646370588.375,-2.151,-9.765,0.812,41.4565202,15.5292183,False,7.995
2019-11-13 11:59:30.600,Mi 9T,1573646370609.3,-1.27,-10.52,0.393,41.4565202,15.5292183,False,7.995
2019-11-13 11:59:30.620,Mi 9T,1573646370629.4443,-0.734,-10.569,1.121,41.4565202,15.5292183,False,7.995
2019-11-13 11:59:30.640,Mi 9T,1573646370649.3,-1.495,-10.537,0.587,41.4565202,15.5292183,False,7.995
2019-11-13 11:59:30.660,Mi 9T,1573646370669.5557,-2.443,-9.584,0.575,41.4565202,15.5292183,False,7.995
2019-11-13 11:59:30.680,Mi 9T,1573646370689.4,-2.402,-9.222,0.115,41.4565202,15.5292183,False,7.995
2019-11-13 11:59:30.700,Mi 9T,1573646370709.8,-1.325,-9.331,-0.081,41.4565202,15.5292183,False,7.995
2019-11-13 11:59:30.720,Mi 9T,1573646370729.7,-0.733,-9.45,0.344,41.4565202,15.5292183,False,7.995
2019-11-13 11:59:30.740,Mi 9T,1573646370748.889,-1.277,-9.704,0.719,41.4565202,15.5292183,False,7.995
2019-11-13 11:59:30.760,Mi 9T,1573646370767.8,-1.996,-10.106,0.658,41.4565202,15.5292183,False,7.995
2019-11-13 11:59:30.780,Mi 9T,1573646370786.625,-2.268,-9.007,1.469,41.4565202,15.5292183,False,7.995
2019-11-13 11:59:30.800,Mi 9T,1573646370807.7778,-1.445,-9.252,0.327,41.4565202,15.5292183,False,7.995
2019-11-13 11:59:30.820,Mi 9T,1573646370830.8,-0.591,-9.803,0.096,41.4565202,15.5292183,False,7.995
2019-11-13 11:59:30.840,Mi 9T,1573646370850.5715,-0.769,-10.117,0.79,41.4565202,15.5292183,False,7.995
2019-11-13 11:59:30.860,Mi 9T,1573646370868.875,-1.617,-9.771,0.808,41.4565202,15.5292183,False,7.995
2019-11-13 11:59:30.880,Mi 9T,1573646370889.0,-2.251,-9.674,0.109,41.4565202,15.5292183,False,7.995
2019-11-13 11:59:30.900,Mi 9T,1573646370908.0,-1.818,-9.202,0.313,41.4565202,15.5292183,False,7.995
2019-11-13 11:59:30.920,Mi 9T,1573646370930.7144,-0.95,-9.818,-0.101,41.4565202,15.5292183,False,7.995
2019-11-13 11:59:30.940,Mi 9T,1573646370949.889,-1.081,-9.723,0.712,41.4565202,15.5292183,False,7.995
2019-11-13 11:59:30.960,Mi 9T,1573646370969.3333,-1.574,-9.67,0.779,41.4565202,15.5292183,False,7.995
2019-11-13 11:59:30.980,Mi 9T,1573646370990.2856,-1.816,-9.588,0.352,41.4565202,15.5292183,False,7.995
2019-11-13 11:59:31.000,Mi 9T,1573646371011.125,-1.993,-9.706,0.485,41.4565202,15.5292183,False,7.995
2019-11-13 11:59:31.020,Mi 9T,1573646371028.5557,-1.596,-9.331,1.215,41.4565202,15.5292183,False,7.995
2019-11-13 11:59:31.040,Mi 9T,1573646371050.5,-0.7,-10.262,0.74,41.4565202,15.5292183,False,7.995
2019-11-13 11:59:31.060,Mi 9T,1573646371069.1428,-0.773,-10.301,1.168,41.4565202,15.5292183,False,7.995
2019-11-13 11:59:31.080,Mi 9T,1573646371089.625,-1.408,-10.237,1.095,41.4565202,15.5292183,False,7.995
2019-11-13 11:59:31.100,Mi 9T,1573646371111.375,-2.122,-9.907,0.486,41.4565202,15.5292183,False,7.995
2019-11-13 11:59:31.120,Mi 9T,1573646371130.125,-1.921,-9.682,0.515,41.4565202,15.5292183,False,7.995
2019-11-13 11:59:31.140,Mi 9T,1573646371149.25,-0.893,-9.636,0.357,41.4565202,15.5292183,False,7.995
2019-11-13 11:59:31.160,Mi 9T,1573646371171.2856,-0.858,-9.74,-0.248,41.4565202,15.5292183,False,7.995
2019-11-13 11:59:31.180,Mi 9T,1573646371189.5,-1.569,-9.5,0.324,41.4565202,15.5292183,False,7.995
2019-11-13 11:59:31.200,Mi 9T,1573646371209.4,-1.995,-9.539,0.257,41.4565202,15.5292183,False,7.995
2019-11-13 11:59:31.220,Mi 9T,1573646371230.6667,-1.674,-9.643,-0.301,41.4565202,15.5292183,False,7.995
2019-11-13 11:59:31.240,Mi 9T,1573646371250.4285,-1.437,-9.953,-0.119,41.4565202,15.5292183,False,7.995
2019-11-13 11:59:31.260,Mi 9T,1573646371269.7144,-1.36,-10.15,-0.158,41.4565202,15.5292183,False,7.995
2019-11-13 11:59:31.280,Mi 9T,1573646371289.0,-1.287,-10.096,-0.521,41.4565202,15.5292183,False,7.995
2019-11-13 11:59:31.300,Mi 9T,1573646371310.0,-1.337,-10.113,-0.822,41.4565202,15.5292183,False,7.995
2019-11-13 11:59:31.320,Mi 9T,1573646371329.125,-1.151,-9.949,-0.666,41.4565202,15.5292183,False,7.995
2019-11-13 11:59:31.340,Mi 9T,1573646371348.2,-1.565,-9.66,-0.991,41.4565202,15.5292183,False,7.995
2019-11-13 11:59:31.360,Mi 9T,1573646371369.3333,-1.978,-9.355,-0.545,41.4565202,15.5292183,False,7.995
2019-11-13 11:59:31.380,Mi 9T,1573646371388.5715,-1.685,-9.192,-0.194,41.4565202,15.5292183,False,7.995
2019-11-13 11:59:31.400,Mi 9T,1573646371408.625,-0.982,-9.193,-0.579,41.4565202,15.5292183,False,7.995
2019-11-13 11:59:31.420,Mi 9T,1573646371432.125,-1.399,-9.326,-0.23,41.4565202,15.5292183,False,7.995
2019-11-13 11:59:31.440,Mi 9T,1573646371451.5,-2.167,-9.686,0.019,41.4565202,15.5292183,False,7.995
2019-11-13 11:59:31.460,Mi 9T,1573646371467.6667,-2.412,-9.479,0.176,41.4565202,15.5292183,False,7.995
2019-11-13 11:59:31.480,Mi 9T,1573646371487.0,-1.83,-9.602,-0.406,41.4565202,15.5292183,False,7.995
2019-11-13 11:59:31.500,Mi 9T,1573646371508.375,-0.893,-10.097,-0.329,41.4565202,15.5292183,False,7.995
2019-11-13 11:59:31.520,Mi 9T,1573646371529.5,-1.041,-10.406,-0.176,41.4565202,15.5292183,False,7.995
2019-11-13 11:59:31.540,Mi 9T,1573646371550.2856,-1.762,-9.894,0.298,41.4565202,15.5292183,False,7.995
