UTC_timestamp,device_name,timestamp,x,y,z,lat,long,event,speed
2019-11-13 10:09:31.120,Mi 9T,1573639771129.5,-0.535,-9.708,0.322,41.4583257,15.5338945,False,0.166
2019-11-13 10:09:31.140,Mi 9T,1573639771148.2222,-0.741,-9.703,0.202,41.4583257,15.5338945,False,0.166
2019-11-13 10:09:31.160,Mi 9T,1573639771169.4,-0.626,-9.84,0.097,41.4583257,15.5338945,False,0.166
2019-11-13 10:09:31.180,Mi 9T,1573639771189.1,-0.56,-9.626,0.281,41.4583257,15.5338945,False,0.166
2019-11-13 10:09:31.200,Mi 9T,1573639771209.2,-0.546,-9.935,-0.087,41.4583257,15.5338945,False,0.166
2019-11-13 10:09:31.220,Mi 9T,1573639771229.3,-0.466,-9.658,0.416,41.4583257,15.5338945,False,0.166
2019-11-13 10:09:31.240,Mi 9T,1573639771249.2,-0.71,-9.948,-0.023,41.4583257,15.5338945,False,0.166
2019-11-13 10:09:31.260,Mi 9T,1573639771269.7,-0.528,-9.677,0.339,41.4583257,15.5338945,False,0.166
2019-11-13 10:09:31.280,Mi 9T,1573639771289.0,-0.496,-9.944,-0.073,41.4583257,15.5338945,False,0.166
2019-11-13 10:09:31.300,Mi 9T,1573639771310.6667,-0.45,-9.754,0.211,41.4583257,15.5338945,False,0.166
2019-11-13 10:09:31.320,Mi 9T,1573639771333.1667,-0.537,-9.72,0.187,41.4583257,15.5338945,False,0.166
2019-11-13 10:09:31.340,Mi 9T,1573639771350.75,-0.697,-9.841,0.168,41.4583257,15.5338945,False,0.166
2019-11-13 10:09:31.360,Mi 9T,1573639771369.0,-0.587,-9.573,0.204,41.4583257,15.5338945,False,0.166
2019-11-13 10:09:31.380,Mi 9T,1573639771389.4443,-0.381,-9.945,-0.067,41.4583257,15.5338945,False,0.166
2019-11-13 10:09:31.400,Mi 9T,1573639771409.8,-0.507,-9.568,0.401,41.4583257,15.5338945,False,0.166
2019-11-13 10:09:31.420,Mi 9T,1573639771429.111,-0.784,-10.067,-0.201,41.4583257,15.5338945,False,0.166
2019-11-13 10:09:31.440,Mi 9T,1573639771450.1,-0.576,-9.652,0.539,41.4583257,15.5338945,False,0.166
2019-11-13 10:09:31.460,Mi 9T,1573639771470.1,-0.523,-9.801,-0.035,41.4583257,15.5338945,False,0.166
2019-11-13 10:09:31.480,Mi 9T,1573639771490.2,-0.395,-9.791,0.108,41.4583257,15.5338945,False,0.166
2019-11-13 10:09:31.500,Mi 9T,1573639771510.4,-0.72,-9.763,0.221,41.4583257,15.5338945,False,0.166
2019-11-13 10:09:31.520,Mi 9T,1573639771530.375,-0.779,-9.834,0.189,41.4583257,15.5338945,False,0.166
2019-11-13 10:09:31.540,Mi 9T,1573639771549.4546,-0.445,-9.719,0.146,41.4583257,15.5338945,False,0.166
2019-11-13 10:09:31.560,Mi 9T,1573639771568.8572,-0.454,-9.94,-0.066,41.4583257,15.5338945,False,0.166
2019-11-13 10:09:31.580,Mi 9T,1573639771588.6,-0.542,-9.628,0.34,41.4583257,15.5338945,False,0.166
2019-11-13 10:09:31.600,Mi 9T,1573639771609.3333,-0.688,-9.959,0.102,41.4583257,15.5338945,False,0.166
2019-11-13 10:09:31.620,Mi 9T,1573639771629.889,-0.575,-9.536,0.442,41.4583257,15.5338945,False,0.166
2019-11-13 10:09:31.640,Mi 9T,1573639771648.6,-0.499,-9.929,-0.295,41.4583257,15.5338945,False,0.166
2019-11-13 10:09:31.660,Mi 9T,1573639771668.8,-0.431,-9.664,0.378,41.4583257,15.5338945,False,0.166
2019-11-13 10:09:31.680,Mi 9T,1573639771689.0,-0.687,-9.781,0.089,41.4583257,15.5338945,False,0.166
2019-11-13 10:09:31.700,Mi 9T,1573639771709.6667,-0.576,-9.888,0.151,41.4583257,15.5338945,False,0.166
2019-11-13 10:09:31.720,Mi 9T,1573639771728.3333,-0.524,-9.714,0.219,41.4583257,15.5338945,False,0.166
2019-11-13 10:09:31.740,Mi 9T,1573639771749.1,-0.495,-9.875,-0.058,41.4583257,15.5338945,False,0.166
2019-11-13 10:09:31.760,Mi 9T,1573639771768.5557,-0.482,-9.677,0.317,41.4583257,15.5338945,False,0.166
2019-11-13 10:09:31.780,Mi 9T,1573639771789.3,-0.787,-9.933,0.052,41.4583257,15.5338945,False,0.166
2019-11-13 10:09:31.800,Mi 9T,1573639771808.0,-0.526,-9.632,0.424,41.4583257,15.5338945,False,0.166
2019-11-13 10:09:31.820,Mi 9T,1573639771830.2222,-0.444,-9.904,-0.056,41.4583257,15.5338945,False,0.166
2019-11-13 10:09:31.840,Mi 9T,1573639771848.625,-0.485,-9.587,0.398,41.4583257,15.5338945,False,0.166
2019-11-13 10:09:31.860,Mi 9T,1573639771869.6,-0.713,-9.809,0.012,41.4583257,15.5338945,False,0.166
2019-11-13 10:09:31.880,Mi 9T,1573639771889.3333,-0.634,-9.781,0.312,41.4583257,15.5338945,False,0.166
2019-11-13 10:09:31.900,Mi 9T,1573639771910.3333,-0.509,-9.657,0.093,41.4583257,15.5338945,False,0.166
2019-11-13 10:09:31.920,Mi 9T,1573639771929.6667,-0.422,-9.917,0.04,41.4583257,15.5338945,False,0.166
2019-11-13 10:09:31.940,Mi 9T,1573639771949.7778,-0.65,-9.623,0.428,41.4583257,15.5338945,False,0.166
2019-11-13 10:09:31.960,Mi 9T,1573639771969.0,-0.722,-9.978,-0.067,41.4583257,15.5338945,False,0.166
2019-11-13 10:09:31.980,Mi 9T,1573639771990.2,-0.437,-9.671,0.336,41.4583257,15.5338945,False,0.166
2019-11-13 10:09:32.000,Mi 9T,1573639772010.4,-0.543,-9.859,-0.069,41.4583257,15.5338945,False,0.166
2019-11-13 10:09:32.020,Mi 9T,1573639772030.4,-0.498,-9.685,0.363,41.4583257,15.5338945,False,0.166
2019-11-13 10:09:32.040,Mi 9T,1573639772050.5,-0.671,-9.895,0.069,41.4583257,15.5338945,False,0.166
2019-11-13 10:09:32.060,Mi 9T,1573639772067.3333,-0.555,-9.526,0.632,41.4583257,15.5338945,False,0.166
2019-11-13 10:09:32.080,Mi 9T,1573639772089.6667,-0.437,-9.737,0.055,41.4583257,15.5338945,False,0.166
2019-11-13 10:09:32.100,Mi 9T,1573639772108.875,-0.505,-9.822,0.176,41.4583257,15.5338945,False,0.166
2019-11-13 10:09:32.120,Mi 9T,1573639772128.8,-0.664,-9.667,0.234,41.4583257,15.5338945,False,0.166
2019-11-13 10:09:32.140,Mi 9T,1573639772147.6667,-0.622,-9.983,0.077,41.4583257,15.5338945,False,0.166
2019-11-13 10:09:32.160,Mi 9T,1573639772169.1,-0.48,-9.573,0.41,41.4583257,15.5338945,False,0.166
2019-11-13 10:09:32.180,Mi 9T,1573639772188.3333,-0.515,-9.972,-0.227,41.4583257,15.5338945,False,0.166
2019-11-13 10:09:32.200,Mi 9T,1573639772207.4443,-0.516,-9.621,0.439,41.4583257,15.5338945,False,0.166
2019-11-13 10:09:32.220,Mi 9T,1573639772231.8,-0.754,-9.746,0.141,41.4583257,15.5338945,False,0.166
2019-11-13 10:09:32.240,Mi 9T,1573639772248.8333,-0.499,-9.777,0.236,41.4583257,15.5338945,False,0.166
2019-11-13 10:09:32.260,Mi 9T,1573639772269.7,-0.438,-9.72,0.177,41.4583257,15.5338945,False,0.166
2019-11-13 10:09:32.280,Mi 9T,1573639772289.8,-0.576,-9.925,0.05,41.4583257,15.5338945,False,0.166
2019-11-13 10:09:32.300,Mi 9T,1573639772310.375,-0.611,-9.63,0.46,41.4583257,15.5338945,False,0.166
2019-11-13 10:09:32.320,Mi 9T,1573639772331.7144,-0.708,-9.931,-0.0,41.4583257,15.5338945,False,0.166
2019-11-13 10:09:32.340,Mi 9T,1573639772350.6667,-0.465,-9.638,0.192,41.4583257,15.5338945,False,0.166
2019-11-13 10:09:32.360,Mi 9T,1573639772369.7144,-0.47,-9.997,-0.06,41.4583257,15.5338945,False,0.166
2019-11-13 10:09:32.380,Mi 9T,1573639772390.5715,-0.604,-9.643,0.4,41.4583257,15.5338945,False,0.166
2019-11-13 10:09:32.400,Mi 9T,1573639772411.0,-0.591,-9.801,0.157,41.4583257,15.5338945,False,0.166
2019-11-13 10:09:32.420,Mi 9T,1573639772430.2856,-0.576,-9.82,0.163,41.4583257,15.5338945,False,0.166
2019-11-13 10:09:32.440,Mi 9T,1573639772449.4,-0.484,-9.575,0.219,41.4583257,15.5338945,False,0.166
2019-11-13 10:09:32.460,Mi 9T,1573639772469.7,-0.537,-10.022,-0.053,41.4583257,15.5338945,False,0.166
2019-11-13 10:09:32.480,Mi 9T,1573639772489.9,-0.605,-9.583,0.484,41.4583257,15.5338945,False,0.166
2019-11-13 10:09:32.500,Mi 9T,1573639772510.0,-0.591,-9.984,-0.084,41.4583257,15.5338945,False,0.166
2019-11-13 10:09:32.520,Mi 9T,1573639772530.0,-0.488,-9.668,0.344,41.4583257,15.5338945,False,0.166
2019-11-13 10:09:32.540,Mi 9T,1573639772550.0,-0.626,-9.717,0.047,41.4583257,15.5338945,False,0.166
2019-11-13 10:09:32.560,Mi 9T,1573639772570.111,-0.545,-9.902,0.044,41.4583257,15.5338945,False,0.166
2019-11-13 10:09:32.580,Mi 9T,1573639772590.2,-0.573,-9.603,0.405,41.4583257,15.5338945,False,0.166
2019-11-13 10:09:32.600,Mi 9T,1573639772603.0,-0.594,-9.557,0.43,41.4583257,15.5338945,False,0.166
2019-11-13 10:09:32.620,Mi 9T,1573639772628.6,-0.538,-9.826,0.134,41.4583257,15.5338945,True,0.166
2019-11-13 10:09:32.640,Mi 9T,1573639772628.6,-0.538,-9.826,0.134,41.4583257,15.5338945,True,0.166
2019-11-13 10:09:32.660,Mi 9T,1573639772669.3635,-0.548,-9.818,0.11,41.4583257,15.5338945,True,0.166
2019-11-13 10:09:32.680,Mi 9T,1573639772690.3333,-0.612,-9.842,0.129,41.4583257,15.5338945,True,0.166
2019-11-13 10:09:32.700,Mi 9T,1573639772708.8,-0.642,-9.738,0.21,41.4583257,15.5338945,True,0.166
2019-11-13 10:09:32.720,Mi 9T,1573639772729.6667,-0.434,-9.723,0.24,41.4583257,15.5338945,False,0.166
2019-11-13 10:09:32.740,Mi 9T,1573639772749.1,-0.572,-9.908,0.022,41.4583257,15.5338945,False,0.166
2019-11-13 10:09:32.760,Mi 9T,1573639772769.2,-0.571,-9.601,0.355,41.4583257,15.5338945,False,0.166
2019-11-13 10:09:32.780,Mi 9T,1573639772789.4,-0.583,-10.015,-0.009,41.4583257,15.5338945,False,0.166
2019-11-13 10:09:32.800,Mi 9T,1573639772809.4443,-0.535,-9.584,0.314,41.4583257,15.5338945,False,0.166
2019-11-13 10:09:32.820,Mi 9T,1573639772831.1428,-0.514,-9.843,-0.047,41.4583253,15.5338941,False,0.152
2019-11-13 10:09:32.840,Mi 9T,1573639772850.4443,-0.596,-9.763,0.258,41.4583243,15.5338931,False,0.116
2019-11-13 10:09:32.860,Mi 9T,1573639772869.5,-0.643,-9.69,0.182,41.4583243,15.5338931,False,0.116
2019-11-13 10:09:32.880,Mi 9T,1573639772889.4,-0.499,-9.961,-0.002,41.4583243,15.5338931,False,0.116
2019-11-13 10:09:32.900,Mi 9T,1573639772910.5,-0.502,-9.598,0.373,41.4583243,15.5338931,False,0.116
2019-11-13 10:09:32.920,Mi 9T,1573639772931.5,-0.579,-9.962,-0.063,41.4583243,15.5338931,False,0.116
2019-11-13 10:09:32.940,Mi 9T,1573639772950.625,-0.579,-9.656,0.388,41.4583243,15.5338931,False,0.116
2019-11-13 10:09:32.960,Mi 9T,1573639772969.4443,-0.694,-9.865,-0.013,41.4583243,15.5338931,False,0.116
2019-11-13 10:09:32.980,Mi 9T,1573639772989.625,-0.46,-9.737,0.197,41.4583243,15.5338931,False,0.116
2019-11-13 10:09:33.000,Mi 9T,1573639773007.889,-0.488,-9.863,0.09,41.4583243,15.5338931,False,0.116
2019-11-13 10:09:33.020,Mi 9T,1573639773029.875,-0.644,-9.839,0.108,41.4583243,15.5338931,False,0.116
2019-11-13 10:09:33.040,Mi 9T,1573639773049.1428,-0.583,-9.636,0.346,41.4583243,15.5338931,False,0.116
2019-11-13 10:09:33.060,Mi 9T,1573639773069.0,-0.6,-9.879,0.051,41.4583243,15.5338931,False,0.116
2019-11-13 10:09:33.080,Mi 9T,1573639773090.0,-0.457,-9.587,0.209,41.4583243,15.5338931,False,0.116
2019-11-13 10:09:33.100,Mi 9T,1573639773110.5,-0.557,-9.989,-0.006,41.4583243,15.5338931,False,0.116
2019-11-13 10:09:33.120,Mi 9T,1573639773129.5557,-0.687,-9.546,0.531,41.4583243,15.5338931,False,0.116
2019-11-13 10:09:33.140,Mi 9T,1573639773149.5557,-0.566,-9.916,-0.039,41.4583243,15.5338931,False,0.116
2019-11-13 10:09:33.160,Mi 9T,1573639773168.111,-0.434,-9.733,0.235,41.4583243,15.5338931,False,0.116
2019-11-13 10:09:33.180,Mi 9T,1573639773188.9,-0.544,-9.682,0.134,41.4583243,15.5338931,False,0.116
2019-11-13 10:09:33.200,Mi 9T,1573639773207.7778,-0.614,-9.913,0.091,41.4583243,15.5338931,False,0.116
2019-11-13 10:09:33.220,Mi 9T,1573639773229.889,-0.637,-9.605,0.403,41.4583243,15.5338931,False,0.116
2019-11-13 10:09:33.240,Mi 9T,1573639773248.8,-0.512,-9.961,-0.127,41.4583243,15.5338931,False,0.116
2019-11-13 10:09:33.260,Mi 9T,1573639773270.25,-0.376,-9.682,0.347,41.4583243,15.5338931,False,0.116
2019-11-13 10:09:33.280,Mi 9T,1573639773289.7778,-0.715,-9.89,0.005,41.4583243,15.5338931,False,0.116
2019-11-13 10:09:33.300,Mi 9T,1573639773310.111,-0.617,-9.756,0.276,41.4583243,15.5338931,False,0.116
2019-11-13 10:09:33.320,Mi 9T,1573639773330.875,-0.563,-9.746,0.092,41.4583243,15.5338931,False,0.116
2019-11-13 10:09:33.340,Mi 9T,1573639773349.4,-0.48,-9.751,0.088,41.4583243,15.5338931,False,0.116
2019-11-13 10:09:33.360,Mi 9T,1573639773368.7778,-0.497,-9.732,0.127,41.4583243,15.5338931,False,0.116
2019-11-13 10:09:33.380,Mi 9T,1573639773389.2856,-0.676,-9.914,0.17,41.4583243,15.5338931,False,0.116
2019-11-13 10:09:33.400,Mi 9T,1573639773407.875,-0.637,-9.594,0.29,41.4583243,15.5338931,False,0.116
2019-11-13 10:09:33.420,Mi 9T,1573639773429.1428,-0.492,-9.96,-0.073,41.4583243,15.5338931,False,0.116
2019-11-13 10:09:33.440,Mi 9T,1573639773450.1667,-0.496,-9.566,0.403,41.4583243,15.5338931,False,0.116
2019-11-13 10:09:33.460,Mi 9T,1573639773470.125,-0.612,-9.991,-0.115,41.4583243,15.5338931,False,0.116
2019-11-13 10:09:33.480,Mi 9T,1573639773490.8333,-0.592,-9.719,0.414,41.4583243,15.5338931,False,0.116
2019-11-13 10:09:33.500,Mi 9T,1573639773510.875,-0.661,-9.761,-0.009,41.4583243,15.5338931,False,0.116
2019-11-13 10:09:33.520,Mi 9T,1573639773527.6667,-0.422,-9.646,0.282,41.4583243,15.5338931,False,0.116
2019-11-13 10:09:33.540,Mi 9T,1573639773547.0,-0.533,-9.827,-0.002,41.4583243,15.5338931,False,0.116
2019-11-13 10:09:33.560,Mi 9T,1573639773567.875,-0.605,-9.769,0.255,41.4583243,15.5338931,False,0.116
2019-11-13 10:09:33.580,Mi 9T,1573639773590.2856,-0.507,-9.621,0.445,41.4583243,15.5338931,False,0.116
2019-11-13 10:09:33.600,Mi 9T,1573639773609.1667,-0.597,-9.955,-0.058,41.4583243,15.5338931,False,0.116
2019-11-13 10:09:33.620,Mi 9T,1573639773628.7,-0.469,-9.63,0.248,41.4583243,15.5338931,False,0.116
2019-11-13 10:09:33.640,Mi 9T,1573639773649.375,-0.603,-9.931,-0.027,41.4583243,15.5338931,False,0.116
2019-11-13 10:09:33.660,Mi 9T,1573639773672.0,-0.588,-9.691,0.409,41.4583243,15.5338931,False,0.116
2019-11-13 10:09:33.680,Mi 9T,1573639773690.4,-0.541,-9.853,-0.05,41.4583243,15.5338931,False,0.116
2019-11-13 10:09:33.700,Mi 9T,1573639773710.5715,-0.495,-9.824,0.217,41.4583243,15.5338931,False,0.116
2019-11-13 10:09:33.720,Mi 9T,1573639773729.7778,-0.647,-9.657,0.098,41.4583243,15.5338931,False,0.116
2019-11-13 10:09:33.740,Mi 9T,1573639773751.75,-0.607,-9.971,-0.018,41.4583243,15.5338931,False,0.116
2019-11-13 10:09:33.760,Mi 9T,1573639773770.8572,-0.595,-9.56,0.408,41.4583243,15.5338931,False,0.116
2019-11-13 10:09:33.780,Mi 9T,1573639773790.111,-0.573,-10.018,-0.179,41.4583243,15.5338931,False,0.116
2019-11-13 10:09:33.800,Mi 9T,1573639773810.3333,-0.435,-9.67,0.43,41.4583243,15.5338931,False,0.116
2019-11-13 10:09:33.820,Mi 9T,1573639773830.875,-0.663,-9.887,0.027,41.4583241,15.5338932,False,0.11
2019-11-13 10:09:33.840,Mi 9T,1573639773849.1,-0.547,-9.625,0.335,41.4583236,15.5338933,False,0.091
2019-11-13 10:09:33.860,Mi 9T,1573639773869.125,-0.599,-9.897,-0.094,41.4583236,15.5338933,False,0.091
2019-11-13 10:09:33.880,Mi 9T,1573639773889.6,-0.532,-9.688,0.221,41.4583236,15.5338933,False,0.091
2019-11-13 10:09:33.900,Mi 9T,1573639773909.6,-0.478,-9.732,0.15,41.4583236,15.5338933,False,0.091
2019-11-13 10:09:33.920,Mi 9T,1573639773928.625,-0.6,-9.892,0.205,41.4583236,15.5338933,False,0.091
2019-11-13 10:09:33.940,Mi 9T,1573639773951.1428,-0.556,-9.651,0.333,41.4583236,15.5338933,False,0.091
2019-11-13 10:09:33.960,Mi 9T,1573639773969.7144,-0.468,-10.039,-0.06,41.4583236,15.5338933,False,0.091
2019-11-13 10:09:33.980,Mi 9T,1573639773990.0,-0.51,-9.535,0.352,41.4583236,15.5338933,False,0.091
2019-11-13 10:09:34.000,Mi 9T,1573639774010.0,-0.687,-9.99,-0.284,41.4583236,15.5338933,False,0.091
2019-11-13 10:09:34.020,Mi 9T,1573639774029.0,-0.582,-9.671,0.416,41.4583236,15.5338933,False,0.091
2019-11-13 10:09:34.040,Mi 9T,1573639774046.8333,-0.603,-9.853,0.054,41.4583236,15.5338933,False,0.091
2019-11-13 10:09:34.060,Mi 9T,1573639774070.5715,-0.41,-9.825,0.141,41.4583236,15.5338933,False,0.091
2019-11-13 10:09:34.080,Mi 9T,1573639774089.8,-0.62,-9.722,0.253,41.4583236,15.5338933,False,0.091
2019-11-13 10:09:34.100,Mi 9T,1573639774111.5,-0.666,-9.86,0.131,41.4583236,15.5338933,False,0.091
