UTC_timestamp,device_name,timestamp,x,y,z,lat,long,event,speed
2019-11-13 10:09:21.960,Mi 9T,1573639761969.625,-0.473,-9.815,-0.021,41.4583326,15.5338939,False,0.086
2019-11-13 10:09:21.980,Mi 9T,1573639761988.2222,-0.623,-9.595,0.121,41.4583326,15.5338939,False,0.086
2019-11-13 10:09:22.000,Mi 9T,1573639762009.5715,-0.666,-9.861,0.055,41.4583326,15.5338939,False,0.086
2019-11-13 10:09:22.020,Mi 9T,1573639762029.8572,-0.487,-9.685,0.404,41.4583326,15.5338939,False,0.086
2019-11-13 10:09:22.040,Mi 9T,1573639762047.7144,-0.501,-10.015,-0.026,41.4583326,15.5338939,False,0.086
2019-11-13 10:09:22.060,Mi 9T,1573639762068.3333,-0.475,-9.646,0.317,41.4583326,15.5338939,False,0.086
2019-11-13 10:09:22.080,Mi 9T,1573639762090.5,-0.655,-9.899,0.03,41.4583326,15.5338939,False,0.086
2019-11-13 10:09:22.100,Mi 9T,1573639762108.0,-0.661,-9.494,0.458,41.4583326,15.5338939,False,0.086
2019-11-13 10:09:22.120,Mi 9T,1573639762128.75,-0.51,-9.826,-0.15,41.4583326,15.5338939,False,0.086
2019-11-13 10:09:22.140,Mi 9T,1573639762150.2856,-0.488,-9.777,0.221,41.4583326,15.5338939,False,0.086
2019-11-13 10:09:22.160,Mi 9T,1573639762169.5557,-0.629,-9.753,0.217,41.4583326,15.5338939,False,0.086
2019-11-13 10:09:22.180,Mi 9T,1573639762191.1428,-0.603,-9.904,0.096,41.4583326,15.5338939,False,0.086
2019-11-13 10:09:22.200,Mi 9T,1573639762208.625,-0.513,-9.677,0.333,41.4583326,15.5338939,False,0.086
2019-11-13 10:09:22.220,Mi 9T,1573639762230.0,-0.586,-9.868,-0.18,41.4583326,15.5338939,False,0.086
2019-11-13 10:09:22.240,Mi 9T,1573639762250.0,-0.483,-9.629,0.417,41.4583326,15.5338939,False,0.086
2019-11-13 10:09:22.260,Mi 9T,1573639762267.5,-0.759,-9.984,-0.038,41.4583326,15.5338939,False,0.086
2019-11-13 10:09:22.280,Mi 9T,1573639762288.8,-0.5,-9.641,0.447,41.4583326,15.5338939,False,0.086
2019-11-13 10:09:22.300,Mi 9T,1573639762310.8572,-0.529,-9.955,-0.226,41.4583326,15.5338939,False,0.086
2019-11-13 10:09:22.320,Mi 9T,1573639762332.6667,-0.542,-9.708,0.269,41.4583326,15.5338939,False,0.086
2019-11-13 10:09:22.340,Mi 9T,1573639762348.5,-0.657,-9.858,-0.147,41.4583326,15.5338939,False,0.086
2019-11-13 10:09:22.360,Mi 9T,1573639762370.125,-0.608,-9.809,0.244,41.4583326,15.5338939,False,0.086
2019-11-13 10:09:22.380,Mi 9T,1573639762389.0,-0.56,-9.732,0.073,41.4583326,15.5338939,False,0.086
2019-11-13 10:09:22.400,Mi 9T,1573639762408.75,-0.412,-9.916,0.1,41.4583326,15.5338939,False,0.086
2019-11-13 10:09:22.420,Mi 9T,1573639762429.9,-0.546,-9.649,0.368,41.4583326,15.5338939,False,0.086
2019-11-13 10:09:22.440,Mi 9T,1573639762450.5557,-0.719,-9.965,-0.179,41.4583326,15.5338939,False,0.086
2019-11-13 10:09:22.460,Mi 9T,1573639762468.4285,-0.542,-9.562,0.504,41.4583326,15.5338939,False,0.086
2019-11-13 10:09:22.480,Mi 9T,1573639762488.5,-0.611,-9.865,-0.145,41.4583326,15.5338939,False,0.086
2019-11-13 10:09:22.500,Mi 9T,1573639762509.8333,-0.412,-9.686,0.27,41.4583326,15.5338939,False,0.086
2019-11-13 10:09:22.520,Mi 9T,1573639762527.25,-0.627,-10.034,-0.064,41.4583326,15.5338939,False,0.086
2019-11-13 10:09:22.540,Mi 9T,1573639762548.7778,-0.649,-9.725,0.423,41.4583326,15.5338939,False,0.086
2019-11-13 10:09:22.560,Mi 9T,1573639762568.5,-0.541,-9.77,-0.002,41.4583326,15.5338939,False,0.086
2019-11-13 10:09:22.580,Mi 9T,1573639762588.7778,-0.55,-9.859,-0.039,41.4583326,15.5338939,False,0.086
2019-11-13 10:09:22.600,Mi 9T,1573639762607.75,-0.591,-9.589,0.231,41.4583326,15.5338939,False,0.086
2019-11-13 10:09:22.620,Mi 9T,1573639762629.0,-0.627,-9.997,0.021,41.4583326,15.5338939,False,0.086
2019-11-13 10:09:22.640,Mi 9T,1573639762650.4443,-0.521,-9.6,0.466,41.4583326,15.5338939,False,0.086
2019-11-13 10:09:22.660,Mi 9T,1573639762669.1428,-0.516,-10.0,-0.253,41.4583326,15.5338939,False,0.086
2019-11-13 10:09:22.680,Mi 9T,1573639762690.0,-0.477,-9.677,0.353,41.4583326,15.5338939,False,0.086
2019-11-13 10:09:22.700,Mi 9T,1573639762711.2856,-0.697,-9.668,0.084,41.4583326,15.5338939,False,0.086
2019-11-13 10:09:22.720,Mi 9T,1573639762731.8572,-0.583,-9.921,0.035,41.4583326,15.5338939,False,0.086
2019-11-13 10:09:22.740,Mi 9T,1573639762750.875,-0.508,-9.659,0.372,41.4583326,15.5338939,False,0.086
2019-11-13 10:09:22.760,Mi 9T,1573639762769.0,-0.493,-10.003,-0.01,41.4583326,15.5338939,False,0.086
2019-11-13 10:09:22.780,Mi 9T,1573639762791.3333,-0.451,-9.612,0.438,41.4583326,15.5338939,False,0.086
2019-11-13 10:09:22.800,Mi 9T,1573639762810.3333,-0.771,-9.934,-0.115,41.4583326,15.5338939,False,0.086
2019-11-13 10:09:22.820,Mi 9T,1573639762830.875,-0.587,-9.653,0.222,41.4583326,15.5338939,False,0.086
2019-11-13 10:09:22.840,Mi 9T,1573639762850.5,-0.5,-9.798,0.046,41.4583326,15.5338939,False,0.086
2019-11-13 10:09:22.860,Mi 9T,1573639762868.875,-0.524,-9.683,0.24,41.4583326,15.5338939,False,0.086
2019-11-13 10:09:22.880,Mi 9T,1573639762891.25,-0.509,-9.767,0.277,41.4583326,15.5338939,False,0.086
2019-11-13 10:09:22.900,Mi 9T,1573639762909.625,-0.605,-9.924,0.197,41.4583326,15.5338939,False,0.086
2019-11-13 10:09:22.920,Mi 9T,1573639762930.875,-0.537,-9.564,0.239,41.4583326,15.5338939,False,0.086
2019-11-13 10:09:22.940,Mi 9T,1573639762950.25,-0.59,-10.014,-0.258,41.4583326,15.5338939,False,0.086
2019-11-13 10:09:22.960,Mi 9T,1573639762969.3333,-0.616,-9.521,0.409,41.4583326,15.5338939,False,0.086
2019-11-13 10:09:22.980,Mi 9T,1573639762990.4285,-0.536,-9.948,-0.012,41.4583326,15.5338939,False,0.086
2019-11-13 10:09:23.000,Mi 9T,1573639763009.1428,-0.452,-9.723,0.346,41.4583326,15.5338939,False,0.086
2019-11-13 10:09:23.020,Mi 9T,1573639763030.8,-0.612,-9.724,0.156,41.4583326,15.5338939,False,0.086
2019-11-13 10:09:23.040,Mi 9T,1573639763049.8,-0.604,-9.886,0.061,41.4583326,15.5338939,False,0.086
2019-11-13 10:09:23.060,Mi 9T,1573639763067.6667,-0.572,-9.694,0.205,41.4583326,15.5338939,False,0.086
2019-11-13 10:09:23.080,Mi 9T,1573639763090.875,-0.54,-9.965,-0.14,41.4583326,15.5338939,False,0.086
2019-11-13 10:09:23.100,Mi 9T,1573639763106.5,-0.45,-9.645,0.367,41.4583326,15.5338939,False,0.086
2019-11-13 10:09:23.120,Mi 9T,1573639763129.875,-0.717,-9.904,0.002,41.4583326,15.5338939,False,0.086
2019-11-13 10:09:23.140,Mi 9T,1573639763151.1667,-0.493,-9.692,0.208,41.4583326,15.5338939,False,0.086
2019-11-13 10:09:23.160,Mi 9T,1573639763170.8333,-0.483,-9.81,0.042,41.4583326,15.5338939,False,0.086
2019-11-13 10:09:23.180,Mi 9T,1573639763188.7778,-0.559,-9.723,0.125,41.4583326,15.5338939,False,0.086
2019-11-13 10:09:23.200,Mi 9T,1573639763209.4,-0.602,-9.798,0.15,41.4583326,15.5338939,False,0.086
2019-11-13 10:09:23.220,Mi 9T,1573639763230.4443,-0.699,-9.982,-0.019,41.4583326,15.5338939,False,0.086
2019-11-13 10:09:23.240,Mi 9T,1573639763250.2222,-0.442,-9.622,0.261,41.4583326,15.5338939,False,0.086
2019-11-13 10:09:23.260,Mi 9T,1573639763271.8572,-0.436,-9.968,-0.048,41.4583326,15.5338939,False,0.086
2019-11-13 10:09:23.280,Mi 9T,1573639763289.1,-0.634,-9.591,0.386,41.4583326,15.5338939,False,0.086
2019-11-13 10:09:23.300,Mi 9T,1573639763309.0,-0.716,-9.897,-0.021,41.4583326,15.5338939,False,0.086
2019-11-13 10:09:23.320,Mi 9T,1573639763330.4443,-0.557,-9.78,0.209,41.4583326,15.5338939,False,0.086
2019-11-13 10:09:23.340,Mi 9T,1573639763349.3,-0.464,-9.69,0.081,41.4583326,15.5338939,False,0.086
2019-11-13 10:09:23.360,Mi 9T,1573639763369.5,-0.454,-9.961,0.054,41.4583326,15.5338939,False,0.086
2019-11-13 10:09:23.380,Mi 9T,1573639763389.6,-0.683,-9.582,0.465,41.4583326,15.5338939,False,0.086
2019-11-13 10:09:23.400,Mi 9T,1573639763409.6,-0.71,-10.001,-0.149,41.4583326,15.5338939,False,0.086
2019-11-13 10:09:23.420,Mi 9T,1573639763428.7778,-0.418,-9.531,0.366,41.4583326,15.5338939,False,0.086
2019-11-13 10:09:23.440,Mi 9T,1573639763440.0,-0.455,-9.955,-0.117,41.4583326,15.5338939,False,0.086
2019-11-13 10:09:23.460,Mi 9T,1573639763470.5,-0.524,-9.755,0.129,41.4583326,15.5338939,True,0.086
2019-11-13 10:09:23.480,Mi 9T,1573639763470.5,-0.524,-9.755,0.129,41.4583326,15.5338939,True,0.086
2019-11-13 10:09:23.500,Mi 9T,1573639763509.182,-0.59,-9.898,0.015,41.4583326,15.5338939,True,0.086
2019-11-13 10:09:23.520,Mi 9T,1573639763530.4,-0.364,-9.671,0.193,41.4583326,15.5338939,True,0.086
2019-11-13 10:09:23.540,Mi 9T,1573639763549.5557,-0.684,-9.933,-0.091,41.4583326,15.5338939,True,0.086
2019-11-13 10:09:23.560,Mi 9T,1573639763567.625,-0.672,-9.592,0.391,41.4583326,15.5338939,False,0.086
2019-11-13 10:09:23.580,Mi 9T,1573639763589.7778,-0.542,-9.979,0.031,41.4583326,15.5338939,False,0.086
2019-11-13 10:09:23.600,Mi 9T,1573639763608.3333,-0.435,-9.585,0.326,41.4583326,15.5338939,False,0.086
2019-11-13 10:09:23.620,Mi 9T,1573639763629.0,-0.575,-9.927,-0.162,41.4583326,15.5338939,False,0.086
2019-11-13 10:09:23.640,Mi 9T,1573639763648.9,-0.664,-9.749,0.329,41.4583326,15.5338939,False,0.086
2019-11-13 10:09:23.660,Mi 9T,1573639763668.8,-0.645,-9.638,0.178,41.4583326,15.5338939,False,0.086
2019-11-13 10:09:23.680,Mi 9T,1573639763689.1,-0.446,-9.984,-0.084,41.4583326,15.5338939,False,0.086
2019-11-13 10:09:23.700,Mi 9T,1573639763709.0,-0.528,-9.577,0.405,41.4583326,15.5338939,False,0.086
2019-11-13 10:09:23.720,Mi 9T,1573639763728.7778,-0.638,-9.983,-0.034,41.4583326,15.5338939,False,0.086
2019-11-13 10:09:23.740,Mi 9T,1573639763749.2,-0.544,-9.628,0.357,41.4583326,15.5338939,False,0.086
2019-11-13 10:09:23.760,Mi 9T,1573639763769.889,-0.615,-9.831,-0.049,41.4583326,15.5338939,False,0.086
2019-11-13 10:09:23.780,Mi 9T,1573639763790.3333,-0.482,-9.762,0.187,41.4583326,15.5338939,False,0.086
2019-11-13 10:09:23.800,Mi 9T,1573639763810.111,-0.557,-9.806,0.169,41.4583326,15.5338939,False,0.086
2019-11-13 10:09:23.820,Mi 9T,1573639763831.625,-0.612,-9.88,0.087,41.4583332,15.5338947,False,0.091
2019-11-13 10:09:23.840,Mi 9T,1573639763849.4,-0.513,-9.675,0.241,41.4583339,15.5338956,False,0.097
2019-11-13 10:09:23.860,Mi 9T,1573639763869.7,-0.605,-9.901,-0.015,41.4583339,15.5338956,False,0.097
2019-11-13 10:09:23.880,Mi 9T,1573639763890.1,-0.544,-9.561,0.243,41.4583339,15.5338956,False,0.097
2019-11-13 10:09:23.900,Mi 9T,1573639763909.111,-0.577,-10.048,-0.076,41.4583339,15.5338956,False,0.097
2019-11-13 10:09:23.920,Mi 9T,1573639763929.6667,-0.567,-9.587,0.459,41.4583339,15.5338956,False,0.097
2019-11-13 10:09:23.940,Mi 9T,1573639763950.1,-0.534,-9.949,-0.105,41.4583339,15.5338956,False,0.097
2019-11-13 10:09:23.960,Mi 9T,1573639763971.111,-0.559,-9.761,0.255,41.4583339,15.5338956,False,0.097
2019-11-13 10:09:23.980,Mi 9T,1573639763990.7778,-0.639,-9.712,0.137,41.4583339,15.5338956,False,0.097
2019-11-13 10:09:24.000,Mi 9T,1573639764010.4,-0.528,-9.88,0.069,41.4583339,15.5338956,False,0.097
2019-11-13 10:09:24.020,Mi 9T,1573639764029.4443,-0.52,-9.676,0.261,41.4583339,15.5338956,False,0.097
2019-11-13 10:09:24.040,Mi 9T,1573639764048.5,-0.601,-9.889,0.014,41.4583339,15.5338956,False,0.097
2019-11-13 10:09:24.060,Mi 9T,1573639764069.125,-0.503,-9.63,0.392,41.4583339,15.5338956,False,0.097
2019-11-13 10:09:24.080,Mi 9T,1573639764087.5,-0.658,-9.973,-0.078,41.4583339,15.5338956,False,0.097
2019-11-13 10:09:24.100,Mi 9T,1573639764110.7,-0.486,-9.672,0.257,41.4583339,15.5338956,False,0.097
2019-11-13 10:09:24.120,Mi 9T,1573639764131.0,-0.579,-9.917,-0.003,41.4583339,15.5338956,False,0.097
2019-11-13 10:09:24.140,Mi 9T,1573639764148.4,-0.596,-9.648,0.385,41.4583339,15.5338956,False,0.097
2019-11-13 10:09:24.160,Mi 9T,1573639764168.6,-0.562,-9.875,-0.032,41.4583339,15.5338956,False,0.097
2019-11-13 10:09:24.180,Mi 9T,1573639764189.1,-0.523,-9.815,0.263,41.4583339,15.5338956,False,0.097
2019-11-13 10:09:24.200,Mi 9T,1573639764207.875,-0.582,-9.72,0.094,41.4583339,15.5338956,False,0.097
2019-11-13 10:09:24.220,Mi 9T,1573639764229.3,-0.566,-9.945,0.005,41.4583339,15.5338956,False,0.097
2019-11-13 10:09:24.240,Mi 9T,1573639764249.3,-0.6,-9.555,0.408,41.4583339,15.5338956,False,0.097
2019-11-13 10:09:24.260,Mi 9T,1573639764270.3333,-0.582,-9.963,-0.164,41.4583339,15.5338956,False,0.097
2019-11-13 10:09:24.280,Mi 9T,1573639764289.111,-0.452,-9.631,0.349,41.4583339,15.5338956,False,0.097
2019-11-13 10:09:24.300,Mi 9T,1573639764309.7778,-0.66,-9.868,-0.021,41.4583339,15.5338956,False,0.097
2019-11-13 10:09:24.320,Mi 9T,1573639764331.125,-0.58,-9.775,0.256,41.4583339,15.5338956,False,0.097
2019-11-13 10:09:24.340,Mi 9T,1573639764350.125,-0.553,-9.839,0.109,41.4583339,15.5338956,False,0.097
2019-11-13 10:09:24.360,Mi 9T,1573639764370.875,-0.504,-9.823,0.102,41.4583339,15.5338956,False,0.097
2019-11-13 10:09:24.380,Mi 9T,1573639764389.5,-0.511,-9.734,0.159,41.4583339,15.5338956,False,0.097
2019-11-13 10:09:24.400,Mi 9T,1573639764411.0,-0.746,-9.904,0.079,41.4583339,15.5338956,False,0.097
2019-11-13 10:09:24.420,Mi 9T,1573639764430.875,-0.56,-9.582,0.302,41.4583339,15.5338956,False,0.097
2019-11-13 10:09:24.440,Mi 9T,1573639764450.8333,-0.42,-9.976,-0.082,41.4583339,15.5338956,False,0.097
2019-11-13 10:09:24.460,Mi 9T,1573639764470.6667,-0.505,-9.571,0.396,41.4583339,15.5338956,False,0.097
2019-11-13 10:09:24.480,Mi 9T,1573639764490.4285,-0.729,-9.991,-0.151,41.4583339,15.5338956,False,0.097
2019-11-13 10:09:24.500,Mi 9T,1573639764512.125,-0.618,-9.774,0.333,41.4583339,15.5338956,False,0.097
2019-11-13 10:09:24.520,Mi 9T,1573639764531.125,-0.493,-9.74,0.039,41.4583339,15.5338956,False,0.097
2019-11-13 10:09:24.540,Mi 9T,1573639764550.25,-0.388,-9.825,0.132,41.4583339,15.5338956,False,0.097
2019-11-13 10:09:24.560,Mi 9T,1573639764568.5715,-0.66,-9.892,0.048,41.4583339,15.5338956,False,0.097
2019-11-13 10:09:24.580,Mi 9T,1573639764588.4443,-0.692,-9.762,0.347,41.4583339,15.5338956,False,0.097
2019-11-13 10:09:24.600,Mi 9T,1573639764608.9,-0.459,-9.641,0.199,41.4583339,15.5338956,False,0.097
2019-11-13 10:09:24.620,Mi 9T,1573639764628.9,-0.525,-9.937,-0.152,41.4583339,15.5338956,False,0.097
2019-11-13 10:09:24.640,Mi 9T,1573639764649.25,-0.564,-9.563,0.379,41.4583339,15.5338956,False,0.097
2019-11-13 10:09:24.660,Mi 9T,1573639764669.25,-0.643,-9.994,0.05,41.4583339,15.5338956,False,0.097
2019-11-13 10:09:24.680,Mi 9T,1573639764688.8,-0.555,-9.612,0.401,41.4583339,15.5338956,False,0.097
2019-11-13 10:09:24.700,Mi 9T,1573639764709.6365,-0.48,-9.856,-0.039,41.4583339,15.5338956,False,0.097
2019-11-13 10:09:24.720,Mi 9T,1573639764730.7,-0.602,-9.825,0.213,41.4583339,15.5338956,False,0.097
2019-11-13 10:09:24.740,Mi 9T,1573639764750.25,-0.676,-9.7,0.195,41.4583339,15.5338956,False,0.097
2019-11-13 10:09:24.760,Mi 9T,1573639764769.5557,-0.519,-9.913,0.081,41.4583339,15.5338956,False,0.097
2019-11-13 10:09:24.780,Mi 9T,1573639764790.75,-0.461,-9.598,0.373,41.4583339,15.5338956,False,0.097
2019-11-13 10:09:24.800,Mi 9T,1573639764809.5,-0.6,-9.921,-0.099,41.4583339,15.5338956,False,0.097
2019-11-13 10:09:24.820,Mi 9T,1573639764831.0,-0.569,-9.631,0.385,41.4583339,15.5338956,False,0.097
2019-11-13 10:09:24.840,Mi 9T,1573639764849.4,-0.687,-9.863,-0.014,41.4583339,15.5338956,False,0.097
2019-11-13 10:09:24.860,Mi 9T,1573639764870.4443,-0.435,-9.707,0.24,41.4583339,15.5338956,False,0.097
2019-11-13 10:09:24.880,Mi 9T,1573639764889.111,-0.526,-9.947,-0.015,41.4583339,15.5338956,False,0.097
2019-11-13 10:09:24.900,Mi 9T,1573639764909.3,-0.595,-9.746,0.361,41.4583339,15.5338956,False,0.097
2019-11-13 10:09:24.920,Mi 9T,1573639764929.8572,-0.581,-9.761,0.135,41.4583339,15.5338956,False,0.097
2019-11-13 10:09:24.940,Mi 9T,1573639764950.0,-0.61,-9.871,0.037,41.4583339,15.5338956,False,0.097
