UTC_timestamp,device_name,timestamp,x,y,z,lat,long,event,speed
2019-11-13 10:08:23.920,Mi 9T,1573639703929.4,-4.474,-9.924,0.026,41.4554714,15.5366588,False,6.11
2019-11-13 10:08:23.940,Mi 9T,1573639703949.3,-3.157,-9.788,1.297,41.4554714,15.5366588,False,6.11
2019-11-13 10:08:23.960,Mi 9T,1573639703969.111,-1.174,-10.48,0.689,41.4554714,15.5366588,False,6.11
2019-11-13 10:08:23.980,Mi 9T,1573639703989.7,-0.613,-10.591,0.164,41.4554714,15.5366588,False,6.11
2019-11-13 10:08:24.000,Mi 9T,1573639704010.0,-2.353,-9.487,0.236,41.4554714,15.5366588,False,6.11
2019-11-13 10:08:24.020,Mi 9T,1573639704030.0,-3.842,-9.899,-0.137,41.4554714,15.5366588,False,6.11
2019-11-13 10:08:24.040,Mi 9T,1573639704049.111,-3.455,-9.083,0.657,41.4554714,15.5366588,False,6.11
2019-11-13 10:08:24.060,Mi 9T,1573639704068.2856,-1.767,-10.591,-0.581,41.4554714,15.5366588,False,6.11
2019-11-13 10:08:24.080,Mi 9T,1573639704088.0,-1.65,-10.171,0.048,41.4554714,15.5366588,False,6.11
2019-11-13 10:08:24.100,Mi 9T,1573639704108.818,-1.928,-8.898,2.929,41.4554714,15.5366588,False,6.11
2019-11-13 10:08:24.120,Mi 9T,1573639704129.5,-2.928,-9.558,1.257,41.4554714,15.5366588,False,6.11
2019-11-13 10:08:24.140,Mi 9T,1573639704148.0,-4.004,-12.972,-4.314,41.4554714,15.5366588,False,6.11
2019-11-13 10:08:24.160,Mi 9T,1573639704169.4443,-5.276,-5.412,3.226,41.4554714,15.5366588,False,6.11
2019-11-13 10:08:24.180,Mi 9T,1573639704190.3,-3.894,-9.12,-1.23,41.4554714,15.5366588,False,6.11
2019-11-13 10:08:24.200,Mi 9T,1573639704209.8572,-2.931,-11.334,-2.685,41.4554714,15.5366588,False,6.11
2019-11-13 10:08:24.220,Mi 9T,1573639704229.3635,-3.824,-10.521,1.092,41.4554714,15.5366588,False,6.11
2019-11-13 10:08:24.240,Mi 9T,1573639704250.25,-3.504,-9.605,2.346,41.4554714,15.5366588,False,6.11
2019-11-13 10:08:24.260,Mi 9T,1573639704268.6,-2.067,-10.997,0.187,41.4554714,15.5366588,False,6.11
2019-11-13 10:08:24.280,Mi 9T,1573639704290.7144,-2.983,-9.624,-1.143,41.4554714,15.5366588,False,6.11
2019-11-13 10:08:24.300,Mi 9T,1573639704308.3333,-3.741,-9.0,-0.83,41.4554714,15.5366588,False,6.11
2019-11-13 10:08:24.320,Mi 9T,1573639704330.5,-4.51,-9.392,-2.024,41.4554714,15.5366588,False,6.11
2019-11-13 10:08:24.340,Mi 9T,1573639704349.6667,-3.547,-8.165,0.943,41.4554714,15.5366588,False,6.11
2019-11-13 10:08:24.360,Mi 9T,1573639704369.0,-2.498,-10.601,-0.504,41.4554714,15.5366588,False,6.11
2019-11-13 10:08:24.380,Mi 9T,1573639704388.8,-2.271,-9.691,1.618,41.4554714,15.5366588,False,6.11
2019-11-13 10:08:24.400,Mi 9T,1573639704408.889,-3.167,-10.048,-0.174,41.4554714,15.5366588,False,6.11
2019-11-13 10:08:24.420,Mi 9T,1573639704429.6667,-4.361,-9.198,-0.476,41.4554714,15.5366588,False,6.11
2019-11-13 10:08:24.440,Mi 9T,1573639704449.0,-5.419,-8.336,-0.536,41.4554714,15.5366588,False,6.11
2019-11-13 10:08:24.460,Mi 9T,1573639704469.5557,-4.221,-9.067,-1.029,41.4554714,15.5366588,False,6.11
2019-11-13 10:08:24.480,Mi 9T,1573639704489.875,-1.889,-9.084,0.53,41.4554714,15.5366588,False,6.11
2019-11-13 10:08:24.500,Mi 9T,1573639704510.4443,-2.28,-10.642,0.059,41.4554714,15.5366588,False,6.11
2019-11-13 10:08:24.520,Mi 9T,1573639704531.125,-4.455,-9.409,1.711,41.4554714,15.5366588,False,6.11
2019-11-13 10:08:24.540,Mi 9T,1573639704550.1428,-5.626,-9.337,-0.375,41.4554714,15.5366588,False,6.11
2019-11-13 10:08:24.560,Mi 9T,1573639704569.25,-4.701,-7.933,-0.227,41.4554714,15.5366588,False,6.11
2019-11-13 10:08:24.580,Mi 9T,1573639704590.375,-2.837,-7.959,-0.836,41.4554714,15.5366588,False,6.11
2019-11-13 10:08:24.600,Mi 9T,1573639704610.3333,-3.101,-9.586,-1.036,41.4554714,15.5366588,False,6.11
2019-11-13 10:08:24.620,Mi 9T,1573639704631.25,-4.527,-9.783,0.723,41.4554714,15.5366588,False,6.11
2019-11-13 10:08:24.640,Mi 9T,1573639704650.889,-3.751,-10.715,2.029,41.4554714,15.5366588,False,6.11
2019-11-13 10:08:24.660,Mi 9T,1573639704669.7,-2.823,-10.29,2.188,41.4554714,15.5366588,False,6.11
2019-11-13 10:08:24.680,Mi 9T,1573639704689.111,-2.951,-10.584,-0.04,41.4554714,15.5366588,False,6.11
2019-11-13 10:08:24.700,Mi 9T,1573639704711.0,-3.716,-9.207,0.387,41.4554714,15.5366588,False,6.11
2019-11-13 10:08:24.720,Mi 9T,1573639704729.3333,-4.001,-9.803,-0.847,41.4554714,15.5366588,False,6.11
2019-11-13 10:08:24.740,Mi 9T,1573639704749.3635,-3.299,-9.808,0.15,41.4554714,15.5366588,False,6.11
2019-11-13 10:08:24.760,Mi 9T,1573639704770.3,-2.198,-9.923,1.386,41.4554714,15.5366588,False,6.11
2019-11-13 10:08:24.780,Mi 9T,1573639704789.3333,-2.546,-10.489,0.937,41.4554714,15.5366588,False,6.11
2019-11-13 10:08:24.800,Mi 9T,1573639704809.5454,-3.717,-9.314,1.08,41.4554714,15.5366588,False,6.11
2019-11-13 10:08:24.820,Mi 9T,1573639704830.0,-4.334,-8.88,-0.467,41.4554612,15.5366166,False,6.171
2019-11-13 10:08:24.840,Mi 9T,1573639704849.4546,-3.65,-8.558,-0.939,41.4554536,15.536585,False,6.217
2019-11-13 10:08:24.860,Mi 9T,1573639704869.4443,-2.182,-8.739,-0.369,41.4554536,15.536585,False,6.217
2019-11-13 10:08:24.880,Mi 9T,1573639704889.5557,-2.377,-10.008,-0.439,41.4554536,15.536585,False,6.217
2019-11-13 10:08:24.900,Mi 9T,1573639704908.7,-3.387,-9.676,1.738,41.4554536,15.536585,False,6.217
2019-11-13 10:08:24.920,Mi 9T,1573639704928.2222,-3.638,-10.008,1.196,41.4554536,15.536585,False,6.217
2019-11-13 10:08:24.940,Mi 9T,1573639704948.3333,-2.694,-10.207,-0.001,41.4554536,15.536585,False,6.217
2019-11-13 10:08:24.960,Mi 9T,1573639704970.2222,-2.838,-9.204,-0.25,41.4554536,15.536585,False,6.217
2019-11-13 10:08:24.980,Mi 9T,1573639704989.75,-3.794,-8.463,0.17,41.4554536,15.536585,False,6.217
2019-11-13 10:08:25.000,Mi 9T,1573639705009.111,-4.157,-9.356,-1.358,41.4554536,15.536585,False,6.217
2019-11-13 10:08:25.020,Mi 9T,1573639705029.6667,-3.031,-9.467,-0.059,41.4554536,15.536585,False,6.217
2019-11-13 10:08:25.040,Mi 9T,1573639705048.3333,-2.64,-10.773,-0.033,41.4554536,15.536585,False,6.217
2019-11-13 10:08:25.060,Mi 9T,1573639705068.5,-3.431,-9.843,1.747,41.4554536,15.536585,False,6.217
2019-11-13 10:08:25.080,Mi 9T,1573639705089.625,-4.422,-10.411,0.525,41.4554536,15.536585,False,6.217
2019-11-13 10:08:25.100,Mi 9T,1573639705108.5454,-3.937,-9.096,0.134,41.4554536,15.536585,False,6.217
2019-11-13 10:08:25.120,Mi 9T,1573639705131.4285,-3.025,-9.533,-1.064,41.4554536,15.536585,False,6.217
2019-11-13 10:08:25.140,Mi 9T,1573639705150.4443,-3.013,-9.292,-0.361,41.4554536,15.536585,False,6.217
2019-11-13 10:08:25.160,Mi 9T,1573639705168.875,-3.741,-9.347,0.561,41.4554536,15.536585,False,6.217
2019-11-13 10:08:25.180,Mi 9T,1573639705188.9092,-3.409,-9.877,1.007,41.4554536,15.536585,False,6.217
2019-11-13 10:08:25.200,Mi 9T,1573639705209.7,-1.967,-10.444,0.677,41.4554536,15.536585,False,6.217
2019-11-13 10:08:25.220,Mi 9T,1573639705229.6,-1.683,-10.064,0.618,41.4554536,15.536585,False,6.217
2019-11-13 10:08:25.240,Mi 9T,1573639705249.8,-2.942,-9.608,0.106,41.4554536,15.536585,False,6.217
2019-11-13 10:08:25.260,Mi 9T,1573639705270.0,-3.102,-9.471,0.051,41.4554536,15.536585,False,6.217
2019-11-13 10:08:25.280,Mi 9T,1573639705290.0,-2.342,-9.474,0.303,41.4554536,15.536585,False,6.217
2019-11-13 10:08:25.300,Mi 9T,1573639705310.0,-1.784,-10.096,0.205,41.4554536,15.536585,False,6.217
2019-11-13 10:08:25.320,Mi 9T,1573639705331.3333,-2.185,-10.197,0.572,41.4554536,15.536585,False,6.217
2019-11-13 10:08:25.340,Mi 9T,1573639705350.2,-2.308,-9.864,0.915,41.4554536,15.536585,False,6.217
2019-11-13 10:08:25.360,Mi 9T,1573639705369.0,-2.569,-9.859,-0.207,41.4554536,15.536585,False,6.217
2019-11-13 10:08:25.380,Mi 9T,1573639705387.4443,-3.029,-9.253,-0.04,41.4554536,15.536585,False,6.217
2019-11-13 10:08:25.400,Mi 9T,1573639705387.4443,-3.029,-9.253,-0.04,41.4554536,15.536585,False,6.217
2019-11-13 10:08:25.420,Mi 9T,1573639705422.5,-3.307,-9.081,0.333,41.4554536,15.536585,True,6.217
2019-11-13 10:08:25.440,Mi 9T,1573639705454.5,-2.344,-9.824,-0.656,41.4554536,15.536585,True,6.217
2019-11-13 10:08:25.460,Mi 9T,1573639705467.3333,-2.823,-9.558,0.29,41.4554536,15.536585,True,6.217
2019-11-13 10:08:25.480,Mi 9T,1573639705488.4,-4.402,-9.374,0.692,41.4554536,15.536585,True,6.217
2019-11-13 10:08:25.500,Mi 9T,1573639705508.6,-4.075,-9.45,-0.249,41.4554536,15.536585,False,6.217
2019-11-13 10:08:25.520,Mi 9T,1573639705528.8,-2.059,-9.891,0.104,41.4554536,15.536585,False,6.217
2019-11-13 10:08:25.540,Mi 9T,1573639705549.0,-1.842,-9.931,0.013,41.4554536,15.536585,False,6.217
2019-11-13 10:08:25.560,Mi 9T,1573639705569.8,-2.093,-10.295,0.878,41.4554536,15.536585,False,6.217
2019-11-13 10:08:25.580,Mi 9T,1573639705589.3,-3.284,-9.942,0.037,41.4554536,15.536585,False,6.217
2019-11-13 10:08:25.600,Mi 9T,1573639705609.7778,-2.893,-9.414,0.404,41.4554536,15.536585,False,6.217
2019-11-13 10:08:25.620,Mi 9T,1573639705630.25,-2.479,-9.124,-0.314,41.4554536,15.536585,False,6.217
2019-11-13 10:08:25.640,Mi 9T,1573639705649.3333,-1.868,-9.85,-0.655,41.4554536,15.536585,False,6.217
2019-11-13 10:08:25.660,Mi 9T,1573639705669.8,-2.252,-9.654,0.241,41.4554536,15.536585,False,6.217
2019-11-13 10:08:25.680,Mi 9T,1573639705689.2222,-2.324,-10.424,0.303,41.4554536,15.536585,False,6.217
2019-11-13 10:08:25.700,Mi 9T,1573639705710.889,-2.292,-9.747,0.411,41.4554536,15.536585,False,6.217
2019-11-13 10:08:25.720,Mi 9T,1573639705729.5557,-2.108,-9.051,-0.037,41.4554536,15.536585,False,6.217
2019-11-13 10:08:25.740,Mi 9T,1573639705750.7778,-2.557,-8.465,-0.706,41.4554536,15.536585,False,6.217
2019-11-13 10:08:25.760,Mi 9T,1573639705770.1,-2.594,-8.854,-1.239,41.4554536,15.536585,False,6.217
2019-11-13 10:08:25.780,Mi 9T,1573639705789.0,-2.353,-8.968,-0.19,41.4554536,15.536585,False,6.217
2019-11-13 10:08:25.800,Mi 9T,1573639705809.375,-1.766,-10.005,0.004,41.4554536,15.536585,False,6.217
2019-11-13 10:08:25.820,Mi 9T,1573639705831.4285,-1.798,-10.275,1.603,41.4554542,15.536574,False,6.236
2019-11-13 10:08:25.840,Mi 9T,1573639705849.3635,-2.863,-9.651,1.303,41.4554575,15.5365078,False,6.35
2019-11-13 10:08:25.860,Mi 9T,1573639705869.5557,-2.748,-9.815,-0.513,41.4554575,15.5365078,False,6.35
2019-11-13 10:08:25.880,Mi 9T,1573639705888.4,-2.326,-9.274,-1.311,41.4554575,15.5365078,False,6.35
2019-11-13 10:08:25.900,Mi 9T,1573639705908.7,-2.34,-8.943,-0.439,41.4554575,15.5365078,False,6.35
2019-11-13 10:08:25.920,Mi 9T,1573639705929.5557,-2.83,-9.918,-0.747,41.4554575,15.5365078,False,6.35
2019-11-13 10:08:25.940,Mi 9T,1573639705948.9,-2.324,-9.534,1.124,41.4554575,15.5365078,False,6.35
2019-11-13 10:08:25.960,Mi 9T,1573639705969.0,-2.344,-10.61,0.448,41.4554575,15.5365078,False,6.35
2019-11-13 10:08:25.980,Mi 9T,1573639705988.9,-2.28,-10.221,0.726,41.4554575,15.5365078,False,6.35
2019-11-13 10:08:26.000,Mi 9T,1573639706009.0,-2.516,-10.095,-0.3,41.4554575,15.5365078,False,6.35
2019-11-13 10:08:26.020,Mi 9T,1573639706029.2,-2.207,-9.589,-0.07,41.4554575,15.5365078,False,6.35
2019-11-13 10:08:26.040,Mi 9T,1573639706049.5,-2.185,-9.968,-0.26,41.4554575,15.5365078,False,6.35
2019-11-13 10:08:26.060,Mi 9T,1573639706068.75,-2.18,-10.37,0.585,41.4554575,15.5365078,False,6.35
2019-11-13 10:08:26.080,Mi 9T,1573639706089.3,-2.935,-10.061,1.016,41.4554575,15.5365078,False,6.35
2019-11-13 10:08:26.100,Mi 9T,1573639706109.2222,-2.383,-10.218,0.744,41.4554575,15.5365078,False,6.35
2019-11-13 10:08:26.120,Mi 9T,1573639706129.4,-1.783,-10.09,-0.195,41.4554575,15.5365078,False,6.35
2019-11-13 10:08:26.140,Mi 9T,1573639706150.2222,-1.915,-9.909,-0.078,41.4554575,15.5365078,False,6.35
2019-11-13 10:08:26.160,Mi 9T,1573639706169.7,-2.751,-9.227,0.268,41.4554575,15.5365078,False,6.35
2019-11-13 10:08:26.180,Mi 9T,1573639706189.3333,-2.396,-9.452,-0.104,41.4554575,15.5365078,False,6.35
2019-11-13 10:08:26.200,Mi 9T,1573639706210.25,-2.154,-9.205,0.065,41.4554575,15.5365078,False,6.35
2019-11-13 10:08:26.220,Mi 9T,1573639706229.5557,-2.591,-9.582,-0.217,41.4554575,15.5365078,False,6.35
2019-11-13 10:08:26.240,Mi 9T,1573639706250.3333,-2.955,-9.117,0.057,41.4554575,15.5365078,False,6.35
2019-11-13 10:08:26.260,Mi 9T,1573639706270.1,-2.291,-9.515,-0.536,41.4554575,15.5365078,False,6.35
2019-11-13 10:08:26.280,Mi 9T,1573639706289.875,-2.071,-9.857,-0.052,41.4554575,15.5365078,False,6.35
2019-11-13 10:08:26.300,Mi 9T,1573639706309.2727,-2.739,-10.094,0.551,41.4554575,15.5365078,False,6.35
2019-11-13 10:08:26.320,Mi 9T,1573639706331.2856,-3.002,-10.25,0.523,41.4554575,15.5365078,False,6.35
2019-11-13 10:08:26.340,Mi 9T,1573639706348.3,-2.059,-10.381,-0.048,41.4554575,15.5365078,False,6.35
2019-11-13 10:08:26.360,Mi 9T,1573639706368.111,-1.538,-10.016,0.192,41.4554575,15.5365078,False,6.35
2019-11-13 10:08:26.380,Mi 9T,1573639706388.5,-3.021,-9.461,-0.025,41.4554575,15.5365078,False,6.35
2019-11-13 10:08:26.400,Mi 9T,1573639706409.4546,-3.823,-8.876,-0.117,41.4554575,15.5365078,False,6.35
2019-11-13 10:08:26.420,Mi 9T,1573639706429.6667,-3.257,-9.102,-0.637,41.4554575,15.5365078,False,6.35
2019-11-13 10:08:26.440,Mi 9T,1573639706449.4443,-1.781,-9.682,-0.037,41.4554575,15.5365078,False,6.35
2019-11-13 10:08:26.460,Mi 9T,1573639706469.3,-1.699,-10.313,0.373,41.4554575,15.5365078,False,6.35
2019-11-13 10:08:26.480,Mi 9T,1573639706490.0,-1.83,-10.786,0.853,41.4554575,15.5365078,False,6.35
2019-11-13 10:08:26.500,Mi 9T,1573639706508.2222,-2.424,-10.406,1.014,41.4554575,15.5365078,False,6.35
2019-11-13 10:08:26.520,Mi 9T,1573639706529.889,-3.141,-10.395,-0.469,41.4554575,15.5365078,False,6.35
2019-11-13 10:08:26.540,Mi 9T,1573639706549.1,-3.108,-9.214,0.295,41.4554575,15.5365078,False,6.35
2019-11-13 10:08:26.560,Mi 9T,1573639706567.5,-2.69,-9.458,-0.766,41.4554575,15.5365078,False,6.35
2019-11-13 10:08:26.580,Mi 9T,1573639706590.0,-1.31,-10.216,0.162,41.4554575,15.5365078,False,6.35
2019-11-13 10:08:26.600,Mi 9T,1573639706609.5,-2.26,-9.798,0.614,41.4554575,15.5365078,False,6.35
2019-11-13 10:08:26.620,Mi 9T,1573639706629.3,-3.143,-9.718,0.731,41.4554575,15.5365078,False,6.35
2019-11-13 10:08:26.640,Mi 9T,1573639706649.2222,-3.125,-8.339,0.068,41.4554575,15.5365078,False,6.35
2019-11-13 10:08:26.660,Mi 9T,1573639706669.2,-1.975,-9.207,-1.598,41.4554575,15.5365078,False,6.35
2019-11-13 10:08:26.680,Mi 9T,1573639706689.6,-1.892,-8.98,-0.944,41.4554575,15.5365078,False,6.35
2019-11-13 10:08:26.700,Mi 9T,1573639706708.7778,-2.384,-8.644,0.502,41.4554575,15.5365078,False,6.35
2019-11-13 10:08:26.720,Mi 9T,1573639706730.0,-2.372,-9.883,-0.018,41.4554575,15.5365078,False,6.35
2019-11-13 10:08:26.740,Mi 9T,1573639706749.6,-1.876,-9.691,0.89,41.4554575,15.5365078,False,6.35
2019-11-13 10:08:26.760,Mi 9T,1573639706768.25,-1.777,-9.714,0.398,41.4554575,15.5365078,False,6.35
2019-11-13 10:08:26.780,Mi 9T,1573639706788.0,-1.996,-9.488,0.246,41.4554575,15.5365078,False,6.35
2019-11-13 10:08:26.800,Mi 9T,1573639706809.0,-2.45,-9.653,-0.833,41.4554575,15.5365078,False,6.35
2019-11-13 10:08:26.820,Mi 9T,1573639706832.125,-2.213,-9.452,-0.028,41.4554575,15.5365078,False,6.35
2019-11-13 10:08:26.840,Mi 9T,1573639706849.9,-2.226,-9.813,0.014,41.4554575,15.5365078,False,6.35
2019-11-13 10:08:26.860,Mi 9T,1573639706869.0,-2.273,-10.555,0.134,41.4554575,15.5365078,False,6.35
2019-11-13 10:08:26.880,Mi 9T,1573639706889.0908,-2.754,-10.012,0.643,41.4554575,15.5365078,False,6.35
2019-11-13 10:08:26.900,Mi 9T,1573639706910.4,-3.093,-9.903,0.243,41.4554575,15.5365078,False,6.35
