UTC_timestamp,device_name,timestamp,x,y,z,lat,long,event,speed
2019-11-13 10:10:18.760,Mi 9T,1573639818766.25,-0.121,-10.167,0.025,41.4574842,15.5312886,False,8.22
2019-11-13 10:10:18.780,Mi 9T,1573639818790.0,-0.132,-9.741,0.8,41.4574842,15.5312886,False,8.22
2019-11-13 10:10:18.800,Mi 9T,1573639818810.0,-0.881,-10.262,0.097,41.4574842,15.5312886,False,8.22
2019-11-13 10:10:18.820,Mi 9T,1573639818830.8572,-1.162,-9.686,0.481,41.4574683,15.5312526,False,8.207
2019-11-13 10:10:18.840,Mi 9T,1573639818848.0,-0.65,-9.342,0.441,41.457447,15.5312047,False,8.19
2019-11-13 10:10:18.860,Mi 9T,1573639818870.111,-0.165,-9.547,-0.221,41.457447,15.5312047,False,8.19
2019-11-13 10:10:18.880,Mi 9T,1573639818890.125,-0.373,-9.328,0.257,41.457447,15.5312047,False,8.19
2019-11-13 10:10:18.900,Mi 9T,1573639818910.4443,-0.988,-9.95,0.265,41.457447,15.5312047,False,8.19
2019-11-13 10:10:18.920,Mi 9T,1573639818928.889,-1.335,-9.979,0.79,41.457447,15.5312047,False,8.19
2019-11-13 10:10:18.940,Mi 9T,1573639818949.0,-0.742,-9.983,0.635,41.457447,15.5312047,False,8.19
2019-11-13 10:10:18.960,Mi 9T,1573639818968.25,-0.201,-10.359,-0.341,41.457447,15.5312047,False,8.19
2019-11-13 10:10:18.980,Mi 9T,1573639818990.4443,-0.502,-9.831,0.244,41.457447,15.5312047,False,8.19
2019-11-13 10:10:19.000,Mi 9T,1573639819009.7778,-1.063,-9.395,0.222,41.457447,15.5312047,False,8.19
2019-11-13 10:10:19.020,Mi 9T,1573639819028.1428,-1.118,-9.81,-0.271,41.457447,15.5312047,False,8.19
2019-11-13 10:10:19.040,Mi 9T,1573639819048.5,-0.65,-9.721,-0.224,41.457447,15.5312047,False,8.19
2019-11-13 10:10:19.060,Mi 9T,1573639819064.4,0.02,-9.624,0.355,41.457447,15.5312047,False,8.19
2019-11-13 10:10:19.080,Mi 9T,1573639819089.2,-0.453,-9.519,0.429,41.457447,15.5312047,False,8.19
2019-11-13 10:10:19.100,Mi 9T,1573639819110.0908,-0.914,-10.434,0.153,41.457447,15.5312047,False,8.19
2019-11-13 10:10:19.120,Mi 9T,1573639819130.75,-1.153,-9.712,1.072,41.457447,15.5312047,False,8.19
2019-11-13 10:10:19.140,Mi 9T,1573639819149.1667,-0.64,-10.538,0.062,41.457447,15.5312047,False,8.19
2019-11-13 10:10:19.160,Mi 9T,1573639819170.3333,-0.148,-10.461,0.183,41.457447,15.5312047,False,8.19
2019-11-13 10:10:19.180,Mi 9T,1573639819187.1428,-0.312,-10.264,0.782,41.457447,15.5312047,False,8.19
2019-11-13 10:10:19.200,Mi 9T,1573639819208.7144,-1.124,-10.096,0.343,41.457447,15.5312047,False,8.19
2019-11-13 10:10:19.220,Mi 9T,1573639819229.7144,-0.876,-9.589,0.226,41.457447,15.5312047,False,8.19
2019-11-13 10:10:19.240,Mi 9T,1573639819248.7144,-0.251,-9.366,-0.049,41.457447,15.5312047,False,8.19
2019-11-13 10:10:19.260,Mi 9T,1573639819266.7144,0.213,-9.744,0.055,41.457447,15.5312047,False,8.19
2019-11-13 10:10:19.280,Mi 9T,1573639819287.5715,-0.319,-9.378,0.69,41.457447,15.5312047,False,8.19
2019-11-13 10:10:19.300,Mi 9T,1573639819309.4285,-1.099,-10.282,0.482,41.457447,15.5312047,False,8.19
2019-11-13 10:10:19.320,Mi 9T,1573639819328.5715,-1.455,-9.608,0.977,41.457447,15.5312047,False,8.19
2019-11-13 10:10:19.340,Mi 9T,1573639819350.0,-0.52,-9.604,0.388,41.457447,15.5312047,False,8.19
2019-11-13 10:10:19.360,Mi 9T,1573639819369.0,-0.058,-10.004,-0.527,41.457447,15.5312047,False,8.19
2019-11-13 10:10:19.380,Mi 9T,1573639819389.111,-0.492,-9.597,0.769,41.457447,15.5312047,False,8.19
2019-11-13 10:10:19.400,Mi 9T,1573639819408.4443,-1.133,-9.331,0.78,41.457447,15.5312047,False,8.19
2019-11-13 10:10:19.420,Mi 9T,1573639819428.75,-0.764,-9.566,0.168,41.457447,15.5312047,False,8.19
2019-11-13 10:10:19.440,Mi 9T,1573639819449.5,-0.038,-9.126,0.16,41.457447,15.5312047,False,8.19
2019-11-13 10:10:19.460,Mi 9T,1573639819469.6667,0.295,-9.003,0.674,41.457447,15.5312047,False,8.19
2019-11-13 10:10:19.480,Mi 9T,1573639819488.5,-0.644,-10.259,-0.41,41.457447,15.5312047,False,8.19
2019-11-13 10:10:19.500,Mi 9T,1573639819509.375,-1.278,-9.513,1.87,41.457447,15.5312047,False,8.19
2019-11-13 10:10:19.520,Mi 9T,1573639819530.5,-0.808,-10.076,1.242,41.457447,15.5312047,False,8.19
2019-11-13 10:10:19.540,Mi 9T,1573639819550.3,0.303,-10.572,0.154,41.457447,15.5312047,False,8.19
2019-11-13 10:10:19.560,Mi 9T,1573639819571.0,0.489,-10.187,0.578,41.457447,15.5312047,False,8.19
2019-11-13 10:10:19.580,Mi 9T,1573639819587.625,-0.841,-10.14,0.728,41.457447,15.5312047,False,8.19
2019-11-13 10:10:19.600,Mi 9T,1573639819609.125,-1.748,-9.867,0.35,41.457447,15.5312047,False,8.19
2019-11-13 10:10:19.620,Mi 9T,1573639819629.7144,-0.788,-9.376,0.709,41.457447,15.5312047,False,8.19
2019-11-13 10:10:19.640,Mi 9T,1573639819649.5,0.352,-9.75,0.111,41.457447,15.5312047,False,8.19
2019-11-13 10:10:19.660,Mi 9T,1573639819669.7778,0.272,-9.609,0.72,41.457447,15.5312047,False,8.19
2019-11-13 10:10:19.680,Mi 9T,1573639819689.3,-0.878,-9.204,0.956,41.457447,15.5312047,False,8.19
2019-11-13 10:10:19.700,Mi 9T,1573639819708.3333,-1.496,-9.98,0.502,41.457447,15.5312047,False,8.19
2019-11-13 10:10:19.720,Mi 9T,1573639819730.6,-0.952,-9.325,1.15,41.457447,15.5312047,False,8.19
2019-11-13 10:10:19.740,Mi 9T,1573639819750.75,0.272,-10.31,0.207,41.457447,15.5312047,False,8.19
2019-11-13 10:10:19.760,Mi 9T,1573639819769.125,0.143,-10.233,0.925,41.457447,15.5312047,False,8.19
2019-11-13 10:10:19.780,Mi 9T,1573639819788.875,-0.782,-9.856,1.545,41.457447,15.5312047,False,8.19
2019-11-13 10:10:19.800,Mi 9T,1573639819809.6,-1.474,-9.634,0.301,41.457447,15.5312047,False,8.19
2019-11-13 10:10:19.820,Mi 9T,1573639819830.3333,-0.327,-9.416,0.029,41.457447,15.5312047,False,8.19
2019-11-13 10:10:19.840,Mi 9T,1573639819849.0,0.423,-9.182,0.059,41.457447,15.5312047,False,8.19
2019-11-13 10:10:19.860,Mi 9T,1573639819869.4,0.076,-9.915,0.177,41.457447,15.5312047,False,8.19
2019-11-13 10:10:19.880,Mi 9T,1573639819889.7,-0.953,-9.13,1.219,41.457447,15.5312047,False,8.19
2019-11-13 10:10:19.900,Mi 9T,1573639819909.4,-1.208,-10.006,0.93,41.457447,15.5312047,False,8.19
2019-11-13 10:10:19.920,Mi 9T,1573639819929.4443,-0.535,-9.67,0.645,41.457447,15.5312047,False,8.19
2019-11-13 10:10:19.940,Mi 9T,1573639819950.0,0.596,-9.727,0.618,41.457447,15.5312047,False,8.19
2019-11-13 10:10:19.960,Mi 9T,1573639819969.5,0.097,-10.182,0.346,41.457447,15.5312047,False,8.19
2019-11-13 10:10:19.980,Mi 9T,1573639819990.5557,-0.913,-9.8,1.216,41.457447,15.5312047,False,8.19
2019-11-13 10:10:20.000,Mi 9T,1573639820009.625,-0.92,-9.523,0.742,41.457447,15.5312047,False,8.19
2019-11-13 10:10:20.020,Mi 9T,1573639820031.0,0.264,-9.733,-0.114,41.457447,15.5312047,False,8.19
2019-11-13 10:10:20.040,Mi 9T,1573639820048.4285,0.811,-9.362,0.511,41.457447,15.5312047,False,8.19
2019-11-13 10:10:20.060,Mi 9T,1573639820069.5,0.138,-9.857,0.577,41.457447,15.5312047,False,8.19
2019-11-13 10:10:20.080,Mi 9T,1573639820089.4,-0.826,-9.858,0.868,41.457447,15.5312047,False,8.19
2019-11-13 10:10:20.100,Mi 9T,1573639820109.5,-0.52,-9.729,1.452,41.457447,15.5312047,False,8.19
2019-11-13 10:10:20.120,Mi 9T,1573639820129.7,-0.265,-10.069,0.683,41.457447,15.5312047,False,8.19
2019-11-13 10:10:20.140,Mi 9T,1573639820149.9,-0.038,-10.115,0.467,41.457447,15.5312047,False,8.19
2019-11-13 10:10:20.160,Mi 9T,1573639820170.0,-0.469,-10.036,0.872,41.457447,15.5312047,False,8.19
2019-11-13 10:10:20.180,Mi 9T,1573639820190.1,-0.882,-10.075,0.832,41.457447,15.5312047,False,8.19
2019-11-13 10:10:20.200,Mi 9T,1573639820210.0,-0.463,-9.316,0.833,41.457447,15.5312047,False,8.19
2019-11-13 10:10:20.220,Mi 9T,1573639820230.0,0.061,-9.941,-0.508,41.457447,15.5312047,False,8.19
2019-11-13 10:10:20.240,Mi 9T,1573639820249.0,0.006,-9.436,0.586,41.457447,15.5312047,False,8.19
2019-11-13 10:10:20.260,Mi 9T,1573639820272.75,-0.679,-9.768,0.275,41.457447,15.5312047,True,8.19
2019-11-13 10:10:20.280,Mi 9T,1573639820288.5,-0.865,-9.938,0.422,41.457447,15.5312047,True,8.19
2019-11-13 10:10:20.300,Mi 9T,1573639820288.5,-0.865,-9.938,0.422,41.457447,15.5312047,True,8.19
2019-11-13 10:10:20.320,Mi 9T,1573639820330.111,-0.229,-9.883,0.331,41.457447,15.5312047,True,8.19
2019-11-13 10:10:20.340,Mi 9T,1573639820348.625,-0.381,-10.318,0.059,41.457447,15.5312047,True,8.19
2019-11-13 10:10:20.360,Mi 9T,1573639820370.111,-0.675,-10.308,0.381,41.457447,15.5312047,True,8.19
2019-11-13 10:10:20.380,Mi 9T,1573639820389.3,-0.507,-10.286,0.583,41.457447,15.5312047,False,8.19
2019-11-13 10:10:20.400,Mi 9T,1573639820409.3,0.127,-9.506,0.706,41.457447,15.5312047,False,8.19
2019-11-13 10:10:20.420,Mi 9T,1573639820429.4,0.005,-9.368,-0.49,41.457447,15.5312047,False,8.19
2019-11-13 10:10:20.440,Mi 9T,1573639820450.6667,-0.622,-9.543,-0.343,41.457447,15.5312047,False,8.19
2019-11-13 10:10:20.460,Mi 9T,1573639820469.7,-0.841,-8.848,0.714,41.457447,15.5312047,False,8.19
2019-11-13 10:10:20.480,Mi 9T,1573639820490.3333,-0.463,-9.911,-0.248,41.457447,15.5312047,False,8.19
2019-11-13 10:10:20.500,Mi 9T,1573639820510.889,0.133,-10.149,-0.21,41.457447,15.5312047,False,8.19
2019-11-13 10:10:20.520,Mi 9T,1573639820530.2,0.113,-10.475,0.81,41.457447,15.5312047,False,8.19
2019-11-13 10:10:20.540,Mi 9T,1573639820550.0,-0.626,-10.455,0.542,41.457447,15.5312047,False,8.19
2019-11-13 10:10:20.560,Mi 9T,1573639820570.4443,-0.915,-10.266,0.297,41.457447,15.5312047,False,8.19
2019-11-13 10:10:20.580,Mi 9T,1573639820590.1,-0.591,-9.932,0.01,41.457447,15.5312047,False,8.19
2019-11-13 10:10:20.600,Mi 9T,1573639820609.0,0.185,-9.626,0.307,41.457447,15.5312047,False,8.19
2019-11-13 10:10:20.620,Mi 9T,1573639820628.4,-0.121,-9.25,-0.26,41.457447,15.5312047,False,8.19
2019-11-13 10:10:20.640,Mi 9T,1573639820649.3,-0.746,-9.647,-0.445,41.457447,15.5312047,False,8.19
2019-11-13 10:10:20.660,Mi 9T,1573639820669.4443,-0.747,-8.834,0.945,41.457447,15.5312047,False,8.19
2019-11-13 10:10:20.680,Mi 9T,1573639820690.111,0.039,-9.637,-0.06,41.457447,15.5312047,False,8.19
2019-11-13 10:10:20.700,Mi 9T,1573639820709.375,0.178,-9.815,-0.611,41.457447,15.5312047,False,8.19
2019-11-13 10:10:20.720,Mi 9T,1573639820729.6365,-0.22,-9.807,0.454,41.457447,15.5312047,False,8.19
2019-11-13 10:10:20.740,Mi 9T,1573639820750.5,-1.064,-10.218,0.198,41.457447,15.5312047,False,8.19
2019-11-13 10:10:20.760,Mi 9T,1573639820768.9,-0.764,-10.033,0.139,41.457447,15.5312047,False,8.19
2019-11-13 10:10:20.780,Mi 9T,1573639820789.3333,-0.051,-9.881,-0.162,41.457447,15.5312047,False,8.19
2019-11-13 10:10:20.800,Mi 9T,1573639820808.6,0.297,-9.851,0.165,41.457447,15.5312047,False,8.19
2019-11-13 10:10:20.820,Mi 9T,1573639820830.5,-0.275,-9.344,0.464,41.4573923,15.5310805,False,7.823
2019-11-13 10:10:20.840,Mi 9T,1573639820849.6667,-0.854,-9.623,-0.399,41.457374,15.5310391,False,7.7
2019-11-13 10:10:20.860,Mi 9T,1573639820870.2222,-0.53,-9.205,0.079,41.457374,15.5310391,False,7.7
2019-11-13 10:10:20.880,Mi 9T,1573639820886.2856,0.072,-9.501,-0.109,41.457374,15.5310391,False,7.7
2019-11-13 10:10:20.900,Mi 9T,1573639820908.2,0.096,-9.904,-0.185,41.457374,15.5310391,False,7.7
2019-11-13 10:10:20.920,Mi 9T,1573639820929.3,-0.511,-9.946,0.36,41.457374,15.5310391,False,7.7
2019-11-13 10:10:20.940,Mi 9T,1573639820951.125,-0.836,-10.43,0.332,41.457374,15.5310391,False,7.7
2019-11-13 10:10:20.960,Mi 9T,1573639820969.0,-0.297,-10.101,0.367,41.457374,15.5310391,False,7.7
2019-11-13 10:10:20.980,Mi 9T,1573639820991.75,0.135,-9.772,-0.033,41.457374,15.5310391,False,7.7
2019-11-13 10:10:21.000,Mi 9T,1573639821008.75,-0.257,-10.014,-0.341,41.457374,15.5310391,False,7.7
2019-11-13 10:10:21.020,Mi 9T,1573639821029.0,-0.682,-9.063,0.691,41.457374,15.5310391,False,7.7
2019-11-13 10:10:21.040,Mi 9T,1573639821050.5,-0.858,-9.376,-0.65,41.457374,15.5310391,False,7.7
2019-11-13 10:10:21.060,Mi 9T,1573639821069.8,-0.214,-8.961,-0.001,41.457374,15.5310391,False,7.7
2019-11-13 10:10:21.080,Mi 9T,1573639821088.875,0.274,-9.199,-0.02,41.457374,15.5310391,False,7.7
2019-11-13 10:10:21.100,Mi 9T,1573639821110.0,-0.014,-10.136,-0.33,41.457374,15.5310391,False,7.7
2019-11-13 10:10:21.120,Mi 9T,1573639821130.6667,-0.742,-9.231,0.854,41.457374,15.5310391,False,7.7
2019-11-13 10:10:21.140,Mi 9T,1573639821148.6,-1.052,-10.198,-0.135,41.457374,15.5310391,False,7.7
2019-11-13 10:10:21.160,Mi 9T,1573639821169.0,-0.809,-9.879,-0.021,41.457374,15.5310391,False,7.7
2019-11-13 10:10:21.180,Mi 9T,1573639821188.7,-0.053,-9.719,0.213,41.457374,15.5310391,False,7.7
2019-11-13 10:10:21.200,Mi 9T,1573639821211.0,-0.399,-10.2,-0.253,41.457374,15.5310391,False,7.7
2019-11-13 10:10:21.220,Mi 9T,1573639821229.2,-0.644,-9.856,0.675,41.457374,15.5310391,False,7.7
2019-11-13 10:10:21.240,Mi 9T,1573639821249.125,-1.045,-9.471,0.188,41.457374,15.5310391,False,7.7
2019-11-13 10:10:21.260,Mi 9T,1573639821270.4285,-0.609,-9.194,-0.197,41.457374,15.5310391,False,7.7
2019-11-13 10:10:21.280,Mi 9T,1573639821289.2222,-0.241,-9.032,-0.466,41.457374,15.5310391,False,7.7
2019-11-13 10:10:21.300,Mi 9T,1573639821309.5,-0.25,-9.61,-0.157,41.457374,15.5310391,False,7.7
2019-11-13 10:10:21.320,Mi 9T,1573639821329.1667,-0.556,-9.384,0.705,41.457374,15.5310391,False,7.7
2019-11-13 10:10:21.340,Mi 9T,1573639821351.0,-0.661,-10.082,0.706,41.457374,15.5310391,False,7.7
2019-11-13 10:10:21.360,Mi 9T,1573639821369.2,-0.783,-10.405,0.178,41.457374,15.5310391,False,7.7
2019-11-13 10:10:21.380,Mi 9T,1573639821388.6667,-0.258,-10.034,0.599,41.457374,15.5310391,False,7.7
2019-11-13 10:10:21.400,Mi 9T,1573639821408.7778,-0.368,-10.075,-0.252,41.457374,15.5310391,False,7.7
2019-11-13 10:10:21.420,Mi 9T,1573639821430.0,-0.463,-10.052,-0.27,41.457374,15.5310391,False,7.7
2019-11-13 10:10:21.440,Mi 9T,1573639821451.4285,-0.95,-9.009,0.488,41.457374,15.5310391,False,7.7
2019-11-13 10:10:21.460,Mi 9T,1573639821470.0,-1.093,-9.815,-0.916,41.457374,15.5310391,False,7.7
2019-11-13 10:10:21.480,Mi 9T,1573639821489.375,-0.154,-9.125,0.2,41.457374,15.5310391,False,7.7
2019-11-13 10:10:21.500,Mi 9T,1573639821510.1428,0.366,-9.439,0.074,41.457374,15.5310391,False,7.7
2019-11-13 10:10:21.520,Mi 9T,1573639821529.4285,-0.097,-9.918,0.151,41.457374,15.5310391,False,7.7
2019-11-13 10:10:21.540,Mi 9T,1573639821548.75,-0.758,-9.623,0.539,41.457374,15.5310391,False,7.7
2019-11-13 10:10:21.560,Mi 9T,1573639821566.5,-0.806,-10.611,-0.21,41.457374,15.5310391,False,7.7
2019-11-13 10:10:21.580,Mi 9T,1573639821588.889,-0.113,-10.115,0.096,41.457374,15.5310391,False,7.7
2019-11-13 10:10:21.600,Mi 9T,1573639821610.6,0.342,-10.645,-0.316,41.457374,15.5310391,False,7.7
2019-11-13 10:10:21.620,Mi 9T,1573639821630.5,-0.07,-10.665,-0.048,41.457374,15.5310391,False,7.7
2019-11-13 10:10:21.640,Mi 9T,1573639821647.25,-0.047,-9.519,1.277,41.457374,15.5310391,False,7.7
2019-11-13 10:10:21.660,Mi 9T,1573639821669.0,-0.274,-9.89,-0.617,41.457374,15.5310391,False,7.7
2019-11-13 10:10:21.680,Mi 9T,1573639821688.7778,0.138,-9.344,-0.217,41.457374,15.5310391,False,7.7
2019-11-13 10:10:21.700,Mi 9T,1573639821708.7144,0.418,-9.346,0.267,41.457374,15.5310391,False,7.7
2019-11-13 10:10:21.720,Mi 9T,1573639821728.7,-0.014,-10.006,0.074,41.457374,15.5310391,False,7.7
2019-11-13 10:10:21.740,Mi 9T,1573639821749.7273,-0.362,-9.41,0.55,41.457374,15.5310391,False,7.7
