UTC_timestamp,device_name,timestamp,x,y,z,lat,long,event,speed
2019-11-13 10:09:11.920,Mi 9T,1573639751929.0,-0.254,-9.857,1.113,41.4583299,15.5339044,False,1.771
2019-11-13 10:09:11.940,Mi 9T,1573639751950.1428,-0.768,-9.569,1.406,41.4583299,15.5339044,False,1.771
2019-11-13 10:09:11.960,Mi 9T,1573639751969.0,-1.032,-9.895,1.063,41.4583299,15.5339044,False,1.771
2019-11-13 10:09:11.980,Mi 9T,1573639751988.1428,-0.592,-9.507,1.555,41.4583299,15.5339044,False,1.771
2019-11-13 10:09:12.000,Mi 9T,1573639752009.375,-0.473,-9.697,0.9,41.4583299,15.5339044,False,1.771
2019-11-13 10:09:12.020,Mi 9T,1573639752029.75,-0.509,-9.541,1.218,41.4583299,15.5339044,False,1.771
2019-11-13 10:09:12.040,Mi 9T,1573639752049.75,-0.893,-9.661,1.131,41.4583299,15.5339044,False,1.771
2019-11-13 10:09:12.060,Mi 9T,1573639752069.5,-0.804,-9.547,1.499,41.4583299,15.5339044,False,1.771
2019-11-13 10:09:12.080,Mi 9T,1573639752090.375,-0.26,-9.806,1.296,41.4583299,15.5339044,False,1.771
2019-11-13 10:09:12.100,Mi 9T,1573639752109.875,-0.245,-10.053,1.238,41.4583299,15.5339044,False,1.771
2019-11-13 10:09:12.120,Mi 9T,1573639752130.25,-0.37,-9.889,1.629,41.4583299,15.5339044,False,1.771
2019-11-13 10:09:12.140,Mi 9T,1573639752148.5,-0.55,-10.16,1.333,41.4583299,15.5339044,False,1.771
2019-11-13 10:09:12.160,Mi 9T,1573639752169.8333,-0.498,-9.595,1.489,41.4583299,15.5339044,False,1.771
2019-11-13 10:09:12.180,Mi 9T,1573639752190.0,-0.406,-9.781,0.901,41.4583299,15.5339044,False,1.771
2019-11-13 10:09:12.200,Mi 9T,1573639752209.8,-0.563,-9.591,1.283,41.4583299,15.5339044,False,1.771
2019-11-13 10:09:12.220,Mi 9T,1573639752229.2,-0.752,-9.622,1.167,41.4583299,15.5339044,False,1.771
2019-11-13 10:09:12.240,Mi 9T,1573639752250.0,-0.598,-9.785,1.135,41.4583299,15.5339044,False,1.771
2019-11-13 10:09:12.260,Mi 9T,1573639752267.4285,-0.479,-9.494,1.374,41.4583299,15.5339044,False,1.771
2019-11-13 10:09:12.280,Mi 9T,1573639752289.375,-0.648,-9.858,0.876,41.4583299,15.5339044,False,1.771
2019-11-13 10:09:12.300,Mi 9T,1573639752309.375,-0.582,-9.89,1.283,41.4583299,15.5339044,False,1.771
2019-11-13 10:09:12.320,Mi 9T,1573639752330.5715,-0.684,-10.102,0.607,41.4583299,15.5339044,False,1.771
2019-11-13 10:09:12.340,Mi 9T,1573639752348.4285,-0.443,-9.94,0.653,41.4583299,15.5339044,False,1.771
2019-11-13 10:09:12.360,Mi 9T,1573639752369.2,-0.645,-9.795,0.261,41.4583299,15.5339044,False,1.771
2019-11-13 10:09:12.380,Mi 9T,1573639752388.3333,-0.702,-10.002,-0.196,41.4583299,15.5339044,False,1.771
2019-11-13 10:09:12.400,Mi 9T,1573639752407.2,-0.488,-9.753,0.125,41.4583299,15.5339044,False,1.771
2019-11-13 10:09:12.420,Mi 9T,1573639752428.111,-0.577,-10.053,-0.226,41.4583299,15.5339044,False,1.771
2019-11-13 10:09:12.440,Mi 9T,1573639752446.625,-0.5,-9.856,0.197,41.4583299,15.5339044,False,1.771
2019-11-13 10:09:12.460,Mi 9T,1573639752469.5,-0.587,-10.034,-0.225,41.4583299,15.5339044,False,1.771
2019-11-13 10:09:12.480,Mi 9T,1573639752488.8572,-0.498,-9.649,0.038,41.4583299,15.5339044,False,1.771
2019-11-13 10:09:12.500,Mi 9T,1573639752508.6667,-0.625,-9.777,-0.622,41.4583299,15.5339044,False,1.771
2019-11-13 10:09:12.520,Mi 9T,1573639752528.8,-0.528,-9.569,-0.007,41.4583299,15.5339044,False,1.771
2019-11-13 10:09:12.540,Mi 9T,1573639752549.7,-0.595,-9.599,-0.258,41.4583299,15.5339044,False,1.771
2019-11-13 10:09:12.560,Mi 9T,1573639752566.8,-0.387,-9.675,-0.033,41.4583299,15.5339044,False,1.771
2019-11-13 10:09:12.580,Mi 9T,1573639752587.0,-0.534,-9.637,-0.024,41.4583299,15.5339044,False,1.771
2019-11-13 10:09:12.600,Mi 9T,1573639752608.0,-0.635,-9.625,-0.031,41.4583299,15.5339044,False,1.771
2019-11-13 10:09:12.620,Mi 9T,1573639752630.2,-0.571,-9.384,0.159,41.4583299,15.5339044,False,1.771
2019-11-13 10:09:12.640,Mi 9T,1573639752649.5715,-0.641,-9.634,-0.153,41.4583299,15.5339044,False,1.771
2019-11-13 10:09:12.660,Mi 9T,1573639752670.0,-0.515,-9.454,0.371,41.4583299,15.5339044,False,1.771
2019-11-13 10:09:12.680,Mi 9T,1573639752693.0,-0.522,-10.022,0.035,41.4583299,15.5339044,False,1.771
2019-11-13 10:09:12.700,Mi 9T,1573639752709.0,-0.49,-9.677,0.637,41.4583299,15.5339044,False,1.771
2019-11-13 10:09:12.720,Mi 9T,1573639752728.5,-0.525,-10.093,0.051,41.4583299,15.5339044,False,1.771
2019-11-13 10:09:12.740,Mi 9T,1573639752747.4285,-0.559,-9.821,0.403,41.4583299,15.5339044,False,1.771
2019-11-13 10:09:12.760,Mi 9T,1573639752768.625,-0.616,-9.735,0.246,41.4583299,15.5339044,False,1.771
2019-11-13 10:09:12.780,Mi 9T,1573639752789.3333,-0.526,-9.862,0.101,41.4583299,15.5339044,False,1.771
2019-11-13 10:09:12.800,Mi 9T,1573639752810.5715,-0.499,-9.566,0.471,41.4583299,15.5339044,False,1.771
2019-11-13 10:09:12.820,Mi 9T,1573639752832.625,-0.642,-9.801,-0.074,41.4583328,15.5339012,False,1.486
2019-11-13 10:09:12.840,Mi 9T,1573639752849.2222,-0.507,-9.611,0.333,41.4583414,15.5338916,False,0.632
2019-11-13 10:09:12.860,Mi 9T,1573639752869.6365,-0.655,-9.779,-0.04,41.4583414,15.5338916,False,0.632
2019-11-13 10:09:12.880,Mi 9T,1573639752891.8572,-0.479,-9.725,0.148,41.4583414,15.5338916,False,0.632
2019-11-13 10:09:12.900,Mi 9T,1573639752910.4,-0.657,-9.963,-0.109,41.4583414,15.5338916,False,0.632
2019-11-13 10:09:12.920,Mi 9T,1573639752929.4443,-0.589,-9.719,0.4,41.4583414,15.5338916,False,0.632
2019-11-13 10:09:12.940,Mi 9T,1573639752948.7,-0.534,-9.9,-0.075,41.4583414,15.5338916,False,0.632
2019-11-13 10:09:12.960,Mi 9T,1573639752968.4,-0.477,-9.86,0.141,41.4583414,15.5338916,False,0.632
2019-11-13 10:09:12.980,Mi 9T,1573639752989.2222,-0.639,-9.683,0.185,41.4583414,15.5338916,False,0.632
2019-11-13 10:09:13.000,Mi 9T,1573639753009.0,-0.601,-9.9,0.095,41.4583414,15.5338916,False,0.632
2019-11-13 10:09:13.020,Mi 9T,1573639753028.8,-0.494,-9.575,0.349,41.4583414,15.5338916,False,0.632
2019-11-13 10:09:13.040,Mi 9T,1573639753049.1,-0.484,-9.91,-0.164,41.4583414,15.5338916,False,0.632
2019-11-13 10:09:13.060,Mi 9T,1573639753068.25,-0.44,-9.565,0.486,41.4583414,15.5338916,False,0.632
2019-11-13 10:09:13.080,Mi 9T,1573639753088.7778,-0.762,-9.896,0.037,41.4583414,15.5338916,False,0.632
2019-11-13 10:09:13.100,Mi 9T,1573639753109.4,-0.517,-9.716,0.342,41.4583414,15.5338916,False,0.632
2019-11-13 10:09:13.120,Mi 9T,1573639753129.2222,-0.452,-9.882,0.023,41.4583414,15.5338916,False,0.632
2019-11-13 10:09:13.140,Mi 9T,1573639753149.5,-0.53,-9.743,0.241,41.4583414,15.5338916,False,0.632
2019-11-13 10:09:13.160,Mi 9T,1573639753170.4443,-0.669,-9.747,0.2,41.4583414,15.5338916,False,0.632
2019-11-13 10:09:13.180,Mi 9T,1573639753190.5715,-0.696,-9.927,0.086,41.4583414,15.5338916,False,0.632
2019-11-13 10:09:13.200,Mi 9T,1573639753209.7,-0.523,-9.612,0.127,41.4583414,15.5338916,False,0.632
2019-11-13 10:09:13.220,Mi 9T,1573639753229.2,-0.453,-9.976,-0.124,41.4583414,15.5338916,False,0.632
2019-11-13 10:09:13.240,Mi 9T,1573639753249.7,-0.612,-9.523,0.436,41.4583414,15.5338916,False,0.632
2019-11-13 10:09:13.260,Mi 9T,1573639753269.8,-0.72,-9.981,-0.129,41.4583414,15.5338916,False,0.632
2019-11-13 10:09:13.280,Mi 9T,1573639753290.0,-0.508,-9.636,0.403,41.4583414,15.5338916,False,0.632
2019-11-13 10:09:13.300,Mi 9T,1573639753310.0,-0.517,-9.816,-0.032,41.4583414,15.5338916,False,0.632
2019-11-13 10:09:13.320,Mi 9T,1573639753331.111,-0.503,-9.814,0.164,41.4583414,15.5338916,False,0.632
2019-11-13 10:09:13.340,Mi 9T,1573639753350.0,-0.648,-9.713,0.347,41.4583414,15.5338916,False,0.632
2019-11-13 10:09:13.360,Mi 9T,1573639753370.0,-0.637,-9.88,0.064,41.4583414,15.5338916,False,0.632
2019-11-13 10:09:13.380,Mi 9T,1573639753387.1428,-0.412,-9.701,0.181,41.4583414,15.5338916,False,0.632
2019-11-13 10:09:13.400,Mi 9T,1573639753387.1428,-0.412,-9.701,0.181,41.4583414,15.5338916,False,0.632
2019-11-13 10:09:13.420,Mi 9T,1573639753424.0,-0.53,-9.811,0.127,41.4583414,15.5338916,True,0.632
2019-11-13 10:09:13.440,Mi 9T,1573639753424.0,-0.53,-9.811,0.127,41.4583414,15.5338916,True,0.632
2019-11-13 10:09:13.460,Mi 9T,1573639753468.3,-0.562,-9.724,0.268,41.4583414,15.5338916,True,0.632
2019-11-13 10:09:13.480,Mi 9T,1573639753489.6667,-0.502,-9.872,-0.114,41.4583414,15.5338916,True,0.632
2019-11-13 10:09:13.500,Mi 9T,1573639753507.6667,-0.542,-9.68,0.336,41.4583414,15.5338916,False,0.632
2019-11-13 10:09:13.520,Mi 9T,1573639753529.5557,-0.686,-9.694,0.154,41.4583414,15.5338916,False,0.632
2019-11-13 10:09:13.540,Mi 9T,1573639753549.1,-0.478,-9.901,0.103,41.4583414,15.5338916,False,0.632
2019-11-13 10:09:13.560,Mi 9T,1573639753569.2222,-0.47,-9.63,0.302,41.4583414,15.5338916,False,0.632
2019-11-13 10:09:13.580,Mi 9T,1573639753589.0,-0.622,-9.94,-0.105,41.4583414,15.5338916,False,0.632
2019-11-13 10:09:13.600,Mi 9T,1573639753609.3,-0.607,-9.562,0.444,41.4583414,15.5338916,False,0.632
2019-11-13 10:09:13.620,Mi 9T,1573639753629.1,-0.625,-9.912,0.0,41.4583414,15.5338916,False,0.632
2019-11-13 10:09:13.640,Mi 9T,1573639753649.3,-0.437,-9.637,0.28,41.4583414,15.5338916,False,0.632
2019-11-13 10:09:13.660,Mi 9T,1573639753669.5,-0.565,-10.036,-0.014,41.4583414,15.5338916,False,0.632
2019-11-13 10:09:13.680,Mi 9T,1573639753689.5,-0.643,-9.688,0.471,41.4583414,15.5338916,False,0.632
2019-11-13 10:09:13.700,Mi 9T,1573639753707.375,-0.563,-9.895,0.01,41.4583414,15.5338916,False,0.632
2019-11-13 10:09:13.720,Mi 9T,1573639753729.3635,-0.522,-9.787,0.139,41.4583414,15.5338916,False,0.632
2019-11-13 10:09:13.740,Mi 9T,1573639753749.6667,-0.605,-9.676,0.151,41.4583414,15.5338916,False,0.632
2019-11-13 10:09:13.760,Mi 9T,1573639753769.5,-0.582,-9.848,0.175,41.4583414,15.5338916,False,0.632
2019-11-13 10:09:13.780,Mi 9T,1573639753790.1,-0.512,-9.586,0.442,41.4583414,15.5338916,False,0.632
2019-11-13 10:09:13.800,Mi 9T,1573639753810.2,-0.551,-9.984,-0.179,41.4583414,15.5338916,False,0.632
2019-11-13 10:09:13.820,Mi 9T,1573639753830.3333,-0.458,-9.562,0.516,41.4583414,15.5338916,False,0.632
2019-11-13 10:09:13.840,Mi 9T,1573639753851.8,-0.695,-9.803,0.054,41.4583408,15.533893,False,0.218
2019-11-13 10:09:13.860,Mi 9T,1573639753870.1,-0.532,-9.707,0.212,41.4583408,15.533893,False,0.218
2019-11-13 10:09:13.880,Mi 9T,1573639753890.2,-0.514,-9.815,0.125,41.4583408,15.533893,False,0.218
2019-11-13 10:09:13.900,Mi 9T,1573639753909.7778,-0.55,-9.78,0.245,41.4583408,15.533893,False,0.218
2019-11-13 10:09:13.920,Mi 9T,1573639753928.3,-0.553,-9.828,0.162,41.4583408,15.533893,False,0.218
2019-11-13 10:09:13.940,Mi 9T,1573639753949.3635,-0.64,-9.863,0.24,41.4583408,15.533893,False,0.218
2019-11-13 10:09:13.960,Mi 9T,1573639753970.5,-0.525,-9.661,0.242,41.4583408,15.533893,False,0.218
2019-11-13 10:09:13.980,Mi 9T,1573639753989.4443,-0.515,-9.985,-0.053,41.4583408,15.533893,False,0.218
2019-11-13 10:09:14.000,Mi 9T,1573639754008.5,-0.571,-9.568,0.454,41.4583408,15.533893,False,0.218
2019-11-13 10:09:14.020,Mi 9T,1573639754029.0,-0.654,-9.934,-0.07,41.4583408,15.533893,False,0.218
2019-11-13 10:09:14.040,Mi 9T,1573639754049.1,-0.477,-9.62,0.399,41.4583408,15.533893,False,0.218
2019-11-13 10:09:14.060,Mi 9T,1573639754069.4443,-0.632,-9.905,-0.125,41.4583408,15.533893,False,0.218
2019-11-13 10:09:14.080,Mi 9T,1573639754088.4443,-0.497,-9.651,0.333,41.4583408,15.533893,False,0.218
2019-11-13 10:09:14.100,Mi 9T,1573639754109.1,-0.589,-9.861,0.084,41.4583408,15.533893,False,0.218
2019-11-13 10:09:14.120,Mi 9T,1573639754129.3,-0.592,-9.768,0.202,41.4583408,15.533893,False,0.218
2019-11-13 10:09:14.140,Mi 9T,1573639754149.0,-0.52,-9.773,0.129,41.4583408,15.533893,False,0.218
2019-11-13 10:09:14.160,Mi 9T,1573639754169.4,-0.578,-9.876,0.155,41.4583408,15.533893,False,0.218
2019-11-13 10:09:14.180,Mi 9T,1573639754190.375,-0.551,-9.674,0.237,41.4583408,15.533893,False,0.218
2019-11-13 10:09:14.200,Mi 9T,1573639754209.7,-0.585,-9.982,-0.014,41.4583408,15.533893,False,0.218
2019-11-13 10:09:14.220,Mi 9T,1573639754229.5,-0.55,-9.565,0.531,41.4583408,15.533893,False,0.218
2019-11-13 10:09:14.240,Mi 9T,1573639754250.7778,-0.558,-9.931,-0.137,41.4583408,15.533893,False,0.218
2019-11-13 10:09:14.260,Mi 9T,1573639754269.111,-0.447,-9.653,0.392,41.4583408,15.533893,False,0.218
2019-11-13 10:09:14.280,Mi 9T,1573639754289.8572,-0.757,-9.866,-0.035,41.4583408,15.533893,False,0.218
2019-11-13 10:09:14.300,Mi 9T,1573639754308.7778,-0.554,-9.666,0.403,41.4583408,15.533893,False,0.218
2019-11-13 10:09:14.320,Mi 9T,1573639754329.9092,-0.525,-9.838,0.042,41.4583408,15.533893,False,0.218
2019-11-13 10:09:14.340,Mi 9T,1573639754350.0,-0.487,-9.812,0.137,41.4583408,15.533893,False,0.218
2019-11-13 10:09:14.360,Mi 9T,1573639754369.9,-0.542,-9.689,0.289,41.4583408,15.533893,False,0.218
2019-11-13 10:09:14.380,Mi 9T,1573639754390.1,-0.718,-9.926,0.055,41.4583408,15.533893,False,0.218
2019-11-13 10:09:14.400,Mi 9T,1573639754409.625,-0.529,-9.586,0.294,41.4583408,15.533893,False,0.218
2019-11-13 10:09:14.420,Mi 9T,1573639754428.5,-0.433,-9.991,-0.108,41.4583408,15.533893,False,0.218
2019-11-13 10:09:14.440,Mi 9T,1573639754448.3333,-0.499,-9.57,0.444,41.4583408,15.533893,False,0.218
2019-11-13 10:09:14.460,Mi 9T,1573639754468.8,-0.718,-9.979,-0.132,41.4583408,15.533893,False,0.218
2019-11-13 10:09:14.480,Mi 9T,1573639754489.5454,-0.581,-9.681,0.409,41.4583408,15.533893,False,0.218
2019-11-13 10:09:14.500,Mi 9T,1573639754511.75,-0.513,-9.696,0.046,41.4583408,15.533893,False,0.218
2019-11-13 10:09:14.520,Mi 9T,1573639754530.4285,-0.411,-9.835,0.137,41.4583408,15.533893,False,0.218
2019-11-13 10:09:14.540,Mi 9T,1573639754548.2856,-0.65,-9.781,0.198,41.4583408,15.533893,False,0.218
2019-11-13 10:09:14.560,Mi 9T,1573639754568.375,-0.717,-9.856,0.282,41.4583408,15.533893,False,0.218
2019-11-13 10:09:14.580,Mi 9T,1573639754588.4443,-0.478,-9.645,0.293,41.4583408,15.533893,False,0.218
2019-11-13 10:09:14.600,Mi 9T,1573639754609.375,-0.503,-9.911,-0.054,41.4583408,15.533893,False,0.218
2019-11-13 10:09:14.620,Mi 9T,1573639754628.875,-0.51,-9.55,0.418,41.4583408,15.533893,False,0.218
2019-11-13 10:09:14.640,Mi 9T,1573639754647.6,-0.646,-10.019,0.046,41.4583408,15.533893,False,0.218
2019-11-13 10:09:14.660,Mi 9T,1573639754668.375,-0.634,-9.57,0.431,41.4583408,15.533893,False,0.218
2019-11-13 10:09:14.680,Mi 9T,1573639754689.3333,-0.515,-9.893,-0.134,41.4583408,15.533893,False,0.218
2019-11-13 10:09:14.700,Mi 9T,1573639754709.5557,-0.473,-9.775,0.236,41.4583408,15.533893,False,0.218
2019-11-13 10:09:14.720,Mi 9T,1573639754731.1428,-0.624,-9.659,0.191,41.4583408,15.533893,False,0.218
2019-11-13 10:09:14.740,Mi 9T,1573639754749.0,-0.634,-9.922,0.083,41.4583408,15.533893,False,0.218
2019-11-13 10:09:14.760,Mi 9T,1573639754769.4443,-0.601,-9.566,0.416,41.4583408,15.533893,False,0.218
2019-11-13 10:09:14.780,Mi 9T,1573639754789.375,-0.52,-9.973,-0.153,41.4583408,15.533893,False,0.218
2019-11-13 10:09:14.800,Mi 9T,1573639754808.7,-0.405,-9.676,0.311,41.4583408,15.533893,False,0.218
2019-11-13 10:09:14.820,Mi 9T,1573639754832.2222,-0.737,-9.91,0.027,41.4583408,15.533893,False,0.218
2019-11-13 10:09:14.840,Mi 9T,1573639754850.0,-0.602,-9.693,0.42,41.4583408,15.533893,False,0.218
2019-11-13 10:09:14.860,Mi 9T,1573639754869.2222,-0.518,-9.874,0.047,41.4583408,15.533893,False,0.218
2019-11-13 10:09:14.880,Mi 9T,1573639754890.0,-0.437,-9.789,0.101,41.4583408,15.533893,False,0.218
2019-11-13 10:09:14.900,Mi 9T,1573639754911.0,-0.512,-9.673,0.304,41.4583408,15.533893,False,0.218
