UTC_timestamp,device_name,timestamp,x,y,z,lat,long,event,speed
2019-10-27 16:23:59.020,LG-H970,1572193439031.25,0.174,9.742,0.499,41.106413,16.8816466,False,4.494
2019-10-27 16:23:59.040,LG-H970,1572193439051.25,0.932,11.419,-0.555,41.106413,16.8816466,False,4.494
2019-10-27 16:23:59.060,LG-H970,1572193439070.25,1.407,10.009,0.203,41.106413,16.8816466,False,4.494
2019-10-27 16:23:59.080,LG-H970,1572193439090.25,0.863,11.598,0.55,41.106413,16.8816466,False,4.494
2019-10-27 16:23:59.100,LG-H970,1572193439109.75,-0.515,11.812,-1.064,41.106413,16.8816466,False,4.494
2019-10-27 16:23:59.120,LG-H970,1572193439129.25,1.278,10.873,-1.046,41.106413,16.8816466,False,4.494
2019-10-27 16:23:59.140,LG-H970,1572193439149.5,2.196,8.512,-0.604,41.106413,16.8816466,False,4.494
2019-10-27 16:23:59.160,LG-H970,1572193439169.5,1.334,9.544,-0.892,41.106413,16.8816466,False,4.494
2019-10-27 16:23:59.180,LG-H970,1572193439188.25,0.1,10.551,-1.536,41.106413,16.8816466,False,4.494
2019-10-27 16:23:59.200,LG-H970,1572193439208.5,0.711,9.797,0.075,41.106413,16.8816466,False,4.494
2019-10-27 16:23:59.220,LG-H970,1572193439228.0,0.997,8.221,-0.328,41.106413,16.8816466,False,4.494
2019-10-27 16:23:59.240,LG-H970,1572193439248.5,1.088,7.408,-1.466,41.106413,16.8816466,False,4.494
2019-10-27 16:23:59.260,LG-H970,1572193439270.4,3.481,6.014,-1.512,41.106413,16.8816466,False,4.494
2019-10-27 16:23:59.280,LG-H970,1572193439290.0,3.972,7.628,-0.09,41.106413,16.8816466,False,4.494
2019-10-27 16:23:59.300,LG-H970,1572193439307.3333,0.206,9.418,-0.904,41.106413,16.8816466,False,4.494
2019-10-27 16:23:59.320,LG-H970,1572193439330.2,-3.154,11.12,-1.265,41.106413,16.8816466,False,4.494
2019-10-27 16:23:59.340,LG-H970,1572193439347.6667,3.441,8.504,2.095,41.106413,16.8816466,False,4.494
2019-10-27 16:23:59.360,LG-H970,1572193439368.8,3.663,9.597,0.819,41.1064801,16.8817585,False,5.096
2019-10-27 16:23:59.380,LG-H970,1572193439390.75,-4.637,12.039,-3.729,41.1064801,16.8817585,False,5.096
2019-10-27 16:23:59.400,LG-H970,1572193439411.0,-3.304,11.132,-2.062,41.1064801,16.8817585,False,5.096
2019-10-27 16:23:59.420,LG-H970,1572193439430.75,2.462,11.045,2.887,41.1064801,16.8817585,False,5.096
2019-10-27 16:23:59.440,LG-H970,1572193439450.0,0.853,16.881,1.057,41.1064801,16.8817585,False,5.096
2019-10-27 16:23:59.460,LG-H970,1572193439469.5,-12.145,15.267,0.618,41.1064801,16.8817585,False,5.096
2019-10-27 16:23:59.480,LG-H970,1572193439489.0,-3.988,17.974,-5.947,41.1064801,16.8817585,False,5.096
2019-10-27 16:23:59.500,LG-H970,1572193439509.0,6.054,9.075,2.815,41.1064801,16.8817585,False,5.096
2019-10-27 16:23:59.520,LG-H970,1572193439528.5,3.312,8.074,3.567,41.1064801,16.8817585,False,5.096
2019-10-27 16:23:59.540,LG-H970,1572193439548.25,-4.451,10.256,-6.721,41.1064801,16.8817585,False,5.096
2019-10-27 16:23:59.560,LG-H970,1572193439568.5,-1.71,9.555,-2.535,41.1064801,16.8817585,False,5.096
2019-10-27 16:23:59.580,LG-H970,1572193439588.0,4.924,8.6,2.375,41.1064801,16.8817585,False,5.096
2019-10-27 16:23:59.600,LG-H970,1572193439610.5,1.653,10.105,1.174,41.1064801,16.8817585,False,5.096
2019-10-27 16:23:59.620,LG-H970,1572193439630.0,-2.13,8.892,-4.759,41.1064801,16.8817585,False,5.096
2019-10-27 16:23:59.640,LG-H970,1572193439649.2,0.908,7.459,-3.695,41.1064801,16.8817585,False,5.096
2019-10-27 16:23:59.660,LG-H970,1572193439671.25,4.222,7.004,0.728,41.1064801,16.8817585,False,5.096
2019-10-27 16:23:59.680,LG-H970,1572193439691.0,2.218,8.777,0.825,41.1064801,16.8817585,False,5.096
2019-10-27 16:23:59.700,LG-H970,1572193439711.0,1.714,9.333,-1.288,41.1064801,16.8817585,False,5.096
2019-10-27 16:23:59.720,LG-H970,1572193439730.75,3.857,8.111,0.965,41.1064801,16.8817585,False,5.096
2019-10-27 16:23:59.740,LG-H970,1572193439750.0,2.179,8.251,-1.837,41.1064801,16.8817585,False,5.096
2019-10-27 16:23:59.760,LG-H970,1572193439771.75,0.124,8.167,-0.739,41.1064801,16.8817585,False,5.096
2019-10-27 16:23:59.780,LG-H970,1572193439791.5,2.419,8.363,-2.027,41.1064801,16.8817585,False,5.096
2019-10-27 16:23:59.800,LG-H970,1572193439812.25,2.489,8.141,0.539,41.1064801,16.8817585,False,5.096
2019-10-27 16:23:59.820,LG-H970,1572193439830.75,0.02,10.45,-1.273,41.1064801,16.8817585,False,5.096
2019-10-27 16:23:59.840,LG-H970,1572193439851.0,-0.548,8.597,-2.925,41.1064801,16.8817585,False,5.096
2019-10-27 16:23:59.860,LG-H970,1572193439869.0,1.236,8.396,0.461,41.1064801,16.8817585,False,5.096
2019-10-27 16:23:59.880,LG-H970,1572193439888.25,-0.205,8.914,0.509,41.1064801,16.8817585,False,5.096
2019-10-27 16:23:59.900,LG-H970,1572193439911.75,-2.892,12.713,-5.174,41.1064801,16.8817585,False,5.096
2019-10-27 16:23:59.920,LG-H970,1572193439933.3333,-6.171,9.781,-3.879,41.1064801,16.8817585,False,5.096
2019-10-27 16:23:59.940,LG-H970,1572193439948.0,-1.063,8.826,0.823,41.1064801,16.8817585,False,5.096
2019-10-27 16:23:59.960,LG-H970,1572193439967.5,1.222,8.417,-0.739,41.1064801,16.8817585,False,5.096
2019-10-27 16:23:59.980,LG-H970,1572193439988.75,-4.337,12.243,-1.995,41.1064801,16.8817585,False,5.096
2019-10-27 16:24:00.000,LG-H970,1572193440008.25,-5.036,12.466,-2.694,41.1064801,16.8817585,False,5.096
2019-10-27 16:24:00.020,LG-H970,1572193440029.0,1.362,10.819,2.277,41.1064801,16.8817585,False,5.096
2019-10-27 16:24:00.040,LG-H970,1572193440049.6667,2.106,10.342,-0.159,41.1064801,16.8817585,False,5.096
2019-10-27 16:24:00.060,LG-H970,1572193440070.5,-1.94,11.361,-2.262,41.1064801,16.8817585,False,5.096
2019-10-27 16:24:00.080,LG-H970,1572193440089.75,-0.159,10.52,-0.467,41.1064801,16.8817585,False,5.096
2019-10-27 16:24:00.100,LG-H970,1572193440109.75,3.163,10.141,3.364,41.1064801,16.8817585,False,5.096
2019-10-27 16:24:00.120,LG-H970,1572193440130.6,0.09,10.59,-0.152,41.1064801,16.8817585,False,5.096
2019-10-27 16:24:00.140,LG-H970,1572193440153.5,-1.592,8.899,-1.998,41.1064801,16.8817585,False,5.096
2019-10-27 16:24:00.160,LG-H970,1572193440171.0,1.597,6.991,-0.632,41.1064801,16.8817585,False,5.096
2019-10-27 16:24:00.180,LG-H970,1572193440187.5,3.252,6.769,-0.036,41.1064801,16.8817585,False,5.096
2019-10-27 16:24:00.200,LG-H970,1572193440207.75,1.912,9.803,-0.923,41.1064801,16.8817585,False,5.096
2019-10-27 16:24:00.220,LG-H970,1572193440227.5,-0.426,11.294,-0.272,41.1064801,16.8817585,False,5.096
2019-10-27 16:24:00.240,LG-H970,1572193440247.5,1.144,11.014,-0.367,41.1064801,16.8817585,False,5.096
2019-10-27 16:24:00.260,LG-H970,1572193440267.75,3.197,8.307,-0.004,41.1064801,16.8817585,False,5.096
2019-10-27 16:24:00.280,LG-H970,1572193440287.0,1.522,8.322,-1.667,41.1064801,16.8817585,False,5.096
2019-10-27 16:24:00.300,LG-H970,1572193440307.25,-0.649,10.505,-1.324,41.1064801,16.8817585,False,5.096
2019-10-27 16:24:00.320,LG-H970,1572193440334.0,1.447,10.342,0.229,41.1064801,16.8817585,False,5.096
2019-10-27 16:24:00.340,LG-H970,1572193440348.6667,2.66,10.015,-0.209,41.1064801,16.8817585,False,5.096
2019-10-27 16:24:00.360,LG-H970,1572193440371.75,0.227,8.95,-1.161,41.1064801,16.8817585,False,5.096
2019-10-27 16:24:00.380,LG-H970,1572193440390.75,-0.056,8.669,-2.518,41.1064801,16.8817585,False,5.096
2019-10-27 16:24:00.400,LG-H970,1572193440407.6667,1.306,9.049,-0.598,41.1064801,16.8817585,False,5.096
2019-10-27 16:24:00.420,LG-H970,1572193440428.0,1.158,10.483,-0.209,41.1064801,16.8817585,False,5.096
2019-10-27 16:24:00.440,LG-H970,1572193440450.0,-0.257,11.3,-0.437,41.1064801,16.8817585,False,5.096
2019-10-27 16:24:00.460,LG-H970,1572193440469.0,-0.275,9.291,-1.606,41.1064801,16.8817585,False,5.096
2019-10-27 16:24:00.480,LG-H970,1572193440489.5,0.527,9.015,-1.26,41.1064801,16.8817585,False,5.096
2019-10-27 16:24:00.500,LG-H970,1572193440504.0,-0.226,8.874,-1.31,41.1064801,16.8817585,False,5.096
2019-10-27 16:24:00.520,LG-H970,1572193440526.0,-0.58,10.082,-1.238,41.1064801,16.8817585,True,5.096
2019-10-27 16:24:00.540,LG-H970,1572193440559.0,-1.186,10.793,-0.836,41.1064801,16.8817585,False,5.096
2019-10-27 16:24:00.560,LG-H970,1572193440562.5,-0.185,9.408,-0.373,41.1064801,16.8817585,False,5.096
2019-10-27 16:24:00.580,LG-H970,1572193440591.2,-0.593,9.368,-1.295,41.1064801,16.8817585,False,5.096
2019-10-27 16:24:00.600,LG-H970,1572193440609.3333,-1.264,10.214,-1.191,41.1064801,16.8817585,False,5.096
2019-10-27 16:24:00.620,LG-H970,1572193440628.0,-0.582,10.446,0.403,41.1064801,16.8817585,False,5.096
2019-10-27 16:24:00.640,LG-H970,1572193440647.25,-0.717,9.838,0.299,41.1064801,16.8817585,False,5.096
2019-10-27 16:24:00.660,LG-H970,1572193440668.0,-1.427,9.766,-1.199,41.1064801,16.8817585,False,5.096
2019-10-27 16:24:00.680,LG-H970,1572193440688.5,-0.389,9.172,-0.385,41.1064801,16.8817585,False,5.096
2019-10-27 16:24:00.700,LG-H970,1572193440709.6,1.214,10.017,-0.495,41.1064801,16.8817585,False,5.096
2019-10-27 16:24:00.720,LG-H970,1572193440728.3333,-0.638,11.501,-0.702,41.1064801,16.8817585,False,5.096
2019-10-27 16:24:00.740,LG-H970,1572193440747.8,-0.594,10.361,-2.436,41.1064801,16.8817585,False,5.096
2019-10-27 16:24:00.760,LG-H970,1572193440770.25,2.093,8.987,0.103,41.1064801,16.8817585,False,5.096
2019-10-27 16:24:00.780,LG-H970,1572193440789.75,1.512,9.05,-1.635,41.1064801,16.8817585,False,5.096
2019-10-27 16:24:00.800,LG-H970,1572193440809.0,-0.35,10.828,-1.527,41.1064801,16.8817585,False,5.096
2019-10-27 16:24:00.820,LG-H970,1572193440830.5,0.327,9.695,-1.919,41.1064801,16.8817585,False,5.096
2019-10-27 16:24:00.840,LG-H970,1572193440849.75,2.186,8.887,-0.502,41.1064801,16.8817585,False,5.096
2019-10-27 16:24:00.860,LG-H970,1572193440869.5,0.828,8.813,-2.317,41.1064801,16.8817585,False,5.096
2019-10-27 16:24:00.880,LG-H970,1572193440888.75,-0.895,9.137,-1.318,41.1064801,16.8817585,False,5.096
2019-10-27 16:24:00.900,LG-H970,1572193440910.0,0.19,10.068,-2.193,41.1064801,16.8817585,False,5.096
2019-10-27 16:24:00.920,LG-H970,1572193440928.75,1.182,10.564,-0.679,41.1064801,16.8817585,False,5.096
2019-10-27 16:24:00.940,LG-H970,1572193440948.0,0.439,8.929,-0.935,41.1064801,16.8817585,False,5.096
2019-10-27 16:24:00.960,LG-H970,1572193440969.0,0.014,9.091,-2.078,41.1064801,16.8817585,False,5.096
2019-10-27 16:24:00.980,LG-H970,1572193440987.5,-0.181,8.793,-1.64,41.1064801,16.8817585,False,5.096
2019-10-27 16:24:01.000,LG-H970,1572193441010.0,-0.088,9.786,-0.935,41.1064801,16.8817585,False,5.096
2019-10-27 16:24:01.020,LG-H970,1572193441029.4,0.287,10.313,-0.456,41.1064801,16.8817585,False,5.096
2019-10-27 16:24:01.040,LG-H970,1572193441049.6667,0.473,9.449,-1.176,41.1064801,16.8817585,False,5.096
2019-10-27 16:24:01.060,LG-H970,1572193441069.6,0.858,9.36,-0.568,41.1064801,16.8817585,False,5.096
2019-10-27 16:24:01.080,LG-H970,1572193441091.75,0.201,9.992,-0.489,41.1064801,16.8817585,False,5.096
2019-10-27 16:24:01.100,LG-H970,1572193441111.25,-0.53,10.896,-0.241,41.1064801,16.8817585,False,5.096
2019-10-27 16:24:01.120,LG-H970,1572193441130.75,-0.038,10.053,-0.024,41.1064801,16.8817585,False,5.096
2019-10-27 16:24:01.140,LG-H970,1572193441150.75,0.616,8.967,-0.544,41.1064801,16.8817585,False,5.096
2019-10-27 16:24:01.160,LG-H970,1572193441170.75,-0.084,8.05,-1.037,41.1064801,16.8817585,False,5.096
2019-10-27 16:24:01.180,LG-H970,1572193441189.5,-0.774,9.077,-1.117,41.1064801,16.8817585,False,5.096
2019-10-27 16:24:01.200,LG-H970,1572193441209.25,-0.915,9.847,0.479,41.1064801,16.8817585,False,5.096
2019-10-27 16:24:01.220,LG-H970,1572193441230.0,-0.323,10.628,0.902,41.1064801,16.8817585,False,5.096
2019-10-27 16:24:01.240,LG-H970,1572193441248.75,-1.487,9.355,-0.159,41.1064801,16.8817585,False,5.096
2019-10-27 16:24:01.260,LG-H970,1572193441268.75,0.342,7.085,-1.889,41.1064801,16.8817585,False,5.096
2019-10-27 16:24:01.280,LG-H970,1572193441288.75,3.558,5.772,-0.795,41.1064801,16.8817585,False,5.096
2019-10-27 16:24:01.300,LG-H970,1572193441308.0,1.755,7.055,0.721,41.1064801,16.8817585,False,5.096
2019-10-27 16:24:01.320,LG-H970,1572193441330.5,-2.052,11.817,0.039,41.1064801,16.8817585,False,5.096
2019-10-27 16:24:01.340,LG-H970,1572193441352.75,-1.823,12.162,1.226,41.1064801,16.8817585,False,5.096
2019-10-27 16:24:01.360,LG-H970,1572193441368.3333,1.989,10.251,1.833,41.1064801,16.8817585,False,5.096
2019-10-27 16:24:01.380,LG-H970,1572193441389.2,2.017,9.465,0.846,41.106536,16.8818599,False,4.44
2019-10-27 16:24:01.400,LG-H970,1572193441413.0,-1.405,11.102,-1.34,41.106536,16.8818599,False,4.44
2019-10-27 16:24:01.420,LG-H970,1572193441429.25,-1.407,12.176,0.634,41.106536,16.8818599,False,4.44
2019-10-27 16:24:01.440,LG-H970,1572193441448.25,1.092,12.443,2.719,41.106536,16.8818599,False,4.44
2019-10-27 16:24:01.460,LG-H970,1572193441469.5,0.09,13.345,1.283,41.106536,16.8818599,False,4.44
2019-10-27 16:24:01.480,LG-H970,1572193441488.75,-2.14,11.755,-0.279,41.106536,16.8818599,False,4.44
2019-10-27 16:24:01.500,LG-H970,1572193441509.0,-0.272,10.364,-0.354,41.106536,16.8818599,False,4.44
2019-10-27 16:24:01.520,LG-H970,1572193441527.75,-0.424,11.026,1.48,41.106536,16.8818599,False,4.44
2019-10-27 16:24:01.540,LG-H970,1572193441548.25,-2.48,13.114,-0.152,41.106536,16.8818599,False,4.44
2019-10-27 16:24:01.560,LG-H970,1572193441568.0,-1.486,12.866,3.719,41.106536,16.8818599,False,4.44
2019-10-27 16:24:01.580,LG-H970,1572193441587.75,1.283,13.786,0.559,41.106536,16.8818599,False,4.44
2019-10-27 16:24:01.600,LG-H970,1572193441607.0,-6.205,13.926,3.367,41.106536,16.8818599,False,4.44
2019-10-27 16:24:01.620,LG-H970,1572193441628.8,-1.857,12.976,-2.225,41.106536,16.8818599,False,4.44
2019-10-27 16:24:01.640,LG-H970,1572193441651.75,5.878,7.501,2.844,41.106536,16.8818599,False,4.44
2019-10-27 16:24:01.660,LG-H970,1572193441671.0,1.045,8.401,-1.284,41.106536,16.8818599,False,4.44
2019-10-27 16:24:01.680,LG-H970,1572193441690.75,-3.406,9.204,-4.083,41.106536,16.8818599,False,4.44
2019-10-27 16:24:01.700,LG-H970,1572193441710.25,0.59,8.895,-0.911,41.106536,16.8818599,False,4.44
2019-10-27 16:24:01.720,LG-H970,1572193441730.0,2.953,8.313,0.78,41.106536,16.8818599,False,4.44
2019-10-27 16:24:01.740,LG-H970,1572193441750.5,0.463,8.862,-0.732,41.106536,16.8818599,False,4.44
2019-10-27 16:24:01.760,LG-H970,1572193441769.25,-0.308,6.969,-3.123,41.106536,16.8818599,False,4.44
2019-10-27 16:24:01.780,LG-H970,1572193441790.25,1.95,6.116,-2.038,41.106536,16.8818599,False,4.44
2019-10-27 16:24:01.800,LG-H970,1572193441808.75,1.688,7.775,-1.723,41.106536,16.8818599,False,4.44
2019-10-27 16:24:01.820,LG-H970,1572193441829.25,-0.375,9.998,-0.355,41.106536,16.8818599,False,4.44
2019-10-27 16:24:01.840,LG-H970,1572193441848.75,0.603,9.536,-0.684,41.106536,16.8818599,False,4.44
2019-10-27 16:24:01.860,LG-H970,1572193441868.0,2.47,7.789,-0.707,41.106536,16.8818599,False,4.44
2019-10-27 16:24:01.880,LG-H970,1572193441890.2,1.624,6.87,0.355,41.106536,16.8818599,False,4.44
2019-10-27 16:24:01.900,LG-H970,1572193441912.25,-0.385,8.658,-2.483,41.106536,16.8818599,False,4.44
2019-10-27 16:24:01.920,LG-H970,1572193441931.5,-0.745,10.145,-1.564,41.106536,16.8818599,False,4.44
2019-10-27 16:24:01.940,LG-H970,1572193441951.5,-0.408,8.983,-0.951,41.106536,16.8818599,False,4.44
2019-10-27 16:24:01.960,LG-H970,1572193441971.0,1.41,8.229,-0.57,41.106536,16.8818599,False,4.44
2019-10-27 16:24:01.980,LG-H970,1572193441990.75,0.232,8.41,-1.98,41.106536,16.8818599,False,4.44
2019-10-27 16:24:02.000,LG-H970,1572193442011.0,-1.701,9.335,-2.88,41.106536,16.8818599,False,4.44
