UTC_timestamp,device_name,timestamp,x,y,z,lat,long,event,speed
2019-10-27 16:24:09.260,LG-H970,1572193449268.75,1.802,11.104,0.537,41.1066515,16.8819739,False,1.72
2019-10-27 16:24:09.280,LG-H970,1572193449289.0,2.338,9.966,-1.977,41.1066515,16.8819739,False,1.72
2019-10-27 16:24:09.300,LG-H970,1572193449309.0,0.31,9.132,-2.678,41.1066515,16.8819739,False,1.72
2019-10-27 16:24:09.320,LG-H970,1572193449329.0,2.317,8.629,-1.383,41.1066515,16.8819739,False,1.72
2019-10-27 16:24:09.340,LG-H970,1572193449350.4,4.227,9.017,-0.732,41.1066515,16.8819739,False,1.72
2019-10-27 16:24:09.360,LG-H970,1572193449374.5,1.116,10.555,-0.252,41.1066588,16.8819938,False,1.621
2019-10-27 16:24:09.380,LG-H970,1572193449388.8,0.903,11.994,-1.916,41.1066588,16.8819938,False,1.621
2019-10-27 16:24:09.400,LG-H970,1572193449411.5,5.612,9.285,-0.341,41.1066588,16.8819938,False,1.621
2019-10-27 16:24:09.420,LG-H970,1572193449429.0,4.398,7.331,3.542,41.1066588,16.8819938,False,1.6209999999999998
2019-10-27 16:24:09.440,LG-H970,1572193449447.75,2.671,13.278,-2.047,41.1066588,16.8819938,False,1.621
2019-10-27 16:24:09.460,LG-H970,1572193449471.75,7.694,14.444,0.942,41.1066588,16.8819938,False,1.621
2019-10-27 16:24:09.480,LG-H970,1572193449490.25,9.528,7.334,6.674,41.1066588,16.8819938,False,1.621
2019-10-27 16:24:09.500,LG-H970,1572193449510.75,2.994,11.321,-0.987,41.1066588,16.8819938,False,1.621
2019-10-27 16:24:09.520,LG-H970,1572193449530.25,-1.159,10.513,-2.307,41.1066588,16.8819938,False,1.621
2019-10-27 16:24:09.540,LG-H970,1572193449549.75,5.366,10.041,0.292,41.1066588,16.8819938,False,1.621
2019-10-27 16:24:09.560,LG-H970,1572193449569.75,3.901,8.972,2.416,41.1066588,16.8819938,False,1.621
2019-10-27 16:24:09.580,LG-H970,1572193449589.0,-0.834,10.32,-0.36,41.1066588,16.8819938,False,1.621
2019-10-27 16:24:09.600,LG-H970,1572193449608.75,-1.462,8.768,-1.914,41.1066588,16.8819938,False,1.621
2019-10-27 16:24:09.620,LG-H970,1572193449628.5,0.656,9.054,0.378,41.1066588,16.8819938,False,1.621
2019-10-27 16:24:09.640,LG-H970,1572193449648.25,-0.779,8.623,-0.201,41.1066588,16.8819938,False,1.621
2019-10-27 16:24:09.660,LG-H970,1572193449668.5,-2.905,10.124,-0.191,41.1066588,16.8819938,False,1.621
2019-10-27 16:24:09.680,LG-H970,1572193449688.0,-4.001,9.35,-1.305,41.1066588,16.8819938,False,1.621
2019-10-27 16:24:09.700,LG-H970,1572193449707.75,-2.692,8.867,-0.568,41.1066588,16.8819938,False,1.621
2019-10-27 16:24:09.720,LG-H970,1572193449729.8,-2.321,8.485,-1.545,41.1066588,16.8819938,False,1.621
2019-10-27 16:24:09.740,LG-H970,1572193449751.5,-3.476,10.191,-1.417,41.1066588,16.8819938,False,1.621
2019-10-27 16:24:09.760,LG-H970,1572193449771.5,-2.876,9.892,-0.22,41.1066588,16.8819938,False,1.621
2019-10-27 16:24:09.780,LG-H970,1572193449791.75,-0.41,9.42,-0.121,41.1066588,16.8819938,False,1.621
2019-10-27 16:24:09.800,LG-H970,1572193449811.5,-1.083,9.011,-0.647,41.1066588,16.8819938,False,1.621
2019-10-27 16:24:09.820,LG-H970,1572193449831.0,-1.645,9.77,-1.118,41.1066588,16.8819938,False,1.621
2019-10-27 16:24:09.840,LG-H970,1572193449851.75,-1.203,9.973,0.104,41.1066588,16.8819938,False,1.621
2019-10-27 16:24:09.860,LG-H970,1572193449871.25,-1.041,10.38,1.699,41.1066588,16.8819938,False,1.621
2019-10-27 16:24:09.880,LG-H970,1572193449890.0,-2.013,10.857,1.239,41.1066588,16.8819938,False,1.621
2019-10-27 16:24:09.900,LG-H970,1572193449909.5,-2.112,10.854,-1.348,41.1066588,16.8819938,False,1.621
2019-10-27 16:24:09.920,LG-H970,1572193449929.25,0.29,9.912,-0.659,41.1066588,16.8819938,False,1.621
2019-10-27 16:24:09.940,LG-H970,1572193449949.5,2.927,7.827,-0.572,41.1066588,16.8819938,False,1.621
2019-10-27 16:24:09.960,LG-H970,1572193449969.0,1.506,9.287,-0.316,41.1066588,16.8819938,False,1.621
2019-10-27 16:24:09.980,LG-H970,1572193449988.75,-0.081,9.82,-1.115,41.1066588,16.8819938,False,1.621
2019-10-27 16:24:10.000,LG-H970,1572193450008.25,2.245,9.233,-1.001,41.1066588,16.8819938,False,1.621
2019-10-27 16:24:10.020,LG-H970,1572193450028.25,3.2,7.469,0.256,41.1066588,16.8819938,False,1.621
2019-10-27 16:24:10.040,LG-H970,1572193450047.75,2.11,10.162,0.295,41.1066588,16.8819938,False,1.621
2019-10-27 16:24:10.060,LG-H970,1572193450068.0,2.851,11.364,-0.714,41.1066588,16.8819938,False,1.621
2019-10-27 16:24:10.080,LG-H970,1572193450087.25,6.134,10.511,0.998,41.1066588,16.8819938,False,1.621
2019-10-27 16:24:10.100,LG-H970,1572193450110.2,3.885,9.555,-0.264,41.1066588,16.8819938,False,1.621
2019-10-27 16:24:10.120,LG-H970,1572193450131.5,1.565,11.014,-1.163,41.1066588,16.8819938,False,1.621
2019-10-27 16:24:10.140,LG-H970,1572193450151.0,4.541,10.435,0.414,41.1066588,16.8819938,False,1.621
2019-10-27 16:24:10.160,LG-H970,1572193450171.0,6.342,11.212,-0.103,41.1066588,16.8819938,False,1.621
2019-10-27 16:24:10.180,LG-H970,1572193450191.25,3.808,10.444,-0.145,41.1066588,16.8819938,False,1.621
2019-10-27 16:24:10.200,LG-H970,1572193450210.0,2.926,10.04,-0.692,41.1066588,16.8819938,False,1.621
2019-10-27 16:24:10.220,LG-H970,1572193450230.25,3.664,9.548,-0.197,41.1066588,16.8819938,False,1.621
2019-10-27 16:24:10.240,LG-H970,1572193450249.5,2.887,10.551,-0.483,41.1066588,16.8819938,False,1.621
2019-10-27 16:24:10.260,LG-H970,1572193450269.75,1.189,10.282,-0.11,41.1066588,16.8819938,False,1.621
2019-10-27 16:24:10.280,LG-H970,1572193450289.0,1.426,9.143,0.655,41.1066588,16.8819938,False,1.621
2019-10-27 16:24:10.300,LG-H970,1572193450308.75,1.499,8.64,0.639,41.1066588,16.8819938,False,1.621
2019-10-27 16:24:10.320,LG-H970,1572193450328.5,-0.236,10.006,-0.023,41.1066588,16.8819938,False,1.621
2019-10-27 16:24:10.340,LG-H970,1572193450350.4,-1.906,10.194,0.264,41.1066588,16.8819938,False,1.621
2019-10-27 16:24:10.360,LG-H970,1572193450372.5,-1.251,9.858,0.612,41.1066588,16.8819938,False,1.621
2019-10-27 16:24:10.380,LG-H970,1572193450389.3333,-0.484,8.528,-0.033,41.1066588,16.8819938,False,1.6209999999999998
2019-10-27 16:24:10.400,LG-H970,1572193450404.6667,-0.847,9.101,-0.561,41.1066588,16.8819938,False,1.6209999999999998
2019-10-27 16:24:10.420,LG-H970,1572193450404.6667,-0.847,9.101,-0.561,41.1066588,16.8819938,False,1.6209999999999998
2019-10-27 16:24:10.440,LG-H970,1572193450452.75,-1.42,10.28,0.04,41.1066588,16.8819938,False,1.621
2019-10-27 16:24:10.460,LG-H970,1572193450470.75,-1.752,9.829,0.427,41.1066588,16.8819938,False,1.621
2019-10-27 16:24:10.480,LG-H970,1572193450490.5,-2.197,10.179,-1.227,41.1066588,16.8819938,False,1.621
2019-10-27 16:24:10.500,LG-H970,1572193450510.0,-1.829,8.708,-1.447,41.1066588,16.8819938,False,1.621
2019-10-27 16:24:10.520,LG-H970,1572193450529.75,-0.341,8.5,-1.162,41.1066588,16.8819938,False,1.621
2019-10-27 16:24:10.540,LG-H970,1572193450549.75,-0.225,9.101,-1.215,41.1066588,16.8819938,False,1.621
2019-10-27 16:24:10.560,LG-H970,1572193450569.75,-0.393,10.0,-1.367,41.1066588,16.8819938,False,1.621
2019-10-27 16:24:10.580,LG-H970,1572193450589.5,0.057,9.215,-1.548,41.1066588,16.8819938,False,1.621
2019-10-27 16:24:10.600,LG-H970,1572193450608.75,0.095,8.652,-1.628,41.1066588,16.8819938,False,1.621
2019-10-27 16:24:10.620,LG-H970,1572193450628.5,-0.514,9.329,-2.375,41.1066588,16.8819938,False,1.621
2019-10-27 16:24:10.640,LG-H970,1572193450648.75,-0.282,9.894,-1.488,41.1066588,16.8819938,False,1.621
2019-10-27 16:24:10.660,LG-H970,1572193450668.25,0.533,9.418,-1.23,41.1066588,16.8819938,False,1.621
2019-10-27 16:24:10.680,LG-H970,1572193450687.5,0.961,9.567,-1.463,41.1066588,16.8819938,False,1.621
2019-10-27 16:24:10.700,LG-H970,1572193450709.6,1.026,9.332,-1.989,41.1066588,16.8819938,False,1.621
2019-10-27 16:24:10.720,LG-H970,1572193450732.0,1.565,9.748,-1.747,41.1066588,16.8819938,False,1.621
2019-10-27 16:24:10.740,LG-H970,1572193450744.0,1.879,9.371,-1.664,41.1066588,16.8819938,False,1.621
2019-10-27 16:24:10.760,LG-H970,1572193450765.0,1.639,8.88,-1.183,41.1066588,16.8819938,True,1.621
2019-10-27 16:24:10.780,LG-H970,1572193450765.0,1.639,8.88,-1.183,41.1066588,16.8819938,True,1.621
2019-10-27 16:24:10.800,LG-H970,1572193450808.0,1.089,10.002,-0.47,41.1066588,16.8819938,False,1.6209999999999998
2019-10-27 16:24:10.820,LG-H970,1572193450832.5,0.294,10.425,-2.665,41.1066588,16.8819938,False,1.621
2019-10-27 16:24:10.840,LG-H970,1572193450849.75,0.926,10.189,-0.111,41.1066588,16.8819938,False,1.621
2019-10-27 16:24:10.860,LG-H970,1572193450868.75,2.222,8.915,-0.921,41.1066588,16.8819938,False,1.621
2019-10-27 16:24:10.880,LG-H970,1572193450888.5,1.023,10.528,-0.99,41.1066588,16.8819938,False,1.621
2019-10-27 16:24:10.900,LG-H970,1572193450908.75,-0.157,10.17,-1.573,41.1066588,16.8819938,False,1.621
2019-10-27 16:24:10.920,LG-H970,1572193450929.25,1.305,10.019,0.052,41.1066588,16.8819938,False,1.621
2019-10-27 16:24:10.940,LG-H970,1572193450950.0,0.801,9.113,-1.113,41.1066588,16.8819938,False,1.621
2019-10-27 16:24:10.960,LG-H970,1572193450968.25,-0.862,9.465,-1.082,41.1066588,16.8819938,False,1.621
2019-10-27 16:24:10.980,LG-H970,1572193450987.75,0.004,8.749,-0.818,41.1066588,16.8819938,False,1.621
2019-10-27 16:24:11.000,LG-H970,1572193451008.75,1.702,10.036,-1.079,41.1066588,16.8819938,False,1.621
2019-10-27 16:24:11.020,LG-H970,1572193451025.3333,1.069,8.833,-0.838,41.1066588,16.8819938,False,1.6209999999999998
2019-10-27 16:24:11.040,LG-H970,1572193451046.6,0.41,9.362,-0.689,41.1066588,16.8819938,False,1.621
2019-10-27 16:24:11.060,LG-H970,1572193451069.6,1.145,9.286,-0.931,41.1066588,16.8819938,False,1.621
2019-10-27 16:24:11.080,LG-H970,1572193451092.25,2.341,10.243,-0.402,41.1066588,16.8819938,False,1.621
2019-10-27 16:24:11.100,LG-H970,1572193451109.0,1.57,9.983,-0.787,41.1066588,16.8819938,False,1.6209999999999998
2019-10-27 16:24:11.120,LG-H970,1572193451129.2,0.988,10.018,0.073,41.1066588,16.8819938,False,1.621
2019-10-27 16:24:11.140,LG-H970,1572193451151.25,1.193,9.589,-0.698,41.1066588,16.8819938,False,1.621
2019-10-27 16:24:11.160,LG-H970,1572193451171.75,0.575,10.066,-0.494,41.1066588,16.8819938,False,1.621
2019-10-27 16:24:11.180,LG-H970,1572193451191.25,0.002,9.974,-0.531,41.1066588,16.8819938,False,1.621
2019-10-27 16:24:11.200,LG-H970,1572193451211.75,-0.1,9.229,-0.757,41.1066588,16.8819938,False,1.621
2019-10-27 16:24:11.220,LG-H970,1572193451230.0,0.388,9.427,-0.799,41.1066588,16.8819938,False,1.621
2019-10-27 16:24:11.240,LG-H970,1572193451248.75,0.12,9.939,-0.458,41.1066588,16.8819938,False,1.621
2019-10-27 16:24:11.260,LG-H970,1572193451269.25,0.542,10.95,-0.338,41.1066588,16.8819938,False,1.621
2019-10-27 16:24:11.280,LG-H970,1572193451288.75,1.399,9.912,0.495,41.1066588,16.8819938,False,1.621
2019-10-27 16:24:11.300,LG-H970,1572193451309.5,1.896,10.341,-0.322,41.1066588,16.8819938,False,1.621
2019-10-27 16:24:11.320,LG-H970,1572193451330.0,1.061,9.68,-0.704,41.1066588,16.8819938,False,1.621
2019-10-27 16:24:11.340,LG-H970,1572193451346.0,1.601,9.807,0.158,41.1066588,16.8819938,False,1.621
2019-10-27 16:24:11.360,LG-H970,1572193451368.1667,2.447,9.556,0.19,41.106663,16.8820215,False,2.068333333333333
2019-10-27 16:24:11.380,LG-H970,1572193451389.6667,2.247,9.455,0.111,41.1066651,16.8820354,False,2.292
2019-10-27 16:24:11.400,LG-H970,1572193451407.25,2.408,9.61,-0.963,41.1066651,16.8820354,False,2.292
2019-10-27 16:24:11.420,LG-H970,1572193451427.0,2.215,8.777,-0.359,41.1066651,16.8820354,False,2.292
2019-10-27 16:24:11.440,LG-H970,1572193451448.0,0.898,9.238,0.1,41.1066651,16.8820354,False,2.292
2019-10-27 16:24:11.460,LG-H970,1572193451468.8,-0.423,10.631,-0.853,41.1066651,16.8820354,False,2.292
2019-10-27 16:24:11.480,LG-H970,1572193451491.0,0.223,10.147,0.058,41.1066651,16.8820354,False,2.292
2019-10-27 16:24:11.500,LG-H970,1572193451510.5,1.224,9.129,0.205,41.1066651,16.8820354,False,2.292
2019-10-27 16:24:11.520,LG-H970,1572193451530.25,-0.316,8.966,-0.021,41.1066651,16.8820354,False,2.292
2019-10-27 16:24:11.540,LG-H970,1572193451550.0,-1.385,9.971,-0.928,41.1066651,16.8820354,False,2.292
2019-10-27 16:24:11.560,LG-H970,1572193451568.4,-1.55,9.388,-0.427,41.1066651,16.8820354,False,2.292
2019-10-27 16:24:11.580,LG-H970,1572193451592.6667,-1.892,9.374,0.203,41.1066651,16.8820354,False,2.292
2019-10-27 16:24:11.600,LG-H970,1572193451608.75,-2.336,8.946,-1.455,41.1066651,16.8820354,False,2.292
2019-10-27 16:24:11.620,LG-H970,1572193451628.75,-1.264,9.743,-1.083,41.1066651,16.8820354,False,2.292
2019-10-27 16:24:11.640,LG-H970,1572193451648.75,-0.934,9.417,-0.445,41.1066651,16.8820354,False,2.292
2019-10-27 16:24:11.660,LG-H970,1572193451668.75,-0.973,11.269,0.476,41.1066651,16.8820354,False,2.292
2019-10-27 16:24:11.680,LG-H970,1572193451689.0,-0.512,10.972,-0.772,41.1066651,16.8820354,False,2.292
2019-10-27 16:24:11.700,LG-H970,1572193451708.25,0.771,10.599,0.073,41.1066651,16.8820354,False,2.292
2019-10-27 16:24:11.720,LG-H970,1572193451728.5,0.366,9.564,-0.483,41.1066651,16.8820354,False,2.292
2019-10-27 16:24:11.740,LG-H970,1572193451748.25,0.46,10.63,-0.67,41.1066651,16.8820354,False,2.292
2019-10-27 16:24:11.760,LG-H970,1572193451768.0,1.55,10.624,-0.971,41.1066651,16.8820354,False,2.292
2019-10-27 16:24:11.780,LG-H970,1572193451788.0,1.594,10.611,0.564,41.1066651,16.8820354,False,2.292
2019-10-27 16:24:11.800,LG-H970,1572193451809.2,1.499,10.223,-0.865,41.1066651,16.8820354,False,2.292
2019-10-27 16:24:11.820,LG-H970,1572193451831.6667,1.995,9.588,-0.581,41.1066651,16.8820354,False,2.292
2019-10-27 16:24:11.840,LG-H970,1572193451850.5,2.435,9.773,-0.901,41.1066651,16.8820354,False,2.292
2019-10-27 16:24:11.860,LG-H970,1572193451870.5,2.01,10.489,0.057,41.1066651,16.8820354,False,2.292
2019-10-27 16:24:11.880,LG-H970,1572193451890.5,1.84,9.883,-0.614,41.1066651,16.8820354,False,2.292
2019-10-27 16:24:11.900,LG-H970,1572193451910.25,2.377,9.672,-0.388,41.1066651,16.8820354,False,2.292
2019-10-27 16:24:11.920,LG-H970,1572193451929.75,2.04,9.506,-0.836,41.1066651,16.8820354,False,2.292
2019-10-27 16:24:11.940,LG-H970,1572193451950.0,1.217,9.834,0.098,41.1066651,16.8820354,False,2.292
2019-10-27 16:24:11.960,LG-H970,1572193451971.25,2.072,9.802,-0.411,41.1066651,16.8820354,False,2.292
2019-10-27 16:24:11.980,LG-H970,1572193451988.25,2.554,9.589,0.158,41.1066651,16.8820354,False,2.292
2019-10-27 16:24:12.000,LG-H970,1572193452009.0,1.857,9.714,-0.411,41.1066651,16.8820354,False,2.292
2019-10-27 16:24:12.020,LG-H970,1572193452028.25,1.603,9.667,0.041,41.1066651,16.8820354,False,2.292
2019-10-27 16:24:12.040,LG-H970,1572193452048.25,2.241,9.712,-0.42,41.1066651,16.8820354,False,2.292
2019-10-27 16:24:12.060,LG-H970,1572193452069.0,1.591,9.882,0.349,41.1066651,16.8820354,False,2.292
2019-10-27 16:24:12.080,LG-H970,1572193452088.25,1.009,10.261,-0.077,41.1066651,16.8820354,False,2.292
2019-10-27 16:24:12.100,LG-H970,1572193452107.75,0.985,10.193,0.742,41.1066651,16.8820354,False,2.292
2019-10-27 16:24:12.120,LG-H970,1572193452127.5,1.475,10.737,0.173,41.1066651,16.8820354,False,2.292
2019-10-27 16:24:12.140,LG-H970,1572193452149.4,1.041,10.068,1.399,41.1066651,16.8820354,False,2.292
2019-10-27 16:24:12.160,LG-H970,1572193452171.5,0.783,10.577,0.968,41.1066651,16.8820354,False,2.292
2019-10-27 16:24:12.180,LG-H970,1572193452190.75,1.226,11.196,0.382,41.1066651,16.8820354,False,2.292
2019-10-27 16:24:12.200,LG-H970,1572193452210.5,2.873,10.923,0.65,41.1066651,16.8820354,False,2.292
2019-10-27 16:24:12.220,LG-H970,1572193452230.5,2.504,9.61,1.178,41.1066651,16.8820354,False,2.292
2019-10-27 16:24:12.240,LG-H970,1572193452249.75,0.959,10.414,-0.096,41.1066651,16.8820354,False,2.292
