UTC_timestamp,device_name,timestamp,x,y,z,lat,long,event,speed
2019-10-26 10:23:20.360,LG-H970,1572085400367.5,-0.53,9.821,-0.564,41.1050342,16.878774,False,NONE
2019-10-26 10:23:20.380,LG-H970,1572085400387.75,-0.283,9.923,-0.35,41.1050342,16.878774,False,NONE
2019-10-26 10:23:20.400,LG-H970,1572085400410.4,-0.575,9.848,-0.301,41.1050342,16.878774,False,NONE
2019-10-26 10:23:20.420,LG-H970,1572085400431.5,-0.544,10.015,-0.479,41.1050342,16.878774,False,NONE
2019-10-26 10:23:20.440,LG-H970,1572085400451.5,-0.517,9.778,-0.337,41.1050342,16.878774,False,NONE
2019-10-26 10:23:20.460,LG-H970,1572085400471.25,-0.481,9.761,-0.404,41.1050342,16.878774,False,NONE
2019-10-26 10:23:20.480,LG-H970,1572085400490.75,-0.397,9.898,-0.348,41.1050342,16.878774,False,NONE
2019-10-26 10:23:20.500,LG-H970,1572085400510.5,-0.654,9.784,-0.369,41.1050342,16.878774,False,NONE
2019-10-26 10:23:20.520,LG-H970,1572085400530.75,-0.467,10.102,-0.446,41.1050342,16.878774,False,NONE
2019-10-26 10:23:20.540,LG-H970,1572085400550.25,-0.605,9.712,-0.27,41.1050342,16.878774,False,NONE
2019-10-26 10:23:20.560,LG-H970,1572085400569.75,-0.328,9.977,-0.37,41.1050342,16.878774,False,NONE
2019-10-26 10:23:20.580,LG-H970,1572085400589.75,-0.578,9.875,-0.449,41.1050342,16.878774,False,NONE
2019-10-26 10:23:20.600,LG-H970,1572085400609.5,-0.485,9.888,-0.411,41.1050342,16.878774,False,NONE
2019-10-26 10:23:20.620,LG-H970,1572085400628.5,-0.398,10.039,-0.291,41.1050342,16.878774,False,NONE
2019-10-26 10:23:20.640,LG-H970,1572085400648.5,-0.314,9.834,-0.385,41.1050342,16.878774,False,NONE
2019-10-26 10:23:20.660,LG-H970,1572085400668.5,-0.305,9.818,-0.329,41.1050342,16.878774,False,NONE
2019-10-26 10:23:20.680,LG-H970,1572085400687.75,-0.566,9.849,-0.5,41.1050342,16.878774,False,NONE
2019-10-26 10:23:20.700,LG-H970,1572085400709.25,-0.323,9.958,-0.338,41.1050342,16.878774,False,NONE
2019-10-26 10:23:20.720,LG-H970,1572085400729.6,-0.349,9.845,-0.22,41.1050342,16.878774,False,NONE
2019-10-26 10:23:20.740,LG-H970,1572085400751.75,-0.4,9.852,-0.462,41.1050342,16.878774,False,NONE
2019-10-26 10:23:20.760,LG-H970,1572085400770.5,-0.543,9.872,-0.33,41.1050342,16.878774,False,NONE
2019-10-26 10:23:20.780,LG-H970,1572085400791.0,-0.502,9.907,-0.498,41.1050342,16.878774,False,NONE
2019-10-26 10:23:20.800,LG-H970,1572085400812.6667,-0.266,9.958,-0.296,41.1050342,16.878774,False,NONE
2019-10-26 10:23:20.820,LG-H970,1572085400830.5,-0.572,9.758,-0.31,41.1050342,16.878774,False,NONE
2019-10-26 10:23:20.840,LG-H970,1572085400849.75,-0.517,10.085,-0.508,41.1050342,16.878774,False,NONE
2019-10-26 10:23:20.860,LG-H970,1572085400870.25,-0.578,9.76,-0.356,41.1050342,16.878774,False,NONE
2019-10-26 10:23:20.880,LG-H970,1572085400890.5,-0.356,9.907,-0.365,41.1050342,16.878774,False,NONE
2019-10-26 10:23:20.900,LG-H970,1572085400909.25,-0.523,9.857,-0.326,41.1050342,16.878774,False,NONE
2019-10-26 10:23:20.920,LG-H970,1572085400929.0,-0.582,9.814,-0.364,41.1050342,16.878774,False,NONE
2019-10-26 10:23:20.940,LG-H970,1572085400949.25,-0.429,10.104,-0.41,41.1050342,16.878774,False,NONE
2019-10-26 10:23:20.960,LG-H970,1572085400969.0,-0.542,9.693,-0.387,41.1050342,16.878774,False,NONE
2019-10-26 10:23:20.980,LG-H970,1572085400989.0,-0.427,9.86,-0.281,41.1050342,16.878774,False,NONE
2019-10-26 10:23:21.000,LG-H970,1572085401008.75,-0.76,9.926,-0.545,41.1050342,16.878774,False,NONE
2019-10-26 10:23:21.020,LG-H970,1572085401028.5,-0.36,10.039,-0.36,41.1050342,16.878774,False,NONE
2019-10-26 10:23:21.040,LG-H970,1572085401048.25,-0.314,9.898,-0.265,41.1050342,16.878774,False,NONE
2019-10-26 10:23:21.060,LG-H970,1572085401067.75,-0.33,9.79,-0.404,41.1050342,16.878774,False,NONE
2019-10-26 10:23:21.080,LG-H970,1572085401088.75,-0.508,9.733,-0.356,41.1050342,16.878774,False,NONE
2019-10-26 10:23:21.100,LG-H970,1572085401107.5,-0.445,9.985,-0.443,41.1050342,16.878774,False,NONE
2019-10-26 10:23:21.120,LG-H970,1572085401127.25,-0.245,9.93,-0.298,41.1050342,16.878774,False,NONE
2019-10-26 10:23:21.140,LG-H970,1572085401149.8,-0.369,9.726,-0.249,41.1050342,16.878774,False,NONE
2019-10-26 10:23:21.160,LG-H970,1572085401171.75,-0.4,10.05,-0.626,41.1050342,16.878774,False,NONE
2019-10-26 10:23:21.180,LG-H970,1572085401189.0,-0.675,9.827,-0.335,41.1050342,16.878774,False,NONE
2019-10-26 10:23:21.200,LG-H970,1572085401209.0,-0.366,9.896,-0.397,41.1050342,16.878774,False,NONE
2019-10-26 10:23:21.220,LG-H970,1572085401230.5,-0.327,9.838,-0.24,41.1050342,16.878774,False,NONE
2019-10-26 10:23:21.240,LG-H970,1572085401250.75,-0.619,9.8,-0.38,41.1050342,16.878774,False,NONE
2019-10-26 10:23:21.260,LG-H970,1572085401269.5,-0.562,10.228,-0.499,41.1050342,16.878774,False,NONE
2019-10-26 10:23:21.280,LG-H970,1572085401290.0,-0.559,9.731,-0.436,41.1050342,16.878774,False,NONE
2019-10-26 10:23:21.300,LG-H970,1572085401308.5,-0.269,9.814,-0.228,41.1050342,16.878774,False,NONE
2019-10-26 10:23:21.320,LG-H970,1572085401328.25,-0.575,9.878,-0.4,41.1050342,16.878774,False,NONE
2019-10-26 10:23:21.340,LG-H970,1572085401347.75,-0.527,10.026,-0.433,41.1050342,16.878774,False,NONE
2019-10-26 10:23:21.360,LG-H970,1572085401367.5,-0.526,9.88,-0.34,41.1050342,16.878774,False,NONE
2019-10-26 10:23:21.380,LG-H970,1572085401387.5,-0.326,9.749,-0.375,41.1050342,16.878774,False,NONE
2019-10-26 10:23:21.400,LG-H970,1572085401407.75,-0.337,9.812,-0.212,41.1050342,16.878774,False,NONE
2019-10-26 10:23:21.420,LG-H970,1572085401427.75,-0.513,10.008,-0.484,41.1050342,16.878774,False,NONE
2019-10-26 10:23:21.440,LG-H970,1572085401449.2,-0.429,9.98,-0.389,41.1050342,16.878774,False,NONE
2019-10-26 10:23:21.460,LG-H970,1572085401469.0,-0.491,9.73,-0.236,41.1050342,16.878774,False,NONE
2019-10-26 10:23:21.480,LG-H970,1572085401486.75,-0.281,9.996,-0.411,41.1050342,16.878774,False,NONE
2019-10-26 10:23:21.500,LG-H970,1572085401506.5,-0.541,9.781,-0.36,41.1050342,16.878774,False,NONE
2019-10-26 10:23:21.520,LG-H970,1572085401529.0,-0.533,9.927,-0.468,41.1050342,16.878774,False,NONE
2019-10-26 10:23:21.540,LG-H970,1572085401551.0,-0.466,9.9,-0.326,41.1050342,16.878774,False,NONE
2019-10-26 10:23:21.560,LG-H970,1572085401570.75,-0.563,9.685,-0.304,41.1050342,16.878774,False,NONE
2019-10-26 10:23:21.580,LG-H970,1572085401590.0,-0.483,10.087,-0.479,41.1050342,16.878774,False,NONE
2019-10-26 10:23:21.600,LG-H970,1572085401610.0,-0.708,9.769,-0.422,41.1050342,16.878774,False,NONE
2019-10-26 10:23:21.620,LG-H970,1572085401629.75,-0.471,9.865,-0.335,41.1050342,16.878774,False,NONE
2019-10-26 10:23:21.640,LG-H970,1572085401649.5,-0.462,9.836,-0.283,41.1050342,16.878774,False,NONE
2019-10-26 10:23:21.660,LG-H970,1572085401669.25,-0.477,9.921,-0.324,41.1050342,16.878774,False,NONE
2019-10-26 10:23:21.680,LG-H970,1572085401689.25,-0.579,10.067,-0.366,41.1050342,16.878774,False,NONE
2019-10-26 10:23:21.700,LG-H970,1572085401708.5,-0.477,9.771,-0.469,41.1050342,16.878774,False,NONE
2019-10-26 10:23:21.720,LG-H970,1572085401728.5,-0.208,9.813,-0.176,41.1050342,16.878774,False,NONE
2019-10-26 10:23:21.740,LG-H970,1572085401748.75,-0.427,9.946,-0.399,41.1050342,16.878774,False,NONE
2019-10-26 10:23:21.760,LG-H970,1572085401767.75,-0.453,10.052,-0.41,41.1050342,16.878774,False,NONE
2019-10-26 10:23:21.780,LG-H970,1572085401787.75,-0.478,9.774,-0.39,41.1050342,16.878774,False,NONE
2019-10-26 10:23:21.800,LG-H970,1572085401808.25,-0.134,9.88,-0.431,41.1050342,16.878774,False,NONE
2019-10-26 10:23:21.820,LG-H970,1572085401826.75,-0.354,9.727,-0.275,41.1050342,16.878774,False,NONE
2019-10-26 10:23:21.840,LG-H970,1572085401849.0,-0.514,10.004,-0.498,41.1050342,16.878774,False,NONE
2019-10-26 10:23:21.860,LG-H970,1572085401869.5,-0.402,9.945,-0.437,41.1050342,16.878774,False,NONE
2019-10-26 10:23:21.880,LG-H970,1572085401890.5,-0.471,9.69,-0.256,41.1050342,16.878774,False,NONE
2019-10-26 10:23:21.900,LG-H970,1572085401910.5,-0.385,9.942,-0.447,41.1050342,16.878774,False,NONE
2019-10-26 10:23:21.920,LG-H970,1572085401929.0,-0.611,9.821,-0.328,41.1050342,16.878774,False,NONE
2019-10-26 10:23:21.940,LG-H970,1572085401948.75,-0.532,9.972,-0.46,41.1050342,16.878774,False,NONE
2019-10-26 10:23:21.960,LG-H970,1572085401969.5,-0.515,9.922,-0.254,41.1050342,16.878774,False,NONE
2019-10-26 10:23:21.980,LG-H970,1572085401989.5,-0.466,9.78,-0.28,41.1050342,16.878774,False,NONE
2019-10-26 10:23:22.000,LG-H970,1572085402009.75,-0.437,10.091,-0.392,41.1050342,16.878774,False,NONE
2019-10-26 10:23:22.020,LG-H970,1572085402029.0,-0.718,9.757,-0.513,41.1050342,16.878774,False,NONE
2019-10-26 10:23:22.040,LG-H970,1572085402048.5,-0.457,9.966,-0.299,41.1050342,16.878774,False,NONE
2019-10-26 10:23:22.060,LG-H970,1572085402068.5,-0.398,9.912,-0.335,41.1050342,16.878774,False,NONE
2019-10-26 10:23:22.080,LG-H970,1572085402090.2,-0.349,9.85,-0.368,41.1050342,16.878774,False,NONE
2019-10-26 10:23:22.100,LG-H970,1572085402112.0,-0.502,9.951,-0.432,41.1050342,16.878774,False,NONE
2019-10-26 10:23:22.120,LG-H970,1572085402129.0,-0.545,9.732,-0.541,41.1050342,16.878774,False,NONE
2019-10-26 10:23:22.140,LG-H970,1572085402147.25,-0.304,9.857,-0.236,41.1050342,16.878774,False,NONE
2019-10-26 10:23:22.160,LG-H970,1572085402166.75,-0.408,9.926,-0.435,41.1050342,16.878774,False,NONE
2019-10-26 10:23:22.180,LG-H970,1572085402186.75,-0.527,9.889,-0.398,41.1050342,16.878774,False,NONE
2019-10-26 10:23:22.200,LG-H970,1572085402209.0,-0.508,9.849,-0.381,41.1050342,16.878774,False,NONE
2019-10-26 10:23:22.220,LG-H970,1572085402230.5,-0.353,9.864,-0.465,41.1050342,16.878774,False,NONE
2019-10-26 10:23:22.240,LG-H970,1572085402250.5,-0.388,9.934,-0.183,41.1050342,16.878774,False,NONE
2019-10-26 10:23:22.260,LG-H970,1572085402270.25,-0.542,9.967,-0.474,41.1050342,16.878774,False,NONE
2019-10-26 10:23:22.280,LG-H970,1572085402290.25,-0.465,9.904,-0.381,41.1050342,16.878774,False,NONE
2019-10-26 10:23:22.300,LG-H970,1572085402311.3333,-0.407,9.778,-0.271,41.1050342,16.878774,False,NONE
2019-10-26 10:23:22.320,LG-H970,1572085402327.0,-0.366,9.956,-0.38,41.1050342,16.878774,False,NONE
2019-10-26 10:23:22.340,LG-H970,1572085402348.25,-0.573,9.715,-0.316,41.1050342,16.878774,False,NONE
2019-10-26 10:23:22.360,LG-H970,1572085402368.0,-0.492,9.901,-0.407,41.1050342,16.878774,False,NONE
2019-10-26 10:23:22.380,LG-H970,1572085402388.25,-0.42,9.965,-0.304,41.1050342,16.878774,False,NONE
2019-10-26 10:23:22.400,LG-H970,1572085402408.25,-0.406,9.846,-0.317,41.1050342,16.878774,False,NONE
2019-10-26 10:23:22.420,LG-H970,1572085402428.5,-0.448,9.981,-0.461,41.1050342,16.878774,False,NONE
2019-10-26 10:23:22.440,LG-H970,1572085402450.0,-0.572,9.79,-0.486,41.1050342,16.878774,False,NONE
2019-10-26 10:23:22.460,LG-H970,1572085402471.5,-0.45,9.882,-0.368,41.1050342,16.878774,False,NONE
2019-10-26 10:23:22.480,LG-H970,1572085402492.0,-0.381,9.954,-0.326,41.1050342,16.878774,False,NONE
2019-10-26 10:23:22.500,LG-H970,1572085402511.75,-0.401,9.849,-0.367,41.1050342,16.878774,False,NONE
2019-10-26 10:23:22.520,LG-H970,1572085402529.3333,-0.544,9.863,-0.437,41.1050342,16.878774,False,NONE
2019-10-26 10:23:22.540,LG-H970,1572085402547.0,-0.461,9.878,-0.477,41.1050342,16.878774,False,NONE
2019-10-26 10:23:22.560,LG-H970,1572085402569.4,-0.335,9.904,-0.232,41.1050342,16.878774,False,NONE
2019-10-26 10:23:22.580,LG-H970,1572085402591.5,-0.425,9.939,-0.349,41.1050342,16.878774,False,NONE
2019-10-26 10:23:22.600,LG-H970,1572085402610.5,-0.425,9.898,-0.401,41.1050342,16.878774,False,NONE
2019-10-26 10:23:22.620,LG-H970,1572085402630.75,-0.544,9.907,-0.309,41.1050342,16.878774,False,NONE
2019-10-26 10:23:22.640,LG-H970,1572085402649.75,-0.386,9.894,-0.465,41.1050342,16.878774,False,NONE
2019-10-26 10:23:22.660,LG-H970,1572085402669.75,-0.281,9.899,-0.228,41.1050342,16.878774,False,NONE
2019-10-26 10:23:22.680,LG-H970,1572085402690.0,-0.563,9.86,-0.474,41.1050342,16.878774,False,NONE
2019-10-26 10:23:22.700,LG-H970,1572085402709.0,-0.556,9.9,-0.364,41.1050342,16.878774,False,NONE
2019-10-26 10:23:22.720,LG-H970,1572085402728.75,-0.504,9.816,-0.262,41.1050342,16.878774,False,NONE
2019-10-26 10:23:22.740,LG-H970,1572085402748.5,-0.268,9.985,-0.495,41.1050342,16.878774,False,NONE
2019-10-26 10:23:22.760,LG-H970,1572085402768.0,-0.576,9.703,-0.308,41.1050342,16.878774,False,NONE
2019-10-26 10:23:22.780,LG-H970,1572085402788.0,-0.585,9.918,-0.452,41.1050342,16.878774,False,NONE
2019-10-26 10:23:22.800,LG-H970,1572085402808.25,-0.488,9.952,-0.353,41.1050342,16.878774,False,NONE
2019-10-26 10:23:22.820,LG-H970,1572085402829.6,-0.469,9.83,-0.308,41.1050342,16.878774,False,NONE
2019-10-26 10:23:22.840,LG-H970,1572085402850.75,-0.448,10.054,-0.525,41.1050342,16.878774,False,NONE
2019-10-26 10:23:22.860,LG-H970,1572085402871.0,-0.547,9.752,-0.332,41.1050342,16.878774,False,NONE
2019-10-26 10:23:22.880,LG-H970,1572085402891.25,-0.402,9.908,-0.353,41.1050342,16.878774,False,NONE
2019-10-26 10:23:22.900,LG-H970,1572085402908.3333,-0.379,10.032,-0.277,41.1050342,16.878774,False,NONE
2019-10-26 10:23:22.920,LG-H970,1572085402929.2,-0.469,9.826,-0.304,41.1050342,16.878774,False,NONE
2019-10-26 10:23:22.940,LG-H970,1572085402950.25,-0.351,10.004,-0.468,41.1050342,16.878774,False,NONE
2019-10-26 10:23:22.960,LG-H970,1572085402969.75,-0.487,9.69,-0.371,41.1050342,16.878774,False,NONE
2019-10-26 10:23:22.980,LG-H970,1572085402990.0,-0.293,9.954,-0.271,41.1050342,16.878774,False,NONE
2019-10-26 10:23:23.000,LG-H970,1572085403010.0,-0.441,9.928,-0.422,41.1050342,16.878774,False,NONE
2019-10-26 10:23:23.020,LG-H970,1572085403030.25,-0.42,9.818,-0.393,41.1050342,16.878774,False,NONE
2019-10-26 10:23:23.040,LG-H970,1572085403048.5,-0.436,9.892,-0.365,41.1050342,16.878774,False,NONE
2019-10-26 10:23:23.060,LG-H970,1572085403068.75,-0.46,9.825,-0.425,41.1050342,16.878774,False,NONE
2019-10-26 10:23:23.080,LG-H970,1572085403088.5,-0.366,9.951,-0.289,41.1050342,16.878774,False,NONE
2019-10-26 10:23:23.100,LG-H970,1572085403108.25,-0.593,9.919,-0.445,41.1050342,16.878774,False,NONE
2019-10-26 10:23:23.120,LG-H970,1572085403128.25,-0.489,9.896,-0.34,41.1050342,16.878774,False,NONE
2019-10-26 10:23:23.140,LG-H970,1572085403150.0,-0.515,9.884,-0.304,41.1050342,16.878774,False,NONE
2019-10-26 10:23:23.160,LG-H970,1572085403170.6667,-0.405,9.994,-0.52,41.1050342,16.878774,False,NONE
2019-10-26 10:23:23.180,LG-H970,1572085403189.4,-0.506,9.864,-0.292,41.1050342,16.878774,False,NONE
2019-10-26 10:23:23.200,LG-H970,1572085403211.5,-0.565,9.863,-0.428,41.1050342,16.878774,False,NONE
2019-10-26 10:23:23.220,LG-H970,1572085403231.5,-0.383,9.85,-0.319,41.1050342,16.878774,False,NONE
2019-10-26 10:23:23.240,LG-H970,1572085403251.5,-0.524,9.836,-0.308,41.1050342,16.878774,False,NONE
2019-10-26 10:23:23.260,LG-H970,1572085403271.5,-0.413,10.03,-0.574,41.1050342,16.878774,False,NONE
2019-10-26 10:23:23.280,LG-H970,1572085403291.0,-0.483,9.725,-0.298,41.1050342,16.878774,False,NONE
2019-10-26 10:23:23.300,LG-H970,1572085403310.75,-0.377,9.844,-0.39,41.1050342,16.878774,False,NONE
2019-10-26 10:23:23.320,LG-H970,1572085403329.25,-0.377,9.952,-0.327,41.1050342,16.878774,False,NONE
2019-10-26 10:23:23.340,LG-H970,1572085403349.0,-0.497,9.9,-0.373,41.1050342,16.878774,False,NONE
2019-10-26 10:23:23.360,LG-H970,1572085403369.0,-0.395,10.068,-0.476,41.1050342,16.878774,False,NONE
2019-10-26 10:23:23.380,LG-H970,1572085403389.5,-0.501,9.669,-0.324,41.1050342,16.878774,False,NONE
2019-10-26 10:23:23.400,LG-H970,1572085403409.0,-0.351,9.901,-0.275,41.1050342,16.878774,False,NONE
2019-10-26 10:23:23.420,LG-H970,1572085403428.5,-0.514,10.001,-0.365,41.1050342,16.878774,False,NONE
2019-10-26 10:23:23.440,LG-H970,1572085403447.5,-0.493,9.898,-0.399,41.1050342,16.878774,False,NONE
2019-10-26 10:23:23.460,LG-H970,1572085403467.5,-0.487,9.898,-0.338,41.1050342,16.878774,False,NONE
2019-10-26 10:23:23.480,LG-H970,1572085403488.0,-0.515,9.739,-0.403,41.1050342,16.878774,False,NONE
2019-10-26 10:23:23.500,LG-H970,1572085403509.6,-0.452,9.903,-0.326,41.1050342,16.878774,False,NONE
2019-10-26 10:23:23.520,LG-H970,1572085403531.75,-0.57,9.988,-0.427,41.1050342,16.878774,False,NONE
2019-10-26 10:23:23.540,LG-H970,1572085403549.0,-0.481,9.877,-0.415,41.1050342,16.878774,False,NONE
2019-10-26 10:23:23.560,LG-H970,1572085403569.2,-0.506,9.842,-0.314,41.1050342,16.878774,False,NONE
2019-10-26 10:23:23.580,LG-H970,1572085403592.0,-0.462,9.821,-0.512,41.1050342,16.878774,False,NONE
2019-10-26 10:23:23.600,LG-H970,1572085403610.75,-0.396,9.958,-0.297,41.1050342,16.878774,False,NONE
2019-10-26 10:23:23.620,LG-H970,1572085403630.5,-0.524,9.913,-0.458,41.1050342,16.878774,False,NONE
2019-10-26 10:23:23.640,LG-H970,1572085403650.0,-0.366,9.9,-0.337,41.1050342,16.878774,False,NONE
2019-10-26 10:23:23.660,LG-H970,1572085403669.75,-0.477,9.793,-0.298,41.1050342,16.878774,False,NONE
2019-10-26 10:23:23.680,LG-H970,1572085403689.5,-0.349,10.012,-0.512,41.1050342,16.878774,False,NONE
2019-10-26 10:23:23.700,LG-H970,1572085403709.75,-0.473,9.782,-0.314,41.1050342,16.878774,False,NONE
2019-10-26 10:23:23.720,LG-H970,1572085403729.0,-0.441,9.84,-0.389,41.1050342,16.878774,False,NONE
2019-10-26 10:23:23.740,LG-H970,1572085403748.75,-0.395,9.942,-0.31,41.1050342,16.878774,False,NONE
2019-10-26 10:23:23.760,LG-H970,1572085403768.5,-0.467,9.843,-0.331,41.1050342,16.878774,False,NONE
2019-10-26 10:23:23.780,LG-H970,1572085403788.25,-0.359,10.045,-0.453,41.1050342,16.878774,False,NONE
2019-10-26 10:23:23.800,LG-H970,1572085403808.25,-0.576,9.692,-0.396,41.1050342,16.878774,False,NONE
2019-10-26 10:23:23.820,LG-H970,1572085403830.6,-0.441,9.92,-0.342,41.1050342,16.878774,False,NONE
2019-10-26 10:23:23.840,LG-H970,1572085403851.5,-0.448,9.948,-0.367,41.1050342,16.878774,False,NONE
2019-10-26 10:23:23.860,LG-H970,1572085403871.0,-0.446,9.868,-0.33,41.1050342,16.878774,False,NONE
2019-10-26 10:23:23.880,LG-H970,1572085403890.0,-0.499,9.967,-0.42,41.1050342,16.878774,False,NONE
2019-10-26 10:23:23.900,LG-H970,1572085403911.0,-0.573,9.705,-0.38,41.1050342,16.878774,False,NONE
2019-10-26 10:23:23.920,LG-H970,1572085403933.0,-0.358,9.852,-0.334,41.1050342,16.878774,False,NONE
2019-10-26 10:23:23.940,LG-H970,1572085403950.25,-0.445,9.971,-0.383,41.1050342,16.878774,False,NONE
2019-10-26 10:23:23.960,LG-H970,1572085403970.25,-0.448,9.902,-0.395,41.1050342,16.878774,False,NONE
2019-10-26 10:23:23.980,LG-H970,1572085403990.0,-0.559,9.834,-0.28,41.1050342,16.878774,False,NONE
2019-10-26 10:23:24.000,LG-H970,1572085404010.5,-0.383,9.854,-0.459,41.1050342,16.878774,False,NONE
2019-10-26 10:23:24.020,LG-H970,1572085404030.5,-0.388,9.875,-0.226,41.1050342,16.878774,False,NONE
2019-10-26 10:23:24.040,LG-H970,1572085404049.5,-0.47,9.906,-0.451,41.1050342,16.878774,False,NONE
2019-10-26 10:23:24.060,LG-H970,1572085404069.25,-0.445,9.898,-0.365,41.1050342,16.878774,False,NONE
2019-10-26 10:23:24.080,LG-H970,1572085404088.75,-0.524,9.746,-0.315,41.1050342,16.878774,False,NONE
2019-10-26 10:23:24.100,LG-H970,1572085404108.5,-0.379,10.077,-0.426,41.1050342,16.878774,False,NONE
2019-10-26 10:23:24.120,LG-H970,1572085404128.25,-0.559,9.757,-0.382,41.1050342,16.878774,False,NONE
2019-10-26 10:23:24.140,LG-H970,1572085404147.5,-0.418,9.891,-0.416,41.1050342,16.878774,False,NONE
2019-10-26 10:23:24.160,LG-H970,1572085404167.5,-0.576,9.915,-0.341,41.1050342,16.878774,False,NONE
2019-10-26 10:23:24.180,LG-H970,1572085404189.8,-0.45,9.862,-0.379,41.1050342,16.878774,False,NONE
2019-10-26 10:23:24.200,LG-H970,1572085404209.3333,-0.458,9.917,-0.248,41.1050342,16.878774,False,NONE
2019-10-26 10:23:24.220,LG-H970,1572085404226.75,-0.46,9.875,-0.499,41.1050342,16.878774,False,NONE
2019-10-26 10:23:24.240,LG-H970,1572085404249.2,-0.512,9.894,-0.261,41.1050342,16.878774,False,NONE
2019-10-26 10:23:24.260,LG-H970,1572085404271.0,-0.514,9.904,-0.403,41.1050342,16.878774,False,NONE
2019-10-26 10:23:24.280,LG-H970,1572085404290.75,-0.301,9.962,-0.334,41.1050342,16.878774,False,NONE
2019-10-26 10:23:24.300,LG-H970,1572085404309.6667,-0.611,9.654,-0.421,41.1050342,16.878774,False,NONE
2019-10-26 10:23:24.320,LG-H970,1572085404331.5,-0.476,10.043,-0.5,41.1050342,16.878774,False,NONE
2019-10-26 10:23:24.340,LG-H970,1572085404349.75,-0.547,9.746,-0.327,41.1050342,16.878774,False,NONE
2019-10-26 10:23:24.360,LG-H970,1572085404369.75,-0.29,9.952,-0.402,41.1050342,16.878774,False,NONE
2019-10-26 10:23:24.380,LG-H970,1572085404389.25,-0.511,9.885,-0.373,41.1050342,16.878774,False,NONE
2019-10-26 10:23:24.400,LG-H970,1572085404409.5,-0.461,9.891,-0.448,41.1050342,16.878774,False,NONE
2019-10-26 10:23:24.420,LG-H970,1572085404429.5,-0.538,9.91,-0.268,41.1050342,16.878774,False,NONE
2019-10-26 10:23:24.440,LG-H970,1572085404447.75,-0.338,9.938,-0.447,41.1050342,16.878774,False,NONE
2019-10-26 10:23:24.460,LG-H970,1572085404467.5,-0.398,9.769,-0.215,41.1050342,16.878774,False,NONE
2019-10-26 10:23:24.480,LG-H970,1572085404487.5,-0.444,9.918,-0.493,41.1050342,16.878774,False,NONE
2019-10-26 10:23:24.500,LG-H970,1572085404508.0,-0.43,9.967,-0.384,41.1050342,16.878774,False,NONE
2019-10-26 10:23:24.520,LG-H970,1572085404529.8,-0.505,9.828,-0.313,41.1050342,16.878774,False,NONE
2019-10-26 10:23:24.540,LG-H970,1572085404552.25,-0.249,10.035,-0.495,41.1050342,16.878774,False,NONE
2019-10-26 10:23:24.560,LG-H970,1572085404571.75,-0.546,9.712,-0.313,41.1050342,16.878774,False,NONE
2019-10-26 10:23:24.580,LG-H970,1572085404591.5,-0.465,9.986,-0.488,41.1050342,16.878774,False,NONE
2019-10-26 10:23:24.600,LG-H970,1572085404611.0,-0.545,9.897,-0.334,41.1050342,16.878774,False,NONE
2019-10-26 10:23:24.620,LG-H970,1572085404630.5,-0.354,9.796,-0.32,41.1050342,16.878774,False,NONE
2019-10-26 10:23:24.640,LG-H970,1572085404650.5,-0.551,9.831,-0.261,41.1050342,16.878774,False,NONE
2019-10-26 10:23:24.660,LG-H970,1572085404670.5,-0.501,9.971,-0.543,41.1050342,16.878774,False,NONE
2019-10-26 10:23:24.680,LG-H970,1572085404690.5,-0.537,9.87,-0.249,41.1050342,16.878774,False,NONE
2019-10-26 10:23:24.700,LG-H970,1572085404710.0,-0.466,9.892,-0.359,41.1050342,16.878774,False,NONE
2019-10-26 10:23:24.720,LG-H970,1572085404729.5,-0.371,9.945,-0.246,41.1050342,16.878774,False,NONE
2019-10-26 10:23:24.740,LG-H970,1572085404749.5,-0.494,9.827,-0.377,41.1050342,16.878774,False,NONE
2019-10-26 10:23:24.760,LG-H970,1572085404768.5,-0.442,10.019,-0.431,41.1050342,16.878774,False,NONE
2019-10-26 10:23:24.780,LG-H970,1572085404788.5,-0.559,9.742,-0.382,41.1050342,16.878774,False,NONE
2019-10-26 10:23:24.800,LG-H970,1572085404809.25,-0.333,9.937,-0.352,41.1050342,16.878774,False,NONE
2019-10-26 10:23:24.820,LG-H970,1572085404828.0,-0.604,9.858,-0.408,41.1050342,16.878774,False,NONE
2019-10-26 10:23:24.840,LG-H970,1572085404847.5,-0.389,9.958,-0.471,41.1050342,16.878774,False,NONE
2019-10-26 10:23:24.860,LG-H970,1572085404869.4,-0.465,9.765,-0.34,41.1050342,16.878774,False,NONE
2019-10-26 10:23:24.880,LG-H970,1572085404891.5,-0.311,9.965,-0.484,41.1050342,16.878774,False,NONE
2019-10-26 10:23:24.900,LG-H970,1572085404910.0,-0.61,9.763,-0.268,41.1050342,16.878774,False,NONE
2019-10-26 10:23:24.920,LG-H970,1572085404929.8,-0.45,9.951,-0.421,41.1050342,16.878774,False,NONE
2019-10-26 10:23:24.940,LG-H970,1572085404950.5,-0.436,9.914,-0.281,41.1050342,16.878774,False,NONE
2019-10-26 10:23:24.960,LG-H970,1572085404970.5,-0.465,9.761,-0.364,41.1050342,16.878774,False,NONE
2019-10-26 10:23:24.980,LG-H970,1572085404990.5,-0.512,9.958,-0.339,41.1050342,16.878774,False,NONE
2019-10-26 10:23:25.000,LG-H970,1572085405010.5,-0.57,9.836,-0.373,41.1050342,16.878774,False,NONE
2019-10-26 10:23:25.020,LG-H970,1572085405030.25,-2.094,9.469,-0.663,41.1050342,16.878774,False,NONE
2019-10-26 10:23:25.040,LG-H970,1572085405049.75,-1.714,10.986,-1.511,41.1050342,16.878774,False,NONE
2019-10-26 10:23:25.060,LG-H970,1572085405069.5,2.597,10.915,0.322,41.1050342,16.878774,False,NONE
2019-10-26 10:23:25.080,LG-H970,1572085405089.0,1.785,8.661,0.843,41.1050342,16.878774,False,NONE
2019-10-26 10:23:25.100,LG-H970,1572085405109.0,-2.491,8.996,-0.033,41.1050342,16.878774,False,NONE
2019-10-26 10:23:25.120,LG-H970,1572085405128.5,-2.696,10.489,-2.525,41.1050342,16.878774,False,NONE
2019-10-26 10:23:25.140,LG-H970,1572085405148.5,1.358,11.647,0.169,41.1050342,16.878774,False,NONE
2019-10-26 10:23:25.160,LG-H970,1572085405168.25,2.66,7.963,1.042,41.1050342,16.878774,False,NONE
2019-10-26 10:23:25.180,LG-H970,1572085405190.0,-0.359,9.532,-0.179,41.1050342,16.878774,False,NONE
2019-10-26 10:23:25.200,LG-H970,1572085405212.25,-3.717,11.109,-2.218,41.1050342,16.878774,False,NONE
2019-10-26 10:23:25.220,LG-H970,1572085405232.25,-1.346,10.351,-0.872,41.1050342,16.878774,False,NONE
2019-10-26 10:23:25.240,LG-H970,1572085405249.6667,2.255,9.036,1.214,41.1050342,16.878774,False,NONE
2019-10-26 10:23:25.260,LG-H970,1572085405269.6,1.303,8.319,0.851,41.1050342,16.878774,False,NONE
2019-10-26 10:23:25.280,LG-H970,1572085405292.25,-2.705,11.233,-1.601,41.1050342,16.878774,False,NONE
2019-10-26 10:23:25.300,LG-H970,1572085405309.3333,-3.78,11.252,-2.169,41.1050342,16.878774,False,NONE
2019-10-26 10:23:25.320,LG-H970,1572085405329.4,-0.092,10.061,0.153,41.1050342,16.878774,False,NONE
2019-10-26 10:23:25.340,LG-H970,1572085405346.0,2.771,8.513,0.923,41.1050342,16.878774,False,NONE
2019-10-26 10:23:25.360,LG-H970,1572085405369.8,0.188,9.571,0.038,41.1050342,16.878774,True,NONE
2019-10-26 10:23:25.380,LG-H970,1572085405389.5,-3.287,11.125,-2.284,41.1050342,16.878774,True,NONE
2019-10-26 10:23:25.400,LG-H970,1572085405409.0,-1.512,10.768,-0.968,41.1050342,16.878774,False,NONE
2019-10-26 10:23:25.420,LG-H970,1572085405428.5,1.659,8.494,0.916,41.1050342,16.878774,False,NONE
2019-10-26 10:23:25.440,LG-H970,1572085405449.0,1.597,8.887,0.874,41.1050342,16.878774,False,NONE
2019-10-26 10:23:25.460,LG-H970,1572085405467.75,-1.605,10.513,-1.31,41.1050342,16.878774,False,NONE
2019-10-26 10:23:25.480,LG-H970,1572085405488.5,-2.389,11.249,-1.88,41.1050342,16.878774,False,NONE
2019-10-26 10:23:25.500,LG-H970,1572085405509.75,-0.076,9.74,0.104,41.1050342,16.878774,False,NONE
2019-10-26 10:23:25.520,LG-H970,1572085405527.75,1.872,8.69,0.936,41.1050342,16.878774,False,NONE
2019-10-26 10:23:25.540,LG-H970,1572085405549.4,-0.375,9.777,-0.256,41.1050342,16.878774,False,NONE
2019-10-26 10:23:25.560,LG-H970,1572085405571.75,-2.169,11.182,-1.814,41.1050342,16.878774,False,NONE
2019-10-26 10:23:25.580,LG-H970,1572085405589.6667,-1.264,10.156,-0.773,41.1050342,16.878774,False,NONE
2019-10-26 10:23:25.600,LG-H970,1572085405609.8,0.993,9.039,0.551,41.1050342,16.878774,False,NONE
2019-10-26 10:23:25.620,LG-H970,1572085405631.5,0.284,9.346,0.305,41.1050342,16.878774,False,NONE
2019-10-26 10:23:25.640,LG-H970,1572085405650.75,-1.601,10.688,-1.234,41.1050342,16.878774,False,NONE
2019-10-26 10:23:25.660,LG-H970,1572085405670.75,-1.797,10.522,-1.112,41.1050342,16.878774,False,NONE
2019-10-26 10:23:25.680,LG-H970,1572085405691.0,0.223,9.555,-0.013,41.1050342,16.878774,False,NONE
2019-10-26 10:23:25.700,LG-H970,1572085405710.5,0.578,8.99,0.583,41.1050342,16.878774,False,NONE
2019-10-26 10:23:25.720,LG-H970,1572085405730.75,-0.733,10.176,-0.58,41.1050342,16.878774,False,NONE
2019-10-26 10:23:25.740,LG-H970,1572085405750.25,-1.675,10.694,-1.192,41.1050342,16.878774,False,NONE
2019-10-26 10:23:25.760,LG-H970,1572085405769.75,-0.542,9.917,-0.411,41.1050342,16.878774,False,NONE
2019-10-26 10:23:25.780,LG-H970,1572085405789.5,0.487,9.142,0.295,41.1050342,16.878774,False,NONE
2019-10-26 10:23:25.800,LG-H970,1572085405809.0,-0.069,9.71,-0.19,41.1050342,16.878774,False,NONE
2019-10-26 10:23:25.820,LG-H970,1572085405828.75,-1.235,10.388,-0.807,41.1050342,16.878774,False,NONE
2019-10-26 10:23:25.840,LG-H970,1572085405848.5,-0.808,10.236,-0.77,41.1050342,16.878774,False,NONE
2019-10-26 10:23:25.860,LG-H970,1572085405868.0,0.258,9.457,-0.001,41.1050342,16.878774,False,NONE
2019-10-26 10:23:25.880,LG-H970,1572085405887.75,0.162,9.381,0.012,41.1050342,16.878774,False,NONE
2019-10-26 10:23:25.900,LG-H970,1572085405910.0,-0.836,10.372,-0.711,41.1050342,16.878774,False,NONE
2019-10-26 10:23:25.920,LG-H970,1572085405932.5,-0.958,10.092,-0.675,41.1050342,16.878774,False,NONE
2019-10-26 10:23:25.940,LG-H970,1572085405951.5,0.148,9.751,-0.016,41.1050342,16.878774,False,NONE
2019-10-26 10:23:25.960,LG-H970,1572085405971.75,-0.056,9.396,-0.018,41.1050342,16.878774,False,NONE
2019-10-26 10:23:25.980,LG-H970,1572085405990.75,-0.724,10.167,-0.599,41.1050342,16.878774,False,NONE
2019-10-26 10:23:26.000,LG-H970,1572085406011.0,-1.18,10.098,-0.786,41.1050342,16.878774,False,NONE
2019-10-26 10:23:26.020,LG-H970,1572085406030.25,-0.285,10.004,-0.236,41.1050342,16.878774,False,NONE
2019-10-26 10:23:26.040,LG-H970,1572085406050.5,-0.038,9.321,0.014,41.1050342,16.878774,False,NONE
2019-10-26 10:23:26.060,LG-H970,1572085406070.5,-0.399,9.973,-0.383,41.1050342,16.878774,False,NONE
2019-10-26 10:23:26.080,LG-H970,1572085406090.0,-1.135,10.142,-0.842,41.1050342,16.878774,False,NONE
2019-10-26 10:23:26.100,LG-H970,1572085406109.5,-0.547,10.071,-0.464,41.1050342,16.878774,False,NONE
2019-10-26 10:23:26.120,LG-H970,1572085406129.5,-0.089,9.406,0.002,41.1050342,16.878774,False,NONE
2019-10-26 10:23:26.140,LG-H970,1572085406149.25,-0.068,9.894,-0.173,41.1050342,16.878774,False,NONE
2019-10-26 10:23:26.160,LG-H970,1572085406169.0,-0.921,9.997,-0.716,41.1050342,16.878774,False,NONE
2019-10-26 10:23:26.180,LG-H970,1572085406189.0,-0.664,10.216,-0.587,41.1050342,16.878774,False,NONE
2019-10-26 10:23:26.200,LG-H970,1572085406208.25,-0.16,9.602,-0.18,41.1050342,16.878774,False,NONE
2019-10-26 10:23:26.220,LG-H970,1572085406228.0,0.107,9.741,-0.044,41.1050342,16.878774,False,NONE
2019-10-26 10:23:26.240,LG-H970,1572085406247.75,-0.726,9.9,-0.546,41.1050342,16.878774,False,NONE
2019-10-26 10:23:26.260,LG-H970,1572085406267.5,-0.741,10.38,-0.657,41.1050342,16.878774,False,NONE
2019-10-26 10:23:26.280,LG-H970,1572085406289.4,-0.34,9.612,-0.286,41.1050342,16.878774,False,NONE
2019-10-26 10:23:26.300,LG-H970,1572085406311.75,0.039,9.697,-0.07,41.1050342,16.878774,False,NONE
2019-10-26 10:23:26.320,LG-H970,1572085406332.0,-0.644,9.892,-0.507,41.1050342,16.878774,False,NONE
2019-10-26 10:23:26.340,LG-H970,1572085406351.0,-0.782,10.219,-0.556,41.1050342,16.878774,False,NONE
2019-10-26 10:23:26.360,LG-H970,1572085406369.75,-0.559,9.808,-0.383,41.1050342,16.878774,False,NONE
2019-10-26 10:23:26.380,LG-H970,1572085406390.25,-0.041,9.78,-0.112,41.1050342,16.878774,False,NONE
2019-10-26 10:23:26.400,LG-H970,1572085406410.75,-0.517,9.624,-0.31,41.1050342,16.878774,False,NONE
2019-10-26 10:23:26.420,LG-H970,1572085406430.0,-0.799,10.153,-0.582,41.1050342,16.878774,False,NONE
2019-10-26 10:23:26.440,LG-H970,1572085406446.6667,-0.8,9.99,-0.58,41.1050342,16.878774,False,NONE
2019-10-26 10:23:26.460,LG-H970,1572085406468.75,-0.247,9.731,-0.14,41.1050438,16.8787651,False,NONE
2019-10-26 10:23:26.480,LG-H970,1572085406488.25,-0.328,9.712,-0.288,41.1050534,16.8787562,False,NONE
2019-10-26 10:23:26.500,LG-H970,1572085406507.75,-0.579,10.092,-0.541,41.1050534,16.8787562,False,NONE
2019-10-26 10:23:26.520,LG-H970,1572085406528.0,-0.733,9.904,-0.597,41.1050534,16.8787562,False,NONE
2019-10-26 10:23:26.540,LG-H970,1572085406549.4,-0.272,9.837,-0.239,41.1050534,16.8787562,False,NONE
2019-10-26 10:23:26.560,LG-H970,1572085406571.5,-0.15,9.83,-0.254,41.1050534,16.8787562,False,NONE
2019-10-26 10:23:26.580,LG-H970,1572085406591.5,-0.625,9.862,-0.383,41.1050534,16.8787562,False,NONE
2019-10-26 10:23:26.600,LG-H970,1572085406609.0,-0.614,10.093,-0.664,41.1050534,16.8787562,False,NONE
2019-10-26 10:23:26.620,LG-H970,1572085406629.6,-0.418,9.83,-0.304,41.1050534,16.8787562,False,NONE
2019-10-26 10:23:26.640,LG-H970,1572085406651.75,-0.148,9.829,-0.233,41.1050534,16.8787562,False,NONE
2019-10-26 10:23:26.660,LG-H970,1572085406672.25,-0.544,9.887,-0.381,41.1050534,16.8787562,False,NONE
2019-10-26 10:23:26.680,LG-H970,1572085406691.75,-0.542,10.098,-0.567,41.1050534,16.8787562,False,NONE
2019-10-26 10:23:26.700,LG-H970,1572085406711.75,-0.551,9.776,-0.328,41.1050534,16.8787562,False,NONE
2019-10-26 10:23:26.720,LG-H970,1572085406731.0,-0.202,9.909,-0.303,41.1050534,16.8787562,False,NONE
2019-10-26 10:23:26.740,LG-H970,1572085406750.75,-0.515,9.719,-0.297,41.1050534,16.8787562,False,NONE
2019-10-26 10:23:26.760,LG-H970,1572085406770.5,-0.529,10.119,-0.495,41.1050534,16.8787562,False,NONE
2019-10-26 10:23:26.780,LG-H970,1572085406790.25,-0.657,9.897,-0.416,41.1050534,16.8787562,False,NONE
2019-10-26 10:23:26.800,LG-H970,1572085406807.3333,-0.249,9.9,-0.278,41.1050534,16.8787562,False,NONE
2019-10-26 10:23:26.820,LG-H970,1572085406829.75,-0.442,9.684,-0.255,41.1050534,16.8787562,False,NONE
2019-10-26 10:23:26.840,LG-H970,1572085406849.5,-0.467,10.14,-0.523,41.1050534,16.8787562,False,NONE
2019-10-26 10:23:26.860,LG-H970,1572085406868.3333,-0.746,9.821,-0.477,41.1050534,16.8787562,False,NONE
2019-10-26 10:23:26.880,LG-H970,1572085406888.0,-0.374,9.943,-0.381,41.1050534,16.8787562,False,NONE
2019-10-26 10:23:26.900,LG-H970,1572085406907.25,-0.412,9.754,-0.326,41.1050534,16.8787562,False,NONE
2019-10-26 10:23:26.920,LG-H970,1572085406929.4,-0.476,9.981,-0.419,41.1050534,16.8787562,False,NONE
2019-10-26 10:23:26.940,LG-H970,1572085406948.6667,-0.683,9.852,-0.471,41.1050534,16.8787562,False,NONE
2019-10-26 10:23:26.960,LG-H970,1572085406968.8,-0.245,9.944,-0.353,41.1050534,16.8787562,False,NONE
2019-10-26 10:23:26.980,LG-H970,1572085406990.75,-0.386,9.666,-0.279,41.1050534,16.8787562,False,NONE
2019-10-26 10:23:27.000,LG-H970,1572085407011.5,-0.491,9.988,-0.41,41.1050534,16.8787562,False,NONE
2019-10-26 10:23:27.020,LG-H970,1572085407031.0,-0.651,9.962,-0.536,41.1050534,16.8787562,False,NONE
2019-10-26 10:23:27.040,LG-H970,1572085407051.0,-0.323,9.914,-0.305,41.1050534,16.8787562,False,NONE
2019-10-26 10:23:27.060,LG-H970,1572085407070.5,-0.401,9.74,-0.296,41.1050534,16.8787562,False,NONE
2019-10-26 10:23:27.080,LG-H970,1572085407091.0,-0.395,10.016,-0.365,41.1050534,16.8787562,False,NONE
2019-10-26 10:23:27.100,LG-H970,1572085407110.5,-0.636,9.841,-0.463,41.1050534,16.8787562,False,NONE
2019-10-26 10:23:27.120,LG-H970,1572085407127.6667,-0.404,10.022,-0.284,41.1050534,16.8787562,False,NONE
2019-10-26 10:23:27.140,LG-H970,1572085407148.0,-0.426,9.788,-0.339,41.1050534,16.8787562,False,NONE
2019-10-26 10:23:27.160,LG-H970,1572085407169.75,-0.424,9.883,-0.251,41.1050534,16.8787562,False,NONE
2019-10-26 10:23:27.180,LG-H970,1572085407189.75,-0.652,9.876,-0.504,41.1050534,16.8787562,False,NONE
2019-10-26 10:23:27.200,LG-H970,1572085407209.5,-0.405,10.058,-0.387,41.1050534,16.8787562,False,NONE
2019-10-26 10:23:27.220,LG-H970,1572085407229.5,-0.431,9.699,-0.37,41.1050534,16.8787562,False,NONE
2019-10-26 10:23:27.240,LG-H970,1572085407249.25,-0.354,9.932,-0.253,41.1050534,16.8787562,False,NONE
2019-10-26 10:23:27.260,LG-H970,1572085407269.25,-0.538,9.9,-0.538,41.1050534,16.8787562,False,NONE
2019-10-26 10:23:27.280,LG-H970,1572085407288.0,-0.445,9.961,-0.337,41.1050534,16.8787562,False,NONE
2019-10-26 10:23:27.300,LG-H970,1572085407310.0,-0.409,9.87,-0.421,41.1050534,16.8787562,False,NONE
2019-10-26 10:23:27.320,LG-H970,1572085407333.75,-0.481,9.79,-0.294,41.1050534,16.8787562,False,NONE
2019-10-26 10:23:27.340,LG-H970,1572085407351.25,-0.457,9.946,-0.404,41.1050534,16.8787562,False,NONE
2019-10-26 10:23:27.360,LG-H970,1572085407370.5,-0.506,9.91,-0.378,41.1050534,16.8787562,False,NONE
2019-10-26 10:23:27.380,LG-H970,1572085407390.5,-0.344,9.915,-0.388,41.1050534,16.8787562,False,NONE
2019-10-26 10:23:27.400,LG-H970,1572085407410.5,-0.463,9.753,-0.244,41.1050534,16.8787562,False,NONE
2019-10-26 10:23:27.420,LG-H970,1572085407431.0,-0.459,10.0,-0.408,41.1050534,16.8787562,False,NONE
2019-10-26 10:23:27.440,LG-H970,1572085407450.25,-0.541,9.853,-0.374,41.1050534,16.8787562,False,NONE
2019-10-26 10:23:27.460,LG-H970,1572085407470.25,-0.404,9.938,-0.392,41.1050534,16.8787562,False,NONE
2019-10-26 10:23:27.480,LG-H970,1572085407490.25,-0.465,9.819,-0.356,41.1050534,16.8787562,False,NONE
2019-10-26 10:23:27.500,LG-H970,1572085407509.25,-0.376,9.957,-0.407,41.1050534,16.8787562,False,NONE
2019-10-26 10:23:27.520,LG-H970,1572085407528.75,-0.595,9.801,-0.352,41.1050534,16.8787562,False,NONE
2019-10-26 10:23:27.540,LG-H970,1572085407548.25,-0.432,10.049,-0.44,41.1050534,16.8787562,False,NONE
2019-10-26 10:23:27.560,LG-H970,1572085407568.5,-0.481,9.714,-0.311,41.1050534,16.8787562,False,NONE
2019-10-26 10:23:27.580,LG-H970,1572085407588.5,-0.292,9.94,-0.353,41.1050534,16.8787562,False,NONE
2019-10-26 10:23:27.600,LG-H970,1572085407608.5,-0.594,9.851,-0.419,41.1050534,16.8787562,False,NONE
2019-10-26 10:23:27.620,LG-H970,1572085407627.75,-0.427,10.007,-0.392,41.1050534,16.8787562,False,NONE
2019-10-26 10:23:27.640,LG-H970,1572085407647.25,-0.556,9.718,-0.295,41.1050534,16.8787562,False,NONE
2019-10-26 10:23:27.660,LG-H970,1572085407667.0,-0.283,10.05,-0.377,41.1050534,16.8787562,False,NONE
2019-10-26 10:23:27.680,LG-H970,1572085407689.4,-0.564,9.714,-0.372,41.1050534,16.8787562,False,NONE
2019-10-26 10:23:27.700,LG-H970,1572085407709.3333,-0.318,10.103,-0.469,41.1050534,16.8787562,False,NONE
2019-10-26 10:23:27.720,LG-H970,1572085407729.2,-0.557,9.809,-0.414,41.1050534,16.8787562,False,NONE
2019-10-26 10:23:27.740,LG-H970,1572085407750.75,-0.314,9.942,-0.307,41.1050534,16.8787562,False,NONE
2019-10-26 10:23:27.760,LG-H970,1572085407770.5,-0.561,9.754,-0.398,41.1050534,16.8787562,False,NONE
2019-10-26 10:23:27.780,LG-H970,1572085407790.5,-0.384,10.079,-0.441,41.1050534,16.8787562,False,NONE
2019-10-26 10:23:27.800,LG-H970,1572085407810.0,-0.57,9.725,-0.353,41.1050534,16.8787562,False,NONE
2019-10-26 10:23:27.820,LG-H970,1572085407830.0,-0.315,9.968,-0.308,41.1050534,16.8787562,False,NONE
2019-10-26 10:23:27.840,LG-H970,1572085407851.6667,-0.504,9.832,-0.359,41.1050534,16.8787562,False,NONE
2019-10-26 10:23:27.860,LG-H970,1572085407868.75,-0.368,9.979,-0.334,41.1050534,16.8787562,False,NONE
2019-10-26 10:23:27.880,LG-H970,1572085407888.75,-0.57,9.776,-0.384,41.1050534,16.8787562,False,NONE
2019-10-26 10:23:27.900,LG-H970,1572085407909.25,-0.333,10.025,-0.368,41.1050534,16.8787562,False,NONE
2019-10-26 10:23:27.920,LG-H970,1572085407929.0,-0.53,9.725,-0.338,41.1050534,16.8787562,False,NONE
2019-10-26 10:23:27.940,LG-H970,1572085407949.75,-0.435,9.971,-0.364,41.1050534,16.8787562,False,NONE
2019-10-26 10:23:27.960,LG-H970,1572085407969.6,-0.453,9.921,-0.478,41.1050534,16.8787562,False,NONE
2019-10-26 10:23:27.980,LG-H970,1572085407989.6667,-0.428,9.808,-0.269,41.1050534,16.8787562,False,NONE
2019-10-26 10:23:28.000,LG-H970,1572085408007.5,-0.529,9.798,-0.425,41.1050534,16.8787562,False,NONE
2019-10-26 10:23:28.020,LG-H970,1572085408028.0,-0.394,10.024,-0.378,41.1050534,16.8787562,False,NONE
2019-10-26 10:23:28.040,LG-H970,1572085408047.5,-0.524,9.76,-0.402,41.1050534,16.8787562,False,NONE
2019-10-26 10:23:28.060,LG-H970,1572085408067.5,-0.379,9.951,-0.319,41.1050534,16.8787562,False,NONE
2019-10-26 10:23:28.080,LG-H970,1572085408089.2,-0.405,9.903,-0.418,41.1050534,16.8787562,False,NONE
2019-10-26 10:23:28.100,LG-H970,1572085408110.5,-0.475,9.84,-0.308,41.1050534,16.8787562,False,NONE
2019-10-26 10:23:28.120,LG-H970,1572085408130.5,-0.438,9.994,-0.43,41.1050534,16.8787562,False,NONE
2019-10-26 10:23:28.140,LG-H970,1572085408150.5,-0.488,9.822,-0.28,41.1050534,16.8787562,False,NONE
2019-10-26 10:23:28.160,LG-H970,1572085408169.5,-0.406,9.89,-0.369,41.1050534,16.8787562,False,NONE
2019-10-26 10:23:28.180,LG-H970,1572085408190.0,-0.5,9.833,-0.367,41.1050534,16.8787562,False,NONE
2019-10-26 10:23:28.200,LG-H970,1572085408210.25,-0.452,9.94,-0.459,41.1050534,16.8787562,False,NONE
2019-10-26 10:23:28.220,LG-H970,1572085408229.5,-0.546,9.796,-0.297,41.1050534,16.8787562,False,NONE
2019-10-26 10:23:28.240,LG-H970,1572085408249.5,-0.405,10.007,-0.407,41.1050534,16.8787562,False,NONE
2019-10-26 10:23:28.260,LG-H970,1572085408269.25,-0.504,9.781,-0.334,41.1050534,16.8787562,False,NONE
2019-10-26 10:23:28.280,LG-H970,1572085408288.75,-0.397,9.933,-0.422,41.1050534,16.8787562,False,NONE
2019-10-26 10:23:28.300,LG-H970,1572085408308.75,-0.534,9.834,-0.387,41.1050534,16.8787562,False,NONE
2019-10-26 10:23:28.320,LG-H970,1572085408328.5,-0.373,9.973,-0.356,41.1050534,16.8787562,False,NONE
2019-10-26 10:23:28.340,LG-H970,1572085408349.8,-0.539,9.792,-0.316,41.1050534,16.8787562,False,NONE
2019-10-26 10:23:28.360,LG-H970,1572085408371.5,-0.368,10.094,-0.412,41.1050534,16.8787562,False,NONE
2019-10-26 10:23:28.380,LG-H970,1572085408391.75,-0.557,9.641,-0.383,41.1050534,16.8787562,False,NONE
2019-10-26 10:23:28.400,LG-H970,1572085408409.0,-0.228,10.065,-0.348,41.1050534,16.8787562,False,NONE
2019-10-26 10:23:28.420,LG-H970,1572085408429.2,-0.566,9.83,-0.404,41.1050534,16.8787562,False,NONE
2019-10-26 10:23:28.440,LG-H970,1572085408451.0,-0.378,10.037,-0.334,41.1050534,16.8787562,False,NONE
2019-10-26 10:23:28.460,LG-H970,1572085408470.5,-0.52,9.676,-0.422,41.1050534,16.8787562,False,NONE
2019-10-26 10:23:28.480,LG-H970,1572085408490.5,-0.265,10.053,-0.361,41.1050534,16.8787562,False,NONE
2019-10-26 10:23:28.500,LG-H970,1572085408509.25,-0.606,9.714,-0.422,41.1050534,16.8787562,False,NONE
2019-10-26 10:23:28.520,LG-H970,1572085408529.0,-0.392,10.067,-0.351,41.1050534,16.8787562,False,NONE
2019-10-26 10:23:28.540,LG-H970,1572085408548.75,-0.551,9.77,-0.453,41.1050534,16.8787562,False,NONE
2019-10-26 10:23:28.560,LG-H970,1572085408568.75,-0.289,9.989,-0.276,41.1050534,16.8787562,False,NONE
2019-10-26 10:23:28.580,LG-H970,1572085408587.75,-0.564,9.718,-0.448,41.1050534,16.8787562,False,NONE
2019-10-26 10:23:28.600,LG-H970,1572085408607.75,-0.355,10.144,-0.372,41.1050534,16.8787562,False,NONE
2019-10-26 10:23:28.620,LG-H970,1572085408628.0,-0.593,9.667,-0.417,41.1050534,16.8787562,False,NONE
2019-10-26 10:23:28.640,LG-H970,1572085408647.75,-0.314,10.013,-0.232,41.1050534,16.8787562,False,NONE
2019-10-26 10:23:28.660,LG-H970,1572085408667.5,-0.515,9.784,-0.452,41.1050534,16.8787562,False,NONE
2019-10-26 10:23:28.680,LG-H970,1572085408689.8,-0.39,9.967,-0.318,41.1050534,16.8787562,False,NONE
2019-10-26 10:23:28.700,LG-H970,1572085408712.25,-0.581,9.786,-0.5,41.1050534,16.8787562,False,NONE
2019-10-26 10:23:28.720,LG-H970,1572085408732.5,-0.357,10.059,-0.306,41.1050534,16.8787562,False,NONE
2019-10-26 10:23:28.740,LG-H970,1572085408752.0,-0.525,9.676,-0.355,41.1050534,16.8787562,False,NONE
2019-10-26 10:23:28.760,LG-H970,1572085408771.25,-0.369,10.001,-0.299,41.1050534,16.8787562,False,NONE
2019-10-26 10:23:28.780,LG-H970,1572085408791.25,-0.606,9.804,-0.569,41.1050534,16.8787562,False,NONE
2019-10-26 10:23:28.800,LG-H970,1572085408811.25,-0.366,10.0,-0.294,41.1050534,16.8787562,False,NONE
2019-10-26 10:23:28.820,LG-H970,1572085408832.6667,-0.496,9.72,-0.394,41.1050534,16.8787562,False,NONE
2019-10-26 10:23:28.840,LG-H970,1572085408850.5,-0.295,10.128,-0.294,41.1050534,16.8787562,False,NONE
2019-10-26 10:23:28.860,LG-H970,1572085408869.75,-0.639,9.71,-0.519,41.1050534,16.8787562,False,NONE
2019-10-26 10:23:28.880,LG-H970,1572085408889.5,-0.368,9.997,-0.274,41.1050534,16.8787562,False,NONE
2019-10-26 10:23:28.900,LG-H970,1572085408909.25,-0.483,9.676,-0.45,41.1050534,16.8787562,False,NONE
2019-10-26 10:23:28.920,LG-H970,1572085408928.75,-0.274,10.059,-0.168,41.1050534,16.8787562,False,NONE
2019-10-26 10:23:28.940,LG-H970,1572085408950.0,-0.657,9.764,-0.481,41.1050534,16.8787562,False,NONE
2019-10-26 10:23:28.960,LG-H970,1572085408968.25,-0.367,10.191,-0.331,41.1050534,16.8787562,False,NONE
2019-10-26 10:23:28.980,LG-H970,1572085408988.5,-0.508,9.567,-0.432,41.1050534,16.8787562,False,NONE
2019-10-26 10:23:29.000,LG-H970,1572085409008.0,-0.292,10.013,-0.169,41.1050534,16.8787562,False,NONE
2019-10-26 10:23:29.020,LG-H970,1572085409027.5,-0.614,9.784,-0.568,41.1050534,16.8787562,False,NONE
2019-10-26 10:23:29.040,LG-H970,1572085409047.75,-0.401,10.142,-0.269,41.1050534,16.8787562,False,NONE
2019-10-26 10:23:29.060,LG-H970,1572085409067.75,-0.557,9.62,-0.49,41.1050534,16.8787562,False,NONE
2019-10-26 10:23:29.080,LG-H970,1572085409089.8,-0.291,9.99,-0.283,41.1050534,16.8787562,False,NONE
2019-10-26 10:23:29.100,LG-H970,1572085409111.5,-0.569,9.745,-0.535,41.1050534,16.8787562,False,NONE
2019-10-26 10:23:29.120,LG-H970,1572085409131.0,-0.47,10.027,-0.313,41.1050534,16.8787562,False,NONE
2019-10-26 10:23:29.140,LG-H970,1572085409151.25,-0.49,9.785,-0.482,41.1050534,16.8787562,False,NONE
2019-10-26 10:23:29.160,LG-H970,1572085409170.5,-0.281,9.936,-0.183,41.1050534,16.8787562,False,NONE
2019-10-26 10:23:29.180,LG-H970,1572085409191.0,-0.544,9.776,-0.468,41.1050534,16.8787562,False,NONE
2019-10-26 10:23:29.200,LG-H970,1572085409210.25,-0.409,10.138,-0.377,41.1050534,16.8787562,False,NONE
2019-10-26 10:23:29.220,LG-H970,1572085409230.0,-0.523,9.76,-0.467,41.1050534,16.8787562,False,NONE
2019-10-26 10:23:29.240,LG-H970,1572085409249.5,-0.344,9.93,-0.163,41.1050534,16.8787562,False,NONE
2019-10-26 10:23:29.260,LG-H970,1572085409268.5,-0.469,9.793,-0.465,41.1050534,16.8787562,False,NONE
2019-10-26 10:23:29.280,LG-H970,1572085409288.5,-0.417,9.998,-0.3,41.1050534,16.8787562,False,NONE
2019-10-26 10:23:29.300,LG-H970,1572085409309.25,-0.576,9.807,-0.514,41.1050534,16.8787562,False,NONE
2019-10-26 10:23:29.320,LG-H970,1572085409326.6667,-0.264,10.145,-0.266,41.1050534,16.8787562,False,NONE
2019-10-26 10:23:29.340,LG-H970,1572085409348.25,-0.435,9.743,-0.423,41.1050534,16.8787562,False,NONE
2019-10-26 10:23:29.360,LG-H970,1572085409369.0,-0.436,10.005,-0.3,41.1050534,16.8787562,False,NONE
2019-10-26 10:23:29.380,LG-H970,1572085409387.25,-0.617,9.822,-0.566,41.1050534,16.8787562,False,NONE
2019-10-26 10:23:29.400,LG-H970,1572085409409.6,-0.408,9.911,-0.278,41.1050534,16.8787562,False,NONE
2019-10-26 10:23:29.420,LG-H970,1572085409431.75,-0.424,9.92,-0.395,41.1050534,16.8787562,False,NONE
2019-10-26 10:23:29.440,LG-H970,1572085409450.6667,-0.409,9.994,-0.3,41.1050534,16.8787562,False,NONE
2019-10-26 10:23:29.460,LG-H970,1572085409473.25,-0.476,9.937,-0.46,41.1050534,16.8787562,False,NONE
2019-10-26 10:23:29.480,LG-H970,1572085409490.25,-0.454,9.812,-0.321,41.1050534,16.8787562,False,NONE
2019-10-26 10:23:29.500,LG-H970,1572085409510.75,-0.38,9.894,-0.391,41.1050534,16.8787562,False,NONE
2019-10-26 10:23:29.520,LG-H970,1572085409529.5,-0.471,9.837,-0.257,41.1050534,16.8787562,False,NONE
2019-10-26 10:23:29.540,LG-H970,1572085409549.75,-0.523,9.996,-0.459,41.1050534,16.8787562,False,NONE
2019-10-26 10:23:29.560,LG-H970,1572085409569.5,-0.448,9.9,-0.316,41.1050534,16.8787562,False,NONE
2019-10-26 10:23:29.580,LG-H970,1572085409589.5,-0.365,9.837,-0.343,41.1050534,16.8787562,False,NONE
2019-10-26 10:23:29.600,LG-H970,1572085409609.5,-0.444,9.879,-0.34,41.1050534,16.8787562,False,NONE
2019-10-26 10:23:29.620,LG-H970,1572085409629.25,-0.54,9.943,-0.588,41.1050534,16.8787562,False,NONE
2019-10-26 10:23:29.640,LG-H970,1572085409649.5,-0.458,9.818,-0.349,41.1050534,16.8787562,False,NONE
2019-10-26 10:23:29.660,LG-H970,1572085409669.0,-0.33,9.913,-0.365,41.1050534,16.8787562,False,NONE
2019-10-26 10:23:29.680,LG-H970,1572085409688.25,-0.357,9.903,-0.264,41.1050534,16.8787562,False,NONE
2019-10-26 10:23:29.700,LG-H970,1572085409708.75,-0.516,9.921,-0.496,41.1050534,16.8787562,False,NONE
2019-10-26 10:23:29.720,LG-H970,1572085409727.5,-0.483,9.896,-0.41,41.1050534,16.8787562,False,NONE
2019-10-26 10:23:29.740,LG-H970,1572085409749.6,-0.326,9.92,-0.282,41.1050534,16.8787562,False,NONE
2019-10-26 10:23:29.760,LG-H970,1572085409772.5,-0.5,9.744,-0.303,41.1050534,16.8787562,False,NONE
2019-10-26 10:23:29.780,LG-H970,1572085409791.5,-0.527,10.101,-0.311,41.1050534,16.8787562,False,NONE
2019-10-26 10:23:29.800,LG-H970,1572085409811.25,-0.557,9.767,-0.417,41.1050534,16.8787562,False,NONE
2019-10-26 10:23:29.820,LG-H970,1572085409831.75,-0.34,9.915,-0.28,41.1050534,16.8787562,False,NONE
2019-10-26 10:23:29.840,LG-H970,1572085409851.25,-0.478,9.756,-0.43,41.1050534,16.8787562,False,NONE
2019-10-26 10:23:29.860,LG-H970,1572085409869.5,-0.481,10.046,-0.44,41.1050534,16.8787562,False,NONE
2019-10-26 10:23:29.880,LG-H970,1572085409889.5,-0.616,9.785,-0.434,41.1050534,16.8787562,False,NONE
2019-10-26 10:23:29.900,LG-H970,1572085409909.5,-0.418,10.022,-0.391,41.1050534,16.8787562,False,NONE
2019-10-26 10:23:29.920,LG-H970,1572085409929.25,-0.48,9.722,-0.403,41.1050534,16.8787562,False,NONE
2019-10-26 10:23:29.940,LG-H970,1572085409949.5,-0.428,9.956,-0.374,41.1050534,16.8787562,False,NONE
2019-10-26 10:23:29.960,LG-H970,1572085409969.0,-0.547,9.887,-0.458,41.1050534,16.8787562,False,NONE
2019-10-26 10:23:29.980,LG-H970,1572085409988.5,-0.419,9.972,-0.346,41.1050534,16.8787562,False,NONE
2019-10-26 10:23:30.000,LG-H970,1572085410008.25,-0.402,9.728,-0.247,41.1050534,16.8787562,False,NONE
2019-10-26 10:23:30.020,LG-H970,1572085410028.5,-0.371,9.98,-0.374,41.1050534,16.8787562,False,NONE
2019-10-26 10:23:30.040,LG-H970,1572085410047.75,-0.514,9.843,-0.362,41.1050534,16.8787562,False,NONE
2019-10-26 10:23:30.060,LG-H970,1572085410067.75,-0.399,9.935,-0.385,41.1050534,16.8787562,False,NONE
2019-10-26 10:23:30.080,LG-H970,1572085410087.5,-0.326,9.855,-0.341,41.1050534,16.8787562,False,NONE
2019-10-26 10:23:30.100,LG-H970,1572085410108.0,-0.323,9.913,-0.373,41.1050534,16.8787562,False,NONE
2019-10-26 10:23:30.120,LG-H970,1572085410129.8,-0.575,9.838,-0.421,41.1050534,16.8787562,False,NONE
2019-10-26 10:23:30.140,LG-H970,1572085410152.25,-0.417,10.104,-0.388,41.1050534,16.8787562,False,NONE
2019-10-26 10:23:30.160,LG-H970,1572085410171.75,-0.456,9.603,-0.392,41.1050534,16.8787562,False,NONE
2019-10-26 10:23:30.180,LG-H970,1572085410191.75,-0.286,9.985,-0.274,41.1050534,16.8787562,False,NONE
2019-10-26 10:23:30.200,LG-H970,1572085410211.0,-0.636,9.834,-0.518,41.1050534,16.8787562,False,NONE
2019-10-26 10:23:30.220,LG-H970,1572085410230.75,-0.465,10.106,-0.385,41.1050534,16.8787562,False,NONE
2019-10-26 10:23:30.240,LG-H970,1572085410250.5,-0.535,9.645,-0.407,41.1050534,16.8787562,False,NONE
2019-10-26 10:23:30.260,LG-H970,1572085410269.5,-0.314,10.018,-0.287,41.1050534,16.8787562,False,NONE
2019-10-26 10:23:30.280,LG-H970,1572085410289.5,-0.623,9.678,-0.392,41.1050534,16.8787562,False,NONE
2019-10-26 10:23:30.300,LG-H970,1572085410309.25,-0.448,10.059,-0.351,41.1050534,16.8787562,False,NONE
2019-10-26 10:23:30.320,LG-H970,1572085410328.3333,-0.469,9.859,-0.398,41.1050534,16.8787562,False,NONE
2019-10-26 10:23:30.340,LG-H970,1572085410349.0,-0.324,10.004,-0.269,41.1050534,16.8787562,False,NONE
