UTC_timestamp,device_name,timestamp,x,y,z,lat,long,event,speed
2019-10-27 16:33:41.940,LG-H970,1572194021950.25,0.319,9.656,-1.37,41.1087331,16.8750813,False,0.23800000000000002
2019-10-27 16:33:41.960,LG-H970,1572194021970.25,0.442,9.801,-1.279,41.1087331,16.8750813,False,0.23800000000000002
2019-10-27 16:33:41.980,LG-H970,1572194021990.75,0.339,9.633,-1.319,41.1087331,16.8750813,False,0.23800000000000002
2019-10-27 16:33:42.000,LG-H970,1572194022010.25,0.321,9.837,-1.332,41.1087331,16.8750813,False,0.23800000000000002
2019-10-27 16:33:42.020,LG-H970,1572194022029.75,0.44,9.554,-1.325,41.1087331,16.8750813,False,0.23800000000000002
2019-10-27 16:33:42.040,LG-H970,1572194022049.75,0.422,9.739,-1.266,41.1087331,16.8750813,False,0.23800000000000002
2019-10-27 16:33:42.060,LG-H970,1572194022070.25,0.262,9.703,-1.38,41.1087331,16.8750813,False,0.23800000000000002
2019-10-27 16:33:42.080,LG-H970,1572194022090.25,0.419,9.785,-1.274,41.1087328,16.8750814,False,0.1955
2019-10-27 16:33:42.100,LG-H970,1572194022107.25,0.428,9.57,-1.379,41.1087326,16.8750814,False,0.153
2019-10-27 16:33:42.120,LG-H970,1572194022127.25,0.329,9.82,-1.365,41.1087326,16.8750814,False,0.153
2019-10-27 16:33:42.140,LG-H970,1572194022148.25,0.352,9.606,-1.315,41.1087326,16.8750814,False,0.153
2019-10-27 16:33:42.160,LG-H970,1572194022168.5,0.39,9.792,-1.258,41.1087326,16.8750814,False,0.153
2019-10-27 16:33:42.180,LG-H970,1572194022187.5,0.301,9.681,-1.446,41.1087326,16.8750814,False,0.153
2019-10-27 16:33:42.200,LG-H970,1572194022207.25,0.415,9.787,-1.279,41.1087326,16.8750814,False,0.153
2019-10-27 16:33:42.220,LG-H970,1572194022229.8,0.37,9.58,-1.31,41.1087326,16.8750814,False,0.153
2019-10-27 16:33:42.240,LG-H970,1572194022251.5,0.372,9.867,-1.41,41.1087326,16.8750814,False,0.153
2019-10-27 16:33:42.260,LG-H970,1572194022269.6667,0.369,9.634,-1.321,41.1087326,16.8750814,False,0.153
2019-10-27 16:33:42.280,LG-H970,1572194022289.6,0.38,9.714,-1.264,41.1087326,16.8750814,False,0.153
2019-10-27 16:33:42.300,LG-H970,1572194022310.5,0.353,9.659,-1.412,41.1087326,16.8750814,False,0.153
2019-10-27 16:33:42.320,LG-H970,1572194022330.25,0.455,9.75,-1.292,41.1087326,16.8750814,False,0.153
2019-10-27 16:33:42.340,LG-H970,1572194022349.75,0.306,9.642,-1.293,41.1087326,16.8750814,False,0.153
2019-10-27 16:33:42.360,LG-H970,1572194022369.5,0.338,9.86,-1.384,41.1087326,16.8750814,False,0.153
2019-10-27 16:33:42.380,LG-H970,1572194022389.5,0.446,9.579,-1.275,41.1087326,16.8750814,False,0.153
2019-10-27 16:33:42.400,LG-H970,1572194022410.0,0.43,9.724,-1.316,41.1087326,16.8750814,False,0.153
2019-10-27 16:33:42.420,LG-H970,1572194022429.0,0.247,9.72,-1.437,41.1087326,16.8750814,False,0.153
2019-10-27 16:33:42.440,LG-H970,1572194022449.0,0.424,9.79,-1.27,41.1087326,16.8750814,False,0.153
2019-10-27 16:33:42.460,LG-H970,1572194022468.5,0.41,9.533,-1.259,41.1087326,16.8750814,False,0.153
2019-10-27 16:33:42.480,LG-H970,1572194022488.5,0.348,9.826,-1.418,41.1087326,16.8750814,False,0.153
2019-10-27 16:33:42.500,LG-H970,1572194022508.25,0.348,9.608,-1.324,41.1087326,16.8750814,False,0.153
2019-10-27 16:33:42.520,LG-H970,1572194022527.75,0.419,9.766,-1.288,41.1087326,16.8750814,False,0.153
2019-10-27 16:33:42.540,LG-H970,1572194022549.4,0.358,9.686,-1.36,41.1087326,16.8750814,False,0.153
2019-10-27 16:33:42.560,LG-H970,1572194022572.25,0.446,9.734,-1.338,41.1087326,16.8750814,False,0.153
2019-10-27 16:33:42.580,LG-H970,1572194022591.25,0.317,9.63,-1.266,41.1087326,16.8750814,False,0.153
2019-10-27 16:33:42.600,LG-H970,1572194022611.0,0.388,9.836,-1.407,41.1087326,16.8750814,False,0.153
2019-10-27 16:33:42.620,LG-H970,1572194022630.75,0.419,9.584,-1.225,41.1087326,16.8750814,False,0.153
2019-10-27 16:33:42.640,LG-H970,1572194022651.25,0.364,9.705,-1.306,41.1087326,16.8750814,False,0.153
2019-10-27 16:33:42.660,LG-H970,1572194022670.25,0.319,9.705,-1.345,41.1087326,16.8750814,False,0.153
2019-10-27 16:33:42.680,LG-H970,1572194022690.0,0.476,9.811,-1.335,41.1087326,16.8750814,False,0.153
2019-10-27 16:33:42.700,LG-H970,1572194022708.3333,0.398,9.565,-1.353,41.1087326,16.8750814,False,0.153
2019-10-27 16:33:42.720,LG-H970,1572194022729.25,0.358,9.775,-1.407,41.1087326,16.8750814,False,0.153
2019-10-27 16:33:42.740,LG-H970,1572194022748.75,0.41,9.58,-1.285,41.1087326,16.8750814,False,0.153
2019-10-27 16:33:42.760,LG-H970,1572194022769.25,0.376,9.741,-1.331,41.1087326,16.8750814,False,0.153
2019-10-27 16:33:42.780,LG-H970,1572194022789.0,0.324,9.691,-1.373,41.1087326,16.8750814,False,0.153
2019-10-27 16:33:42.800,LG-H970,1572194022808.5,0.443,9.741,-1.281,41.1087326,16.8750814,False,0.153
2019-10-27 16:33:42.820,LG-H970,1572194022828.25,0.356,9.614,-1.254,41.1087326,16.8750814,False,0.153
2019-10-27 16:33:42.840,LG-H970,1572194022847.25,0.352,9.885,-1.383,41.1087326,16.8750814,False,0.153
2019-10-27 16:33:42.860,LG-H970,1572194022869.6,0.406,9.646,-1.261,41.1087326,16.8750814,False,0.153
2019-10-27 16:33:42.880,LG-H970,1572194022888.6667,0.378,9.768,-1.345,41.1087326,16.8750814,False,0.153
2019-10-27 16:33:42.900,LG-H970,1572194022909.2,0.341,9.733,-1.377,41.1087326,16.8750814,False,0.153
2019-10-27 16:33:42.920,LG-H970,1572194022931.25,0.434,9.702,-1.364,41.1087326,16.8750814,False,0.153
2019-10-27 16:33:42.940,LG-H970,1572194022950.0,0.327,9.597,-1.332,41.1087326,16.8750814,False,0.153
2019-10-27 16:33:42.960,LG-H970,1572194022968.6,0.352,9.776,-1.407,41.1087326,16.8750814,False,0.153
2019-10-27 16:33:42.980,LG-H970,1572194022990.5,0.39,9.582,-1.224,41.1087326,16.8750814,False,0.153
2019-10-27 16:33:43.000,LG-H970,1572194023010.25,0.366,9.699,-1.408,41.1087326,16.8750814,False,0.153
2019-10-27 16:33:43.020,LG-H970,1572194023030.5,0.364,9.707,-1.346,41.1087326,16.8750814,False,0.153
2019-10-27 16:33:43.040,LG-H970,1572194023049.75,0.433,9.686,-1.302,41.1087326,16.8750814,False,0.153
2019-10-27 16:33:43.060,LG-H970,1572194023069.0,0.299,9.687,-1.251,41.1087326,16.8750814,False,0.153
2019-10-27 16:33:43.080,LG-H970,1572194023086.0,0.363,9.887,-1.433,41.1087326,16.8750814,False,0.153
2019-10-27 16:33:43.100,LG-H970,1572194023109.25,0.44,9.657,-1.229,41.1087323,16.8750812,False,0.091
2019-10-27 16:33:43.120,LG-H970,1572194023127.75,0.354,9.736,-1.351,41.1087323,16.8750812,False,0.091
2019-10-27 16:33:43.140,LG-H970,1572194023147.75,0.3,9.768,-1.332,41.1087323,16.8750812,False,0.091
2019-10-27 16:33:43.160,LG-H970,1572194023168.25,0.461,9.736,-1.294,41.1087323,16.8750812,False,0.091
2019-10-27 16:33:43.180,LG-H970,1572194023188.25,0.356,9.605,-1.289,41.1087323,16.8750812,False,0.091
2019-10-27 16:33:43.200,LG-H970,1572194023207.5,0.376,9.785,-1.421,41.1087323,16.8750812,False,0.091
2019-10-27 16:33:43.220,LG-H970,1572194023229.6,0.398,9.622,-1.229,41.1087323,16.8750812,False,0.091
2019-10-27 16:33:43.240,LG-H970,1572194023252.0,0.358,9.733,-1.495,41.1087323,16.8750812,False,0.091
2019-10-27 16:33:43.260,LG-H970,1572194023272.25,0.352,9.736,-1.266,41.1087323,16.8750812,False,0.091
2019-10-27 16:33:43.280,LG-H970,1572194023291.25,0.425,9.634,-1.375,41.1087323,16.8750812,False,0.091
2019-10-27 16:33:43.300,LG-H970,1572194023310.0,0.296,9.616,-1.211,41.1087323,16.8750812,False,0.09100000000000001
2019-10-27 16:33:43.320,LG-H970,1572194023330.0,0.382,9.753,-1.43,41.1087323,16.8750812,False,0.091
2019-10-27 16:33:43.340,LG-H970,1572194023349.5,0.382,9.693,-1.163,41.1087323,16.8750812,False,0.091
2019-10-27 16:33:43.360,LG-H970,1572194023370.0,0.342,9.726,-1.436,41.1087323,16.8750812,False,0.091
2019-10-27 16:33:43.380,LG-H970,1572194023390.0,0.387,9.705,-1.24,41.1087323,16.8750812,False,0.091
2019-10-27 16:33:43.400,LG-H970,1572194023409.5,0.45,9.688,-1.379,41.1087323,16.8750812,False,0.091
2019-10-27 16:33:43.420,LG-H970,1572194023429.25,0.272,9.752,-1.258,41.1087323,16.8750812,False,0.091
2019-10-27 16:33:43.440,LG-H970,1572194023449.0,0.391,9.749,-1.422,41.1087323,16.8750812,False,0.091
2019-10-27 16:33:43.460,LG-H970,1572194023468.75,0.449,9.598,-1.196,41.1087323,16.8750812,False,0.091
2019-10-27 16:33:43.480,LG-H970,1572194023488.5,0.35,9.742,-1.48,41.1087323,16.8750812,False,0.091
2019-10-27 16:33:43.500,LG-H970,1572194023508.25,0.33,9.728,-1.276,41.1087323,16.8750812,False,0.091
2019-10-27 16:33:43.520,LG-H970,1572194023528.0,0.454,9.667,-1.357,41.1087323,16.8750812,False,0.091
2019-10-27 16:33:43.540,LG-H970,1572194023548.0,0.345,9.685,-1.273,41.1087323,16.8750812,False,0.091
2019-10-27 16:33:43.560,LG-H970,1572194023569.8,0.388,9.692,-1.395,41.1087323,16.8750812,False,0.091
2019-10-27 16:33:43.580,LG-H970,1572194023589.0,0.422,9.679,-1.194,41.1087323,16.8750812,False,0.09100000000000001
2019-10-27 16:33:43.600,LG-H970,1572194023609.0,0.339,9.723,-1.44,41.1087323,16.8750812,False,0.091
2019-10-27 16:33:43.620,LG-H970,1572194023628.6667,0.335,9.764,-1.201,41.1087323,16.8750812,False,0.09100000000000001
2019-10-27 16:33:43.640,LG-H970,1572194023650.75,0.415,9.645,-1.356,41.1087323,16.8750812,False,0.091
2019-10-27 16:33:43.660,LG-H970,1572194023670.75,0.361,9.785,-1.311,41.1087323,16.8750812,False,0.091
2019-10-27 16:33:43.680,LG-H970,1572194023690.5,0.379,9.661,-1.372,41.1087323,16.8750812,False,0.091
2019-10-27 16:33:43.700,LG-H970,1572194023710.0,0.408,9.748,-1.192,41.1087323,16.8750812,False,0.091
2019-10-27 16:33:43.720,LG-H970,1572194023729.75,0.332,9.679,-1.501,41.1087323,16.8750812,False,0.091
2019-10-27 16:33:43.740,LG-H970,1572194023749.75,0.411,9.738,-1.214,41.1087323,16.8750812,False,0.091
2019-10-27 16:33:43.760,LG-H970,1572194023769.25,0.437,9.638,-1.367,41.1087323,16.8750812,False,0.091
2019-10-27 16:33:43.780,LG-H970,1572194023787.3333,0.266,9.737,-1.2,41.1087323,16.8750812,False,0.09100000000000001
2019-10-27 16:33:43.800,LG-H970,1572194023809.5,0.394,9.721,-1.429,41.1087323,16.8750812,False,0.091
2019-10-27 16:33:43.820,LG-H970,1572194023828.5,0.43,9.697,-1.184,41.1087323,16.8750812,False,0.091
2019-10-27 16:33:43.840,LG-H970,1572194023849.25,0.322,9.675,-1.48,41.1087323,16.8750812,False,0.091
2019-10-27 16:33:43.860,LG-H970,1572194023869.6,0.383,9.728,-1.23,41.1087323,16.8750812,False,0.091
2019-10-27 16:33:43.880,LG-H970,1572194023891.75,0.417,9.6,-1.334,41.1087323,16.8750812,False,0.091
2019-10-27 16:33:43.900,LG-H970,1572194023911.75,0.34,9.849,-1.338,41.1087323,16.8750812,False,0.091
2019-10-27 16:33:43.920,LG-H970,1572194023931.5,0.4,9.589,-1.342,41.1087323,16.8750812,False,0.091
2019-10-27 16:33:43.940,LG-H970,1572194023951.5,0.458,9.757,-1.267,41.1087323,16.8750812,False,0.091
2019-10-27 16:33:43.960,LG-H970,1572194023970.5,0.297,9.667,-1.391,41.1087323,16.8750812,False,0.091
2019-10-27 16:33:43.980,LG-H970,1572194023990.75,0.376,9.794,-1.254,41.1087323,16.8750812,False,0.091
2019-10-27 16:33:44.000,LG-H970,1572194024010.5,0.434,9.577,-1.348,41.1087323,16.8750812,False,0.091
2019-10-27 16:33:44.020,LG-H970,1572194024027.6667,0.37,9.789,-1.329,41.1087323,16.8750812,False,0.09100000000000001
2019-10-27 16:33:44.040,LG-H970,1572194024051.0,0.381,9.653,-1.345,41.1087323,16.8750812,False,0.091
2019-10-27 16:33:44.060,LG-H970,1572194024069.75,0.406,9.77,-1.266,41.1087323,16.8750812,False,0.091
2019-10-27 16:33:44.080,LG-H970,1572194024090.5,0.321,9.662,-1.434,41.1087323,16.8750812,False,0.091
2019-10-27 16:33:44.100,LG-H970,1572194024109.0,0.4,9.775,-1.255,41.1087323,16.8750812,False,0.091
2019-10-27 16:33:44.120,LG-H970,1572194024129.0,0.364,9.602,-1.363,41.1087323,16.8750812,False,0.091
2019-10-27 16:33:44.140,LG-H970,1572194024148.25,0.311,9.81,-1.333,41.1087323,16.8750812,False,0.091
2019-10-27 16:33:44.160,LG-H970,1572194024168.75,0.37,9.652,-1.352,41.1087323,16.8750812,False,0.091
2019-10-27 16:33:44.180,LG-H970,1572194024188.75,0.387,9.766,-1.244,41.1087323,16.8750812,False,0.091
2019-10-27 16:33:44.200,LG-H970,1572194024208.5,0.284,9.651,-1.436,41.1087323,16.8750812,False,0.091
2019-10-27 16:33:44.220,LG-H970,1572194024228.0,0.423,9.76,-1.237,41.1087323,16.8750812,False,0.091
2019-10-27 16:33:44.240,LG-H970,1572194024249.6,0.384,9.611,-1.288,41.1087323,16.8750812,False,0.091
2019-10-27 16:33:44.260,LG-H970,1572194024272.5,0.306,9.864,-1.374,41.1087323,16.8750812,False,0.091
2019-10-27 16:33:44.280,LG-H970,1572194024292.25,0.44,9.578,-1.312,41.1087323,16.8750812,False,0.091
2019-10-27 16:33:44.300,LG-H970,1572194024311.75,0.432,9.73,-1.309,41.1087323,16.8750812,False,0.091
2019-10-27 16:33:44.320,LG-H970,1572194024333.6667,0.276,9.624,-1.323,41.1087323,16.8750812,False,0.09100000000000001
2019-10-27 16:33:44.340,LG-H970,1572194024350.25,0.419,9.789,-1.348,41.1087323,16.8750812,False,0.091
2019-10-27 16:33:44.360,LG-H970,1572194024370.0,0.405,9.571,-1.325,41.1087323,16.8750812,False,0.091
2019-10-27 16:33:44.380,LG-H970,1572194024390.5,0.363,9.852,-1.428,41.1087323,16.8750812,False,0.091
2019-10-27 16:33:44.400,LG-H970,1572194024409.75,0.37,9.617,-1.382,41.1087323,16.8750812,False,0.091
2019-10-27 16:33:44.420,LG-H970,1572194024429.0,0.397,9.742,-1.284,41.1087323,16.8750812,False,0.091
2019-10-27 16:33:44.440,LG-H970,1572194024448.75,0.35,9.647,-1.383,41.1087323,16.8750812,False,0.091
2019-10-27 16:33:44.460,LG-H970,1572194024469.25,0.413,9.811,-1.269,41.1087323,16.8750812,False,0.091
2019-10-27 16:33:44.480,LG-H970,1572194024490.5,0.303,9.61,-1.324,41.1087323,16.8750812,False,0.091
2019-10-27 16:33:44.500,LG-H970,1572194024506.0,0.332,9.831,-1.311,41.1087323,16.8750812,False,0.09100000000000001
2019-10-27 16:33:44.520,LG-H970,1572194024528.0,0.453,9.611,-1.322,41.1087323,16.8750812,False,0.091
2019-10-27 16:33:44.540,LG-H970,1572194024549.0,0.341,9.734,-1.216,41.1087323,16.8750812,False,0.09100000000000001
2019-10-27 16:33:44.560,LG-H970,1572194024569.4,0.267,9.763,-1.359,41.1087323,16.8750812,False,0.091
2019-10-27 16:33:44.580,LG-H970,1572194024590.5,0.47,9.725,-1.303,41.1087323,16.8750812,False,0.091
2019-10-27 16:33:44.600,LG-H970,1572194024611.0,0.388,9.52,-1.325,41.1087323,16.8750812,False,0.09100000000000001
2019-10-27 16:33:44.620,LG-H970,1572194024631.5,0.299,9.795,-1.389,41.1087323,16.8750812,False,0.091
2019-10-27 16:33:44.640,LG-H970,1572194024649.75,0.394,9.638,-1.249,41.1087323,16.8750812,False,0.091
2019-10-27 16:33:44.660,LG-H970,1572194024669.5,0.424,9.715,-1.294,41.1087323,16.8750812,False,0.091
2019-10-27 16:33:44.680,LG-H970,1572194024689.75,0.284,9.679,-1.381,41.1087323,16.8750812,False,0.091
2019-10-27 16:33:44.700,LG-H970,1572194024710.0,0.437,9.713,-1.267,41.1087323,16.8750812,False,0.091
2019-10-27 16:33:44.720,LG-H970,1572194024730.5,0.394,9.595,-1.239,41.1087323,16.8750812,False,0.091
2019-10-27 16:33:44.740,LG-H970,1572194024750.5,0.388,9.875,-1.416,41.1087323,16.8750812,False,0.091
2019-10-27 16:33:44.760,LG-H970,1572194024770.5,0.418,9.64,-1.249,41.1087323,16.8750812,False,0.091
2019-10-27 16:33:44.780,LG-H970,1572194024789.0,0.434,9.733,-1.281,41.1087323,16.8750812,False,0.091
2019-10-27 16:33:44.800,LG-H970,1572194024809.5,0.387,9.67,-1.346,41.1087323,16.8750812,False,0.091
2019-10-27 16:33:44.820,LG-H970,1572194024830.0,0.467,9.789,-1.338,41.1087323,16.8750812,False,0.091
2019-10-27 16:33:44.840,LG-H970,1572194024848.25,0.348,9.636,-1.328,41.1087323,16.8750812,False,0.091
2019-10-27 16:33:44.860,LG-H970,1572194024868.25,0.361,9.834,-1.418,41.1087323,16.8750812,False,0.091
2019-10-27 16:33:44.880,LG-H970,1572194024890.0,0.418,9.629,-1.327,41.1087323,16.8750812,False,0.091
2019-10-27 16:33:44.900,LG-H970,1572194024909.6667,0.339,9.736,-1.421,41.1087323,16.8750812,False,0.09100000000000001
2019-10-27 16:33:44.920,LG-H970,1572194024930.4,0.255,9.736,-1.378,41.1087323,16.8750812,False,0.091
2019-10-27 16:33:44.940,LG-H970,1572194024950.75,0.429,9.714,-1.34,41.1087323,16.8750812,False,0.091
2019-10-27 16:33:44.960,LG-H970,1572194024971.0,0.316,9.63,-1.269,41.1087323,16.8750812,False,0.091
2019-10-27 16:33:44.980,LG-H970,1572194024990.5,0.34,9.787,-1.415,41.1087323,16.8750812,False,0.091
2019-10-27 16:33:45.000,LG-H970,1572194025010.75,0.393,9.602,-1.185,41.1087323,16.8750812,False,0.091
2019-10-27 16:33:45.020,LG-H970,1572194025031.0,0.356,9.696,-1.308,41.1087323,16.8750812,False,0.091
2019-10-27 16:33:45.040,LG-H970,1572194025053.0,0.341,9.759,-1.308,41.1087323,16.8750812,False,0.09100000000000001
2019-10-27 16:33:45.060,LG-H970,1572194025070.75,0.499,9.721,-1.298,41.1087322,16.8750811,False,0.07675000000000001
2019-10-27 16:33:45.080,LG-H970,1572194025091.6667,0.402,9.654,-1.256,41.1087319,16.8750808,False,0.034
2019-10-27 16:33:45.100,LG-H970,1572194025108.5,0.454,9.819,-1.467,41.1087319,16.8750808,False,0.034
2019-10-27 16:33:45.120,LG-H970,1572194025128.5,0.473,9.665,-1.258,41.1087319,16.8750808,False,0.034
2019-10-27 16:33:45.140,LG-H970,1572194025149.0,0.4,9.715,-1.408,41.1087319,16.8750808,False,0.034
2019-10-27 16:33:45.160,LG-H970,1572194025168.75,0.384,9.712,-1.354,41.1087319,16.8750808,False,0.034
2019-10-27 16:33:45.180,LG-H970,1572194025189.0,0.517,9.687,-1.342,41.1087319,16.8750808,False,0.034
2019-10-27 16:33:45.200,LG-H970,1572194025209.5,0.338,9.606,-1.236,41.1087319,16.8750808,False,0.034
2019-10-27 16:33:45.220,LG-H970,1572194025228.75,0.361,9.793,-1.41,41.1087319,16.8750808,False,0.034
2019-10-27 16:33:45.240,LG-H970,1572194025248.0,0.413,9.634,-1.221,41.1087319,16.8750808,False,0.034
2019-10-27 16:33:45.260,LG-H970,1572194025268.0,0.328,9.678,-1.268,41.1087319,16.8750808,False,0.034
2019-10-27 16:33:45.280,LG-H970,1572194025289.6,0.311,9.782,-1.302,41.1087319,16.8750808,False,0.034
2019-10-27 16:33:45.300,LG-H970,1572194025314.5,0.391,9.737,-1.296,41.1087319,16.8750808,False,0.034
2019-10-27 16:33:45.320,LG-H970,1572194025331.0,0.25,9.74,-1.248,41.1087319,16.8750808,False,0.034
2019-10-27 16:33:45.340,LG-H970,1572194025350.5,0.397,9.773,-1.389,41.1087319,16.8750808,False,0.034
2019-10-27 16:33:45.360,LG-H970,1572194025370.0,0.476,9.605,-1.243,41.1087319,16.8750808,False,0.034
2019-10-27 16:33:45.380,LG-H970,1572194025395.0,0.426,9.82,-1.564,41.1087319,16.8750808,False,0.034
2019-10-27 16:33:45.400,LG-H970,1572194025409.75,0.331,9.749,-1.342,41.1087319,16.8750808,False,0.034
2019-10-27 16:33:45.420,LG-H970,1572194025429.5,0.479,9.632,-1.399,41.1087319,16.8750808,False,0.034
2019-10-27 16:33:45.440,LG-H970,1572194025448.75,0.403,9.618,-1.339,41.1087319,16.8750808,False,0.034
2019-10-27 16:33:45.460,LG-H970,1572194025468.5,0.379,9.762,-1.507,41.1087319,16.8750808,False,0.034
2019-10-27 16:33:45.480,LG-H970,1572194025489.5,0.385,9.681,-1.17,41.1087319,16.8750808,False,0.034
2019-10-27 16:33:45.500,LG-H970,1572194025508.5,0.362,9.736,-1.403,41.1087319,16.8750808,False,0.034
2019-10-27 16:33:45.520,LG-H970,1572194025528.25,0.36,9.773,-1.256,41.1087319,16.8750808,False,0.034
2019-10-27 16:33:45.540,LG-H970,1572194025547.75,0.361,9.679,-1.301,41.1087319,16.8750808,False,0.034
2019-10-27 16:33:45.560,LG-H970,1572194025567.75,0.235,9.729,-1.182,41.1087319,16.8750808,False,0.034
2019-10-27 16:33:45.580,LG-H970,1572194025590.2,0.332,9.734,-1.364,41.1087319,16.8750808,False,0.034
2019-10-27 16:33:45.600,LG-H970,1572194025611.5,0.375,9.727,-1.236,41.1087319,16.8750808,False,0.034
2019-10-27 16:33:45.620,LG-H970,1572194025630.75,0.234,9.702,-1.47,41.1087319,16.8750808,False,0.034
2019-10-27 16:33:45.640,LG-H970,1572194025651.0,0.389,9.741,-1.243,41.1087319,16.8750808,False,0.034
2019-10-27 16:33:45.660,LG-H970,1572194025670.75,0.476,9.662,-1.38,41.1087319,16.8750808,False,0.034
2019-10-27 16:33:45.680,LG-H970,1572194025688.3333,0.328,9.765,-1.282,41.1087319,16.8750808,False,0.034
2019-10-27 16:33:45.700,LG-H970,1572194025708.6,0.392,9.716,-1.409,41.1087319,16.8750808,False,0.034
2019-10-27 16:33:45.720,LG-H970,1572194025730.25,0.51,9.664,-1.257,41.1087319,16.8750808,False,0.034
2019-10-27 16:33:45.740,LG-H970,1572194025747.6667,0.425,9.674,-1.45,41.1087319,16.8750808,False,0.034
2019-10-27 16:33:45.760,LG-H970,1572194025768.4,0.414,9.693,-1.295,41.1087319,16.8750808,False,0.034
2019-10-27 16:33:45.780,LG-H970,1572194025789.25,0.47,9.642,-1.324,41.1087319,16.8750808,False,0.034
2019-10-27 16:33:45.800,LG-H970,1572194025808.25,0.408,9.711,-1.315,41.1087319,16.8750808,False,0.034
2019-10-27 16:33:45.820,LG-H970,1572194025830.2,0.41,9.684,-1.313,41.1087319,16.8750808,False,0.034
2019-10-27 16:33:45.840,LG-H970,1572194025849.6667,0.396,9.718,-1.277,41.1087319,16.8750808,False,0.034
2019-10-27 16:33:45.860,LG-H970,1572194025867.5,0.327,9.77,-1.409,41.1087319,16.8750808,False,0.034
2019-10-27 16:33:45.880,LG-H970,1572194025890.6,0.43,9.766,-1.262,41.1087319,16.8750808,False,0.034
2019-10-27 16:33:45.900,LG-H970,1572194025910.75,0.333,9.662,-1.324,41.1087319,16.8750808,False,0.034
2019-10-27 16:33:45.920,LG-H970,1572194025931.25,0.324,9.855,-1.34,41.1087319,16.8750808,False,0.034
2019-10-27 16:33:45.940,LG-H970,1572194025950.25,0.446,9.634,-1.32,41.1087319,16.8750808,False,0.034
2019-10-27 16:33:45.960,LG-H970,1572194025970.5,0.441,9.77,-1.248,41.1087319,16.8750808,False,0.034
2019-10-27 16:33:45.980,LG-H970,1572194025990.5,0.282,9.685,-1.437,41.1087319,16.8750808,False,0.034
2019-10-27 16:33:46.000,LG-H970,1572194026010.25,0.456,9.763,-1.258,41.1087319,16.8750808,False,0.034
2019-10-27 16:33:46.020,LG-H970,1572194026030.5,0.478,9.531,-1.348,41.1087319,16.8750808,False,0.034
2019-10-27 16:33:46.040,LG-H970,1572194026050.25,0.36,9.812,-1.315,41.1087319,16.8750808,False,0.034
2019-10-27 16:33:46.060,LG-H970,1572194026070.5,0.388,9.626,-1.361,41.1087319,16.8750808,False,0.034
2019-10-27 16:33:46.080,LG-H970,1572194026090.25,0.493,9.727,-1.219,41.1087318,16.8750806,False,0.028000000000000004
2019-10-27 16:33:46.100,LG-H970,1572194026108.5,0.368,9.62,-1.437,41.1087318,16.8750806,False,0.026000000000000002
2019-10-27 16:33:46.120,LG-H970,1572194026128.75,0.407,9.728,-1.309,41.1087318,16.8750806,False,0.026000000000000002
2019-10-27 16:33:46.140,LG-H970,1572194026148.75,0.372,9.645,-1.328,41.1087318,16.8750806,False,0.026000000000000002
2019-10-27 16:33:46.160,LG-H970,1572194026168.5,0.276,9.842,-1.34,41.1087318,16.8750806,False,0.026000000000000002
2019-10-27 16:33:46.180,LG-H970,1572194026188.75,0.341,9.69,-1.386,41.1087318,16.8750806,False,0.026000000000000002
2019-10-27 16:33:46.200,LG-H970,1572194026208.5,0.378,9.737,-1.266,41.1087318,16.8750806,False,0.026000000000000002
2019-10-27 16:33:46.220,LG-H970,1572194026228.25,0.224,9.694,-1.393,41.1087318,16.8750806,False,0.026000000000000002
2019-10-27 16:33:46.240,LG-H970,1572194026248.0,0.297,9.811,-1.234,41.1087318,16.8750806,False,0.026000000000000002
2019-10-27 16:33:46.260,LG-H970,1572194026267.5,0.37,9.65,-1.299,41.1087318,16.8750806,False,0.026000000000000002
2019-10-27 16:33:46.280,LG-H970,1572194026289.4,0.306,9.786,-1.286,41.1087318,16.8750806,False,0.026000000000000002
2019-10-27 16:33:46.300,LG-H970,1572194026311.75,0.362,9.591,-1.258,41.1087318,16.8750806,False,0.026000000000000002
2019-10-27 16:33:46.320,LG-H970,1572194026331.75,0.412,9.736,-1.291,41.1087318,16.8750806,False,0.026000000000000002
2019-10-27 16:33:46.340,LG-H970,1572194026351.0,0.326,9.684,-1.38,41.1087318,16.8750806,False,0.026000000000000002
2019-10-27 16:33:46.360,LG-H970,1572194026370.75,0.492,9.76,-1.315,41.1087318,16.8750806,False,0.026000000000000002
2019-10-27 16:33:46.380,LG-H970,1572194026390.75,0.457,9.603,-1.334,41.1087318,16.8750806,False,0.026000000000000002
2019-10-27 16:33:46.400,LG-H970,1572194026410.25,0.43,9.82,-1.431,41.1087318,16.8750806,False,0.026000000000000002
2019-10-27 16:33:46.420,LG-H970,1572194026427.6667,0.484,9.609,-1.402,41.1087318,16.8750806,False,0.026000000000000006
2019-10-27 16:33:46.440,LG-H970,1572194026448.6,0.497,9.703,-1.277,41.1087318,16.8750806,False,0.026000000000000002
2019-10-27 16:33:46.460,LG-H970,1572194026469.25,0.357,9.659,-1.397,41.1087318,16.8750806,False,0.026000000000000002
2019-10-27 16:33:46.480,LG-H970,1572194026489.25,0.5,9.763,-1.317,41.1087318,16.8750806,False,0.026000000000000002
2019-10-27 16:33:46.500,LG-H970,1572194026508.75,0.43,9.624,-1.315,41.1087318,16.8750806,False,0.026000000000000002
2019-10-27 16:33:46.520,LG-H970,1572194026528.75,0.33,9.84,-1.333,41.1087318,16.8750806,False,0.026000000000000002
2019-10-27 16:33:46.540,LG-H970,1572194026549.0,0.388,9.621,-1.242,41.1087318,16.8750806,False,0.026000000000000002
2019-10-27 16:33:46.560,LG-H970,1572194026568.25,0.409,9.777,-1.228,41.1087318,16.8750806,False,0.026000000000000002
2019-10-27 16:33:46.580,LG-H970,1572194026588.0,0.22,9.706,-1.391,41.1087318,16.8750806,False,0.026000000000000002
2019-10-27 16:33:46.600,LG-H970,1572194026607.75,0.344,9.792,-1.279,41.1087318,16.8750806,False,0.026000000000000002
2019-10-27 16:33:46.620,LG-H970,1572194026630.2,0.351,9.607,-1.287,41.1087318,16.8750806,False,0.026000000000000002
2019-10-27 16:33:46.640,LG-H970,1572194026649.3333,0.295,9.914,-1.47,41.1087318,16.8750806,False,0.026000000000000006
2019-10-27 16:33:46.660,LG-H970,1572194026669.2,0.33,9.641,-1.309,41.1087318,16.8750806,False,0.026000000000000002
2019-10-27 16:33:46.680,LG-H970,1572194026691.75,0.424,9.712,-1.34,41.1087318,16.8750806,False,0.026000000000000002
2019-10-27 16:33:46.700,LG-H970,1572194026710.5,0.326,9.645,-1.404,41.1087318,16.8750806,False,0.026000000000000002
2019-10-27 16:33:46.720,LG-H970,1572194026730.0,0.461,9.742,-1.349,41.1087318,16.8750806,False,0.026000000000000002
2019-10-27 16:33:46.740,LG-H970,1572194026750.0,0.416,9.615,-1.291,41.1087318,16.8750806,False,0.026000000000000002
2019-10-27 16:33:46.760,LG-H970,1572194026769.75,0.421,9.821,-1.412,41.1087318,16.8750806,False,0.026000000000000002
2019-10-27 16:33:46.780,LG-H970,1572194026790.0,0.432,9.612,-1.293,41.1087318,16.8750806,False,0.026000000000000002
2019-10-27 16:33:46.800,LG-H970,1572194026809.0,0.489,9.712,-1.351,41.1087318,16.8750806,False,0.026000000000000002
2019-10-27 16:33:46.820,LG-H970,1572194026829.25,0.244,9.666,-1.063,41.1087318,16.8750806,False,0.026000000000000002
2019-10-27 16:33:46.840,LG-H970,1572194026846.0,-1.763,8.88,-0.879,41.1087318,16.8750806,False,0.026000000000000006
2019-10-27 16:33:46.860,LG-H970,1572194026867.6,-0.522,10.368,-2.002,41.1087318,16.8750806,False,0.026000000000000002
2019-10-27 16:33:46.880,LG-H970,1572194026888.5,3.589,8.731,0.075,41.1087318,16.8750806,False,0.026000000000000002
2019-10-27 16:33:46.900,LG-H970,1572194026908.25,0.924,9.742,-0.775,41.1087318,16.8750806,False,0.026000000000000002
2019-10-27 16:33:46.920,LG-H970,1572194026922.5,-1.029,13.317,-5.883,41.1087318,16.8750806,False,0.026000000000000002
2019-10-27 16:33:46.940,LG-H970,1572194026951.75,0.76,10.107,-1.486,41.1087318,16.8750806,True,0.026000000000000002
2019-10-27 16:33:46.960,LG-H970,1572194026963.0,3.2,7.865,1.271,41.1087318,16.8750806,False,0.026000000000000002
2019-10-27 16:33:46.980,LG-H970,1572194026999.0,4.01,9.448,1.053,41.1087318,16.8750806,False,0.026000000000000002
2019-10-27 16:33:47.000,LG-H970,1572194027005.5,-1.993,11.357,-3.035,41.1087318,16.8750806,False,0.026000000000000002
2019-10-27 16:33:47.020,LG-H970,1572194027025.5,-0.949,9.391,-1.747,41.1087318,16.8750806,False,0.026000000000000002
2019-10-27 16:33:47.040,LG-H970,1572194027051.25,2.158,9.408,-0.362,41.1087318,16.8750806,False,0.026000000000000002
2019-10-27 16:33:47.060,LG-H970,1572194027070.25,-0.379,10.045,-2.091,41.1087318,16.8750806,False,0.026000000000000002
2019-10-27 16:33:47.080,LG-H970,1572194027091.3333,-1.189,10.164,-2.327,41.1087318,16.8750806,False,0.026000000000000006
2019-10-27 16:33:47.100,LG-H970,1572194027109.75,0.94,9.074,-1.038,41.1087318,16.8750806,False,0.026000000000000002
2019-10-27 16:33:47.120,LG-H970,1572194027129.75,1.358,9.843,-0.77,41.1087318,16.8750806,False,0.026000000000000002
2019-10-27 16:33:47.140,LG-H970,1572194027149.25,-0.802,10.291,-1.592,41.1087318,16.8750806,False,0.026000000000000002
2019-10-27 16:33:47.160,LG-H970,1572194027169.5,-0.333,9.898,-1.661,41.1087318,16.8750806,False,0.026000000000000002
2019-10-27 16:33:47.180,LG-H970,1572194027190.0,1.446,9.217,-0.854,41.1087318,16.8750806,False,0.026000000000000002
2019-10-27 16:33:47.200,LG-H970,1572194027208.5,0.39,9.368,-1.327,41.1087318,16.8750806,False,0.026000000000000002
2019-10-27 16:33:47.220,LG-H970,1572194027228.0,-0.985,10.297,-2.046,41.1087318,16.8750806,False,0.026000000000000006
2019-10-27 16:33:47.240,LG-H970,1572194027249.8,0.915,9.633,-1.102,41.1087318,16.8750806,False,0.026000000000000002
2019-10-27 16:33:47.260,LG-H970,1572194027270.0,1.624,9.099,-0.348,41.1087318,16.8750806,False,0.026000000000000006
2019-10-27 16:33:47.280,LG-H970,1572194027289.8,-0.165,9.645,-2.01,41.1087318,16.8750806,False,0.026000000000000002
2019-10-27 16:33:47.300,LG-H970,1572194027312.0,-0.089,10.147,-1.63,41.1087318,16.8750806,False,0.026000000000000002
2019-10-27 16:33:47.320,LG-H970,1572194027331.25,1.436,9.411,-0.613,41.1087318,16.8750806,False,0.026000000000000002
2019-10-27 16:33:47.340,LG-H970,1572194027351.0,0.845,9.82,-0.99,41.1087318,16.8750806,False,0.026000000000000002
2019-10-27 16:33:47.360,LG-H970,1572194027371.0,-0.277,9.916,-2.08,41.1087318,16.8750806,False,0.026000000000000002
2019-10-27 16:33:47.380,LG-H970,1572194027391.5,0.47,9.443,-1.288,41.1087318,16.8750806,False,0.026000000000000002
2019-10-27 16:33:47.400,LG-H970,1572194027411.25,1.103,9.42,-0.938,41.1087318,16.8750806,False,0.026000000000000002
2019-10-27 16:33:47.420,LG-H970,1572194027429.3333,0.229,10.065,-1.21,41.1087318,16.8750806,False,0.026000000000000006
2019-10-27 16:33:47.440,LG-H970,1572194027450.3333,-0.088,10.017,-1.805,41.1087318,16.8750806,False,0.026000000000000006
2019-10-27 16:33:47.460,LG-H970,1572194027469.5,0.788,9.386,-1.242,41.1087318,16.8750806,False,0.026000000000000002
2019-10-27 16:33:47.480,LG-H970,1572194027489.5,0.758,9.435,-1.313,41.1087318,16.8750806,False,0.026000000000000002
2019-10-27 16:33:47.500,LG-H970,1572194027509.5,-0.304,9.922,-1.461,41.1087318,16.8750806,False,0.026000000000000002
2019-10-27 16:33:47.520,LG-H970,1572194027529.75,0.05,9.984,-1.421,41.1087318,16.8750806,False,0.026000000000000002
2019-10-27 16:33:47.540,LG-H970,1572194027548.0,0.88,9.576,-0.925,41.1087318,16.8750806,False,0.026000000000000006
2019-10-27 16:33:47.560,LG-H970,1572194027568.75,0.492,9.46,-1.443,41.1087318,16.8750806,False,0.026000000000000002
2019-10-27 16:33:47.580,LG-H970,1572194027588.25,-0.342,9.863,-1.71,41.1087318,16.8750806,False,0.026000000000000002
2019-10-27 16:33:47.600,LG-H970,1572194027607.75,0.438,9.853,-1.35,41.1087318,16.8750806,False,0.026000000000000002
2019-10-27 16:33:47.620,LG-H970,1572194027629.8,0.844,9.704,-0.845,41.1087318,16.8750806,False,0.026000000000000002
2019-10-27 16:33:47.640,LG-H970,1572194027649.6667,0.012,9.645,-1.755,41.1087318,16.8750806,False,0.026000000000000006
2019-10-27 16:33:47.660,LG-H970,1572194027669.2,0.172,9.762,-1.584,41.1087318,16.8750806,False,0.026000000000000002
2019-10-27 16:33:47.680,LG-H970,1572194027690.75,0.893,9.354,-1.129,41.1087318,16.8750806,False,0.026000000000000002
2019-10-27 16:33:47.700,LG-H970,1572194027711.25,0.42,9.948,-1.118,41.1087318,16.8750806,False,0.026000000000000002
2019-10-27 16:33:47.720,LG-H970,1572194027731.0,0.045,9.836,-1.595,41.1087318,16.8750806,False,0.026000000000000002
2019-10-27 16:33:47.740,LG-H970,1572194027748.3333,0.559,9.575,-1.157,41.1087318,16.8750806,False,0.026000000000000006
2019-10-27 16:33:47.760,LG-H970,1572194027768.8,0.835,9.385,-1.349,41.1087318,16.8750806,False,0.026000000000000002
2019-10-27 16:33:47.780,LG-H970,1572194027790.25,0.178,9.925,-1.365,41.1087318,16.8750806,False,0.026000000000000002
2019-10-27 16:33:47.800,LG-H970,1572194027810.0,0.166,9.839,-1.457,41.1087318,16.8750806,False,0.026000000000000002
2019-10-27 16:33:47.820,LG-H970,1572194027831.25,0.662,9.716,-1.114,41.1087318,16.8750806,False,0.026000000000000002
2019-10-27 16:33:47.840,LG-H970,1572194027849.25,0.597,9.482,-1.38,41.1087318,16.8750806,False,0.026000000000000002
2019-10-27 16:33:47.860,LG-H970,1572194027869.75,0.058,9.773,-1.47,41.1087318,16.8750806,False,0.026000000000000002
2019-10-27 16:33:47.880,LG-H970,1572194027888.0,0.264,9.755,-1.479,41.1087318,16.8750806,False,0.026000000000000002
2019-10-27 16:33:47.900,LG-H970,1572194027908.25,0.685,9.816,-0.997,41.1087318,16.8750806,False,0.026000000000000002
2019-10-27 16:33:47.920,LG-H970,1572194027928.5,0.346,9.615,-1.373,41.1087318,16.8750806,False,0.026000000000000002
2019-10-27 16:33:47.940,LG-H970,1572194027951.8,0.051,9.755,-1.507,41.1087318,16.8750806,False,0.026000000000000002
2019-10-27 16:33:47.960,LG-H970,1572194027972.25,0.582,9.45,-1.238,41.1087318,16.8750806,False,0.026000000000000002
2019-10-27 16:33:47.980,LG-H970,1572194027991.5,0.548,9.833,-1.156,41.1087318,16.8750806,False,0.026000000000000002
2019-10-27 16:33:48.000,LG-H970,1572194028010.6667,0.005,9.812,-1.579,41.1087318,16.8750806,False,0.026000000000000006
2019-10-27 16:33:48.020,LG-H970,1572194028028.4,0.316,9.814,-1.318,41.1087318,16.8750806,False,0.026000000000000002
2019-10-27 16:33:48.040,LG-H970,1572194028053.0,0.716,9.328,-1.242,41.1087315,16.8750806,False,0.019
2019-10-27 16:33:48.060,LG-H970,1572194028069.75,0.332,9.885,-1.375,41.1087315,16.8750806,False,0.019
2019-10-27 16:33:48.080,LG-H970,1572194028090.25,0.13,9.785,-1.381,41.1087315,16.8750806,False,0.019
2019-10-27 16:33:48.100,LG-H970,1572194028110.25,0.621,9.81,-1.153,41.1087315,16.8750806,False,0.019
2019-10-27 16:33:48.120,LG-H970,1572194028130.0,0.536,9.49,-1.357,41.1087315,16.8750806,False,0.019
2019-10-27 16:33:48.140,LG-H970,1572194028150.25,0.272,9.781,-1.446,41.1087315,16.8750806,False,0.019
2019-10-27 16:33:48.160,LG-H970,1572194028169.5,0.305,9.572,-1.379,41.1087315,16.8750806,False,0.019
2019-10-27 16:33:48.180,LG-H970,1572194028189.25,0.557,9.849,-1.189,41.1087315,16.8750806,False,0.019
2019-10-27 16:33:48.200,LG-H970,1572194028209.25,0.449,9.628,-1.288,41.1087315,16.8750806,False,0.019
2019-10-27 16:33:48.220,LG-H970,1572194028229.0,0.292,9.773,-1.489,41.1087315,16.8750806,False,0.019
2019-10-27 16:33:48.240,LG-H970,1572194028249.0,0.377,9.538,-1.418,41.1087315,16.8750806,False,0.019
2019-10-27 16:33:48.260,LG-H970,1572194028268.5,0.617,9.752,-1.2,41.1087315,16.8750806,False,0.019
2019-10-27 16:33:48.280,LG-H970,1572194028289.0,0.302,9.696,-1.292,41.1087315,16.8750806,False,0.019
2019-10-27 16:33:48.300,LG-H970,1572194028308.0,0.227,9.942,-1.488,41.1087315,16.8750806,False,0.019
2019-10-27 16:33:48.320,LG-H970,1572194028329.6,0.578,9.477,-1.206,41.1087315,16.8750806,False,0.019
2019-10-27 16:33:48.340,LG-H970,1572194028352.25,0.451,9.671,-1.346,41.1087315,16.8750806,False,0.019
2019-10-27 16:33:48.360,LG-H970,1572194028370.5,0.108,9.857,-1.409,41.1087315,16.8750806,False,0.019
2019-10-27 16:33:48.380,LG-H970,1572194028391.0,0.457,9.759,-1.3,41.1087315,16.8750806,False,0.019
2019-10-27 16:33:48.400,LG-H970,1572194028410.5,0.518,9.529,-1.175,41.1087315,16.8750806,False,0.019
2019-10-27 16:33:48.420,LG-H970,1572194028431.25,0.248,9.749,-1.558,41.1087315,16.8750806,False,0.019
2019-10-27 16:33:48.440,LG-H970,1572194028450.5,0.19,9.663,-1.303,41.1087315,16.8750806,False,0.019
2019-10-27 16:33:48.460,LG-H970,1572194028470.0,0.465,9.768,-1.292,41.1087315,16.8750806,False,0.019
2019-10-27 16:33:48.480,LG-H970,1572194028489.5,0.378,9.752,-1.205,41.1087315,16.8750806,False,0.019
2019-10-27 16:33:48.500,LG-H970,1572194028510.0,0.366,9.757,-1.464,41.1087315,16.8750806,False,0.019
2019-10-27 16:33:48.520,LG-H970,1572194028529.25,0.308,9.558,-1.325,41.1087315,16.8750806,False,0.019
2019-10-27 16:33:48.540,LG-H970,1572194028551.0,0.528,9.827,-1.379,41.1087315,16.8750806,False,0.019
2019-10-27 16:33:48.560,LG-H970,1572194028569.0,0.402,9.663,-1.16,41.1087315,16.8750806,False,0.019
2019-10-27 16:33:48.580,LG-H970,1572194028588.75,0.387,9.801,-1.416,41.1087315,16.8750806,False,0.019
2019-10-27 16:33:48.600,LG-H970,1572194028607.75,0.424,9.571,-1.36,41.1087315,16.8750806,False,0.019
2019-10-27 16:33:48.620,LG-H970,1572194028627.5,0.636,9.685,-1.319,41.1087315,16.8750806,False,0.019
2019-10-27 16:33:48.640,LG-H970,1572194028648.0,0.314,9.494,-1.112,41.1087315,16.8750806,False,0.019
2019-10-27 16:33:48.660,LG-H970,1572194028667.5,0.375,9.942,-1.521,41.1087315,16.8750806,False,0.019
2019-10-27 16:33:48.680,LG-H970,1572194028689.6,0.556,9.713,-1.373,41.1087315,16.8750806,False,0.019
2019-10-27 16:33:48.700,LG-H970,1572194028711.75,0.33,9.477,-1.439,41.1087315,16.8750806,False,0.019
2019-10-27 16:33:48.720,LG-H970,1572194028731.5,0.231,9.886,-1.297,41.1087315,16.8750806,False,0.019
2019-10-27 16:33:48.740,LG-H970,1572194028751.0,0.491,9.675,-1.522,41.1087315,16.8750806,False,0.019
2019-10-27 16:33:48.760,LG-H970,1572194028770.75,0.383,9.688,-1.197,41.1087315,16.8750806,False,0.019
2019-10-27 16:33:48.780,LG-H970,1572194028790.0,0.286,9.649,-1.697,41.1087315,16.8750806,False,0.019
2019-10-27 16:33:48.800,LG-H970,1572194028810.0,0.354,9.655,-1.175,41.1087315,16.8750806,False,0.019
2019-10-27 16:33:48.820,LG-H970,1572194028831.3333,0.521,9.872,-1.657,41.1087315,16.8750806,False,0.019
2019-10-27 16:33:48.840,LG-H970,1572194028849.5,0.325,9.859,-1.132,41.1087315,16.8750806,False,0.019
2019-10-27 16:33:48.860,LG-H970,1572194028869.25,0.348,9.663,-1.413,41.1087315,16.8750806,False,0.019
2019-10-27 16:33:48.880,LG-H970,1572194028889.5,0.317,9.618,-1.13,41.1087315,16.8750806,False,0.019
2019-10-27 16:33:48.900,LG-H970,1572194028908.5,0.448,9.739,-1.526,41.1087315,16.8750806,False,0.019
2019-10-27 16:33:48.920,LG-H970,1572194028928.5,0.32,9.611,-1.062,41.1087315,16.8750806,False,0.019
2019-10-27 16:33:48.940,LG-H970,1572194028949.5,0.359,9.742,-1.527,41.1087315,16.8750806,False,0.019
2019-10-27 16:33:48.960,LG-H970,1572194028967.5,0.37,9.703,-1.21,41.1087315,16.8750806,False,0.019
2019-10-27 16:33:48.980,LG-H970,1572194028987.5,0.478,9.632,-1.468,41.1087315,16.8750806,False,0.019
2019-10-27 16:33:49.000,LG-H970,1572194029010.0,0.299,9.819,-1.288,41.1087315,16.8750806,False,0.019
2019-10-27 16:33:49.020,LG-H970,1572194029032.75,0.379,9.683,-1.438,41.1087315,16.8750806,False,0.019
2019-10-27 16:33:49.040,LG-H970,1572194029053.25,0.491,9.819,-1.103,41.1087315,16.8750806,False,0.019
2019-10-27 16:33:49.060,LG-H970,1572194029069.3333,0.343,9.666,-1.56,41.1087314,16.8750806,False,0.02033333333333333
2019-10-27 16:33:49.080,LG-H970,1572194029088.6,0.403,9.797,-1.193,41.1087312,16.8750807,False,0.023
2019-10-27 16:33:49.100,LG-H970,1572194029110.0,0.471,9.478,-1.304,41.1087312,16.8750807,False,0.023
2019-10-27 16:33:49.120,LG-H970,1572194029130.25,0.4,9.867,-1.254,41.1087312,16.8750807,False,0.023
2019-10-27 16:33:49.140,LG-H970,1572194029150.25,0.312,9.504,-1.348,41.1087312,16.8750807,False,0.023
2019-10-27 16:33:49.160,LG-H970,1572194029170.25,0.485,9.755,-1.312,41.1087312,16.8750807,False,0.023
2019-10-27 16:33:49.180,LG-H970,1572194029189.75,0.316,9.505,-1.364,41.1087312,16.8750807,False,0.023
2019-10-27 16:33:49.200,LG-H970,1572194029207.6667,0.478,9.975,-1.363,41.1087312,16.8750807,False,0.023000000000000003
2019-10-27 16:33:49.220,LG-H970,1572194029228.0,0.324,9.545,-1.284,41.1087312,16.8750807,False,0.023
2019-10-27 16:33:49.240,LG-H970,1572194029249.25,0.478,9.934,-1.469,41.1087312,16.8750807,False,0.023
2019-10-27 16:33:49.260,LG-H970,1572194029269.5,0.493,9.657,-1.58,41.1087312,16.8750807,False,0.023
2019-10-27 16:33:49.280,LG-H970,1572194029288.75,0.206,9.602,-1.552,41.1087312,16.8750807,False,0.023
2019-10-27 16:33:49.300,LG-H970,1572194029308.25,0.157,10.028,-1.525,41.1087312,16.8750807,False,0.023
2019-10-27 16:33:49.320,LG-H970,1572194029329.25,0.64,9.391,-1.495,41.1087312,16.8750807,False,0.023
2019-10-27 16:33:49.340,LG-H970,1572194029348.0,0.572,9.397,-1.514,41.1087312,16.8750807,False,0.023000000000000003
2019-10-27 16:33:49.360,LG-H970,1572194029369.0,-0.037,9.565,-1.83,41.1087312,16.8750807,False,0.023
2019-10-27 16:33:49.380,LG-H970,1572194029391.5,0.385,9.927,-1.443,41.1087312,16.8750807,False,0.023
2019-10-27 16:33:49.400,LG-H970,1572194029410.5,0.369,9.658,-1.355,41.1087312,16.8750807,False,0.023
2019-10-27 16:33:49.420,LG-H970,1572194029431.0,0.39,9.369,-2.287,41.1087312,16.8750807,False,0.023
2019-10-27 16:33:49.440,LG-H970,1572194029450.25,0.626,9.746,-1.715,41.1087312,16.8750807,False,0.023
2019-10-27 16:33:49.460,LG-H970,1572194029470.25,0.092,9.423,-1.748,41.1087312,16.8750807,False,0.023
2019-10-27 16:33:49.480,LG-H970,1572194029490.75,0.25,10.22,-1.59,41.1087312,16.8750807,False,0.023
2019-10-27 16:33:49.500,LG-H970,1572194029509.5,0.375,9.537,-2.098,41.1087312,16.8750807,False,0.023
2019-10-27 16:33:49.520,LG-H970,1572194029526.6667,0.58,9.318,-1.503,41.1087312,16.8750807,False,0.023000000000000003
2019-10-27 16:33:49.540,LG-H970,1572194029548.0,0.547,9.48,-2.166,41.1087312,16.8750807,False,0.023
2019-10-27 16:33:49.560,LG-H970,1572194029569.25,-0.061,9.745,-2.032,41.1087312,16.8750807,False,0.023
2019-10-27 16:33:49.580,LG-H970,1572194029587.75,0.144,9.744,-1.367,41.1087312,16.8750807,False,0.023
2019-10-27 16:33:49.600,LG-H970,1572194029608.5,0.639,9.809,-2.083,41.1087312,16.8750807,False,0.023
2019-10-27 16:33:49.620,LG-H970,1572194029627.75,0.428,9.554,-1.927,41.1087312,16.8750807,False,0.023
2019-10-27 16:33:49.640,LG-H970,1572194029647.75,0.146,8.877,-2.038,41.1087312,16.8750807,False,0.023
2019-10-27 16:33:49.660,LG-H970,1572194029667.5,0.315,10.061,-1.492,41.1087312,16.8750807,False,0.023
2019-10-27 16:33:49.680,LG-H970,1572194029687.5,0.326,9.991,-1.955,41.1087312,16.8750807,False,0.023
2019-10-27 16:33:49.700,LG-H970,1572194029707.25,0.378,9.815,-1.433,41.1087312,16.8750807,False,0.023
2019-10-27 16:33:49.720,LG-H970,1572194029729.4,0.335,9.053,-2.262,41.1087312,16.8750807,False,0.023
2019-10-27 16:33:49.740,LG-H970,1572194029751.0,0.406,9.794,-2.017,41.1087312,16.8750807,False,0.023
2019-10-27 16:33:49.760,LG-H970,1572194029768.3333,0.294,10.154,-2.404,41.1087312,16.8750807,False,0.023000000000000003
2019-10-27 16:33:49.780,LG-H970,1572194029788.4,0.258,9.747,-1.299,41.1087312,16.8750807,False,0.023
2019-10-27 16:33:49.800,LG-H970,1572194029811.0,0.402,9.591,-1.993,41.1087312,16.8750807,False,0.023
2019-10-27 16:33:49.820,LG-H970,1572194029831.25,0.266,8.974,-2.095,41.1087312,16.8750807,False,0.023
2019-10-27 16:33:49.840,LG-H970,1572194029849.25,0.31,9.517,-1.758,41.1087312,16.8750807,False,0.023
2019-10-27 16:33:49.860,LG-H970,1572194029869.75,0.208,9.982,-1.948,41.1087312,16.8750807,False,0.023
2019-10-27 16:33:49.880,LG-H970,1572194029888.75,0.288,10.037,-1.793,41.1087312,16.8750807,False,0.023
2019-10-27 16:33:49.900,LG-H970,1572194029908.25,0.321,9.304,-2.083,41.1087312,16.8750807,False,0.023
2019-10-27 16:33:49.920,LG-H970,1572194029929.0,0.338,9.28,-1.99,41.1087312,16.8750807,False,0.023
2019-10-27 16:33:49.940,LG-H970,1572194029949.25,0.159,9.592,-1.916,41.1087312,16.8750807,False,0.023
2019-10-27 16:33:49.960,LG-H970,1572194029967.75,0.232,10.076,-1.752,41.1087312,16.8750807,False,0.023
2019-10-27 16:33:49.980,LG-H970,1572194029987.75,0.353,9.852,-1.907,41.1087312,16.8750807,False,0.023
2019-10-27 16:33:50.000,LG-H970,1572194030009.8,0.318,9.304,-2.187,41.1087312,16.8750807,False,0.023
2019-10-27 16:33:50.020,LG-H970,1572194030033.0,0.295,9.442,-2.142,41.1087312,16.8750807,False,0.023
2019-10-27 16:33:50.040,LG-H970,1572194030052.5,0.249,9.576,-1.692,41.1087312,16.8750807,False,0.023
2019-10-27 16:33:50.060,LG-H970,1572194030069.6667,0.335,10.144,-1.853,41.1087312,16.8750807,False,0.023000000000000003
2019-10-27 16:33:50.080,LG-H970,1572194030089.0,0.313,9.721,-2.227,41.1087311,16.8750809,False,0.022000000000000002
2019-10-27 16:33:50.100,LG-H970,1572194030110.0,0.349,9.09,-2.101,41.1087311,16.8750809,False,0.022000000000000002
2019-10-27 16:33:50.120,LG-H970,1572194030130.25,0.332,9.521,-2.377,41.1087311,16.8750809,False,0.022000000000000002
2019-10-27 16:33:50.140,LG-H970,1572194030150.25,0.157,9.961,-1.99,41.1087311,16.8750809,False,0.022000000000000002
2019-10-27 16:33:50.160,LG-H970,1572194030170.0,0.191,9.739,-1.758,41.1087311,16.8750809,False,0.022000000000000002
2019-10-27 16:33:50.180,LG-H970,1572194030190.5,0.485,9.617,-2.39,41.1087311,16.8750809,False,0.022000000000000002
2019-10-27 16:33:50.200,LG-H970,1572194030210.5,0.324,9.115,-2.403,41.1087311,16.8750809,False,0.022000000000000002
2019-10-27 16:33:50.220,LG-H970,1572194030229.75,0.217,9.519,-2.46,41.1087311,16.8750809,False,0.022000000000000002
2019-10-27 16:33:50.240,LG-H970,1572194030250.75,0.334,9.822,-2.251,41.1087311,16.8750809,False,0.022000000000000002
2019-10-27 16:33:50.260,LG-H970,1572194030270.0,0.332,9.658,-1.969,41.1087311,16.8750809,False,0.022000000000000002
2019-10-27 16:33:50.280,LG-H970,1572194030288.75,0.242,9.719,-2.608,41.1087311,16.8750809,False,0.022000000000000002
2019-10-27 16:33:50.300,LG-H970,1572194030308.5,0.083,9.299,-2.439,41.1087311,16.8750809,False,0.022000000000000002
2019-10-27 16:33:50.320,LG-H970,1572194030328.0,0.281,9.611,-2.422,41.1087311,16.8750809,False,0.022000000000000002
2019-10-27 16:33:50.340,LG-H970,1572194030348.25,0.197,9.861,-2.166,41.1087311,16.8750809,False,0.022000000000000002
2019-10-27 16:33:50.360,LG-H970,1572194030367.5,0.124,9.677,-2.129,41.1087311,16.8750809,False,0.022000000000000002
2019-10-27 16:33:50.380,LG-H970,1572194030387.0,0.321,9.548,-2.479,41.1087311,16.8750809,False,0.022000000000000002
2019-10-27 16:33:50.400,LG-H970,1572194030407.5,0.284,9.074,-2.186,41.1087311,16.8750809,False,0.022000000000000002
2019-10-27 16:33:50.420,LG-H970,1572194030429.0,0.306,9.634,-2.124,41.1087311,16.8750809,False,0.022000000000000002
2019-10-27 16:33:50.440,LG-H970,1572194030450.75,0.289,9.563,-1.694,41.1087311,16.8750809,False,0.022000000000000002
2019-10-27 16:33:50.460,LG-H970,1572194030471.5,0.412,9.468,-1.726,41.1087311,16.8750809,False,0.022000000000000002
2019-10-27 16:33:50.480,LG-H970,1572194030490.25,0.107,9.291,-1.619,41.1087311,16.8750809,False,0.022000000000000002
2019-10-27 16:33:50.500,LG-H970,1572194030509.75,0.082,9.599,-1.483,41.1087311,16.8750809,False,0.022000000000000002
2019-10-27 16:33:50.520,LG-H970,1572194030529.75,0.233,9.84,-1.224,41.1087311,16.8750809,False,0.022000000000000002
2019-10-27 16:33:50.540,LG-H970,1572194030549.5,0.251,9.782,-1.333,41.1087311,16.8750809,False,0.022000000000000002
2019-10-27 16:33:50.560,LG-H970,1572194030569.75,0.208,9.785,-1.301,41.1087311,16.8750809,False,0.022000000000000002
2019-10-27 16:33:50.580,LG-H970,1572194030588.75,0.317,9.642,-1.446,41.1087311,16.8750809,False,0.022000000000000002
2019-10-27 16:33:50.600,LG-H970,1572194030608.75,0.408,9.713,-1.072,41.1087311,16.8750809,False,0.022000000000000002
2019-10-27 16:33:50.620,LG-H970,1572194030628.25,0.263,9.864,-1.262,41.1087311,16.8750809,False,0.022000000000000002
2019-10-27 16:33:50.640,LG-H970,1572194030648.75,0.123,10.155,-1.29,41.1087311,16.8750809,False,0.022000000000000002
2019-10-27 16:33:50.660,LG-H970,1572194030668.75,-0.049,9.632,-1.242,41.1087311,16.8750809,False,0.022000000000000002
2019-10-27 16:33:50.680,LG-H970,1572194030688.25,0.396,9.606,-1.337,41.1087311,16.8750809,False,0.022000000000000002
2019-10-27 16:33:50.700,LG-H970,1572194030707.25,0.531,9.725,-1.359,41.1087311,16.8750809,False,0.022000000000000002
2019-10-27 16:33:50.720,LG-H970,1572194030727.5,0.08,9.92,-1.353,41.1087311,16.8750809,False,0.022000000000000002
2019-10-27 16:33:50.740,LG-H970,1572194030749.8,0.302,9.726,-1.055,41.1087311,16.8750809,False,0.022000000000000002
2019-10-27 16:33:50.760,LG-H970,1572194030771.25,0.821,9.335,-1.324,41.1087311,16.8750809,False,0.022000000000000002
2019-10-27 16:33:50.780,LG-H970,1572194030791.0,0.57,9.554,-1.504,41.1087311,16.8750809,False,0.022000000000000002
2019-10-27 16:33:50.800,LG-H970,1572194030810.5,0.392,9.724,-1.464,41.1087311,16.8750809,False,0.022000000000000002
2019-10-27 16:33:50.820,LG-H970,1572194030830.0,0.698,9.919,-1.089,41.1087311,16.8750809,False,0.022000000000000002
2019-10-27 16:33:50.840,LG-H970,1572194030850.5,0.567,9.661,-1.077,41.1087311,16.8750809,False,0.022000000000000002
2019-10-27 16:33:50.860,LG-H970,1572194030869.0,0.312,9.77,-1.674,41.1087311,16.8750809,False,0.022000000000000002
2019-10-27 16:33:50.880,LG-H970,1572194030889.25,0.518,9.669,-1.679,41.1087311,16.8750809,False,0.022000000000000002
2019-10-27 16:33:50.900,LG-H970,1572194030909.0,0.794,9.545,-1.072,41.1087311,16.8750809,False,0.022000000000000002
2019-10-27 16:33:50.920,LG-H970,1572194030928.75,0.535,9.813,-1.102,41.1087311,16.8750809,False,0.022000000000000002
2019-10-27 16:33:50.940,LG-H970,1572194030948.5,0.211,9.937,-1.536,41.1087311,16.8750809,False,0.022000000000000002
2019-10-27 16:33:50.960,LG-H970,1572194030968.75,0.399,9.782,-1.469,41.1087311,16.8750809,False,0.022000000000000002
2019-10-27 16:33:50.980,LG-H970,1572194030988.5,0.468,9.524,-1.273,41.1087311,16.8750809,False,0.022000000000000002
2019-10-27 16:33:51.000,LG-H970,1572194031007.5,0.199,9.622,-1.189,41.1087311,16.8750809,False,0.022000000000000002
2019-10-27 16:33:51.020,LG-H970,1572194031027.25,0.074,9.722,-1.154,41.1087311,16.8750809,False,0.022000000000000002
2019-10-27 16:33:51.040,LG-H970,1572194031053.25,0.288,9.655,-0.975,41.1087311,16.8750809,False,0.022000000000000002
2019-10-27 16:33:51.060,LG-H970,1572194031071.0,0.187,9.472,-0.975,41.1087311,16.8750809,False,0.022000000000000002
2019-10-27 16:33:51.080,LG-H970,1572194031089.2,0.182,9.688,-1.308,41.1087311,16.8750809,False,0.022000000000000002
2019-10-27 16:33:51.100,LG-H970,1572194031111.25,0.462,9.924,-1.002,41.1087311,16.8750809,False,0.022000000000000002
2019-10-27 16:33:51.120,LG-H970,1572194031131.0,0.338,9.868,-0.915,41.1087311,16.8750809,False,0.022000000000000002
2019-10-27 16:33:51.140,LG-H970,1572194031151.0,0.101,9.746,-1.085,41.1087311,16.8750809,False,0.022000000000000002
2019-10-27 16:33:51.160,LG-H970,1572194031170.5,0.463,9.816,-1.224,41.1087311,16.8750809,False,0.022000000000000002
2019-10-27 16:33:51.180,LG-H970,1572194031190.0,0.488,9.545,-0.939,41.1087311,16.8750809,False,0.022000000000000002
2019-10-27 16:33:51.200,LG-H970,1572194031210.25,0.326,9.83,-0.887,41.1087311,16.8750809,False,0.022000000000000002
2019-10-27 16:33:51.220,LG-H970,1572194031229.5,0.261,10.031,-0.981,41.1087311,16.8750809,False,0.022000000000000002
2019-10-27 16:33:51.240,LG-H970,1572194031249.75,0.473,9.606,-1.02,41.1087311,16.8750809,False,0.022000000000000002
2019-10-27 16:33:51.260,LG-H970,1572194031269.0,0.71,9.748,-0.792,41.1087311,16.8750809,False,0.022000000000000002
2019-10-27 16:33:51.280,LG-H970,1572194031289.5,0.346,9.551,-1.239,41.1087311,16.8750809,False,0.022000000000000002
2019-10-27 16:33:51.300,LG-H970,1572194031309.5,0.476,10.113,-1.021,41.1087311,16.8750809,False,0.022000000000000002
2019-10-27 16:33:51.320,LG-H970,1572194031328.5,0.433,9.491,-0.743,41.1087311,16.8750809,False,0.022000000000000002
2019-10-27 16:33:51.340,LG-H970,1572194031350.2,0.493,9.647,-1.066,41.1087311,16.8750809,False,0.022000000000000002
2019-10-27 16:33:51.360,LG-H970,1572194031374.0,0.336,9.895,-0.82,41.1087311,16.8750809,False,0.022000000000000002
2019-10-27 16:33:51.380,LG-H970,1572194031391.5,0.444,9.549,-1.352,41.1087311,16.8750809,False,0.022000000000000002
2019-10-27 16:33:51.400,LG-H970,1572194031410.0,0.438,9.876,-0.157,41.1087311,16.8750809,False,0.022000000000000002
2019-10-27 16:33:51.420,LG-H970,1572194031429.4,0.31,9.719,-1.304,41.1087311,16.8750809,False,0.022000000000000002
2019-10-27 16:33:51.440,LG-H970,1572194031451.5,0.405,9.972,-0.606,41.1087311,16.8750809,False,0.022000000000000002
2019-10-27 16:33:51.460,LG-H970,1572194031472.25,0.407,9.447,-1.419,41.1087311,16.8750809,False,0.022000000000000002
2019-10-27 16:33:51.480,LG-H970,1572194031490.75,0.279,9.875,-0.336,41.1087311,16.8750809,False,0.022000000000000002
2019-10-27 16:33:51.500,LG-H970,1572194031511.0,0.214,9.812,-1.336,41.1087311,16.8750809,False,0.022000000000000002
2019-10-27 16:33:51.520,LG-H970,1572194031530.25,0.325,9.86,-0.566,41.1087311,16.8750809,False,0.022000000000000002
2019-10-27 16:33:51.540,LG-H970,1572194031549.75,0.369,9.545,-1.239,41.1087311,16.8750809,False,0.022000000000000002
2019-10-27 16:33:51.560,LG-H970,1572194031569.75,0.259,9.871,-0.857,41.1087311,16.8750809,False,0.022000000000000002
2019-10-27 16:33:51.580,LG-H970,1572194031590.0,0.239,9.722,-0.89,41.1087311,16.8750809,False,0.022000000000000002
2019-10-27 16:33:51.600,LG-H970,1572194031608.75,0.289,10.006,-0.835,41.1087311,16.8750809,False,0.022000000000000002
2019-10-27 16:33:51.620,LG-H970,1572194031629.75,0.357,9.753,-0.897,41.1087311,16.8750809,False,0.022000000000000002
2019-10-27 16:33:51.640,LG-H970,1572194031648.25,0.335,9.497,-1.052,41.1087311,16.8750809,False,0.022000000000000002
2019-10-27 16:33:51.660,LG-H970,1572194031668.5,0.333,10.105,-0.927,41.1087311,16.8750809,False,0.022000000000000002
2019-10-27 16:33:51.680,LG-H970,1572194031688.0,0.323,9.699,-0.808,41.1087311,16.8750809,False,0.022000000000000002
2019-10-27 16:33:51.700,LG-H970,1572194031707.75,0.422,10.034,-0.802,41.1087311,16.8750809,False,0.022000000000000002
2019-10-27 16:33:51.720,LG-H970,1572194031730.4,0.266,9.604,-0.897,41.1087311,16.8750809,False,0.022000000000000002
2019-10-27 16:33:51.740,LG-H970,1572194031751.75,0.506,9.68,-1.009,41.1087311,16.8750809,False,0.022000000000000002
2019-10-27 16:33:51.760,LG-H970,1572194031770.75,0.329,10.047,-0.708,41.1087311,16.8750809,False,0.022000000000000002
2019-10-27 16:33:51.780,LG-H970,1572194031791.25,0.354,9.69,-1.026,41.1087311,16.8750809,False,0.022000000000000002
2019-10-27 16:33:51.800,LG-H970,1572194031811.0,0.442,9.973,-0.716,41.1087311,16.8750809,False,0.022000000000000002
2019-10-27 16:33:51.820,LG-H970,1572194031830.75,0.292,9.536,-1.103,41.1087311,16.8750809,False,0.022000000000000002
2019-10-27 16:33:51.840,LG-H970,1572194031851.0,0.482,9.705,-0.735,41.1087311,16.8750809,False,0.022000000000000002
2019-10-27 16:33:51.860,LG-H970,1572194031870.25,0.199,9.754,-1.029,41.1087311,16.8750809,False,0.022000000000000002
2019-10-27 16:33:51.880,LG-H970,1572194031890.5,0.358,9.813,-0.798,41.1087311,16.8750809,False,0.022000000000000002
2019-10-27 16:33:51.900,LG-H970,1572194031909.25,0.424,9.851,-0.875,41.1087311,16.8750809,False,0.022000000000000002
2019-10-27 16:33:51.920,LG-H970,1572194031929.25,0.18,9.742,-1.061,41.1087311,16.8750809,False,0.022000000000000002
