UTC_timestamp,device_name,timestamp,x,y,z,lat,long,event,speed
2019-10-27 10:44:55.860,LG-H970,1572173095868.5,0.157,9.651,-0.824,41.1087515,16.8747255,False,0.015
2019-10-27 10:44:55.880,LG-H970,1572173095888.25,0.182,9.928,-0.867,41.1087515,16.8747255,False,0.015
2019-10-27 10:44:55.900,LG-H970,1572173095908.25,0.176,9.848,-0.877,41.1087515,16.8747255,False,0.015
2019-10-27 10:44:55.920,LG-H970,1572173095926.0,0.273,9.777,-0.73,41.1087515,16.8747255,False,0.015
2019-10-27 10:44:55.940,LG-H970,1572173095946.6,0.269,9.752,-0.79,41.1087515,16.8747255,False,0.015
2019-10-27 10:44:55.960,LG-H970,1572173095966.75,0.228,9.862,-0.871,41.1087515,16.8747255,False,0.015
2019-10-27 10:44:55.980,LG-H970,1572173095987.25,0.081,9.777,-0.84,41.1087515,16.8747255,False,0.015
2019-10-27 10:44:56.000,LG-H970,1572173096007.5,0.206,9.815,-0.846,41.1087515,16.8747255,False,0.015
2019-10-27 10:44:56.020,LG-H970,1572173096029.2,0.38,9.786,-0.806,41.1087515,16.8747255,False,0.015
2019-10-27 10:44:56.040,LG-H970,1572173096051.5,0.134,9.702,-0.772,41.1087515,16.8747255,False,0.015
2019-10-27 10:44:56.060,LG-H970,1572173096071.0,0.118,9.998,-0.804,41.1087515,16.8747255,False,0.015
2019-10-27 10:44:56.080,LG-H970,1572173096091.25,0.181,9.734,-0.979,41.1087515,16.8747255,False,0.015
2019-10-27 10:44:56.100,LG-H970,1572173096110.5,0.418,9.796,-0.671,41.1087515,16.8747255,False,0.015
2019-10-27 10:44:56.120,LG-H970,1572173096130.0,0.183,9.648,-0.812,41.1087515,16.8747255,False,0.015
2019-10-27 10:44:56.140,LG-H970,1572173096150.25,0.163,9.971,-0.771,41.1087515,16.8747255,False,0.015
2019-10-27 10:44:56.160,LG-H970,1572173096170.0,0.077,9.784,-0.963,41.1087515,16.8747255,False,0.015
2019-10-27 10:44:56.180,LG-H970,1572173096189.75,0.334,9.904,-0.724,41.1087515,16.8747255,False,0.015
2019-10-27 10:44:56.200,LG-H970,1572173096209.0,0.308,9.516,-0.83,41.1087515,16.8747255,False,0.015
2019-10-27 10:44:56.220,LG-H970,1572173096230.0,0.311,9.931,-0.714,41.1087515,16.8747255,False,0.015
2019-10-27 10:44:56.240,LG-H970,1572173096249.25,0.004,9.83,-1.026,41.1087515,16.8747255,False,0.015
2019-10-27 10:44:56.260,LG-H970,1572173096268.5,0.163,9.942,-0.729,41.1087515,16.8747255,False,0.015
2019-10-27 10:44:56.280,LG-H970,1572173096288.0,0.315,9.551,-0.847,41.1087515,16.8747255,False,0.015
2019-10-27 10:44:56.300,LG-H970,1572173096310.0,0.431,9.874,-0.729,41.1087515,16.8747255,False,0.015
2019-10-27 10:44:56.320,LG-H970,1572173096326.5,-0.059,9.578,-0.971,41.1087515,16.8747255,False,0.015
2019-10-27 10:44:56.340,LG-H970,1572173096349.4,0.046,9.986,-0.879,41.1087515,16.8747255,False,0.015
2019-10-27 10:44:56.360,LG-H970,1572173096370.3333,0.235,9.627,-0.918,41.1087515,16.8747255,False,0.015
2019-10-27 10:44:56.380,LG-H970,1572173096389.6,0.508,9.768,-0.63,41.1087515,16.8747255,False,0.015
2019-10-27 10:44:56.400,LG-H970,1572173096411.5,0.064,9.675,-0.866,41.1087515,16.8747255,False,0.015
2019-10-27 10:44:56.420,LG-H970,1572173096431.0,0.086,10.13,-0.902,41.1087515,16.8747255,False,0.015
2019-10-27 10:44:56.440,LG-H970,1572173096450.75,0.095,9.662,-0.89,41.1087515,16.8747255,False,0.015
2019-10-27 10:44:56.460,LG-H970,1572173096471.25,0.496,9.816,-0.672,41.1087515,16.8747255,False,0.015
2019-10-27 10:44:56.480,LG-H970,1572173096490.5,0.321,9.582,-0.801,41.1087515,16.8747255,False,0.015
2019-10-27 10:44:56.500,LG-H970,1572173096510.0,0.153,9.964,-0.838,41.1087515,16.8747255,False,0.015
2019-10-27 10:44:56.520,LG-H970,1572173096533.5,-0.058,9.865,-0.994,41.1087515,16.8747255,False,0.015
2019-10-27 10:44:56.540,LG-H970,1572173096551.0,0.373,9.916,-0.783,41.1087515,16.8747255,False,0.015
2019-10-27 10:44:56.560,LG-H970,1572173096570.5,0.399,9.453,-0.705,41.1087515,16.8747255,False,0.015
2019-10-27 10:44:56.580,LG-H970,1572173096588.5,0.313,9.892,-0.761,41.1087515,16.8747255,False,0.015
2019-10-27 10:44:56.600,LG-H970,1572173096607.75,-0.049,9.934,-0.981,41.1087515,16.8747255,False,0.015
2019-10-27 10:44:56.620,LG-H970,1572173096627.5,0.109,9.89,-0.818,41.1087515,16.8747255,False,0.015
2019-10-27 10:44:56.640,LG-H970,1572173096648.0,0.329,9.609,-0.775,41.1087515,16.8747255,False,0.015
2019-10-27 10:44:56.660,LG-H970,1572173096668.25,0.487,9.798,-0.667,41.1087515,16.8747255,False,0.015
2019-10-27 10:44:56.680,LG-H970,1572173096687.75,0.077,9.746,-0.893,41.1087515,16.8747255,False,0.015
2019-10-27 10:44:56.700,LG-H970,1572173096707.5,0.007,9.967,-0.886,41.1087515,16.8747255,False,0.015
2019-10-27 10:44:56.720,LG-H970,1572173096729.4,0.283,9.807,-0.854,41.1087515,16.8747255,False,0.015
2019-10-27 10:44:56.740,LG-H970,1572173096751.0,0.381,9.553,-0.684,41.1087515,16.8747255,False,0.015
2019-10-27 10:44:56.760,LG-H970,1572173096770.5,0.254,9.937,-0.835,41.1087515,16.8747255,False,0.015
2019-10-27 10:44:56.780,LG-H970,1572173096790.5,-0.035,9.83,-0.972,41.1087515,16.8747255,False,0.015
2019-10-27 10:44:56.800,LG-H970,1572173096807.6667,0.165,9.941,-0.832,41.1087515,16.8747255,False,0.015
2019-10-27 10:44:56.820,LG-H970,1572173096829.4,0.323,9.677,-0.767,41.1087515,16.8747255,False,0.015
2019-10-27 10:44:56.840,LG-H970,1572173096849.75,0.44,9.788,-0.701,41.1087515,16.8747255,False,0.015
2019-10-27 10:44:56.860,LG-H970,1572173096869.25,0.036,9.751,-0.9,41.1087515,16.8747255,False,0.015
2019-10-27 10:44:56.880,LG-H970,1572173096889.75,0.09,10.037,-0.812,41.1087515,16.8747255,False,0.015
2019-10-27 10:44:56.900,LG-H970,1572173096909.25,0.215,9.619,-0.906,41.1087515,16.8747255,False,0.015
2019-10-27 10:44:56.920,LG-H970,1572173096929.0,0.51,9.791,-0.651,41.1087515,16.8747255,False,0.015
2019-10-27 10:44:56.940,LG-H970,1572173096948.5,0.157,9.686,-0.879,41.1087515,16.8747255,False,0.015
2019-10-27 10:44:56.960,LG-H970,1572173096968.5,0.094,10.034,-0.847,41.1087515,16.8747255,False,0.015
2019-10-27 10:44:56.980,LG-H970,1572173096987.5,0.082,9.772,-0.933,41.1087515,16.8747255,False,0.015
2019-10-27 10:44:57.000,LG-H970,1572173097007.75,0.46,9.84,-0.714,41.1087515,16.8747255,False,0.015
2019-10-27 10:44:57.020,LG-H970,1572173097029.6,0.258,9.572,-0.767,41.1087515,16.8747255,False,0.015
2019-10-27 10:44:57.040,LG-H970,1572173097049.3333,0.198,10.042,-0.845,41.1087515,16.8747255,False,0.015
2019-10-27 10:44:57.060,LG-H970,1572173097069.0,0.03,9.877,-0.952,41.1087515,16.8747255,False,0.015
2019-10-27 10:44:57.080,LG-H970,1572173097091.0,0.319,9.729,-0.741,41.1087515,16.8747255,False,0.015
2019-10-27 10:44:57.100,LG-H970,1572173097110.5,0.38,9.654,-0.742,41.1087515,16.8747255,False,0.015
2019-10-27 10:44:57.120,LG-H970,1572173097130.75,0.299,9.917,-0.833,41.1087515,16.8747255,False,0.015
2019-10-27 10:44:57.140,LG-H970,1572173097150.25,-0.026,9.788,-0.895,41.1087515,16.8747255,False,0.015
2019-10-27 10:44:57.160,LG-H970,1572173097169.5,0.183,9.895,-0.826,41.1087515,16.8747255,False,0.015
2019-10-27 10:44:57.180,LG-H970,1572173097189.5,0.36,9.719,-0.762,41.1087515,16.8747255,False,0.015
2019-10-27 10:44:57.200,LG-H970,1572173097210.0,0.359,9.719,-0.691,41.1087515,16.8747255,False,0.015
2019-10-27 10:44:57.220,LG-H970,1572173097229.25,0.107,9.847,-0.929,41.1087515,16.8747255,False,0.015
2019-10-27 10:44:57.240,LG-H970,1572173097249.0,0.112,9.935,-0.883,41.1087515,16.8747255,False,0.015
2019-10-27 10:44:57.260,LG-H970,1572173097270.0,0.239,9.725,-0.814,41.1087515,16.8747255,False,0.015
2019-10-27 10:44:57.280,LG-H970,1572173097288.75,0.393,9.733,-0.711,41.1087515,16.8747255,False,0.015
2019-10-27 10:44:57.300,LG-H970,1572173097308.25,0.284,9.802,-0.85,41.1087515,16.8747255,False,0.015
2019-10-27 10:44:57.320,LG-H970,1572173097330.6,0.022,9.825,-0.855,41.1087515,16.8747255,False,0.015
2019-10-27 10:44:57.340,LG-H970,1572173097351.5,0.188,9.922,-0.791,41.1087515,16.8747255,False,0.015
2019-10-27 10:44:57.360,LG-H970,1572173097370.0,0.37,9.679,-0.852,41.1087515,16.8747255,False,0.015
2019-10-27 10:44:57.380,LG-H970,1572173097389.6,0.377,9.716,-0.701,41.1087515,16.8747255,False,0.015
2019-10-27 10:44:57.400,LG-H970,1572173097411.5,0.051,9.768,-0.92,41.1087515,16.8747255,False,0.015
2019-10-27 10:44:57.420,LG-H970,1572173097431.25,0.109,9.988,-0.784,41.1087515,16.8747255,False,0.015
2019-10-27 10:44:57.440,LG-H970,1572173097450.75,0.193,9.692,-0.901,41.1087515,16.8747255,False,0.015
2019-10-27 10:44:57.460,LG-H970,1572173097470.5,0.445,9.859,-0.677,41.1087515,16.8747255,False,0.015
2019-10-27 10:44:57.480,LG-H970,1572173097490.5,0.196,9.582,-0.884,41.1087515,16.8747255,False,0.015
2019-10-27 10:44:57.500,LG-H970,1572173097510.5,0.171,10.007,-0.739,41.1087515,16.8747255,False,0.015
2019-10-27 10:44:57.520,LG-H970,1572173097530.25,0.051,9.773,-1.033,41.1087515,16.8747255,False,0.015
2019-10-27 10:44:57.540,LG-H970,1572173097550.25,0.375,9.852,-0.668,41.1087515,16.8747255,False,0.015
2019-10-27 10:44:57.560,LG-H970,1572173097569.25,0.292,9.564,-0.836,41.1087514,16.8747256,False,0.015
2019-10-27 10:44:57.580,LG-H970,1572173097590.25,0.264,9.985,-0.757,41.1087513,16.8747257,False,0.015
2019-10-27 10:44:57.600,LG-H970,1572173097608.25,0.007,9.712,-1.017,41.1087513,16.8747257,False,0.015
2019-10-27 10:44:57.620,LG-H970,1572173097628.5,0.235,9.976,-0.702,41.1087513,16.8747257,False,0.015
2019-10-27 10:44:57.640,LG-H970,1572173097648.25,0.289,9.618,-0.875,41.1087513,16.8747257,False,0.015
2019-10-27 10:44:57.660,LG-H970,1572173097668.5,0.376,9.894,-0.659,41.1087513,16.8747257,False,0.015
2019-10-27 10:44:57.680,LG-H970,1572173097687.75,0.036,9.718,-0.918,41.1087513,16.8747257,False,0.015
2019-10-27 10:44:57.700,LG-H970,1572173097707.5,0.185,10.047,-0.771,41.1087513,16.8747257,False,0.015
2019-10-27 10:44:57.720,LG-H970,1572173097730.2,0.235,9.551,-0.872,41.1087513,16.8747257,False,0.015
2019-10-27 10:44:57.740,LG-H970,1572173097752.0,0.417,9.898,-0.688,41.1087513,16.8747257,False,0.015
2019-10-27 10:44:57.760,LG-H970,1572173097771.25,0.129,9.727,-0.941,41.1087513,16.8747257,False,0.015
2019-10-27 10:44:57.780,LG-H970,1572173097791.25,0.151,10.003,-0.75,41.1087513,16.8747257,False,0.015
2019-10-27 10:44:57.800,LG-H970,1572173097808.3333,0.074,9.557,-0.964,41.1087513,16.8747257,False,0.015
2019-10-27 10:44:57.820,LG-H970,1572173097827.5,0.448,9.988,-0.674,41.1087513,16.8747257,False,0.015
2019-10-27 10:44:57.840,LG-H970,1572173097847.3333,0.196,9.498,-0.91,41.1087513,16.8747257,False,0.015
2019-10-27 10:44:57.860,LG-H970,1572173097868.4,0.201,9.995,-0.782,41.1087513,16.8747257,False,0.015
2019-10-27 10:44:57.880,LG-H970,1572173097889.5,0.073,9.748,-0.972,41.1087513,16.8747257,False,0.015
2019-10-27 10:44:57.900,LG-H970,1572173097909.5,0.34,9.824,-0.678,41.1087513,16.8747257,False,0.015
2019-10-27 10:44:57.920,LG-H970,1572173097930.0,0.232,9.592,-0.851,41.1087513,16.8747257,False,0.015
2019-10-27 10:44:57.940,LG-H970,1572173097949.5,0.287,10.006,-0.778,41.1087513,16.8747257,False,0.015
2019-10-27 10:44:57.960,LG-H970,1572173097968.75,0.07,9.7,-0.91,41.1087513,16.8747257,False,0.015
2019-10-27 10:44:57.980,LG-H970,1572173097988.5,0.263,9.911,-0.785,41.1087513,16.8747257,False,0.015
2019-10-27 10:44:58.000,LG-H970,1572173098008.75,0.299,9.684,-0.85,41.1087513,16.8747257,False,0.015
2019-10-27 10:44:58.020,LG-H970,1572173098028.25,0.313,9.831,-0.73,41.1087513,16.8747257,False,0.015
2019-10-27 10:44:58.040,LG-H970,1572173098048.0,0.071,9.828,-0.918,41.1087513,16.8747257,False,0.015
2019-10-27 10:44:58.060,LG-H970,1572173098069.8,0.178,9.848,-0.865,41.1087513,16.8747257,False,0.015
2019-10-27 10:44:58.080,LG-H970,1572173098092.25,0.332,9.764,-0.75,41.1087513,16.8747257,False,0.015
2019-10-27 10:44:58.100,LG-H970,1572173098109.0,0.299,9.733,-0.786,41.1087513,16.8747257,False,0.015
2019-10-27 10:44:58.120,LG-H970,1572173098129.0,0.185,9.845,-0.861,41.1087513,16.8747257,False,0.015
2019-10-27 10:44:58.140,LG-H970,1572173098151.25,0.096,9.798,-0.856,41.1087513,16.8747257,False,0.015
2019-10-27 10:44:58.160,LG-H970,1572173098170.5,0.279,9.901,-0.805,41.1087513,16.8747257,False,0.015
2019-10-27 10:44:58.180,LG-H970,1572173098188.3333,0.358,9.738,-0.787,41.1087513,16.8747257,False,0.015
2019-10-27 10:44:58.200,LG-H970,1572173098208.2,0.262,9.74,-0.753,41.1087513,16.8747257,False,0.015
2019-10-27 10:44:58.220,LG-H970,1572173098229.75,0.077,9.764,-0.958,41.1087513,16.8747257,False,0.015
2019-10-27 10:44:58.240,LG-H970,1572173098250.0,0.204,9.961,-0.806,41.1087513,16.8747257,False,0.015
2019-10-27 10:44:58.260,LG-H970,1572173098269.5,0.259,9.649,-0.827,41.1087513,16.8747257,False,0.015
2019-10-27 10:44:58.280,LG-H970,1572173098289.5,0.354,9.871,-0.724,41.1087513,16.8747257,False,0.015
2019-10-27 10:44:58.300,LG-H970,1572173098308.75,0.152,9.678,-0.914,41.1087513,16.8747257,False,0.015
2019-10-27 10:44:58.320,LG-H970,1572173098329.0,0.159,9.967,-0.771,41.1087513,16.8747257,False,0.015
2019-10-27 10:44:58.340,LG-H970,1572173098347.75,0.153,9.74,-0.93,41.1087513,16.8747257,False,0.015
2019-10-27 10:44:58.360,LG-H970,1572173098367.75,0.349,9.848,-0.67,41.1087513,16.8747257,False,0.015
2019-10-27 10:44:58.380,LG-H970,1572173098387.75,0.225,9.64,-0.852,41.1087513,16.8747257,False,0.015
2019-10-27 10:44:58.400,LG-H970,1572173098407.5,0.212,9.981,-0.783,41.1087513,16.8747257,False,0.015
2019-10-27 10:44:58.420,LG-H970,1572173098429.6,0.096,9.672,-0.94,41.1087513,16.8747257,False,0.015
2019-10-27 10:44:58.440,LG-H970,1572173098451.25,0.317,9.971,-0.693,41.1087513,16.8747257,False,0.015
2019-10-27 10:44:58.460,LG-H970,1572173098471.5,0.207,9.623,-0.896,41.1087513,16.8747257,False,0.015
2019-10-27 10:44:58.480,LG-H970,1572173098491.5,0.283,9.955,-0.729,41.1087513,16.8747257,False,0.015
2019-10-27 10:44:58.500,LG-H970,1572173098510.75,0.084,9.621,-0.957,41.1087513,16.8747257,False,0.015
2019-10-27 10:44:58.520,LG-H970,1572173098528.6667,0.334,10.092,-0.715,41.1087513,16.8747257,False,0.015
2019-10-27 10:44:58.540,LG-H970,1572173098548.2,0.204,9.615,-0.865,41.1087513,16.8747257,False,0.015
2019-10-27 10:44:58.560,LG-H970,1572173098570.5,0.327,9.97,-0.711,41.1087513,16.8747257,False,0.015
2019-10-27 10:44:58.580,LG-H970,1572173098588.6667,0.119,9.65,-0.978,41.1087513,16.8747257,False,0.014666666666666666
2019-10-27 10:44:58.600,LG-H970,1572173098609.75,0.279,9.955,-0.727,41.1087512,16.8747257,False,0.013999999999999999
2019-10-27 10:44:58.620,LG-H970,1572173098628.75,0.111,9.618,-0.898,41.1087512,16.8747257,False,0.013999999999999999
2019-10-27 10:44:58.640,LG-H970,1572173098648.75,0.352,10.049,-0.726,41.1087512,16.8747257,False,0.013999999999999999
2019-10-27 10:44:58.660,LG-H970,1572173098669.75,0.162,9.547,-0.869,41.1087512,16.8747257,False,0.013999999999999999
2019-10-27 10:44:58.680,LG-H970,1572173098689.0,0.312,9.995,-0.732,41.1087512,16.8747257,False,0.013999999999999999
2019-10-27 10:44:58.700,LG-H970,1572173098708.75,0.095,9.693,-0.915,41.1087512,16.8747257,False,0.013999999999999999
2019-10-27 10:44:58.720,LG-H970,1572173098728.25,0.262,9.939,-0.761,41.1087512,16.8747257,False,0.013999999999999999
2019-10-27 10:44:58.740,LG-H970,1572173098748.25,0.126,9.619,-0.898,41.1087512,16.8747257,False,0.013999999999999999
2019-10-27 10:44:58.760,LG-H970,1572173098768.0,0.354,9.996,-0.753,41.1087512,16.8747257,False,0.013999999999999999
2019-10-27 10:44:58.780,LG-H970,1572173098788.0,0.13,9.533,-0.856,41.1087512,16.8747257,False,0.013999999999999999
2019-10-27 10:44:58.800,LG-H970,1572173098810.0,0.258,9.941,-0.805,41.1087512,16.8747257,False,0.013999999999999999
2019-10-27 10:44:58.820,LG-H970,1572173098831.0,0.164,9.812,-0.92,41.1087512,16.8747257,False,0.013999999999999999
2019-10-27 10:44:58.840,LG-H970,1572173098850.5,0.287,9.832,-0.74,41.1087512,16.8747257,False,0.013999999999999999
2019-10-27 10:44:58.860,LG-H970,1572173098870.5,0.243,9.684,-0.858,41.1087512,16.8747257,False,0.013999999999999999
2019-10-27 10:44:58.880,LG-H970,1572173098890.25,0.279,9.916,-0.766,41.1087512,16.8747257,False,0.013999999999999999
2019-10-27 10:44:58.900,LG-H970,1572173098910.0,0.108,9.746,-0.875,41.1087512,16.8747257,False,0.013999999999999999
2019-10-27 10:44:58.920,LG-H970,1572173098930.0,0.236,9.855,-0.83,41.1087512,16.8747257,False,0.013999999999999999
2019-10-27 10:44:58.940,LG-H970,1572173098949.75,0.311,9.722,-0.887,41.1087512,16.8747257,False,0.013999999999999999
2019-10-27 10:44:58.960,LG-H970,1572173098969.5,0.297,9.744,-0.674,41.1087512,16.8747257,False,0.013999999999999999
2019-10-27 10:44:58.980,LG-H970,1572173098989.25,0.118,9.807,-0.909,41.1087512,16.8747257,False,0.013999999999999999
2019-10-27 10:44:59.000,LG-H970,1572173099009.0,0.209,9.951,-0.826,41.1087512,16.8747257,False,0.013999999999999999
2019-10-27 10:44:59.020,LG-H970,1572173099028.75,0.203,9.681,-0.841,41.1087512,16.8747257,False,0.013999999999999999
2019-10-27 10:44:59.040,LG-H970,1572173099048.5,0.308,9.772,-0.698,41.1087512,16.8747257,False,0.013999999999999999
2019-10-27 10:44:59.060,LG-H970,1572173099068.25,0.262,9.808,-0.899,41.1087512,16.8747257,False,0.013999999999999999
2019-10-27 10:44:59.080,LG-H970,1572173099088.25,0.137,9.851,-0.774,41.1087512,16.8747257,False,0.013999999999999999
2019-10-27 10:44:59.100,LG-H970,1572173099107.75,0.117,9.854,-0.915,41.1087512,16.8747257,False,0.013999999999999999
2019-10-27 10:44:59.120,LG-H970,1572173099130.0,0.296,9.703,-0.798,41.1087512,16.8747257,False,0.013999999999999999
2019-10-27 10:44:59.140,LG-H970,1572173099152.0,0.367,9.866,-0.699,41.1087512,16.8747257,False,0.013999999999999999
2019-10-27 10:44:59.160,LG-H970,1572173099171.25,0.036,9.76,-0.923,41.1087512,16.8747257,False,0.013999999999999999
2019-10-27 10:44:59.180,LG-H970,1572173099191.5,0.147,9.979,-0.809,41.1087512,16.8747257,False,0.013999999999999999
2019-10-27 10:44:59.200,LG-H970,1572173099211.75,0.221,9.66,-0.869,41.1087512,16.8747257,False,0.013999999999999999
2019-10-27 10:44:59.220,LG-H970,1572173099231.5,0.426,9.863,-0.731,41.1087512,16.8747257,False,0.013999999999999999
2019-10-27 10:44:59.240,LG-H970,1572173099250.5,0.127,9.608,-0.881,41.1087512,16.8747257,False,0.013999999999999999
2019-10-27 10:44:59.260,LG-H970,1572173099270.25,0.172,10.005,-0.78,41.1087512,16.8747257,False,0.013999999999999999
2019-10-27 10:44:59.280,LG-H970,1572173099289.75,0.125,9.765,-0.979,41.1087512,16.8747257,False,0.013999999999999999
2019-10-27 10:44:59.300,LG-H970,1572173099308.0,0.394,9.853,-0.757,41.1087512,16.8747257,False,0.013999999999999999
2019-10-27 10:44:59.320,LG-H970,1572173099328.4,0.27,9.658,-0.742,41.1087512,16.8747257,False,0.013999999999999999
2019-10-27 10:44:59.340,LG-H970,1572173099349.25,0.203,9.994,-0.785,41.1087512,16.8747257,False,0.013999999999999999
2019-10-27 10:44:59.360,LG-H970,1572173099368.75,0.037,9.7,-0.936,41.1087512,16.8747257,False,0.013999999999999999
2019-10-27 10:44:59.380,LG-H970,1572173099388.75,0.35,9.906,-0.713,41.1087512,16.8747257,False,0.013999999999999999
2019-10-27 10:44:59.400,LG-H970,1572173099408.5,0.265,9.625,-0.821,41.1087512,16.8747257,False,0.013999999999999999
2019-10-27 10:44:59.420,LG-H970,1572173099425.6667,0.307,9.877,-0.754,41.1087512,16.8747257,False,0.013999999999999999
2019-10-27 10:44:59.440,LG-H970,1572173099448.25,0.05,9.772,-0.895,41.1087512,16.8747257,False,0.013999999999999999
2019-10-27 10:44:59.460,LG-H970,1572173099467.0,0.248,9.999,-0.786,41.1087512,16.8747257,False,0.013999999999999999
2019-10-27 10:44:59.480,LG-H970,1572173099489.2,0.265,9.601,-0.798,41.1087512,16.8747257,False,0.013999999999999999
2019-10-27 10:44:59.500,LG-H970,1572173099511.75,0.323,9.914,-0.801,41.1087512,16.8747257,False,0.013999999999999999
2019-10-27 10:44:59.520,LG-H970,1572173099532.3333,0.038,9.701,-0.964,41.1087512,16.8747257,False,0.013999999999999999
2019-10-27 10:44:59.540,LG-H970,1572173099548.6,0.194,9.918,-0.804,41.1087512,16.8747257,False,0.013999999999999999
2019-10-27 10:44:59.560,LG-H970,1572173099570.75,0.232,9.661,-0.805,41.1087512,16.8747257,False,0.013999999999999999
2019-10-27 10:44:59.580,LG-H970,1572173099590.75,0.439,9.898,-0.739,41.1087512,16.8747257,False,0.013999999999999999
2019-10-27 10:44:59.600,LG-H970,1572173099609.75,0.119,9.642,-0.873,41.1087512,16.8747257,False,0.013999999999999999
2019-10-27 10:44:59.620,LG-H970,1572173099629.75,0.18,9.965,-0.814,41.1087512,16.8747257,False,0.013999999999999999
2019-10-27 10:44:59.640,LG-H970,1572173099649.75,0.191,9.722,-0.883,41.1087512,16.8747257,False,0.013999999999999999
2019-10-27 10:44:59.660,LG-H970,1572173099670.0,0.391,9.818,-0.68,41.1087512,16.8747257,False,0.013999999999999999
2019-10-27 10:44:59.680,LG-H970,1572173099690.0,0.195,9.698,-0.859,41.1087512,16.8747257,False,0.013999999999999999
2019-10-27 10:44:59.700,LG-H970,1572173099709.75,0.229,10.025,-0.835,41.1087512,16.8747257,False,0.013999999999999999
2019-10-27 10:44:59.720,LG-H970,1572173099729.5,0.076,9.655,-0.908,41.1087512,16.8747257,False,0.013999999999999999
2019-10-27 10:44:59.740,LG-H970,1572173099749.0,0.329,9.888,-0.717,41.1087512,16.8747257,False,0.013999999999999999
2019-10-27 10:44:59.760,LG-H970,1572173099768.0,0.229,9.645,-0.873,41.1087512,16.8747257,False,0.013999999999999999
2019-10-27 10:44:59.780,LG-H970,1572173099788.0,0.24,9.916,-0.736,41.1087512,16.8747257,False,0.013999999999999999
2019-10-27 10:44:59.800,LG-H970,1572173099808.0,0.042,9.758,-0.947,41.1087512,16.8747257,False,0.013999999999999999
2019-10-27 10:44:59.820,LG-H970,1572173099830.6,0.264,9.86,-0.803,41.1087512,16.8747257,False,0.013999999999999999
2019-10-27 10:44:59.840,LG-H970,1572173099849.6667,0.258,9.568,-0.794,41.1087512,16.8747257,False,0.013999999999999999
2019-10-27 10:44:59.860,LG-H970,1572173099869.6,0.262,9.838,-0.767,41.1087512,16.8747257,False,0.013999999999999999
2019-10-27 10:44:59.880,LG-H970,1572173099891.75,0.143,9.927,-0.891,41.1087512,16.8747257,False,0.013999999999999999
2019-10-27 10:44:59.900,LG-H970,1572173099911.25,0.197,9.801,-0.804,41.1087512,16.8747257,False,0.013999999999999999
2019-10-27 10:44:59.920,LG-H970,1572173099931.25,0.295,9.793,-0.817,41.1087512,16.8747257,False,0.013999999999999999
2019-10-27 10:44:59.940,LG-H970,1572173099953.3333,0.246,9.717,-0.769,41.1087512,16.8747257,False,0.013999999999999999
2019-10-27 10:44:59.960,LG-H970,1572173099970.75,0.197,9.812,-0.825,41.1087512,16.8747257,False,0.013999999999999999
2019-10-27 10:44:59.980,LG-H970,1572173099990.25,0.147,9.831,-0.854,41.1087512,16.8747257,False,0.013999999999999999
2019-10-27 10:45:00.000,LG-H970,1572173100010.25,0.227,9.814,-0.861,41.1087512,16.8747257,False,0.013999999999999999
2019-10-27 10:45:00.020,LG-H970,1572173100030.0,0.321,9.749,-0.723,41.1087512,16.8747257,False,0.013999999999999999
2019-10-27 10:45:00.040,LG-H970,1572173100050.25,0.254,9.776,-0.852,41.1087512,16.8747257,False,0.013999999999999999
2019-10-27 10:45:00.060,LG-H970,1572173100068.25,0.189,9.843,-0.848,41.1087512,16.8747257,False,0.013999999999999999
2019-10-27 10:45:00.080,LG-H970,1572173100088.0,0.132,9.836,-0.868,41.1087512,16.8747257,False,0.013999999999999999
2019-10-27 10:45:00.100,LG-H970,1572173100105.3333,0.26,9.842,-0.77,41.1087512,16.8747257,False,0.013999999999999999
2019-10-27 10:45:00.120,LG-H970,1572173100126.6,0.299,9.718,-0.859,41.1087512,16.8747257,False,0.013999999999999999
2019-10-27 10:45:00.140,LG-H970,1572173100148.75,0.214,9.748,-0.733,41.1087512,16.8747257,False,0.013999999999999999
2019-10-27 10:45:00.160,LG-H970,1572173100170.8,0.133,9.971,-0.812,41.1087512,16.8747257,False,0.013999999999999999
2019-10-27 10:45:00.180,LG-H970,1572173100190.75,0.183,9.632,-0.968,41.1087512,16.8747257,False,0.013999999999999999
2019-10-27 10:45:00.200,LG-H970,1572173100210.75,0.394,9.907,-0.636,41.1087512,16.8747257,False,0.013999999999999999
2019-10-27 10:45:00.220,LG-H970,1572173100230.75,0.185,9.64,-0.888,41.1087512,16.8747257,False,0.013999999999999999
2019-10-27 10:45:00.240,LG-H970,1572173100249.75,0.211,9.957,-0.741,41.1087512,16.8747257,False,0.013999999999999999
2019-10-27 10:45:00.260,LG-H970,1572173100267.0,0.128,9.765,-0.896,41.1087512,16.8747257,False,0.013999999999999999
2019-10-27 10:45:00.280,LG-H970,1572173100287.8,0.25,9.86,-0.793,41.1087512,16.8747257,False,0.013999999999999999
2019-10-27 10:45:00.300,LG-H970,1572173100309.0,0.265,9.569,-0.905,41.1087512,16.8747257,False,0.013999999999999999
2019-10-27 10:45:00.320,LG-H970,1572173100331.0,0.275,9.836,-0.69,41.1087512,16.8747257,False,0.013999999999999999
2019-10-27 10:45:00.340,LG-H970,1572173100348.5,0.041,9.725,-0.99,41.1087512,16.8747257,False,0.013999999999999999
2019-10-27 10:45:00.360,LG-H970,1572173100368.5,0.226,9.973,-0.766,41.1087512,16.8747257,False,0.013999999999999999
2019-10-27 10:45:00.380,LG-H970,1572173100388.5,0.255,9.588,-0.883,41.1087512,16.8747257,False,0.013999999999999999
2019-10-27 10:45:00.400,LG-H970,1572173100408.75,0.387,9.918,-0.743,41.1087512,16.8747257,False,0.013999999999999999
2019-10-27 10:45:00.420,LG-H970,1572173100428.0,0.086,9.624,-0.895,41.1087512,16.8747257,False,0.013999999999999999
2019-10-27 10:45:00.440,LG-H970,1572173100447.75,0.188,10.037,-0.723,41.1087512,16.8747257,False,0.013999999999999999
2019-10-27 10:45:00.460,LG-H970,1572173100468.25,0.18,9.706,-0.919,41.1087512,16.8747257,False,0.013999999999999999
2019-10-27 10:45:00.480,LG-H970,1572173100489.4,0.39,9.845,-0.677,41.1087512,16.8747257,False,0.013999999999999999
2019-10-27 10:45:00.500,LG-H970,1572173100510.5,0.099,9.648,-0.855,41.1087512,16.8747257,False,0.013999999999999999
2019-10-27 10:45:00.520,LG-H970,1572173100528.3333,0.203,10.112,-0.732,41.1087512,16.8747257,False,0.013999999999999999
2019-10-27 10:45:00.540,LG-H970,1572173100549.0,0.107,9.676,-0.915,41.1087511,16.8747258,False,0.013399999999999999
2019-10-27 10:45:00.560,LG-H970,1572173100569.5,0.409,9.913,-0.738,41.108751,16.8747259,False,0.013000000000000001
2019-10-27 10:45:00.580,LG-H970,1572173100589.5,0.199,9.636,-0.857,41.108751,16.8747259,False,0.013000000000000001
2019-10-27 10:45:00.600,LG-H970,1572173100609.5,0.211,9.958,-0.811,41.108751,16.8747259,False,0.013000000000000001
2019-10-27 10:45:00.620,LG-H970,1572173100629.75,0.027,9.727,-0.948,41.108751,16.8747259,False,0.013000000000000001
2019-10-27 10:45:00.640,LG-H970,1572173100650.25,0.332,9.962,-0.791,41.108751,16.8747259,False,0.013000000000000001
2019-10-27 10:45:00.660,LG-H970,1572173100671.0,0.241,9.489,-0.812,41.108751,16.8747259,False,0.013000000000000001
2019-10-27 10:45:00.680,LG-H970,1572173100691.25,0.327,9.956,-0.793,41.108751,16.8747259,False,0.013000000000000001
2019-10-27 10:45:00.700,LG-H970,1572173100711.0,0.038,9.794,-0.926,41.108751,16.8747259,False,0.013000000000000001
2019-10-27 10:45:00.720,LG-H970,1572173100729.75,0.203,9.934,-0.741,41.108751,16.8747259,False,0.013000000000000001
2019-10-27 10:45:00.740,LG-H970,1572173100748.75,0.242,9.632,-0.803,41.108751,16.8747259,False,0.013000000000000001
2019-10-27 10:45:00.760,LG-H970,1572173100768.5,0.437,9.974,-0.707,41.108751,16.8747259,False,0.013000000000000001
2019-10-27 10:45:00.780,LG-H970,1572173100788.25,0.047,9.634,-0.887,41.108751,16.8747259,False,0.013000000000000001
2019-10-27 10:45:00.800,LG-H970,1572173100808.75,0.16,10.016,-0.825,41.108751,16.8747259,False,0.013000000000000001
2019-10-27 10:45:00.820,LG-H970,1572173100828.5,0.179,9.659,-0.892,41.108751,16.8747259,False,0.013000000000000001
2019-10-27 10:45:00.840,LG-H970,1572173100849.75,0.441,9.851,-0.65,41.108751,16.8747259,False,0.013000000000000001
2019-10-27 10:45:00.860,LG-H970,1572173100877.0,0.123,9.704,-0.855,41.108751,16.8747259,True,0.013000000000000003
2019-10-27 10:45:00.880,LG-H970,1572173100883.0,0.162,10.152,-0.644,41.108751,16.8747259,False,0.013000000000000001
2019-10-27 10:45:00.900,LG-H970,1572173100883.0,0.162,10.152,-0.644,41.108751,16.8747259,False,0.013000000000000001
2019-10-27 10:45:00.920,LG-H970,1572173100921.3333,0.283,10.012,-0.796,41.108751,16.8747259,False,0.013000000000000003
2019-10-27 10:45:00.940,LG-H970,1572173100948.4,0.263,9.813,-0.821,41.108751,16.8747259,False,0.013000000000000001
2019-10-27 10:45:00.960,LG-H970,1572173100967.3333,0.205,9.989,-0.787,41.108751,16.8747259,False,0.013000000000000003
2019-10-27 10:45:00.980,LG-H970,1572173100987.8,0.125,9.769,-0.914,41.108751,16.8747259,False,0.013000000000000001
2019-10-27 10:45:01.000,LG-H970,1572173101010.75,0.348,9.798,-0.715,41.108751,16.8747259,False,0.013000000000000001
2019-10-27 10:45:01.020,LG-H970,1572173101026.5,0.148,9.375,-0.842,41.108751,16.8747259,False,0.013000000000000001
2019-10-27 10:45:01.040,LG-H970,1572173101052.0,0.124,9.809,-1.006,41.108751,16.8747259,False,0.013000000000000001
2019-10-27 10:45:01.060,LG-H970,1572173101067.6,0.077,9.828,-0.952,41.108751,16.8747259,False,0.013000000000000001
2019-10-27 10:45:01.080,LG-H970,1572173101090.25,0.251,9.794,-0.684,41.108751,16.8747259,False,0.013000000000000001
2019-10-27 10:45:01.100,LG-H970,1572173101110.25,0.284,9.656,-0.839,41.108751,16.8747259,False,0.013000000000000001
2019-10-27 10:45:01.120,LG-H970,1572173101128.75,0.308,9.916,-0.814,41.108751,16.8747259,False,0.013000000000000001
2019-10-27 10:45:01.140,LG-H970,1572173101149.5,0.016,9.662,-0.993,41.108751,16.8747259,False,0.013000000000000001
2019-10-27 10:45:01.160,LG-H970,1572173101169.0,0.191,9.896,-0.852,41.108751,16.8747259,False,0.013000000000000001
2019-10-27 10:45:01.180,LG-H970,1572173101188.25,0.298,9.68,-0.868,41.108751,16.8747259,False,0.013000000000000001
2019-10-27 10:45:01.200,LG-H970,1572173101209.6,0.292,9.753,-0.773,41.108751,16.8747259,False,0.013000000000000001
2019-10-27 10:45:01.220,LG-H970,1572173101230.3333,0.106,9.876,-0.912,41.108751,16.8747259,False,0.013000000000000003
2019-10-27 10:45:01.240,LG-H970,1572173101247.0,0.208,9.995,-0.807,41.108751,16.8747259,False,0.013000000000000001
2019-10-27 10:45:01.260,LG-H970,1572173101269.0,0.289,9.711,-0.782,41.108751,16.8747259,False,0.013000000000000001
2019-10-27 10:45:01.280,LG-H970,1572173101290.5,0.267,9.651,-0.78,41.108751,16.8747259,False,0.013000000000000001
2019-10-27 10:45:01.300,LG-H970,1572173101311.75,0.218,9.924,-0.847,41.108751,16.8747259,False,0.013000000000000001
2019-10-27 10:45:01.320,LG-H970,1572173101329.6667,0.118,9.876,-0.809,41.108751,16.8747259,False,0.013000000000000003
2019-10-27 10:45:01.340,LG-H970,1572173101350.5,0.195,9.852,-0.871,41.108751,16.8747259,False,0.013000000000000001
2019-10-27 10:45:01.360,LG-H970,1572173101369.5,0.314,9.661,-0.795,41.108751,16.8747259,False,0.013000000000000001
2019-10-27 10:45:01.380,LG-H970,1572173101389.25,0.274,9.82,-0.76,41.108751,16.8747259,False,0.013000000000000001
2019-10-27 10:45:01.400,LG-H970,1572173101409.5,0.078,9.772,-0.881,41.108751,16.8747259,False,0.013000000000000001
2019-10-27 10:45:01.420,LG-H970,1572173101429.5,0.187,9.933,-0.881,41.108751,16.8747259,False,0.013000000000000001
2019-10-27 10:45:01.440,LG-H970,1572173101449.75,0.249,9.675,-0.785,41.108751,16.8747259,False,0.013000000000000001
2019-10-27 10:45:01.460,LG-H970,1572173101469.25,0.356,9.84,-0.802,41.108751,16.8747259,False,0.013000000000000001
2019-10-27 10:45:01.480,LG-H970,1572173101488.5,0.151,9.722,-0.827,41.108751,16.8747259,False,0.013000000000000001
2019-10-27 10:45:01.500,LG-H970,1572173101508.0,0.172,9.925,-0.812,41.108751,16.8747259,False,0.013000000000000001
2019-10-27 10:45:01.520,LG-H970,1572173101526.0,0.148,9.808,-0.829,41.108751,16.8747259,False,0.013000000000000003
2019-10-27 10:45:01.540,LG-H970,1572173101549.0,0.341,9.821,-0.787,41.108751,16.8747259,False,0.013000000000000001
2019-10-27 10:45:01.560,LG-H970,1572173101569.8,0.202,9.661,-0.81,41.108751,16.8747259,False,0.011800000000000001
2019-10-27 10:45:01.580,LG-H970,1572173101590.75,0.23,10.034,-0.777,41.108751,16.8747259,False,0.01
2019-10-27 10:45:01.600,LG-H970,1572173101610.75,0.075,9.624,-0.931,41.108751,16.8747259,False,0.01
2019-10-27 10:45:01.620,LG-H970,1572173101631.25,0.338,9.933,-0.714,41.108751,16.8747259,False,0.01
2019-10-27 10:45:01.640,LG-H970,1572173101651.0,0.213,9.643,-0.878,41.108751,16.8747259,False,0.01
2019-10-27 10:45:01.660,LG-H970,1572173101670.5,0.27,9.915,-0.729,41.108751,16.8747259,False,0.01
2019-10-27 10:45:01.680,LG-H970,1572173101690.5,0.09,9.67,-0.926,41.108751,16.8747259,False,0.01
2019-10-27 10:45:01.700,LG-H970,1572173101710.5,0.308,10.033,-0.764,41.108751,16.8747259,False,0.01
2019-10-27 10:45:01.720,LG-H970,1572173101729.75,0.143,9.573,-0.864,41.108751,16.8747259,False,0.01
2019-10-27 10:45:01.740,LG-H970,1572173101749.75,0.329,9.951,-0.722,41.108751,16.8747259,False,0.01
2019-10-27 10:45:01.760,LG-H970,1572173101770.0,0.147,9.654,-0.949,41.108751,16.8747259,False,0.01
2019-10-27 10:45:01.780,LG-H970,1572173101787.3333,0.314,10.009,-0.77,41.108751,16.8747259,False,0.01
2019-10-27 10:45:01.800,LG-H970,1572173101809.2,0.117,9.672,-0.841,41.108751,16.8747259,False,0.01
2019-10-27 10:45:01.820,LG-H970,1572173101829.25,0.312,10.058,-0.741,41.108751,16.8747259,False,0.01
2019-10-27 10:45:01.840,LG-H970,1572173101850.6667,0.15,9.54,-0.89,41.108751,16.8747259,False,0.01
2019-10-27 10:45:01.860,LG-H970,1572173101868.5,0.342,9.998,-0.702,41.108751,16.8747259,False,0.01
2019-10-27 10:45:01.880,LG-H970,1572173101889.4,0.143,9.716,-0.904,41.108751,16.8747259,False,0.01
2019-10-27 10:45:01.900,LG-H970,1572173101910.0,0.282,10.008,-0.704,41.108751,16.8747259,False,0.01
2019-10-27 10:45:01.920,LG-H970,1572173101934.3333,0.169,9.702,-0.841,41.108751,16.8747259,False,0.01
2019-10-27 10:45:01.940,LG-H970,1572173101952.0,0.348,9.967,-0.681,41.108751,16.8747259,False,0.01
2019-10-27 10:45:01.960,LG-H970,1572173101970.5,0.148,9.552,-0.885,41.108751,16.8747259,False,0.01
2019-10-27 10:45:01.980,LG-H970,1572173101990.75,0.267,9.983,-0.774,41.108751,16.8747259,False,0.01
2019-10-27 10:45:02.000,LG-H970,1572173102009.5,0.1,9.703,-0.975,41.108751,16.8747259,False,0.01
2019-10-27 10:45:02.020,LG-H970,1572173102029.25,0.302,9.915,-0.68,41.108751,16.8747259,False,0.01
2019-10-27 10:45:02.040,LG-H970,1572173102049.25,0.204,9.578,-0.887,41.108751,16.8747259,False,0.01
2019-10-27 10:45:02.060,LG-H970,1572173102069.0,0.343,10.03,-0.749,41.108751,16.8747259,False,0.01
2019-10-27 10:45:02.080,LG-H970,1572173102089.0,0.041,9.585,-0.933,41.108751,16.8747259,False,0.01
2019-10-27 10:45:02.100,LG-H970,1572173102109.0,0.269,9.978,-0.705,41.108751,16.8747259,False,0.01
2019-10-27 10:45:02.120,LG-H970,1572173102128.5,0.217,9.669,-0.928,41.108751,16.8747259,False,0.01
2019-10-27 10:45:02.140,LG-H970,1572173102147.75,0.352,9.94,-0.652,41.108751,16.8747259,False,0.01
2019-10-27 10:45:02.160,LG-H970,1572173102168.0,0.092,9.576,-0.943,41.108751,16.8747259,False,0.01
2019-10-27 10:45:02.180,LG-H970,1572173102190.4,0.263,9.974,-0.796,41.108751,16.8747259,False,0.01
2019-10-27 10:45:02.200,LG-H970,1572173102211.5,0.164,9.642,-0.865,41.108751,16.8747259,False,0.01
2019-10-27 10:45:02.220,LG-H970,1572173102231.5,0.319,9.87,-0.721,41.108751,16.8747259,False,0.01
2019-10-27 10:45:02.240,LG-H970,1572173102251.5,0.188,9.741,-0.938,41.108751,16.8747259,False,0.01
2019-10-27 10:45:02.260,LG-H970,1572173102269.3333,0.28,10.0,-0.661,41.108751,16.8747259,False,0.01
2019-10-27 10:45:02.280,LG-H970,1572173102287.25,0.08,9.532,-0.959,41.108751,16.8747259,False,0.01
2019-10-27 10:45:02.300,LG-H970,1572173102309.2,0.345,10.006,-0.764,41.108751,16.8747259,False,0.01
2019-10-27 10:45:02.320,LG-H970,1572173102329.0,0.057,9.334,-1.033,41.108751,16.8747259,False,0.01
2019-10-27 10:45:02.340,LG-H970,1572173102349.6,0.248,9.968,-0.721,41.108751,16.8747259,False,0.01
2019-10-27 10:45:02.360,LG-H970,1572173102370.5,0.162,9.714,-0.949,41.108751,16.8747259,False,0.01
2019-10-27 10:45:02.380,LG-H970,1572173102390.0,0.291,9.91,-0.693,41.108751,16.8747259,False,0.01
2019-10-27 10:45:02.400,LG-H970,1572173102410.25,0.115,9.609,-0.901,41.108751,16.8747259,False,0.01
2019-10-27 10:45:02.420,LG-H970,1572173102430.0,0.334,9.999,-0.736,41.108751,16.8747259,False,0.01
2019-10-27 10:45:02.440,LG-H970,1572173102450.0,0.122,9.615,-0.92,41.108751,16.8747259,False,0.01
2019-10-27 10:45:02.460,LG-H970,1572173102469.5,0.257,9.945,-0.711,41.108751,16.8747259,False,0.01
2019-10-27 10:45:02.480,LG-H970,1572173102489.5,0.184,9.691,-0.94,41.108751,16.8747259,False,0.01
2019-10-27 10:45:02.500,LG-H970,1572173102509.75,0.296,9.914,-0.695,41.108751,16.8747259,False,0.01
2019-10-27 10:45:02.520,LG-H970,1572173102528.75,0.105,9.669,-0.891,41.108751,16.8747259,False,0.01
2019-10-27 10:45:02.540,LG-H970,1572173102548.75,0.327,10.04,-0.756,41.108751,16.8747259,False,0.01
2019-10-27 10:45:02.560,LG-H970,1572173102568.75,0.143,9.593,-0.884,41.108751,16.8747259,False,0.01
2019-10-27 10:45:02.580,LG-H970,1572173102586.0,0.379,10.005,-0.691,41.108751,16.8747259,False,0.01
2019-10-27 10:45:02.600,LG-H970,1572173102608.25,0.193,9.712,-0.915,41.1087509,16.874726,False,0.011000000000000001
2019-10-27 10:45:02.620,LG-H970,1572173102629.2,0.232,9.832,-0.766,41.1087509,16.874726,False,0.011000000000000001
2019-10-27 10:45:02.640,LG-H970,1572173102648.6667,0.141,9.738,-0.894,41.1087509,16.874726,False,0.011000000000000001
2019-10-27 10:45:02.660,LG-H970,1572173102669.2,0.287,9.878,-0.779,41.1087509,16.874726,False,0.011000000000000001
2019-10-27 10:45:02.680,LG-H970,1572173102691.75,0.26,9.75,-0.799,41.1087509,16.874726,False,0.011000000000000001
2019-10-27 10:45:02.700,LG-H970,1572173102711.0,0.194,9.809,-0.804,41.1087509,16.874726,False,0.011000000000000001
2019-10-27 10:45:02.720,LG-H970,1572173102730.75,0.19,9.89,-0.881,41.1087509,16.874726,False,0.011000000000000001
2019-10-27 10:45:02.740,LG-H970,1572173102750.75,0.218,9.76,-0.753,41.1087509,16.874726,False,0.011000000000000001
2019-10-27 10:45:02.760,LG-H970,1572173102770.25,0.268,9.806,-0.82,41.1087509,16.874726,False,0.011000000000000001
2019-10-27 10:45:02.780,LG-H970,1572173102790.25,0.249,9.773,-0.797,41.1087509,16.874726,False,0.011000000000000001
2019-10-27 10:45:02.800,LG-H970,1572173102810.0,0.159,9.816,-0.841,41.1087509,16.874726,False,0.011000000000000001
2019-10-27 10:45:02.820,LG-H970,1572173102830.25,0.187,9.806,-0.835,41.1087509,16.874726,False,0.011000000000000001
2019-10-27 10:45:02.840,LG-H970,1572173102848.3333,0.24,9.737,-0.896,41.1087509,16.874726,False,0.011000000000000001
2019-10-27 10:45:02.860,LG-H970,1572173102863.3333,0.401,9.96,-0.653,41.1087509,16.874726,False,0.011000000000000001
2019-10-27 10:45:02.880,LG-H970,1572173102884.0,0.155,9.558,-0.786,41.1087509,16.874726,False,0.011000000000000001
2019-10-27 10:45:02.900,LG-H970,1572173102914.0,0.058,9.612,-0.916,41.1087509,16.874726,False,0.011000000000000001
2019-10-27 10:45:02.920,LG-H970,1572173102927.0,0.221,9.754,-0.821,41.1087509,16.874726,False,0.011000000000000001
2019-10-27 10:45:02.940,LG-H970,1572173102947.75,0.277,9.728,-0.791,41.1087509,16.874726,False,0.011000000000000001
2019-10-27 10:45:02.960,LG-H970,1572173102969.8,0.266,9.854,-0.793,41.1087509,16.874726,False,0.011000000000000001
2019-10-27 10:45:02.980,LG-H970,1572173102989.3333,0.126,9.746,-0.888,41.1087509,16.874726,False,0.011000000000000001
2019-10-27 10:45:03.000,LG-H970,1572173103009.6,0.211,9.92,-0.823,41.1087509,16.874726,False,0.011000000000000001
2019-10-27 10:45:03.020,LG-H970,1572173103031.0,0.264,9.624,-0.94,41.1087509,16.874726,False,0.011000000000000001
2019-10-27 10:45:03.040,LG-H970,1572173103051.75,0.341,9.894,-0.649,41.1087509,16.874726,False,0.011000000000000001
2019-10-27 10:45:03.060,LG-H970,1572173103071.25,0.121,9.719,-0.908,41.1087509,16.874726,False,0.011000000000000001
2019-10-27 10:45:03.080,LG-H970,1572173103088.3333,0.185,9.995,-0.761,41.1087509,16.874726,False,0.011000000000000001
2019-10-27 10:45:03.100,LG-H970,1572173103108.4,0.213,9.714,-0.737,41.1087509,16.874726,False,0.011000000000000001
2019-10-27 10:45:03.120,LG-H970,1572173103130.0,0.361,9.915,-0.639,41.1087509,16.874726,False,0.011000000000000001
2019-10-27 10:45:03.140,LG-H970,1572173103149.5,0.219,9.596,-0.909,41.1087509,16.874726,False,0.011000000000000001
2019-10-27 10:45:03.160,LG-H970,1572173103169.0,0.232,9.959,-0.744,41.1087509,16.874726,False,0.011000000000000001
2019-10-27 10:45:03.180,LG-H970,1572173103186.3333,0.153,9.765,-0.952,41.1087509,16.874726,False,0.011000000000000001
2019-10-27 10:45:03.200,LG-H970,1572173103207.6,0.256,9.827,-0.882,41.1087509,16.874726,False,0.011000000000000001
2019-10-27 10:45:03.220,LG-H970,1572173103228.75,0.242,9.632,-0.882,41.1087509,16.874726,False,0.011000000000000001
2019-10-27 10:45:03.240,LG-H970,1572173103248.5,0.229,9.935,-0.88,41.1087509,16.874726,False,0.011000000000000001
2019-10-27 10:45:03.260,LG-H970,1572173103268.5,0.086,9.7,-1.018,41.1087509,16.874726,False,0.011000000000000001
2019-10-27 10:45:03.280,LG-H970,1572173103287.75,0.199,9.869,-0.778,41.1087509,16.874726,False,0.011000000000000001
2019-10-27 10:45:03.300,LG-H970,1572173103308.75,0.247,9.662,-0.864,41.1087509,16.874726,False,0.011000000000000001
2019-10-27 10:45:03.320,LG-H970,1572173103330.2,0.3,9.908,-0.684,41.1087509,16.874726,False,0.011000000000000001
2019-10-27 10:45:03.340,LG-H970,1572173103351.5,0.046,9.664,-0.903,41.1087509,16.874726,False,0.011000000000000001
2019-10-27 10:45:03.360,LG-H970,1572173103372.25,0.221,10.077,-0.635,41.1087509,16.874726,False,0.011000000000000001
2019-10-27 10:45:03.380,LG-H970,1572173103391.0,0.237,9.576,-0.917,41.1087509,16.874726,False,0.011000000000000001
2019-10-27 10:45:03.400,LG-H970,1572173103410.5,0.439,9.979,-0.56,41.1087509,16.874726,False,0.011000000000000001
2019-10-27 10:45:03.420,LG-H970,1572173103430.0,0.123,9.654,-0.913,41.1087509,16.874726,False,0.011000000000000001
2019-10-27 10:45:03.440,LG-H970,1572173103450.25,0.185,10.071,-0.68,41.1087509,16.874726,False,0.011000000000000001
2019-10-27 10:45:03.460,LG-H970,1572173103470.25,0.19,9.579,-0.984,41.1087509,16.874726,False,0.011000000000000001
2019-10-27 10:45:03.480,LG-H970,1572173103490.0,0.412,9.909,-0.728,41.1087509,16.874726,False,0.011000000000000001
2019-10-27 10:45:03.500,LG-H970,1572173103509.75,0.196,9.49,-0.993,41.1087509,16.874726,False,0.011000000000000001
2019-10-27 10:45:03.520,LG-H970,1572173103529.75,0.173,9.998,-0.777,41.1087509,16.874726,False,0.011000000000000001
2019-10-27 10:45:03.540,LG-H970,1572173103549.25,0.062,9.717,-1.066,41.1087509,16.874726,False,0.011000000000000001
2019-10-27 10:45:03.560,LG-H970,1572173103569.25,0.263,9.928,-0.74,41.1087509,16.874726,False,0.011000000000000001
2019-10-27 10:45:03.580,LG-H970,1572173103588.5,0.253,9.535,-0.82,41.1087509,16.874726,False,0.011000000000000001
2019-10-27 10:45:03.600,LG-H970,1572173103609.0,0.251,9.953,-0.759,41.1087509,16.874726,False,0.011000000000000001
2019-10-27 10:45:03.620,LG-H970,1572173103627.5,0.063,9.732,-0.959,41.1087509,16.874726,False,0.011000000000000001
2019-10-27 10:45:03.640,LG-H970,1572173103647.5,0.165,9.978,-0.664,41.1087509,16.874726,False,0.011000000000000001
2019-10-27 10:45:03.660,LG-H970,1572173103667.5,0.288,9.701,-0.801,41.1087509,16.874726,False,0.011000000000000001
2019-10-27 10:45:03.680,LG-H970,1572173103687.5,0.378,9.839,-0.725,41.1087509,16.874726,False,0.011000000000000001
2019-10-27 10:45:03.700,LG-H970,1572173103707.5,0.141,9.764,-0.849,41.1087509,16.874726,False,0.011000000000000001
2019-10-27 10:45:03.720,LG-H970,1572173103729.8,0.108,9.99,-0.787,41.1087509,16.874726,False,0.011000000000000001
2019-10-27 10:45:03.740,LG-H970,1572173103751.25,0.264,9.551,-0.996,41.1087509,16.874726,False,0.011000000000000001
2019-10-27 10:45:03.760,LG-H970,1572173103771.0,0.485,9.886,-0.576,41.1087509,16.874726,False,0.011000000000000001
2019-10-27 10:45:03.780,LG-H970,1572173103790.5,0.157,9.566,-0.977,41.1087509,16.874726,False,0.011000000000000001
2019-10-27 10:45:03.800,LG-H970,1572173103806.0,0.129,9.936,-0.997,41.1087509,16.874726,False,0.011000000000000001
2019-10-27 10:45:03.820,LG-H970,1572173103827.8,0.161,9.759,-0.911,41.1087509,16.874726,False,0.011000000000000001
2019-10-27 10:45:03.840,LG-H970,1572173103850.75,0.393,9.906,-0.697,41.1087509,16.874726,False,0.011000000000000001
2019-10-27 10:45:03.860,LG-H970,1572173103869.0,0.268,9.624,-0.833,41.1087509,16.874726,False,0.011000000000000001
2019-10-27 10:45:03.880,LG-H970,1572173103888.5,0.228,9.999,-0.769,41.1087509,16.874726,False,0.011000000000000001
2019-10-27 10:45:03.900,LG-H970,1572173103909.0,0.051,9.767,-0.971,41.1087509,16.874726,False,0.011000000000000001
2019-10-27 10:45:03.920,LG-H970,1572173103929.0,0.287,9.899,-0.76,41.1087509,16.874726,False,0.011000000000000001
2019-10-27 10:45:03.940,LG-H970,1572173103948.75,0.269,9.594,-0.711,41.1087509,16.874726,False,0.011000000000000001
2019-10-27 10:45:03.960,LG-H970,1572173103968.5,0.269,9.949,-0.765,41.1087509,16.874726,False,0.011000000000000001
2019-10-27 10:45:03.980,LG-H970,1572173103987.75,0.083,9.797,-0.92,41.1087509,16.874726,False,0.011000000000000001
2019-10-27 10:45:04.000,LG-H970,1572173104007.5,0.148,9.854,-0.777,41.1087509,16.874726,False,0.011000000000000001
2019-10-27 10:45:04.020,LG-H970,1572173104030.0,0.229,9.635,-0.883,41.1087509,16.874726,False,0.011000000000000001
2019-10-27 10:45:04.040,LG-H970,1572173104052.0,0.321,9.968,-0.716,41.1087509,16.874726,False,0.011000000000000001
2019-10-27 10:45:04.060,LG-H970,1572173104071.75,0.059,9.633,-0.977,41.1087509,16.874726,False,0.011000000000000001
2019-10-27 10:45:04.080,LG-H970,1572173104091.5,0.283,10.085,-0.772,41.1087509,16.874726,False,0.011000000000000001
2019-10-27 10:45:04.100,LG-H970,1572173104111.5,0.182,9.537,-0.921,41.1087509,16.874726,False,0.011000000000000001
2019-10-27 10:45:04.120,LG-H970,1572173104131.75,0.361,9.927,-0.679,41.1087509,16.874726,False,0.011000000000000001
2019-10-27 10:45:04.140,LG-H970,1572173104151.0,0.137,9.638,-0.957,41.1087509,16.874726,False,0.011000000000000001
2019-10-27 10:45:04.160,LG-H970,1572173104171.0,0.286,10.025,-0.743,41.1087509,16.874726,False,0.011000000000000001
2019-10-27 10:45:04.180,LG-H970,1572173104190.25,0.118,9.652,-0.869,41.1087509,16.874726,False,0.011000000000000001
2019-10-27 10:45:04.200,LG-H970,1572173104210.5,0.357,9.99,-0.668,41.1087509,16.874726,False,0.011000000000000001
2019-10-27 10:45:04.220,LG-H970,1572173104229.5,0.181,9.551,-0.923,41.1087509,16.874726,False,0.011000000000000001
2019-10-27 10:45:04.240,LG-H970,1572173104249.25,0.273,9.99,-0.741,41.1087509,16.874726,False,0.011000000000000001
2019-10-27 10:45:04.260,LG-H970,1572173104269.5,0.092,9.635,-0.984,41.1087509,16.874726,False,0.011000000000000001
2019-10-27 10:45:04.280,LG-H970,1572173104288.5,0.323,9.956,-0.724,41.1087509,16.874726,False,0.011000000000000001
2019-10-27 10:45:04.300,LG-H970,1572173104308.75,0.132,9.594,-0.927,41.1087509,16.874726,False,0.011000000000000001
2019-10-27 10:45:04.320,LG-H970,1572173104328.5,0.239,10.016,-0.732,41.1087509,16.874726,False,0.011000000000000001
2019-10-27 10:45:04.340,LG-H970,1572173104349.25,0.139,9.558,-0.989,41.1087509,16.874726,False,0.011000000000000001
2019-10-27 10:45:04.360,LG-H970,1572173104368.25,0.365,9.959,-0.678,41.1087509,16.874726,False,0.011000000000000001
2019-10-27 10:45:04.380,LG-H970,1572173104389.6,0.134,9.702,-0.878,41.1087509,16.874726,False,0.011000000000000001
2019-10-27 10:45:04.400,LG-H970,1572173104411.75,0.236,9.981,-0.684,41.1087509,16.874726,False,0.011000000000000001
2019-10-27 10:45:04.420,LG-H970,1572173104431.0,0.157,9.59,-0.899,41.1087509,16.874726,False,0.011000000000000001
2019-10-27 10:45:04.440,LG-H970,1572173104451.0,0.428,10.038,-0.69,41.1087509,16.874726,False,0.011000000000000001
2019-10-27 10:45:04.460,LG-H970,1572173104473.3333,0.155,9.589,-0.846,41.1087509,16.874726,False,0.011000000000000001
2019-10-27 10:45:04.480,LG-H970,1572173104491.25,0.302,10.037,-0.746,41.1087509,16.874726,False,0.011000000000000001
2019-10-27 10:45:04.500,LG-H970,1572173104510.75,0.13,9.664,-0.98,41.1087509,16.874726,False,0.011000000000000001
2019-10-27 10:45:04.520,LG-H970,1572173104530.25,0.379,9.957,-0.677,41.1087509,16.874726,False,0.011000000000000001
2019-10-27 10:45:04.540,LG-H970,1572173104547.0,0.129,9.472,-0.958,41.1087509,16.874726,False,0.011000000000000001
2019-10-27 10:45:04.560,LG-H970,1572173104567.4,0.268,9.99,-0.797,41.1087509,16.874726,False,0.011000000000000001
2019-10-27 10:45:04.580,LG-H970,1572173104591.3333,0.074,9.565,-0.946,41.1087507,16.8747262,False,0.012000000000000002
2019-10-27 10:45:04.600,LG-H970,1572173104608.25,0.322,9.98,-0.673,41.1087507,16.8747262,False,0.012
2019-10-27 10:45:04.620,LG-H970,1572173104628.25,0.181,9.634,-0.933,41.1087507,16.8747262,False,0.012
2019-10-27 10:45:04.640,LG-H970,1572173104648.0,0.296,10.019,-0.666,41.1087507,16.8747262,False,0.012
2019-10-27 10:45:04.660,LG-H970,1572173104668.5,0.015,9.598,-0.963,41.1087507,16.8747262,False,0.012
2019-10-27 10:45:04.680,LG-H970,1572173104688.0,0.312,10.079,-0.704,41.1087507,16.8747262,False,0.012
2019-10-27 10:45:04.700,LG-H970,1572173104707.5,0.152,9.45,-0.89,41.1087507,16.8747262,False,0.012
2019-10-27 10:45:04.720,LG-H970,1572173104727.5,0.376,10.05,-0.66,41.1087507,16.8747262,False,0.012
2019-10-27 10:45:04.740,LG-H970,1572173104750.2,0.087,9.73,-0.964,41.1087507,16.8747262,False,0.012
2019-10-27 10:45:04.760,LG-H970,1572173104771.75,0.242,9.927,-0.716,41.1087507,16.8747262,False,0.012
2019-10-27 10:45:04.780,LG-H970,1572173104791.5,0.183,9.539,-0.903,41.1087507,16.8747262,False,0.012
2019-10-27 10:45:04.800,LG-H970,1572173104811.5,0.399,10.028,-0.73,41.1087507,16.8747262,False,0.012
2019-10-27 10:45:04.820,LG-H970,1572173104831.25,0.08,9.613,-0.927,41.1087507,16.8747262,False,0.012
2019-10-27 10:45:04.840,LG-H970,1572173104849.6667,0.279,10.105,-0.648,41.1087507,16.8747262,False,0.012000000000000002
2019-10-27 10:45:04.860,LG-H970,1572173104869.4,0.226,9.649,-0.961,41.1087507,16.8747262,False,0.012
2019-10-27 10:45:04.880,LG-H970,1572173104890.25,0.405,9.888,-0.622,41.1087507,16.8747262,False,0.012
2019-10-27 10:45:04.900,LG-H970,1572173104908.75,0.117,9.596,-0.931,41.1087507,16.8747262,False,0.012
2019-10-27 10:45:04.920,LG-H970,1572173104929.0,0.27,10.079,-0.742,41.1087507,16.8747262,False,0.012
2019-10-27 10:45:04.940,LG-H970,1572173104949.5,0.127,9.623,-0.903,41.1087507,16.8747262,False,0.012
2019-10-27 10:45:04.960,LG-H970,1572173104969.25,0.373,9.943,-0.703,41.1087507,16.8747262,False,0.012
2019-10-27 10:45:04.980,LG-H970,1572173104988.5,0.2,9.631,-0.909,41.1087507,16.8747262,False,0.012
2019-10-27 10:45:05.000,LG-H970,1572173105008.75,0.214,9.922,-0.771,41.1087507,16.8747262,False,0.012
2019-10-27 10:45:05.020,LG-H970,1572173105028.25,0.021,9.73,-0.923,41.1087507,16.8747262,False,0.012
2019-10-27 10:45:05.040,LG-H970,1572173105047.75,0.285,9.965,-0.736,41.1087507,16.8747262,False,0.012
2019-10-27 10:45:05.060,LG-H970,1572173105067.25,0.215,9.591,-0.78,41.1087507,16.8747262,False,0.012
2019-10-27 10:45:05.080,LG-H970,1572173105087.5,0.296,9.873,-0.748,41.1087507,16.8747262,False,0.012
2019-10-27 10:45:05.100,LG-H970,1572173105107.25,0.137,9.78,-0.924,41.1087507,16.8747262,False,0.012
2019-10-27 10:45:05.120,LG-H970,1572173105129.2,0.175,9.852,-0.786,41.1087507,16.8747262,False,0.012
2019-10-27 10:45:05.140,LG-H970,1572173105152.0,0.281,9.843,-0.789,41.1087507,16.8747262,False,0.012
2019-10-27 10:45:05.160,LG-H970,1572173105171.5,0.288,9.746,-0.787,41.1087507,16.8747262,False,0.012
2019-10-27 10:45:05.180,LG-H970,1572173105191.25,0.215,9.793,-0.814,41.1087507,16.8747262,False,0.012
2019-10-27 10:45:05.200,LG-H970,1572173105210.75,0.156,9.787,-0.89,41.1087507,16.8747262,False,0.012
2019-10-27 10:45:05.220,LG-H970,1572173105230.0,0.249,9.855,-0.828,41.1087507,16.8747262,False,0.012
2019-10-27 10:45:05.240,LG-H970,1572173105249.75,0.262,9.684,-0.781,41.1087507,16.8747262,False,0.012
2019-10-27 10:45:05.260,LG-H970,1572173105269.5,0.284,9.891,-0.763,41.1087507,16.8747262,False,0.012
2019-10-27 10:45:05.280,LG-H970,1572173105289.5,0.176,9.746,-0.905,41.1087507,16.8747262,False,0.012
2019-10-27 10:45:05.300,LG-H970,1572173105309.25,0.181,9.849,-0.759,41.1087507,16.8747262,False,0.012
2019-10-27 10:45:05.320,LG-H970,1572173105326.3333,0.249,9.789,-0.873,41.1087507,16.8747262,False,0.012000000000000002
2019-10-27 10:45:05.340,LG-H970,1572173105347.4,0.259,9.819,-0.826,41.1087507,16.8747262,False,0.012
2019-10-27 10:45:05.360,LG-H970,1572173105368.75,0.186,9.705,-0.778,41.1087507,16.8747262,False,0.012
2019-10-27 10:45:05.380,LG-H970,1572173105387.5,0.165,9.916,-0.803,41.1087507,16.8747262,False,0.012
2019-10-27 10:45:05.400,LG-H970,1572173105410.0,0.181,9.726,-0.907,41.1087507,16.8747262,False,0.012
2019-10-27 10:45:05.420,LG-H970,1572173105431.75,0.257,9.907,-0.614,41.1087507,16.8747262,False,0.012
2019-10-27 10:45:05.440,LG-H970,1572173105451.5,0.227,9.645,-1.002,41.1087507,16.8747262,False,0.012
2019-10-27 10:45:05.460,LG-H970,1572173105472.25,0.262,9.988,-0.65,41.1087507,16.8747262,False,0.012
2019-10-27 10:45:05.480,LG-H970,1572173105491.5,0.167,9.683,-0.921,41.1087507,16.8747262,False,0.012
2019-10-27 10:45:05.500,LG-H970,1572173105510.75,0.185,9.965,-0.734,41.1087507,16.8747262,False,0.012
2019-10-27 10:45:05.520,LG-H970,1572173105527.6667,0.387,9.887,-0.918,41.1087507,16.8747262,False,0.012000000000000002
2019-10-27 10:45:05.540,LG-H970,1572173105548.4,0.233,9.67,-0.763,41.1087507,16.8747262,False,0.012
2019-10-27 10:45:05.560,LG-H970,1572173105571.25,0.233,9.749,-0.948,41.1087507,16.8747262,False,0.012
2019-10-27 10:45:05.580,LG-H970,1572173105589.75,0.136,9.842,-0.801,41.1087507,16.8747263,False,0.01
2019-10-27 10:45:05.600,LG-H970,1572173105608.75,0.268,9.878,-0.806,41.1087507,16.8747263,False,0.01
2019-10-27 10:45:05.620,LG-H970,1572173105628.5,0.205,9.605,-0.846,41.1087507,16.8747263,False,0.01
2019-10-27 10:45:05.640,LG-H970,1572173105648.5,0.349,10.011,-0.688,41.1087507,16.8747263,False,0.01
2019-10-27 10:45:05.660,LG-H970,1572173105668.25,0.075,9.551,-1.04,41.1087507,16.8747263,False,0.01
2019-10-27 10:45:05.680,LG-H970,1572173105688.0,0.257,10.089,-0.499,41.1087507,16.8747263,False,0.01
2019-10-27 10:45:05.700,LG-H970,1572173105707.5,0.171,9.527,-1.149,41.1087507,16.8747263,False,0.01
2019-10-27 10:45:05.720,LG-H970,1572173105727.5,0.359,10.11,-0.429,41.1087507,16.8747263,False,0.01
2019-10-27 10:45:05.740,LG-H970,1572173105747.0,0.103,9.426,-1.178,41.1087507,16.8747263,False,0.01
2019-10-27 10:45:05.760,LG-H970,1572173105767.25,0.259,10.204,-0.511,41.1087507,16.8747263,False,0.01
2019-10-27 10:45:05.780,LG-H970,1572173105789.2,0.141,9.513,-1.091,41.1087507,16.8747263,False,0.01
2019-10-27 10:45:05.800,LG-H970,1572173105811.25,0.354,10.036,-0.45,41.1087507,16.8747263,False,0.01
2019-10-27 10:45:05.820,LG-H970,1572173105831.0,0.147,9.475,-1.202,41.1087507,16.8747263,False,0.01
2019-10-27 10:45:05.840,LG-H970,1572173105851.0,0.294,10.151,-0.493,41.1087507,16.8747263,False,0.01
