UTC_timestamp,device_name,x,y,z,lat,long,speed,event
2019-10-27 11:37:39.480,SmartbBox,-0.038,0.026,-0.956,0,0,0.0,False
2019-10-27 11:37:39.500,SmartbBox,-0.03,0.065,-0.929,0,0,0.0,False
2019-10-27 11:37:39.520,SmartbBox,-0.056,0.05,-0.931,0,0,0.0,False
2019-10-27 11:37:39.540,SmartbBox,-0.028,0.065,-0.955,0,0,0.0,False
2019-10-27 11:37:39.560,SmartbBox,-0.03,0.065,-0.928,0,0,0.0,False
2019-10-27 11:37:39.580,SmartbBox,-0.03,0.065,-0.928,0,0,0.0,False
2019-10-27 11:37:39.600,SmartbBox,-0.026,0.065,-0.982,0,0,0.0,False
2019-10-27 11:37:39.620,SmartbBox,-0.012,0.041,-0.98,0,0,0.0,False
2019-10-27 11:37:39.640,SmartbBox,-0.039,0.026,-0.956,0,0,0.0,False
2019-10-27 11:37:39.660,SmartbBox,-0.012,0.081,-0.847,0,0,0.0,False
2019-10-27 11:37:39.680,SmartbBox,-0.014,0.04,-0.954,0,0,0.0,False
2019-10-27 11:37:39.700,SmartbBox,-0.051,0.05,-0.984,0,0,0.0,False
2019-10-27 11:37:39.720,SmartbBox,-0.028,0.065,-0.955,0,0,0.0,False
2019-10-27 11:37:39.740,SmartbBox,-0.008,0.08,-0.9,0,0,0.0,False
2019-10-27 11:37:39.760,SmartbBox,-0.001,0.016,-0.926,0,0,0.0,False
2019-10-27 11:37:39.780,SmartbBox,-0.068,0.075,-0.958,0,0,0.0,False
2019-10-27 11:37:39.800,SmartbBox,-0.014,0.041,-0.954,0,0,0.0,False
2019-10-27 11:37:39.820,SmartbBox,0.005,0.016,-1.005,0,0,0.0,False
2019-10-27 11:37:39.840,SmartbBox,-0.048,0.09,-0.904,0,0,0.0,False
2019-10-27 11:37:39.860,SmartbBox,-0.028,0.066,-0.955,0,0,0.0,False
2019-10-27 11:37:39.880,SmartbBox,0.014,0.056,-0.978,0,0,0.0,False
2019-10-27 11:37:39.900,SmartbBox,-0.045,0.09,-0.93,0,0,0.0,False
2019-10-27 11:37:39.920,SmartbBox,0.051,0.047,-0.948,0,0,0.0,False
2019-10-27 11:37:39.940,SmartbBox,-0.016,0.105,-0.98,0,0,0.0,False
2019-10-27 11:37:39.960,SmartbBox,0.003,0.056,-0.846,0,0,0.0,False
2019-10-27 11:37:39.980,SmartbBox,0.004,0.08,-1.031,0,0,0.0,False
2019-10-27 11:37:40.000,SmartbBox,-0.041,0.13,-0.85,0,0,0.0,False
2019-10-27 11:37:40.020,SmartbBox,0.024,0.096,-0.977,0,0,0.0,False
2019-10-27 11:37:40.040,SmartbBox,-0.04,0.09,-0.982,0,0,0.0,False
2019-10-27 11:37:40.060,SmartbBox,0.018,0.056,-1.03,0,0,0.0,False
2019-10-27 11:37:40.080,SmartbBox,-0.028,0.065,-0.955,0,0,0.0,False
2019-10-27 11:37:40.100,SmartbBox,0.011,0.096,-0.82,0,0,0.0,False
2019-10-27 11:37:40.120,SmartbBox,0.03,0.032,-1.002,0,0,0.0,False
2019-10-27 11:37:40.140,SmartbBox,-0.028,0.065,-0.955,0,0,0.0,False
2019-10-27 11:37:40.160,SmartbBox,0.072,0.062,-0.894,0,0,0.0,False
2019-10-27 11:37:40.180,SmartbBox,-0.016,0.105,-0.98,0,0,0.0,False
2019-10-27 11:37:40.200,SmartbBox,-0.038,0.09,-1.008,0,0,0.0,False
2019-10-27 11:37:40.220,SmartbBox,-0.032,0.066,-0.902,0,0,0.0,False
2019-10-27 11:37:40.240,SmartbBox,-0.006,0.08,-0.926,0,0,0.0,False
2019-10-27 11:37:40.260,SmartbBox,-0.016,0.08,-0.795,0,0,0.0,False
2019-10-27 11:37:40.280,SmartbBox,-0.032,0.129,-0.956,0,0,0.0,False
2019-10-27 11:37:40.300,SmartbBox,-0.028,0.065,-0.955,0,0,0.0,False
2019-10-27 11:37:40.320,SmartbBox,0.014,0.056,-0.978,0,0,0.0,False
2019-10-27 11:37:40.340,SmartbBox,-0.008,0.08,-0.9,0,0,0.0,False
2019-10-27 11:37:40.360,SmartbBox,-0.04,0.026,-0.93,0,0,0.0,False
2019-10-27 11:37:40.380,SmartbBox,0.049,0.047,-0.922,0,0,0.0,False
2019-10-27 11:37:40.400,SmartbBox,-0.04,0.026,-0.93,0,0,0.0,False
2019-10-27 11:37:40.420,SmartbBox,0.015,0.096,-0.872,0,0,0.0,False
2019-10-27 11:37:40.440,SmartbBox,0.07,0.022,-1.0,0,0,0.0,False
2019-10-27 11:37:40.460,SmartbBox,-0.022,0.065,-1.034,0,0,0.0,False
2019-10-27 11:37:40.480,SmartbBox,0.008,0.08,-1.084,0,0,0.0,False
2019-10-27 11:37:40.500,SmartbBox,-0.026,0.129,-1.034,0,0,0.0,False
2019-10-27 11:37:40.520,SmartbBox,-0.008,0.08,-0.9,0,0,0.0,False
2019-10-27 11:37:40.540,SmartbBox,0.041,0.008,-0.949,0,0,0.0,False
2019-10-27 11:37:40.560,SmartbBox,-0.003,0.08,-0.953,0,0,0.0,False
2019-10-27 11:37:40.580,SmartbBox,0.075,0.022,-1.052,0,0,0.0,False
2019-10-27 11:37:40.600,SmartbBox,0.007,0.12,-0.952,0,0,0.0,False
2019-10-27 11:37:40.620,SmartbBox,0.068,0.022,-0.973,0,0,0.0,False
2019-10-27 11:37:40.640,SmartbBox,0.004,0.08,-1.031,0,0,0.0,False
2019-10-27 11:37:40.660,SmartbBox,-0.005,0.04,-1.058,0,0,0.0,False
2019-10-27 11:37:40.680,SmartbBox,-0.012,0.081,-0.848,0,0,0.0,False
2019-10-27 11:37:40.700,SmartbBox,-0.012,0.08,-0.848,0,0,0.0,False
2019-10-27 11:37:40.720,SmartbBox,-0.024,0.105,-0.875,0,0,0.0,False
2019-10-27 11:37:40.740,SmartbBox,-0.042,0.09,-0.956,0,0,0.0,False
2019-10-27 11:37:40.760,SmartbBox,-0.003,0.017,-0.9,0,0,0.0,False
2019-10-27 11:37:40.780,SmartbBox,-0.01,0.081,-0.874,0,0,0.0,False
2019-10-27 11:37:40.800,SmartbBox,0.0,0.056,-0.82,0,0,0.0,False
2019-10-27 11:37:40.820,SmartbBox,-0.024,0.042,-0.822,0,0,0.0,False
2019-10-27 11:37:40.840,SmartbBox,0.024,0.032,-0.924,0,0,0.0,False
2019-10-27 11:37:40.860,SmartbBox,0.015,0.032,-0.819,0,0,0.0,False
2019-10-27 11:37:40.880,SmartbBox,0.014,0.056,-0.978,0,0,0.0,False
2019-10-27 11:37:40.900,SmartbBox,-0.04,0.09,-0.982,0,0,0.0,False
2019-10-27 11:37:40.920,SmartbBox,0.001,0.12,-0.873,0,0,0.0,False
2019-10-27 11:37:40.940,SmartbBox,-0.032,0.066,-0.902,0,0,0.0,False
2019-10-27 11:37:40.960,SmartbBox,0.056,0.046,-1.001,0,0,0.0,False
2019-10-27 11:37:40.980,SmartbBox,-0.043,0.09,-0.956,0,0,0.0,True
2019-10-27 11:37:41.000,SmartbBox,0.012,0.056,-0.952,0,0,0.0,False
2019-10-27 11:37:41.020,SmartbBox,-0.003,0.08,-0.953,0,0,0.0,False
2019-10-27 11:37:41.040,SmartbBox,-0.003,0.08,-0.953,0,0,0.0,False
2019-10-27 11:37:41.060,SmartbBox,-0.028,0.065,-0.955,0,0,0.0,False
2019-10-27 11:37:41.080,SmartbBox,-0.014,0.041,-0.954,0,0,0.0,False
2019-10-27 11:37:41.100,SmartbBox,-0.037,0.13,-0.903,0,0,0.0,False
2019-10-27 11:37:41.120,SmartbBox,-0.028,0.065,-0.955,0,0,0.0,False
2019-10-27 11:37:41.140,SmartbBox,0.014,0.12,-1.031,0,0,0.0,False
2019-10-27 11:37:41.160,SmartbBox,0.003,0.016,-0.978,0,0,0.0,False
2019-10-27 11:37:41.180,SmartbBox,-0.017,0.105,-0.954,0,0,0.0,False
2019-10-27 11:37:41.200,SmartbBox,0.02,0.096,-0.924,0,0,0.0,False
2019-10-27 11:37:41.220,SmartbBox,0.018,0.056,-1.03,0,0,0.0,False
2019-10-27 11:37:41.240,SmartbBox,-0.038,0.09,-1.009,0,0,0.0,False
2019-10-27 11:37:41.260,SmartbBox,0.004,0.08,-1.031,0,0,0.0,False
2019-10-27 11:37:41.280,SmartbBox,-0.018,0.105,-0.954,0,0,0.0,False
2019-10-27 11:37:41.300,SmartbBox,-0.03,0.065,-0.928,0,0,0.0,False
2019-10-27 11:37:41.320,SmartbBox,0.011,0.056,-0.952,0,0,0.0,False
2019-10-27 11:37:41.340,SmartbBox,0.01,0.056,-0.926,0,0,0.0,False
2019-10-27 11:37:41.360,SmartbBox,-0.017,0.105,-0.954,0,0,0.0,False
2019-10-27 11:37:41.380,SmartbBox,-0.035,0.066,-0.876,0,0,0.0,False
2019-10-27 11:37:41.400,SmartbBox,-0.033,0.065,-0.902,0,0,0.0,False
2019-10-27 11:37:41.420,SmartbBox,-0.02,0.042,-0.875,0,0,0.0,False
2019-10-27 11:37:41.440,SmartbBox,-0.023,0.042,-0.848,0,0,0.0,False
2019-10-27 11:37:41.460,SmartbBox,0.007,0.056,-0.899,0,0,0.0,False
2019-10-27 11:37:41.480,SmartbBox,-0.02,0.042,-0.875,0,0,0.0,False
2019-10-27 11:37:41.500,SmartbBox,-0.012,0.08,-0.847,0,0,0.0,False
2019-10-27 11:37:41.520,SmartbBox,-0.032,0.066,-0.902,0,0,0.0,False
2019-10-27 11:37:41.540,SmartbBox,-0.037,0.066,-0.85,0,0,0.0,False
2019-10-27 11:37:41.560,SmartbBox,0.023,0.072,-0.792,0,0,0.0,False
2019-10-27 11:37:41.580,SmartbBox,-0.024,0.042,-0.822,0,0,0.0,False
2019-10-27 11:37:41.600,SmartbBox,0.03,0.072,-0.871,0,0,0.0,False
2019-10-27 11:37:41.620,SmartbBox,0.022,0.096,-0.951,0,0,0.0,False
2019-10-27 11:37:41.640,SmartbBox,-0.06,0.114,-0.932,0,0,0.0,False
2019-10-27 11:37:41.660,SmartbBox,0.032,0.136,-0.95,0,0,0.0,False
2019-10-27 11:37:41.680,SmartbBox,-0.054,0.05,-0.957,0,0,0.0,False
2019-10-27 11:37:41.700,SmartbBox,-0.001,0.144,-1.032,0,0,0.0,False
2019-10-27 11:37:41.720,SmartbBox,0.003,0.08,-1.031,0,0,0.0,False
2019-10-27 11:37:41.740,SmartbBox,-0.017,0.065,-1.086,0,0,0.0,False
2019-10-27 11:37:41.760,SmartbBox,0.002,0.08,-1.006,0,0,0.0,False
2019-10-27 11:37:41.780,SmartbBox,0.008,0.016,-1.031,0,0,0.0,False
2019-10-27 11:37:41.800,SmartbBox,-0.068,0.138,-1.011,0,0,0.0,False
2019-10-27 11:37:41.820,SmartbBox,-0.036,-0.038,-0.929,0,0,0.0,False
2019-10-27 11:37:41.840,SmartbBox,-0.037,0.066,-0.85,0,0,0.0,False
2019-10-27 11:37:41.860,SmartbBox,0.04,0.047,-0.817,0,0,0.0,False
2019-10-27 11:37:41.880,SmartbBox,-0.06,0.114,-0.932,0,0,0.0,False
2019-10-27 11:37:41.900,SmartbBox,-0.013,0.168,-1.06,0,0,0.0,False
2019-10-27 11:37:41.920,SmartbBox,0.098,0.061,-1.208,0,0,0.0,False
2019-10-27 11:37:41.940,SmartbBox,0.057,0.071,-1.186,0,0,0.0,False
2019-10-27 11:37:41.960,SmartbBox,0.077,0.086,-1.131,0,0,0.0,False
2019-10-27 11:37:41.980,SmartbBox,0.095,0.085,-1.342,0,0,0.0,False
2019-10-27 11:37:42.000,SmartbBox,-0.02,0.026,-1.166,0,0,0.0,False
2019-10-27 11:37:42.020,SmartbBox,0.017,0.08,-1.19,0,0,0.0,False
2019-10-27 11:37:42.040,SmartbBox,-0.058,0.138,-1.116,0,0,0.0,False
2019-10-27 11:37:42.060,SmartbBox,0.017,0.096,-0.898,0,0,0.0,False
2019-10-27 11:37:42.080,SmartbBox,-0.022,0.169,-0.955,0,0,0.0,False
2019-10-27 11:37:42.100,SmartbBox,-0.082,0.035,-0.906,0,0,0.0,False
2019-10-27 11:37:42.120,SmartbBox,-0.02,0.105,-0.928,0,0,0.0,False
2019-10-27 11:37:42.140,SmartbBox,-0.1,0.1,-0.75,0,0,0.0,False
2019-10-27 11:37:42.160,SmartbBox,-0.006,-0.007,-0.688,0,0,0.0,False
2019-10-27 11:37:42.180,SmartbBox,0.041,0.008,-0.949,0,0,0.0,False
2019-10-27 11:37:42.200,SmartbBox,-0.103,0.02,-0.961,0,0,0.0,False
2019-10-27 11:37:42.220,SmartbBox,-0.04,0.106,-0.692,0,0,0.0,False
2019-10-27 11:37:42.240,SmartbBox,0.063,0.062,-0.788,0,0,0.0,False
2019-10-27 11:37:42.260,SmartbBox,-0.054,0.09,-0.825,0,0,0.0,False
2019-10-27 11:37:42.280,SmartbBox,-0.096,0.1,-0.802,0,0,0.0,False
2019-10-27 11:37:42.300,SmartbBox,-0.044,0.066,-0.771,0,0,0.0,False
2019-10-27 11:37:42.320,SmartbBox,-0.016,0.081,-0.796,0,0,0.0,False
2019-10-27 11:37:42.340,SmartbBox,-0.106,0.06,-0.803,0,0,0.0,False
2019-10-27 11:37:42.360,SmartbBox,-0.06,0.05,-0.878,0,0,0.0,False
2019-10-27 11:37:42.380,SmartbBox,-0.07,0.011,-0.879,0,0,0.0,False
2019-10-27 11:37:42.400,SmartbBox,0.002,0.056,-0.846,0,0,0.0,False
2019-10-27 11:37:42.420,SmartbBox,0.005,0.056,-0.872,0,0,0.0,False
2019-10-27 11:37:42.440,SmartbBox,-0.03,0.065,-0.928,0,0,0.0,False
2019-10-27 11:37:42.460,SmartbBox,-0.084,0.099,-0.934,0,0,0.0,False
