UTC_timestamp,device_name,x,y,z,lat,long,speed,event
2019-11-11 08:26:59.480,SmartbBox,-0.122,-0.024,-1.038,0,0,0.0,False
2019-11-11 08:26:59.500,SmartbBox,-0.146,0.009,-1.033,0,0,0.0,False
2019-11-11 08:26:59.520,SmartbBox,-0.082,-0.001,-0.988,0,0,0.0,False
2019-11-11 08:26:59.540,SmartbBox,-0.126,-0.052,-1.038,0,0,0.0,False
2019-11-11 08:26:59.560,SmartbBox,-0.09,0.001,-1.041,0,0,0.0,False
2019-11-11 08:26:59.580,SmartbBox,-0.094,-0.028,-1.042,0,0,0.0,False
2019-11-11 08:26:59.600,SmartbBox,-0.122,-0.024,-1.038,0,0,0.0,False
2019-11-11 08:26:59.620,SmartbBox,-0.122,-0.023,-1.038,0,0,0.0,False
2019-11-11 08:26:59.640,SmartbBox,-0.094,-0.058,-1.016,0,0,0.0,False
2019-11-11 08:26:59.660,SmartbBox,-0.15,-0.02,-1.034,0,0,0.0,False
2019-11-11 08:26:59.680,SmartbBox,-0.147,-0.021,-1.007,0,0,0.0,False
2019-11-11 08:26:59.700,SmartbBox,-0.114,0.004,-1.01,0,0,0.0,False
2019-11-11 08:26:59.720,SmartbBox,-0.122,-0.024,-1.038,0,0,0.0,False
2019-11-11 08:26:59.740,SmartbBox,-0.148,-0.05,-0.981,0,0,0.0,False
2019-11-11 08:26:59.760,SmartbBox,-0.126,-0.023,-1.064,0,0,0.0,False
2019-11-11 08:26:59.780,SmartbBox,-0.122,0.006,-1.064,0,0,0.0,False
2019-11-11 08:26:59.800,SmartbBox,-0.122,-0.024,-1.038,0,0,0.0,False
2019-11-11 08:26:59.820,SmartbBox,-0.144,-0.022,-0.981,0,0,0.0,False
2019-11-11 08:26:59.840,SmartbBox,-0.143,0.008,-1.006,0,0,0.0,False
2019-11-11 08:26:59.860,SmartbBox,-0.082,-0.001,-0.988,0,0,0.0,False
2019-11-11 08:26:59.880,SmartbBox,-0.118,0.005,-1.037,0,0,0.0,False
2019-11-11 08:26:59.900,SmartbBox,-0.126,-0.023,-1.064,0,0,0.0,False
2019-11-11 08:26:59.920,SmartbBox,-0.115,-0.026,-0.984,0,0,0.0,False
2019-11-11 08:26:59.940,SmartbBox,-0.11,0.033,-1.01,0,0,0.0,False
2019-11-11 08:26:59.960,SmartbBox,-0.097,-0.027,-1.068,0,0,0.0,False
2019-11-11 08:26:59.980,SmartbBox,-0.083,-0.03,-0.962,0,0,0.0,False
2019-11-11 08:27:00.000,SmartbBox,-0.118,-0.025,-1.011,0,0,0.0,False
2019-11-11 08:27:00.020,SmartbBox,-0.122,-0.024,-1.038,0,0,0.0,False
2019-11-11 08:27:00.040,SmartbBox,-0.09,-0.028,-1.015,0,0,0.0,False
2019-11-11 08:27:00.060,SmartbBox,-0.126,-0.023,-1.064,0,0,0.0,False
2019-11-11 08:27:00.080,SmartbBox,-0.122,-0.024,-1.038,0,0,0.0,False
2019-11-11 08:27:00.100,SmartbBox,-0.09,-0.028,-1.015,0,0,0.0,False
2019-11-11 08:27:00.120,SmartbBox,-0.111,0.033,-1.01,0,0,0.0,False
2019-11-11 08:27:00.140,SmartbBox,-0.111,-0.026,-0.958,0,0,0.0,False
2019-11-11 08:27:00.160,SmartbBox,-0.09,0.001,-1.041,0,0,0.0,False
2019-11-11 08:27:00.180,SmartbBox,-0.122,-0.024,-1.038,0,0,0.0,False
2019-11-11 08:27:00.200,SmartbBox,-0.147,-0.021,-1.007,0,0,0.0,False
2019-11-11 08:27:00.220,SmartbBox,-0.122,-0.024,-1.038,0,0,0.0,False
2019-11-11 08:27:00.240,SmartbBox,-0.098,-0.027,-1.068,0,0,0.0,False
2019-11-11 08:27:00.260,SmartbBox,-0.079,-0.001,-0.962,0,0,0.0,False
2019-11-11 08:27:00.280,SmartbBox,-0.14,-0.022,-0.954,0,0,0.0,False
2019-11-11 08:27:00.300,SmartbBox,-0.107,0.032,-0.984,0,0,0.0,False
2019-11-11 08:27:00.320,SmartbBox,-0.114,0.004,-1.01,0,0,0.0,False
2019-11-11 08:27:00.340,SmartbBox,-0.111,-0.026,-0.958,0,0,0.0,False
2019-11-11 08:27:00.360,SmartbBox,-0.11,0.033,-1.01,0,0,0.0,False
2019-11-11 08:27:00.380,SmartbBox,-0.118,-0.025,-1.011,0,0,0.0,False
2019-11-11 08:27:00.400,SmartbBox,-0.111,0.003,-0.984,0,0,0.0,False
2019-11-11 08:27:00.420,SmartbBox,-0.134,0.066,-1.006,0,0,0.0,False
2019-11-11 08:27:00.440,SmartbBox,-0.136,0.007,-0.954,0,0,0.0,False
2019-11-11 08:27:00.460,SmartbBox,-0.13,-0.022,-1.09,0,0,0.0,False
2019-11-11 08:27:00.480,SmartbBox,-0.136,0.007,-0.954,0,0,0.0,False
2019-11-11 08:27:00.500,SmartbBox,-0.108,0.003,-0.958,0,0,0.0,False
2019-11-11 08:27:00.520,SmartbBox,-0.114,0.004,-1.01,0,0,0.0,False
2019-11-11 08:27:00.540,SmartbBox,-0.126,-0.023,-1.064,0,0,0.0,False
2019-11-11 08:27:00.560,SmartbBox,-0.079,-0.001,-0.962,0,0,0.0,False
2019-11-11 08:27:00.580,SmartbBox,-0.122,-0.024,-1.038,0,0,0.0,False
2019-11-11 08:27:00.600,SmartbBox,-0.118,0.005,-1.037,0,0,0.0,False
2019-11-11 08:27:00.620,SmartbBox,-0.114,0.004,-1.01,0,0,0.0,False
2019-11-11 08:27:00.640,SmartbBox,-0.09,0.001,-1.041,0,0,0.0,False
2019-11-11 08:27:00.660,SmartbBox,-0.118,0.005,-1.037,0,0,0.0,False
2019-11-11 08:27:00.680,SmartbBox,-0.122,-0.024,-1.038,0,0,0.0,False
2019-11-11 08:27:00.700,SmartbBox,-0.118,0.005,-1.037,0,0,0.0,False
2019-11-11 08:27:00.720,SmartbBox,-0.111,0.004,-0.984,0,0,0.0,False
2019-11-11 08:27:00.740,SmartbBox,-0.122,0.006,-1.064,0,0,0.0,False
2019-11-11 08:27:00.760,SmartbBox,-0.09,0.001,-1.041,0,0,0.0,False
2019-11-11 08:27:00.780,SmartbBox,-0.154,-0.019,-1.06,0,0,0.0,False
2019-11-11 08:27:00.800,SmartbBox,-0.118,0.005,-1.037,0,0,0.0,False
2019-11-11 08:27:00.820,SmartbBox,-0.093,0.032,-1.094,0,0,0.0,False
2019-11-11 08:27:00.840,SmartbBox,-0.118,0.005,-1.037,0,0,0.0,False
2019-11-11 08:27:00.860,SmartbBox,-0.086,0.0,-1.014,0,0,0.0,False
2019-11-11 08:27:00.880,SmartbBox,-0.101,-0.026,-1.094,0,0,0.0,False
2019-11-11 08:27:00.900,SmartbBox,-0.118,0.005,-1.037,0,0,0.0,False
2019-11-11 08:27:00.920,SmartbBox,-0.122,-0.024,-1.038,0,0,0.0,False
2019-11-11 08:27:00.940,SmartbBox,-0.089,0.031,-1.067,0,0,0.0,False
2019-11-11 08:27:00.960,SmartbBox,-0.094,-0.028,-1.042,0,0,0.0,False
2019-11-11 08:27:00.980,SmartbBox,-0.122,-0.024,-1.038,0,0,0.0,True
2019-11-11 08:27:01.000,SmartbBox,-0.118,-0.025,-1.011,0,0,0.0,False
2019-11-11 08:27:01.020,SmartbBox,-0.09,-0.029,-1.015,0,0,0.0,False
2019-11-11 08:27:01.040,SmartbBox,-0.122,-0.024,-1.038,0,0,0.0,False
2019-11-11 08:27:01.060,SmartbBox,-0.097,-0.027,-1.068,0,0,0.0,False
2019-11-11 08:27:01.080,SmartbBox,-0.115,-0.026,-0.985,0,0,0.0,False
2019-11-11 08:27:01.100,SmartbBox,-0.122,-0.024,-1.038,0,0,0.0,False
2019-11-11 08:27:01.120,SmartbBox,-0.114,0.004,-1.01,0,0,0.0,False
2019-11-11 08:27:01.140,SmartbBox,-0.107,0.032,-0.984,0,0,0.0,False
2019-11-11 08:27:01.160,SmartbBox,-0.086,-0.03,-0.988,0,0,0.0,False
2019-11-11 08:27:01.180,SmartbBox,-0.114,0.004,-1.01,0,0,0.0,False
2019-11-11 08:27:01.200,SmartbBox,-0.14,0.008,-0.98,0,0,0.0,False
2019-11-11 08:27:01.220,SmartbBox,-0.114,0.004,-1.01,0,0,0.0,False
2019-11-11 08:27:01.240,SmartbBox,-0.09,-0.028,-1.015,0,0,0.0,False
2019-11-11 08:27:01.260,SmartbBox,-0.114,0.004,-1.01,0,0,0.0,False
2019-11-11 08:27:01.280,SmartbBox,-0.082,0.029,-1.014,0,0,0.0,False
2019-11-11 08:27:01.300,SmartbBox,-0.122,-0.024,-1.038,0,0,0.0,False
2019-11-11 08:27:01.320,SmartbBox,-0.114,0.034,-1.036,0,0,0.0,False
2019-11-11 08:27:01.340,SmartbBox,-0.097,-0.027,-1.068,0,0,0.0,False
2019-11-11 08:27:01.360,SmartbBox,-0.107,0.003,-0.958,0,0,0.0,False
2019-11-11 08:27:01.380,SmartbBox,-0.13,-0.022,-1.09,0,0,0.0,False
2019-11-11 08:27:01.400,SmartbBox,-0.118,0.005,-1.037,0,0,0.0,False
2019-11-11 08:27:01.420,SmartbBox,-0.094,-0.028,-1.042,0,0,0.0,False
2019-11-11 08:27:01.440,SmartbBox,-0.15,-0.02,-1.034,0,0,0.0,False
2019-11-11 08:27:01.460,SmartbBox,-0.122,-0.024,-1.038,0,0,0.0,False
2019-11-11 08:27:01.480,SmartbBox,-0.118,0.005,-1.037,0,0,0.0,False
2019-11-11 08:27:01.500,SmartbBox,-0.114,0.034,-1.036,0,0,0.0,False
2019-11-11 08:27:01.520,SmartbBox,-0.111,0.003,-0.984,0,0,0.0,False
2019-11-11 08:27:01.540,SmartbBox,-0.114,0.034,-1.036,0,0,0.0,False
2019-11-11 08:27:01.560,SmartbBox,-0.114,0.004,-1.01,0,0,0.0,False
2019-11-11 08:27:01.580,SmartbBox,-0.093,0.002,-1.068,0,0,0.0,False
2019-11-11 08:27:01.600,SmartbBox,-0.114,0.004,-1.01,0,0,0.0,False
2019-11-11 08:27:01.620,SmartbBox,-0.093,0.002,-1.068,0,0,0.0,False
2019-11-11 08:27:01.640,SmartbBox,-0.118,0.005,-1.037,0,0,0.0,False
2019-11-11 08:27:01.660,SmartbBox,-0.114,0.034,-1.037,0,0,0.0,False
2019-11-11 08:27:01.680,SmartbBox,-0.114,0.034,-1.037,0,0,0.0,False
2019-11-11 08:27:01.700,SmartbBox,-0.143,0.008,-1.006,0,0,0.0,False
2019-11-11 08:27:01.720,SmartbBox,-0.15,0.04,-1.086,0,0,0.0,False
2019-11-11 08:27:01.740,SmartbBox,-0.09,0.031,-1.067,0,0,0.0,False
2019-11-11 08:27:01.760,SmartbBox,-0.122,0.006,-1.064,0,0,0.0,False
2019-11-11 08:27:01.780,SmartbBox,-0.142,0.068,-1.058,0,0,0.0,False
2019-11-11 08:27:01.800,SmartbBox,-0.086,0.0,-1.014,0,0,0.0,False
2019-11-11 08:27:01.820,SmartbBox,-0.126,-0.022,-1.064,0,0,0.0,False
2019-11-11 08:27:01.840,SmartbBox,-0.15,0.01,-1.06,0,0,0.0,False
2019-11-11 08:27:01.860,SmartbBox,-0.118,0.005,-1.037,0,0,0.0,False
2019-11-11 08:27:01.880,SmartbBox,-0.139,0.037,-1.006,0,0,0.0,False
2019-11-11 08:27:01.900,SmartbBox,-0.147,-0.021,-1.007,0,0,0.0,False
2019-11-11 08:27:01.920,SmartbBox,-0.114,0.004,-1.01,0,0,0.0,False
2019-11-11 08:27:01.940,SmartbBox,-0.132,0.035,-0.953,0,0,0.0,False
2019-11-11 08:27:01.960,SmartbBox,-0.082,-0.001,-0.988,0,0,0.0,False
2019-11-11 08:27:01.980,SmartbBox,-0.104,0.002,-0.931,0,0,0.0,False
2019-11-11 08:27:02.000,SmartbBox,-0.112,-0.026,-0.958,0,0,0.0,False
2019-11-11 08:27:02.020,SmartbBox,-0.108,-0.027,-0.932,0,0,0.0,False
2019-11-11 08:27:02.040,SmartbBox,-0.124,0.033,-0.9,0,0,0.0,False
2019-11-11 08:27:02.060,SmartbBox,-0.075,-0.032,-0.909,0,0,0.0,False
2019-11-11 08:27:02.080,SmartbBox,-0.128,0.005,-0.9,0,0,0.0,False
2019-11-11 08:27:02.100,SmartbBox,-0.108,-0.027,-0.932,0,0,0.0,False
2019-11-11 08:27:02.120,SmartbBox,-0.124,0.033,-0.9,0,0,0.0,False
2019-11-11 08:27:02.140,SmartbBox,-0.114,0.004,-1.01,0,0,0.0,False
2019-11-11 08:27:02.160,SmartbBox,-0.075,0.027,-0.961,0,0,0.0,False
2019-11-11 08:27:02.180,SmartbBox,-0.083,-0.03,-0.962,0,0,0.0,False
2019-11-11 08:27:02.200,SmartbBox,-0.111,0.003,-0.984,0,0,0.0,False
2019-11-11 08:27:02.220,SmartbBox,-0.114,0.004,-1.01,0,0,0.0,False
2019-11-11 08:27:02.240,SmartbBox,-0.09,0.001,-1.041,0,0,0.0,False
2019-11-11 08:27:02.260,SmartbBox,-0.094,-0.028,-1.042,0,0,0.0,False
2019-11-11 08:27:02.280,SmartbBox,-0.093,0.002,-1.068,0,0,0.0,False
2019-11-11 08:27:02.300,SmartbBox,-0.093,0.002,-1.068,0,0,0.0,False
2019-11-11 08:27:02.320,SmartbBox,-0.126,0.007,-1.09,0,0,0.0,False
2019-11-11 08:27:02.340,SmartbBox,-0.118,0.035,-1.063,0,0,0.0,False
2019-11-11 08:27:02.360,SmartbBox,-0.126,0.007,-1.09,0,0,0.0,False
2019-11-11 08:27:02.380,SmartbBox,-0.122,0.006,-1.064,0,0,0.0,False
2019-11-11 08:27:02.400,SmartbBox,-0.126,0.007,-1.09,0,0,0.0,False
2019-11-11 08:27:02.420,SmartbBox,-0.094,-0.028,-1.042,0,0,0.0,False
2019-11-11 08:27:02.440,SmartbBox,-0.125,0.007,-1.09,0,0,0.0,False
2019-11-11 08:27:02.460,SmartbBox,-0.118,0.005,-1.037,0,0,0.0,False
