UTC_timestamp,device_name,x,y,z,lat,long,speed,event
2019-10-27 16:12:55.480,SmartbBox,-0.028,0.065,-0.955,0,0,0.0,False
2019-10-27 16:12:55.500,SmartbBox,-0.056,0.05,-0.931,0,0,0.0,False
2019-10-27 16:12:55.520,SmartbBox,-0.018,0.041,-0.901,0,0,0.0,False
2019-10-27 16:12:55.540,SmartbBox,-0.03,0.065,-0.928,0,0,0.0,False
2019-10-27 16:12:55.560,SmartbBox,-0.001,0.017,-0.926,0,0,0.0,False
2019-10-27 16:12:55.580,SmartbBox,-0.015,0.041,-0.928,0,0,0.0,False
2019-10-27 16:12:55.600,SmartbBox,-0.006,0.017,-0.874,0,0,0.0,False
2019-10-27 16:12:55.620,SmartbBox,-0.028,0.002,-0.902,0,0,0.0,False
2019-10-27 16:12:55.640,SmartbBox,-0.003,0.017,-0.9,0,0,0.0,False
2019-10-27 16:12:55.660,SmartbBox,-0.035,0.066,-0.876,0,0,0.0,False
2019-10-27 16:12:55.680,SmartbBox,-0.03,0.065,-0.928,0,0,0.0,False
2019-10-27 16:12:55.700,SmartbBox,-0.018,0.041,-0.901,0,0,0.0,False
2019-10-27 16:12:55.720,SmartbBox,-0.015,0.041,-0.928,0,0,0.0,False
2019-10-27 16:12:55.740,SmartbBox,-0.001,0.017,-0.926,0,0,0.0,False
2019-10-27 16:12:55.760,SmartbBox,-0.003,0.017,-0.9,0,0,0.0,False
2019-10-27 16:12:55.780,SmartbBox,-0.02,0.042,-0.875,0,0,0.0,False
2019-10-27 16:12:55.800,SmartbBox,0.001,0.017,-0.952,0,0,0.0,False
2019-10-27 16:12:55.820,SmartbBox,-0.018,0.041,-0.901,0,0,0.0,False
2019-10-27 16:12:55.840,SmartbBox,-0.033,0.065,-0.902,0,0,0.0,False
2019-10-27 16:12:55.860,SmartbBox,-0.03,0.065,-0.928,0,0,0.0,False
2019-10-27 16:12:55.880,SmartbBox,-0.033,0.065,-0.902,0,0,0.0,False
2019-10-27 16:12:55.900,SmartbBox,-0.001,0.017,-0.926,0,0,0.0,False
2019-10-27 16:12:55.920,SmartbBox,-0.015,0.041,-0.928,0,0,0.0,False
2019-10-27 16:12:55.940,SmartbBox,0.022,0.032,-0.898,0,0,0.0,False
2019-10-27 16:12:55.960,SmartbBox,-0.003,0.017,-0.9,0,0,0.0,False
2019-10-27 16:12:55.980,SmartbBox,-0.006,0.017,-0.874,0,0,0.0,False
2019-10-27 16:12:56.000,SmartbBox,-0.037,0.066,-0.85,0,0,0.0,False
2019-10-27 16:12:56.020,SmartbBox,0.001,0.056,-0.82,0,0,0.0,False
2019-10-27 16:12:56.040,SmartbBox,-0.035,0.066,-0.876,0,0,0.0,False
2019-10-27 16:12:56.060,SmartbBox,-0.033,0.065,-0.902,0,0,0.0,False
2019-10-27 16:12:56.080,SmartbBox,-0.023,0.042,-0.848,0,0,0.0,False
2019-10-27 16:12:56.100,SmartbBox,-0.003,0.017,-0.9,0,0,0.0,False
2019-10-27 16:12:56.120,SmartbBox,-0.001,0.017,-0.926,0,0,0.0,False
2019-10-27 16:12:56.140,SmartbBox,0.009,-0.008,-0.872,0,0,0.0,False
2019-10-27 16:12:56.160,SmartbBox,0.022,0.032,-0.898,0,0,0.0,False
2019-10-27 16:12:56.180,SmartbBox,0.01,0.056,-0.926,0,0,0.0,False
2019-10-27 16:12:56.200,SmartbBox,0.034,0.072,-0.924,0,0,0.0,False
2019-10-27 16:12:56.220,SmartbBox,-0.003,0.08,-0.953,0,0,0.0,False
2019-10-27 16:12:56.240,SmartbBox,-0.033,0.065,-0.902,0,0,0.0,False
2019-10-27 16:12:56.260,SmartbBox,-0.033,0.065,-0.902,0,0,0.0,False
2019-10-27 16:12:56.280,SmartbBox,0.001,0.017,-0.952,0,0,0.0,False
2019-10-27 16:12:56.300,SmartbBox,-0.018,0.041,-0.901,0,0,0.0,False
2019-10-27 16:12:56.320,SmartbBox,-0.001,0.017,-0.926,0,0,0.0,False
2019-10-27 16:12:56.340,SmartbBox,-0.001,0.017,-0.926,0,0,0.0,False
2019-10-27 16:12:56.360,SmartbBox,0.049,0.047,-0.922,0,0,0.0,False
2019-10-27 16:12:56.380,SmartbBox,0.007,0.056,-0.899,0,0,0.0,False
2019-10-27 16:12:56.400,SmartbBox,0.02,0.096,-0.924,0,0,0.0,False
2019-10-27 16:12:56.420,SmartbBox,-0.032,0.066,-0.902,0,0,0.0,False
2019-10-27 16:12:56.440,SmartbBox,0.007,0.056,-0.899,0,0,0.0,False
2019-10-27 16:12:56.460,SmartbBox,-0.001,0.017,-0.926,0,0,0.0,False
2019-10-27 16:12:56.480,SmartbBox,-0.018,0.042,-0.901,0,0,0.0,False
2019-10-27 16:12:56.500,SmartbBox,-0.001,0.017,-0.926,0,0,0.0,False
2019-10-27 16:12:56.520,SmartbBox,0.022,0.032,-0.898,0,0,0.0,False
2019-10-27 16:12:56.540,SmartbBox,0.051,0.047,-0.948,0,0,0.0,False
2019-10-27 16:12:56.560,SmartbBox,0.062,0.086,-0.948,0,0,0.0,False
2019-10-27 16:12:56.580,SmartbBox,0.034,0.072,-0.924,0,0,0.0,False
2019-10-27 16:12:56.600,SmartbBox,0.009,0.056,-0.925,0,0,0.0,False
2019-10-27 16:12:56.620,SmartbBox,0.013,0.056,-0.978,0,0,0.0,False
2019-10-27 16:12:56.640,SmartbBox,-0.008,0.08,-0.9,0,0,0.0,False
2019-10-27 16:12:56.660,SmartbBox,-0.016,0.041,-0.927,0,0,0.0,False
2019-10-27 16:12:56.680,SmartbBox,-0.018,0.041,-0.901,0,0,0.0,False
2019-10-27 16:12:56.700,SmartbBox,-0.008,0.017,-0.847,0,0,0.0,False
2019-10-27 16:12:56.720,SmartbBox,0.022,0.032,-0.898,0,0,0.0,False
2019-10-27 16:12:56.740,SmartbBox,0.02,0.096,-0.924,0,0,0.0,False
2019-10-27 16:12:56.760,SmartbBox,-0.005,0.08,-0.926,0,0,0.0,False
2019-10-27 16:12:56.780,SmartbBox,0.036,0.072,-0.95,0,0,0.0,False
2019-10-27 16:12:56.800,SmartbBox,-0.003,0.08,-0.953,0,0,0.0,False
2019-10-27 16:12:56.820,SmartbBox,-0.003,0.08,-0.953,0,0,0.0,False
2019-10-27 16:12:56.840,SmartbBox,-0.001,0.017,-0.926,0,0,0.0,False
2019-10-27 16:12:56.860,SmartbBox,0.02,0.032,-0.871,0,0,0.0,False
2019-10-27 16:12:56.880,SmartbBox,-0.001,0.017,-0.926,0,0,0.0,False
2019-10-27 16:12:56.900,SmartbBox,-0.006,0.017,-0.874,0,0,0.0,False
2019-10-27 16:12:56.920,SmartbBox,-0.018,0.041,-0.901,0,0,0.0,False
2019-10-27 16:12:56.940,SmartbBox,-0.035,0.066,-0.876,0,0,0.0,False
2019-10-27 16:12:56.960,SmartbBox,-0.033,0.065,-0.902,0,0,0.0,False
2019-10-27 16:12:56.980,SmartbBox,-0.03,0.065,-0.928,0,0,0.0,True
2019-10-27 16:12:57.000,SmartbBox,-0.033,0.065,-0.902,0,0,0.0,False
2019-10-27 16:12:57.020,SmartbBox,-0.018,0.041,-0.901,0,0,0.0,False
2019-10-27 16:12:57.040,SmartbBox,-0.003,0.017,-0.9,0,0,0.0,False
2019-10-27 16:12:57.060,SmartbBox,-0.02,0.042,-0.875,0,0,0.0,False
2019-10-27 16:12:57.080,SmartbBox,-0.035,0.002,-0.824,0,0,0.0,False
2019-10-27 16:12:57.100,SmartbBox,-0.038,-0.038,-0.902,0,0,0.0,False
2019-10-27 16:12:57.120,SmartbBox,-0.06,0.05,-0.879,0,0,0.0,False
2019-10-27 16:12:57.140,SmartbBox,-0.037,0.066,-0.85,0,0,0.0,False
2019-10-27 16:12:57.160,SmartbBox,-0.06,0.05,-0.879,0,0,0.0,False
2019-10-27 16:12:57.180,SmartbBox,-0.033,0.065,-0.902,0,0,0.0,False
2019-10-27 16:12:57.200,SmartbBox,-0.006,0.017,-0.874,0,0,0.0,False
2019-10-27 16:12:57.220,SmartbBox,-0.018,0.041,-0.901,0,0,0.0,False
2019-10-27 16:12:57.240,SmartbBox,-0.003,0.017,-0.9,0,0,0.0,False
2019-10-27 16:12:57.260,SmartbBox,-0.003,0.017,-0.9,0,0,0.0,False
2019-10-27 16:12:57.280,SmartbBox,-0.03,0.002,-0.876,0,0,0.0,False
2019-10-27 16:12:57.300,SmartbBox,-0.033,0.002,-0.849,0,0,0.0,False
2019-10-27 16:12:57.320,SmartbBox,-0.033,0.002,-0.849,0,0,0.0,False
2019-10-27 16:12:57.340,SmartbBox,-0.062,0.05,-0.852,0,0,0.0,False
2019-10-27 16:12:57.360,SmartbBox,-0.06,0.05,-0.878,0,0,0.0,False
2019-10-27 16:12:57.380,SmartbBox,-0.016,0.041,-0.927,0,0,0.0,False
2019-10-27 16:12:57.400,SmartbBox,-0.057,0.05,-0.905,0,0,0.0,False
2019-10-27 16:12:57.420,SmartbBox,-0.001,0.017,-0.926,0,0,0.0,False
2019-10-27 16:12:57.440,SmartbBox,-0.001,0.017,-0.926,0,0,0.0,False
2019-10-27 16:12:57.460,SmartbBox,-0.003,0.017,-0.9,0,0,0.0,False
2019-10-27 16:12:57.480,SmartbBox,-0.013,0.041,-0.954,0,0,0.0,False
2019-10-27 16:12:57.500,SmartbBox,-0.038,0.026,-0.956,0,0,0.0,False
2019-10-27 16:12:57.520,SmartbBox,-0.03,0.065,-0.928,0,0,0.0,False
2019-10-27 16:12:57.540,SmartbBox,-0.08,0.035,-0.933,0,0,0.0,False
2019-10-27 16:12:57.560,SmartbBox,-0.057,0.05,-0.905,0,0,0.0,False
2019-10-27 16:12:57.580,SmartbBox,-0.064,0.011,-0.958,0,0,0.0,False
2019-10-27 16:12:57.600,SmartbBox,-0.038,0.026,-0.956,0,0,0.0,False
2019-10-27 16:12:57.620,SmartbBox,0.001,0.017,-0.952,0,0,0.0,False
2019-10-27 16:12:57.640,SmartbBox,-0.016,0.041,-0.927,0,0,0.0,False
2019-10-27 16:12:57.660,SmartbBox,-0.03,0.002,-0.876,0,0,0.0,False
2019-10-27 16:12:57.680,SmartbBox,-0.006,0.017,-0.874,0,0,0.0,False
2019-10-27 16:12:57.700,SmartbBox,-0.03,0.002,-0.876,0,0,0.0,False
2019-10-27 16:12:57.720,SmartbBox,-0.028,0.065,-0.955,0,0,0.0,False
2019-10-27 16:12:57.740,SmartbBox,-0.053,0.05,-0.957,0,0,0.0,False
2019-10-27 16:12:57.760,SmartbBox,-0.013,0.041,-0.954,0,0,0.0,False
2019-10-27 16:12:57.780,SmartbBox,-0.026,0.002,-0.929,0,0,0.0,False
2019-10-27 16:12:57.800,SmartbBox,-0.055,-0.014,-0.878,0,0,0.0,False
2019-10-27 16:12:57.820,SmartbBox,-0.039,0.066,-0.824,0,0,0.0,False
2019-10-27 16:12:57.840,SmartbBox,-0.024,0.002,-0.955,0,0,0.0,False
2019-10-27 16:12:57.860,SmartbBox,-0.028,0.002,-0.902,0,0,0.0,False
2019-10-27 16:12:57.880,SmartbBox,-0.04,0.026,-0.93,0,0,0.0,False
2019-10-27 16:12:57.900,SmartbBox,-0.043,0.026,-0.904,0,0,0.0,False
2019-10-27 16:12:57.920,SmartbBox,-0.033,0.065,-0.902,0,0,0.0,False
2019-10-27 16:12:57.940,SmartbBox,-0.057,-0.014,-0.852,0,0,0.0,False
2019-10-27 16:12:57.960,SmartbBox,-0.022,0.042,-0.848,0,0,0.0,False
2019-10-27 16:12:57.980,SmartbBox,-0.045,0.026,-0.877,0,0,0.0,False
2019-10-27 16:12:58.000,SmartbBox,-0.038,0.026,-0.956,0,0,0.0,False
2019-10-27 16:12:58.020,SmartbBox,-0.04,0.026,-0.93,0,0,0.0,False
2019-10-27 16:12:58.040,SmartbBox,-0.003,0.017,-0.9,0,0,0.0,False
2019-10-27 16:12:58.060,SmartbBox,-0.018,0.041,-0.901,0,0,0.0,False
2019-10-27 16:12:58.080,SmartbBox,-0.06,0.05,-0.878,0,0,0.0,False
2019-10-27 16:12:58.100,SmartbBox,-0.006,0.08,-0.926,0,0,0.0,False
2019-10-27 16:12:58.120,SmartbBox,-0.053,0.05,-0.957,0,0,0.0,False
2019-10-27 16:12:58.140,SmartbBox,-0.064,0.011,-0.958,0,0,0.0,False
2019-10-27 16:12:58.160,SmartbBox,-0.055,-0.014,-0.878,0,0,0.0,False
2019-10-27 16:12:58.180,SmartbBox,0.001,-0.047,-0.899,0,0,0.0,False
2019-10-27 16:12:58.200,SmartbBox,-0.056,0.05,-0.931,0,0,0.0,False
2019-10-27 16:12:58.220,SmartbBox,-0.033,0.002,-0.849,0,0,0.0,False
2019-10-27 16:12:58.240,SmartbBox,-0.02,0.042,-0.875,0,0,0.0,False
2019-10-27 16:12:58.260,SmartbBox,-0.057,0.05,-0.905,0,0,0.0,False
2019-10-27 16:12:58.280,SmartbBox,-0.03,0.065,-0.928,0,0,0.0,False
2019-10-27 16:12:58.300,SmartbBox,-0.034,0.066,-0.876,0,0,0.0,False
2019-10-27 16:12:58.320,SmartbBox,-0.067,0.011,-0.906,0,0,0.0,False
2019-10-27 16:12:58.340,SmartbBox,-0.057,0.05,-0.905,0,0,0.0,False
2019-10-27 16:12:58.360,SmartbBox,-0.026,0.002,-0.928,0,0,0.0,False
2019-10-27 16:12:58.380,SmartbBox,-0.053,-0.014,-0.904,0,0,0.0,False
2019-10-27 16:12:58.400,SmartbBox,-0.03,0.002,-0.876,0,0,0.0,False
2019-10-27 16:12:58.420,SmartbBox,-0.003,0.017,-0.9,0,0,0.0,False
2019-10-27 16:12:58.440,SmartbBox,-0.045,0.026,-0.877,0,0,0.0,False
2019-10-27 16:12:58.460,SmartbBox,-0.04,0.026,-0.93,0,0,0.0,False
