UTC_timestamp,device_name,x,y,z,lat,long,speed,event
2019-10-22 10:09:42.480,SmartbBox,-0.126,0.005,-0.99,0,0,0.0,False
2019-10-22 10:09:42.500,SmartbBox,-0.109,-0.02,-1.014,0,0,0.0,False
2019-10-22 10:09:42.520,SmartbBox,-0.161,-0.05,-0.992,0,0,0.0,False
2019-10-22 10:09:42.540,SmartbBox,-0.069,-0.029,-1.011,0,0,0.0,False
2019-10-22 10:09:42.560,SmartbBox,-0.107,-0.02,-1.041,0,0,0.0,False
2019-10-22 10:09:42.580,SmartbBox,-0.126,0.005,-0.99,0,0,0.0,False
2019-10-22 10:09:42.600,SmartbBox,-0.111,-0.02,-0.988,0,0,0.0,False
2019-10-22 10:09:42.620,SmartbBox,-0.098,0.02,-1.014,0,0,0.0,False
2019-10-22 10:09:42.640,SmartbBox,-0.152,-0.01,-0.966,0,0,0.0,False
2019-10-22 10:09:42.660,SmartbBox,-0.109,-0.02,-1.014,0,0,0.0,False
2019-10-22 10:09:42.680,SmartbBox,-0.124,-0.059,-0.963,0,0,0.0,False
2019-10-22 10:09:42.700,SmartbBox,-0.126,0.005,-0.99,0,0,0.0,False
2019-10-22 10:09:42.720,SmartbBox,-0.155,-0.01,-0.939,0,0,0.0,False
2019-10-22 10:09:42.740,SmartbBox,-0.096,-0.044,-0.987,0,0,0.0,False
2019-10-22 10:09:42.760,SmartbBox,-0.151,-0.01,-0.992,0,0,0.0,False
2019-10-22 10:09:42.780,SmartbBox,-0.113,-0.02,-0.962,0,0,0.0,False
2019-10-22 10:09:42.800,SmartbBox,-0.126,0.005,-0.99,0,0,0.0,False
2019-10-22 10:09:42.820,SmartbBox,-0.126,0.005,-0.99,0,0,0.0,False
2019-10-22 10:09:42.840,SmartbBox,-0.13,0.005,-0.937,0,0,0.0,False
2019-10-22 10:09:42.860,SmartbBox,-0.148,-0.01,-1.018,0,0,0.0,False
2019-10-22 10:09:42.880,SmartbBox,-0.126,0.005,-0.99,0,0,0.0,False
2019-10-22 10:09:42.900,SmartbBox,-0.178,-0.025,-0.968,0,0,0.0,False
2019-10-22 10:09:42.920,SmartbBox,-0.148,-0.01,-1.018,0,0,0.0,False
2019-10-22 10:09:42.940,SmartbBox,-0.148,-0.01,-1.018,0,0,0.0,False
2019-10-22 10:09:42.960,SmartbBox,-0.132,-0.034,-1.043,0,0,0.0,False
2019-10-22 10:09:42.980,SmartbBox,-0.126,0.005,-0.99,0,0,0.0,False
2019-10-22 10:09:43.000,SmartbBox,-0.126,0.005,-0.99,0,0,0.0,False
2019-10-22 10:09:43.020,SmartbBox,-0.124,0.005,-1.016,0,0,0.0,False
2019-10-22 10:09:43.040,SmartbBox,-0.115,0.045,-0.989,0,0,0.0,False
2019-10-22 10:09:43.060,SmartbBox,-0.163,0.014,-1.019,0,0,0.0,False
2019-10-22 10:09:43.080,SmartbBox,-0.128,0.005,-0.963,0,0,0.0,False
2019-10-22 10:09:43.100,SmartbBox,-0.126,0.005,-0.99,0,0,0.0,False
2019-10-22 10:09:43.120,SmartbBox,-0.148,-0.01,-1.018,0,0,0.0,False
2019-10-22 10:09:43.140,SmartbBox,-0.151,-0.01,-0.992,0,0,0.0,False
2019-10-22 10:09:43.160,SmartbBox,-0.114,-0.02,-0.962,0,0,0.0,False
2019-10-22 10:09:43.180,SmartbBox,-0.128,0.005,-0.963,0,0,0.0,False
2019-10-22 10:09:43.200,SmartbBox,-0.107,0.02,-0.909,0,0,0.0,False
2019-10-22 10:09:43.220,SmartbBox,-0.084,-0.004,-1.013,0,0,0.0,False
2019-10-22 10:09:43.240,SmartbBox,-0.184,-0.001,-1.074,0,0,0.0,False
2019-10-22 10:09:43.260,SmartbBox,-0.169,0.014,-0.94,0,0,0.0,False
2019-10-22 10:09:43.280,SmartbBox,-0.143,0.03,-0.964,0,0,0.0,False
2019-10-22 10:09:43.300,SmartbBox,-0.138,0.03,-1.018,0,0,0.0,False
2019-10-22 10:09:43.320,SmartbBox,-0.163,0.014,-1.019,0,0,0.0,False
2019-10-22 10:09:43.340,SmartbBox,-0.136,-0.034,-0.99,0,0,0.0,False
2019-10-22 10:09:43.360,SmartbBox,-0.116,-0.02,-0.936,0,0,0.0,False
2019-10-22 10:09:43.380,SmartbBox,-0.04,-0.014,-1.062,0,0,0.0,False
2019-10-22 10:09:43.400,SmartbBox,-0.092,-0.044,-1.04,0,0,0.0,False
2019-10-22 10:09:43.420,SmartbBox,-0.114,-0.02,-0.962,0,0,0.0,False
2019-10-22 10:09:43.440,SmartbBox,-0.157,-0.01,-0.913,0,0,0.0,False
2019-10-22 10:09:43.460,SmartbBox,-0.13,0.005,-0.937,0,0,0.0,False
2019-10-22 10:09:43.480,SmartbBox,-0.13,0.005,-0.937,0,0,0.0,False
2019-10-22 10:09:43.500,SmartbBox,-0.153,-0.01,-0.966,0,0,0.0,False
2019-10-22 10:09:43.520,SmartbBox,-0.126,0.005,-0.99,0,0,0.0,False
2019-10-22 10:09:43.540,SmartbBox,-0.18,-0.025,-0.942,0,0,0.0,False
2019-10-22 10:09:43.560,SmartbBox,-0.116,-0.02,-0.936,0,0,0.0,False
2019-10-22 10:09:43.580,SmartbBox,-0.114,-0.02,-0.962,0,0,0.0,False
2019-10-22 10:09:43.600,SmartbBox,-0.126,0.005,-0.99,0,0,0.0,False
2019-10-22 10:09:43.620,SmartbBox,-0.107,0.02,-0.909,0,0,0.0,False
2019-10-22 10:09:43.640,SmartbBox,-0.118,0.045,-0.962,0,0,0.0,False
2019-10-22 10:09:43.660,SmartbBox,-0.13,0.005,-0.937,0,0,0.0,False
2019-10-22 10:09:43.680,SmartbBox,-0.121,0.005,-1.042,0,0,0.0,False
2019-10-22 10:09:43.700,SmartbBox,-0.161,0.014,-1.046,0,0,0.0,False
2019-10-22 10:09:43.720,SmartbBox,-0.123,0.005,-1.016,0,0,0.0,False
2019-10-22 10:09:43.740,SmartbBox,-0.126,0.005,-0.99,0,0,0.0,False
2019-10-22 10:09:43.760,SmartbBox,-0.082,-0.005,-1.039,0,0,0.0,False
2019-10-22 10:09:43.780,SmartbBox,-0.123,0.005,-1.016,0,0,0.0,False
2019-10-22 10:09:43.800,SmartbBox,-0.098,0.02,-1.014,0,0,0.0,False
2019-10-22 10:09:43.820,SmartbBox,-0.096,0.02,-1.04,0,0,0.0,False
2019-10-22 10:09:43.840,SmartbBox,-0.148,-0.01,-1.018,0,0,0.0,False
2019-10-22 10:09:43.860,SmartbBox,-0.151,-0.01,-0.992,0,0,0.0,False
2019-10-22 10:09:43.880,SmartbBox,-0.126,0.005,-0.99,0,0,0.0,False
2019-10-22 10:09:43.900,SmartbBox,-0.148,-0.01,-1.018,0,0,0.0,False
2019-10-22 10:09:43.920,SmartbBox,-0.153,-0.01,-0.966,0,0,0.0,False
2019-10-22 10:09:43.940,SmartbBox,-0.114,-0.02,-0.962,0,0,0.0,False
2019-10-22 10:09:43.960,SmartbBox,-0.1,0.02,-0.988,0,0,0.0,False
2019-10-22 10:09:43.980,SmartbBox,-0.128,0.005,-0.963,0,0,0.0,True
2019-10-22 10:09:44.000,SmartbBox,-0.126,0.005,-0.99,0,0,0.0,False
2019-10-22 10:09:44.020,SmartbBox,-0.128,0.005,-0.963,0,0,0.0,False
2019-10-22 10:09:44.040,SmartbBox,-0.14,0.03,-0.991,0,0,0.0,False
2019-10-22 10:09:44.060,SmartbBox,-0.128,0.005,-0.963,0,0,0.0,False
2019-10-22 10:09:44.080,SmartbBox,-0.155,-0.01,-0.939,0,0,0.0,False
2019-10-22 10:09:44.100,SmartbBox,-0.111,-0.02,-0.988,0,0,0.0,False
2019-10-22 10:09:44.120,SmartbBox,-0.128,0.005,-0.964,0,0,0.0,False
2019-10-22 10:09:44.140,SmartbBox,-0.086,-0.004,-0.986,0,0,0.0,False
2019-10-22 10:09:44.160,SmartbBox,-0.126,0.005,-0.99,0,0,0.0,False
2019-10-22 10:09:44.180,SmartbBox,-0.1,0.02,-0.988,0,0,0.0,False
2019-10-22 10:09:44.200,SmartbBox,-0.126,0.005,-0.99,0,0,0.0,False
2019-10-22 10:09:44.220,SmartbBox,-0.128,0.005,-0.963,0,0,0.0,False
2019-10-22 10:09:44.240,SmartbBox,-0.128,0.005,-0.963,0,0,0.0,False
2019-10-22 10:09:44.260,SmartbBox,-0.128,0.005,-0.963,0,0,0.0,False
2019-10-22 10:09:44.280,SmartbBox,-0.126,0.005,-0.99,0,0,0.0,False
2019-10-22 10:09:44.300,SmartbBox,-0.126,0.005,-0.99,0,0,0.0,False
2019-10-22 10:09:44.320,SmartbBox,-0.128,0.005,-0.963,0,0,0.0,False
2019-10-22 10:09:44.340,SmartbBox,-0.123,0.005,-1.016,0,0,0.0,False
2019-10-22 10:09:44.360,SmartbBox,-0.128,0.005,-0.963,0,0,0.0,False
2019-10-22 10:09:44.380,SmartbBox,-0.13,0.005,-0.937,0,0,0.0,False
2019-10-22 10:09:44.400,SmartbBox,-0.123,0.005,-1.016,0,0,0.0,False
2019-10-22 10:09:44.420,SmartbBox,-0.13,0.005,-0.937,0,0,0.0,False
2019-10-22 10:09:44.440,SmartbBox,-0.101,0.02,-0.988,0,0,0.0,False
2019-10-22 10:09:44.460,SmartbBox,-0.128,0.005,-0.963,0,0,0.0,False
2019-10-22 10:09:44.480,SmartbBox,-0.114,-0.02,-0.962,0,0,0.0,False
2019-10-22 10:09:44.500,SmartbBox,-0.128,0.005,-0.963,0,0,0.0,False
2019-10-22 10:09:44.520,SmartbBox,-0.101,0.02,-0.988,0,0,0.0,False
2019-10-22 10:09:44.540,SmartbBox,-0.126,0.005,-0.99,0,0,0.0,False
2019-10-22 10:09:44.560,SmartbBox,-0.098,0.02,-1.014,0,0,0.0,False
2019-10-22 10:09:44.580,SmartbBox,-0.09,-0.005,-0.934,0,0,0.0,False
2019-10-22 10:09:44.600,SmartbBox,-0.114,-0.02,-0.962,0,0,0.0,False
2019-10-22 10:09:44.620,SmartbBox,-0.126,0.005,-0.99,0,0,0.0,False
2019-10-22 10:09:44.640,SmartbBox,-0.132,0.005,-0.911,0,0,0.0,False
2019-10-22 10:09:44.660,SmartbBox,-0.074,-0.029,-0.959,0,0,0.0,False
2019-10-22 10:09:44.680,SmartbBox,-0.1,0.02,-0.988,0,0,0.0,False
2019-10-22 10:09:44.700,SmartbBox,-0.082,-0.004,-1.038,0,0,0.0,False
2019-10-22 10:09:44.720,SmartbBox,-0.118,0.045,-0.962,0,0,0.0,False
2019-10-22 10:09:44.740,SmartbBox,-0.076,0.035,-0.986,0,0,0.0,False
2019-10-22 10:09:44.760,SmartbBox,-0.093,0.06,-0.96,0,0,0.0,False
2019-10-22 10:09:44.780,SmartbBox,-0.074,0.035,-1.012,0,0,0.0,False
2019-10-22 10:09:44.800,SmartbBox,-0.064,0.011,-0.958,0,0,0.0,False
2019-10-22 10:09:44.820,SmartbBox,-0.076,0.035,-0.986,0,0,0.0,False
2019-10-22 10:09:44.840,SmartbBox,-0.062,0.011,-0.984,0,0,0.0,False
2019-10-22 10:09:44.860,SmartbBox,-0.061,0.011,-0.984,0,0,0.0,False
2019-10-22 10:09:44.880,SmartbBox,-0.076,0.035,-0.986,0,0,0.0,False
2019-10-22 10:09:44.900,SmartbBox,-0.076,0.035,-0.986,0,0,0.0,False
2019-10-22 10:09:44.920,SmartbBox,-0.026,0.065,-0.982,0,0,0.0,False
2019-10-22 10:09:44.940,SmartbBox,0.001,0.08,-1.006,0,0,0.0,False
2019-10-22 10:09:44.960,SmartbBox,0.051,0.111,-1.001,0,0,0.0,False
2019-10-22 10:09:44.980,SmartbBox,-0.026,0.065,-0.982,0,0,0.0,False
2019-10-22 10:09:45.000,SmartbBox,-0.028,0.065,-0.955,0,0,0.0,False
2019-10-22 10:09:45.020,SmartbBox,-0.03,0.065,-0.928,0,0,0.0,False
2019-10-22 10:09:45.040,SmartbBox,-0.078,0.035,-0.959,0,0,0.0,False
2019-10-22 10:09:45.060,SmartbBox,-0.064,0.011,-0.958,0,0,0.0,False
2019-10-22 10:09:45.080,SmartbBox,-0.061,0.011,-0.984,0,0,0.0,False
2019-10-22 10:09:45.100,SmartbBox,-0.089,0.06,-1.013,0,0,0.0,False
2019-10-22 10:09:45.120,SmartbBox,-0.049,0.05,-1.01,0,0,0.0,False
2019-10-22 10:09:45.140,SmartbBox,-0.053,0.05,-0.957,0,0,0.0,False
2019-10-22 10:09:45.160,SmartbBox,-0.024,0.065,-1.008,0,0,0.0,False
2019-10-22 10:09:45.180,SmartbBox,-0.024,0.065,-1.008,0,0,0.0,False
2019-10-22 10:09:45.200,SmartbBox,0.03,0.032,-1.002,0,0,0.0,False
2019-10-22 10:09:45.220,SmartbBox,-0.009,0.04,-1.006,0,0,0.0,False
2019-10-22 10:09:45.240,SmartbBox,-0.028,0.065,-0.955,0,0,0.0,False
2019-10-22 10:09:45.260,SmartbBox,-0.048,0.05,-1.01,0,0,0.0,False
2019-10-22 10:09:45.280,SmartbBox,-0.078,0.035,-0.959,0,0,0.0,False
2019-10-22 10:09:45.300,SmartbBox,-0.078,0.035,-0.959,0,0,0.0,False
2019-10-22 10:09:45.320,SmartbBox,-0.076,0.035,-0.986,0,0,0.0,False
2019-10-22 10:09:45.340,SmartbBox,-0.051,0.05,-0.984,0,0,0.0,False
2019-10-22 10:09:45.360,SmartbBox,-0.053,0.05,-0.957,0,0,0.0,False
2019-10-22 10:09:45.380,SmartbBox,-0.011,0.04,-0.98,0,0,0.0,False
2019-10-22 10:09:45.400,SmartbBox,-0.009,0.04,-1.006,0,0,0.0,False
2019-10-22 10:09:45.420,SmartbBox,-0.009,0.04,-1.006,0,0,0.0,False
2019-10-22 10:09:45.440,SmartbBox,-0.028,0.065,-0.955,0,0,0.0,False
2019-10-22 10:09:45.460,SmartbBox,-0.026,0.065,-0.982,0,0,0.0,False
