UTC_timestamp,device_name,x,y,z,lat,long,speed,event
2019-11-08 08:37:53.480,SmartbBox,0.035,-0.017,-0.978,0,0,0.0,False
2019-11-08 08:37:53.500,SmartbBox,-0.03,-0.038,-0.996,0,0,0.0,False
2019-11-08 08:37:53.520,SmartbBox,0.034,-0.047,-0.952,0,0,0.0,False
2019-11-08 08:37:53.540,SmartbBox,0.024,-0.015,-1.057,0,0,0.0,False
2019-11-08 08:37:53.560,SmartbBox,0.028,-0.046,-1.004,0,0,0.0,False
2019-11-08 08:37:53.580,SmartbBox,0.032,0.013,-1.03,0,0,0.0,False
2019-11-08 08:37:53.600,SmartbBox,0.035,-0.017,-0.978,0,0,0.0,False
2019-11-08 08:37:53.620,SmartbBox,0.035,-0.017,-0.978,0,0,0.0,False
2019-11-08 08:37:53.640,SmartbBox,0.028,-0.016,-1.03,0,0,0.0,False
2019-11-08 08:37:53.660,SmartbBox,0.024,-0.045,-1.031,0,0,0.0,False
2019-11-08 08:37:53.680,SmartbBox,0.024,-0.075,-1.005,0,0,0.0,False
2019-11-08 08:37:53.700,SmartbBox,0.032,-0.016,-1.004,0,0,0.0,False
2019-11-08 08:37:53.720,SmartbBox,0.032,-0.017,-1.004,0,0,0.0,False
2019-11-08 08:37:53.740,SmartbBox,0.028,-0.046,-1.004,0,0,0.0,False
2019-11-08 08:37:53.760,SmartbBox,0.024,-0.044,-1.031,0,0,0.0,False
2019-11-08 08:37:53.780,SmartbBox,0.024,-0.015,-1.057,0,0,0.0,False
2019-11-08 08:37:53.800,SmartbBox,0.023,-0.044,-1.031,0,0,0.0,False
2019-11-08 08:37:53.820,SmartbBox,0.024,-0.045,-1.031,0,0,0.0,False
2019-11-08 08:37:53.840,SmartbBox,0.032,0.013,-1.03,0,0,0.0,False
2019-11-08 08:37:53.860,SmartbBox,0.02,-0.044,-1.058,0,0,0.0,False
2019-11-08 08:37:53.880,SmartbBox,0.003,0.017,-1.026,0,0,0.0,False
2019-11-08 08:37:53.900,SmartbBox,0.024,-0.045,-1.031,0,0,0.0,False
2019-11-08 08:37:53.920,SmartbBox,0.028,-0.046,-1.004,0,0,0.0,False
2019-11-08 08:37:53.940,SmartbBox,0.024,-0.045,-1.031,0,0,0.0,False
2019-11-08 08:37:53.960,SmartbBox,-0.001,-0.041,-1.0,0,0,0.0,False
2019-11-08 08:37:53.980,SmartbBox,0.024,-0.045,-1.031,0,0,0.0,False
2019-11-08 08:37:54.000,SmartbBox,0.003,-0.013,-1.0,0,0,0.0,False
2019-11-08 08:37:54.020,SmartbBox,0.01,0.015,-0.973,0,0,0.0,False
2019-11-08 08:37:54.040,SmartbBox,0.036,-0.018,-0.978,0,0,0.0,False
2019-11-08 08:37:54.060,SmartbBox,0.028,-0.046,-1.004,0,0,0.0,False
2019-11-08 08:37:54.080,SmartbBox,-0.001,-0.041,-1.0,0,0,0.0,False
2019-11-08 08:37:54.100,SmartbBox,0.003,-0.042,-0.974,0,0,0.0,False
2019-11-08 08:37:54.120,SmartbBox,0.036,0.012,-1.004,0,0,0.0,False
2019-11-08 08:37:54.140,SmartbBox,0.003,0.017,-1.026,0,0,0.0,False
2019-11-08 08:37:54.160,SmartbBox,0.006,-0.043,-0.948,0,0,0.0,False
2019-11-08 08:37:54.180,SmartbBox,0.034,-0.047,-0.952,0,0,0.0,False
2019-11-08 08:37:54.200,SmartbBox,0.007,0.016,-1.0,0,0,0.0,False
2019-11-08 08:37:54.220,SmartbBox,0.006,-0.014,-0.974,0,0,0.0,False
2019-11-08 08:37:54.240,SmartbBox,0.028,-0.016,-1.03,0,0,0.0,False
2019-11-08 08:37:54.260,SmartbBox,0.003,0.017,-1.026,0,0,0.0,False
2019-11-08 08:37:54.280,SmartbBox,0.039,0.011,-0.977,0,0,0.0,False
2019-11-08 08:37:54.300,SmartbBox,0.043,0.01,-0.95,0,0,0.0,False
2019-11-08 08:37:54.320,SmartbBox,0.002,-0.042,-0.974,0,0,0.0,False
2019-11-08 08:37:54.340,SmartbBox,-0.022,0.02,-0.996,0,0,0.0,False
2019-11-08 08:37:54.360,SmartbBox,-0.026,-0.038,-0.97,0,0,0.0,False
2019-11-08 08:37:54.380,SmartbBox,-0.001,-0.012,-1.026,0,0,0.0,False
2019-11-08 08:37:54.400,SmartbBox,0.0,0.018,-1.052,0,0,0.0,False
2019-11-08 08:37:54.420,SmartbBox,0.028,-0.016,-1.03,0,0,0.0,False
2019-11-08 08:37:54.440,SmartbBox,0.003,-0.012,-1.0,0,0,0.0,False
2019-11-08 08:37:54.460,SmartbBox,0.008,0.016,-1.0,0,0,0.0,False
2019-11-08 08:37:54.480,SmartbBox,-0.012,-0.039,-1.08,0,0,0.0,False
2019-11-08 08:37:54.500,SmartbBox,-0.034,-0.066,-0.997,0,0,0.0,False
2019-11-08 08:37:54.520,SmartbBox,-0.012,-0.039,-1.08,0,0,0.0,False
2019-11-08 08:37:54.540,SmartbBox,-0.005,-0.04,-1.027,0,0,0.0,False
2019-11-08 08:37:54.560,SmartbBox,-0.033,-0.037,-1.023,0,0,0.0,False
2019-11-08 08:37:54.580,SmartbBox,-0.001,-0.012,-1.026,0,0,0.0,False
2019-11-08 08:37:54.600,SmartbBox,0.01,-0.014,-0.947,0,0,0.0,False
2019-11-08 08:37:54.620,SmartbBox,-0.008,-0.04,-1.053,0,0,0.0,False
2019-11-08 08:37:54.640,SmartbBox,-0.001,-0.041,-1.0,0,0,0.0,False
2019-11-08 08:37:54.660,SmartbBox,0.032,0.013,-1.03,0,0,0.0,False
2019-11-08 08:37:54.680,SmartbBox,0.028,0.014,-1.056,0,0,0.0,False
2019-11-08 08:37:54.700,SmartbBox,-0.022,-0.01,-0.97,0,0,0.0,False
2019-11-08 08:37:54.720,SmartbBox,-0.001,-0.012,-1.026,0,0,0.0,False
2019-11-08 08:37:54.740,SmartbBox,0.003,-0.012,-1.0,0,0,0.0,False
2019-11-08 08:37:54.760,SmartbBox,0.024,-0.045,-1.031,0,0,0.0,False
2019-11-08 08:37:54.780,SmartbBox,-0.005,-0.041,-1.027,0,0,0.0,False
2019-11-08 08:37:54.800,SmartbBox,0.0,0.018,-1.052,0,0,0.0,False
2019-11-08 08:37:54.820,SmartbBox,0.039,0.011,-0.977,0,0,0.0,False
2019-11-08 08:37:54.840,SmartbBox,-0.025,0.021,-1.022,0,0,0.0,False
2019-11-08 08:37:54.860,SmartbBox,-0.001,-0.042,-1.0,0,0,0.0,False
2019-11-08 08:37:54.880,SmartbBox,-0.001,-0.012,-1.026,0,0,0.0,False
2019-11-08 08:37:54.900,SmartbBox,-0.026,-0.008,-0.996,0,0,0.0,False
2019-11-08 08:37:54.920,SmartbBox,-0.008,-0.04,-1.054,0,0,0.0,False
2019-11-08 08:37:54.940,SmartbBox,0.003,-0.012,-1.0,0,0,0.0,False
2019-11-08 08:37:54.960,SmartbBox,-0.032,-0.007,-1.049,0,0,0.0,False
2019-11-08 08:37:54.980,SmartbBox,-0.001,-0.041,-1.0,0,0,0.0,True
2019-11-08 08:37:55.000,SmartbBox,-0.001,-0.042,-1.0,0,0,0.0,False
2019-11-08 08:37:55.020,SmartbBox,-0.005,-0.04,-1.027,0,0,0.0,False
2019-11-08 08:37:55.040,SmartbBox,0.031,-0.046,-0.978,0,0,0.0,False
2019-11-08 08:37:55.060,SmartbBox,-0.026,-0.009,-0.996,0,0,0.0,False
2019-11-08 08:37:55.080,SmartbBox,0.011,0.015,-0.973,0,0,0.0,False
2019-11-08 08:37:55.100,SmartbBox,-0.001,-0.041,-1.0,0,0,0.0,False
2019-11-08 08:37:55.120,SmartbBox,0.04,0.07,-1.029,0,0,0.0,False
2019-11-08 08:37:55.140,SmartbBox,-0.022,-0.01,-0.969,0,0,0.0,False
2019-11-08 08:37:55.160,SmartbBox,-0.009,-0.069,-1.027,0,0,0.0,False
2019-11-08 08:37:55.180,SmartbBox,-0.001,-0.042,-1.0,0,0,0.0,False
2019-11-08 08:37:55.200,SmartbBox,-0.026,-0.009,-0.996,0,0,0.0,False
2019-11-08 08:37:55.220,SmartbBox,0.036,0.012,-1.004,0,0,0.0,False
2019-11-08 08:37:55.240,SmartbBox,0.003,-0.012,-1.0,0,0,0.0,False
2019-11-08 08:37:55.260,SmartbBox,-0.018,-0.01,-0.943,0,0,0.0,False
2019-11-08 08:37:55.280,SmartbBox,-0.001,-0.042,-1.0,0,0,0.0,False
2019-11-08 08:37:55.300,SmartbBox,-0.001,-0.012,-1.026,0,0,0.0,False
2019-11-08 08:37:55.320,SmartbBox,-0.022,-0.01,-0.97,0,0,0.0,False
2019-11-08 08:37:55.340,SmartbBox,0.003,0.017,-1.026,0,0,0.0,False
2019-11-08 08:37:55.360,SmartbBox,-0.03,-0.038,-0.996,0,0,0.0,False
2019-11-08 08:37:55.380,SmartbBox,-0.03,-0.038,-0.996,0,0,0.0,False
2019-11-08 08:37:55.400,SmartbBox,0.003,-0.012,-1.0,0,0,0.0,False
2019-11-08 08:37:55.420,SmartbBox,-0.001,-0.041,-1.0,0,0,0.0,False
2019-11-08 08:37:55.440,SmartbBox,-0.008,-0.04,-1.054,0,0,0.0,False
2019-11-08 08:37:55.460,SmartbBox,-0.001,-0.012,-1.026,0,0,0.0,False
2019-11-08 08:37:55.480,SmartbBox,-0.029,-0.008,-1.022,0,0,0.0,False
2019-11-08 08:37:55.500,SmartbBox,0.028,-0.046,-1.004,0,0,0.0,False
2019-11-08 08:37:55.520,SmartbBox,-0.001,-0.041,-1.0,0,0,0.0,False
2019-11-08 08:37:55.540,SmartbBox,-0.033,-0.037,-1.023,0,0,0.0,False
2019-11-08 08:37:55.560,SmartbBox,0.024,-0.045,-1.031,0,0,0.0,False
2019-11-08 08:37:55.580,SmartbBox,0.0,0.018,-1.052,0,0,0.0,False
2019-11-08 08:37:55.600,SmartbBox,-0.005,-0.041,-1.027,0,0,0.0,False
2019-11-08 08:37:55.620,SmartbBox,-0.022,-0.01,-0.97,0,0,0.0,False
2019-11-08 08:37:55.640,SmartbBox,0.002,-0.042,-0.974,0,0,0.0,False
2019-11-08 08:37:55.660,SmartbBox,-0.001,-0.041,-1.0,0,0,0.0,False
2019-11-08 08:37:55.680,SmartbBox,0.031,-0.046,-0.978,0,0,0.0,False
2019-11-08 08:37:55.700,SmartbBox,-0.005,-0.041,-1.027,0,0,0.0,False
2019-11-08 08:37:55.720,SmartbBox,-0.001,-0.041,-1.0,0,0,0.0,False
2019-11-08 08:37:55.740,SmartbBox,0.003,-0.013,-1.0,0,0,0.0,False
2019-11-08 08:37:55.760,SmartbBox,-0.005,-0.041,-1.027,0,0,0.0,False
2019-11-08 08:37:55.780,SmartbBox,0.002,-0.042,-0.974,0,0,0.0,False
2019-11-08 08:37:55.800,SmartbBox,-0.029,-0.008,-1.022,0,0,0.0,False
2019-11-08 08:37:55.820,SmartbBox,-0.03,-0.038,-0.996,0,0,0.0,False
2019-11-08 08:37:55.840,SmartbBox,-0.004,-0.011,-1.053,0,0,0.0,False
2019-11-08 08:37:55.860,SmartbBox,0.028,-0.046,-1.004,0,0,0.0,False
2019-11-08 08:37:55.880,SmartbBox,-0.001,-0.041,-1.0,0,0,0.0,False
2019-11-08 08:37:55.900,SmartbBox,-0.026,-0.038,-0.97,0,0,0.0,False
2019-11-08 08:37:55.920,SmartbBox,-0.001,-0.041,-1.0,0,0,0.0,False
2019-11-08 08:37:55.940,SmartbBox,-0.03,-0.038,-0.996,0,0,0.0,False
2019-11-08 08:37:55.960,SmartbBox,-0.037,-0.036,-1.049,0,0,0.0,False
2019-11-08 08:37:55.980,SmartbBox,-0.026,-0.009,-0.996,0,0,0.0,False
2019-11-08 08:37:56.000,SmartbBox,-0.03,-0.038,-0.996,0,0,0.0,False
2019-11-08 08:37:56.020,SmartbBox,-0.001,-0.012,-1.026,0,0,0.0,False
2019-11-08 08:37:56.040,SmartbBox,-0.026,-0.038,-0.97,0,0,0.0,False
2019-11-08 08:37:56.060,SmartbBox,-0.005,-0.041,-1.027,0,0,0.0,False
2019-11-08 08:37:56.080,SmartbBox,-0.029,-0.008,-1.022,0,0,0.0,False
2019-11-08 08:37:56.100,SmartbBox,-0.03,-0.038,-0.996,0,0,0.0,False
2019-11-08 08:37:56.120,SmartbBox,0.007,0.016,-1.0,0,0,0.0,False
2019-11-08 08:37:56.140,SmartbBox,0.006,-0.013,-0.974,0,0,0.0,False
2019-11-08 08:37:56.160,SmartbBox,-0.005,-0.041,-1.027,0,0,0.0,False
2019-11-08 08:37:56.180,SmartbBox,-0.033,-0.037,-1.023,0,0,0.0,False
2019-11-08 08:37:56.200,SmartbBox,-0.025,0.021,-1.022,0,0,0.0,False
2019-11-08 08:37:56.220,SmartbBox,-0.026,-0.009,-0.996,0,0,0.0,False
2019-11-08 08:37:56.240,SmartbBox,-0.022,0.02,-0.996,0,0,0.0,False
2019-11-08 08:37:56.260,SmartbBox,-0.03,-0.038,-0.996,0,0,0.0,False
2019-11-08 08:37:56.280,SmartbBox,-0.054,-0.004,-0.992,0,0,0.0,False
2019-11-08 08:37:56.300,SmartbBox,-0.026,-0.009,-0.996,0,0,0.0,False
2019-11-08 08:37:56.320,SmartbBox,-0.033,-0.037,-1.023,0,0,0.0,False
2019-11-08 08:37:56.340,SmartbBox,-0.008,-0.04,-1.054,0,0,0.0,False
2019-11-08 08:37:56.360,SmartbBox,-0.026,-0.008,-0.996,0,0,0.0,False
2019-11-08 08:37:56.380,SmartbBox,-0.001,-0.041,-1.0,0,0,0.0,False
2019-11-08 08:37:56.400,SmartbBox,0.003,-0.012,-1.0,0,0,0.0,False
2019-11-08 08:37:56.420,SmartbBox,-0.062,-0.033,-1.019,0,0,0.0,False
2019-11-08 08:37:56.440,SmartbBox,-0.037,-0.036,-1.049,0,0,0.0,False
2019-11-08 08:37:56.460,SmartbBox,-0.037,-0.036,-1.049,0,0,0.0,False
