UTC_timestamp,device_name,timestamp,x,y,z,lat,long,event,speed
2019-10-26 10:00:44.380,LG-H970,1572084044387.25,-6.345,9.689,-2.711,41.1037068,16.8802364,False,NONE
2019-10-26 10:00:44.400,LG-H970,1572084044407.75,-2.587,11.082,0.592,41.1037068,16.8802364,False,NONE
2019-10-26 10:00:44.420,LG-H970,1572084044429.0,2.155,8.785,2.584,41.1037068,16.8802364,False,NONE
2019-10-26 10:00:44.440,LG-H970,1572084044451.5,-0.767,9.56,-0.503,41.1037068,16.8802364,False,NONE
2019-10-26 10:00:44.460,LG-H970,1572084044470.75,-4.936,8.185,-2.992,41.1037068,16.8802364,False,NONE
2019-10-26 10:00:44.480,LG-H970,1572084044490.75,-0.373,8.763,-2.543,41.1037068,16.8802364,False,NONE
2019-10-26 10:00:44.500,LG-H970,1572084044510.75,5.923,10.31,-3.639,41.1037068,16.8802364,False,NONE
2019-10-26 10:00:44.520,LG-H970,1572084044530.5,3.544,8.325,2.499,41.1037068,16.8802364,False,NONE
2019-10-26 10:00:44.540,LG-H970,1572084044549.75,1.204,10.384,-1.055,41.1037068,16.8802364,False,NONE
2019-10-26 10:00:44.560,LG-H970,1572084044569.5,0.496,12.199,-3.364,41.1037068,16.8802364,False,NONE
2019-10-26 10:00:44.580,LG-H970,1572084044589.5,2.307,9.939,-0.222,41.1037068,16.8802364,False,NONE
2019-10-26 10:00:44.600,LG-H970,1572084044608.5,5.272,9.57,0.749,41.1037068,16.8802364,False,NONE
2019-10-26 10:00:44.620,LG-H970,1572084044628.25,3.133,9.35,2.292,41.1037068,16.8802364,False,NONE
2019-10-26 10:00:44.640,LG-H970,1572084044648.25,0.418,10.767,0.16,41.1037068,16.8802364,False,NONE
2019-10-26 10:00:44.660,LG-H970,1572084044667.5,-0.559,12.098,0.193,41.1037068,16.8802364,False,NONE
2019-10-26 10:00:44.680,LG-H970,1572084044687.5,0.522,10.567,3.027,41.1037068,16.8802364,False,NONE
2019-10-26 10:00:44.700,LG-H970,1572084044708.0,1.149,10.015,2.695,41.1037068,16.8802364,False,NONE
2019-10-26 10:00:44.720,LG-H970,1572084044727.5,-2.504,9.984,1.151,41.1037068,16.8802364,False,NONE
2019-10-26 10:00:44.740,LG-H970,1572084044749.8,-3.33,10.86,1.259,41.1037068,16.8802364,False,NONE
2019-10-26 10:00:44.760,LG-H970,1572084044772.75,-0.214,10.0,3.769,41.1037068,16.8802364,False,NONE
2019-10-26 10:00:44.780,LG-H970,1572084044791.5,-1.047,9.779,3.886,41.1037068,16.8802364,False,NONE
2019-10-26 10:00:44.800,LG-H970,1572084044811.75,-5.069,11.03,0.904,41.1037332,16.8801998,False,NONE
2019-10-26 10:00:44.820,LG-H970,1572084044831.25,-5.085,10.61,1.454,41.1038124,16.8800902,False,NONE
2019-10-26 10:00:44.840,LG-H970,1572084044849.5,-1.629,7.992,2.049,41.1038124,16.8800902,False,NONE
2019-10-26 10:00:44.860,LG-H970,1572084044869.0,-0.664,8.706,3.075,41.1038124,16.8800902,False,NONE
2019-10-26 10:00:44.880,LG-H970,1572084044889.0,-3.332,11.812,1.609,41.1038124,16.8800902,False,NONE
2019-10-26 10:00:44.900,LG-H970,1572084044909.25,-7.679,11.555,-0.134,41.1038124,16.8800902,False,NONE
2019-10-26 10:00:44.920,LG-H970,1572084044928.5,-5.514,9.869,0.99,41.1038124,16.8800902,False,NONE
2019-10-26 10:00:44.940,LG-H970,1572084044948.5,2.094,8.852,-1.333,41.1038124,16.8800902,False,NONE
2019-10-26 10:00:44.960,LG-H970,1572084044968.5,0.03,5.932,0.835,41.1038124,16.8800902,False,NONE
2019-10-26 10:00:44.980,LG-H970,1572084044988.5,-6.141,8.226,-2.989,41.1038124,16.8800902,False,NONE
2019-10-26 10:00:45.000,LG-H970,1572084045008.75,-6.027,10.468,-1.659,41.1038124,16.8800902,False,NONE
2019-10-26 10:00:45.020,LG-H970,1572084045028.5,0.303,9.97,-0.14,41.1038124,16.8800902,False,NONE
2019-10-26 10:00:45.040,LG-H970,1572084045047.75,1.548,6.242,1.947,41.1038124,16.8800902,False,NONE
2019-10-26 10:00:45.060,LG-H970,1572084045067.5,-1.437,7.724,0.504,41.1038124,16.8800902,False,NONE
2019-10-26 10:00:45.080,LG-H970,1572084045089.8,-4.633,9.501,-4.216,41.1038124,16.8800902,False,NONE
2019-10-26 10:00:45.100,LG-H970,1572084045112.25,-1.481,8.305,0.106,41.1038124,16.8800902,False,NONE
2019-10-26 10:00:45.120,LG-H970,1572084045132.0,2.383,7.016,1.894,41.1038124,16.8800902,False,NONE
2019-10-26 10:00:45.140,LG-H970,1572084045151.75,0.824,10.973,3.303,41.1038124,16.8800902,False,NONE
2019-10-26 10:00:45.160,LG-H970,1572084045169.0,-3.247,10.96,-0.348,41.1038124,16.8800902,False,NONE
2019-10-26 10:00:45.180,LG-H970,1572084045189.4,-1.408,10.394,-0.387,41.1038124,16.8800902,False,NONE
2019-10-26 10:00:45.200,LG-H970,1572084045211.25,3.612,7.486,0.616,41.1038124,16.8800902,False,NONE
2019-10-26 10:00:45.220,LG-H970,1572084045230.5,4.527,9.049,1.529,41.1038124,16.8800902,False,NONE
2019-10-26 10:00:45.240,LG-H970,1572084045250.25,0.263,10.891,2.084,41.1038124,16.8800902,False,NONE
2019-10-26 10:00:45.260,LG-H970,1572084045269.75,-0.669,13.396,1.713,41.1038124,16.8800902,False,NONE
2019-10-26 10:00:45.280,LG-H970,1572084045289.5,1.504,11.521,2.422,41.1038124,16.8800902,False,NONE
2019-10-26 10:00:45.300,LG-H970,1572084045310.25,2.602,9.926,0.938,41.1038124,16.8800902,False,NONE
2019-10-26 10:00:45.320,LG-H970,1572084045327.75,1.348,10.102,0.342,41.1038124,16.8800902,False,NONE
2019-10-26 10:00:45.340,LG-H970,1572084045347.5,0.572,12.076,1.12,41.1038124,16.8800902,False,NONE
2019-10-26 10:00:45.360,LG-H970,1572084045367.75,-0.83,12.535,2.954,41.1038124,16.8800902,False,NONE
2019-10-26 10:00:45.380,LG-H970,1572084045387.5,-0.485,13.788,1.388,41.1038124,16.8800902,False,NONE
2019-10-26 10:00:45.400,LG-H970,1572084045409.8,0.439,11.359,0.098,41.1038124,16.8800902,False,NONE
2019-10-26 10:00:45.420,LG-H970,1572084045432.25,-0.77,8.041,0.506,41.1038124,16.8800902,False,NONE
2019-10-26 10:00:45.440,LG-H970,1572084045452.0,-1.41,10.009,-0.792,41.1038124,16.8800902,False,NONE
2019-10-26 10:00:45.460,LG-H970,1572084045472.0,-1.42,12.773,0.698,41.1038124,16.8800902,False,NONE
2019-10-26 10:00:45.480,LG-H970,1572084045491.75,-0.271,12.777,1.322,41.1038124,16.8800902,False,NONE
2019-10-26 10:00:45.500,LG-H970,1572084045511.5,0.421,9.574,2.234,41.1038124,16.8800902,False,NONE
2019-10-26 10:00:45.520,LG-H970,1572084045531.5,0.437,7.957,-0.704,41.1038124,16.8800902,False,NONE
2019-10-26 10:00:45.540,LG-H970,1572084045550.5,-1.03,9.898,-1.064,41.1038124,16.8800902,False,NONE
2019-10-26 10:00:45.560,LG-H970,1572084045571.25,-3.025,11.091,-0.778,41.1038124,16.8800902,False,NONE
2019-10-26 10:00:45.580,LG-H970,1572084045588.3333,-1.493,13.26,1.85,41.1038124,16.8800902,False,NONE
2019-10-26 10:00:45.600,LG-H970,1572084045608.2,0.1,10.192,2.551,41.1038124,16.8800902,False,NONE
2019-10-26 10:00:45.620,LG-H970,1572084045629.25,-1.58,8.435,-0.349,41.1038124,16.8800902,False,NONE
2019-10-26 10:00:45.640,LG-H970,1572084045649.75,-4.28,8.901,-3.75,41.1038124,16.8800902,False,NONE
2019-10-26 10:00:45.660,LG-H970,1572084045669.0,-3.047,7.893,-2.929,41.1038124,16.8800902,False,NONE
2019-10-26 10:00:45.680,LG-H970,1572084045687.75,-0.378,6.915,-0.42,41.1038124,16.8800902,False,NONE
2019-10-26 10:00:45.700,LG-H970,1572084045708.0,-2.009,7.858,0.165,41.1038124,16.8800902,False,NONE
2019-10-26 10:00:45.720,LG-H970,1572084045727.75,-5.192,9.694,1.169,41.1038124,16.8800902,False,NONE
2019-10-26 10:00:45.740,LG-H970,1572084045747.75,-3.842,12.062,-0.306,41.1038124,16.8800902,False,NONE
2019-10-26 10:00:45.760,LG-H970,1572084045769.6,-2.811,8.49,-1.143,41.1038124,16.8800902,False,NONE
2019-10-26 10:00:45.780,LG-H970,1572084045791.75,-2.743,7.945,0.321,41.1038124,16.8800902,False,NONE
2019-10-26 10:00:45.800,LG-H970,1572084045811.5,-2.281,8.78,-1.499,41.1038124,16.8800902,False,NONE
2019-10-26 10:00:45.820,LG-H970,1572084045829.6667,-2.309,10.358,2.863,41.1038124,16.8800902,False,NONE
2019-10-26 10:00:45.840,LG-H970,1572084045849.0,-1.603,10.557,0.368,41.1038124,16.8800902,False,NONE
2019-10-26 10:00:45.860,LG-H970,1572084045870.75,-1.174,10.623,1.418,41.1038124,16.8800902,False,NONE
2019-10-26 10:00:45.880,LG-H970,1572084045890.5,-0.215,9.069,-2.241,41.1038124,16.8800902,True,NONE
2019-10-26 10:00:45.900,LG-H970,1572084045909.5,0.199,7.895,0.169,41.1038124,16.8800902,True,NONE
2019-10-26 10:00:45.920,LG-H970,1572084045928.5,1.167,9.753,-0.564,41.1038124,16.8800902,False,NONE
2019-10-26 10:00:45.940,LG-H970,1572084045948.5,0.035,10.172,-0.031,41.1038124,16.8800902,False,NONE
2019-10-26 10:00:45.960,LG-H970,1572084045968.5,0.189,12.378,-0.673,41.1038124,16.8800902,False,NONE
2019-10-26 10:00:45.980,LG-H970,1572084045988.75,0.734,9.082,0.173,41.1038124,16.8800902,False,NONE
2019-10-26 10:00:46.000,LG-H970,1572084046008.5,1.87,8.801,-1.364,41.1038124,16.8800902,False,NONE
2019-10-26 10:00:46.020,LG-H970,1572084046028.5,-0.646,9.1,-2.557,41.1038124,16.8800902,False,NONE
2019-10-26 10:00:46.040,LG-H970,1572084046048.5,-2.182,11.33,-1.061,41.1038124,16.8800902,False,NONE
2019-10-26 10:00:46.060,LG-H970,1572084046068.25,0.123,10.52,0.732,41.1038124,16.8800902,False,NONE
2019-10-26 10:00:46.080,LG-H970,1572084046088.25,1.094,9.952,0.382,41.1038124,16.8800902,False,NONE
2019-10-26 10:00:46.100,LG-H970,1572084046108.25,-1.6,8.983,-1.481,41.1038124,16.8800902,False,NONE
2019-10-26 10:00:46.120,LG-H970,1572084046127.5,-2.109,9.861,-2.764,41.1038124,16.8800902,False,NONE
2019-10-26 10:00:46.140,LG-H970,1572084046150.0,-0.626,10.018,-1.638,41.1038124,16.8800902,False,NONE
2019-10-26 10:00:46.160,LG-H970,1572084046171.5,0.292,11.408,1.089,41.1038124,16.8800902,False,NONE
2019-10-26 10:00:46.180,LG-H970,1572084046191.5,-1.146,10.159,1.652,41.1038124,16.8800902,False,NONE
2019-10-26 10:00:46.200,LG-H970,1572084046211.25,-0.603,11.488,-1.755,41.1038124,16.8800902,False,NONE
2019-10-26 10:00:46.220,LG-H970,1572084046231.5,0.087,10.468,-3.349,41.1038124,16.8800902,False,NONE
2019-10-26 10:00:46.240,LG-H970,1572084046251.25,0.965,8.106,-0.033,41.1038124,16.8800902,False,NONE
2019-10-26 10:00:46.260,LG-H970,1572084046270.5,1.539,9.863,-0.608,41.1038124,16.8800902,False,NONE
2019-10-26 10:00:46.280,LG-H970,1572084046290.0,-1.786,10.725,1.3,41.1038124,16.8800902,False,NONE
2019-10-26 10:00:46.300,LG-H970,1572084046311.25,-1.258,12.339,-1.721,41.1038124,16.8800902,False,NONE
2019-10-26 10:00:46.320,LG-H970,1572084046328.25,0.06,8.399,0.154,41.1038124,16.8800902,False,NONE
2019-10-26 10:00:46.340,LG-H970,1572084046348.5,1.067,8.021,-0.912,41.1038124,16.8800902,False,NONE
2019-10-26 10:00:46.360,LG-H970,1572084046368.75,-1.11,8.325,-1.283,41.1038124,16.8800902,False,NONE
2019-10-26 10:00:46.380,LG-H970,1572084046388.5,-2.558,10.453,-0.538,41.1038124,16.8800902,False,NONE
2019-10-26 10:00:46.400,LG-H970,1572084046406.0,-1.668,10.609,0.404,41.1038124,16.8800902,False,NONE
2019-10-26 10:00:46.420,LG-H970,1572084046428.8333,0.653,8.926,2.81,41.1038124,16.8800902,False,NONE
2019-10-26 10:00:46.440,LG-H970,1572084046451.5,-1.814,10.01,-1.156,41.1038124,16.8800902,False,NONE
2019-10-26 10:00:46.460,LG-H970,1572084046471.75,-5.406,12.049,-1.973,41.1038124,16.8800902,False,NONE
2019-10-26 10:00:46.480,LG-H970,1572084046492.25,-2.774,9.473,-0.325,41.1038124,16.8800902,False,NONE
2019-10-26 10:00:46.500,LG-H970,1572084046511.75,0.933,8.217,2.432,41.1038124,16.8800902,False,NONE
2019-10-26 10:00:46.520,LG-H970,1572084046531.5,-0.454,10.447,1.315,41.1038124,16.8800902,False,NONE
2019-10-26 10:00:46.540,LG-H970,1572084046551.5,-5.807,11.119,-1.671,41.1038124,16.8800902,False,NONE
2019-10-26 10:00:46.560,LG-H970,1572084046571.25,-4.277,10.658,-1.503,41.1038124,16.8800902,False,NONE
2019-10-26 10:00:46.580,LG-H970,1572084046590.5,0.108,7.348,-0.689,41.1038124,16.8800902,False,NONE
2019-10-26 10:00:46.600,LG-H970,1572084046608.0,1.477,8.953,1.907,41.1038124,16.8800902,False,NONE
2019-10-26 10:00:46.620,LG-H970,1572084046627.8,-1.41,10.863,-0.524,41.1038124,16.8800902,False,NONE
2019-10-26 10:00:46.640,LG-H970,1572084046649.25,-2.95,13.022,0.2,41.1038124,16.8800902,False,NONE
2019-10-26 10:00:46.660,LG-H970,1572084046669.0,-0.815,9.528,-0.643,41.1038124,16.8800902,False,NONE
2019-10-26 10:00:46.680,LG-H970,1572084046689.25,0.348,6.709,-0.842,41.1038124,16.8800902,False,NONE
2019-10-26 10:00:46.700,LG-H970,1572084046708.5,-3.088,5.323,-1.657,41.1038124,16.8800902,False,NONE
2019-10-26 10:00:46.720,LG-H970,1572084046728.5,-5.965,7.549,-4.165,41.1038124,16.8800902,False,NONE
2019-10-26 10:00:46.740,LG-H970,1572084046749.75,-1.589,11.387,-1.064,41.1038124,16.8800902,False,NONE
2019-10-26 10:00:46.760,LG-H970,1572084046767.75,1.727,7.564,1.391,41.1038124,16.8800902,False,NONE
2019-10-26 10:00:46.780,LG-H970,1572084046787.75,1.714,10.476,3.721,41.1038124,16.8800902,False,NONE
2019-10-26 10:00:46.800,LG-H970,1572084046810.2,-1.668,10.987,-2.349,41.1038124,16.8800902,False,NONE
2019-10-26 10:00:46.820,LG-H970,1572084046832.0,-0.047,10.85,-1.094,41.1038124,16.8800902,False,NONE
2019-10-26 10:00:46.840,LG-H970,1572084046852.0,2.792,8.38,0.008,41.1038124,16.8800902,False,NONE
2019-10-26 10:00:46.860,LG-H970,1572084046871.25,2.262,10.546,1.125,41.1038124,16.8800902,False,NONE
2019-10-26 10:00:46.880,LG-H970,1572084046891.25,-0.336,11.928,-0.119,41.1038124,16.8800902,False,NONE
2019-10-26 10:00:46.900,LG-H970,1572084046909.3333,0.171,12.369,-1.019,41.1038124,16.8800902,False,NONE
2019-10-26 10:00:46.920,LG-H970,1572084046928.2,2.941,8.903,0.646,41.1038124,16.8800902,False,NONE
2019-10-26 10:00:46.940,LG-H970,1572084046949.5,4.091,9.989,-0.863,41.1038124,16.8800902,False,NONE
2019-10-26 10:00:46.960,LG-H970,1572084046969.5,-0.31,10.838,-1.619,41.1038124,16.8800902,False,NONE
2019-10-26 10:00:46.980,LG-H970,1572084046989.75,-1.578,11.443,-0.747,41.1038124,16.8800902,False,NONE
2019-10-26 10:00:47.000,LG-H970,1572084047009.5,2.449,10.719,1.6,41.1038124,16.8800902,False,NONE
2019-10-26 10:00:47.020,LG-H970,1572084047028.75,2.828,10.232,1.162,41.1038124,16.8800902,False,NONE
2019-10-26 10:00:47.040,LG-H970,1572084047048.75,-2.038,11.647,-1.917,41.1038124,16.8800902,False,NONE
2019-10-26 10:00:47.060,LG-H970,1572084047068.5,-3.069,11.397,0.174,41.1038124,16.8800902,False,NONE
2019-10-26 10:00:47.080,LG-H970,1572084047088.5,1.171,10.509,-0.131,41.1038124,16.8800902,False,NONE
2019-10-26 10:00:47.100,LG-H970,1572084047108.5,1.053,11.507,2.299,41.1038124,16.8800902,False,NONE
2019-10-26 10:00:47.120,LG-H970,1572084047128.0,-3.435,11.726,-1.33,41.1038124,16.8800902,False,NONE
2019-10-26 10:00:47.140,LG-H970,1572084047147.75,-4.089,10.922,-1.027,41.1038124,16.8800902,False,NONE
2019-10-26 10:00:47.160,LG-H970,1572084047169.8,0.635,9.02,-0.47,41.1038124,16.8800902,False,NONE
2019-10-26 10:00:47.180,LG-H970,1572084047189.6667,0.949,8.279,1.74,41.1038124,16.8800902,False,NONE
2019-10-26 10:00:47.200,LG-H970,1572084047209.2,-2.971,10.307,-1.027,41.1038124,16.8800902,False,NONE
2019-10-26 10:00:47.220,LG-H970,1572084047229.6667,-4.303,12.045,-0.422,41.1038124,16.8800902,False,NONE
2019-10-26 10:00:47.240,LG-H970,1572084047247.25,-0.916,10.879,0.042,41.1038124,16.8800902,False,NONE
2019-10-26 10:00:47.260,LG-H970,1572084047269.4,1.799,8.353,2.397,41.1038124,16.8800902,False,NONE
2019-10-26 10:00:47.280,LG-H970,1572084047290.75,-1.17,9.225,-0.837,41.1038124,16.8800902,False,NONE
2019-10-26 10:00:47.300,LG-H970,1572084047310.75,-4.264,11.123,-2.92,41.1038124,16.8800902,False,NONE
2019-10-26 10:00:47.320,LG-H970,1572084047330.0,-2.555,8.566,-0.229,41.1038124,16.8800902,False,NONE
2019-10-26 10:00:47.340,LG-H970,1572084047348.75,0.651,6.131,0.322,41.1038124,16.8800902,False,NONE
2019-10-26 10:00:47.360,LG-H970,1572084047369.25,-2.146,7.156,1.191,41.1038124,16.8800902,False,NONE
