UTC_timestamp,device_name,timestamp,x,y,z,lat,long,event,speed
2019-10-27 16:00:25.080,LG-H970,1572192025086.75,-0.924,8.789,-1.434,41.1078744,16.8815569,False,6.099
2019-10-27 16:00:25.100,LG-H970,1572192025109.2,-1.378,12.393,-1.861,41.1078744,16.8815569,False,6.099
2019-10-27 16:00:25.120,LG-H970,1572192025132.5,-3.921,10.717,2.901,41.1078744,16.8815569,False,6.099
2019-10-27 16:00:25.140,LG-H970,1572192025151.25,-2.965,8.542,0.087,41.1078744,16.8815569,False,6.099
2019-10-27 16:00:25.160,LG-H970,1572192025170.5,-1.059,8.05,-3.027,41.1078744,16.8815569,False,6.099
2019-10-27 16:00:25.180,LG-H970,1572192025190.5,-1.092,8.506,-2.3,41.1078744,16.8815569,False,6.099
2019-10-27 16:00:25.200,LG-H970,1572192025209.75,-1.379,10.334,-0.261,41.1078744,16.8815569,False,6.099
2019-10-27 16:00:25.220,LG-H970,1572192025230.25,-1.404,9.95,1.667,41.1078744,16.8815569,False,6.099
2019-10-27 16:00:25.240,LG-H970,1572192025249.25,-0.181,9.585,-0.713,41.1078744,16.8815569,False,6.099
2019-10-27 16:00:25.260,LG-H970,1572192025268.5,0.387,10.969,-1.611,41.1078744,16.8815569,False,6.099
2019-10-27 16:00:25.280,LG-H970,1572192025288.5,-0.222,9.758,2.023,41.1078744,16.8815569,False,6.099
2019-10-27 16:00:25.300,LG-H970,1572192025308.5,-0.846,11.708,-0.364,41.1078744,16.8815569,False,6.099
2019-10-27 16:00:25.320,LG-H970,1572192025328.25,-1.822,12.839,-1.94,41.1078744,16.8815569,False,6.099
2019-10-27 16:00:25.340,LG-H970,1572192025346.0,-1.35,8.666,-0.297,41.1078744,16.8815569,False,6.099
2019-10-27 16:00:25.360,LG-H970,1572192025368.0,0.635,7.567,0.732,41.1078744,16.8815569,False,6.099
2019-10-27 16:00:25.380,LG-H970,1572192025391.5,-1.742,9.942,-2.831,41.1078744,16.8815569,False,6.099
2019-10-27 16:00:25.400,LG-H970,1572192025411.6667,0.43,10.361,-0.298,41.1078744,16.8815569,False,6.099
2019-10-27 16:00:25.420,LG-H970,1572192025428.25,2.844,9.224,0.65,41.1078744,16.8815569,False,6.099
2019-10-27 16:00:25.440,LG-H970,1572192025448.8,1.328,11.178,-1.353,41.1078744,16.8815569,False,6.099
2019-10-27 16:00:25.460,LG-H970,1572192025470.25,-3.663,9.025,-1.714,41.1078744,16.8815569,False,6.099
2019-10-27 16:00:25.480,LG-H970,1572192025489.75,-1.853,12.683,-2.418,41.1078744,16.8815569,False,6.099
2019-10-27 16:00:25.500,LG-H970,1572192025509.5,1.993,9.883,2.392,41.1078744,16.8815569,False,6.099
2019-10-27 16:00:25.520,LG-H970,1572192025529.5,1.966,10.32,-1.572,41.1078744,16.8815569,False,6.099
2019-10-27 16:00:25.540,LG-H970,1572192025550.5,-4.812,8.785,-0.75,41.1078744,16.8815569,False,6.099
2019-10-27 16:00:25.560,LG-H970,1572192025569.75,-2.504,10.031,-1.812,41.1078744,16.8815569,False,6.099
2019-10-27 16:00:25.580,LG-H970,1572192025589.25,1.881,8.113,-0.18,41.1078744,16.8815569,False,6.099
2019-10-27 16:00:25.600,LG-H970,1572192025609.75,-0.145,11.842,0.991,41.1078744,16.8815569,False,6.099
2019-10-27 16:00:25.620,LG-H970,1572192025629.0,-3.078,11.189,-3.162,41.1078744,16.8815569,False,6.099
2019-10-27 16:00:25.640,LG-H970,1572192025649.75,-0.873,10.38,-2.56,41.1078744,16.8815569,False,6.099
2019-10-27 16:00:25.660,LG-H970,1572192025667.5,0.598,8.172,0.09,41.1078744,16.8815569,False,6.099
2019-10-27 16:00:25.680,LG-H970,1572192025687.75,0.666,10.55,-0.352,41.1078744,16.8815569,False,6.099
2019-10-27 16:00:25.700,LG-H970,1572192025707.75,-1.172,9.501,-2.135,41.1078744,16.8815569,False,6.099
2019-10-27 16:00:25.720,LG-H970,1572192025727.75,-2.759,8.843,-1.589,41.1078744,16.8815569,False,6.099
2019-10-27 16:00:25.740,LG-H970,1572192025747.5,0.892,9.555,-0.587,41.1078744,16.8815569,False,6.099
2019-10-27 16:00:25.760,LG-H970,1572192025769.6,3.263,9.556,0.837,41.1078744,16.8815569,False,6.099
2019-10-27 16:00:25.780,LG-H970,1572192025791.75,-2.368,8.785,-2.216,41.1078744,16.8815569,False,6.099
2019-10-27 16:00:25.800,LG-H970,1572192025811.5,-2.134,9.201,-4.757,41.1078744,16.8815569,False,6.099
2019-10-27 16:00:25.820,LG-H970,1572192025831.25,3.302,11.418,-0.942,41.1078744,16.8815569,False,6.099
2019-10-27 16:00:25.840,LG-H970,1572192025850.75,2.136,6.368,4.056,41.1078744,16.8815569,False,6.099
2019-10-27 16:00:25.860,LG-H970,1572192025871.0,-0.415,13.386,-3.129,41.1078744,16.8815569,False,6.099
2019-10-27 16:00:25.880,LG-H970,1572192025891.25,-3.002,8.958,-2.67,41.1078744,16.8815569,False,6.099
2019-10-27 16:00:25.900,LG-H970,1572192025909.75,-0.095,8.824,0.787,41.1078744,16.8815569,False,6.099
2019-10-27 16:00:25.920,LG-H970,1572192025929.5,-0.683,8.391,-1.549,41.1078744,16.8815569,False,6.099
2019-10-27 16:00:25.940,LG-H970,1572192025949.25,-3.187,9.305,-0.441,41.1078744,16.8815569,False,6.099
2019-10-27 16:00:25.960,LG-H970,1572192025968.5,1.885,9.544,-3.092,41.1078744,16.8815569,False,6.099
2019-10-27 16:00:25.980,LG-H970,1572192025988.5,2.169,4.225,2.666,41.1078744,16.8815569,False,6.099
2019-10-27 16:00:26.000,LG-H970,1572192026008.75,-4.145,9.853,-5.32,41.1078744,16.8815569,False,6.099
2019-10-27 16:00:26.020,LG-H970,1572192026027.75,-5.858,15.104,9.85,41.1078744,16.8815569,False,6.099
2019-10-27 16:00:26.040,LG-H970,1572192026047.5,-5.55,20.067,-3.115,41.1078744,16.8815569,False,6.099
2019-10-27 16:00:26.060,LG-H970,1572192026067.5,-5.607,7.04,2.979,41.1078744,16.8815569,False,6.099
2019-10-27 16:00:26.080,LG-H970,1572192026087.75,-3.997,20.237,-7.078,41.1078744,16.8815569,False,6.099
2019-10-27 16:00:26.100,LG-H970,1572192026108.0,0.542,13.018,4.387,41.1078744,16.8815569,False,6.099
2019-10-27 16:00:26.120,LG-H970,1572192026129.2,-1.085,9.098,-1.384,41.1078744,16.8815569,False,6.099
2019-10-27 16:00:26.140,LG-H970,1572192026151.5,-4.926,8.339,-6.472,41.1078744,16.8815569,False,6.099
2019-10-27 16:00:26.160,LG-H970,1572192026171.25,-1.961,7.182,-2.753,41.1078744,16.8815569,False,6.099
2019-10-27 16:00:26.180,LG-H970,1572192026190.5,3.431,4.925,2.275,41.1078744,16.8815569,False,6.099
2019-10-27 16:00:26.200,LG-H970,1572192026210.5,2.116,5.505,0.125,41.1078744,16.8815569,False,6.099
2019-10-27 16:00:26.220,LG-H970,1572192026230.25,-2.502,12.096,-10.188,41.1078744,16.8815569,False,6.099
2019-10-27 16:00:26.240,LG-H970,1572192026249.5,-4.255,10.803,-4.38,41.1078744,16.8815569,False,6.099
2019-10-27 16:00:26.260,LG-H970,1572192026268.75,3.036,6.345,-0.065,41.1078744,16.8815569,False,6.099
2019-10-27 16:00:26.280,LG-H970,1572192026289.0,7.129,5.253,3.106,41.1078744,16.8815569,False,6.099
2019-10-27 16:00:26.300,LG-H970,1572192026308.5,4.375,8.402,-2.002,41.1078744,16.8815569,False,6.099
2019-10-27 16:00:26.320,LG-H970,1572192026328.25,-3.745,7.702,4.416,41.1078744,16.8815569,False,6.099
2019-10-27 16:00:26.340,LG-H970,1572192026348.0,-4.478,17.456,-15.074,41.1078744,16.8815569,False,6.099
2019-10-27 16:00:26.360,LG-H970,1572192026367.75,-10.066,6.262,-0.367,41.1078744,16.8815569,False,6.099
2019-10-27 16:00:26.380,LG-H970,1572192026388.0,-6.914,8.181,-3.481,41.1078744,16.8815569,False,6.099
2019-10-27 16:00:26.400,LG-H970,1572192026408.25,2.517,12.457,-7.53,41.1078744,16.8815569,False,6.099
2019-10-27 16:00:26.420,LG-H970,1572192026429.2,-4.82,8.004,-0.405,41.1078744,16.8815569,False,6.099
2019-10-27 16:00:26.440,LG-H970,1572192026449.0,-3.111,7.788,0.312,41.1078744,16.8815569,False,6.099
2019-10-27 16:00:26.460,LG-H970,1572192026469.2,1.459,11.145,-1.634,41.1078744,16.8815569,False,6.099
2019-10-27 16:00:26.480,LG-H970,1572192026490.5,-2.419,10.193,-1.075,41.1078744,16.8815569,False,6.099
2019-10-27 16:00:26.500,LG-H970,1572192026511.0,-5.098,11.251,1.367,41.1078744,16.8815569,False,6.099
2019-10-27 16:00:26.520,LG-H970,1572192026530.5,0.573,11.08,-0.848,41.1078744,16.8815569,False,6.099
2019-10-27 16:00:26.540,LG-H970,1572192026550.75,2.458,11.127,0.336,41.1078744,16.8815569,False,6.099
2019-10-27 16:00:26.560,LG-H970,1572192026550.75,2.458,11.127,0.336,41.1078744,16.8815569,False,6.099
2019-10-27 16:00:26.580,LG-H970,1572192026582.25,-1.606,9.774,1.825,41.1078744,16.8815569,True,6.099
2019-10-27 16:00:26.600,LG-H970,1572192026582.25,-1.606,9.774,1.825,41.1078744,16.8815569,True,6.099
2019-10-27 16:00:26.620,LG-H970,1572192026626.0,2.483,9.788,-0.818,41.1078744,16.8815569,False,6.099
2019-10-27 16:00:26.640,LG-H970,1572192026646.4,3.564,11.015,-1.792,41.1078525,16.8814159,False,6.943
2019-10-27 16:00:26.660,LG-H970,1572192026667.75,-8.644,7.905,-11.144,41.107847,16.8813807,False,7.154
2019-10-27 16:00:26.680,LG-H970,1572192026688.25,-1.753,8.123,0.124,41.107847,16.8813807,False,7.154
2019-10-27 16:00:26.700,LG-H970,1572192026708.0,6.698,2.709,-2.181,41.107847,16.8813807,False,7.154
2019-10-27 16:00:26.720,LG-H970,1572192026729.0,4.015,11.661,-1.604,41.107847,16.8813807,False,7.154
2019-10-27 16:00:26.740,LG-H970,1572192026748.0,-3.004,11.071,-9.432,41.107847,16.8813807,False,7.154
2019-10-27 16:00:26.760,LG-H970,1572192026770.5,-1.764,9.336,2.072,41.107847,16.8813807,False,7.154
2019-10-27 16:00:26.780,LG-H970,1572192026789.3333,4.959,5.565,-5.716,41.107847,16.8813807,False,7.154
2019-10-27 16:00:26.800,LG-H970,1572192026809.4,-1.079,6.709,0.7,41.107847,16.8813807,False,7.154
2019-10-27 16:00:26.820,LG-H970,1572192026831.75,-4.953,11.163,-10.705,41.107847,16.8813807,False,7.154
2019-10-27 16:00:26.840,LG-H970,1572192026851.5,-3.44,9.801,2.536,41.107847,16.8813807,False,7.154
2019-10-27 16:00:26.860,LG-H970,1572192026870.75,3.524,11.792,-4.267,41.107847,16.8813807,False,7.154
2019-10-27 16:00:26.880,LG-H970,1572192026888.6667,-0.286,8.315,4.234,41.107847,16.8813807,False,7.154
2019-10-27 16:00:26.900,LG-H970,1572192026907.75,-1.297,9.741,-1.701,41.107847,16.8813807,False,7.154
2019-10-27 16:00:26.920,LG-H970,1572192026930.0,-0.203,10.876,-2.989,41.107847,16.8813807,False,7.154
2019-10-27 16:00:26.940,LG-H970,1572192026950.25,0.909,8.947,0.567,41.107847,16.8813807,False,7.154
2019-10-27 16:00:26.960,LG-H970,1572192026969.75,-0.031,9.99,0.747,41.107847,16.8813807,False,7.154
2019-10-27 16:00:26.980,LG-H970,1572192026989.5,-2.422,12.594,-2.257,41.107847,16.8813807,False,7.154
2019-10-27 16:00:27.000,LG-H970,1572192027009.25,-2.346,11.75,0.112,41.107847,16.8813807,False,7.154
2019-10-27 16:00:27.020,LG-H970,1572192027028.75,0.672,9.114,2.224,41.107847,16.8813807,False,7.154
2019-10-27 16:00:27.040,LG-H970,1572192027049.5,-0.967,7.489,-0.783,41.107847,16.8813807,False,7.154
2019-10-27 16:00:27.060,LG-H970,1572192027069.0,-4.754,9.089,-2.223,41.107847,16.8813807,False,7.154
2019-10-27 16:00:27.080,LG-H970,1572192027088.0,-3.796,10.516,-3.596,41.107847,16.8813807,False,7.154
2019-10-27 16:00:27.100,LG-H970,1572192027108.75,-0.245,9.931,2.059,41.107847,16.8813807,False,7.154
2019-10-27 16:00:27.120,LG-H970,1572192027127.75,-0.123,9.58,3.572,41.107847,16.8813807,False,7.154
2019-10-27 16:00:27.140,LG-H970,1572192027150.0,-3.584,10.359,-1.321,41.107847,16.8813807,False,7.154
2019-10-27 16:00:27.160,LG-H970,1572192027171.5,0.136,10.426,-4.673,41.107847,16.8813807,False,7.154
2019-10-27 16:00:27.180,LG-H970,1572192027191.75,1.644,4.165,1.029,41.107847,16.8813807,False,7.154
2019-10-27 16:00:27.200,LG-H970,1572192027212.0,2.973,9.189,0.437,41.107847,16.8813807,False,7.154
2019-10-27 16:00:27.220,LG-H970,1572192027231.0,0.662,11.529,-1.636,41.107847,16.8813807,False,7.154
2019-10-27 16:00:27.240,LG-H970,1572192027251.0,-0.338,12.427,2.022,41.107847,16.8813807,False,7.154
2019-10-27 16:00:27.260,LG-H970,1572192027271.25,0.511,10.51,-3.159,41.107847,16.8813807,False,7.154
2019-10-27 16:00:27.280,LG-H970,1572192027289.75,1.39,9.518,-0.343,41.107847,16.8813807,False,7.154
2019-10-27 16:00:27.300,LG-H970,1572192027310.5,1.881,10.451,-1.564,41.107847,16.8813807,False,7.154
2019-10-27 16:00:27.320,LG-H970,1572192027330.5,1.018,11.161,-0.023,41.107847,16.8813807,False,7.154
2019-10-27 16:00:27.340,LG-H970,1572192027349.75,0.05,11.434,-0.126,41.107847,16.8813807,False,7.154
2019-10-27 16:00:27.360,LG-H970,1572192027369.0,-0.122,11.252,1.086,41.107847,16.8813807,False,7.154
2019-10-27 16:00:27.380,LG-H970,1572192027386.3333,-1.728,9.633,0.645,41.107847,16.8813807,False,7.154
2019-10-27 16:00:27.400,LG-H970,1572192027407.2,-1.992,9.712,-4.39,41.107847,16.8813807,False,7.154
2019-10-27 16:00:27.420,LG-H970,1572192027427.75,-0.147,9.81,0.881,41.107847,16.8813807,False,7.154
2019-10-27 16:00:27.440,LG-H970,1572192027447.25,2.41,11.371,0.765,41.107847,16.8813807,False,7.154
2019-10-27 16:00:27.460,LG-H970,1572192027470.4,0.812,11.932,1.13,41.107847,16.8813807,False,7.154
2019-10-27 16:00:27.480,LG-H970,1572192027492.0,-0.921,9.019,-1.995,41.107847,16.8813807,False,7.154
2019-10-27 16:00:27.500,LG-H970,1572192027509.0,1.074,12.417,-1.282,41.107847,16.8813807,False,7.154
2019-10-27 16:00:27.520,LG-H970,1572192027529.4,2.427,8.593,0.797,41.107847,16.8813807,False,7.154
2019-10-27 16:00:27.540,LG-H970,1572192027550.75,2.784,9.273,-2.589,41.107847,16.8813807,False,7.154
2019-10-27 16:00:27.560,LG-H970,1572192027571.0,-0.907,7.785,-1.485,41.107847,16.8813807,False,7.154
2019-10-27 16:00:27.580,LG-H970,1572192027590.25,0.336,10.3,-1.883,41.107847,16.8813807,False,7.154
2019-10-27 16:00:27.600,LG-H970,1572192027607.6667,1.88,7.782,-1.197,41.107847,16.8813807,False,7.154
2019-10-27 16:00:27.620,LG-H970,1572192027629.25,1.797,8.534,-0.757,41.107847,16.8813807,False,7.154
2019-10-27 16:00:27.640,LG-H970,1572192027649.5,0.409,10.24,-2.587,41.107847,16.8813807,False,7.154
2019-10-27 16:00:27.660,LG-H970,1572192027672.0,1.094,9.286,2.794,41.1078251,16.8812829,False,7.85
2019-10-27 16:00:27.680,LG-H970,1572192027689.5,4.292,10.63,-0.499,41.1078251,16.8812829,False,7.85
2019-10-27 16:00:27.700,LG-H970,1572192027708.5,1.007,9.476,-0.486,41.1078251,16.8812829,False,7.85
2019-10-27 16:00:27.720,LG-H970,1572192027727.75,-1.202,13.052,-1.033,41.1078251,16.8812829,False,7.85
2019-10-27 16:00:27.740,LG-H970,1572192027747.5,0.382,9.925,0.119,41.1078251,16.8812829,False,7.85
2019-10-27 16:00:27.760,LG-H970,1572192027768.0,3.206,8.09,-0.391,41.1078251,16.8812829,False,7.85
2019-10-27 16:00:27.780,LG-H970,1572192027787.5,0.791,8.182,-1.322,41.1078251,16.8812829,False,7.85
2019-10-27 16:00:27.800,LG-H970,1572192027807.5,-0.39,8.953,-0.487,41.1078251,16.8812829,False,7.85
2019-10-27 16:00:27.820,LG-H970,1572192027830.0,3.209,10.186,0.682,41.1078251,16.8812829,False,7.85
2019-10-27 16:00:27.840,LG-H970,1572192027849.0,2.311,12.589,-2.197,41.1078251,16.8812829,False,7.85
2019-10-27 16:00:27.860,LG-H970,1572192027869.2,-0.906,11.083,0.481,41.1078251,16.8812829,False,7.85
2019-10-27 16:00:27.880,LG-H970,1572192027892.0,1.927,8.034,1.199,41.1078251,16.8812829,False,7.85
2019-10-27 16:00:27.900,LG-H970,1572192027911.5,3.94,7.289,-2.898,41.1078251,16.8812829,False,7.85
2019-10-27 16:00:27.920,LG-H970,1572192027930.6667,-0.262,6.921,0.379,41.1078251,16.8812829,False,7.85
2019-10-27 16:00:27.940,LG-H970,1572192027949.5,-2.556,9.787,-2.732,41.1078251,16.8812829,False,7.85
2019-10-27 16:00:27.960,LG-H970,1572192027969.5,-0.57,9.604,1.786,41.1078251,16.8812829,False,7.85
2019-10-27 16:00:27.980,LG-H970,1572192027989.0,1.997,10.881,-1.762,41.1078251,16.8812829,False,7.85
2019-10-27 16:00:28.000,LG-H970,1572192028009.25,1.81,9.676,-2.5,41.1078251,16.8812829,False,7.85
2019-10-27 16:00:28.020,LG-H970,1572192028029.0,0.794,6.195,0.517,41.1078251,16.8812829,False,7.85
2019-10-27 16:00:28.040,LG-H970,1572192028048.5,4.075,8.88,-1.582,41.1078251,16.8812829,False,7.85
2019-10-27 16:00:28.060,LG-H970,1572192028068.0,4.117,9.605,-1.69,41.1078251,16.8812829,False,7.85
