UTC_timestamp,device_name,timestamp,x,y,z,lat,long,event,speed
2019-10-27 11:19:40.640,LG-H970,1572175180648.5,-0.953,9.442,-1.925,41.1093745,16.8739919,False,10.017
2019-10-27 11:19:40.660,LG-H970,1572175180669.0,0.427,10.583,-0.052,41.1093745,16.8739919,False,10.017
2019-10-27 11:19:40.680,LG-H970,1572175180687.0,-0.208,8.732,0.001,41.1093745,16.8739919,False,10.017
2019-10-27 11:19:40.700,LG-H970,1572175180709.0,-0.184,9.709,0.175,41.1093745,16.8739919,False,10.017
2019-10-27 11:19:40.720,LG-H970,1572175180729.0,-0.03,10.083,-1.362,41.1093745,16.8739919,False,10.017
2019-10-27 11:19:40.740,LG-H970,1572175180748.25,0.086,10.232,-0.855,41.1093745,16.8739919,False,10.017
2019-10-27 11:19:40.760,LG-H970,1572175180768.0,0.378,9.712,-0.161,41.1093745,16.8739919,False,10.017
2019-10-27 11:19:40.780,LG-H970,1572175180790.2,0.753,10.125,-0.144,41.1093745,16.8739919,False,10.017
2019-10-27 11:19:40.800,LG-H970,1572175180811.25,0.769,10.962,-0.555,41.1093745,16.8739919,False,10.017
2019-10-27 11:19:40.820,LG-H970,1572175180831.0,0.026,9.433,-1.073,41.1093745,16.8739919,False,10.017
2019-10-27 11:19:40.840,LG-H970,1572175180851.75,1.171,10.058,-0.704,41.1093745,16.8739919,False,10.017
2019-10-27 11:19:40.860,LG-H970,1572175180870.5,0.641,8.46,-0.566,41.1093745,16.8739919,False,10.017
2019-10-27 11:19:40.880,LG-H970,1572175180890.5,0.457,10.056,-0.001,41.1093745,16.8739919,False,10.017
2019-10-27 11:19:40.900,LG-H970,1572175180910.25,-0.375,9.79,-1.046,41.1093745,16.8739919,False,10.017
2019-10-27 11:19:40.920,LG-H970,1572175180930.5,-0.114,9.631,-0.482,41.1093745,16.8739919,False,10.017
2019-10-27 11:19:40.940,LG-H970,1572175180949.25,0.804,9.355,-1.282,41.1093745,16.8739919,False,10.017
2019-10-27 11:19:40.960,LG-H970,1572175180970.5,1.088,9.569,-0.573,41.1093745,16.8739919,False,10.017
2019-10-27 11:19:40.980,LG-H970,1572175180990.0,0.64,9.439,-0.645,41.1093745,16.8739919,False,10.017
2019-10-27 11:19:41.000,LG-H970,1572175181010.0,-0.268,9.433,-0.508,41.1093745,16.8739919,False,10.017
2019-10-27 11:19:41.020,LG-H970,1572175181029.5,0.167,9.786,-1.527,41.1093745,16.8739919,False,10.017
2019-10-27 11:19:41.040,LG-H970,1572175181050.0,0.517,9.047,-0.667,41.1093745,16.8739919,False,10.017
2019-10-27 11:19:41.060,LG-H970,1572175181068.75,0.789,8.97,-0.65,41.1093745,16.8739919,False,10.017
2019-10-27 11:19:41.080,LG-H970,1572175181088.75,0.497,9.763,-0.877,41.1093745,16.8739919,False,10.017
2019-10-27 11:19:41.100,LG-H970,1572175181108.0,0.455,10.78,-1.057,41.1093745,16.8739919,False,10.017
2019-10-27 11:19:41.120,LG-H970,1572175181129.6,0.347,10.269,0.232,41.1093745,16.8739919,False,10.017
2019-10-27 11:19:41.140,LG-H970,1572175181152.0,1.026,10.176,-0.976,41.1093745,16.8739919,False,10.017
2019-10-27 11:19:41.160,LG-H970,1572175181170.3333,0.404,9.787,0.612,41.1093745,16.8739919,False,10.017
2019-10-27 11:19:41.180,LG-H970,1572175181187.25,1.685,12.622,-1.252,41.1093745,16.8739919,False,10.017
2019-10-27 11:19:41.200,LG-H970,1572175181207.3333,0.943,10.576,0.059,41.1093745,16.8739919,False,10.017
2019-10-27 11:19:41.220,LG-H970,1572175181225.75,0.786,9.835,0.477,41.1093745,16.8739919,False,10.017
2019-10-27 11:19:41.240,LG-H970,1572175181247.8,-0.57,10.503,-1.511,41.1093745,16.8739919,False,10.017
2019-10-27 11:19:41.260,LG-H970,1572175181271.25,-1.663,10.708,-0.532,41.1093745,16.8739919,False,10.017
2019-10-27 11:19:41.280,LG-H970,1572175181289.75,0.521,10.312,-0.702,41.1093745,16.8739919,False,10.017
2019-10-27 11:19:41.300,LG-H970,1572175181309.75,1.4,9.926,0.322,41.1093745,16.8739919,False,10.017
2019-10-27 11:19:41.320,LG-H970,1572175181329.5,0.485,11.01,0.398,41.1093745,16.8739919,False,10.017
2019-10-27 11:19:41.340,LG-H970,1572175181349.75,0.472,12.362,-1.007,41.1093745,16.8739919,False,10.017
2019-10-27 11:19:41.360,LG-H970,1572175181369.25,-0.754,8.407,0.122,41.1093745,16.8739919,False,10.017
2019-10-27 11:19:41.380,LG-H970,1572175181386.3333,0.082,7.441,-1.92,41.1093745,16.8739919,False,10.017
2019-10-27 11:19:41.400,LG-H970,1572175181415.5,-1.31,5.915,-0.939,41.1093745,16.8739919,False,10.017
2019-10-27 11:19:41.420,LG-H970,1572175181427.75,-3.84,6.669,-3.814,41.1093745,16.8739919,False,10.017
2019-10-27 11:19:41.440,LG-H970,1572175181447.75,-2.667,7.003,-5.05,41.1093745,16.8739919,False,10.017
2019-10-27 11:19:41.460,LG-H970,1572175181467.5,3.314,12.414,-0.288,41.1093745,16.8739919,False,10.017
2019-10-27 11:19:41.480,LG-H970,1572175181490.0,6.296,9.959,4.052,41.1093745,16.8739919,False,10.017
2019-10-27 11:19:41.500,LG-H970,1572175181511.0,3.005,12.342,3.195,41.1093745,16.8739919,False,10.017
2019-10-27 11:19:41.520,LG-H970,1572175181531.5,-3.406,10.816,-4.031,41.1093745,16.8739919,False,10.017
2019-10-27 11:19:41.540,LG-H970,1572175181552.6667,-5.877,9.564,-2.989,41.1093745,16.8739919,False,10.017
2019-10-27 11:19:41.560,LG-H970,1572175181568.0,-1.299,9.381,-4.426,41.1093745,16.8739919,False,10.017
2019-10-27 11:19:41.580,LG-H970,1572175181586.25,3.894,8.145,-0.508,41.1093516,16.8739942,False,9.772
2019-10-27 11:19:41.600,LG-H970,1572175181609.4,2.678,10.456,4.368,41.109283,16.8740013,False,9.036
2019-10-27 11:19:41.620,LG-H970,1572175181629.5,-4.495,13.347,0.418,41.109283,16.8740013,False,9.036
2019-10-27 11:19:41.640,LG-H970,1572175181648.25,-7.263,12.904,0.699,41.109283,16.8740013,False,9.036
2019-10-27 11:19:41.660,LG-H970,1572175181669.0,-1.887,8.955,0.398,41.109283,16.8740013,False,9.036
2019-10-27 11:19:41.680,LG-H970,1572175181689.5,2.96,8.955,2.96,41.109283,16.8740013,False,9.036
2019-10-27 11:19:41.700,LG-H970,1572175181707.0,1.959,10.275,1.126,41.109283,16.8740013,False,9.036
2019-10-27 11:19:41.720,LG-H970,1572175181728.6,-3.342,12.69,-0.772,41.109283,16.8740013,False,9.036
2019-10-27 11:19:41.740,LG-H970,1572175181749.3333,0.414,14.869,-4.526,41.109283,16.8740013,False,9.036
2019-10-27 11:19:41.760,LG-H970,1572175181770.5,2.0,6.599,-1.078,41.109283,16.8740013,False,9.036
2019-10-27 11:19:41.780,LG-H970,1572175181791.3333,3.726,6.082,3.524,41.109283,16.8740013,False,9.036
2019-10-27 11:19:41.800,LG-H970,1572175181808.25,3.108,8.579,-5.766,41.109283,16.8740013,False,9.036
2019-10-27 11:19:41.820,LG-H970,1572175181829.2,-2.886,12.634,-0.572,41.109283,16.8740013,False,9.036
2019-10-27 11:19:41.840,LG-H970,1572175181846.5,-2.643,12.627,-3.805,41.109283,16.8740013,False,9.036
2019-10-27 11:19:41.860,LG-H970,1572175181869.25,-1.836,8.08,0.182,41.109283,16.8740013,False,9.036
2019-10-27 11:19:41.880,LG-H970,1572175181891.0,2.58,6.866,-2.789,41.109283,16.8740013,False,9.036
2019-10-27 11:19:41.900,LG-H970,1572175181910.5,-1.391,8.327,-2.121,41.109283,16.8740013,False,9.036
2019-10-27 11:19:41.920,LG-H970,1572175181931.0,-3.107,11.357,-2.168,41.109283,16.8740013,False,9.036
2019-10-27 11:19:41.940,LG-H970,1572175181950.5,-1.167,11.175,-1.477,41.109283,16.8740013,False,9.036
2019-10-27 11:19:41.960,LG-H970,1572175181971.0,2.493,10.465,1.907,41.109283,16.8740013,False,9.036
2019-10-27 11:19:41.980,LG-H970,1572175181989.75,2.519,8.029,0.365,41.109283,16.8740013,False,9.036
2019-10-27 11:19:42.000,LG-H970,1572175182008.75,-1.41,9.993,-0.772,41.109283,16.8740013,False,9.036
2019-10-27 11:19:42.020,LG-H970,1572175182029.25,-2.815,10.441,-3.677,41.109283,16.8740013,False,9.036
2019-10-27 11:19:42.040,LG-H970,1572175182046.5,-0.121,10.238,-0.741,41.109283,16.8740013,False,9.036
2019-10-27 11:19:42.060,LG-H970,1572175182067.0,2.911,8.821,1.491,41.109283,16.8740013,False,9.036
2019-10-27 11:19:42.080,LG-H970,1572175182087.5,2.265,9.688,1.525,41.109283,16.8740013,False,9.036
2019-10-27 11:19:42.100,LG-H970,1572175182110.2,-1.63,10.489,-1.865,41.109283,16.8740013,False,9.036
2019-10-27 11:19:42.120,LG-H970,1572175182126.0,-2.577,10.609,-3.254,41.109283,16.8740013,False,9.036
2019-10-27 11:19:42.140,LG-H970,1572175182150.0,-2.148,10.602,-2.576,41.109283,16.8740013,True,9.036
2019-10-27 11:19:42.160,LG-H970,1572175182177.5,1.344,8.552,0.827,41.109283,16.8740013,False,9.036
2019-10-27 11:19:42.180,LG-H970,1572175182195.0,0.194,9.96,0.117,41.109283,16.8740013,False,9.036
2019-10-27 11:19:42.200,LG-H970,1572175182209.75,-2.749,10.978,-2.394,41.109283,16.8740013,False,9.036
2019-10-27 11:19:42.220,LG-H970,1572175182230.0,-1.804,10.083,-1.831,41.109283,16.8740013,False,9.036
2019-10-27 11:19:42.240,LG-H970,1572175182250.5,1.213,7.392,-0.88,41.109283,16.8740013,False,9.036
2019-10-27 11:19:42.260,LG-H970,1572175182269.25,2.046,8.562,0.904,41.109283,16.8740013,False,9.036
2019-10-27 11:19:42.280,LG-H970,1572175182289.5,-0.663,9.445,-1.334,41.109283,16.8740013,False,9.036
2019-10-27 11:19:42.300,LG-H970,1572175182309.75,-1.833,11.697,-1.731,41.109283,16.8740013,False,9.036
2019-10-27 11:19:42.320,LG-H970,1572175182330.0,-0.799,10.008,-1.072,41.109283,16.8740013,False,9.036
2019-10-27 11:19:42.340,LG-H970,1572175182350.25,1.231,8.585,0.713,41.109283,16.8740013,False,9.036
2019-10-27 11:19:42.360,LG-H970,1572175182369.0,0.971,8.791,-0.351,41.109283,16.8740013,False,9.036
2019-10-27 11:19:42.380,LG-H970,1572175182389.5,-0.989,10.291,-2.241,41.109283,16.8740013,False,9.036
2019-10-27 11:19:42.400,LG-H970,1572175182411.5,-2.041,10.308,-1.799,41.109283,16.8740013,False,9.036
2019-10-27 11:19:42.420,LG-H970,1572175182429.75,-0.336,9.315,-0.481,41.109283,16.8740013,False,9.036
2019-10-27 11:19:42.440,LG-H970,1572175182448.5,0.952,9.007,0.289,41.109283,16.8740013,False,9.036
2019-10-27 11:19:42.460,LG-H970,1572175182469.0,0.123,10.113,-0.684,41.109283,16.8740013,False,9.036
2019-10-27 11:19:42.480,LG-H970,1572175182487.3333,-1.285,10.889,-1.141,41.109283,16.8740013,False,9.036
2019-10-27 11:19:42.500,LG-H970,1572175182508.75,-0.531,10.085,-0.929,41.109283,16.8740013,False,9.036
2019-10-27 11:19:42.520,LG-H970,1572175182528.0,0.551,9.245,-0.273,41.109283,16.8740013,False,9.036
2019-10-27 11:19:42.540,LG-H970,1572175182549.2,0.948,9.02,-0.25,41.109283,16.8740013,False,9.036
2019-10-27 11:19:42.560,LG-H970,1572175182573.0,1.865,12.715,-1.183,41.109283,16.8740013,False,9.036
2019-10-27 11:19:42.580,LG-H970,1572175182588.6667,-0.69,8.589,0.653,41.109283,16.8740013,False,9.036
2019-10-27 11:19:42.600,LG-H970,1572175182612.3333,0.713,8.907,-0.856,41.1092029,16.8740104,False,8.183
2019-10-27 11:19:42.620,LG-H970,1572175182628.3333,0.826,8.751,-1.817,41.1092029,16.8740104,False,8.183
2019-10-27 11:19:42.640,LG-H970,1572175182648.6,-0.037,9.13,-1.532,41.1092029,16.8740104,False,8.183
2019-10-27 11:19:42.660,LG-H970,1572175182669.75,-0.559,9.906,-0.379,41.1092029,16.8740104,False,8.183
2019-10-27 11:19:42.680,LG-H970,1572175182690.25,0.319,11.425,1.017,41.1092029,16.8740104,False,8.183
2019-10-27 11:19:42.700,LG-H970,1572175182710.0,-0.969,10.412,0.962,41.1092029,16.8740104,False,8.183
2019-10-27 11:19:42.720,LG-H970,1572175182729.5,-2.426,9.375,-1.246,41.1092029,16.8740104,False,8.183
2019-10-27 11:19:42.740,LG-H970,1572175182749.0,-2.903,7.586,-2.523,41.1092029,16.8740104,False,8.183
2019-10-27 11:19:42.760,LG-H970,1572175182769.0,-1.363,8.266,-2.483,41.1092029,16.8740104,False,8.183
2019-10-27 11:19:42.780,LG-H970,1572175182790.5,-0.084,10.054,-0.618,41.1092029,16.8740104,False,8.183
2019-10-27 11:19:42.800,LG-H970,1572175182808.75,1.728,12.655,1.713,41.1092029,16.8740104,False,8.183
2019-10-27 11:19:42.820,LG-H970,1572175182828.0,1.538,11.411,-0.057,41.1092029,16.8740104,False,8.183
2019-10-27 11:19:42.840,LG-H970,1572175182849.0,-0.195,10.84,-0.814,41.1092029,16.8740104,False,8.183
2019-10-27 11:19:42.860,LG-H970,1572175182869.0,0.91,9.688,-3.585,41.1092029,16.8740104,False,8.183
2019-10-27 11:19:42.880,LG-H970,1572175182889.4,1.222,8.528,-0.029,41.1092029,16.8740104,False,8.183
2019-10-27 11:19:42.900,LG-H970,1572175182909.0,0.634,9.71,-0.232,41.1092029,16.8740104,False,8.183
2019-10-27 11:19:42.920,LG-H970,1572175182929.4,-0.391,12.043,-0.448,41.1092029,16.8740104,False,8.183
2019-10-27 11:19:42.940,LG-H970,1572175182947.0,-0.514,12.637,-0.572,41.1092029,16.8740104,False,8.183
2019-10-27 11:19:42.960,LG-H970,1572175182967.0,-1.295,8.46,-1.368,41.1092029,16.8740104,False,8.183
2019-10-27 11:19:42.980,LG-H970,1572175182989.8,-0.306,8.594,-0.411,41.1092029,16.8740104,False,8.183
2019-10-27 11:19:43.000,LG-H970,1572175183011.75,-0.473,9.658,-1.264,41.1092029,16.8740104,False,8.183
2019-10-27 11:19:43.020,LG-H970,1572175183031.25,-2.145,11.643,1.35,41.1092029,16.8740104,False,8.183
2019-10-27 11:19:43.040,LG-H970,1572175183050.25,-1.586,10.654,-1.531,41.1092029,16.8740104,False,8.183
2019-10-27 11:19:43.060,LG-H970,1572175183071.25,-0.897,9.925,-0.616,41.1092029,16.8740104,False,8.183
2019-10-27 11:19:43.080,LG-H970,1572175183090.6667,-0.554,8.114,-0.789,41.1092029,16.8740104,False,8.183
2019-10-27 11:19:43.100,LG-H970,1572175183110.75,-0.048,8.472,-2.462,41.1092029,16.8740104,False,8.183
2019-10-27 11:19:43.120,LG-H970,1572175183130.25,-0.699,10.298,-0.751,41.1092029,16.8740104,False,8.183
2019-10-27 11:19:43.140,LG-H970,1572175183149.5,-1.027,9.232,-1.427,41.1092029,16.8740104,False,8.183
2019-10-27 11:19:43.160,LG-H970,1572175183170.8,0.694,9.08,0.194,41.1092029,16.8740104,False,8.183
2019-10-27 11:19:43.180,LG-H970,1572175183190.6667,0.825,7.811,-1.3,41.1092029,16.8740104,False,8.183
2019-10-27 11:19:43.200,LG-H970,1572175183210.6,-1.076,9.186,-1.026,41.1092029,16.8740104,False,8.183
2019-10-27 11:19:43.220,LG-H970,1572175183230.6667,-1.96,10.776,-2.769,41.1092029,16.8740104,False,8.183
2019-10-27 11:19:43.240,LG-H970,1572175183249.4,-0.39,11.65,-0.008,41.1092029,16.8740104,False,8.183
2019-10-27 11:19:43.260,LG-H970,1572175183269.3333,0.95,8.566,1.506,41.1092029,16.8740104,False,8.183
2019-10-27 11:19:43.280,LG-H970,1572175183289.0,2.773,9.886,-0.292,41.1092029,16.8740104,False,8.183
2019-10-27 11:19:43.300,LG-H970,1572175183307.25,0.809,10.552,-2.046,41.1092029,16.8740104,False,8.183
2019-10-27 11:19:43.320,LG-H970,1572175183329.2,-1.572,10.084,-0.797,41.1092029,16.8740104,False,8.183
2019-10-27 11:19:43.340,LG-H970,1572175183350.0,-0.107,10.791,0.095,41.1092029,16.8740104,False,8.183
2019-10-27 11:19:43.360,LG-H970,1572175183370.0,1.244,9.648,-0.812,41.1092029,16.8740104,False,8.183
2019-10-27 11:19:43.380,LG-H970,1572175183389.5,0.986,9.472,-0.078,41.1092029,16.8740104,False,8.183
2019-10-27 11:19:43.400,LG-H970,1572175183408.3333,-0.017,9.169,-0.951,41.1092029,16.8740104,False,8.183
2019-10-27 11:19:43.420,LG-H970,1572175183429.0,0.308,10.141,-0.607,41.1092029,16.8740104,False,8.183
2019-10-27 11:19:43.440,LG-H970,1572175183449.75,0.393,10.512,-0.68,41.1092029,16.8740104,False,8.183
2019-10-27 11:19:43.460,LG-H970,1572175183469.0,-0.072,11.501,0.294,41.1092029,16.8740104,False,8.183
2019-10-27 11:19:43.480,LG-H970,1572175183489.25,-0.55,10.575,-0.424,41.1092029,16.8740104,False,8.183
2019-10-27 11:19:43.500,LG-H970,1572175183509.0,0.788,10.417,-2.083,41.1092029,16.8740104,False,8.183
2019-10-27 11:19:43.520,LG-H970,1572175183528.25,0.174,8.458,-1.05,41.1092029,16.8740104,False,8.183
2019-10-27 11:19:43.540,LG-H970,1572175183548.5,0.981,9.258,-0.59,41.1092029,16.8740104,False,8.183
2019-10-27 11:19:43.560,LG-H970,1572175183568.5,0.445,8.717,-2.088,41.1092029,16.8740104,False,8.183
2019-10-27 11:19:43.580,LG-H970,1572175183586.5,-0.791,10.429,-0.554,41.1092029,16.8740104,False,8.183
2019-10-27 11:19:43.600,LG-H970,1572175183610.25,-0.564,9.86,-2.584,41.1091616,16.874024,False,8.703
2019-10-27 11:19:43.620,LG-H970,1572175183630.5,1.708,9.352,0.848,41.1091202,16.8740375,False,9.223
