UTC_timestamp,device_name,timestamp,x,y,z,lat,long,event,speed
2019-10-25 09:50:08.700,LG-H970,1571997008707.5,-0.669,9.661,-1.187,41.1076293,16.8818172,False,NONE
2019-10-25 09:50:08.720,LG-H970,1571997008727.5,-0.716,10.001,-1.234,41.1076293,16.8818172,False,NONE
2019-10-25 09:50:08.740,LG-H970,1571997008749.6,-0.729,9.705,-1.153,41.1076293,16.8818172,False,NONE
2019-10-25 09:50:08.760,LG-H970,1571997008771.75,-0.682,9.927,-1.247,41.1076293,16.8818172,False,NONE
2019-10-25 09:50:08.780,LG-H970,1571997008791.5,-0.586,9.934,-1.126,41.1076293,16.8818172,False,NONE
2019-10-25 09:50:08.800,LG-H970,1571997008811.5,-0.712,9.757,-1.14,41.1076293,16.8818172,False,NONE
2019-10-25 09:50:08.820,LG-H970,1571997008830.75,-0.724,10.058,-1.261,41.1076293,16.8818172,False,NONE
2019-10-25 09:50:08.840,LG-H970,1571997008850.5,-0.673,9.618,-1.152,41.1076293,16.8818172,False,NONE
2019-10-25 09:50:08.860,LG-H970,1571997008870.5,-0.637,9.867,-1.218,41.1076293,16.8818172,False,NONE
2019-10-25 09:50:08.880,LG-H970,1571997008890.5,-0.752,9.845,-1.202,41.1076293,16.8818172,False,NONE
2019-10-25 09:50:08.900,LG-H970,1571997008909.75,-0.681,9.711,-1.245,41.1076293,16.8818172,False,NONE
2019-10-25 09:50:08.920,LG-H970,1571997008929.5,-0.635,10.007,-1.297,41.1076293,16.8818172,False,NONE
2019-10-25 09:50:08.940,LG-H970,1571997008949.5,-0.669,9.66,-1.321,41.1076293,16.8818172,False,NONE
2019-10-25 09:50:08.960,LG-H970,1571997008969.25,-0.651,9.896,-1.139,41.1076293,16.8818172,False,NONE
2019-10-25 09:50:08.980,LG-H970,1571997008988.75,-0.811,9.772,-1.241,41.1076293,16.8818172,False,NONE
2019-10-25 09:50:09.000,LG-H970,1571997009008.5,-0.55,9.828,-1.073,41.1076293,16.8818172,False,NONE
2019-10-25 09:50:09.020,LG-H970,1571997009028.25,-0.711,9.821,-1.142,41.1076293,16.8818172,False,NONE
2019-10-25 09:50:09.040,LG-H970,1571997009048.0,-0.707,9.923,-1.258,41.1076293,16.8818172,False,NONE
2019-10-25 09:50:09.060,LG-H970,1571997009067.75,-0.642,9.785,-1.127,41.1076293,16.8818172,False,NONE
2019-10-25 09:50:09.080,LG-H970,1571997009089.2,-0.726,9.882,-1.198,41.1076293,16.8818172,False,NONE
2019-10-25 09:50:09.100,LG-H970,1571997009112.0,-0.589,9.898,-1.158,41.1076293,16.8818172,False,NONE
2019-10-25 09:50:09.120,LG-H970,1571997009131.5,-0.739,9.782,-1.218,41.1076293,16.8818172,False,NONE
2019-10-25 09:50:09.140,LG-H970,1571997009151.5,-0.688,9.878,-1.299,41.1076293,16.8818172,False,NONE
2019-10-25 09:50:09.160,LG-H970,1571997009171.25,-0.656,9.679,-1.097,41.1076293,16.8818172,False,NONE
2019-10-25 09:50:09.180,LG-H970,1571997009192.0,-0.723,9.872,-1.278,41.1076293,16.8818172,False,NONE
2019-10-25 09:50:09.200,LG-H970,1571997009210.5,-0.617,9.913,-1.229,41.1076293,16.8818172,False,NONE
2019-10-25 09:50:09.220,LG-H970,1571997009230.5,-0.7,9.721,-1.249,41.1076293,16.8818172,False,NONE
2019-10-25 09:50:09.240,LG-H970,1571997009250.0,-0.69,10.039,-1.285,41.1076293,16.8818172,False,NONE
2019-10-25 09:50:09.260,LG-H970,1571997009269.75,-0.708,9.584,-1.235,41.1076293,16.8818172,False,NONE
2019-10-25 09:50:09.280,LG-H970,1571997009289.5,-0.638,9.924,-1.174,41.1076293,16.8818172,False,NONE
2019-10-25 09:50:09.300,LG-H970,1571997009309.5,-0.72,9.826,-1.199,41.1076293,16.8818172,False,NONE
2019-10-25 09:50:09.320,LG-H970,1571997009329.0,-0.579,9.775,-1.11,41.1076293,16.8818172,False,NONE
2019-10-25 09:50:09.340,LG-H970,1571997009348.5,-0.672,9.957,-1.219,41.1076293,16.8818172,False,NONE
2019-10-25 09:50:09.360,LG-H970,1571997009368.5,-0.694,9.743,-1.258,41.1076293,16.8818172,False,NONE
2019-10-25 09:50:09.380,LG-H970,1571997009390.2,-0.664,9.849,-1.159,41.1076293,16.8818172,False,NONE
2019-10-25 09:50:09.400,LG-H970,1571997009410.0,-0.768,9.937,-1.287,41.1076293,16.8818172,False,NONE
2019-10-25 09:50:09.420,LG-H970,1571997009427.5,-0.636,9.789,-1.151,41.1076293,16.8818172,False,NONE
2019-10-25 09:50:09.440,LG-H970,1571997009447.5,-0.736,9.762,-1.184,41.1076293,16.8818172,False,NONE
2019-10-25 09:50:09.460,LG-H970,1571997009467.5,-0.716,9.897,-1.318,41.1076293,16.8818172,False,NONE
2019-10-25 09:50:09.480,LG-H970,1571997009489.2,-0.659,9.823,-1.119,41.1076293,16.8818172,False,NONE
2019-10-25 09:50:09.500,LG-H970,1571997009511.5,-0.77,9.816,-1.243,41.1076293,16.8818172,False,NONE
2019-10-25 09:50:09.520,LG-H970,1571997009531.25,-0.608,9.907,-1.154,41.1076293,16.8818172,False,NONE
2019-10-25 09:50:09.540,LG-H970,1571997009550.75,-0.733,9.789,-1.251,41.1076293,16.8818172,False,NONE
2019-10-25 09:50:09.560,LG-H970,1571997009569.5,-0.676,9.979,-1.263,41.1076293,16.8818172,False,NONE
2019-10-25 09:50:09.580,LG-H970,1571997009590.0,-0.66,9.597,-1.124,41.1076293,16.8818172,False,NONE
2019-10-25 09:50:09.600,LG-H970,1571997009610.0,-0.69,9.896,-1.255,41.1076293,16.8818172,False,NONE
2019-10-25 09:50:09.620,LG-H970,1571997009630.25,-0.697,9.838,-1.176,41.1076293,16.8818172,False,NONE
2019-10-25 09:50:09.640,LG-H970,1571997009649.5,-0.623,9.674,-1.191,41.1076293,16.8818172,False,NONE
2019-10-25 09:50:09.660,LG-H970,1571997009669.5,-0.625,10.009,-1.231,41.1076293,16.8818172,False,NONE
2019-10-25 09:50:09.680,LG-H970,1571997009689.5,-0.712,9.694,-1.233,41.1076293,16.8818172,False,NONE
2019-10-25 09:50:09.700,LG-H970,1571997009710.6,-0.677,9.953,-1.198,41.1076293,16.8818172,False,NONE
2019-10-25 09:50:09.720,LG-H970,1571997009731.0,-0.687,9.841,-1.177,41.1076293,16.8818172,False,NONE
2019-10-25 09:50:09.740,LG-H970,1571997009748.75,-0.566,9.736,-1.167,41.1076293,16.8818172,False,NONE
2019-10-25 09:50:09.760,LG-H970,1571997009768.0,-0.723,9.891,-1.207,41.1076293,16.8818172,False,NONE
2019-10-25 09:50:09.780,LG-H970,1571997009788.25,-0.726,9.765,-1.322,41.1076293,16.8818172,False,NONE
2019-10-25 09:50:09.800,LG-H970,1571997009807.5,-0.591,9.846,-1.129,41.1076293,16.8818172,False,NONE
2019-10-25 09:50:09.820,LG-H970,1571997009829.4,-0.736,9.805,-1.233,41.1076293,16.8818172,False,NONE
2019-10-25 09:50:09.840,LG-H970,1571997009851.5,-0.628,9.857,-1.185,41.1076293,16.8818172,False,NONE
2019-10-25 09:50:09.860,LG-H970,1571997009871.5,-0.764,9.868,-1.218,41.1076293,16.8818172,False,NONE
2019-10-25 09:50:09.880,LG-H970,1571997009891.25,-0.734,9.825,-1.277,41.1076293,16.8818172,False,NONE
2019-10-25 09:50:09.900,LG-H970,1571997009910.5,-0.648,9.747,-1.129,41.1076293,16.8818172,False,NONE
2019-10-25 09:50:09.920,LG-H970,1571997009930.5,-0.773,9.855,-1.241,41.1076293,16.8818172,False,NONE
2019-10-25 09:50:09.940,LG-H970,1571997009950.5,-0.612,9.903,-1.191,41.1076293,16.8818172,False,NONE
2019-10-25 09:50:09.960,LG-H970,1571997009970.0,-0.67,9.762,-1.197,41.1076293,16.8818172,False,NONE
2019-10-25 09:50:09.980,LG-H970,1571997009989.5,-0.623,9.998,-1.3,41.1076293,16.8818172,False,NONE
2019-10-25 09:50:10.000,LG-H970,1571997010009.5,-0.637,9.642,-1.126,41.1076293,16.8818172,False,NONE
2019-10-25 09:50:10.020,LG-H970,1571997010028.75,-0.654,9.904,-1.24,41.1076293,16.8818172,False,NONE
2019-10-25 09:50:10.040,LG-H970,1571997010048.75,-0.678,9.863,-1.128,41.1076293,16.8818172,False,NONE
2019-10-25 09:50:10.060,LG-H970,1571997010068.5,-0.645,9.691,-1.157,41.1076293,16.8818172,False,NONE
2019-10-25 09:50:10.080,LG-H970,1571997010087.5,-0.679,10.017,-1.201,41.1076293,16.8818172,False,NONE
2019-10-25 09:50:10.100,LG-H970,1571997010109.8,-0.729,9.66,-1.185,41.1076293,16.8818172,False,NONE
2019-10-25 09:50:10.120,LG-H970,1571997010131.0,-0.64,10.038,-1.248,41.1076293,16.8818172,False,NONE
2019-10-25 09:50:10.140,LG-H970,1571997010148.25,-0.818,9.834,-1.25,41.1076293,16.8818172,False,NONE
2019-10-25 09:50:10.160,LG-H970,1571997010167.5,-0.666,9.768,-1.15,41.1076293,16.8818172,False,NONE
2019-10-25 09:50:10.180,LG-H970,1571997010183.5,-0.766,9.79,-1.2,41.1076293,16.8818172,False,NONE
2019-10-25 09:50:10.200,LG-H970,1571997010209.3333,-0.731,9.826,-1.279,41.1076293,16.8818172,True,NONE
2019-10-25 09:50:10.220,LG-H970,1571997010229.4,-0.619,9.849,-1.153,41.1076293,16.8818172,True,NONE
2019-10-25 09:50:10.240,LG-H970,1571997010251.25,-0.772,9.897,-1.26,41.1076293,16.8818172,False,NONE
2019-10-25 09:50:10.260,LG-H970,1571997010271.0,-0.572,9.836,-1.176,41.1076293,16.8818172,False,NONE
2019-10-25 09:50:10.280,LG-H970,1571997010290.75,-0.659,9.842,-1.209,41.1076293,16.8818172,False,NONE
2019-10-25 09:50:10.300,LG-H970,1571997010310.5,-0.669,9.843,-1.284,41.1076293,16.8818172,False,NONE
2019-10-25 09:50:10.320,LG-H970,1571997010330.0,-0.605,9.795,-1.149,41.1076293,16.8818172,False,NONE
2019-10-25 09:50:10.340,LG-H970,1571997010349.75,-0.743,9.867,-1.242,41.1076293,16.8818172,False,NONE
2019-10-25 09:50:10.360,LG-H970,1571997010369.5,-0.593,9.827,-1.133,41.1076293,16.8818172,False,NONE
2019-10-25 09:50:10.380,LG-H970,1571997010389.25,-0.691,9.737,-1.187,41.1076293,16.8818172,False,NONE
2019-10-25 09:50:10.400,LG-H970,1571997010408.75,-0.688,9.977,-1.305,41.1076293,16.8818172,False,NONE
2019-10-25 09:50:10.420,LG-H970,1571997010427.5,-0.684,9.66,-1.157,41.1076293,16.8818172,False,NONE
2019-10-25 09:50:10.440,LG-H970,1571997010448.5,-0.681,9.924,-1.264,41.1076293,16.8818172,False,NONE
2019-10-25 09:50:10.460,LG-H970,1571997010468.25,-0.674,9.885,-1.167,41.1076293,16.8818172,False,NONE
2019-10-25 09:50:10.480,LG-H970,1571997010487.5,-0.712,9.679,-1.182,41.1076293,16.8818172,False,NONE
2019-10-25 09:50:10.500,LG-H970,1571997010507.0,-0.735,10.019,-1.207,41.1076293,16.8818172,False,NONE
2019-10-25 09:50:10.520,LG-H970,1571997010529.8,-0.651,9.613,-1.201,41.1076293,16.8818172,False,NONE
2019-10-25 09:50:10.540,LG-H970,1571997010551.75,-0.67,9.9,-1.236,41.1076293,16.8818172,False,NONE
2019-10-25 09:50:10.560,LG-H970,1571997010571.5,-0.78,9.934,-1.184,41.1076293,16.8818172,False,NONE
2019-10-25 09:50:10.580,LG-H970,1571997010591.5,-0.664,9.747,-1.17,41.1076293,16.8818172,False,NONE
2019-10-25 09:50:10.600,LG-H970,1571997010611.0,-0.631,9.983,-1.23,41.1076293,16.8818172,False,NONE
2019-10-25 09:50:10.620,LG-H970,1571997010630.5,-0.704,9.672,-1.291,41.1076293,16.8818172,False,NONE
2019-10-25 09:50:10.640,LG-H970,1571997010645.5,-0.724,9.652,-1.012,41.1076293,16.8818172,False,NONE
2019-10-25 09:50:10.660,LG-H970,1571997010667.5,-0.726,9.926,-1.244,41.1076293,16.8818172,False,NONE
2019-10-25 09:50:10.680,LG-H970,1571997010690.0,-0.535,9.77,-1.135,41.1076293,16.8818172,False,NONE
2019-10-25 09:50:10.700,LG-H970,1571997010710.0,-0.699,9.819,-1.208,41.1076293,16.8818172,False,NONE
2019-10-25 09:50:10.720,LG-H970,1571997010728.25,-0.703,9.935,-1.335,41.1076293,16.8818172,False,NONE
2019-10-25 09:50:10.740,LG-H970,1571997010749.25,-0.646,9.736,-1.098,41.1076293,16.8818172,False,NONE
2019-10-25 09:50:10.760,LG-H970,1571997010768.5,-0.666,9.863,-1.258,41.1076293,16.8818172,False,NONE
2019-10-25 09:50:10.780,LG-H970,1571997010788.5,-0.621,9.907,-1.156,41.1076293,16.8818172,False,NONE
2019-10-25 09:50:10.800,LG-H970,1571997010808.5,-0.775,9.7,-1.218,41.1076293,16.8818172,False,NONE
2019-10-25 09:50:10.820,LG-H970,1571997010828.25,-0.683,9.991,-1.228,41.1076293,16.8818172,False,NONE
2019-10-25 09:50:10.840,LG-H970,1571997010847.5,-0.666,9.588,-1.144,41.1076293,16.8818172,False,NONE
2019-10-25 09:50:10.860,LG-H970,1571997010867.5,-0.658,10.006,-1.277,41.1076293,16.8818172,False,NONE
2019-10-25 09:50:10.880,LG-H970,1571997010887.0,-0.761,9.918,-1.197,41.1076293,16.8818172,False,NONE
2019-10-25 09:50:10.900,LG-H970,1571997010909.4,-0.652,9.719,-1.164,41.1076293,16.8818172,False,NONE
2019-10-25 09:50:10.920,LG-H970,1571997010931.5,-0.671,9.993,-1.23,41.1076293,16.8818172,False,NONE
2019-10-25 09:50:10.940,LG-H970,1571997010951.5,-0.787,9.596,-1.225,41.1076293,16.8818172,False,NONE
2019-10-25 09:50:10.960,LG-H970,1571997010971.25,-0.664,9.945,-1.214,41.1076293,16.8818172,False,NONE
2019-10-25 09:50:10.980,LG-H970,1571997010990.75,-0.639,9.81,-1.193,41.1076293,16.8818172,False,NONE
2019-10-25 09:50:11.000,LG-H970,1571997011010.5,-0.601,9.73,-1.136,41.1076293,16.8818172,False,NONE
2019-10-25 09:50:11.020,LG-H970,1571997011030.5,-0.778,9.989,-1.23,41.1076293,16.8818172,False,NONE
2019-10-25 09:50:11.040,LG-H970,1571997011050.25,-0.691,9.756,-1.322,41.1076293,16.8818172,False,NONE
2019-10-25 09:50:11.060,LG-H970,1571997011070.0,-0.504,9.837,-1.114,41.1076293,16.8818172,False,NONE
2019-10-25 09:50:11.080,LG-H970,1571997011088.25,-0.736,9.808,-1.272,41.1076293,16.8818172,False,NONE
2019-10-25 09:50:11.100,LG-H970,1571997011109.25,-0.709,9.871,-1.131,41.1076293,16.8818172,False,NONE
2019-10-25 09:50:11.120,LG-H970,1571997011128.75,-0.747,9.781,-1.201,41.1076293,16.8818172,False,NONE
2019-10-25 09:50:11.140,LG-H970,1571997011148.5,-0.602,9.894,-1.288,41.1076293,16.8818172,False,NONE
2019-10-25 09:50:11.160,LG-H970,1571997011168.5,-0.649,9.708,-1.13,41.1076293,16.8818172,False,NONE
2019-10-25 09:50:11.180,LG-H970,1571997011189.0,-0.751,9.944,-1.295,41.1076293,16.8818172,False,NONE
2019-10-25 09:50:11.200,LG-H970,1571997011208.0,-0.654,9.894,-1.152,41.1076293,16.8818172,False,NONE
2019-10-25 09:50:11.220,LG-H970,1571997011227.5,-0.664,9.628,-1.152,41.1076293,16.8818172,False,NONE
2019-10-25 09:50:11.240,LG-H970,1571997011247.5,-0.699,9.998,-1.197,41.1076293,16.8818172,False,NONE
2019-10-25 09:50:11.260,LG-H970,1571997011269.2,-0.706,9.697,-1.236,41.1076293,16.8818172,False,NONE
2019-10-25 09:50:11.280,LG-H970,1571997011292.75,-0.676,9.886,-1.231,41.1076293,16.8818172,False,NONE
2019-10-25 09:50:11.300,LG-H970,1571997011311.5,-0.67,9.841,-1.153,41.1076293,16.8818172,False,NONE
2019-10-25 09:50:11.320,LG-H970,1571997011331.25,-0.678,9.755,-1.185,41.1076293,16.8818172,False,NONE
2019-10-25 09:50:11.340,LG-H970,1571997011350.5,-0.676,10.05,-1.299,41.1076293,16.8818172,False,NONE
2019-10-25 09:50:11.360,LG-H970,1571997011370.5,-0.697,9.664,-1.236,41.1076293,16.8818172,False,NONE
2019-10-25 09:50:11.380,LG-H970,1571997011390.0,-0.652,9.867,-1.182,41.1076293,16.8818172,False,NONE
2019-10-25 09:50:11.400,LG-H970,1571997011410.25,-0.743,9.845,-1.194,41.1076293,16.8818172,False,NONE
2019-10-25 09:50:11.420,LG-H970,1571997011429.75,-0.638,9.742,-1.178,41.1076293,16.8818172,False,NONE
2019-10-25 09:50:11.440,LG-H970,1571997011449.5,-0.696,9.932,-1.179,41.1076293,16.8818172,False,NONE
2019-10-25 09:50:11.460,LG-H970,1571997011468.5,-0.694,9.729,-1.291,41.1076293,16.8818172,False,NONE
2019-10-25 09:50:11.480,LG-H970,1571997011489.0,-0.591,9.909,-1.111,41.1076293,16.8818172,False,NONE
2019-10-25 09:50:11.500,LG-H970,1571997011508.5,-0.786,9.886,-1.291,41.1076293,16.8818172,False,NONE
2019-10-25 09:50:11.520,LG-H970,1571997011528.25,-0.617,9.845,-1.095,41.1076293,16.8818172,False,NONE
2019-10-25 09:50:11.540,LG-H970,1571997011548.0,-0.701,9.716,-1.185,41.1076293,16.8818172,False,NONE
2019-10-25 09:50:11.560,LG-H970,1571997011568.0,-0.658,9.897,-1.303,41.1076293,16.8818172,False,NONE
2019-10-25 09:50:11.580,LG-H970,1571997011587.5,-0.645,9.713,-1.161,41.1076293,16.8818172,False,NONE
2019-10-25 09:50:11.600,LG-H970,1571997011609.8,-0.727,9.892,-1.239,41.1076293,16.8818172,False,NONE
2019-10-25 09:50:11.620,LG-H970,1571997011632.0,-0.555,9.873,-1.164,41.1076293,16.8818172,False,NONE
2019-10-25 09:50:11.640,LG-H970,1571997011651.5,-0.694,9.837,-1.215,41.1076293,16.8818172,False,NONE
2019-10-25 09:50:11.660,LG-H970,1571997011671.5,-0.749,9.934,-1.309,41.1076293,16.8818172,False,NONE
2019-10-25 09:50:11.680,LG-H970,1571997011691.25,-0.671,9.674,-1.107,41.1076293,16.8818172,False,NONE
