UTC_timestamp,device_name,timestamp,x,y,z,lat,long,event,speed
2019-10-26 18:50:12.540,LG-H970,1572115812550.5,-1.47,10.064,-1.09,41.1069515,16.8733756,False,NONE
2019-10-26 18:50:12.560,LG-H970,1572115812570.0,-1.125,10.485,0.115,41.1069515,16.8733756,False,NONE
2019-10-26 18:50:12.580,LG-H970,1572115812590.5,-0.555,9.785,-0.784,41.1069515,16.8733756,False,NONE
2019-10-26 18:50:12.600,LG-H970,1572115812610.0,-0.646,9.583,-1.354,41.1069515,16.8733756,False,NONE
2019-10-26 18:50:12.620,LG-H970,1572115812629.5,-1.647,9.441,-0.727,41.1069515,16.8733756,False,NONE
2019-10-26 18:50:12.640,LG-H970,1572115812649.75,-1.826,9.847,-1.155,41.1069515,16.8733756,False,NONE
2019-10-26 18:50:12.660,LG-H970,1572115812670.0,-1.185,10.325,-0.474,41.1069515,16.8733756,False,NONE
2019-10-26 18:50:12.680,LG-H970,1572115812689.0,-0.856,9.508,-0.886,41.1069515,16.8733756,False,NONE
2019-10-26 18:50:12.700,LG-H970,1572115812709.5,-0.808,9.945,-0.184,41.1069515,16.8733756,False,NONE
2019-10-26 18:50:12.720,LG-H970,1572115812728.75,-1.228,9.61,-1.167,41.1069515,16.8733756,False,NONE
2019-10-26 18:50:12.740,LG-H970,1572115812748.5,-1.388,9.945,-1.339,41.1069515,16.8733756,False,NONE
2019-10-26 18:50:12.760,LG-H970,1572115812769.0,-1.136,10.06,-0.738,41.1069515,16.8733756,False,NONE
2019-10-26 18:50:12.780,LG-H970,1572115812786.3333,-1.118,9.268,-0.117,41.1069515,16.8733756,False,NONE
2019-10-26 18:50:12.800,LG-H970,1572115812808.5,-0.788,9.827,-0.903,41.1069515,16.8733756,False,NONE
2019-10-26 18:50:12.820,LG-H970,1572115812828.5,-1.244,9.906,-1.443,41.1069515,16.8733756,False,NONE
2019-10-26 18:50:12.840,LG-H970,1572115812850.4,-1.59,9.993,-0.221,41.1069515,16.8733756,False,NONE
2019-10-26 18:50:12.860,LG-H970,1572115812870.3333,-1.295,10.413,-0.638,41.1069515,16.8733756,False,NONE
2019-10-26 18:50:12.880,LG-H970,1572115812889.8,-1.051,10.415,-0.586,41.1069515,16.8733756,False,NONE
2019-10-26 18:50:12.900,LG-H970,1572115812907.0,-0.849,10.528,-0.362,41.1069515,16.8733756,False,NONE
2019-10-26 18:50:12.920,LG-H970,1572115812929.0,-1.209,9.781,-0.244,41.1069515,16.8733756,False,NONE
2019-10-26 18:50:12.940,LG-H970,1572115812950.75,-1.208,10.28,-1.041,41.1069515,16.8733756,False,NONE
2019-10-26 18:50:12.960,LG-H970,1572115812970.75,-1.363,10.411,-0.657,41.1069515,16.8733756,False,NONE
2019-10-26 18:50:12.980,LG-H970,1572115812989.3333,-1.346,9.772,0.083,41.1069515,16.8733756,False,NONE
2019-10-26 18:50:13.000,LG-H970,1572115813008.6,-0.641,9.303,-0.619,41.1069515,16.8733756,False,NONE
2019-10-26 18:50:13.020,LG-H970,1572115813030.25,-0.605,9.02,-1.795,41.1069515,16.8733756,False,NONE
2019-10-26 18:50:13.040,LG-H970,1572115813050.0,-1.629,8.901,-1.035,41.1069515,16.8733756,False,NONE
2019-10-26 18:50:13.060,LG-H970,1572115813070.0,-1.52,10.007,-0.656,41.1069515,16.8733756,False,NONE
2019-10-26 18:50:13.080,LG-H970,1572115813089.5,-0.831,10.045,-0.295,41.1069515,16.8733756,False,NONE
2019-10-26 18:50:13.100,LG-H970,1572115813110.0,-0.769,9.465,0.191,41.1069515,16.8733756,False,NONE
2019-10-26 18:50:13.120,LG-H970,1572115813130.25,-1.313,9.25,-0.842,41.1069515,16.8733756,False,NONE
2019-10-26 18:50:13.140,LG-H970,1572115813150.0,-1.805,9.326,-1.528,41.1069515,16.8733756,False,NONE
2019-10-26 18:50:13.160,LG-H970,1572115813170.0,-1.53,9.845,-1.432,41.1069515,16.8733756,False,NONE
2019-10-26 18:50:13.180,LG-H970,1572115813189.75,-0.949,10.15,0.254,41.1069515,16.8733756,False,NONE
2019-10-26 18:50:13.200,LG-H970,1572115813208.75,-0.841,9.818,0.124,41.1069515,16.8733756,False,NONE
2019-10-26 18:50:13.220,LG-H970,1572115813228.5,-0.943,10.413,-0.735,41.1069515,16.8733756,False,NONE
2019-10-26 18:50:13.240,LG-H970,1572115813248.25,-1.319,10.012,-1.287,41.1069515,16.8733756,False,NONE
2019-10-26 18:50:13.260,LG-H970,1572115813267.75,-1.298,10.055,-0.804,41.1069515,16.8733756,False,NONE
2019-10-26 18:50:13.280,LG-H970,1572115813290.8,-0.851,9.937,-0.342,41.1069515,16.8733756,False,NONE
2019-10-26 18:50:13.300,LG-H970,1572115813312.75,-0.83,9.567,-0.256,41.1069515,16.8733756,False,NONE
2019-10-26 18:50:13.320,LG-H970,1572115813332.25,-1.127,9.42,-0.434,41.1069515,16.8733756,False,NONE
2019-10-26 18:50:13.340,LG-H970,1572115813351.75,-1.735,9.054,-1.618,41.1069515,16.8733756,False,NONE
2019-10-26 18:50:13.360,LG-H970,1572115813370.3333,-1.57,9.702,-1.625,41.1069515,16.8733756,False,NONE
2019-10-26 18:50:13.380,LG-H970,1572115813389.0,-1.331,9.59,-0.653,41.1069515,16.8733756,False,NONE
2019-10-26 18:50:13.400,LG-H970,1572115813409.0,-1.083,9.71,0.495,41.1069515,16.8733756,False,NONE
2019-10-26 18:50:13.420,LG-H970,1572115813427.5,-0.991,9.952,0.351,41.1069515,16.8733756,False,NONE
2019-10-26 18:50:13.440,LG-H970,1572115813448.4,-1.763,9.589,-0.406,41.1069515,16.8733756,False,NONE
2019-10-26 18:50:13.460,LG-H970,1572115813470.25,-1.769,9.672,-0.483,41.1069515,16.8733756,False,NONE
2019-10-26 18:50:13.480,LG-H970,1572115813490.75,-1.076,9.69,0.214,41.1069515,16.8733756,False,NONE
2019-10-26 18:50:13.500,LG-H970,1572115813510.5,-0.577,9.851,0.86,41.1069515,16.8733756,False,NONE
2019-10-26 18:50:13.520,LG-H970,1572115813530.25,-1.334,10.388,0.766,41.1069515,16.8733756,False,NONE
2019-10-26 18:50:13.540,LG-H970,1572115813547.3333,-2.198,10.341,0.276,41.1069515,16.8733756,False,NONE
2019-10-26 18:50:13.560,LG-H970,1572115813570.25,-1.225,9.551,0.024,41.1069515,16.8733756,False,NONE
2019-10-26 18:50:13.580,LG-H970,1572115813589.75,0.344,8.641,1.012,41.1069515,16.8733756,False,NONE
2019-10-26 18:50:13.600,LG-H970,1572115813609.75,-0.221,9.242,1.557,41.1069515,16.8733756,False,NONE
2019-10-26 18:50:13.620,LG-H970,1572115813630.5,-1.62,10.043,1.885,41.1069515,16.8733756,False,NONE
2019-10-26 18:50:13.640,LG-H970,1572115813649.25,-1.229,10.399,1.126,41.1069515,16.8733756,False,NONE
2019-10-26 18:50:13.660,LG-H970,1572115813668.5,-0.389,9.773,1.272,41.1069515,16.8733756,False,NONE
2019-10-26 18:50:13.680,LG-H970,1572115813688.5,-0.137,9.579,1.097,41.1069515,16.8733756,False,NONE
2019-10-26 18:50:13.700,LG-H970,1572115813707.75,-0.969,9.928,0.252,41.1069515,16.8733756,False,NONE
2019-10-26 18:50:13.720,LG-H970,1572115813727.0,-2.021,10.773,0.983,41.1069515,16.8733756,False,NONE
2019-10-26 18:50:13.740,LG-H970,1572115813746.75,-1.314,10.918,0.359,41.1069515,16.8733756,False,NONE
2019-10-26 18:50:13.760,LG-H970,1572115813769.2,-0.136,9.911,0.733,41.1069515,16.8733756,False,NONE
2019-10-26 18:50:13.780,LG-H970,1572115813791.5,-0.311,9.527,0.537,41.1069515,16.8733756,False,NONE
2019-10-26 18:50:13.800,LG-H970,1572115813809.0,-1.432,9.776,-0.447,41.1069515,16.8733756,False,NONE
2019-10-26 18:50:13.820,LG-H970,1572115813829.2,-1.776,10.028,0.105,41.1069515,16.8733756,False,NONE
2019-10-26 18:50:13.840,LG-H970,1572115813851.25,-0.623,9.537,0.86,41.1069515,16.8733756,False,NONE
2019-10-26 18:50:13.860,LG-H970,1572115813870.75,-0.252,8.764,1.35,41.1069515,16.8733756,False,NONE
2019-10-26 18:50:13.880,LG-H970,1572115813890.5,-0.811,9.391,0.324,41.1069515,16.8733756,False,NONE
2019-10-26 18:50:13.900,LG-H970,1572115813911.25,-1.725,9.737,0.821,41.1069515,16.8733756,False,NONE
2019-10-26 18:50:13.920,LG-H970,1572115813932.5,-1.515,10.102,0.834,41.1069515,16.8733756,False,NONE
2019-10-26 18:50:13.940,LG-H970,1572115813950.0,-0.752,10.349,1.73,41.1069515,16.8733756,False,NONE
2019-10-26 18:50:13.960,LG-H970,1572115813969.25,-0.7,9.955,1.219,41.1069515,16.8733756,False,NONE
2019-10-26 18:50:13.980,LG-H970,1572115813989.5,-1.234,9.976,0.605,41.1069515,16.8733756,False,NONE
2019-10-26 18:50:14.000,LG-H970,1572115814009.0,-1.437,10.198,-0.088,41.1069515,16.8733756,False,NONE
2019-10-26 18:50:14.020,LG-H970,1572115814022.0,-1.547,10.01,0.644,41.1069515,16.8733756,False,NONE
2019-10-26 18:50:14.040,LG-H970,1572115814046.6667,-0.798,9.772,1.265,41.1069515,16.8733756,True,NONE
2019-10-26 18:50:14.060,LG-H970,1572115814046.6667,-0.798,9.772,1.265,41.1069515,16.8733756,True,NONE
2019-10-26 18:50:14.080,LG-H970,1572115814089.25,-0.792,9.854,0.242,41.1069515,16.8733756,False,NONE
2019-10-26 18:50:14.100,LG-H970,1572115814110.3333,-1.712,10.131,-0.296,41.1069515,16.8733756,False,NONE
2019-10-26 18:50:14.120,LG-H970,1572115814128.5,-0.773,9.429,0.884,41.1069515,16.8733756,False,NONE
2019-10-26 18:50:14.140,LG-H970,1572115814147.75,-0.172,9.087,1.955,41.1069515,16.8733756,False,NONE
2019-10-26 18:50:14.160,LG-H970,1572115814167.75,-0.688,9.157,0.414,41.1069515,16.8733756,False,NONE
2019-10-26 18:50:14.180,LG-H970,1572115814187.5,-1.458,9.955,0.501,41.1069515,16.8733756,False,NONE
2019-10-26 18:50:14.200,LG-H970,1572115814207.5,-1.141,9.816,-0.042,41.1069515,16.8733756,False,NONE
2019-10-26 18:50:14.220,LG-H970,1572115814229.4,-0.337,10.235,1.644,41.1069515,16.8733756,False,NONE
2019-10-26 18:50:14.240,LG-H970,1572115814251.75,-0.174,11.101,1.794,41.1069515,16.8733756,False,NONE
2019-10-26 18:50:14.260,LG-H970,1572115814271.75,-1.265,10.853,0.865,41.1069515,16.8733756,False,NONE
2019-10-26 18:50:14.280,LG-H970,1572115814292.0,-1.566,10.833,0.627,41.1069515,16.8733756,False,NONE
2019-10-26 18:50:14.300,LG-H970,1572115814313.6667,-0.918,10.848,0.572,41.1069515,16.8733756,False,NONE
2019-10-26 18:50:14.320,LG-H970,1572115814330.5,-0.857,10.693,1.695,41.1069515,16.8733756,False,NONE
2019-10-26 18:50:14.340,LG-H970,1572115814349.0,-1.459,10.756,1.541,41.1069515,16.8733756,False,NONE
2019-10-26 18:50:14.360,LG-H970,1572115814371.25,-1.793,11.035,0.197,41.1069515,16.8733756,False,NONE
2019-10-26 18:50:14.380,LG-H970,1572115814390.75,-0.92,11.265,-0.446,41.1069515,16.8733756,False,NONE
2019-10-26 18:50:14.400,LG-H970,1572115814410.75,-0.724,9.514,1.186,41.1069515,16.8733756,False,NONE
2019-10-26 18:50:14.420,LG-H970,1572115814431.75,0.032,9.521,0.228,41.1069515,16.8733756,False,NONE
2019-10-26 18:50:14.440,LG-H970,1572115814449.75,-1.828,9.988,0.497,41.1069515,16.8733756,False,NONE
2019-10-26 18:50:14.460,LG-H970,1572115814469.5,-2.838,9.952,-0.58,41.1069515,16.8733756,False,NONE
2019-10-26 18:50:14.480,LG-H970,1572115814490.75,-0.842,9.278,0.517,41.1069515,16.8733756,False,NONE
2019-10-26 18:50:14.500,LG-H970,1572115814510.0,0.607,8.202,0.469,41.1069515,16.8733756,False,NONE
2019-10-26 18:50:14.520,LG-H970,1572115814528.5,-1.118,9.257,0.777,41.1069515,16.8733756,False,NONE
2019-10-26 18:50:14.540,LG-H970,1572115814548.5,-2.461,10.746,-1.389,41.1069515,16.8733756,False,NONE
2019-10-26 18:50:14.560,LG-H970,1572115814568.25,-1.836,9.993,-0.657,41.1069515,16.8733756,False,NONE
2019-10-26 18:50:14.580,LG-H970,1572115814589.0,0.007,8.521,-0.235,41.1069515,16.8733756,False,NONE
2019-10-26 18:50:14.600,LG-H970,1572115814608.75,0.323,8.96,0.72,41.1069515,16.8733756,False,NONE
2019-10-26 18:50:14.620,LG-H970,1572115814628.0,-1.407,9.655,-0.708,41.1069515,16.8733756,False,NONE
2019-10-26 18:50:14.640,LG-H970,1572115814650.5,-2.416,10.924,-1.157,41.1069515,16.8733756,False,NONE
2019-10-26 18:50:14.660,LG-H970,1572115814669.4,-1.553,10.618,-0.264,41.1069515,16.8733756,False,NONE
2019-10-26 18:50:14.680,LG-H970,1572115814690.3333,-0.355,9.383,0.1,41.1069515,16.8733756,False,NONE
2019-10-26 18:50:14.700,LG-H970,1572115814710.0,0.211,10.103,-0.84,41.1069515,16.8733756,False,NONE
2019-10-26 18:50:14.720,LG-H970,1572115814729.3333,-1.722,9.777,-2.058,41.1069515,16.8733756,False,NONE
2019-10-26 18:50:14.740,LG-H970,1572115814750.0,-2.247,9.929,-0.657,41.1069515,16.8733756,False,NONE
2019-10-26 18:50:14.760,LG-H970,1572115814772.0,-0.894,9.648,-0.073,41.1069515,16.8733756,False,NONE
2019-10-26 18:50:14.780,LG-H970,1572115814791.75,-0.539,9.627,1.072,41.1069515,16.8733756,False,NONE
2019-10-26 18:50:14.800,LG-H970,1572115814811.25,-1.24,9.906,0.553,41.1069515,16.8733756,False,NONE
2019-10-26 18:50:14.820,LG-H970,1572115814831.25,-1.756,9.359,-0.531,41.1069515,16.8733756,False,NONE
2019-10-26 18:50:14.840,LG-H970,1572115814849.0,-1.483,9.005,-0.477,41.1069515,16.8733756,False,NONE
2019-10-26 18:50:14.860,LG-H970,1572115814867.0,-1.27,9.07,-0.057,41.1069515,16.8733756,False,NONE
2019-10-26 18:50:14.880,LG-H970,1572115814888.2,-1.181,9.64,0.82,41.1069515,16.8733756,False,NONE
2019-10-26 18:50:14.900,LG-H970,1572115814910.25,-1.505,9.879,0.113,41.1069515,16.8733756,False,NONE
2019-10-26 18:50:14.920,LG-H970,1572115814932.3333,-1.447,9.947,-0.059,41.1069515,16.8733756,False,NONE
2019-10-26 18:50:14.940,LG-H970,1572115814949.0,-1.025,9.298,-0.05,41.1069515,16.8733756,False,NONE
2019-10-26 18:50:14.960,LG-H970,1572115814969.25,-1.146,9.268,0.216,41.1069515,16.8733756,False,NONE
2019-10-26 18:50:14.980,LG-H970,1572115814989.75,-1.756,10.65,-0.486,41.1069515,16.8733756,False,NONE
2019-10-26 18:50:15.000,LG-H970,1572115815009.0,-2.257,10.964,-0.376,41.1069515,16.8733756,False,NONE
2019-10-26 18:50:15.020,LG-H970,1572115815029.0,-1.182,10.203,0.303,41.1069515,16.8733756,False,NONE
2019-10-26 18:50:15.040,LG-H970,1572115815048.5,-0.462,9.284,0.352,41.1069515,16.8733756,False,NONE
2019-10-26 18:50:15.060,LG-H970,1572115815068.5,-1.237,9.584,-0.677,41.1069515,16.8733756,False,NONE
2019-10-26 18:50:15.080,LG-H970,1572115815088.5,-2.496,10.515,-0.732,41.1069515,16.8733756,False,NONE
2019-10-26 18:50:15.100,LG-H970,1572115815108.5,-1.93,10.34,-0.247,41.1069515,16.8733756,False,NONE
2019-10-26 18:50:15.120,LG-H970,1572115815128.25,-0.542,9.463,0.758,41.1069515,16.8733756,False,NONE
2019-10-26 18:50:15.140,LG-H970,1572115815148.75,-0.292,9.066,0.261,41.1069515,16.8733756,False,NONE
2019-10-26 18:50:15.160,LG-H970,1572115815168.75,-1.523,9.447,-0.711,41.1069515,16.8733756,False,NONE
2019-10-26 18:50:15.180,LG-H970,1572115815190.4,-1.939,9.727,-0.962,41.1069515,16.8733756,False,NONE
2019-10-26 18:50:15.200,LG-H970,1572115815212.75,-0.839,9.788,0.091,41.1069515,16.8733756,False,NONE
2019-10-26 18:50:15.220,LG-H970,1572115815229.0,-0.311,9.804,0.05,41.1069515,16.8733756,False,NONE
2019-10-26 18:50:15.240,LG-H970,1572115815249.2,-1.182,10.124,0.101,41.1069515,16.8733756,False,NONE
2019-10-26 18:50:15.260,LG-H970,1572115815271.25,-1.833,10.472,-1.14,41.1069515,16.8733756,False,NONE
2019-10-26 18:50:15.280,LG-H970,1572115815291.25,-1.637,9.889,-1.328,41.1069515,16.8733756,False,NONE
2019-10-26 18:50:15.300,LG-H970,1572115815311.25,-0.72,9.602,-0.816,41.1069515,16.8733756,False,NONE
2019-10-26 18:50:15.320,LG-H970,1572115815330.0,-0.709,9.66,-0.322,41.1069515,16.8733756,False,NONE
2019-10-26 18:50:15.340,LG-H970,1572115815350.25,-1.365,9.852,-0.752,41.1069515,16.8733756,False,NONE
2019-10-26 18:50:15.360,LG-H970,1572115815369.25,-1.574,9.948,-1.072,41.1069515,16.8733756,False,NONE
2019-10-26 18:50:15.380,LG-H970,1572115815389.25,-0.991,9.46,-1.304,41.1069515,16.8733756,False,NONE
2019-10-26 18:50:15.400,LG-H970,1572115815409.25,-0.685,8.953,-0.098,41.1069515,16.8733756,False,NONE
2019-10-26 18:50:15.420,LG-H970,1572115815428.75,-1.233,9.515,-0.273,41.1069515,16.8733756,False,NONE
2019-10-26 18:50:15.440,LG-H970,1572115815448.6667,-1.923,10.319,-0.734,41.1069515,16.8733756,False,NONE
2019-10-26 18:50:15.460,LG-H970,1572115815469.0,-1.558,10.361,-0.179,41.1069515,16.8733756,False,NONE
2019-10-26 18:50:15.480,LG-H970,1572115815489.0,-0.262,9.432,-0.286,41.1069515,16.8733756,False,NONE
2019-10-26 18:50:15.500,LG-H970,1572115815509.0,-0.195,9.353,-0.267,41.1069515,16.8733756,False,NONE
2019-10-26 18:50:15.520,LG-H970,1572115815530.8,-1.649,10.151,-1.017,41.1069515,16.8733756,False,NONE
