UTC_timestamp,device_name,timestamp,x,y,z,lat,long,event,speed
2019-10-27 16:22:40.380,LG-H970,1572193360391.0,0.97,9.544,-3.408,41.1076574,16.8853774,False,1.1540000000000001
2019-10-27 16:22:40.400,LG-H970,1572193360411.25,1.265,10.475,-1.42,41.1076574,16.8853774,False,1.1540000000000001
2019-10-27 16:22:40.420,LG-H970,1572193360411.25,1.265,10.475,-1.42,41.1076574,16.8853774,False,1.1540000000000001
2019-10-27 16:22:40.440,LG-H970,1572193360411.25,1.265,10.475,-1.42,41.1076574,16.8853774,False,1.1540000000000001
2019-10-27 16:22:40.460,LG-H970,1572193360468.5,1.685,9.125,-3.296,41.1076574,16.8853774,False,1.1540000000000001
2019-10-27 16:22:40.480,LG-H970,1572193360489.25,1.416,10.138,-3.63,41.1076574,16.8853774,False,1.1540000000000001
2019-10-27 16:22:40.500,LG-H970,1572193360508.75,1.944,10.413,-2.578,41.1076574,16.8853774,False,1.1540000000000001
2019-10-27 16:22:40.520,LG-H970,1572193360530.75,2.113,9.99,-1.849,41.1076574,16.8853774,False,1.1540000000000001
2019-10-27 16:22:40.540,LG-H970,1572193360552.0,2.305,10.433,-4.353,41.1076574,16.8853774,False,1.1540000000000001
2019-10-27 16:22:40.560,LG-H970,1572193360567.75,2.298,8.611,-3.163,41.1076574,16.8853774,False,1.1540000000000001
2019-10-27 16:22:40.580,LG-H970,1572193360587.0,1.542,9.053,-3.079,41.1076574,16.8853774,False,1.1540000000000001
2019-10-27 16:22:40.600,LG-H970,1572193360610.0,0.867,10.272,-4.354,41.1076574,16.8853774,False,1.1540000000000001
2019-10-27 16:22:40.620,LG-H970,1572193360629.3333,1.666,9.38,-2.74,41.1076574,16.8853774,False,1.1540000000000001
2019-10-27 16:22:40.640,LG-H970,1572193360649.4,1.626,9.547,-3.754,41.1076574,16.8853774,False,1.1540000000000001
2019-10-27 16:22:40.660,LG-H970,1572193360671.75,-0.852,9.686,-3.738,41.1076574,16.8853774,False,1.1540000000000001
2019-10-27 16:22:40.680,LG-H970,1572193360691.5,-0.181,9.859,-4.34,41.1076574,16.8853774,False,1.1540000000000001
2019-10-27 16:22:40.700,LG-H970,1572193360711.0,0.844,8.644,-2.641,41.1076574,16.8853774,False,1.1540000000000001
2019-10-27 16:22:40.720,LG-H970,1572193360730.5,-0.481,8.65,-4.344,41.1076574,16.8853774,False,1.1540000000000001
2019-10-27 16:22:40.740,LG-H970,1572193360750.25,-0.817,9.688,-4.474,41.1076574,16.8853774,False,1.1540000000000001
2019-10-27 16:22:40.760,LG-H970,1572193360770.0,1.31,9.321,-3.043,41.1076574,16.8853774,False,1.1540000000000001
2019-10-27 16:22:40.780,LG-H970,1572193360789.75,1.493,9.86,-1.886,41.1076574,16.8853774,False,1.1540000000000001
2019-10-27 16:22:40.800,LG-H970,1572193360810.5,-1.297,9.742,-3.791,41.1076574,16.8853774,False,1.1540000000000001
2019-10-27 16:22:40.820,LG-H970,1572193360829.25,-1.25,10.119,-4.333,41.1076574,16.8853774,False,1.1540000000000001
2019-10-27 16:22:40.840,LG-H970,1572193360848.5,1.114,8.807,-1.837,41.1076574,16.8853774,False,1.1540000000000001
2019-10-27 16:22:40.860,LG-H970,1572193360868.5,0.503,9.586,-2.367,41.1076574,16.8853774,False,1.1540000000000001
2019-10-27 16:22:40.880,LG-H970,1572193360885.5,-0.385,10.78,-4.304,41.1076574,16.8853774,False,1.1540000000000001
2019-10-27 16:22:40.900,LG-H970,1572193360907.0,-0.212,8.639,-2.812,41.1076574,16.8853774,False,1.1540000000000001
2019-10-27 16:22:40.920,LG-H970,1572193360927.5,0.938,8.351,-3.197,41.1076574,16.8853774,False,1.1540000000000001
2019-10-27 16:22:40.940,LG-H970,1572193360948.0,-0.369,10.165,-3.186,41.1076574,16.8853774,False,1.1540000000000001
2019-10-27 16:22:40.960,LG-H970,1572193360967.0,-0.526,8.906,-5.128,41.1076574,16.8853774,False,1.1540000000000001
2019-10-27 16:22:40.980,LG-H970,1572193360986.75,1.496,8.078,-2.187,41.1076574,16.8853774,False,1.1540000000000001
2019-10-27 16:22:41.000,LG-H970,1572193361009.0,1.751,8.709,-4.356,41.1076574,16.8853774,False,1.1540000000000001
2019-10-27 16:22:41.020,LG-H970,1572193361028.0,-0.4,9.498,-2.94,41.1076574,16.8853774,False,1.1540000000000001
2019-10-27 16:22:41.040,LG-H970,1572193361049.5,-0.169,9.711,-4.306,41.1076574,16.8853774,False,1.1540000000000001
2019-10-27 16:22:41.060,LG-H970,1572193361070.3333,1.757,9.164,-2.684,41.1076574,16.8853774,False,1.1540000000000001
2019-10-27 16:22:41.080,LG-H970,1572193361088.5,1.512,9.378,-3.024,41.1076574,16.8853774,False,1.1540000000000001
2019-10-27 16:22:41.100,LG-H970,1572193361109.75,1.337,10.308,-4.74,41.1076574,16.8853774,False,1.1540000000000001
2019-10-27 16:22:41.120,LG-H970,1572193361128.75,2.364,9.801,-3.146,41.1076574,16.8853774,False,1.1540000000000001
2019-10-27 16:22:41.140,LG-H970,1572193361148.75,1.256,10.395,-4.257,41.1076574,16.8853774,False,1.1540000000000001
2019-10-27 16:22:41.160,LG-H970,1572193361168.75,0.297,10.381,-4.003,41.1076574,16.8853774,False,1.1540000000000001
2019-10-27 16:22:41.180,LG-H970,1572193361188.5,1.958,9.016,-3.143,41.1076574,16.8853774,False,1.1540000000000001
2019-10-27 16:22:41.200,LG-H970,1572193361208.5,2.054,9.147,-3.322,41.1076574,16.8853774,False,1.1540000000000001
2019-10-27 16:22:41.220,LG-H970,1572193361228.5,0.531,9.827,-4.076,41.1076574,16.8853774,False,1.1540000000000001
2019-10-27 16:22:41.240,LG-H970,1572193361247.5,0.335,8.571,-3.383,41.1076574,16.8853774,False,1.1540000000000001
2019-10-27 16:22:41.260,LG-H970,1572193361267.5,1.169,8.808,-3.443,41.1076574,16.8853774,False,1.1540000000000001
2019-10-27 16:22:41.280,LG-H970,1572193361287.5,0.677,9.427,-3.292,41.1076574,16.8853774,False,1.1540000000000001
2019-10-27 16:22:41.300,LG-H970,1572193361311.8,0.213,10.074,-4.199,41.1076574,16.8853774,False,1.1540000000000001
2019-10-27 16:22:41.320,LG-H970,1572193361331.25,0.364,8.764,-1.971,41.1076574,16.8853774,False,1.1540000000000001
2019-10-27 16:22:41.340,LG-H970,1572193361351.6667,0.611,8.996,-3.99,41.107631,16.8853402,False,3.0700000000000003
2019-10-27 16:22:41.360,LG-H970,1572193361370.5,-0.688,10.708,-3.687,41.1076178,16.8853216,False,4.0280000000000005
2019-10-27 16:22:41.380,LG-H970,1572193361390.5,-0.067,10.617,-3.512,41.1076178,16.8853216,False,4.0280000000000005
2019-10-27 16:22:41.400,LG-H970,1572193361410.5,1.0,9.485,-1.368,41.1076178,16.8853216,False,4.0280000000000005
2019-10-27 16:22:41.420,LG-H970,1572193361430.25,0.105,9.828,-4.025,41.1076178,16.8853216,False,4.0280000000000005
2019-10-27 16:22:41.440,LG-H970,1572193361450.25,-0.892,10.154,-3.58,41.1076178,16.8853216,False,4.0280000000000005
2019-10-27 16:22:41.460,LG-H970,1572193361470.0,-0.31,8.843,-2.8,41.1076178,16.8853216,False,4.0280000000000005
2019-10-27 16:22:41.480,LG-H970,1572193361489.5,0.683,9.9,-3.459,41.1076178,16.8853216,False,4.0280000000000005
2019-10-27 16:22:41.500,LG-H970,1572193361509.25,0.164,8.905,-4.105,41.1076178,16.8853216,False,4.0280000000000005
2019-10-27 16:22:41.520,LG-H970,1572193361528.5,-0.355,8.513,-4.288,41.1076178,16.8853216,False,4.0280000000000005
2019-10-27 16:22:41.540,LG-H970,1572193361549.25,-0.176,8.895,-4.546,41.1076178,16.8853216,False,4.0280000000000005
2019-10-27 16:22:41.560,LG-H970,1572193361568.5,0.81,8.614,-3.872,41.1076178,16.8853216,False,4.0280000000000005
2019-10-27 16:22:41.580,LG-H970,1572193361588.0,0.827,8.795,-3.417,41.1076178,16.8853216,False,4.0280000000000005
2019-10-27 16:22:41.600,LG-H970,1572193361609.8,-0.769,8.686,-3.475,41.1076178,16.8853216,False,4.0280000000000005
2019-10-27 16:22:41.620,LG-H970,1572193361627.5,-0.131,9.624,-3.463,41.1076178,16.8853216,False,4.0280000000000005
2019-10-27 16:22:41.640,LG-H970,1572193361650.4,1.037,8.449,-1.164,41.1076178,16.8853216,False,4.0280000000000005
2019-10-27 16:22:41.660,LG-H970,1572193361671.25,1.203,9.155,-1.951,41.1076178,16.8853216,False,4.0280000000000005
2019-10-27 16:22:41.680,LG-H970,1572193361691.0,0.259,8.834,-2.06,41.1076178,16.8853216,False,4.0280000000000005
2019-10-27 16:22:41.700,LG-H970,1572193361711.25,-0.198,9.123,-0.553,41.1076178,16.8853216,False,4.0280000000000005
2019-10-27 16:22:41.720,LG-H970,1572193361731.5,0.612,9.731,-0.594,41.1076178,16.8853216,False,4.0280000000000005
2019-10-27 16:22:41.740,LG-H970,1572193361750.5,2.455,9.802,-2.075,41.1076178,16.8853216,False,4.0280000000000005
2019-10-27 16:22:41.760,LG-H970,1572193361770.75,1.552,8.744,-1.872,41.1076178,16.8853216,False,4.0280000000000005
2019-10-27 16:22:41.780,LG-H970,1572193361789.5,-0.291,10.101,-1.048,41.1076178,16.8853216,False,4.0280000000000005
2019-10-27 16:22:41.800,LG-H970,1572193361809.5,0.593,10.583,-0.088,41.1076178,16.8853216,False,4.0280000000000005
2019-10-27 16:22:41.820,LG-H970,1572193361829.75,2.376,10.141,-0.646,41.1076178,16.8853216,False,4.0280000000000005
2019-10-27 16:22:41.840,LG-H970,1572193361849.25,1.335,9.954,-2.096,41.1076178,16.8853216,False,4.0280000000000005
2019-10-27 16:22:41.860,LG-H970,1572193361862.0,0.658,11.061,-2.799,41.1076178,16.8853216,False,4.0280000000000005
2019-10-27 16:22:41.880,LG-H970,1572193361884.0,0.622,10.024,0.284,41.1076178,16.8853216,True,4.0280000000000005
2019-10-27 16:22:41.900,LG-H970,1572193361919.0,1.68,11.485,-0.29,41.1076178,16.8853216,False,4.0280000000000005
2019-10-27 16:22:41.920,LG-H970,1572193361927.0,0.711,11.395,-1.671,41.1076178,16.8853216,False,4.0280000000000005
2019-10-27 16:22:41.940,LG-H970,1572193361956.5,0.291,9.363,-0.361,41.1076178,16.8853216,False,4.0280000000000005
2019-10-27 16:22:41.960,LG-H970,1572193361967.5,1.719,9.69,-0.694,41.1076178,16.8853216,False,4.0280000000000005
2019-10-27 16:22:41.980,LG-H970,1572193361992.0,0.813,9.555,-0.831,41.1076178,16.8853216,False,4.0280000000000005
2019-10-27 16:22:42.000,LG-H970,1572193362010.2,0.05,9.868,-1.124,41.1076178,16.8853216,False,4.0280000000000005
2019-10-27 16:22:42.020,LG-H970,1572193362030.0,0.918,9.706,-1.947,41.1076178,16.8853216,False,4.0280000000000005
2019-10-27 16:22:42.040,LG-H970,1572193362048.0,1.632,9.125,-1.706,41.1076178,16.8853216,False,4.0280000000000005
2019-10-27 16:22:42.060,LG-H970,1572193362069.6,1.648,8.932,-0.621,41.1076178,16.8853216,False,4.0280000000000005
2019-10-27 16:22:42.080,LG-H970,1572193362090.25,-0.067,9.402,-1.882,41.1076178,16.8853216,False,4.0280000000000005
2019-10-27 16:22:42.100,LG-H970,1572193362110.75,-1.221,10.271,-2.098,41.1076178,16.8853216,False,4.0280000000000005
2019-10-27 16:22:42.120,LG-H970,1572193362133.0,0.02,9.486,-1.419,41.1076178,16.8853216,False,4.0280000000000005
2019-10-27 16:22:42.140,LG-H970,1572193362150.5,1.449,9.527,-1.221,41.1076178,16.8853216,False,4.0280000000000005
2019-10-27 16:22:42.160,LG-H970,1572193362168.75,0.207,10.097,-1.958,41.1076178,16.8853216,False,4.0280000000000005
2019-10-27 16:22:42.180,LG-H970,1572193362188.75,0.081,11.382,-2.707,41.1076178,16.8853216,False,4.0280000000000005
2019-10-27 16:22:42.200,LG-H970,1572193362208.25,1.132,10.45,-1.28,41.1076178,16.8853216,False,4.0280000000000005
2019-10-27 16:22:42.220,LG-H970,1572193362228.25,0.906,9.659,-2.781,41.1076178,16.8853216,False,4.0280000000000005
2019-10-27 16:22:42.240,LG-H970,1572193362249.0,-0.462,10.104,-3.926,41.1076178,16.8853216,False,4.0280000000000005
2019-10-27 16:22:42.260,LG-H970,1572193362268.0,0.91,10.168,-3.784,41.1076178,16.8853216,False,4.0280000000000005
2019-10-27 16:22:42.280,LG-H970,1572193362290.4,2.076,9.558,-2.596,41.1076178,16.8853216,False,4.0280000000000005
2019-10-27 16:22:42.300,LG-H970,1572193362312.75,-0.189,9.065,-4.69,41.1076178,16.8853216,False,4.0280000000000005
2019-10-27 16:22:42.320,LG-H970,1572193362329.0,0.332,9.192,-4.335,41.1076178,16.8853216,False,4.0280000000000005
2019-10-27 16:22:42.340,LG-H970,1572193362348.25,2.554,8.432,-3.437,41.1076178,16.8853216,False,4.0280000000000005
2019-10-27 16:22:42.360,LG-H970,1572193362369.6,1.731,9.209,-2.306,41.1076178,16.8853216,False,4.0280000000000005
2019-10-27 16:22:42.380,LG-H970,1572193362392.0,-0.889,8.378,-3.541,41.1075805,16.8852685,False,5.712000000000001
2019-10-27 16:22:42.400,LG-H970,1572193362410.3333,0.492,8.117,-2.102,41.1075805,16.8852685,False,5.712000000000001
2019-10-27 16:22:42.420,LG-H970,1572193362426.5,3.024,7.976,-3.371,41.1075805,16.8852685,False,5.712000000000001
2019-10-27 16:22:42.440,LG-H970,1572193362449.6,1.23,7.982,-0.221,41.1075805,16.8852685,False,5.712000000000001
2019-10-27 16:22:42.460,LG-H970,1572193362468.6667,-0.284,9.472,-3.617,41.1075805,16.8852685,False,5.712000000000001
2019-10-27 16:22:42.480,LG-H970,1572193362490.4,1.338,9.467,-2.258,41.1075805,16.8852685,False,5.712000000000001
2019-10-27 16:22:42.500,LG-H970,1572193362507.6667,1.954,8.338,-2.441,41.1075805,16.8852685,False,5.712000000000001
2019-10-27 16:22:42.520,LG-H970,1572193362526.5,0.604,9.443,-3.586,41.1075805,16.8852685,False,5.712000000000001
2019-10-27 16:22:42.540,LG-H970,1572193362551.75,-0.29,8.789,-3.567,41.1075805,16.8852685,False,5.712000000000001
2019-10-27 16:22:42.560,LG-H970,1572193362570.25,1.541,9.692,-3.697,41.1075805,16.8852685,False,5.712000000000001
2019-10-27 16:22:42.580,LG-H970,1572193362590.0,1.171,9.116,-2.793,41.1075805,16.8852685,False,5.712000000000001
2019-10-27 16:22:42.600,LG-H970,1572193362609.5,-0.344,8.979,-3.505,41.1075805,16.8852685,False,5.712000000000001
2019-10-27 16:22:42.620,LG-H970,1572193362629.25,-0.406,8.983,-4.185,41.1075805,16.8852685,False,5.712000000000001
2019-10-27 16:22:42.640,LG-H970,1572193362649.75,0.986,8.895,-3.66,41.1075805,16.8852685,False,5.712000000000001
2019-10-27 16:22:42.660,LG-H970,1572193362668.75,1.257,8.805,-2.16,41.1075805,16.8852685,False,5.712000000000001
2019-10-27 16:22:42.680,LG-H970,1572193362688.25,0.054,8.537,-2.919,41.1075805,16.8852685,False,5.712000000000001
2019-10-27 16:22:42.700,LG-H970,1572193362708.5,0.208,8.442,-3.789,41.1075805,16.8852685,False,5.712000000000001
2019-10-27 16:22:42.720,LG-H970,1572193362728.25,1.438,7.649,-3.692,41.1075805,16.8852685,False,5.712000000000001
2019-10-27 16:22:42.740,LG-H970,1572193362746.75,2.176,7.7,-1.488,41.1075805,16.8852685,False,5.712000000000001
2019-10-27 16:22:42.760,LG-H970,1572193362767.75,1.586,7.857,-2.742,41.1075805,16.8852685,False,5.712000000000001
2019-10-27 16:22:42.780,LG-H970,1572193362790.2,0.504,8.553,-3.063,41.1075805,16.8852685,False,5.712000000000001
2019-10-27 16:22:42.800,LG-H970,1572193362809.6667,1.127,8.511,-4.075,41.1075805,16.8852685,False,5.712000000000001
2019-10-27 16:22:42.820,LG-H970,1572193362829.4,0.864,9.775,-1.64,41.1075805,16.8852685,False,5.712000000000001
2019-10-27 16:22:42.840,LG-H970,1572193362851.75,-0.63,11.877,-1.53,41.1075805,16.8852685,False,5.712000000000001
2019-10-27 16:22:42.860,LG-H970,1572193362871.25,-2.482,11.671,-2.232,41.1075805,16.8852685,False,5.712000000000001
2019-10-27 16:22:42.880,LG-H970,1572193362891.0,-0.621,10.532,-4.404,41.1075805,16.8852685,False,5.712000000000001
2019-10-27 16:22:42.900,LG-H970,1572193362910.5,1.77,9.478,-1.675,41.1075805,16.8852685,False,5.712000000000001
2019-10-27 16:22:42.920,LG-H970,1572193362929.75,-0.303,11.412,-2.147,41.1075805,16.8852685,False,5.712000000000001
2019-10-27 16:22:42.940,LG-H970,1572193362949.25,-1.893,12.156,-2.819,41.1075805,16.8852685,False,5.712000000000001
2019-10-27 16:22:42.960,LG-H970,1572193362969.25,1.727,10.44,-3.223,41.1075805,16.8852685,False,5.712000000000001
2019-10-27 16:22:42.980,LG-H970,1572193362989.5,2.678,9.357,-1.243,41.1075805,16.8852685,False,5.712000000000001
2019-10-27 16:22:43.000,LG-H970,1572193363008.0,-1.039,9.597,-2.921,41.1075805,16.8852685,False,5.712000000000001
2019-10-27 16:22:43.020,LG-H970,1572193363030.0,-0.417,9.083,-4.246,41.1075805,16.8852685,False,5.712000000000001
2019-10-27 16:22:43.040,LG-H970,1572193363048.25,3.153,8.385,-2.253,41.1075805,16.8852685,False,5.712000000000001
2019-10-27 16:22:43.060,LG-H970,1572193363067.5,2.264,8.379,-1.409,41.1075805,16.8852685,False,5.712000000000001
2019-10-27 16:22:43.080,LG-H970,1572193363087.25,-0.903,8.429,-3.48,41.1075805,16.8852685,False,5.712000000000001
2019-10-27 16:22:43.100,LG-H970,1572193363107.75,0.925,7.883,-4.702,41.1075805,16.8852685,False,5.712000000000001
2019-10-27 16:22:43.120,LG-H970,1572193363130.0,3.855,7.858,-2.144,41.1075805,16.8852685,False,5.712000000000001
2019-10-27 16:22:43.140,LG-H970,1572193363149.3333,1.621,9.783,0.031,41.1075805,16.8852685,False,5.712000000000001
2019-10-27 16:22:43.160,LG-H970,1572193363167.0,-0.814,12.005,-6.183,41.1075805,16.8852685,False,5.712000000000001
2019-10-27 16:22:43.180,LG-H970,1572193363189.0,-1.897,8.812,-5.647,41.1075805,16.8852685,False,5.712000000000001
2019-10-27 16:22:43.200,LG-H970,1572193363211.0,2.46,7.42,-1.188,41.1075805,16.8852685,False,5.712000000000001
2019-10-27 16:22:43.220,LG-H970,1572193363231.0,1.908,7.423,-2.709,41.1075805,16.8852685,False,5.712000000000001
2019-10-27 16:22:43.240,LG-H970,1572193363250.25,-2.6,11.802,-6.737,41.1075805,16.8852685,False,5.712000000000001
2019-10-27 16:22:43.260,LG-H970,1572193363269.75,-2.614,8.712,-3.918,41.1075805,16.8852685,False,5.712000000000001
2019-10-27 16:22:43.280,LG-H970,1572193363289.5,3.107,8.813,-0.336,41.1075805,16.8852685,False,5.712000000000001
2019-10-27 16:22:43.300,LG-H970,1572193363310.75,1.541,9.399,-3.647,41.1075805,16.8852685,False,5.712000000000001
2019-10-27 16:22:43.320,LG-H970,1572193363329.25,-2.167,11.319,-4.534,41.1075805,16.8852685,False,5.712000000000001
2019-10-27 16:22:43.340,LG-H970,1572193363348.5,0.123,8.962,-3.094,41.1075805,16.8852685,False,5.712000000000001
2019-10-27 16:22:43.360,LG-H970,1572193363368.75,4.322,9.049,0.37,41.1075382,16.885202,False,6.615
