UTC_timestamp,device_name,timestamp,x,y,z,lat,long,event,speed
2019-10-26 10:07:01.660,LG-H970,1572084421668.5,-0.327,10.873,-0.505,41.1098352,16.8739029,False,NONE
2019-10-26 10:07:01.680,LG-H970,1572084421688.5,0.152,9.484,-0.316,41.1098352,16.8739029,False,NONE
2019-10-26 10:07:01.700,LG-H970,1572084421708.25,-0.202,9.391,-0.316,41.1098352,16.8739029,False,NONE
2019-10-26 10:07:01.720,LG-H970,1572084421726.0,-1.395,9.292,-0.654,41.1098352,16.8739029,False,NONE
2019-10-26 10:07:01.740,LG-H970,1572084421746.8,-1.365,10.405,-0.405,41.1098352,16.8739029,False,NONE
2019-10-26 10:07:01.760,LG-H970,1572084421767.5,-0.245,11.212,-0.003,41.1098352,16.8739029,False,NONE
2019-10-26 10:07:01.780,LG-H970,1572084421787.25,-0.254,10.544,-0.353,41.1098352,16.8739029,False,NONE
2019-10-26 10:07:01.800,LG-H970,1572084421807.25,-0.592,10.268,0.609,41.1098352,16.8739029,False,NONE
2019-10-26 10:07:01.820,LG-H970,1572084421827.5,0.075,11.23,-0.919,41.1098352,16.8739029,False,NONE
2019-10-26 10:07:01.840,LG-H970,1572084421849.8,-0.398,10.127,0.454,41.1098352,16.8739029,False,NONE
2019-10-26 10:07:01.860,LG-H970,1572084421871.0,-0.644,11.07,-0.361,41.1098352,16.8739029,False,NONE
2019-10-26 10:07:01.880,LG-H970,1572084421891.5,-0.853,10.619,-0.389,41.1098352,16.8739029,False,NONE
2019-10-26 10:07:01.900,LG-H970,1572084421911.0,-0.481,9.678,1.01,41.1098352,16.8739029,False,NONE
2019-10-26 10:07:01.920,LG-H970,1572084421931.25,-1.045,9.26,-1.335,41.1098352,16.8739029,False,NONE
2019-10-26 10:07:01.940,LG-H970,1572084421950.5,-2.392,10.029,-0.683,41.1098352,16.8739029,False,NONE
2019-10-26 10:07:01.960,LG-H970,1572084421970.75,-1.988,9.666,-1.081,41.1098352,16.8739029,False,NONE
2019-10-26 10:07:01.980,LG-H970,1572084421990.25,0.168,9.814,0.694,41.1098352,16.8739029,False,NONE
2019-10-26 10:07:02.000,LG-H970,1572084422010.25,0.36,10.091,-0.49,41.1098352,16.8739029,False,NONE
2019-10-26 10:07:02.020,LG-H970,1572084422030.0,-0.684,12.172,-0.207,41.1098352,16.8739029,False,NONE
2019-10-26 10:07:02.040,LG-H970,1572084422050.25,-1.595,9.996,-0.628,41.1098352,16.8739029,False,NONE
2019-10-26 10:07:02.060,LG-H970,1572084422069.75,-0.469,8.75,-0.086,41.1098352,16.8739029,False,NONE
2019-10-26 10:07:02.080,LG-H970,1572084422089.5,-0.106,7.604,-1.745,41.1098352,16.8739029,False,NONE
2019-10-26 10:07:02.100,LG-H970,1572084422108.5,-2.334,6.746,-0.972,41.1098352,16.8739029,False,NONE
2019-10-26 10:07:02.120,LG-H970,1572084422131.25,-4.796,6.151,-1.457,41.1098352,16.8739029,False,NONE
2019-10-26 10:07:02.140,LG-H970,1572084422150.0,-3.596,6.505,-3.096,41.1098352,16.8739029,False,NONE
2019-10-26 10:07:02.160,LG-H970,1572084422170.0,-0.329,8.536,-3.85,41.1098352,16.8739029,False,NONE
2019-10-26 10:07:02.180,LG-H970,1572084422187.25,1.355,9.259,1.466,41.1098352,16.8739029,False,NONE
2019-10-26 10:07:02.200,LG-H970,1572084422207.25,0.956,7.484,-0.046,41.1098352,16.8739029,False,NONE
2019-10-26 10:07:02.220,LG-H970,1572084422229.2,0.889,12.168,1.559,41.1098352,16.8739029,False,NONE
2019-10-26 10:07:02.240,LG-H970,1572084422252.25,2.578,18.029,-1.432,41.1098352,16.8739029,False,NONE
2019-10-26 10:07:02.260,LG-H970,1572084422271.75,0.759,9.505,4.137,41.1098352,16.8739029,False,NONE
2019-10-26 10:07:02.280,LG-H970,1572084422291.25,1.664,6.694,0.043,41.1098352,16.8739029,False,NONE
2019-10-26 10:07:02.300,LG-H970,1572084422311.0,-1.499,11.555,-4.325,41.1098352,16.8739029,False,NONE
2019-10-26 10:07:02.320,LG-H970,1572084422331.0,-4.82,13.347,-1.606,41.1098352,16.8739029,False,NONE
2019-10-26 10:07:02.340,LG-H970,1572084422350.5,-0.367,10.733,3.009,41.1098352,16.8739029,False,NONE
2019-10-26 10:07:02.360,LG-H970,1572084422370.75,4.327,9.453,3.49,41.1098352,16.8739029,False,NONE
2019-10-26 10:07:02.380,LG-H970,1572084422389.25,-0.7,11.161,-1.408,41.1098352,16.8739029,False,NONE
2019-10-26 10:07:02.400,LG-H970,1572084422409.5,-6.394,13.404,-2.259,41.1098352,16.8739029,False,NONE
2019-10-26 10:07:02.420,LG-H970,1572084422430.25,-4.414,9.675,-0.971,41.1098352,16.8739029,False,NONE
2019-10-26 10:07:02.440,LG-H970,1572084422449.25,1.424,8.32,2.129,41.1098352,16.8739029,False,NONE
2019-10-26 10:07:02.460,LG-H970,1572084422469.75,-0.646,9.389,4.758,41.1098352,16.8739029,False,NONE
2019-10-26 10:07:02.480,LG-H970,1572084422487.3333,-5.719,11.675,2.436,41.1098352,16.8739029,False,NONE
2019-10-26 10:07:02.500,LG-H970,1572084422507.0,-4.817,12.322,-0.091,41.1098352,16.8739029,False,NONE
2019-10-26 10:07:02.520,LG-H970,1572084422527.75,1.266,9.946,-3.071,41.1098352,16.8739029,False,NONE
2019-10-26 10:07:02.540,LG-H970,1572084422547.0,1.918,7.072,0.216,41.1098352,16.8739029,False,NONE
2019-10-26 10:07:02.560,LG-H970,1572084422569.4,3.139,12.107,-3.747,41.1098352,16.8739029,False,NONE
2019-10-26 10:07:02.580,LG-H970,1572084422590.0,-1.285,7.908,-5.218,41.1098352,16.8739029,False,NONE
2019-10-26 10:07:02.600,LG-H970,1572084422607.25,-1.566,8.032,1.066,41.1098352,16.8739029,False,NONE
2019-10-26 10:07:02.620,LG-H970,1572084422626.5,1.074,9.137,-2.071,41.1098352,16.8739029,False,NONE
2019-10-26 10:07:02.640,LG-H970,1572084422649.0,1.555,8.4,1.427,41.1098352,16.8739029,False,NONE
2019-10-26 10:07:02.660,LG-H970,1572084422669.8,-0.059,10.092,-1.536,41.1098352,16.8739029,False,NONE
2019-10-26 10:07:02.680,LG-H970,1572084422690.75,-1.599,11.18,-1.589,41.1098352,16.8739029,False,NONE
2019-10-26 10:07:02.700,LG-H970,1572084422710.25,-0.191,7.805,1.521,41.1098352,16.8739029,False,NONE
2019-10-26 10:07:02.720,LG-H970,1572084422730.75,0.162,9.681,-0.455,41.1098352,16.8739029,False,NONE
2019-10-26 10:07:02.740,LG-H970,1572084422750.5,-3.516,12.115,-2.617,41.1098352,16.8739029,False,NONE
2019-10-26 10:07:02.760,LG-H970,1572084422769.75,-3.592,10.376,-0.76,41.1098352,16.8739029,False,NONE
2019-10-26 10:07:02.780,LG-H970,1572084422790.25,0.137,7.89,-0.164,41.1098352,16.8739029,False,NONE
2019-10-26 10:07:02.800,LG-H970,1572084422809.0,0.265,9.203,1.698,41.1098352,16.8739029,False,NONE
2019-10-26 10:07:02.820,LG-H970,1572084422828.75,-1.938,10.891,-1.761,41.1098352,16.8739029,False,NONE
2019-10-26 10:07:02.840,LG-H970,1572084422848.5,-3.061,10.831,0.124,41.1098352,16.8739029,False,NONE
2019-10-26 10:07:02.860,LG-H970,1572084422868.25,-0.225,9.26,0.15,41.1098352,16.8739029,False,NONE
2019-10-26 10:07:02.880,LG-H970,1572084422890.6,1.227,8.578,1.262,41.1098352,16.8739029,False,NONE
2019-10-26 10:07:02.900,LG-H970,1572084422910.3333,-1.195,8.911,-0.568,41.1098352,16.8739029,False,NONE
2019-10-26 10:07:02.920,LG-H970,1572084422927.5,-2.541,10.865,-1.843,41.1098352,16.8739029,False,NONE
2019-10-26 10:07:02.940,LG-H970,1572084422947.25,-1.392,10.591,-0.17,41.1098352,16.8739029,False,NONE
2019-10-26 10:07:02.960,LG-H970,1572084422967.5,1.179,9.096,-0.069,41.1098352,16.8739029,False,NONE
2019-10-26 10:07:02.980,LG-H970,1572084422989.6,0.608,9.592,0.208,41.1098352,16.8739029,False,NONE
2019-10-26 10:07:03.000,LG-H970,1572084423011.75,-1.999,9.801,-2.262,41.1098352,16.8739029,False,NONE
2019-10-26 10:07:03.020,LG-H970,1572084423031.25,-1.3,10.587,-0.705,41.1098352,16.8739029,False,NONE
2019-10-26 10:07:03.040,LG-H970,1572084423050.75,0.369,8.944,-0.228,41.1098352,16.8739029,False,NONE
2019-10-26 10:07:03.060,LG-H970,1572084423070.5,0.387,9.685,0.689,41.1098352,16.8739029,False,NONE
2019-10-26 10:07:03.080,LG-H970,1572084423090.0,-1.599,10.224,-0.965,41.1098352,16.8739029,False,NONE
2019-10-26 10:07:03.100,LG-H970,1572084423110.75,-1.671,10.633,-0.954,41.1098352,16.8739029,False,NONE
2019-10-26 10:07:03.120,LG-H970,1572084423128.6667,0.05,10.057,-0.6,41.1098352,16.8739029,False,NONE
2019-10-26 10:07:03.140,LG-H970,1572084423148.4,0.167,9.153,-0.142,41.1098352,16.8739029,False,NONE
2019-10-26 10:07:03.160,LG-H970,1572084423170.0,-1.325,10.411,-1.558,41.1098352,16.8739029,True,NONE
2019-10-26 10:07:03.180,LG-H970,1572084423188.5,-1.759,10.541,-1.002,41.1098352,16.8739029,True,NONE
2019-10-26 10:07:03.200,LG-H970,1572084423208.5,0.146,9.077,-1.275,41.1098352,16.8739029,False,NONE
2019-10-26 10:07:03.220,LG-H970,1572084423230.8,0.531,9.075,0.368,41.1098352,16.8739029,False,NONE
2019-10-26 10:07:03.240,LG-H970,1572084423249.6667,-1.428,8.988,-1.197,41.1098352,16.8739029,False,NONE
2019-10-26 10:07:03.260,LG-H970,1572084423267.5,-1.709,10.612,-0.988,41.1098352,16.8739029,False,NONE
2019-10-26 10:07:03.280,LG-H970,1572084423288.25,-0.983,9.569,-0.511,41.1098352,16.8739029,False,NONE
2019-10-26 10:07:03.300,LG-H970,1572084423308.0,0.333,9.63,-0.051,41.1098352,16.8739029,False,NONE
2019-10-26 10:07:03.320,LG-H970,1572084423330.0,-0.391,10.235,-0.33,41.1098352,16.8739029,False,NONE
2019-10-26 10:07:03.340,LG-H970,1572084423351.3333,-1.455,10.496,-1.19,41.1098352,16.8739029,False,NONE
2019-10-26 10:07:03.360,LG-H970,1572084423367.5,-1.062,10.286,-0.358,41.1098352,16.8739029,False,NONE
2019-10-26 10:07:03.380,LG-H970,1572084423390.4,-0.024,9.367,-0.5,41.1098352,16.8739029,False,NONE
2019-10-26 10:07:03.400,LG-H970,1572084423411.25,-0.311,9.311,-0.722,41.1098352,16.8739029,False,NONE
2019-10-26 10:07:03.420,LG-H970,1572084423431.5,-1.293,9.341,-0.673,41.1098352,16.8739029,False,NONE
2019-10-26 10:07:03.440,LG-H970,1572084423451.75,-1.069,9.433,-0.924,41.1098352,16.8739029,False,NONE
2019-10-26 10:07:03.460,LG-H970,1572084423469.75,-0.223,9.769,0.34,41.1098352,16.8739029,False,NONE
2019-10-26 10:07:03.480,LG-H970,1572084423490.5,-0.72,9.762,-0.169,41.1098352,16.8739029,False,NONE
2019-10-26 10:07:03.500,LG-H970,1572084423510.5,-1.323,10.331,-0.098,41.1098352,16.8739029,False,NONE
2019-10-26 10:07:03.520,LG-H970,1572084423530.5,-0.745,10.717,-1.074,41.1098352,16.8739029,False,NONE
2019-10-26 10:07:03.540,LG-H970,1572084423550.25,-0.176,9.636,-0.238,41.1098352,16.8739029,False,NONE
2019-10-26 10:07:03.560,LG-H970,1572084423567.3333,0.121,9.78,-0.056,41.1098352,16.8739029,False,NONE
2019-10-26 10:07:03.580,LG-H970,1572084423588.0,0.012,9.499,-0.308,41.1098352,16.8739029,False,NONE
2019-10-26 10:07:03.600,LG-H970,1572084423609.0,1.035,11.48,-0.801,41.1098352,16.8739029,False,NONE
2019-10-26 10:07:03.620,LG-H970,1572084423631.0,0.012,9.213,0.443,41.1098352,16.8739029,False,NONE
2019-10-26 10:07:03.640,LG-H970,1572084423649.0,0.569,9.841,-0.259,41.1098352,16.8739029,False,NONE
2019-10-26 10:07:03.660,LG-H970,1572084423671.6667,1.177,10.21,-1.71,41.1098352,16.8739029,False,NONE
2019-10-26 10:07:03.680,LG-H970,1572084423687.5,0.302,8.149,-0.624,41.1098352,16.8739029,False,NONE
2019-10-26 10:07:03.700,LG-H970,1572084423708.0,-0.255,9.09,0.042,41.1098352,16.8739029,False,NONE
2019-10-26 10:07:03.720,LG-H970,1572084423728.25,-1.481,10.555,-0.802,41.1098352,16.8739029,False,NONE
2019-10-26 10:07:03.740,LG-H970,1572084423749.6,-1.972,11.145,-0.127,41.1098352,16.8739029,False,NONE
2019-10-26 10:07:03.760,LG-H970,1572084423772.0,-0.803,9.573,0.298,41.1098352,16.8739029,False,NONE
2019-10-26 10:07:03.780,LG-H970,1572084423789.3333,-1.076,8.999,0.463,41.1098352,16.8739029,False,NONE
2019-10-26 10:07:03.800,LG-H970,1572084423809.4,-3.092,8.798,-2.14,41.1098352,16.8739029,False,NONE
2019-10-26 10:07:03.820,LG-H970,1572084423831.5,-3.102,9.844,-0.969,41.1098352,16.8739029,False,NONE
2019-10-26 10:07:03.840,LG-H970,1572084423851.25,-2.299,8.275,-0.645,41.1098352,16.8739029,False,NONE
2019-10-26 10:07:03.860,LG-H970,1572084423870.75,-0.809,10.179,1.003,41.1098352,16.8739029,False,NONE
2019-10-26 10:07:03.880,LG-H970,1572084423890.0,-1.364,10.52,-0.754,41.1098352,16.8739029,False,NONE
2019-10-26 10:07:03.900,LG-H970,1572084423910.25,0.145,11.665,1.055,41.1098352,16.8739029,False,NONE
2019-10-26 10:07:03.920,LG-H970,1572084423930.25,-0.207,9.938,-1.867,41.1098352,16.8739029,False,NONE
2019-10-26 10:07:03.940,LG-H970,1572084423949.75,-0.62,12.211,-0.2,41.1098352,16.8739029,False,NONE
2019-10-26 10:07:03.960,LG-H970,1572084423970.25,0.501,10.098,-2.011,41.1098352,16.8739029,False,NONE
2019-10-26 10:07:03.980,LG-H970,1572084423989.25,0.946,8.446,3.095,41.1098352,16.8739029,False,NONE
2019-10-26 10:07:04.000,LG-H970,1572084424008.75,-0.211,10.802,-1.129,41.1098352,16.8739029,False,NONE
2019-10-26 10:07:04.020,LG-H970,1572084424029.5,-1.827,11.281,-0.821,41.1098352,16.8739029,False,NONE
2019-10-26 10:07:04.040,LG-H970,1572084424048.5,-0.097,9.71,-1.111,41.1098352,16.8739029,False,NONE
2019-10-26 10:07:04.060,LG-H970,1572084424068.25,0.481,8.383,-0.383,41.1098352,16.8739029,False,NONE
2019-10-26 10:07:04.080,LG-H970,1572084424090.6,-1.64,10.096,-0.736,41.1098352,16.8739029,False,NONE
2019-10-26 10:07:04.100,LG-H970,1572084424110.6667,-3.601,9.924,-0.294,41.1098352,16.8739029,False,NONE
2019-10-26 10:07:04.120,LG-H970,1572084424127.75,-2.331,10.536,1.281,41.1098352,16.8739029,False,NONE
2019-10-26 10:07:04.140,LG-H970,1572084424149.0,-0.538,9.685,-0.259,41.1098352,16.8739029,False,NONE
2019-10-26 10:07:04.160,LG-H970,1572084424168.8,-1.781,9.521,-0.206,41.1098352,16.8739029,False,NONE
2019-10-26 10:07:04.180,LG-H970,1572084424191.5,-2.128,10.248,-2.184,41.1098352,16.8739029,False,NONE
2019-10-26 10:07:04.200,LG-H970,1572084424211.5,-1.121,10.117,0.084,41.1098352,16.8739029,False,NONE
2019-10-26 10:07:04.220,LG-H970,1572084424231.5,-0.722,9.203,-0.346,41.1098352,16.8739029,False,NONE
2019-10-26 10:07:04.240,LG-H970,1572084424250.25,-1.274,9.914,0.017,41.1098352,16.8739029,False,NONE
2019-10-26 10:07:04.260,LG-H970,1572084424271.5,-1.179,9.212,-1.896,41.1098352,16.8739029,False,NONE
2019-10-26 10:07:04.280,LG-H970,1572084424289.75,-0.281,9.371,-0.182,41.1098352,16.8739029,False,NONE
2019-10-26 10:07:04.300,LG-H970,1572084424310.0,0.109,8.477,-0.819,41.1098352,16.8739029,False,NONE
2019-10-26 10:07:04.320,LG-H970,1572084424330.0,-0.187,9.253,-0.273,41.1098352,16.8739029,False,NONE
2019-10-26 10:07:04.340,LG-H970,1572084424349.5,-1.105,9.495,-1.249,41.1098352,16.8739029,False,NONE
2019-10-26 10:07:04.360,LG-H970,1572084424369.5,-1.344,9.564,-0.777,41.1098352,16.8739029,False,NONE
2019-10-26 10:07:04.380,LG-H970,1572084424389.25,-0.646,9.564,-0.144,41.1098352,16.8739029,False,NONE
2019-10-26 10:07:04.400,LG-H970,1572084424409.5,-0.918,10.191,-0.228,41.1098352,16.8739029,False,NONE
2019-10-26 10:07:04.420,LG-H970,1572084424429.5,-1.642,10.778,-0.478,41.1098352,16.8739029,False,NONE
2019-10-26 10:07:04.440,LG-H970,1572084424451.75,-0.558,11.324,0.258,41.1098352,16.8739029,False,NONE
2019-10-26 10:07:04.460,LG-H970,1572084424468.0,-0.034,8.816,-0.046,41.1098352,16.8739029,False,NONE
2019-10-26 10:07:04.480,LG-H970,1572084424487.5,0.333,10.282,-0.206,41.1098352,16.8739029,False,NONE
2019-10-26 10:07:04.500,LG-H970,1572084424507.6667,-0.569,11.169,-0.806,41.1098352,16.8739029,False,NONE
2019-10-26 10:07:04.520,LG-H970,1572084424529.6,-1.396,9.632,1.276,41.1098352,16.8739029,False,NONE
2019-10-26 10:07:04.540,LG-H970,1572084424551.5,-0.937,10.59,-0.714,41.1098352,16.8739029,False,NONE
2019-10-26 10:07:04.560,LG-H970,1572084424571.25,-1.042,10.214,-1.326,41.1098352,16.8739029,False,NONE
2019-10-26 10:07:04.580,LG-H970,1572084424591.5,0.23,8.657,-0.776,41.1098352,16.8739029,False,NONE
2019-10-26 10:07:04.600,LG-H970,1572084424611.5,0.724,9.057,0.131,41.1098352,16.8739029,False,NONE
2019-10-26 10:07:04.620,LG-H970,1572084424632.25,-0.464,10.933,-0.055,41.1098352,16.8739029,False,NONE
2019-10-26 10:07:04.640,LG-H970,1572084424650.5,-1.246,11.224,-0.134,41.1098352,16.8739029,False,NONE
