UTC_timestamp,device_name,timestamp,x,y,z,lat,long,event,speed
2019-11-13 12:00:34.280,Mi 9T,1573646434288.4443,3.299,-9.748,-1.219,41.4611405,15.525395,False,4.067
2019-11-13 12:00:34.300,Mi 9T,1573646434310.625,4.199,-11.72,-4.052,41.4611405,15.525395,False,4.067
2019-11-13 12:00:34.320,Mi 9T,1573646434329.7778,3.616,-9.363,-1.069,41.4611405,15.525395,False,4.067
2019-11-13 12:00:34.340,Mi 9T,1573646434350.1428,-0.596,-12.663,-3.441,41.4611405,15.525395,False,4.067
2019-11-13 12:00:34.360,Mi 9T,1573646434369.75,-2.441,-6.342,1.856,41.4611405,15.525395,False,4.067
2019-11-13 12:00:34.380,Mi 9T,1573646434389.0,-1.919,-9.373,-4.858,41.4611405,15.525395,False,4.067
2019-11-13 12:00:34.400,Mi 9T,1573646434411.5,1.321,-11.346,-5.32,41.4611405,15.525395,False,4.067
2019-11-13 12:00:34.420,Mi 9T,1573646434431.1428,1.21,-7.597,-1.529,41.4611405,15.525395,False,4.067
2019-11-13 12:00:34.440,Mi 9T,1573646434450.6667,-1.14,-11.146,-2.979,41.4611405,15.525395,False,4.067
2019-11-13 12:00:34.460,Mi 9T,1573646434469.889,-2.572,-9.373,-2.082,41.4611405,15.525395,False,4.067
2019-11-13 12:00:34.480,Mi 9T,1573646434490.0,-3.039,-8.517,-1.373,41.4611405,15.525395,False,4.067
2019-11-13 12:00:34.500,Mi 9T,1573646434509.4285,-0.865,-7.316,-2.27,41.4611405,15.525395,False,4.067
2019-11-13 12:00:34.520,Mi 9T,1573646434529.7144,2.61,-10.744,-5.789,41.4611405,15.525395,False,4.067
2019-11-13 12:00:34.540,Mi 9T,1573646434548.6667,3.76,-10.625,-3.299,41.4611405,15.525395,False,4.067
2019-11-13 12:00:34.560,Mi 9T,1573646434570.25,-0.982,-10.043,-1.177,41.4611405,15.525395,False,4.067
2019-11-13 12:00:34.580,Mi 9T,1573646434589.6667,-5.131,-8.429,0.437,41.4611405,15.525395,False,4.067
2019-11-13 12:00:34.600,Mi 9T,1573646434607.7144,-5.45,-8.92,-3.129,41.4611405,15.525395,False,4.067
2019-11-13 12:00:34.620,Mi 9T,1573646434629.5,0.76,-7.983,-2.301,41.4611405,15.525395,False,4.067
2019-11-13 12:00:34.640,Mi 9T,1573646434648.75,4.333,-10.289,-5.124,41.4611405,15.525395,False,4.067
2019-11-13 12:00:34.660,Mi 9T,1573646434669.0,3.693,-10.939,-2.581,41.4611405,15.525395,False,4.067
2019-11-13 12:00:34.680,Mi 9T,1573646434689.4285,-2.273,-10.943,-1.205,41.4611405,15.525395,False,4.067
2019-11-13 12:00:34.700,Mi 9T,1573646434709.0,-4.121,-9.459,1.291,41.4611405,15.525395,False,4.067
2019-11-13 12:00:34.720,Mi 9T,1573646434732.125,-0.239,-9.983,-2.741,41.4611405,15.525395,False,4.067
2019-11-13 12:00:34.740,Mi 9T,1573646434751.2856,3.905,-10.292,-3.794,41.4611405,15.525395,False,4.067
2019-11-13 12:00:34.760,Mi 9T,1573646434770.625,4.156,-10.101,-4.178,41.4611405,15.525395,False,4.067
2019-11-13 12:00:34.780,Mi 9T,1573646434789.6667,1.294,-9.55,-1.963,41.4611405,15.525395,False,4.067
2019-11-13 12:00:34.800,Mi 9T,1573646434808.6667,-3.097,-11.938,-4.162,41.4611405,15.525395,False,4.067
2019-11-13 12:00:34.820,Mi 9T,1573646434829.4443,-3.482,-6.119,-0.285,41.4611405,15.525395,False,4.067
2019-11-13 12:00:34.840,Mi 9T,1573646434848.9,1.624,-10.025,-3.455,41.4611405,15.525395,False,4.067
2019-11-13 12:00:34.860,Mi 9T,1573646434869.0,4.466,-10.518,-4.09,41.4611405,15.525395,False,4.067
2019-11-13 12:00:34.880,Mi 9T,1573646434889.6,2.188,-11.217,-2.881,41.4611405,15.525395,False,4.067
2019-11-13 12:00:34.900,Mi 9T,1573646434911.1428,-1.428,-9.425,-0.299,41.4611405,15.525395,False,4.067
2019-11-13 12:00:34.920,Mi 9T,1573646434931.0,-3.078,-8.862,-1.323,41.4611405,15.525395,False,4.067
2019-11-13 12:00:34.940,Mi 9T,1573646434950.0,-0.766,-8.313,-1.901,41.4611405,15.525395,False,4.067
2019-11-13 12:00:34.960,Mi 9T,1573646434970.3333,2.988,-10.249,-4.573,41.4611405,15.525395,False,4.067
2019-11-13 12:00:34.980,Mi 9T,1573646434989.7778,4.388,-10.873,-3.338,41.4611405,15.525395,False,4.067
2019-11-13 12:00:35.000,Mi 9T,1573646435009.9,-0.446,-9.15,-1.099,41.4611405,15.525395,False,4.067
2019-11-13 12:00:35.020,Mi 9T,1573646435030.5,-3.482,-9.437,-0.839,41.4611405,15.525395,False,4.067
2019-11-13 12:00:35.040,Mi 9T,1573646435051.4285,-1.681,-8.543,-0.932,41.4611405,15.525395,False,4.067
2019-11-13 12:00:35.060,Mi 9T,1573646435069.1428,1.611,-9.913,-4.173,41.4611405,15.525395,False,4.067
2019-11-13 12:00:35.080,Mi 9T,1573646435090.4443,2.525,-10.608,-4.823,41.4611405,15.525395,False,4.067
2019-11-13 12:00:35.100,Mi 9T,1573646435110.5715,-0.377,-7.506,-1.5,41.4611405,15.525395,False,4.067
2019-11-13 12:00:35.120,Mi 9T,1573646435130.125,-2.671,-10.188,-3.217,41.4611405,15.525395,False,4.067
2019-11-13 12:00:35.140,Mi 9T,1573646435150.0,-1.409,-8.164,-1.574,41.4611405,15.525395,False,4.067
2019-11-13 12:00:35.160,Mi 9T,1573646435170.3,1.842,-10.891,-3.605,41.4611405,15.525395,False,4.067
2019-11-13 12:00:35.180,Mi 9T,1573646435190.0,1.71,-9.971,-2.179,41.4611405,15.525395,False,4.067
2019-11-13 12:00:35.200,Mi 9T,1573646435208.8,0.357,-8.95,-0.665,41.4611405,15.525395,False,4.067
2019-11-13 12:00:35.220,Mi 9T,1573646435231.111,-1.461,-9.332,-2.113,41.4611405,15.525395,False,4.067
2019-11-13 12:00:35.240,Mi 9T,1573646435248.0,-0.833,-9.012,-2.724,41.4611405,15.525395,False,4.067
2019-11-13 12:00:35.260,Mi 9T,1573646435269.5,0.673,-9.373,-2.858,41.4611405,15.525395,False,4.067
2019-11-13 12:00:35.280,Mi 9T,1573646435288.9,0.579,-9.904,-2.279,41.4611405,15.525395,False,4.067
2019-11-13 12:00:35.300,Mi 9T,1573646435311.5,-0.628,-9.877,-1.076,41.4611405,15.525395,False,4.067
2019-11-13 12:00:35.320,Mi 9T,1573646435328.0,-0.829,-9.335,-0.363,41.4611405,15.525395,False,4.067
2019-11-13 12:00:35.340,Mi 9T,1573646435350.875,-0.431,-10.673,-1.705,41.4611405,15.525395,False,4.067
2019-11-13 12:00:35.360,Mi 9T,1573646435370.75,-0.124,-9.013,-0.532,41.4611405,15.525395,False,4.067
2019-11-13 12:00:35.380,Mi 9T,1573646435389.125,-0.324,-9.737,-1.724,41.4611405,15.525395,False,4.067
2019-11-13 12:00:35.400,Mi 9T,1573646435410.0,-0.467,-9.381,-1.492,41.4611405,15.525395,False,4.067
2019-11-13 12:00:35.420,Mi 9T,1573646435429.6667,-0.529,-9.691,-1.034,41.4611405,15.525395,False,4.067
2019-11-13 12:00:35.440,Mi 9T,1573646435449.111,-0.461,-9.731,-0.662,41.4611405,15.525395,False,4.067
2019-11-13 12:00:35.460,Mi 9T,1573646435470.0,-0.003,-10.082,-1.395,41.4611405,15.525395,False,4.067
2019-11-13 12:00:35.480,Mi 9T,1573646435488.7778,0.324,-9.848,-0.795,41.4611405,15.525395,False,4.067
2019-11-13 12:00:35.500,Mi 9T,1573646435508.5,-0.225,-9.522,-0.509,41.4611405,15.525395,False,4.067
2019-11-13 12:00:35.520,Mi 9T,1573646435530.4443,-0.842,-9.293,-0.771,41.4611405,15.525395,False,4.067
2019-11-13 12:00:35.540,Mi 9T,1573646435549.0,-0.322,-10.982,-2.345,41.4611405,15.525395,False,4.067
2019-11-13 12:00:35.560,Mi 9T,1573646435549.0,-0.322,-10.982,-2.345,41.4611405,15.525395,False,4.067
2019-11-13 12:00:35.580,Mi 9T,1573646435588.75,0.432,-10.825,-2.175,41.4611405,15.525395,False,4.067
2019-11-13 12:00:35.600,Mi 9T,1573646435608.889,-0.056,-10.154,-0.768,41.4611405,15.525395,False,4.067
2019-11-13 12:00:35.620,Mi 9T,1573646435629.1,-0.884,-9.687,-0.481,41.4611405,15.525395,False,4.067
2019-11-13 12:00:35.640,Mi 9T,1573646435649.0,-0.489,-9.627,-0.919,41.4611405,15.525395,False,4.067
2019-11-13 12:00:35.660,Mi 9T,1573646435669.9,0.353,-10.08,-2.105,41.4611405,15.525395,False,4.067
2019-11-13 12:00:35.680,Mi 9T,1573646435689.3,0.722,-9.653,-1.358,41.4611405,15.525395,False,4.067
2019-11-13 12:00:35.700,Mi 9T,1573646435709.5,-0.208,-9.551,-1.074,41.4611405,15.525395,False,4.067
2019-11-13 12:00:35.720,Mi 9T,1573646435729.5,-0.666,-10.515,-1.152,41.4611405,15.525395,False,4.067
2019-11-13 12:00:35.740,Mi 9T,1573646435749.5,-0.28,-8.696,-0.194,41.4611405,15.525395,False,4.067
2019-11-13 12:00:35.760,Mi 9T,1573646435768.889,0.904,-10.676,-2.256,41.4611405,15.525395,False,4.067
2019-11-13 12:00:35.780,Mi 9T,1573646435795.0,1.049,-8.76,-0.786,41.4611405,15.525395,True,4.067
2019-11-13 12:00:35.800,Mi 9T,1573646435810.3333,0.25,-9.915,-1.247,41.4611405,15.525395,True,4.067
2019-11-13 12:00:35.820,Mi 9T,1573646435838.0,-0.74,-9.3,-0.615,41.4611405,15.525395,True,4.067
2019-11-13 12:00:35.840,Mi 9T,1573646435849.875,-0.325,-9.765,-1.266,41.4611405,15.525395,True,4.067
2019-11-13 12:00:35.860,Mi 9T,1573646435869.3333,0.942,-9.374,-0.908,41.4611405,15.525395,True,4.067
2019-11-13 12:00:35.880,Mi 9T,1573646435888.8,0.611,-11.119,-2.135,41.4611405,15.525395,False,4.067
2019-11-13 12:00:35.900,Mi 9T,1573646435909.3333,-0.33,-9.527,-0.162,41.4611405,15.525395,False,4.067
2019-11-13 12:00:35.920,Mi 9T,1573646435929.0,-1.22,-9.543,-0.743,41.4611405,15.525395,False,4.067
2019-11-13 12:00:35.940,Mi 9T,1573646435949.0,-0.252,-9.317,-1.047,41.4611405,15.525395,False,4.067
2019-11-13 12:00:35.960,Mi 9T,1573646435970.1428,0.662,-8.441,-0.63,41.4611405,15.525395,False,4.067
2019-11-13 12:00:35.980,Mi 9T,1573646435989.0,0.176,-10.292,-1.144,41.4611405,15.525395,False,4.067
2019-11-13 12:00:36.000,Mi 9T,1573646436009.7778,-0.795,-9.454,0.537,41.4611405,15.525395,False,4.067
2019-11-13 12:00:36.020,Mi 9T,1573646436027.1667,-0.675,-9.935,0.693,41.4611405,15.525395,False,4.067
2019-11-13 12:00:36.040,Mi 9T,1573646436049.3,-0.09,-10.345,-0.907,41.4611405,15.525395,False,4.067
2019-11-13 12:00:36.060,Mi 9T,1573646436069.2222,0.266,-10.489,-1.865,41.4611405,15.525395,False,4.067
2019-11-13 12:00:36.080,Mi 9T,1573646436090.4443,0.141,-9.593,-1.41,41.4611405,15.525395,False,4.067
2019-11-13 12:00:36.100,Mi 9T,1573646436108.25,-0.557,-10.731,-1.788,41.4611405,15.525395,False,4.067
2019-11-13 12:00:36.120,Mi 9T,1573646436129.8572,-0.943,-10.651,-3.536,41.4611405,15.525395,False,4.067
2019-11-13 12:00:36.140,Mi 9T,1573646436150.0,0.32,-9.54,-2.288,41.4611405,15.525395,False,4.067
2019-11-13 12:00:36.160,Mi 9T,1573646436170.2222,1.003,-9.907,-1.677,41.4611405,15.525395,False,4.067
2019-11-13 12:00:36.180,Mi 9T,1573646436189.875,0.185,-10.144,-1.923,41.4611405,15.525395,False,4.067
2019-11-13 12:00:36.200,Mi 9T,1573646436209.5,-0.869,-9.575,-3.712,41.4612023,15.5253239,False,5.205
2019-11-13 12:00:36.220,Mi 9T,1573646436228.375,-0.591,-10.336,-3.724,41.4612177,15.5253061,False,5.49
2019-11-13 12:00:36.240,Mi 9T,1573646436248.125,0.03,-7.106,-0.566,41.4612177,15.5253061,False,5.49
2019-11-13 12:00:36.260,Mi 9T,1573646436268.4,0.911,-11.009,-4.98,41.4612177,15.5253061,False,5.49
2019-11-13 12:00:36.280,Mi 9T,1573646436289.3635,1.053,-9.545,-4.087,41.4612177,15.5253061,False,5.49
2019-11-13 12:00:36.300,Mi 9T,1573646436309.0,-0.446,-8.79,-2.296,41.4612177,15.5253061,False,5.49
2019-11-13 12:00:36.320,Mi 9T,1573646436330.125,-1.851,-8.414,-2.483,41.4612177,15.5253061,False,5.49
2019-11-13 12:00:36.340,Mi 9T,1573646436350.6,-0.515,-9.803,-4.019,41.4612177,15.5253061,False,5.49
2019-11-13 12:00:36.360,Mi 9T,1573646436368.7144,1.038,-9.805,-3.478,41.4612177,15.5253061,False,5.49
2019-11-13 12:00:36.380,Mi 9T,1573646436388.5,0.168,-9.518,-2.45,41.4612177,15.5253061,False,5.49
2019-11-13 12:00:36.400,Mi 9T,1573646436409.0,-1.674,-9.573,-1.891,41.4612177,15.5253061,False,5.49
2019-11-13 12:00:36.420,Mi 9T,1573646436429.8572,-1.856,-9.672,-2.367,41.4612177,15.5253061,False,5.49
2019-11-13 12:00:36.440,Mi 9T,1573646436449.0,1.045,-9.313,-1.711,41.4612177,15.5253061,False,5.49
2019-11-13 12:00:36.460,Mi 9T,1573646436469.8572,1.499,-9.827,-3.603,41.4612177,15.5253061,False,5.49
2019-11-13 12:00:36.480,Mi 9T,1573646436489.0,-0.394,-9.934,-2.716,41.4612177,15.5253061,False,5.49
2019-11-13 12:00:36.500,Mi 9T,1573646436508.3333,-2.464,-9.208,-2.023,41.4612177,15.5253061,False,5.49
2019-11-13 12:00:36.520,Mi 9T,1573646436528.889,-1.207,-8.548,-1.924,41.4612177,15.5253061,False,5.49
2019-11-13 12:00:36.540,Mi 9T,1573646436549.1667,0.671,-10.208,-4.489,41.4612177,15.5253061,False,5.49
2019-11-13 12:00:36.560,Mi 9T,1573646436567.875,1.021,-8.923,-2.359,41.4612177,15.5253061,False,5.49
2019-11-13 12:00:36.580,Mi 9T,1573646436587.8333,-0.945,-9.341,-2.178,41.4612177,15.5253061,False,5.49
2019-11-13 12:00:36.600,Mi 9T,1573646436609.0,-1.413,-9.351,-1.907,41.4612177,15.5253061,False,5.49
2019-11-13 12:00:36.620,Mi 9T,1573646436629.1667,-0.095,-9.638,-2.966,41.4612177,15.5253061,False,5.49
2019-11-13 12:00:36.640,Mi 9T,1573646436648.375,1.216,-9.725,-2.956,41.4612177,15.5253061,False,5.49
2019-11-13 12:00:36.660,Mi 9T,1573646436669.5557,-0.443,-10.055,-2.702,41.4612177,15.5253061,False,5.49
2019-11-13 12:00:36.680,Mi 9T,1573646436690.4,-2.063,-8.961,-1.4,41.4612177,15.5253061,False,5.49
2019-11-13 12:00:36.700,Mi 9T,1573646436708.75,-1.188,-10.045,-2.521,41.4612177,15.5253061,False,5.49
2019-11-13 12:00:36.720,Mi 9T,1573646436729.625,0.812,-9.413,-2.867,41.4612177,15.5253061,False,5.49
2019-11-13 12:00:36.740,Mi 9T,1573646436748.625,0.336,-9.97,-3.248,41.4612177,15.5253061,False,5.49
2019-11-13 12:00:36.760,Mi 9T,1573646436768.7778,-2.337,-9.603,-2.084,41.4612177,15.5253061,False,5.49
2019-11-13 12:00:36.780,Mi 9T,1573646436789.4443,-2.956,-8.303,-1.058,41.4612177,15.5253061,False,5.49
2019-11-13 12:00:36.800,Mi 9T,1573646436807.5557,-0.414,-10.491,-3.898,41.4612177,15.5253061,False,5.49
2019-11-13 12:00:36.820,Mi 9T,1573646436828.7,1.294,-9.99,-3.305,41.4612177,15.5253061,False,5.49
2019-11-13 12:00:36.840,Mi 9T,1573646436850.1,-0.576,-9.645,-1.913,41.4612177,15.5253061,False,5.49
2019-11-13 12:00:36.860,Mi 9T,1573646436870.5715,-2.337,-9.591,-2.125,41.4612177,15.5253061,False,5.49
2019-11-13 12:00:36.880,Mi 9T,1573646436888.6667,-1.572,-9.212,-2.014,41.4612177,15.5253061,False,5.49
2019-11-13 12:00:36.900,Mi 9T,1573646436909.75,0.224,-9.882,-3.282,41.4612177,15.5253061,False,5.49
2019-11-13 12:00:36.920,Mi 9T,1573646436930.2856,0.131,-10.165,-2.737,41.4612177,15.5253061,False,5.49
2019-11-13 12:00:36.940,Mi 9T,1573646436951.0,-0.65,-9.703,-1.585,41.4612177,15.5253061,False,5.49
2019-11-13 12:00:36.960,Mi 9T,1573646436968.4443,-1.225,-9.853,-2.22,41.4612177,15.5253061,False,5.49
2019-11-13 12:00:36.980,Mi 9T,1573646436990.2856,-0.37,-9.694,-2.338,41.4612177,15.5253061,False,5.49
2019-11-13 12:00:37.000,Mi 9T,1573646437008.25,-0.454,-9.232,-2.763,41.4612177,15.5253061,False,5.49
2019-11-13 12:00:37.020,Mi 9T,1573646437029.375,-0.996,-8.6,-2.205,41.4612177,15.5253061,False,5.49
2019-11-13 12:00:37.040,Mi 9T,1573646437049.0,-0.767,-9.467,-3.441,41.4612177,15.5253061,False,5.49
2019-11-13 12:00:37.060,Mi 9T,1573646437068.7144,0.051,-9.004,-1.945,41.4612177,15.5253061,False,5.49
2019-11-13 12:00:37.080,Mi 9T,1573646437088.7144,-0.665,-9.699,-2.142,41.4612177,15.5253061,False,5.49
2019-11-13 12:00:37.100,Mi 9T,1573646437110.3333,-1.245,-9.542,-2.116,41.4612177,15.5253061,False,5.49
2019-11-13 12:00:37.120,Mi 9T,1573646437130.3333,-0.863,-9.871,-2.954,41.4612177,15.5253061,False,5.49
2019-11-13 12:00:37.140,Mi 9T,1573646437149.625,-0.15,-9.251,-2.399,41.4612177,15.5253061,False,5.49
2019-11-13 12:00:37.160,Mi 9T,1573646437167.3333,-0.814,-10.229,-3.294,41.4612177,15.5253061,False,5.49
2019-11-13 12:00:37.180,Mi 9T,1573646437188.0,-1.499,-9.765,-2.085,41.4612177,15.5253061,False,5.49
2019-11-13 12:00:37.200,Mi 9T,1573646437208.818,-0.684,-8.904,-1.531,41.4612177,15.5253061,False,5.49
2019-11-13 12:00:37.220,Mi 9T,1573646437227.75,-0.027,-10.51,-3.758,41.4612177,15.5253061,False,5.49
2019-11-13 12:00:37.240,Mi 9T,1573646437248.889,-0.867,-9.978,-2.624,41.4612177,15.5253061,False,5.49
2019-11-13 12:00:37.260,Mi 9T,1573646437269.8572,-1.274,-9.74,-1.803,41.4612177,15.5253061,False,5.49
