UTC_timestamp,device_name,timestamp,x,y,z,lat,long,event,speed
2019-11-13 10:06:03.300,Mi 9T,1573639563309.0,-0.1,-9.19,0.411,41.4589369,15.5415467,False,4.344
2019-11-13 10:06:03.320,Mi 9T,1573639563329.0,-0.75,-10.192,-0.808,41.4589369,15.5415467,False,4.344
2019-11-13 10:06:03.340,Mi 9T,1573639563349.8572,-0.302,-10.139,0.486,41.4589369,15.5415467,False,4.344
2019-11-13 10:06:03.360,Mi 9T,1573639563369.8,-0.5,-10.422,0.159,41.4589369,15.5415467,False,4.344
2019-11-13 10:06:03.380,Mi 9T,1573639563389.7,-0.341,-10.171,-0.009,41.4589369,15.5415467,False,4.344
2019-11-13 10:06:03.400,Mi 9T,1573639563409.2222,-0.207,-9.999,-1.05,41.4589369,15.5415467,False,4.344
2019-11-13 10:06:03.420,Mi 9T,1573639563430.111,0.042,-9.853,-1.086,41.4589369,15.5415467,False,4.344
2019-11-13 10:06:03.440,Mi 9T,1573639563449.4285,-0.251,-8.808,0.028,41.4589369,15.5415467,False,4.344
2019-11-13 10:06:03.460,Mi 9T,1573639563469.875,-0.844,-9.831,-0.854,41.4589369,15.5415467,False,4.344
2019-11-13 10:06:03.480,Mi 9T,1573639563489.2222,-0.633,-9.032,0.681,41.4589369,15.5415467,False,4.344
2019-11-13 10:06:03.500,Mi 9T,1573639563510.2,0.482,-10.1,0.033,41.4589369,15.5415467,False,4.344
2019-11-13 10:06:03.520,Mi 9T,1573639563529.5,0.742,-10.049,-0.106,41.4589369,15.5415467,False,4.344
2019-11-13 10:06:03.540,Mi 9T,1573639563549.1,-0.328,-10.135,0.111,41.4589369,15.5415467,False,4.344
2019-11-13 10:06:03.560,Mi 9T,1573639563569.75,-1.909,-9.373,0.396,41.4589369,15.5415467,False,4.344
2019-11-13 10:06:03.580,Mi 9T,1573639563588.0,-1.616,-9.765,-0.291,41.4589369,15.5415467,False,4.344
2019-11-13 10:06:03.600,Mi 9T,1573639563609.75,0.211,-9.973,-0.87,41.4589369,15.5415467,False,4.344
2019-11-13 10:06:03.620,Mi 9T,1573639563628.4443,1.082,-10.623,-0.807,41.4589369,15.5415467,False,4.344
2019-11-13 10:06:03.640,Mi 9T,1573639563649.875,-0.119,-10.879,-0.568,41.4589369,15.5415467,False,4.344
2019-11-13 10:06:03.660,Mi 9T,1573639563669.5557,-0.878,-9.901,0.299,41.4589369,15.5415467,False,4.344
2019-11-13 10:06:03.680,Mi 9T,1573639563688.3333,-0.968,-10.064,-1.217,41.4589369,15.5415467,False,4.344
2019-11-13 10:06:03.700,Mi 9T,1573639563708.625,-0.596,-9.676,-1.472,41.4589369,15.5415467,False,4.344
2019-11-13 10:06:03.720,Mi 9T,1573639563728.2222,-0.116,-8.937,-0.663,41.4589369,15.5415467,False,4.344
2019-11-13 10:06:03.740,Mi 9T,1573639563750.3333,-0.175,-10.017,-1.104,41.4589369,15.5415467,False,4.344
2019-11-13 10:06:03.760,Mi 9T,1573639563769.5557,-0.338,-9.412,0.24,41.4589369,15.5415467,False,4.344
2019-11-13 10:06:03.780,Mi 9T,1573639563789.3,-0.44,-10.007,-0.245,41.4589369,15.5415467,False,4.344
2019-11-13 10:06:03.800,Mi 9T,1573639563809.5,-0.336,-9.622,-0.493,41.4589369,15.5415467,False,4.344
2019-11-13 10:06:03.820,Mi 9T,1573639563830.6667,-0.157,-9.169,-0.657,41.4589086,15.5414931,False,4.401
2019-11-13 10:06:03.840,Mi 9T,1573639563849.3,-0.143,-9.531,-1.264,41.458886,15.5414502,False,4.447
2019-11-13 10:06:03.860,Mi 9T,1573639563869.6,-0.089,-9.19,-0.525,41.458886,15.5414502,False,4.447
2019-11-13 10:06:03.880,Mi 9T,1573639563889.5,-0.404,-10.359,-1.128,41.458886,15.5414502,False,4.447
2019-11-13 10:06:03.900,Mi 9T,1573639563907.75,-0.504,-9.943,0.287,41.458886,15.5414502,False,4.447
2019-11-13 10:06:03.920,Mi 9T,1573639563929.4,-0.384,-10.425,-0.291,41.458886,15.5414502,False,4.447
2019-11-13 10:06:03.940,Mi 9T,1573639563950.5557,-0.202,-10.162,-0.949,41.458886,15.5414502,False,4.447
2019-11-13 10:06:03.960,Mi 9T,1573639563971.125,0.057,-9.955,-1.463,41.458886,15.5414502,False,4.447
2019-11-13 10:06:03.980,Mi 9T,1573639563989.5557,0.056,-9.295,-1.098,41.458886,15.5414502,False,4.447
2019-11-13 10:06:04.000,Mi 9T,1573639564009.6,-0.096,-9.792,-1.551,41.458886,15.5414502,False,4.447
2019-11-13 10:06:04.020,Mi 9T,1573639564029.8,-0.384,-9.365,-0.276,41.458886,15.5414502,False,4.447
2019-11-13 10:06:04.040,Mi 9T,1573639564050.1,-0.405,-10.072,-0.473,41.458886,15.5414502,False,4.447
2019-11-13 10:06:04.060,Mi 9T,1573639564070.0,0.273,-9.903,-0.343,41.458886,15.5414502,False,4.447
2019-11-13 10:06:04.080,Mi 9T,1573639564091.75,0.492,-9.88,-0.968,41.458886,15.5414502,False,4.447
2019-11-13 10:06:04.100,Mi 9T,1573639564109.125,0.065,-10.019,-0.874,41.458886,15.5414502,False,4.447
2019-11-13 10:06:04.120,Mi 9T,1573639564130.4,-0.727,-9.606,-0.336,41.458886,15.5414502,False,4.447
2019-11-13 10:06:04.140,Mi 9T,1573639564150.6,-0.488,-10.226,-0.883,41.458886,15.5414502,False,4.447
2019-11-13 10:06:04.160,Mi 9T,1573639564170.5,0.159,-10.091,-0.981,41.458886,15.5414502,False,4.447
2019-11-13 10:06:04.180,Mi 9T,1573639564189.6667,0.442,-10.188,-0.763,41.458886,15.5414502,False,4.447
2019-11-13 10:06:04.200,Mi 9T,1573639564209.2222,-0.4,-10.63,-0.896,41.458886,15.5414502,False,4.447
2019-11-13 10:06:04.220,Mi 9T,1573639564228.9,-0.87,-10.061,0.281,41.458886,15.5414502,False,4.447
2019-11-13 10:06:04.240,Mi 9T,1573639564247.75,-0.994,-10.205,-0.533,41.458886,15.5414502,False,4.447
2019-11-13 10:06:04.260,Mi 9T,1573639564268.3333,0.119,-10.294,-1.368,41.458886,15.5414502,False,4.447
2019-11-13 10:06:04.280,Mi 9T,1573639564290.111,0.427,-9.651,-0.641,41.458886,15.5414502,False,4.447
2019-11-13 10:06:04.300,Mi 9T,1573639564309.2,-0.75,-9.832,-0.614,41.458886,15.5414502,False,4.447
2019-11-13 10:06:04.320,Mi 9T,1573639564331.125,-1.732,-10.576,-0.896,41.458886,15.5414502,False,4.447
2019-11-13 10:06:04.340,Mi 9T,1573639564348.3333,-1.121,-9.735,0.539,41.458886,15.5414502,False,4.447
2019-11-13 10:06:04.360,Mi 9T,1573639564368.111,0.792,-9.858,-0.146,41.458886,15.5414502,False,4.447
2019-11-13 10:06:04.380,Mi 9T,1573639564388.4443,1.588,-10.234,-1.821,41.458886,15.5414502,False,4.447
2019-11-13 10:06:04.400,Mi 9T,1573639564408.7273,0.629,-9.133,-0.656,41.458886,15.5414502,False,4.447
2019-11-13 10:06:04.420,Mi 9T,1573639564429.6,-1.471,-9.647,-1.389,41.458886,15.5414502,False,4.447
2019-11-13 10:06:04.440,Mi 9T,1573639564450.111,-1.54,-9.515,-1.106,41.458886,15.5414502,False,4.447
2019-11-13 10:06:04.460,Mi 9T,1573639564469.9,0.325,-8.635,0.023,41.458886,15.5414502,False,4.447
2019-11-13 10:06:04.480,Mi 9T,1573639564489.8,1.609,-9.798,-1.932,41.458886,15.5414502,False,4.447
2019-11-13 10:06:04.500,Mi 9T,1573639564508.889,0.637,-9.992,-1.187,41.458886,15.5414502,False,4.447
2019-11-13 10:06:04.520,Mi 9T,1573639564528.818,-2.073,-9.211,0.123,41.458886,15.5414502,False,4.447
2019-11-13 10:06:04.540,Mi 9T,1573639564549.7,-2.618,-10.098,-0.7,41.458886,15.5414502,False,4.447
2019-11-13 10:06:04.560,Mi 9T,1573639564570.0,-0.423,-10.329,-0.549,41.458886,15.5414502,False,4.447
2019-11-13 10:06:04.580,Mi 9T,1573639564589.8,1.746,-9.752,0.201,41.458886,15.5414502,False,4.447
2019-11-13 10:06:04.600,Mi 9T,1573639564609.9,0.895,-10.583,-1.261,41.458886,15.5414502,False,4.447
2019-11-13 10:06:04.620,Mi 9T,1573639564629.9,-1.671,-9.419,-0.333,41.458886,15.5414502,False,4.447
2019-11-13 10:06:04.640,Mi 9T,1573639564650.0,-3.031,-9.374,-0.639,41.458886,15.5414502,False,4.447
2019-11-13 10:06:04.660,Mi 9T,1573639564670.0,-1.338,-9.278,-0.921,41.458886,15.5414502,False,4.447
2019-11-13 10:06:04.680,Mi 9T,1573639564689.111,0.895,-10.67,-1.536,41.458886,15.5414502,False,4.447
2019-11-13 10:06:04.700,Mi 9T,1573639564708.3,0.66,-10.245,0.444,41.458886,15.5414502,False,4.447
2019-11-13 10:06:04.720,Mi 9T,1573639564729.182,-1.429,-10.115,0.579,41.458886,15.5414502,False,4.447
2019-11-13 10:06:04.740,Mi 9T,1573639564749.4443,-1.602,-9.847,-0.614,41.458886,15.5414502,False,4.447
2019-11-13 10:06:04.760,Mi 9T,1573639564767.7144,0.112,-9.166,-0.832,41.458886,15.5414502,False,4.447
2019-11-13 10:06:04.780,Mi 9T,1573639564767.7144,0.112,-9.166,-0.832,41.458886,15.5414502,False,4.447
2019-11-13 10:06:04.800,Mi 9T,1573639564804.5,0.957,-9.542,-1.591,41.458886,15.5414502,True,4.447
2019-11-13 10:06:04.820,Mi 9T,1573639564838.0,-0.165,-10.229,-0.511,41.458886,15.5414502,True,4.447
2019-11-13 10:06:04.840,Mi 9T,1573639564851.6,-0.932,-10.464,0.223,41.458886,15.5414502,True,4.447
2019-11-13 10:06:04.860,Mi 9T,1573639564869.5557,0.878,-10.054,-0.023,41.458886,15.5414502,True,4.447
2019-11-13 10:06:04.880,Mi 9T,1573639564888.9,1.87,-10.023,-0.477,41.458886,15.5414502,False,4.447
2019-11-13 10:06:04.900,Mi 9T,1573639564909.1,0.715,-9.277,-0.373,41.458886,15.5414502,False,4.447
2019-11-13 10:06:04.920,Mi 9T,1573639564929.3333,-1.286,-8.938,-0.618,41.458886,15.5414502,False,4.447
2019-11-13 10:06:04.940,Mi 9T,1573639564950.5,-0.924,-8.684,-0.506,41.458886,15.5414502,False,4.447
2019-11-13 10:06:04.960,Mi 9T,1573639564969.7,0.759,-9.237,-1.62,41.458886,15.5414502,False,4.447
2019-11-13 10:06:04.980,Mi 9T,1573639564989.6,1.146,-8.882,-0.562,41.458886,15.5414502,False,4.447
2019-11-13 10:06:05.000,Mi 9T,1573639565010.6667,-0.754,-8.762,-0.374,41.458886,15.5414502,False,4.447
2019-11-13 10:06:05.020,Mi 9T,1573639565029.8,-1.712,-8.876,-0.653,41.458886,15.5414502,False,4.447
2019-11-13 10:06:05.040,Mi 9T,1573639565048.6667,-1.21,-9.292,-0.737,41.458886,15.5414502,False,4.447
2019-11-13 10:06:05.060,Mi 9T,1573639565069.5715,-0.052,-9.594,-0.415,41.458886,15.5414502,False,4.447
2019-11-13 10:06:05.080,Mi 9T,1573639565089.125,0.091,-10.755,-0.673,41.458886,15.5414502,False,4.447
2019-11-13 10:06:05.100,Mi 9T,1573639565109.182,-0.475,-9.984,0.177,41.458886,15.5414502,False,4.447
2019-11-13 10:06:05.120,Mi 9T,1573639565130.4443,-0.11,-7.555,1.252,41.458886,15.5414502,False,4.447
2019-11-13 10:06:05.140,Mi 9T,1573639565150.2,2.073,-6.788,-3.869,41.458886,15.5414502,False,4.447
2019-11-13 10:06:05.160,Mi 9T,1573639565168.75,0.269,-8.266,-3.003,41.458886,15.5414502,False,4.447
2019-11-13 10:06:05.180,Mi 9T,1573639565187.889,-1.872,-11.077,-0.858,41.458886,15.5414502,False,4.447
2019-11-13 10:06:05.200,Mi 9T,1573639565210.7778,-1.509,-8.574,3.179,41.458886,15.5414502,False,4.447
2019-11-13 10:06:05.220,Mi 9T,1573639565229.5557,1.233,-12.812,-0.547,41.458886,15.5414502,False,4.447
2019-11-13 10:06:05.240,Mi 9T,1573639565247.125,2.493,-11.902,1.217,41.458886,15.5414502,False,4.447
2019-11-13 10:06:05.260,Mi 9T,1573639565269.2222,0.592,-10.314,2.257,41.458886,15.5414502,False,4.447
2019-11-13 10:06:05.280,Mi 9T,1573639565288.7,-1.695,-10.739,-0.84,41.458886,15.5414502,False,4.447
2019-11-13 10:06:05.300,Mi 9T,1573639565309.7778,-1.309,-9.168,0.709,41.458886,15.5414502,False,4.447
2019-11-13 10:06:05.320,Mi 9T,1573639565330.5,-0.406,-10.483,-0.49,41.458886,15.5414502,False,4.447
2019-11-13 10:06:05.340,Mi 9T,1573639565348.5557,0.557,-11.977,1.038,41.458886,15.5414502,False,4.447
2019-11-13 10:06:05.360,Mi 9T,1573639565369.889,-0.167,-12.236,2.816,41.458886,15.5414502,False,4.447
2019-11-13 10:06:05.380,Mi 9T,1573639565389.2,-1.201,-13.2,2.271,41.458886,15.5414502,False,4.447
2019-11-13 10:06:05.400,Mi 9T,1573639565409.4,-0.778,-11.191,2.801,41.458886,15.5414502,False,4.447
2019-11-13 10:06:05.420,Mi 9T,1573639565428.3333,-0.3,-10.709,0.334,41.458886,15.5414502,False,4.447
2019-11-13 10:06:05.440,Mi 9T,1573639565449.3,-0.679,-10.459,-1.458,41.458886,15.5414502,False,4.447
2019-11-13 10:06:05.460,Mi 9T,1573639565469.3,-1.331,-8.583,0.142,41.458886,15.5414502,False,4.447
2019-11-13 10:06:05.480,Mi 9T,1573639565488.4443,-1.139,-9.272,-0.784,41.458886,15.5414502,False,4.447
2019-11-13 10:06:05.500,Mi 9T,1573639565509.6,0.623,-8.877,0.039,41.458886,15.5414502,False,4.447
2019-11-13 10:06:05.520,Mi 9T,1573639565529.111,1.82,-8.589,0.067,41.458886,15.5414502,False,4.447
2019-11-13 10:06:05.540,Mi 9T,1573639565550.0,1.232,-7.335,2.049,41.458886,15.5414502,False,4.447
2019-11-13 10:06:05.560,Mi 9T,1573639565571.8572,-1.676,-11.107,-4.417,41.458886,15.5414502,False,4.447
2019-11-13 10:06:05.580,Mi 9T,1573639565589.8,-0.76,-5.585,2.219,41.458886,15.5414502,False,4.447
2019-11-13 10:06:05.600,Mi 9T,1573639565609.9,0.12,-9.975,-4.176,41.458886,15.5414502,False,4.447
2019-11-13 10:06:05.620,Mi 9T,1573639565629.9,1.108,-7.978,-0.017,41.458886,15.5414502,False,4.447
2019-11-13 10:06:05.640,Mi 9T,1573639565648.625,-0.458,-9.108,-1.489,41.458886,15.5414502,False,4.447
2019-11-13 10:06:05.660,Mi 9T,1573639565668.889,-1.069,-9.876,-0.531,41.458886,15.5414502,False,4.447
2019-11-13 10:06:05.680,Mi 9T,1573639565690.875,-0.688,-8.898,0.803,41.458886,15.5414502,False,4.447
2019-11-13 10:06:05.700,Mi 9T,1573639565710.0,0.061,-9.517,0.397,41.458886,15.5414502,False,4.447
2019-11-13 10:06:05.720,Mi 9T,1573639565728.4443,-0.914,-10.173,-2.226,41.458886,15.5414502,False,4.447
2019-11-13 10:06:05.740,Mi 9T,1573639565748.7778,-1.097,-8.163,1.196,41.458886,15.5414502,False,4.447
2019-11-13 10:06:05.760,Mi 9T,1573639565769.4546,-1.879,-9.978,-3.284,41.458886,15.5414502,False,4.447
2019-11-13 10:06:05.780,Mi 9T,1573639565790.375,0.363,-9.137,0.266,41.458886,15.5414502,False,4.447
2019-11-13 10:06:05.800,Mi 9T,1573639565808.8,0.181,-10.298,-0.681,41.458886,15.5414502,False,4.447
2019-11-13 10:06:05.820,Mi 9T,1573639565830.4285,-0.03,-10.51,2.026,41.458875,15.5414272,False,4.668
2019-11-13 10:06:05.840,Mi 9T,1573639565848.6,-1.626,-10.562,1.208,41.4588091,15.5412889,False,5.994
2019-11-13 10:06:05.860,Mi 9T,1573639565869.5557,-0.724,-10.325,1.578,41.4588091,15.5412889,False,5.994
2019-11-13 10:06:05.880,Mi 9T,1573639565888.8,0.387,-10.897,0.187,41.4588091,15.5412889,False,5.994
2019-11-13 10:06:05.900,Mi 9T,1573639565909.3333,1.51,-11.099,1.495,41.4588091,15.5412889,False,5.994
2019-11-13 10:06:05.920,Mi 9T,1573639565929.0,0.708,-10.84,1.806,41.4588091,15.5412889,False,5.994
2019-11-13 10:06:05.940,Mi 9T,1573639565949.2,-0.555,-11.184,1.642,41.4588091,15.5412889,False,5.994
2019-11-13 10:06:05.960,Mi 9T,1573639565969.2,-0.665,-11.052,1.338,41.4588091,15.5412889,False,5.994
2019-11-13 10:06:05.980,Mi 9T,1573639565989.0,0.428,-11.697,0.766,41.4588091,15.5412889,False,5.994
2019-11-13 10:06:06.000,Mi 9T,1573639566009.111,-0.372,-9.989,1.793,41.4588091,15.5412889,False,5.994
2019-11-13 10:06:06.020,Mi 9T,1573639566029.3,-1.462,-10.004,0.521,41.4588091,15.5412889,False,5.994
2019-11-13 10:06:06.040,Mi 9T,1573639566049.4,-1.02,-8.78,-0.158,41.4588091,15.5412889,False,5.994
2019-11-13 10:06:06.060,Mi 9T,1573639566069.375,0.36,-8.47,-0.514,41.4588091,15.5412889,False,5.994
2019-11-13 10:06:06.080,Mi 9T,1573639566089.8,0.704,-8.575,-1.5,41.4588091,15.5412889,False,5.994
2019-11-13 10:06:06.100,Mi 9T,1573639566109.7778,-0.297,-8.58,-0.955,41.4588091,15.5412889,False,5.994
2019-11-13 10:06:06.120,Mi 9T,1573639566130.6667,-0.463,-8.342,0.392,41.4588091,15.5412889,False,5.994
2019-11-13 10:06:06.140,Mi 9T,1573639566149.7778,-0.374,-8.657,-0.241,41.4588091,15.5412889,False,5.994
2019-11-13 10:06:06.160,Mi 9T,1573639566170.111,0.696,-9.064,-0.895,41.4588091,15.5412889,False,5.994
2019-11-13 10:06:06.180,Mi 9T,1573639566189.2856,0.625,-8.547,-1.039,41.4588091,15.5412889,False,5.994
2019-11-13 10:06:06.200,Mi 9T,1573639566209.2727,-0.291,-8.317,-0.383,41.4588091,15.5412889,False,5.994
2019-11-13 10:06:06.220,Mi 9T,1573639566228.375,-1.708,-8.65,-1.718,41.4588091,15.5412889,False,5.994
2019-11-13 10:06:06.240,Mi 9T,1573639566248.0,-1.337,-8.594,-0.075,41.4588091,15.5412889,False,5.994
2019-11-13 10:06:06.260,Mi 9T,1573639566269.2,-0.332,-10.013,-1.958,41.4588091,15.5412889,False,5.994
2019-11-13 10:06:06.280,Mi 9T,1573639566289.6667,2.301,-10.113,0.196,41.4588091,15.5412889,False,5.994
