UTC_timestamp,device_name,timestamp,x,y,z,lat,long,event,speed
2019-10-26 10:38:03.320,LG-H970,1572086283331.0,-1.951,8.248,-0.637,41.1048482,16.8787944,False,NONE
2019-10-26 10:38:03.340,LG-H970,1572086283351.25,-2.316,7.803,-0.714,41.1048482,16.8787944,False,NONE
2019-10-26 10:38:03.360,LG-H970,1572086283370.75,-2.827,8.027,-1.031,41.1048482,16.8787944,False,NONE
2019-10-26 10:38:03.380,LG-H970,1572086283390.5,-2.455,8.181,-0.641,41.1048482,16.8787944,False,NONE
2019-10-26 10:38:03.400,LG-H970,1572086283410.5,-1.667,8.601,-0.408,41.1048482,16.8787944,False,NONE
2019-10-26 10:38:03.420,LG-H970,1572086283430.5,-1.801,8.729,0.061,41.1048482,16.8787944,False,NONE
2019-10-26 10:38:03.440,LG-H970,1572086283449.6667,-2.071,9.395,-0.105,41.1048482,16.8787944,False,NONE
2019-10-26 10:38:03.460,LG-H970,1572086283467.8,-1.787,10.184,-0.487,41.1048482,16.8787944,False,NONE
2019-10-26 10:38:03.480,LG-H970,1572086283489.0,-0.638,10.351,0.439,41.1048482,16.8787944,False,NONE
2019-10-26 10:38:03.500,LG-H970,1572086283508.5,0.35,8.324,-1.291,41.1048482,16.8787944,False,NONE
2019-10-26 10:38:03.520,LG-H970,1572086283528.5,0.269,8.634,-1.775,41.1048482,16.8787944,False,NONE
2019-10-26 10:38:03.540,LG-H970,1572086283548.25,-0.217,8.973,-2.369,41.1048482,16.8787944,False,NONE
2019-10-26 10:38:03.560,LG-H970,1572086283568.25,0.844,10.489,0.421,41.1048482,16.8787944,False,NONE
2019-10-26 10:38:03.580,LG-H970,1572086283587.75,0.226,9.643,-0.257,41.1048482,16.8787944,False,NONE
2019-10-26 10:38:03.600,LG-H970,1572086283607.5,-0.25,11.392,-1.601,41.1048482,16.8787944,False,NONE
2019-10-26 10:38:03.620,LG-H970,1572086283629.6,0.256,9.679,-1.564,41.1048482,16.8787944,False,NONE
2019-10-26 10:38:03.640,LG-H970,1572086283652.0,1.648,9.457,0.655,41.1048482,16.8787944,False,NONE
2019-10-26 10:38:03.660,LG-H970,1572086283671.5,0.187,10.738,-0.89,41.1048482,16.8787944,False,NONE
2019-10-26 10:38:03.680,LG-H970,1572086283691.5,-1.15,11.908,-1.036,41.1048482,16.8787944,False,NONE
2019-10-26 10:38:03.700,LG-H970,1572086283711.0,0.206,9.347,-0.266,41.1048482,16.8787944,False,NONE
2019-10-26 10:38:03.720,LG-H970,1572086283730.5,2.168,8.528,0.283,41.1048482,16.8787944,False,NONE
2019-10-26 10:38:03.740,LG-H970,1572086283750.5,-0.104,9.547,-1.305,41.1048482,16.8787944,False,NONE
2019-10-26 10:38:03.760,LG-H970,1572086283770.25,-2.015,11.601,-1.61,41.1048482,16.8787944,False,NONE
2019-10-26 10:38:03.780,LG-H970,1572086283789.75,-0.624,10.152,-0.322,41.1048482,16.8787944,False,NONE
2019-10-26 10:38:03.800,LG-H970,1572086283809.25,1.393,9.089,1.136,41.1048482,16.8787944,False,NONE
2019-10-26 10:38:03.820,LG-H970,1572086283829.0,-0.654,9.56,-0.611,41.1048482,16.8787944,False,NONE
2019-10-26 10:38:03.840,LG-H970,1572086283849.0,-2.689,11.609,-1.753,41.1048482,16.8787944,False,NONE
2019-10-26 10:38:03.860,LG-H970,1572086283867.5,-1.47,10.328,-0.335,41.1048482,16.8787944,False,NONE
2019-10-26 10:38:03.880,LG-H970,1572086283887.5,0.859,10.189,1.618,41.1048482,16.8787944,False,NONE
2019-10-26 10:38:03.900,LG-H970,1572086283907.5,-1.404,11.326,-0.028,41.1048482,16.8787944,False,NONE
2019-10-26 10:38:03.920,LG-H970,1572086283928.0,-4.197,12.515,-1.181,41.1048482,16.8787944,False,NONE
2019-10-26 10:38:03.940,LG-H970,1572086283947.5,-2.872,10.428,-1.579,41.1048482,16.8787944,False,NONE
2019-10-26 10:38:03.960,LG-H970,1572086283967.5,-0.811,9.282,0.375,41.1048482,16.8787944,False,NONE
2019-10-26 10:38:03.980,LG-H970,1572086283989.6,-2.67,10.172,-0.071,41.1048482,16.8787944,False,NONE
2019-10-26 10:38:04.000,LG-H970,1572086284011.25,-3.064,11.658,-0.566,41.1048482,16.8787944,False,NONE
2019-10-26 10:38:04.020,LG-H970,1572086284031.25,-1.965,9.862,-0.329,41.1048482,16.8787944,False,NONE
2019-10-26 10:38:04.040,LG-H970,1572086284051.25,-1.483,9.378,-0.147,41.1048482,16.8787944,False,NONE
2019-10-26 10:38:04.060,LG-H970,1572086284070.5,-1.766,9.447,-0.915,41.1048482,16.8787944,False,NONE
2019-10-26 10:38:04.080,LG-H970,1572086284090.5,-0.749,10.796,-0.061,41.1048482,16.8787944,False,NONE
2019-10-26 10:38:04.100,LG-H970,1572086284110.5,0.083,10.796,0.59,41.1048482,16.8787944,False,NONE
2019-10-26 10:38:04.120,LG-H970,1572086284130.25,0.223,10.84,0.824,41.1048482,16.8787944,False,NONE
2019-10-26 10:38:04.140,LG-H970,1572086284149.5,-0.967,9.714,-0.577,41.1048482,16.8787944,False,NONE
2019-10-26 10:38:04.160,LG-H970,1572086284169.5,-0.84,9.989,-1.287,41.1048482,16.8787944,False,NONE
2019-10-26 10:38:04.180,LG-H970,1572086284189.0,-1.106,9.524,-0.753,41.1048482,16.8787944,False,NONE
2019-10-26 10:38:04.200,LG-H970,1572086284209.0,-0.275,9.971,0.921,41.1048482,16.8787944,False,NONE
2019-10-26 10:38:04.220,LG-H970,1572086284228.5,-0.942,9.336,1.035,41.1048482,16.8787944,False,NONE
2019-10-26 10:38:04.240,LG-H970,1572086284248.5,-2.141,9.275,-0.046,41.1048482,16.8787944,False,NONE
2019-10-26 10:38:04.260,LG-H970,1572086284268.0,-2.635,8.975,-1.864,41.1048482,16.8787944,False,NONE
2019-10-26 10:38:04.280,LG-H970,1572086284287.75,-3.048,7.832,-1.349,41.1048482,16.8787944,False,NONE
2019-10-26 10:38:04.300,LG-H970,1572086284307.5,-2.416,6.688,-0.123,41.1048482,16.8787944,False,NONE
2019-10-26 10:38:04.320,LG-H970,1572086284330.8,-1.429,7.572,-0.014,41.1048482,16.8787944,False,NONE
2019-10-26 10:38:04.340,LG-H970,1572086284349.0,-1.267,9.355,1.14,41.1048482,16.8787944,False,NONE
2019-10-26 10:38:04.360,LG-H970,1572086284369.0,-1.27,10.392,-1.653,41.1048482,16.8787944,False,NONE
2019-10-26 10:38:04.380,LG-H970,1572086284389.0,-1.067,9.682,0.282,41.1048482,16.8787944,False,NONE
2019-10-26 10:38:04.400,LG-H970,1572086284411.5,1.043,8.914,-1.072,41.1048482,16.8787944,False,NONE
2019-10-26 10:38:04.420,LG-H970,1572086284431.0,0.381,9.998,-0.377,41.1048482,16.8787944,False,NONE
2019-10-26 10:38:04.440,LG-H970,1572086284451.0,-0.307,10.516,-1.468,41.1048482,16.8787944,False,NONE
2019-10-26 10:38:04.460,LG-H970,1572086284469.5,1.281,10.409,-1.097,41.1048482,16.8787944,False,NONE
2019-10-26 10:38:04.480,LG-H970,1572086284489.5,1.909,9.38,-0.505,41.1048482,16.8787944,False,NONE
2019-10-26 10:38:04.500,LG-H970,1572086284508.5,1.544,10.959,-1.268,41.1048482,16.8787944,False,NONE
2019-10-26 10:38:04.520,LG-H970,1572086284529.25,0.559,11.353,-1.823,41.1048482,16.8787944,False,NONE
2019-10-26 10:38:04.540,LG-H970,1572086284549.25,1.383,10.731,-1.316,41.1048482,16.8787944,False,NONE
2019-10-26 10:38:04.560,LG-H970,1572086284568.5,1.632,10.113,0.048,41.1048482,16.8787944,False,NONE
2019-10-26 10:38:04.580,LG-H970,1572086284588.5,0.74,11.477,-0.681,41.1048482,16.8787944,False,NONE
2019-10-26 10:38:04.600,LG-H970,1572086284608.25,-0.222,12.061,-0.789,41.1048482,16.8787944,False,NONE
2019-10-26 10:38:04.620,LG-H970,1572086284627.75,0.053,10.399,-0.68,41.1048482,16.8787944,False,NONE
2019-10-26 10:38:04.640,LG-H970,1572086284648.0,0.254,8.924,-0.383,41.1048482,16.8787944,False,NONE
2019-10-26 10:38:04.660,LG-H970,1572086284669.8,-1.955,9.544,-1.575,41.1048482,16.8787944,False,NONE
2019-10-26 10:38:04.680,LG-H970,1572086284692.0,-2.95,10.947,-2.036,41.1048482,16.8787944,False,NONE
2019-10-26 10:38:04.700,LG-H970,1572086284711.5,-1.398,9.764,-0.475,41.1048482,16.8787944,False,NONE
2019-10-26 10:38:04.720,LG-H970,1572086284730.75,0.066,8.277,-0.374,41.1048482,16.8787944,False,NONE
2019-10-26 10:38:04.740,LG-H970,1572086284750.75,-1.311,8.798,-0.617,41.1048482,16.8787944,False,NONE
2019-10-26 10:38:04.760,LG-H970,1572086284770.75,-3.015,9.979,-2.216,41.1048482,16.8787944,False,NONE
2019-10-26 10:38:04.780,LG-H970,1572086284790.5,-2.096,9.898,-1.097,41.1048482,16.8787944,False,NONE
2019-10-26 10:38:04.800,LG-H970,1572086284810.25,-0.078,9.059,0.254,41.1048482,16.8787944,False,NONE
2019-10-26 10:38:04.820,LG-H970,1572086284830.75,-0.621,9.511,-0.346,41.1048482,16.8787944,False,NONE
2019-10-26 10:38:04.840,LG-H970,1572086284850.25,-2.507,10.725,-0.9,41.1048482,16.8787944,False,NONE
2019-10-26 10:38:04.860,LG-H970,1572086284868.5,-1.297,10.116,-1.338,41.1048482,16.8787944,False,NONE
2019-10-26 10:38:04.880,LG-H970,1572086284888.75,0.827,9.016,0.053,41.1048482,16.8787944,False,NONE
2019-10-26 10:38:04.900,LG-H970,1572086284908.75,1.103,9.758,-0.077,41.1048482,16.8787944,False,NONE
2019-10-26 10:38:04.920,LG-H970,1572086284930.75,-0.235,10.374,-0.645,41.1048482,16.8787944,False,NONE
2019-10-26 10:38:04.940,LG-H970,1572086284947.75,-0.295,10.078,-1.116,41.1048482,16.8787944,False,NONE
2019-10-26 10:38:04.960,LG-H970,1572086284968.25,0.735,9.889,-0.367,41.1048482,16.8787944,False,NONE
2019-10-26 10:38:04.980,LG-H970,1572086284987.5,0.79,10.936,-0.122,41.1048482,16.8787944,False,NONE
2019-10-26 10:38:05.000,LG-H970,1572086285007.25,0.166,11.054,-0.535,41.1048482,16.8787944,False,NONE
2019-10-26 10:38:05.020,LG-H970,1572086285027.0,0.385,9.907,-0.875,41.1048482,16.8787944,False,NONE
2019-10-26 10:38:05.040,LG-H970,1572086285049.2,1.434,10.078,-0.849,41.1048482,16.8787944,False,NONE
2019-10-26 10:38:05.060,LG-H970,1572086285071.5,1.374,11.178,0.367,41.1048482,16.8787944,False,NONE
2019-10-26 10:38:05.080,LG-H970,1572086285091.25,1.156,11.637,1.264,41.1048482,16.8787944,False,NONE
2019-10-26 10:38:05.100,LG-H970,1572086285110.5,1.421,11.142,0.523,41.1048482,16.8787944,False,NONE
2019-10-26 10:38:05.120,LG-H970,1572086285130.5,-0.491,9.921,0.056,41.1048482,16.8787944,False,NONE
2019-10-26 10:38:05.140,LG-H970,1572086285150.5,-0.266,9.937,-2.116,41.1048482,16.8787944,False,NONE
2019-10-26 10:38:05.160,LG-H970,1572086285170.25,-0.94,8.55,-0.564,41.1048482,16.8787944,False,NONE
2019-10-26 10:38:05.180,LG-H970,1572086285189.75,0.079,8.907,-2.073,41.1048482,16.8787944,False,NONE
2019-10-26 10:38:05.200,LG-H970,1572086285209.75,-0.968,9.257,-0.145,41.1048482,16.8787944,False,NONE
2019-10-26 10:38:05.220,LG-H970,1572086285229.25,-1.178,8.946,-0.942,41.1048482,16.8787944,False,NONE
2019-10-26 10:38:05.240,LG-H970,1572086285249.25,0.362,9.722,-2.034,41.1048482,16.8787944,False,NONE
2019-10-26 10:38:05.260,LG-H970,1572086285268.75,-0.499,9.186,-1.305,41.1048482,16.8787944,False,NONE
2019-10-26 10:38:05.280,LG-H970,1572086285288.5,-1.459,9.334,-1.488,41.1048482,16.8787944,False,NONE
2019-10-26 10:38:05.300,LG-H970,1572086285308.25,-1.34,10.416,-2.106,41.1048482,16.8787944,False,NONE
2019-10-26 10:38:05.320,LG-H970,1572086285328.25,-2.057,8.656,-1.191,41.1048482,16.8787944,False,NONE
2019-10-26 10:38:05.340,LG-H970,1572086285350.2,-0.846,9.319,-1.168,41.1048482,16.8787944,False,NONE
2019-10-26 10:38:05.360,LG-H970,1572086285372.25,0.706,10.146,-1.631,41.1048482,16.8787944,False,NONE
2019-10-26 10:38:05.380,LG-H970,1572086285388.6667,-0.328,8.917,-0.686,41.1048482,16.8787944,False,NONE
2019-10-26 10:38:05.400,LG-H970,1572086285409.8,-0.847,9.354,-0.462,41.1048482,16.8787944,False,NONE
2019-10-26 10:38:05.420,LG-H970,1572086285425.0,-2.792,8.181,0.056,41.1048482,16.8787944,False,NONE
2019-10-26 10:38:05.440,LG-H970,1572086285450.5,-1.701,9.579,-1.133,41.1039846,16.8792228,False,NONE
2019-10-26 10:38:05.460,LG-H970,1572086285469.75,-1.997,9.6,-0.088,41.1039846,16.8792228,False,NONE
2019-10-26 10:38:05.480,LG-H970,1572086285490.25,-1.298,9.418,-0.274,41.1039846,16.8792228,False,NONE
2019-10-26 10:38:05.500,LG-H970,1572086285510.5,-0.976,10.018,-0.084,41.1039846,16.8792228,False,NONE
2019-10-26 10:38:05.520,LG-H970,1572086285529.5,-2.363,10.304,0.185,41.1039846,16.8792228,False,NONE
2019-10-26 10:38:05.540,LG-H970,1572086285549.5,-1.047,11.048,-0.888,41.1039846,16.8792228,False,NONE
2019-10-26 10:38:05.560,LG-H970,1572086285569.5,-0.529,9.838,-0.285,41.1039846,16.8792228,False,NONE
2019-10-26 10:38:05.580,LG-H970,1572086285591.5,-0.955,8.891,-0.675,41.1039846,16.8792228,False,NONE
2019-10-26 10:38:05.600,LG-H970,1572086285608.75,-0.84,9.647,-1.211,41.1039846,16.8792228,False,NONE
2019-10-26 10:38:05.620,LG-H970,1572086285628.75,0.393,9.823,-0.918,41.1039846,16.8792228,False,NONE
2019-10-26 10:38:05.640,LG-H970,1572086285648.75,1.174,9.89,-0.79,41.1039846,16.8792228,False,NONE
2019-10-26 10:38:05.660,LG-H970,1572086285667.75,-0.095,9.171,-1.006,41.1039846,16.8792228,False,NONE
2019-10-26 10:38:05.680,LG-H970,1572086285687.75,-0.096,9.527,-1.956,41.1039846,16.8792228,False,NONE
2019-10-26 10:38:05.700,LG-H970,1572086285710.2,0.589,9.517,-1.852,41.1039846,16.8792228,False,NONE
2019-10-26 10:38:05.720,LG-H970,1572086285731.25,2.12,10.281,-1.538,41.1039846,16.8792228,False,NONE
2019-10-26 10:38:05.740,LG-H970,1572086285750.5,0.846,9.77,0.079,41.1039846,16.8792228,False,NONE
2019-10-26 10:38:05.760,LG-H970,1572086285769.75,1.073,9.558,-1.303,41.1039846,16.8792228,False,NONE
2019-10-26 10:38:05.780,LG-H970,1572086285789.75,2.32,9.788,-1.856,41.1039846,16.8792228,False,NONE
2019-10-26 10:38:05.800,LG-H970,1572086285809.5,2.407,9.672,-3.83,41.1039846,16.8792228,False,NONE
2019-10-26 10:38:05.820,LG-H970,1572086285829.0,0.709,8.673,-0.978,41.1039846,16.8792228,False,NONE
2019-10-26 10:38:05.840,LG-H970,1572086285849.25,1.538,9.673,-0.988,41.1039846,16.8792228,False,NONE
2019-10-26 10:38:05.860,LG-H970,1572086285869.5,1.283,11.374,0.116,41.1039846,16.8792228,False,NONE
2019-10-26 10:38:05.880,LG-H970,1572086285887.75,0.33,11.446,0.634,41.1039846,16.8792228,False,NONE
2019-10-26 10:38:05.900,LG-H970,1572086285908.0,-0.235,9.785,-0.59,41.1039846,16.8792228,False,NONE
2019-10-26 10:38:05.920,LG-H970,1572086285927.75,0.196,9.53,-0.385,41.1039846,16.8792228,False,NONE
2019-10-26 10:38:05.940,LG-H970,1572086285949.8,-0.171,9.909,-0.718,41.1039846,16.8792228,False,NONE
2019-10-26 10:38:05.960,LG-H970,1572086285971.5,-0.658,11.711,0.987,41.1039846,16.8792228,False,NONE
2019-10-26 10:38:05.980,LG-H970,1572086285992.0,-0.422,11.008,0.559,41.1039846,16.8792228,False,NONE
2019-10-26 10:38:06.000,LG-H970,1572086286011.5,-0.261,10.78,0.264,41.1039846,16.8792228,False,NONE
2019-10-26 10:38:06.020,LG-H970,1572086286031.5,-1.508,8.499,-1.085,41.1039846,16.8792228,False,NONE
2019-10-26 10:38:06.040,LG-H970,1572086286053.75,-1.003,9.138,-1.011,41.1039846,16.8792228,False,NONE
2019-10-26 10:38:06.060,LG-H970,1572086286071.0,-0.029,10.113,-0.842,41.1039846,16.8792228,False,NONE
2019-10-26 10:38:06.080,LG-H970,1572086286091.0,-0.772,9.216,0.518,41.1039846,16.8792228,False,NONE
2019-10-26 10:38:06.100,LG-H970,1572086286110.5,-1.078,9.162,-0.653,41.1039846,16.8792228,False,NONE
2019-10-26 10:38:06.120,LG-H970,1572086286130.5,-2.428,9.19,-2.186,41.1039846,16.8792228,False,NONE
2019-10-26 10:38:06.140,LG-H970,1572086286150.0,-3.649,9.147,-1.406,41.1039846,16.8792228,False,NONE
2019-10-26 10:38:06.160,LG-H970,1572086286169.5,-2.261,9.894,-1.697,41.1039846,16.8792228,False,NONE
2019-10-26 10:38:06.180,LG-H970,1572086286189.0,-1.516,9.321,-0.862,41.1039846,16.8792228,False,NONE
2019-10-26 10:38:06.200,LG-H970,1572086286208.5,-1.742,9.035,-0.767,41.1039846,16.8792228,False,NONE
2019-10-26 10:38:06.220,LG-H970,1572086286228.5,-2.439,9.245,-2.22,41.1039846,16.8792228,False,NONE
2019-10-26 10:38:06.240,LG-H970,1572086286248.25,-1.799,10.447,-1.337,41.1039846,16.8792228,False,NONE
2019-10-26 10:38:06.260,LG-H970,1572086286267.75,-1.95,8.422,-1.683,41.1039846,16.8792228,False,NONE
2019-10-26 10:38:06.280,LG-H970,1572086286287.5,-0.166,10.214,0.371,41.1039846,16.8792228,False,NONE
2019-10-26 10:38:06.300,LG-H970,1572086286309.8,-0.716,10.068,-0.989,41.1039846,16.8792228,False,NONE
2019-10-26 10:38:06.320,LG-H970,1572086286331.5,-1.129,10.844,-0.344,41.1039846,16.8792228,False,NONE
2019-10-26 10:38:06.340,LG-H970,1572086286351.5,-0.064,9.931,-1.539,41.1039846,16.8792228,False,NONE
2019-10-26 10:38:06.360,LG-H970,1572086286371.25,1.355,9.532,0.028,41.1039846,16.8792228,False,NONE
2019-10-26 10:38:06.380,LG-H970,1572086286391.5,2.003,10.009,-1.039,41.1039846,16.8792228,False,NONE
2019-10-26 10:38:06.400,LG-H970,1572086286411.25,0.136,11.044,-1.346,41.1039846,16.8792228,False,NONE
2019-10-26 10:38:06.420,LG-H970,1572086286431.5,-1.355,10.256,-0.637,41.1039846,16.8792228,False,NONE
2019-10-26 10:38:06.440,LG-H970,1572086286450.75,1.653,11.103,-0.68,41.1039846,16.8792228,False,NONE
2019-10-26 10:38:06.460,LG-H970,1572086286470.25,1.544,8.871,0.462,41.1039846,16.8792228,False,NONE
2019-10-26 10:38:06.480,LG-H970,1572086286490.5,1.19,10.76,-0.753,41.1039846,16.8792228,False,NONE
2019-10-26 10:38:06.500,LG-H970,1572086286511.0,-0.153,9.918,-2.557,41.1039846,16.8792228,False,NONE
2019-10-26 10:38:06.520,LG-H970,1572086286530.25,-0.462,8.16,-1.756,41.1039846,16.8792228,False,NONE
2019-10-26 10:38:06.540,LG-H970,1572086286550.5,1.386,8.873,-1.446,41.1039846,16.8792228,False,NONE
2019-10-26 10:38:06.560,LG-H970,1572086286569.5,1.079,10.341,-0.214,41.1039846,16.8792228,False,NONE
2019-10-26 10:38:06.580,LG-H970,1572086286588.75,-0.511,10.376,-0.985,41.1039846,16.8792228,False,NONE
2019-10-26 10:38:06.600,LG-H970,1572086286608.5,-0.143,8.589,-1.445,41.1039846,16.8792228,False,NONE
2019-10-26 10:38:06.620,LG-H970,1572086286628.5,2.352,9.825,-2.357,41.1039846,16.8792228,False,NONE
2019-10-26 10:38:06.640,LG-H970,1572086286650.2,1.018,9.231,-0.956,41.1039846,16.8792228,False,NONE
2019-10-26 10:38:06.660,LG-H970,1572086286672.0,1.642,11.935,0.711,41.1039846,16.8792228,False,NONE
2019-10-26 10:38:06.680,LG-H970,1572086286691.75,1.42,10.306,-0.762,41.1039846,16.8792228,False,NONE
2019-10-26 10:38:06.700,LG-H970,1572086286711.5,0.367,9.918,0.245,41.1039846,16.8792228,False,NONE
2019-10-26 10:38:06.720,LG-H970,1572086286731.0,0.146,10.31,-1.919,41.1039846,16.8792228,False,NONE
2019-10-26 10:38:06.740,LG-H970,1572086286750.75,-0.796,10.01,-1.674,41.1039846,16.8792228,False,NONE
2019-10-26 10:38:06.760,LG-H970,1572086286770.5,-0.189,10.261,0.996,41.1039846,16.8792228,False,NONE
2019-10-26 10:38:06.780,LG-H970,1572086286790.0,0.988,11.934,0.456,41.1039846,16.8792228,False,NONE
2019-10-26 10:38:06.800,LG-H970,1572086286810.0,-0.932,12.168,1.611,41.1039846,16.8792228,False,NONE
2019-10-26 10:38:06.820,LG-H970,1572086286829.5,-2.548,8.704,-1.088,41.1039846,16.8792228,False,NONE
2019-10-26 10:38:06.840,LG-H970,1572086286849.75,-1.658,10.73,-1.347,41.1039846,16.8792228,False,NONE
2019-10-26 10:38:06.860,LG-H970,1572086286869.75,-3.699,9.614,-2.215,41.1039846,16.8792228,False,NONE
2019-10-26 10:38:06.880,LG-H970,1572086286889.75,-3.346,10.411,1.354,41.1039846,16.8792228,False,NONE
2019-10-26 10:38:06.900,LG-H970,1572086286909.5,-3.259,7.734,-1.342,41.1039846,16.8792228,False,NONE
2019-10-26 10:38:06.920,LG-H970,1572086286929.75,-2.354,10.658,-0.631,41.1039846,16.8792228,False,NONE
2019-10-26 10:38:06.940,LG-H970,1572086286948.75,-2.819,8.709,-4.526,41.1039846,16.8792228,False,NONE
2019-10-26 10:38:06.960,LG-H970,1572086286968.75,-1.122,9.005,0.145,41.1039846,16.8792228,False,NONE
2019-10-26 10:38:06.980,LG-H970,1572086286989.0,-0.38,8.024,-1.46,41.1039846,16.8792228,False,NONE
2019-10-26 10:38:07.000,LG-H970,1572086287008.0,-2.546,12.086,0.863,41.1039846,16.8792228,False,NONE
2019-10-26 10:38:07.020,LG-H970,1572086287027.75,-3.594,12.08,-2.343,41.1039846,16.8792228,False,NONE
2019-10-26 10:38:07.040,LG-H970,1572086287047.5,0.302,9.454,-0.759,41.1039846,16.8792228,False,NONE
2019-10-26 10:38:07.060,LG-H970,1572086287067.25,4.07,6.484,-1.149,41.1039846,16.8792228,False,NONE
2019-10-26 10:38:07.080,LG-H970,1572086287089.6,1.457,7.617,-0.615,41.1039846,16.8792228,False,NONE
2019-10-26 10:38:07.100,LG-H970,1572086287109.3333,-1.407,11.462,-2.454,41.1039846,16.8792228,False,NONE
2019-10-26 10:38:07.120,LG-H970,1572086287129.2,-2.081,12.191,-0.059,41.1039846,16.8792228,False,NONE
2019-10-26 10:38:07.140,LG-H970,1572086287151.25,0.01,9.892,1.247,41.1039846,16.8792228,False,NONE
2019-10-26 10:38:07.160,LG-H970,1572086287171.5,0.102,7.952,0.719,41.1039846,16.8792228,False,NONE
2019-10-26 10:38:07.180,LG-H970,1572086287188.6667,-0.631,9.574,-1.866,41.1039846,16.8792228,False,NONE
2019-10-26 10:38:07.200,LG-H970,1572086287211.0,-2.31,9.401,-2.951,41.1039846,16.8792228,False,NONE
2019-10-26 10:38:07.220,LG-H970,1572086287229.5,-1.493,8.301,-1.779,41.1039846,16.8792228,False,NONE
2019-10-26 10:38:07.240,LG-H970,1572086287249.75,-0.054,7.625,-0.37,41.1039846,16.8792228,False,NONE
2019-10-26 10:38:07.260,LG-H970,1572086287269.75,-1.699,8.736,-0.567,41.1039846,16.8792228,False,NONE
2019-10-26 10:38:07.280,LG-H970,1572086287290.0,-2.521,10.884,-2.087,41.1039846,16.8792228,False,NONE
2019-10-26 10:38:07.300,LG-H970,1572086287308.0,0.007,11.351,-1.526,41.1039846,16.8792228,False,NONE
2019-10-26 10:38:07.320,LG-H970,1572086287329.0,1.669,9.657,0.362,41.1039846,16.8792228,False,NONE
2019-10-26 10:38:07.340,LG-H970,1572086287348.0,1.491,9.747,1.307,41.1039846,16.8792228,False,NONE
2019-10-26 10:38:07.360,LG-H970,1572086287369.6,-0.514,10.658,-2.396,41.1039846,16.8792228,False,NONE
2019-10-26 10:38:07.380,LG-H970,1572086287391.75,-1.991,10.642,-1.903,41.1039846,16.8792228,False,NONE
2019-10-26 10:38:07.400,LG-H970,1572086287412.0,-0.144,8.469,-1.884,41.1039846,16.8792228,False,NONE
2019-10-26 10:38:07.420,LG-H970,1572086287429.6667,1.719,9.856,1.708,41.1039846,16.8792228,False,NONE
2019-10-26 10:38:07.440,LG-H970,1572086287447.25,0.436,11.255,-0.112,41.1039846,16.8792228,False,NONE
2019-10-26 10:38:07.460,LG-H970,1572086287469.6,-2.799,13.097,0.908,41.1039846,16.8792228,False,NONE
2019-10-26 10:38:07.480,LG-H970,1572086287488.6667,-2.344,10.205,-1.328,41.1039846,16.8792228,False,NONE
2019-10-26 10:38:07.500,LG-H970,1572086287509.0,-0.562,9.44,0.917,41.1039846,16.8792228,False,NONE
2019-10-26 10:38:07.520,LG-H970,1572086287531.0,-1.315,9.785,-0.163,41.1039846,16.8792228,False,NONE
2019-10-26 10:38:07.540,LG-H970,1572086287550.75,-2.618,12.965,-0.314,41.1039846,16.8792228,False,NONE
2019-10-26 10:38:07.560,LG-H970,1572086287570.5,-2.59,12.784,-1.255,41.1039846,16.8792228,False,NONE
2019-10-26 10:38:07.580,LG-H970,1572086287590.5,2.188,11.184,2.147,41.1039846,16.8792228,False,NONE
2019-10-26 10:38:07.600,LG-H970,1572086287610.0,1.687,6.599,0.853,41.1039846,16.8792228,False,NONE
2019-10-26 10:38:07.620,LG-H970,1572086287629.5,-1.399,7.277,-0.78,41.1039846,16.8792228,False,NONE
2019-10-26 10:38:07.640,LG-H970,1572086287649.5,-0.733,10.504,-1.888,41.1039846,16.8792228,False,NONE
2019-10-26 10:38:07.660,LG-H970,1572086287669.25,1.402,12.226,-0.693,41.1039846,16.8792228,False,NONE
2019-10-26 10:38:07.680,LG-H970,1572086287689.5,-2.698,8.667,-1.519,41.1039846,16.8792228,False,NONE
2019-10-26 10:38:07.700,LG-H970,1572086287708.75,-2.6,5.56,-0.432,41.1039846,16.8792228,False,NONE
2019-10-26 10:38:07.720,LG-H970,1572086287730.6,1.501,8.696,-2.4,41.1039846,16.8792228,False,NONE
2019-10-26 10:38:07.740,LG-H970,1572086287753.25,-4.398,8.498,-2.375,41.1039846,16.8792228,False,NONE
2019-10-26 10:38:07.760,LG-H970,1572086287769.6667,-2.597,12.015,1.578,41.1039846,16.8792228,False,NONE
2019-10-26 10:38:07.780,LG-H970,1572086287789.2,1.025,9.711,-0.788,41.1039846,16.8792228,False,NONE
2019-10-26 10:38:07.800,LG-H970,1572086287811.5,1.797,9.581,5.794,41.1039846,16.8792228,False,NONE
2019-10-26 10:38:07.820,LG-H970,1572086287829.0,0.388,11.97,1.269,41.1039846,16.8792228,False,NONE
2019-10-26 10:38:07.840,LG-H970,1572086287849.4,2.455,17.061,-2.538,41.1039846,16.8792228,False,NONE
2019-10-26 10:38:07.860,LG-H970,1572086287870.75,2.723,8.652,1.837,41.1039846,16.8792228,False,NONE
2019-10-26 10:38:07.880,LG-H970,1572086287890.75,3.449,7.22,0.793,41.1039846,16.8792228,False,NONE
2019-10-26 10:38:07.900,LG-H970,1572086287910.75,0.839,14.752,-2.218,41.1039846,16.8792228,False,NONE
2019-10-26 10:38:07.920,LG-H970,1572086287930.5,-4.629,9.886,-3.171,41.1039846,16.8792228,False,NONE
2019-10-26 10:38:07.940,LG-H970,1572086287949.0,0.606,9.134,3.216,41.1039846,16.8792228,False,NONE
2019-10-26 10:38:07.960,LG-H970,1572086287969.5,4.187,9.436,1.754,41.1039846,16.8792228,False,NONE
2019-10-26 10:38:07.980,LG-H970,1572086287989.5,-2.507,10.013,-0.775,41.1039846,16.8792228,False,NONE
2019-10-26 10:38:08.000,LG-H970,1572086288009.0,-4.975,10.03,-3.332,41.1039846,16.8792228,False,NONE
2019-10-26 10:38:08.020,LG-H970,1572086288028.75,-1.902,7.839,-3.633,41.1039846,16.8792228,False,NONE
2019-10-26 10:38:08.040,LG-H970,1572086288048.25,1.186,7.983,2.184,41.1039846,16.8792228,False,NONE
2019-10-26 10:38:08.060,LG-H970,1572086288065.0,-0.207,7.798,0.771,41.1039846,16.8792228,False,NONE
2019-10-26 10:38:08.080,LG-H970,1572086288091.2,-2.912,11.026,-0.176,41.1039846,16.8792228,False,NONE
2019-10-26 10:38:08.100,LG-H970,1572086288109.3333,-1.527,11.207,-2.428,41.1039846,16.8792228,False,NONE
2019-10-26 10:38:08.120,LG-H970,1572086288129.0,1.41,9.43,-0.36,41.1039846,16.8792228,False,NONE
2019-10-26 10:38:08.140,LG-H970,1572086288150.75,-0.09,6.277,1.63,41.1039846,16.8792228,False,NONE
2019-10-26 10:38:08.160,LG-H970,1572086288171.25,-0.606,9.517,-0.73,41.1039846,16.8792228,False,NONE
2019-10-26 10:38:08.180,LG-H970,1572086288191.0,-0.488,11.084,-1.327,41.1039846,16.8792228,False,NONE
2019-10-26 10:38:08.200,LG-H970,1572086288210.5,3.441,9.736,-1.086,41.1039846,16.8792228,False,NONE
2019-10-26 10:38:08.220,LG-H970,1572086288230.75,1.413,6.032,2.271,41.1039846,16.8792228,False,NONE
2019-10-26 10:38:08.240,LG-H970,1572086288250.5,-0.678,8.163,-1.034,41.1039846,16.8792228,False,NONE
2019-10-26 10:38:08.260,LG-H970,1572086288270.0,-1.9,11.677,-0.74,41.1039846,16.8792228,False,NONE
2019-10-26 10:38:08.280,LG-H970,1572086288290.25,-1.584,11.586,1.406,41.1039846,16.8792228,False,NONE
2019-10-26 10:38:08.300,LG-H970,1572086288309.5,0.064,9.655,0.64,41.1039846,16.8792228,False,NONE
2019-10-26 10:38:08.320,LG-H970,1572086288328.75,-1.155,8.958,0.898,41.1039846,16.8792228,True,NONE
2019-10-26 10:38:08.340,LG-H970,1572086288347.75,-2.632,8.54,-0.431,41.1039846,16.8792228,True,NONE
2019-10-26 10:38:08.360,LG-H970,1572086288368.0,4.055,14.057,-2.304,41.1039846,16.8792228,False,NONE
2019-10-26 10:38:08.380,LG-H970,1572086288387.5,4.412,10.429,-3.305,41.1039846,16.8792228,False,NONE
2019-10-26 10:38:08.400,LG-H970,1572086288408.5,-0.48,6.988,2.229,41.1039846,16.8792228,False,NONE
2019-10-26 10:38:08.420,LG-H970,1572086288427.75,0.803,10.083,-1.28,41.1039846,16.8792228,False,NONE
2019-10-26 10:38:08.440,LG-H970,1572086288448.0,2.305,13.253,-1.229,41.1039846,16.8792228,False,NONE
2019-10-26 10:38:08.460,LG-H970,1572086288470.6,1.114,10.9,0.803,41.1039846,16.8792228,False,NONE
2019-10-26 10:38:08.480,LG-H970,1572086288492.0,3.33,10.865,1.101,41.1039846,16.8792228,False,NONE
2019-10-26 10:38:08.500,LG-H970,1572086288512.25,-0.524,9.942,0.781,41.1039846,16.8792228,False,NONE
2019-10-26 10:38:08.520,LG-H970,1572086288529.6667,-3.655,10.226,-2.52,41.1039846,16.8792228,False,NONE
2019-10-26 10:38:08.540,LG-H970,1572086288550.0,-1.741,11.246,-0.455,41.1039846,16.8792228,False,NONE
2019-10-26 10:38:08.560,LG-H970,1572086288571.5,0.564,8.794,3.663,41.1039846,16.8792228,False,NONE
2019-10-26 10:38:08.580,LG-H970,1572086288590.75,0.021,9.882,2.14,41.1039846,16.8792228,False,NONE
2019-10-26 10:38:08.600,LG-H970,1572086288609.75,-4.004,11.714,-0.216,41.1039846,16.8792228,False,NONE
2019-10-26 10:38:08.620,LG-H970,1572086288630.25,-4.692,9.336,-0.226,41.1039846,16.8792228,False,NONE
2019-10-26 10:38:08.640,LG-H970,1572086288650.25,0.102,6.113,1.093,41.1039846,16.8792228,False,NONE
2019-10-26 10:38:08.660,LG-H970,1572086288669.0,0.729,4.42,-0.126,41.1039846,16.8792228,False,NONE
2019-10-26 10:38:08.680,LG-H970,1572086288688.75,-2.998,9.132,-1.029,41.1039846,16.8792228,False,NONE
2019-10-26 10:38:08.700,LG-H970,1572086288708.5,-5.022,11.54,-1.549,41.1039846,16.8792228,False,NONE
2019-10-26 10:38:08.720,LG-H970,1572086288728.75,4.635,14.415,2.884,41.1039846,16.8792228,False,NONE
2019-10-26 10:38:08.740,LG-H970,1572086288748.5,8.015,8.023,4.067,41.1039846,16.8792228,False,NONE
2019-10-26 10:38:08.760,LG-H970,1572086288770.0,2.161,7.315,0.309,41.1039846,16.8792228,False,NONE
2019-10-26 10:38:08.780,LG-H970,1572086288791.5,-2.539,11.51,-5.919,41.1039846,16.8792228,False,NONE
2019-10-26 10:38:08.800,LG-H970,1572086288811.75,1.826,12.575,-2.249,41.1039846,16.8792228,False,NONE
2019-10-26 10:38:08.820,LG-H970,1572086288831.5,7.941,7.42,5.475,41.1039846,16.8792228,False,NONE
2019-10-26 10:38:08.840,LG-H970,1572086288851.0,5.991,9.347,3.224,41.1039846,16.8792228,False,NONE
2019-10-26 10:38:08.860,LG-H970,1572086288870.75,-3.316,12.978,-4.011,41.1039846,16.8792228,False,NONE
2019-10-26 10:38:08.880,LG-H970,1572086288889.75,-3.861,13.943,-3.704,41.1039846,16.8792228,False,NONE
2019-10-26 10:38:08.900,LG-H970,1572086288909.5,1.131,8.455,-0.133,41.1039846,16.8792228,False,NONE
2019-10-26 10:38:08.920,LG-H970,1572086288929.5,5.612,8.595,2.08,41.1039846,16.8792228,False,NONE
2019-10-26 10:38:08.940,LG-H970,1572086288949.75,-0.471,11.301,0.609,41.1039846,16.8792228,False,NONE
2019-10-26 10:38:08.960,LG-H970,1572086288969.5,-5.556,13.044,-2.098,41.1039846,16.8792228,False,NONE
2019-10-26 10:38:08.980,LG-H970,1572086288989.75,-2.724,11.47,-2.13,41.1039846,16.8792228,False,NONE
2019-10-26 10:38:09.000,LG-H970,1572086289010.25,0.896,7.272,-0.765,41.1039846,16.8792228,False,NONE
2019-10-26 10:38:09.020,LG-H970,1572086289030.25,1.227,8.165,1.299,41.1039846,16.8792228,False,NONE
2019-10-26 10:38:09.040,LG-H970,1572086289049.75,-1.989,10.939,-1.144,41.1039846,16.8792228,False,NONE
2019-10-26 10:38:09.060,LG-H970,1572086289069.25,-3.511,12.333,-0.374,41.1039846,16.8792228,False,NONE
2019-10-26 10:38:09.080,LG-H970,1572086289088.5,-0.779,10.142,0.51,41.1039846,16.8792228,False,NONE
2019-10-26 10:38:09.100,LG-H970,1572086289109.0,1.094,7.937,1.195,41.1039846,16.8792228,False,NONE
2019-10-26 10:38:09.120,LG-H970,1572086289128.75,-0.435,7.757,0.102,41.1039846,16.8792228,False,NONE
2019-10-26 10:38:09.140,LG-H970,1572086289146.3333,-2.167,9.354,-1.738,41.1039846,16.8792228,False,NONE
2019-10-26 10:38:09.160,LG-H970,1572086289171.2,-2.506,9.721,-0.149,41.1039846,16.8792228,False,NONE
2019-10-26 10:38:09.180,LG-H970,1572086289191.75,-1.672,8.551,1.575,41.1039846,16.8792228,False,NONE
2019-10-26 10:38:09.200,LG-H970,1572086289210.75,-0.361,8.944,0.944,41.1039846,16.8792228,False,NONE
2019-10-26 10:38:09.220,LG-H970,1572086289230.5,-1.034,8.37,1.245,41.1039846,16.8792228,False,NONE
2019-10-26 10:38:09.240,LG-H970,1572086289250.5,0.077,9.937,1.828,41.1039846,16.8792228,False,NONE
2019-10-26 10:38:09.260,LG-H970,1572086289270.75,-0.682,9.918,0.543,41.1039846,16.8792228,False,NONE
2019-10-26 10:38:09.280,LG-H970,1572086289290.0,3.135,11.953,-2.551,41.1039846,16.8792228,False,NONE
2019-10-26 10:38:09.300,LG-H970,1572086289309.5,2.162,5.841,-1.164,41.1039846,16.8792228,False,NONE
2019-10-26 10:38:09.320,LG-H970,1572086289329.5,4.63,8.983,0.89,41.1039846,16.8792228,False,NONE
2019-10-26 10:38:09.340,LG-H970,1572086289350.75,2.783,8.833,-3.683,41.1039846,16.8792228,False,NONE
2019-10-26 10:38:09.360,LG-H970,1572086289369.5,0.34,13.622,0.465,41.1039846,16.8792228,False,NONE
2019-10-26 10:38:09.380,LG-H970,1572086289389.25,-0.035,11.424,-2.007,41.1039846,16.8792228,False,NONE
2019-10-26 10:38:09.400,LG-H970,1572086289409.75,3.087,11.51,0.063,41.1039846,16.8792228,False,NONE
2019-10-26 10:38:09.420,LG-H970,1572086289429.75,3.435,8.935,-2.452,41.1039846,16.8792228,False,NONE
2019-10-26 10:38:09.440,LG-H970,1572086289448.5,1.24,10.282,-2.099,41.1039846,16.8792228,False,NONE
2019-10-26 10:38:09.460,LG-H970,1572086289468.25,-1.489,11.685,-1.884,41.1039846,16.8792228,False,NONE
2019-10-26 10:38:09.480,LG-H970,1572086289487.5,-3.789,11.039,-0.825,41.1039846,16.8792228,False,NONE
2019-10-26 10:38:09.500,LG-H970,1572086289507.5,-1.093,9.275,0.849,41.1039846,16.8792228,False,NONE
2019-10-26 10:38:09.520,LG-H970,1572086289527.75,0.83,8.75,-0.225,41.1039846,16.8792228,False,NONE
2019-10-26 10:38:09.540,LG-H970,1572086289549.8,-3.851,10.04,-2.07,41.1039846,16.8792228,False,NONE
2019-10-26 10:38:09.560,LG-H970,1572086289571.5,-7.388,10.773,-0.978,41.1039846,16.8792228,False,NONE
2019-10-26 10:38:09.580,LG-H970,1572086289591.0,-2.129,9.739,-0.285,41.1039846,16.8792228,False,NONE
2019-10-26 10:38:09.600,LG-H970,1572086289610.75,1.083,9.186,2.735,41.1039846,16.8792228,False,NONE
2019-10-26 10:38:09.620,LG-H970,1572086289630.5,-2.396,10.077,-0.031,41.1039846,16.8792228,False,NONE
2019-10-26 10:38:09.640,LG-H970,1572086289650.5,-5.579,12.043,-4.246,41.1039846,16.8792228,False,NONE
2019-10-26 10:38:09.660,LG-H970,1572086289670.0,-3.173,10.129,-2.995,41.1039846,16.8792228,False,NONE
2019-10-26 10:38:09.680,LG-H970,1572086289690.0,2.794,8.381,0.076,41.1039846,16.8792228,False,NONE
2019-10-26 10:38:09.700,LG-H970,1572086289709.75,1.214,8.934,2.163,41.1039846,16.8792228,False,NONE
2019-10-26 10:38:09.720,LG-H970,1572086289729.25,-3.201,12.152,-2.11,41.1039846,16.8792228,False,NONE
2019-10-26 10:38:09.740,LG-H970,1572086289750.25,-4.083,9.827,-2.5,41.1039846,16.8792228,False,NONE
2019-10-26 10:38:09.760,LG-H970,1572086289769.5,1.474,7.717,-0.444,41.1039846,16.8792228,False,NONE
2019-10-26 10:38:09.780,LG-H970,1572086289788.3333,2.04,4.354,-0.462,41.1039846,16.8792228,False,NONE
2019-10-26 10:38:09.800,LG-H970,1572086289808.75,-1.35,8.3,-0.641,41.1039846,16.8792228,False,NONE
2019-10-26 10:38:09.820,LG-H970,1572086289829.25,-1.801,12.394,-2.984,41.1039846,16.8792228,False,NONE
2019-10-26 10:38:09.840,LG-H970,1572086289849.5,0.753,11.244,0.506,41.1039846,16.8792228,False,NONE
2019-10-26 10:38:09.860,LG-H970,1572086289867.0,3.326,8.195,1.434,41.1039846,16.8792228,False,NONE
2019-10-26 10:38:09.880,LG-H970,1572086289889.0,1.651,10.382,-1.216,41.1039846,16.8792228,False,NONE
2019-10-26 10:38:09.900,LG-H970,1572086289910.5,-1.739,9.921,-2.556,41.1039846,16.8792228,False,NONE
2019-10-26 10:38:09.920,LG-H970,1572086289931.5,0.267,9.663,-2.14,41.1039846,16.8792228,False,NONE
2019-10-26 10:38:09.940,LG-H970,1572086289950.75,2.51,9.405,-0.886,41.1039846,16.8792228,False,NONE
2019-10-26 10:38:09.960,LG-H970,1572086289970.75,0.494,8.633,-2.118,41.1039846,16.8792228,False,NONE
2019-10-26 10:38:09.980,LG-H970,1572086289989.5,-0.877,10.043,-2.235,41.1039846,16.8792228,False,NONE
2019-10-26 10:38:10.000,LG-H970,1572086290009.75,-1.047,10.462,0.126,41.1039846,16.8792228,False,NONE
2019-10-26 10:38:10.020,LG-H970,1572086290029.75,1.608,9.406,-0.504,41.1039846,16.8792228,False,NONE
2019-10-26 10:38:10.040,LG-H970,1572086290048.75,0.919,10.352,-1.652,41.1039846,16.8792228,False,NONE
2019-10-26 10:38:10.060,LG-H970,1572086290069.0,-2.595,9.413,-0.071,41.1039846,16.8792228,False,NONE
2019-10-26 10:38:10.080,LG-H970,1572086290088.75,-0.284,10.179,-0.263,41.1039846,16.8792228,False,NONE
2019-10-26 10:38:10.100,LG-H970,1572086290109.0,-1.736,10.881,-0.505,41.1039846,16.8792228,False,NONE
2019-10-26 10:38:10.120,LG-H970,1572086290128.75,-2.834,11.43,-0.184,41.1039846,16.8792228,False,NONE
2019-10-26 10:38:10.140,LG-H970,1572086290148.5,-0.172,9.598,1.027,41.1039846,16.8792228,False,NONE
2019-10-26 10:38:10.160,LG-H970,1572086290168.25,1.35,12.255,-0.611,41.1039846,16.8792228,False,NONE
2019-10-26 10:38:10.180,LG-H970,1572086290188.0,-3.119,10.581,-0.298,41.1039846,16.8792228,False,NONE
2019-10-26 10:38:10.200,LG-H970,1572086290209.8,-2.485,8.903,-0.579,41.1039846,16.8792228,False,NONE
2019-10-26 10:38:10.220,LG-H970,1572086290231.75,-0.897,7.872,-2.004,41.1039846,16.8792228,False,NONE
2019-10-26 10:38:10.240,LG-H970,1572086290251.25,-2.264,9.038,-0.71,41.1039846,16.8792228,False,NONE
2019-10-26 10:38:10.260,LG-H970,1572086290271.0,-1.152,10.393,-2.426,41.1039846,16.8792228,False,NONE
2019-10-26 10:38:10.280,LG-H970,1572086290296.0,-0.078,9.905,0.212,41.1039846,16.8792228,False,NONE
2019-10-26 10:38:10.300,LG-H970,1572086290310.3333,0.037,9.111,1.763,41.1039846,16.8792228,True,NONE
2019-10-26 10:38:10.320,LG-H970,1572086290330.0,-1.205,9.307,-0.762,41.1039846,16.8792228,True,NONE
2019-10-26 10:38:10.340,LG-H970,1572086290349.25,-2.312,9.077,-1.102,41.1039846,16.8792228,False,NONE
2019-10-26 10:38:10.360,LG-H970,1572086290369.0,-0.569,9.314,-4.791,41.1039846,16.8792228,False,NONE
2019-10-26 10:38:10.380,LG-H970,1572086290390.0,-0.577,8.947,1.086,41.1039846,16.8792228,False,NONE
2019-10-26 10:38:10.400,LG-H970,1572086290410.25,0.947,10.38,-0.243,41.1039846,16.8792228,False,NONE
2019-10-26 10:38:10.420,LG-H970,1572086290429.5,-1.685,9.702,0.303,41.1039846,16.8792228,False,NONE
2019-10-26 10:38:10.440,LG-H970,1572086290450.0,-2.214,9.629,-2.813,41.1039846,16.8792228,False,NONE
2019-10-26 10:38:10.460,LG-H970,1572086290468.25,-0.967,8.182,-2.949,41.1039846,16.8792228,False,NONE
2019-10-26 10:38:10.480,LG-H970,1572086290488.5,-0.02,7.874,1.269,41.1039846,16.8792228,False,NONE
2019-10-26 10:38:10.500,LG-H970,1572086290507.75,-0.341,11.613,-0.191,41.1039846,16.8792228,False,NONE
2019-10-26 10:38:10.520,LG-H970,1572086290527.75,-4.067,14.03,0.701,41.1039846,16.8792228,False,NONE
2019-10-26 10:38:10.540,LG-H970,1572086290549.4,-2.535,11.781,-1.768,41.1039846,16.8792228,False,NONE
2019-10-26 10:38:10.560,LG-H970,1572086290569.0,1.407,8.895,1.551,41.1039846,16.8792228,False,NONE
2019-10-26 10:38:10.580,LG-H970,1572086290587.75,2.276,8.61,-0.958,41.1039846,16.8792228,False,NONE
2019-10-26 10:38:10.600,LG-H970,1572086290609.0,-2.606,11.653,-1.222,41.1039846,16.8792228,False,NONE
2019-10-26 10:38:10.620,LG-H970,1572086290631.5,-1.306,12.315,-1.789,41.1039846,16.8792228,False,NONE
2019-10-26 10:38:10.640,LG-H970,1572086290651.5,1.903,7.824,1.24,41.1039846,16.8792228,False,NONE
2019-10-26 10:38:10.660,LG-H970,1572086290669.0,3.574,8.025,1.742,41.1039846,16.8792228,False,NONE
2019-10-26 10:38:10.680,LG-H970,1572086290688.8,1.598,11.411,-2.922,41.1039846,16.8792228,False,NONE
2019-10-26 10:38:10.700,LG-H970,1572086290710.0,-3.672,11.984,-1.653,41.1039846,16.8792228,False,NONE
2019-10-26 10:38:10.720,LG-H970,1572086290730.25,0.089,9.968,-0.155,41.1039846,16.8792228,False,NONE
2019-10-26 10:38:10.740,LG-H970,1572086290750.25,3.015,4.959,-1.169,41.1039846,16.8792228,False,NONE
2019-10-26 10:38:10.760,LG-H970,1572086290769.75,2.969,9.418,0.756,41.1039846,16.8792228,False,NONE
2019-10-26 10:38:10.780,LG-H970,1572086290789.75,-3.198,10.019,-3.131,41.1039846,16.8792228,False,NONE
2019-10-26 10:38:10.800,LG-H970,1572086290808.75,-1.783,13.291,1.164,41.1039846,16.8792228,False,NONE
2019-10-26 10:38:10.820,LG-H970,1572086290828.5,1.601,10.532,0.069,41.1039846,16.8792228,False,NONE
2019-10-26 10:38:10.840,LG-H970,1572086290849.75,0.707,10.119,2.303,41.1039846,16.8792228,False,NONE
2019-10-26 10:38:10.860,LG-H970,1572086290868.75,-0.377,8.704,-2.833,41.1039846,16.8792228,False,NONE
2019-10-26 10:38:10.880,LG-H970,1572086290888.5,-1.653,8.181,-1.721,41.1039846,16.8792228,False,NONE
2019-10-26 10:38:10.900,LG-H970,1572086290907.75,-0.356,10.37,0.053,41.1039846,16.8792228,False,NONE
2019-10-26 10:38:10.920,LG-H970,1572086290929.4,-0.427,10.529,0.145,41.1039846,16.8792228,False,NONE
2019-10-26 10:38:10.940,LG-H970,1572086290951.5,0.638,10.525,0.803,41.1039846,16.8792228,False,NONE
2019-10-26 10:38:10.960,LG-H970,1572086290971.5,0.443,7.959,-1.337,41.1039846,16.8792228,False,NONE
2019-10-26 10:38:10.980,LG-H970,1572086290990.5,-1.293,9.672,-1.638,41.1039846,16.8792228,False,NONE
2019-10-26 10:38:11.000,LG-H970,1572086291010.5,-1.206,11.974,-3.054,41.1039846,16.8792228,False,NONE
2019-10-26 10:38:11.020,LG-H970,1572086291030.5,-2.31,10.141,0.34,41.1039846,16.8792228,False,NONE
2019-10-26 10:38:11.040,LG-H970,1572086291050.25,-0.17,10.408,-1.555,41.1039846,16.8792228,False,NONE
2019-10-26 10:38:11.060,LG-H970,1572086291070.5,0.562,8.864,0.231,41.1039846,16.8792228,False,NONE
2019-10-26 10:38:11.080,LG-H970,1572086291091.25,-0.295,10.015,-2.538,41.1039846,16.8792228,False,NONE
2019-10-26 10:38:11.100,LG-H970,1572086291109.25,-3.108,10.607,-2.382,41.1039846,16.8792228,False,NONE
2019-10-26 10:38:11.120,LG-H970,1572086291129.5,-0.336,9.711,-1.132,41.1039846,16.8792228,False,NONE
2019-10-26 10:38:11.140,LG-H970,1572086291149.25,2.273,7.281,0.824,41.1039846,16.8792228,False,NONE
2019-10-26 10:38:11.160,LG-H970,1572086291169.0,0.706,8.715,0.959,41.1039846,16.8792228,False,NONE
2019-10-26 10:38:11.180,LG-H970,1572086291188.0,-2.106,10.629,-3.996,41.1039846,16.8792228,False,NONE
2019-10-26 10:38:11.200,LG-H970,1572086291210.75,-1.877,11.688,-1.524,41.1039846,16.8792228,False,NONE
2019-10-26 10:38:11.220,LG-H970,1572086291227.0,1.708,8.048,-0.338,41.1039846,16.8792228,False,NONE
2019-10-26 10:38:11.240,LG-H970,1572086291249.6,2.164,8.386,2.774,41.1039846,16.8792228,False,NONE
2019-10-26 10:38:11.260,LG-H970,1572086291271.5,0.311,11.473,-0.944,41.1039846,16.8792228,False,NONE
2019-10-26 10:38:11.280,LG-H970,1572086291291.5,-1.294,12.866,-1.632,41.1039846,16.8792228,False,NONE
2019-10-26 10:38:11.300,LG-H970,1572086291311.25,-1.997,9.004,-1.553,41.1039846,16.8792228,False,NONE
2019-10-26 10:38:11.320,LG-H970,1572086291329.6667,1.067,8.658,1.914,41.1039846,16.8792228,False,NONE
2019-10-26 10:38:11.340,LG-H970,1572086291346.5,2.358,9.899,0.987,41.1039846,16.8792228,False,NONE
2019-10-26 10:38:11.360,LG-H970,1572086291367.8,-2.167,11.878,-0.803,41.1039846,16.8792228,False,NONE
2019-10-26 10:38:11.380,LG-H970,1572086291390.0,-2.358,10.965,-1.558,41.1039846,16.8792228,False,NONE
2019-10-26 10:38:11.400,LG-H970,1572086291410.25,-0.773,4.828,-2.233,41.1039846,16.8792228,False,NONE
2019-10-26 10:38:11.420,LG-H970,1572086291429.75,1.104,7.503,0.71,41.1039846,16.8792228,False,NONE
2019-10-26 10:38:11.440,LG-H970,1572086291450.0,1.217,13.135,-3.219,41.1039846,16.8792228,False,NONE
2019-10-26 10:38:11.460,LG-H970,1572086291469.75,-2.157,10.339,1.707,41.1039846,16.8792228,False,NONE
2019-10-26 10:38:11.480,LG-H970,1572086291489.5,0.934,8.038,0.361,41.1039846,16.8792228,False,NONE
2019-10-26 10:38:11.500,LG-H970,1572086291509.25,0.949,9.505,-3.598,41.1039846,16.8792228,False,NONE
2019-10-26 10:38:11.520,LG-H970,1572086291528.75,-3.365,9.651,-1.549,41.1039846,16.8792228,False,NONE
2019-10-26 10:38:11.540,LG-H970,1572086291548.25,0.462,10.729,-0.704,41.1039846,16.8792228,False,NONE
2019-10-26 10:38:11.560,LG-H970,1572086291568.0,1.758,10.045,1.292,41.1039846,16.8792228,False,NONE
2019-10-26 10:38:11.580,LG-H970,1572086291589.8,-0.984,12.363,0.234,41.1039846,16.8792228,False,NONE
2019-10-26 10:38:11.600,LG-H970,1572086291612.0,-1.543,11.688,-0.66,41.1039846,16.8792228,False,NONE
2019-10-26 10:38:11.620,LG-H970,1572086291632.0,0.42,7.107,-0.065,41.1039846,16.8792228,False,NONE
2019-10-26 10:38:11.640,LG-H970,1572086291651.75,1.717,8.825,-0.279,41.1039846,16.8792228,False,NONE
2019-10-26 10:38:11.660,LG-H970,1572086291671.25,-1.529,11.236,-1.026,41.1039846,16.8792228,False,NONE
2019-10-26 10:38:11.680,LG-H970,1572086291690.75,-2.446,12.297,0.739,41.1039846,16.8792228,False,NONE
2019-10-26 10:38:11.700,LG-H970,1572086291711.25,0.449,8.78,0.332,41.1039846,16.8792228,False,NONE
2019-10-26 10:38:11.720,LG-H970,1572086291731.25,2.393,8.606,-0.075,41.1039846,16.8792228,False,NONE
2019-10-26 10:38:11.740,LG-H970,1572086291750.5,-0.184,8.701,-2.14,41.1039846,16.8792228,False,NONE
2019-10-26 10:38:11.760,LG-H970,1572086291770.25,-0.374,10.795,-2.154,41.1039846,16.8792228,False,NONE
2019-10-26 10:38:11.780,LG-H970,1572086291789.75,1.626,9.902,0.389,41.1039846,16.8792228,False,NONE
2019-10-26 10:38:11.800,LG-H970,1572086291809.5,1.675,9.114,0.405,41.1039846,16.8792228,False,NONE
2019-10-26 10:38:11.820,LG-H970,1572086291830.5,0.076,11.208,-1.306,41.1039846,16.8792228,False,NONE
2019-10-26 10:38:11.840,LG-H970,1572086291852.0,-0.909,10.265,-1.33,41.1039846,16.8792228,False,NONE
2019-10-26 10:38:11.860,LG-H970,1572086291867.75,1.698,7.557,-2.014,41.1039846,16.8792228,False,NONE
2019-10-26 10:38:11.880,LG-H970,1572086291888.5,0.618,7.868,0.425,41.1039846,16.8792228,False,NONE
2019-10-26 10:38:11.900,LG-H970,1572086291909.0,-2.933,9.47,1.248,41.1039846,16.8792228,False,NONE
2019-10-26 10:38:11.920,LG-H970,1572086291927.0,2.242,13.636,-1.374,41.1039846,16.8792228,False,NONE
2019-10-26 10:38:11.940,LG-H970,1572086291950.2,-0.296,8.479,-0.863,41.1039846,16.8792228,False,NONE
2019-10-26 10:38:11.960,LG-H970,1572086291971.5,1.348,8.06,1.108,41.1039846,16.8792228,False,NONE
2019-10-26 10:38:11.980,LG-H970,1572086291992.0,0.279,6.891,-0.986,41.1039846,16.8792228,False,NONE
2019-10-26 10:38:12.000,LG-H970,1572086292011.5,-1.368,10.441,0.951,41.1039846,16.8792228,False,NONE
2019-10-26 10:38:12.020,LG-H970,1572086292032.0,-1.062,12.163,-2.86,41.1039846,16.8792228,False,NONE
2019-10-26 10:38:12.040,LG-H970,1572086292051.25,-1.425,9.246,1.372,41.1039846,16.8792228,False,NONE
2019-10-26 10:38:12.060,LG-H970,1572086292071.0,1.722,7.157,-0.717,41.1039846,16.8792228,False,NONE
2019-10-26 10:38:12.080,LG-H970,1572086292091.0,0.815,9.575,-1.175,41.1039846,16.8792228,False,NONE
2019-10-26 10:38:12.100,LG-H970,1572086292110.5,-3.127,10.95,-0.956,41.1039846,16.8792228,False,NONE
2019-10-26 10:38:12.120,LG-H970,1572086292130.25,-1.05,12.029,-1.805,41.1039846,16.8792228,False,NONE
2019-10-26 10:38:12.140,LG-H970,1572086292150.25,1.047,9.022,2.204,41.1039846,16.8792228,False,NONE
2019-10-26 10:38:12.160,LG-H970,1572086292170.25,3.174,10.31,-0.487,41.1039846,16.8792228,False,NONE
2019-10-26 10:38:12.180,LG-H970,1572086292190.0,-1.279,10.365,-1.036,41.1039846,16.8792228,False,NONE
2019-10-26 10:38:12.200,LG-H970,1572086292209.0,-0.757,12.256,-1.417,41.1039846,16.8792228,False,NONE
2019-10-26 10:38:12.220,LG-H970,1572086292228.5,1.96,11.407,1.233,41.1039846,16.8792228,False,NONE
2019-10-26 10:38:12.240,LG-H970,1572086292249.5,2.431,9.919,1.957,41.1039846,16.8792228,False,NONE
2019-10-26 10:38:12.260,LG-H970,1572086292268.0,-0.566,10.622,0.069,41.1039846,16.8792228,False,NONE
2019-10-26 10:38:12.280,LG-H970,1572086292287.5,-0.751,11.77,-2.646,41.1039846,16.8792228,False,NONE
2019-10-26 10:38:12.300,LG-H970,1572086292307.75,1.048,9.779,0.08,41.1039846,16.8792228,False,NONE
2019-10-26 10:38:12.320,LG-H970,1572086292330.0,3.132,8.993,0.404,41.1039846,16.8792228,False,NONE
2019-10-26 10:38:12.340,LG-H970,1572086292351.3333,-0.211,9.466,0.735,41.1039846,16.8792228,False,NONE
2019-10-26 10:38:12.360,LG-H970,1572086292369.0,-1.495,12.688,-0.747,41.1039846,16.8792228,False,NONE
2019-10-26 10:38:12.380,LG-H970,1572086292391.5,-0.332,10.54,0.067,41.1039846,16.8792228,False,NONE
2019-10-26 10:38:12.400,LG-H970,1572086292411.0,3.103,9.391,0.282,41.1039846,16.8792228,False,NONE
2019-10-26 10:38:12.420,LG-H970,1572086292430.25,1.87,8.897,-0.314,41.1039846,16.8792228,False,NONE
2019-10-26 10:38:12.440,LG-H970,1572086292450.5,-0.626,10.444,-1.479,41.1039846,16.8792228,False,NONE
2019-10-26 10:38:12.460,LG-H970,1572086292470.25,-0.682,9.918,-1.856,41.1039846,16.8792228,False,NONE
2019-10-26 10:38:12.480,LG-H970,1572086292489.75,0.922,8.956,0.755,41.1039846,16.8792228,False,NONE
2019-10-26 10:38:12.500,LG-H970,1572086292509.75,1.713,8.851,0.257,41.1039846,16.8792228,False,NONE
2019-10-26 10:38:12.520,LG-H970,1572086292529.75,1.748,11.19,0.133,41.1039846,16.8792228,False,NONE
2019-10-26 10:38:12.540,LG-H970,1572086292549.25,0.889,9.273,-0.547,41.1039846,16.8792228,False,NONE
2019-10-26 10:38:12.560,LG-H970,1572086292569.0,0.354,7.733,0.026,41.1039846,16.8792228,False,NONE
2019-10-26 10:38:12.580,LG-H970,1572086292588.25,-1.288,8.799,-2.188,41.1039846,16.8792228,False,NONE
2019-10-26 10:38:12.600,LG-H970,1572086292608.0,-2.015,10.021,-2.189,41.1039846,16.8792228,False,NONE
2019-10-26 10:38:12.620,LG-H970,1572086292627.5,-0.389,10.747,1.272,41.1039846,16.8792228,False,NONE
2019-10-26 10:38:12.640,LG-H970,1572086292648.0,0.146,10.073,1.555,41.1039846,16.8792228,False,NONE
2019-10-26 10:38:12.660,LG-H970,1572086292670.4,-3.804,10.396,-1.803,41.1039846,16.8792228,False,NONE
2019-10-26 10:38:12.680,LG-H970,1572086292691.5,-3.18,10.86,-2.974,41.1039846,16.8792228,False,NONE
2019-10-26 10:38:12.700,LG-H970,1572086292711.5,-0.274,9.007,-0.917,41.1039846,16.8792228,False,NONE
2019-10-26 10:38:12.720,LG-H970,1572086292731.0,-0.572,10.098,1.914,41.1039846,16.8792228,False,NONE
2019-10-26 10:38:12.740,LG-H970,1572086292751.0,-2.698,11.31,-0.992,41.1039846,16.8792228,False,NONE
2019-10-26 10:38:12.760,LG-H970,1572086292770.75,-3.204,10.414,-2.413,41.1039846,16.8792228,False,NONE
2019-10-26 10:38:12.780,LG-H970,1572086292791.0,1.024,8.628,-1.099,41.1039846,16.8792228,False,NONE
2019-10-26 10:38:12.800,LG-H970,1572086292808.5,2.318,5.749,0.386,41.1039846,16.8792228,False,NONE
2019-10-26 10:38:12.820,LG-H970,1572086292829.0,-1.615,9.509,-0.262,41.1039846,16.8792228,False,NONE
2019-10-26 10:38:12.840,LG-H970,1572086292849.0,-5.465,12.95,-2.941,41.1039846,16.8792228,False,NONE
2019-10-26 10:38:12.860,LG-H970,1572086292868.0,-2.811,11.042,0.464,41.1039846,16.8792228,False,NONE
2019-10-26 10:38:12.880,LG-H970,1572086292887.5,3.998,5.217,0.086,41.1039846,16.8792228,False,NONE
2019-10-26 10:38:12.900,LG-H970,1572086292909.25,2.931,5.415,-1.24,41.1039846,16.8792228,False,NONE
2019-10-26 10:38:12.920,LG-H970,1572086292929.0,-1.209,9.974,-2.776,41.1039846,16.8792228,False,NONE
2019-10-26 10:38:12.940,LG-H970,1572086292947.5,-1.994,11.919,-1.383,41.1039846,16.8792228,False,NONE
2019-10-26 10:38:12.960,LG-H970,1572086292967.5,0.837,11.081,3.38,41.1039846,16.8792228,False,NONE
2019-10-26 10:38:12.980,LG-H970,1572086292989.8,3.483,9.441,0.16,41.1039846,16.8792228,False,NONE
2019-10-26 10:38:13.000,LG-H970,1572086293011.5,0.094,9.397,-2.212,41.1039846,16.8792228,False,NONE
2019-10-26 10:38:13.020,LG-H970,1572086293031.5,-1.639,8.859,-2.931,41.1039846,16.8792228,False,NONE
2019-10-26 10:38:13.040,LG-H970,1572086293049.0,0.585,9.789,-0.343,41.1039846,16.8792228,False,NONE
2019-10-26 10:38:13.060,LG-H970,1572086293069.6,1.733,10.446,1.41,41.1039846,16.8792228,False,NONE
2019-10-26 10:38:13.080,LG-H970,1572086293091.25,-0.448,10.709,1.993,41.1039846,16.8792228,False,NONE
2019-10-26 10:38:13.100,LG-H970,1572086293110.75,-0.898,9.613,-1.516,41.1039846,16.8792228,False,NONE
2019-10-26 10:38:13.120,LG-H970,1572086293130.75,-0.818,9.377,-3.878,41.1039846,16.8792228,False,NONE
2019-10-26 10:38:13.140,LG-H970,1572086293150.75,-3.015,8.536,-0.666,41.1039846,16.8792228,False,NONE
2019-10-26 10:38:13.160,LG-H970,1572086293170.0,1.009,11.391,1.946,41.1039846,16.8792228,False,NONE
2019-10-26 10:38:13.180,LG-H970,1572086293190.0,-0.269,10.031,0.798,41.1039846,16.8792228,False,NONE
2019-10-26 10:38:13.200,LG-H970,1572086293209.75,-2.861,12.503,-0.954,41.1039846,16.8792228,False,NONE
2019-10-26 10:38:13.220,LG-H970,1572086293229.5,-3.964,9.947,-2.516,41.1039846,16.8792228,False,NONE
2019-10-26 10:38:13.240,LG-H970,1572086293249.75,1.508,10.179,0.605,41.1039846,16.8792228,False,NONE
2019-10-26 10:38:13.260,LG-H970,1572086293269.75,2.306,9.458,0.449,41.1039846,16.8792228,False,NONE
2019-10-26 10:38:13.280,LG-H970,1572086293287.25,-2.694,10.615,2.129,41.1039846,16.8792228,False,NONE
2019-10-26 10:38:13.300,LG-H970,1572086293307.5,-4.207,11.746,-2.325,41.1039846,16.8792228,False,NONE
