UTC_timestamp,device_name,timestamp,x,y,z,lat,long,event,speed
2019-10-26 10:38:15.540,LG-H970,1572086295551.25,-6.252,12.29,-0.731,41.1039846,16.8792228,False,NONE
2019-10-26 10:38:15.560,LG-H970,1572086295571.0,-3.873,14.069,-0.894,41.1039846,16.8792228,False,NONE
2019-10-26 10:38:15.580,LG-H970,1572086295590.25,1.518,9.242,1.983,41.1039846,16.8792228,False,NONE
2019-10-26 10:38:15.600,LG-H970,1572086295609.75,2.155,6.336,2.326,41.1039846,16.8792228,False,NONE
2019-10-26 10:38:15.620,LG-H970,1572086295630.0,-1.303,9.92,-4.014,41.1039846,16.8792228,False,NONE
2019-10-26 10:38:15.640,LG-H970,1572086295649.0,-5.036,12.482,-5.223,41.1039846,16.8792228,False,NONE
2019-10-26 10:38:15.660,LG-H970,1572086295669.5,-1.005,11.057,2.201,41.1039846,16.8792228,False,NONE
2019-10-26 10:38:15.680,LG-H970,1572086295688.5,4.608,8.704,3.659,41.1039846,16.8792228,False,NONE
2019-10-26 10:38:15.700,LG-H970,1572086295708.5,1.043,11.817,1.661,41.1039846,16.8792228,False,NONE
2019-10-26 10:38:15.720,LG-H970,1572086295729.25,-3.508,13.669,-3.982,41.1039846,16.8792228,False,NONE
2019-10-26 10:38:15.740,LG-H970,1572086295747.0,-1.66,10.545,-0.975,41.1039846,16.8792228,False,NONE
2019-10-26 10:38:15.760,LG-H970,1572086295766.75,4.521,7.71,2.484,41.1039846,16.8792228,False,NONE
2019-10-26 10:38:15.780,LG-H970,1572086295789.4,0.761,10.875,2.172,41.1039846,16.8792228,False,NONE
2019-10-26 10:38:15.800,LG-H970,1572086295811.5,-4.46,13.598,-3.259,41.1039846,16.8792228,False,NONE
2019-10-26 10:38:15.820,LG-H970,1572086295831.5,-0.717,9.976,-2.421,41.1039846,16.8792228,False,NONE
2019-10-26 10:38:15.840,LG-H970,1572086295850.0,3.932,5.244,2.096,41.1039846,16.8792228,False,NONE
2019-10-26 10:38:15.860,LG-H970,1572086295869.6,2.832,8.422,2.27,41.1039846,16.8792228,False,NONE
2019-10-26 10:38:15.880,LG-H970,1572086295889.75,-3.684,13.013,-0.533,41.1039846,16.8792228,False,NONE
2019-10-26 10:38:15.900,LG-H970,1572086295910.5,-1.7,13.199,-2.057,41.1039846,16.8792228,False,NONE
2019-10-26 10:38:15.920,LG-H970,1572086295930.5,-1.175,6.701,0.149,41.1039846,16.8792228,False,NONE
2019-10-26 10:38:15.940,LG-H970,1572086295949.75,2.493,8.226,2.937,41.1039846,16.8792228,False,NONE
2019-10-26 10:38:15.960,LG-H970,1572086295970.25,0.693,5.573,-2.942,41.1039846,16.8792228,False,NONE
2019-10-26 10:38:15.980,LG-H970,1572086295989.5,-2.04,13.279,-0.452,41.1039846,16.8792228,False,NONE
2019-10-26 10:38:16.000,LG-H970,1572086296009.75,-2.822,13.405,-2.27,41.1039846,16.8792228,False,NONE
2019-10-26 10:38:16.020,LG-H970,1572086296029.0,1.04,10.173,4.377,41.1039846,16.8792228,False,NONE
2019-10-26 10:38:16.040,LG-H970,1572086296048.75,2.951,7.707,0.744,41.1039846,16.8792228,False,NONE
2019-10-26 10:38:16.060,LG-H970,1572086296068.5,-2.194,10.113,-3.268,41.1039846,16.8792228,False,NONE
2019-10-26 10:38:16.080,LG-H970,1572086296088.25,-3.662,11.026,-3.234,41.1039846,16.8792228,False,NONE
2019-10-26 10:38:16.100,LG-H970,1572086296106.75,0.961,8.397,-0.975,41.1039846,16.8792228,False,NONE
2019-10-26 10:38:16.120,LG-H970,1572086296129.6,3.375,6.956,2.752,41.1039846,16.8792228,False,NONE
2019-10-26 10:38:16.140,LG-H970,1572086296149.3333,0.666,9.015,-1.079,41.1039846,16.8792228,False,NONE
2019-10-26 10:38:16.160,LG-H970,1572086296169.6,-3.888,11.83,-2.775,41.1039846,16.8792228,False,NONE
2019-10-26 10:38:16.180,LG-H970,1572086296192.0,-3.689,9.996,-3.147,41.1039846,16.8792228,False,NONE
2019-10-26 10:38:16.200,LG-H970,1572086296211.25,1.098,7.103,2.612,41.1039846,16.8792228,False,NONE
2019-10-26 10:38:16.220,LG-H970,1572086296230.75,2.269,9.471,0.858,41.1039846,16.8792228,False,NONE
2019-10-26 10:38:16.240,LG-H970,1572086296251.75,-2.914,12.311,1.035,41.1039846,16.8792228,False,NONE
2019-10-26 10:38:16.260,LG-H970,1572086296269.3333,-3.654,12.499,-1.69,41.1039846,16.8792228,False,NONE
2019-10-26 10:38:16.280,LG-H970,1572086296269.3333,-3.654,12.499,-1.69,41.1039846,16.8792228,False,NONE
2019-10-26 10:38:16.300,LG-H970,1572086296309.5,0.655,8.665,-0.352,41.1039846,16.8792228,False,NONE
2019-10-26 10:38:16.320,LG-H970,1572086296329.75,-1.301,10.325,-0.124,41.1039846,16.8792228,False,NONE
2019-10-26 10:38:16.340,LG-H970,1572086296349.25,-2.614,11.992,1.13,41.1039846,16.8792228,False,NONE
2019-10-26 10:38:16.360,LG-H970,1572086296370.5,-0.554,10.575,1.571,41.1039846,16.8792228,False,NONE
2019-10-26 10:38:16.380,LG-H970,1572086296390.25,0.393,7.896,2.099,41.1039846,16.8792228,False,NONE
2019-10-26 10:38:16.400,LG-H970,1572086296407.75,-0.439,10.35,-1.966,41.1039846,16.8792228,False,NONE
2019-10-26 10:38:16.420,LG-H970,1572086296428.25,-3.793,10.37,0.011,41.1039846,16.8792228,False,NONE
2019-10-26 10:38:16.440,LG-H970,1572086296447.5,1.104,10.969,2.264,41.1039846,16.8792228,False,NONE
2019-10-26 10:38:16.460,LG-H970,1572086296467.75,0.349,8.521,2.217,41.1039846,16.8792228,False,NONE
2019-10-26 10:38:16.480,LG-H970,1572086296488.75,-2.981,10.464,-1.488,41.103979,16.879336,False,NONE
2019-10-26 10:38:16.500,LG-H970,1572086296509.2,-2.665,9.206,-3.412,41.1039623,16.8796758,False,NONE
2019-10-26 10:38:16.520,LG-H970,1572086296532.0,0.676,8.064,0.068,41.1039623,16.8796758,False,NONE
2019-10-26 10:38:16.540,LG-H970,1572086296550.25,1.342,8.381,1.548,41.1039623,16.8796758,False,NONE
2019-10-26 10:38:16.560,LG-H970,1572086296569.6667,-0.146,11.563,1.538,41.1039623,16.8796758,False,NONE
2019-10-26 10:38:16.580,LG-H970,1572086296589.2,-2.218,11.958,-0.065,41.1039623,16.8796758,False,NONE
2019-10-26 10:38:16.600,LG-H970,1572086296608.6667,-0.162,9.618,-0.522,41.1039623,16.8796758,False,NONE
2019-10-26 10:38:16.620,LG-H970,1572086296627.25,3.045,8.342,0.018,41.1039623,16.8796758,False,NONE
2019-10-26 10:38:16.640,LG-H970,1572086296646.75,-0.117,8.724,0.25,41.1039623,16.8796758,False,NONE
2019-10-26 10:38:16.660,LG-H970,1572086296669.4,-3.038,11.705,-1.776,41.1039623,16.8796758,False,NONE
2019-10-26 10:38:16.680,LG-H970,1572086296691.25,1.019,11.512,1.725,41.1039623,16.8796758,False,NONE
2019-10-26 10:38:16.700,LG-H970,1572086296710.0,5.45,9.957,-0.535,41.1039623,16.8796758,False,NONE
2019-10-26 10:38:16.720,LG-H970,1572086296729.4,0.114,8.38,0.185,41.1039623,16.8796758,False,NONE
2019-10-26 10:38:16.740,LG-H970,1572086296751.75,-2.79,10.831,-1.952,41.1039623,16.8796758,False,NONE
2019-10-26 10:38:16.760,LG-H970,1572086296771.0,-0.398,10.748,-0.573,41.1039623,16.8796758,False,NONE
2019-10-26 10:38:16.780,LG-H970,1572086296790.25,0.363,10.276,3.163,41.1039623,16.8796758,False,NONE
2019-10-26 10:38:16.800,LG-H970,1572086296810.5,-0.036,10.954,-0.903,41.1039623,16.8796758,False,NONE
2019-10-26 10:38:16.820,LG-H970,1572086296830.0,-1.283,10.786,-0.052,41.1039623,16.8796758,False,NONE
2019-10-26 10:38:16.840,LG-H970,1572086296850.5,-0.841,8.441,-1.744,41.1039623,16.8796758,False,NONE
2019-10-26 10:38:16.860,LG-H970,1572086296871.4,-1.119,9.525,1.25,41.1039623,16.8796758,False,NONE
2019-10-26 10:38:16.880,LG-H970,1572086296890.0,-0.547,11.443,0.721,41.1039623,16.8796758,False,NONE
2019-10-26 10:38:16.900,LG-H970,1572086296910.4,-1.467,10.654,0.349,41.1039623,16.8796758,False,NONE
2019-10-26 10:38:16.920,LG-H970,1572086296930.6667,-1.325,9.979,0.602,41.1039623,16.8796758,False,NONE
2019-10-26 10:38:16.940,LG-H970,1572086296950.25,-0.989,7.974,-0.915,41.1039623,16.8796758,False,NONE
2019-10-26 10:38:16.960,LG-H970,1572086296969.5,-1.284,9.533,1.274,41.1039623,16.8796758,False,NONE
2019-10-26 10:38:16.980,LG-H970,1572086296989.75,-2.243,11.142,-0.003,41.1039623,16.8796758,False,NONE
2019-10-26 10:38:17.000,LG-H970,1572086297009.25,-1.809,11.047,0.3,41.1039623,16.8796758,False,NONE
2019-10-26 10:38:17.020,LG-H970,1572086297027.25,-0.038,8.466,0.684,41.1039623,16.8796758,False,NONE
2019-10-26 10:38:17.040,LG-H970,1572086297048.25,0.064,6.528,-0.821,41.1039623,16.8796758,False,NONE
2019-10-26 10:38:17.060,LG-H970,1572086297066.3333,-0.853,9.709,-1.499,41.1039623,16.8796758,False,NONE
2019-10-26 10:38:17.080,LG-H970,1572086297088.8,-2.205,11.228,-0.468,41.1039623,16.8796758,False,NONE
2019-10-26 10:38:17.100,LG-H970,1572086297111.25,-0.599,10.988,2.842,41.1039623,16.8796758,False,NONE
2019-10-26 10:38:17.120,LG-H970,1572086297130.5,0.021,10.316,-0.765,41.1039623,16.8796758,False,NONE
2019-10-26 10:38:17.140,LG-H970,1572086297150.5,-1.86,9.321,-0.19,41.1039623,16.8796758,False,NONE
2019-10-26 10:38:17.160,LG-H970,1572086297171.5,0.47,9.356,-1.992,41.1039623,16.8796758,False,NONE
2019-10-26 10:38:17.180,LG-H970,1572086297190.0,0.03,10.685,1.335,41.1039623,16.8796758,False,NONE
2019-10-26 10:38:17.200,LG-H970,1572086297211.25,-0.584,11.896,-0.06,41.1039623,16.8796758,False,NONE
2019-10-26 10:38:17.220,LG-H970,1572086297230.0,-0.921,9.775,-0.452,41.1039623,16.8796758,False,NONE
2019-10-26 10:38:17.240,LG-H970,1572086297249.75,1.505,9.582,-0.742,41.1039623,16.8796758,False,NONE
2019-10-26 10:38:17.260,LG-H970,1572086297269.5,1.389,7.605,-1.397,41.1039623,16.8796758,False,NONE
2019-10-26 10:38:17.280,LG-H970,1572086297289.25,-0.589,9.139,-0.224,41.1039623,16.8796758,False,NONE
2019-10-26 10:38:17.300,LG-H970,1572086297310.25,-1.841,12.351,-0.965,41.1039623,16.8796758,False,NONE
2019-10-26 10:38:17.320,LG-H970,1572086297331.3333,-0.854,11.688,1.202,41.1039623,16.8796758,False,NONE
2019-10-26 10:38:17.340,LG-H970,1572086297347.0,1.076,8.027,0.883,41.1039623,16.8796758,False,NONE
2019-10-26 10:38:17.360,LG-H970,1572086297369.0,1.293,8.53,-1.228,41.1039623,16.8796758,False,NONE
2019-10-26 10:38:17.380,LG-H970,1572086297389.2,-2.528,10.229,-2.165,41.1039623,16.8796758,False,NONE
2019-10-26 10:38:17.400,LG-H970,1572086297408.6667,-2.852,10.616,0.7,41.1039623,16.8796758,False,NONE
2019-10-26 10:38:17.420,LG-H970,1572086297431.75,0.444,9.981,1.961,41.1039623,16.8796758,False,NONE
2019-10-26 10:38:17.440,LG-H970,1572086297450.5,-0.6,9.96,0.297,41.1039623,16.8796758,False,NONE
2019-10-26 10:38:17.460,LG-H970,1572086297470.0,-1.781,11.289,-0.763,41.1039623,16.8796758,False,NONE
2019-10-26 10:38:17.480,LG-H970,1572086297489.5,-1.793,9.815,-1.631,41.1039623,16.8796758,False,NONE
2019-10-26 10:38:17.500,LG-H970,1572086297509.5,-0.149,10.075,1.593,41.1039623,16.8796758,False,NONE
2019-10-26 10:38:17.520,LG-H970,1572086297529.25,1.322,9.01,0.384,41.1039623,16.8796758,False,NONE
2019-10-26 10:38:17.540,LG-H970,1572086297549.75,0.934,9.919,1.26,41.1039623,16.8796758,False,NONE
2019-10-26 10:38:17.560,LG-H970,1572086297570.0,-1.383,9.113,-0.815,41.1039623,16.8796758,False,NONE
2019-10-26 10:38:17.580,LG-H970,1572086297590.0,-2.129,9.805,-1.672,41.1039623,16.8796758,False,NONE
2019-10-26 10:38:17.600,LG-H970,1572086297609.3333,-1.349,10.644,-0.881,41.1039623,16.8796758,False,NONE
2019-10-26 10:38:17.620,LG-H970,1572086297627.6,0.317,9.787,2.106,41.1039623,16.8796758,False,NONE
2019-10-26 10:38:17.640,LG-H970,1572086297648.75,0.893,9.055,1.507,41.1039623,16.8796758,False,NONE
2019-10-26 10:38:17.660,LG-H970,1572086297669.0,-0.914,9.862,-0.834,41.1039623,16.8796758,False,NONE
2019-10-26 10:38:17.680,LG-H970,1572086297688.5,-2.932,10.649,-1.901,41.1039623,16.8796758,False,NONE
2019-10-26 10:38:17.700,LG-H970,1572086297708.25,-2.064,10.544,0.295,41.1039623,16.8796758,False,NONE
2019-10-26 10:38:17.720,LG-H970,1572086297728.25,0.885,9.363,0.923,41.1039623,16.8796758,False,NONE
2019-10-26 10:38:17.740,LG-H970,1572086297747.5,0.771,10.007,1.066,41.1039623,16.8796758,False,NONE
2019-10-26 10:38:17.760,LG-H970,1572086297767.75,-2.31,10.725,-1.279,41.1039623,16.8796758,False,NONE
2019-10-26 10:38:17.780,LG-H970,1572086297787.5,-2.243,10.184,-0.82,41.1039623,16.8796758,False,NONE
2019-10-26 10:38:17.800,LG-H970,1572086297807.5,0.256,9.145,0.245,41.1039623,16.8796758,False,NONE
2019-10-26 10:38:17.820,LG-H970,1572086297829.4,-0.26,11.274,-0.24,41.1039623,16.8796758,False,NONE
2019-10-26 10:38:17.840,LG-H970,1572086297851.0,-0.014,11.14,-0.922,41.1039623,16.8796758,False,NONE
2019-10-26 10:38:17.860,LG-H970,1572086297868.6,2.534,6.775,-0.922,41.1039623,16.8796758,False,NONE
2019-10-26 10:38:17.880,LG-H970,1572086297890.0,2.622,8.474,-0.581,41.1039623,16.8796758,False,NONE
2019-10-26 10:38:17.900,LG-H970,1572086297910.0,-2.606,11.163,-2.15,41.1039623,16.8796758,False,NONE
2019-10-26 10:38:17.920,LG-H970,1572086297930.0,-4.463,13.381,-0.222,41.1039623,16.8796758,False,NONE
2019-10-26 10:38:17.940,LG-H970,1572086297950.5,-0.444,10.933,1.537,41.1039623,16.8796758,False,NONE
2019-10-26 10:38:17.960,LG-H970,1572086297969.5,3.102,8.974,2.296,41.1039623,16.8796758,False,NONE
2019-10-26 10:38:17.980,LG-H970,1572086297989.75,-0.277,7.996,-1.896,41.1039623,16.8796758,False,NONE
2019-10-26 10:38:18.000,LG-H970,1572086298009.75,-3.805,11.398,-3.016,41.1039623,16.8796758,False,NONE
2019-10-26 10:38:18.020,LG-H970,1572086298029.5,-2.427,11.592,-1.497,41.1039623,16.8796758,False,NONE
2019-10-26 10:38:18.040,LG-H970,1572086298048.75,0.863,9.766,4.4,41.1039623,16.8796758,False,NONE
2019-10-26 10:38:18.060,LG-H970,1572086298068.5,2.275,10.368,1.95,41.1039623,16.8796758,False,NONE
2019-10-26 10:38:18.080,LG-H970,1572086298089.25,-2.67,9.928,-2.309,41.1039623,16.8796758,False,NONE
2019-10-26 10:38:18.100,LG-H970,1572086298108.75,-3.421,8.85,-3.276,41.1039623,16.8796758,False,NONE
2019-10-26 10:38:18.120,LG-H970,1572086298127.5,-0.272,8.615,-0.625,41.1039623,16.8796758,False,NONE
2019-10-26 10:38:18.140,LG-H970,1572086298147.75,1.57,9.954,1.309,41.1039623,16.8796758,False,NONE
2019-10-26 10:38:18.160,LG-H970,1572086298167.25,-0.44,11.127,1.758,41.1039623,16.8796758,False,NONE
2019-10-26 10:38:18.180,LG-H970,1572086298187.25,-1.702,10.715,0.109,41.1039623,16.8796758,False,NONE
2019-10-26 10:38:18.200,LG-H970,1572086298210.2,-0.234,8.738,-1.787,41.1039623,16.8796758,False,NONE
2019-10-26 10:38:18.220,LG-H970,1572086298231.5,-0.327,7.944,-0.779,41.1039623,16.8796758,False,NONE
2019-10-26 10:38:18.240,LG-H970,1572086298251.25,-0.399,9.803,-1.092,41.1039623,16.8796758,False,NONE
2019-10-26 10:38:18.260,LG-H970,1572086298270.75,-0.827,11.09,1.194,41.1039623,16.8796758,False,NONE
2019-10-26 10:38:18.280,LG-H970,1572086298290.75,-0.022,10.659,-0.067,41.1039623,16.8796758,False,NONE
2019-10-26 10:38:18.300,LG-H970,1572086298309.5,-0.138,8.992,-0.627,41.1039623,16.8796758,False,NONE
2019-10-26 10:38:18.320,LG-H970,1572086298329.25,-0.842,7.9,-2.766,41.1039623,16.8796758,False,NONE
2019-10-26 10:38:18.340,LG-H970,1572086298350.0,-1.3,9.593,-2.344,41.1039623,16.8796758,False,NONE
2019-10-26 10:38:18.360,LG-H970,1572086298370.0,-0.193,10.039,1.143,41.1039623,16.8796758,False,NONE
2019-10-26 10:38:18.380,LG-H970,1572086298389.75,2.453,9.515,3.739,41.1039623,16.8796758,False,NONE
2019-10-26 10:38:18.400,LG-H970,1572086298408.25,0.294,9.758,0.626,41.1039623,16.8796758,False,NONE
2019-10-26 10:38:18.420,LG-H970,1572086298428.75,-3.075,11.227,-4.109,41.1039623,16.8796758,False,NONE
2019-10-26 10:38:18.440,LG-H970,1572086298448.5,-2.731,9.614,-2.408,41.1039623,16.8796758,False,NONE
2019-10-26 10:38:18.460,LG-H970,1572086298468.75,2.355,7.774,0.92,41.1039623,16.8796758,False,NONE
2019-10-26 10:38:18.480,LG-H970,1572086298488.5,1.444,9.948,0.207,41.1039623,16.8796758,False,NONE
2019-10-26 10:38:18.500,LG-H970,1572086298506.75,-3.028,12.177,1.053,41.1039623,16.8796758,False,NONE
2019-10-26 10:38:18.520,LG-H970,1572086298527.0,-0.678,10.127,-1.606,41.1039623,16.8796758,False,NONE
2019-10-26 10:38:18.540,LG-H970,1572086298549.4,0.057,7.44,-1.293,41.1039623,16.8796758,False,NONE
2019-10-26 10:38:18.560,LG-H970,1572086298569.3333,-0.334,8.896,-1.798,41.1039623,16.8796758,False,NONE
2019-10-26 10:38:18.580,LG-H970,1572086298589.8,-1.048,9.889,0.55,41.1039623,16.8796758,False,NONE
2019-10-26 10:38:18.600,LG-H970,1572086298611.25,-2.187,12.143,1.156,41.1039623,16.8796758,False,NONE
2019-10-26 10:38:18.620,LG-H970,1572086298629.0,-2.46,12.125,2.246,41.1039623,16.8796758,False,NONE
2019-10-26 10:38:18.640,LG-H970,1572086298650.0,-1.716,10.188,0.284,41.1039623,16.8796758,False,NONE
2019-10-26 10:38:18.660,LG-H970,1572086298669.5,-2.631,10.683,-0.596,41.1039623,16.8796758,False,NONE
2019-10-26 10:38:18.680,LG-H970,1572086298689.0,-1.194,10.645,-1.478,41.1039623,16.8796758,False,NONE
2019-10-26 10:38:18.700,LG-H970,1572086298709.25,-0.078,10.381,1.434,41.1039623,16.8796758,False,NONE
2019-10-26 10:38:18.720,LG-H970,1572086298729.0,-1.535,10.696,1.897,41.1039623,16.8796758,False,NONE
2019-10-26 10:38:18.740,LG-H970,1572086298749.5,-2.26,11.012,0.266,41.1039623,16.8796758,False,NONE
2019-10-26 10:38:18.760,LG-H970,1572086298769.5,-1.036,9.809,-1.691,41.1039623,16.8796758,False,NONE
2019-10-26 10:38:18.780,LG-H970,1572086298789.25,0.335,8.431,-0.531,41.1039623,16.8796758,False,NONE
2019-10-26 10:38:18.800,LG-H970,1572086298809.5,-0.12,8.154,-0.112,41.1039623,16.8796758,False,NONE
2019-10-26 10:38:18.820,LG-H970,1572086298829.25,-0.881,11.027,0.9,41.1039623,16.8796758,False,NONE
2019-10-26 10:38:18.840,LG-H970,1572086298848.25,-1.407,11.028,0.171,41.1039623,16.8796758,False,NONE
2019-10-26 10:38:18.860,LG-H970,1572086298871.4,0.607,9.481,0.101,41.1039623,16.8796758,False,NONE
2019-10-26 10:38:18.880,LG-H970,1572086298889.0,0.657,8.386,-0.804,41.1039623,16.8796758,False,NONE
2019-10-26 10:38:18.900,LG-H970,1572086298911.75,0.173,9.492,-0.475,41.1039623,16.8796758,False,NONE
2019-10-26 10:38:18.920,LG-H970,1572086298931.25,-0.573,9.793,0.264,41.1039623,16.8796758,False,NONE
2019-10-26 10:38:18.940,LG-H970,1572086298951.5,0.001,10.41,1.072,41.1039623,16.8796758,False,NONE
2019-10-26 10:38:18.960,LG-H970,1572086298971.75,1.031,10.011,0.178,41.1039623,16.8796758,False,NONE
2019-10-26 10:38:18.980,LG-H970,1572086298990.5,0.427,8.732,-0.298,41.1039623,16.8796758,False,NONE
2019-10-26 10:38:19.000,LG-H970,1572086299011.0,0.416,9.361,-1.436,41.1039623,16.8796758,False,NONE
2019-10-26 10:38:19.020,LG-H970,1572086299030.25,-0.321,10.059,-0.197,41.1039623,16.8796758,False,NONE
2019-10-26 10:38:19.040,LG-H970,1572086299050.25,0.607,10.481,0.788,41.1039623,16.8796758,False,NONE
2019-10-26 10:38:19.060,LG-H970,1572086299070.75,1.381,9.312,0.272,41.1039623,16.8796758,False,NONE
2019-10-26 10:38:19.080,LG-H970,1572086299090.25,1.763,8.894,0.082,41.1039623,16.8796758,False,NONE
2019-10-26 10:38:19.100,LG-H970,1572086299110.5,0.515,8.983,-0.73,41.1039623,16.8796758,False,NONE
2019-10-26 10:38:19.120,LG-H970,1572086299129.25,0.027,10.025,-0.711,41.1039623,16.8796758,False,NONE
2019-10-26 10:38:19.140,LG-H970,1572086299149.75,0.85,9.013,-0.854,41.1039623,16.8796758,False,NONE
2019-10-26 10:38:19.160,LG-H970,1572086299168.5,1.047,8.893,-0.233,41.1039623,16.8796758,False,NONE
2019-10-26 10:38:19.180,LG-H970,1572086299188.75,-0.298,9.842,-0.753,41.1039623,16.8796758,False,NONE
2019-10-26 10:38:19.200,LG-H970,1572086299208.75,-1.81,9.682,-1.02,41.1039623,16.8796758,False,NONE
2019-10-26 10:38:19.220,LG-H970,1572086299228.25,-0.379,9.366,-0.317,41.1039623,16.8796758,False,NONE
2019-10-26 10:38:19.240,LG-H970,1572086299248.25,-0.7,9.548,0.81,41.1039623,16.8796758,False,NONE
2019-10-26 10:38:19.260,LG-H970,1572086299268.25,-1.92,11.246,0.57,41.1039623,16.8796758,False,NONE
2019-10-26 10:38:19.280,LG-H970,1572086299287.5,-2.497,10.759,-0.985,41.1039623,16.8796758,False,NONE
2019-10-26 10:38:19.300,LG-H970,1572086299307.5,-0.746,10.122,0.346,41.1039623,16.8796758,False,NONE
2019-10-26 10:38:19.320,LG-H970,1572086299329.6,-1.176,9.272,0.856,41.1039623,16.8796758,False,NONE
2019-10-26 10:38:19.340,LG-H970,1572086299352.25,-2.927,11.657,0.127,41.1039623,16.8796758,False,NONE
2019-10-26 10:38:19.360,LG-H970,1572086299372.5,-2.649,10.9,-1.652,41.1039623,16.8796758,False,NONE
2019-10-26 10:38:19.380,LG-H970,1572086299390.25,0.18,10.189,0.716,41.1039623,16.8796758,False,NONE
2019-10-26 10:38:19.400,LG-H970,1572086299410.25,-0.026,7.984,0.778,41.1039623,16.8796758,False,NONE
2019-10-26 10:38:19.420,LG-H970,1572086299430.25,-0.892,10.902,1.046,41.1039623,16.8796758,False,NONE
2019-10-26 10:38:19.440,LG-H970,1572086299450.25,-2.882,11.39,-1.671,41.1039623,16.8796758,False,NONE
2019-10-26 10:38:19.460,LG-H970,1572086299470.0,-2.383,11.501,0.38,41.1039623,16.8796758,False,NONE
2019-10-26 10:38:19.480,LG-H970,1572086299489.75,0.261,7.729,0.802,41.1039623,16.8796758,False,NONE
2019-10-26 10:38:19.500,LG-H970,1572086299509.25,1.84,8.661,1.227,41.1039623,16.8796758,False,NONE
2019-10-26 10:38:19.520,LG-H970,1572086299528.5,-1.496,10.078,-1.96,41.1039623,16.8796758,False,NONE
2019-10-26 10:38:19.540,LG-H970,1572086299549.0,-2.602,11.512,-1.072,41.1039623,16.8796758,False,NONE
2019-10-26 10:38:19.560,LG-H970,1572086299568.75,-0.539,8.874,0.78,41.1039623,16.8796758,False,NONE
2019-10-26 10:38:19.580,LG-H970,1572086299588.75,1.999,9.265,1.558,41.1039623,16.8796758,False,NONE
2019-10-26 10:38:19.600,LG-H970,1572086299608.75,-0.993,9.859,-0.259,41.1039623,16.8796758,False,NONE
2019-10-26 10:38:19.620,LG-H970,1572086299628.5,-1.277,11.916,-0.791,41.1039623,16.8796758,False,NONE
2019-10-26 10:38:19.640,LG-H970,1572086299648.0,-0.132,9.454,0.009,41.1039623,16.8796758,False,NONE
2019-10-26 10:38:19.660,LG-H970,1572086299667.75,1.684,9.636,1.725,41.1039623,16.8796758,False,NONE
2019-10-26 10:38:19.680,LG-H970,1572086299689.3333,0.488,10.236,-0.832,41.1039623,16.8796758,False,NONE
2019-10-26 10:38:19.700,LG-H970,1572086299707.0,0.488,10.534,0.456,41.1039623,16.8796758,False,NONE
2019-10-26 10:38:19.720,LG-H970,1572086299729.2,2.456,8.786,-0.044,41.1039623,16.8796758,False,NONE
2019-10-26 10:38:19.740,LG-H970,1572086299750.75,0.676,10.065,-0.059,41.1039623,16.8796758,False,NONE
2019-10-26 10:38:19.760,LG-H970,1572086299770.75,-0.785,10.437,-1.038,41.1039623,16.8796758,False,NONE
2019-10-26 10:38:19.780,LG-H970,1572086299790.75,1.029,9.011,-0.259,41.1039623,16.8796758,False,NONE
2019-10-26 10:38:19.800,LG-H970,1572086299810.5,2.973,8.674,0.849,41.1039623,16.8796758,False,NONE
2019-10-26 10:38:19.820,LG-H970,1572086299830.0,0.162,8.819,-1.847,41.1039623,16.8796758,False,NONE
2019-10-26 10:38:19.840,LG-H970,1572086299850.25,-1.623,10.835,-0.903,41.1039623,16.8796758,False,NONE
2019-10-26 10:38:19.860,LG-H970,1572086299870.25,0.461,9.024,-0.9,41.1039623,16.8796758,False,NONE
2019-10-26 10:38:19.880,LG-H970,1572086299888.5,1.04,9.316,1.114,41.1039623,16.8796758,False,NONE
2019-10-26 10:38:19.900,LG-H970,1572086299911.3333,-1.215,9.665,-1.333,41.1039623,16.8796758,False,NONE
2019-10-26 10:38:19.920,LG-H970,1572086299927.25,-1.613,10.507,-0.85,41.1039623,16.8796758,False,NONE
2019-10-26 10:38:19.940,LG-H970,1572086299949.0,0.639,8.614,-0.759,41.1039623,16.8796758,False,NONE
2019-10-26 10:38:19.960,LG-H970,1572086299969.25,2.594,7.202,-0.161,41.1039623,16.8796758,False,NONE
2019-10-26 10:38:19.980,LG-H970,1572086299990.4,1.659,6.751,-0.962,41.1039623,16.8796758,False,NONE
2019-10-26 10:38:20.000,LG-H970,1572086300010.0,0.548,7.109,-1.941,41.1039623,16.8796758,False,NONE
2019-10-26 10:38:20.020,LG-H970,1572086300027.25,-0.235,10.248,-0.689,41.1039623,16.8796758,False,NONE
2019-10-26 10:38:20.040,LG-H970,1572086300047.5,-1.533,10.079,0.743,41.1039623,16.8796758,False,NONE
2019-10-26 10:38:20.060,LG-H970,1572086300067.5,-0.837,10.501,2.323,41.1039623,16.8796758,False,NONE
2019-10-26 10:38:20.080,LG-H970,1572086300089.8,-0.313,10.2,0.431,41.1039623,16.8796758,False,NONE
2019-10-26 10:38:20.100,LG-H970,1572086300111.5,-3.875,11.298,0.774,41.1039623,16.8796758,False,NONE
2019-10-26 10:38:20.120,LG-H970,1572086300131.5,-2.275,12.9,0.692,41.1039623,16.8796758,False,NONE
2019-10-26 10:38:20.140,LG-H970,1572086300150.75,-2.063,11.616,3.027,41.1039623,16.8796758,False,NONE
2019-10-26 10:38:20.160,LG-H970,1572086300170.5,-4.093,14.282,1.355,41.1039623,16.8796758,False,NONE
2019-10-26 10:38:20.180,LG-H970,1572086300190.25,-5.88,15.113,0.971,41.1039623,16.8796758,False,NONE
2019-10-26 10:38:20.200,LG-H970,1572086300209.5,-1.653,15.038,1.818,41.1039623,16.8796758,False,NONE
2019-10-26 10:38:20.220,LG-H970,1572086300230.5,-2.892,12.605,1.306,41.1039623,16.8796758,False,NONE
2019-10-26 10:38:20.240,LG-H970,1572086300250.25,-2.427,13.168,-0.379,41.1039623,16.8796758,False,NONE
2019-10-26 10:38:20.260,LG-H970,1572086300269.25,0.107,9.128,-0.599,41.1039623,16.8796758,False,NONE
2019-10-26 10:38:20.280,LG-H970,1572086300288.75,2.66,9.137,0.647,41.1039623,16.8796758,False,NONE
2019-10-26 10:38:20.300,LG-H970,1572086300308.0,0.259,8.334,-1.874,41.1039623,16.8796758,False,NONE
2019-10-26 10:38:20.320,LG-H970,1572086300327.5,-0.825,10.404,-0.263,41.1039623,16.8796758,False,NONE
2019-10-26 10:38:20.340,LG-H970,1572086300346.0,0.044,9.334,-0.589,41.1039623,16.8796758,False,NONE
2019-10-26 10:38:20.360,LG-H970,1572086300370.6667,2.212,8.176,0.977,41.1039623,16.8796758,False,NONE
2019-10-26 10:38:20.380,LG-H970,1572086300389.4,3.267,6.865,-1.763,41.1039623,16.8796758,False,NONE
2019-10-26 10:38:20.400,LG-H970,1572086300409.0,2.284,7.984,-0.724,41.1039623,16.8796758,False,NONE
2019-10-26 10:38:20.420,LG-H970,1572086300428.8,2.161,7.959,-0.647,41.1039623,16.8796758,False,NONE
2019-10-26 10:38:20.440,LG-H970,1572086300451.75,3.762,9.198,1.112,41.1039623,16.8796758,False,NONE
2019-10-26 10:38:20.460,LG-H970,1572086300468.6667,2.843,8.405,1.04,41.1039623,16.8796758,False,NONE
2019-10-26 10:38:20.480,LG-H970,1572086300491.0,2.259,9.16,-1.418,41.1039623,16.8796758,False,NONE
2019-10-26 10:38:20.500,LG-H970,1572086300510.0,0.178,7.422,-0.583,41.1039623,16.8796758,False,NONE
2019-10-26 10:38:20.520,LG-H970,1572086300530.25,2.326,8.011,-0.322,41.1039623,16.8796758,False,NONE
2019-10-26 10:38:20.540,LG-H970,1572086300550.25,0.954,8.61,0.006,41.1039623,16.8796758,True,NONE
2019-10-26 10:38:20.560,LG-H970,1572086300569.75,-0.251,11.219,0.327,41.1039623,16.8796758,True,NONE
2019-10-26 10:38:20.580,LG-H970,1572086300589.25,0.721,9.904,-0.599,41.1039623,16.8796758,False,NONE
2019-10-26 10:38:20.600,LG-H970,1572086300608.5,3.307,8.637,2.037,41.1039623,16.8796758,False,NONE
2019-10-26 10:38:20.620,LG-H970,1572086300628.5,3.528,7.307,2.029,41.1039623,16.8796758,False,NONE
2019-10-26 10:38:20.640,LG-H970,1572086300649.75,0.432,10.766,0.312,41.1039623,16.8796758,False,NONE
2019-10-26 10:38:20.660,LG-H970,1572086300670.0,-2.146,12.611,-1.934,41.1039623,16.8796758,False,NONE
2019-10-26 10:38:20.680,LG-H970,1572086300689.5,-1.484,8.539,-1.446,41.1039623,16.8796758,False,NONE
2019-10-26 10:38:20.700,LG-H970,1572086300708.25,1.152,6.575,2.155,41.1039623,16.8796758,False,NONE
2019-10-26 10:38:20.720,LG-H970,1572086300728.0,-0.449,10.131,-0.092,41.1039623,16.8796758,False,NONE
2019-10-26 10:38:20.740,LG-H970,1572086300748.5,-8.461,13.105,-3.949,41.1039623,16.8796758,False,NONE
2019-10-26 10:38:20.760,LG-H970,1572086300770.6,-6.938,12.94,-2.641,41.1039623,16.8796758,False,NONE
2019-10-26 10:38:20.780,LG-H970,1572086300790.0,3.116,9.409,1.226,41.1039623,16.8796758,False,NONE
2019-10-26 10:38:20.800,LG-H970,1572086300808.0,1.06,4.575,1.874,41.1039623,16.8796758,False,NONE
2019-10-26 10:38:20.820,LG-H970,1572086300830.2,-5.743,13.069,-3.565,41.1039623,16.8796758,False,NONE
2019-10-26 10:38:20.840,LG-H970,1572086300848.3333,-7.354,16.051,-3.552,41.1039623,16.8796758,False,NONE
2019-10-26 10:38:20.860,LG-H970,1572086300869.4,-0.216,11.244,1.958,41.1039623,16.8796758,False,NONE
2019-10-26 10:38:20.880,LG-H970,1572086300890.25,5.877,6.232,3.635,41.1039623,16.8796758,False,NONE
2019-10-26 10:38:20.900,LG-H970,1572086300910.5,0.624,9.922,-1.293,41.1039623,16.8796758,False,NONE
2019-10-26 10:38:20.920,LG-H970,1572086300930.25,-5.057,11.956,-4.631,41.1039623,16.8796758,False,NONE
2019-10-26 10:38:20.940,LG-H970,1572086300950.25,0.268,13.206,1.545,41.1039623,16.8796758,False,NONE
2019-10-26 10:38:20.960,LG-H970,1572086300971.5,5.944,8.709,5.87,41.1039623,16.8796758,False,NONE
2019-10-26 10:38:20.980,LG-H970,1572086300990.25,2.772,11.245,3.828,41.1039623,16.8796758,False,NONE
2019-10-26 10:38:21.000,LG-H970,1572086301009.75,-2.885,11.88,-3.948,41.1039623,16.8796758,False,NONE
2019-10-26 10:38:21.020,LG-H970,1572086301029.5,0.424,10.121,-1.35,41.1039623,16.8796758,False,NONE
2019-10-26 10:38:21.040,LG-H970,1572086301049.0,5.627,5.752,2.308,41.1039623,16.8796758,False,NONE
2019-10-26 10:38:21.060,LG-H970,1572086301069.25,4.086,9.169,3.072,41.1039623,16.8796758,False,NONE
2019-10-26 10:38:21.080,LG-H970,1572086301088.75,-2.083,12.456,-1.031,41.1039623,16.8796758,False,NONE
2019-10-26 10:38:21.100,LG-H970,1572086301109.0,-2.302,12.215,-0.924,41.1039623,16.8796758,False,NONE
2019-10-26 10:38:21.120,LG-H970,1572086301127.75,2.729,7.695,0.7,41.1039623,16.8796758,False,NONE
2019-10-26 10:38:21.140,LG-H970,1572086301147.75,3.598,6.348,1.045,41.1039623,16.8796758,False,NONE
2019-10-26 10:38:21.160,LG-H970,1572086301168.0,-0.672,10.799,-0.281,41.1039623,16.8796758,False,NONE
2019-10-26 10:38:21.180,LG-H970,1572086301187.25,-3.243,12.581,-2.075,41.1039623,16.8796758,False,NONE
2019-10-26 10:38:21.200,LG-H970,1572086301209.6,1.315,10.511,1.175,41.1039623,16.8796758,False,NONE
2019-10-26 10:38:21.220,LG-H970,1572086301232.25,3.13,6.849,0.971,41.1039623,16.8796758,False,NONE
2019-10-26 10:38:21.240,LG-H970,1572086301251.25,0.285,10.107,-0.898,41.1039623,16.8796758,False,NONE
2019-10-26 10:38:21.260,LG-H970,1572086301271.25,-3.108,10.27,-4.3,41.1039623,16.8796758,False,NONE
2019-10-26 10:38:21.280,LG-H970,1572086301291.0,0.173,11.006,0.269,41.1039623,16.8796758,False,NONE
2019-10-26 10:38:21.300,LG-H970,1572086301310.75,2.748,7.361,0.234,41.1039623,16.8796758,False,NONE
2019-10-26 10:38:21.320,LG-H970,1572086301330.75,0.915,9.636,2.375,41.1039623,16.8796758,False,NONE
2019-10-26 10:38:21.340,LG-H970,1572086301349.5,-1.273,11.268,-3.277,41.1039623,16.8796758,False,NONE
2019-10-26 10:38:21.360,LG-H970,1572086301368.3333,-3.164,10.593,-3.291,41.1039623,16.8796758,False,NONE
2019-10-26 10:38:21.380,LG-H970,1572086301389.5,0.595,8.241,0.482,41.1039623,16.8796758,False,NONE
2019-10-26 10:38:21.400,LG-H970,1572086301409.0,3.822,7.495,1.806,41.1039623,16.8796758,False,NONE
2019-10-26 10:38:21.420,LG-H970,1572086301429.0,0.979,10.446,0.649,41.1039623,16.8796758,False,NONE
2019-10-26 10:38:21.440,LG-H970,1572086301448.25,-2.832,12.098,-1.743,41.1039623,16.8796758,False,NONE
2019-10-26 10:38:21.460,LG-H970,1572086301468.0,-1.511,10.788,0.729,41.1039623,16.8796758,False,NONE
2019-10-26 10:38:21.480,LG-H970,1572086301488.5,1.618,8.158,1.664,41.1039623,16.8796758,False,NONE
2019-10-26 10:38:21.500,LG-H970,1572086301508.0,2.186,9.685,0.734,41.1039623,16.8796758,False,NONE
2019-10-26 10:38:21.520,LG-H970,1572086301529.8,0.341,11.186,-0.118,41.1039623,16.8796758,False,NONE
2019-10-26 10:38:21.540,LG-H970,1572086301550.0,0.469,10.416,0.708,41.1039623,16.8796758,False,NONE
2019-10-26 10:38:21.560,LG-H970,1572086301568.8,1.976,9.685,1.759,41.1039623,16.8796758,False,NONE
2019-10-26 10:38:21.580,LG-H970,1572086301592.25,3.733,8.759,0.97,41.1039623,16.8796758,False,NONE
2019-10-26 10:38:21.600,LG-H970,1572086301611.5,2.632,8.805,-0.904,41.1039623,16.8796758,False,NONE
2019-10-26 10:38:21.620,LG-H970,1572086301631.75,1.796,9.445,-0.453,41.1039623,16.8796758,False,NONE
2019-10-26 10:38:21.640,LG-H970,1572086301651.5,3.621,9.266,0.614,41.1039623,16.8796758,False,NONE
2019-10-26 10:38:21.660,LG-H970,1572086301670.75,2.975,8.583,1.364,41.1039623,16.8796758,False,NONE
2019-10-26 10:38:21.680,LG-H970,1572086301690.5,2.181,10.092,0.48,41.1039623,16.8796758,False,NONE
2019-10-26 10:38:21.700,LG-H970,1572086301709.5,1.726,9.795,-0.626,41.1039623,16.8796758,False,NONE
2019-10-26 10:38:21.720,LG-H970,1572086301729.25,2.706,9.069,0.456,41.1039623,16.8796758,False,NONE
2019-10-26 10:38:21.740,LG-H970,1572086301749.25,2.612,8.292,0.399,41.1039623,16.8796758,False,NONE
2019-10-26 10:38:21.760,LG-H970,1572086301769.5,0.991,10.038,0.965,41.1039623,16.8796758,False,NONE
2019-10-26 10:38:21.780,LG-H970,1572086301789.5,0.341,11.072,-0.218,41.1039623,16.8796758,False,NONE
2019-10-26 10:38:21.800,LG-H970,1572086301809.25,1.314,10.231,0.99,41.1039623,16.8796758,False,NONE
2019-10-26 10:38:21.820,LG-H970,1572086301829.25,2.644,9.188,1.259,41.1039623,16.8796758,False,NONE
2019-10-26 10:38:21.840,LG-H970,1572086301849.5,1.032,8.606,-0.112,41.1039623,16.8796758,False,NONE
2019-10-26 10:38:21.860,LG-H970,1572086301869.5,0.988,9.438,-1.659,41.1039623,16.8796758,False,NONE
2019-10-26 10:38:21.880,LG-H970,1572086301887.75,2.544,7.014,-0.607,41.1039623,16.8796758,False,NONE
2019-10-26 10:38:21.900,LG-H970,1572086301909.0,1.239,6.93,1.62,41.1039623,16.8796758,False,NONE
2019-10-26 10:38:21.920,LG-H970,1572086301931.0,0.446,14.921,1.909,41.1039623,16.8796758,False,NONE
2019-10-26 10:38:21.940,LG-H970,1572086301949.0,-4.751,12.287,4.978,41.1039623,16.8796758,False,NONE
2019-10-26 10:38:21.960,LG-H970,1572086301969.6,-6.088,13.867,2.602,41.1039623,16.8796758,False,NONE
2019-10-26 10:38:21.980,LG-H970,1572086301991.75,-0.678,10.547,-1.953,41.1039623,16.8796758,False,NONE
2019-10-26 10:38:22.000,LG-H970,1572086302011.25,4.702,8.368,2.624,41.1039623,16.8796758,False,NONE
2019-10-26 10:38:22.020,LG-H970,1572086302031.0,-0.763,9.66,1.057,41.1039623,16.8796758,False,NONE
2019-10-26 10:38:22.040,LG-H970,1572086302052.6667,-2.152,14.381,-1.116,41.1039623,16.8796758,False,NONE
2019-10-26 10:38:22.060,LG-H970,1572086302070.5,1.849,13.711,2.341,41.1039623,16.8796758,False,NONE
2019-10-26 10:38:22.080,LG-H970,1572086302090.25,2.663,11.215,3.282,41.1039623,16.8796758,False,NONE
2019-10-26 10:38:22.100,LG-H970,1572086302110.5,-0.316,10.702,0.261,41.1039623,16.8796758,False,NONE
2019-10-26 10:38:22.120,LG-H970,1572086302129.75,-0.527,9.283,-2.467,41.1039623,16.8796758,False,NONE
2019-10-26 10:38:22.140,LG-H970,1572086302149.25,1.103,9.639,-1.314,41.1039623,16.8796758,False,NONE
2019-10-26 10:38:22.160,LG-H970,1572086302169.0,0.967,9.67,2.167,41.1039623,16.8796758,False,NONE
2019-10-26 10:38:22.180,LG-H970,1572086302189.0,0.706,9.633,2.096,41.1039623,16.8796758,False,NONE
2019-10-26 10:38:22.200,LG-H970,1572086302208.5,0.366,8.922,-0.917,41.1039623,16.8796758,False,NONE
2019-10-26 10:38:22.220,LG-H970,1572086302228.5,-0.282,8.375,-2.925,41.1039623,16.8796758,False,NONE
2019-10-26 10:38:22.240,LG-H970,1572086302248.25,1.474,8.348,-1.184,41.1039623,16.8796758,False,NONE
2019-10-26 10:38:22.260,LG-H970,1572086302269.8,3.534,8.191,1.297,41.1039623,16.8796758,False,NONE
2019-10-26 10:38:22.280,LG-H970,1572086302292.25,2.824,11.05,1.038,41.1039623,16.8796758,False,NONE
2019-10-26 10:38:22.300,LG-H970,1572086302310.0,-0.134,10.454,0.372,41.1039623,16.8796758,False,NONE
2019-10-26 10:38:22.320,LG-H970,1572086302329.2,1.229,9.652,-0.437,41.1039623,16.8796758,False,NONE
2019-10-26 10:38:22.340,LG-H970,1572086302348.6667,2.35,6.722,-0.875,41.1039623,16.8796758,False,NONE
2019-10-26 10:38:22.360,LG-H970,1572086302369.4,3.497,9.668,0.718,41.1039623,16.8796758,False,NONE
2019-10-26 10:38:22.380,LG-H970,1572086302391.0,1.746,9.189,-0.104,41.1039623,16.8796758,True,NONE
2019-10-26 10:38:22.400,LG-H970,1572086302410.0,2.18,9.436,0.915,41.1039623,16.8796758,True,NONE
2019-10-26 10:38:22.420,LG-H970,1572086302429.5,2.592,8.328,-0.209,41.1039623,16.8796758,False,NONE
2019-10-26 10:38:22.440,LG-H970,1572086302449.5,1.856,9.266,0.14,41.1039623,16.8796758,False,NONE
2019-10-26 10:38:22.460,LG-H970,1572086302469.75,0.86,10.589,-0.988,41.1039623,16.8796758,False,NONE
2019-10-26 10:38:22.480,LG-H970,1572086302490.5,2.58,11.179,1.461,41.1039623,16.8796758,False,NONE
2019-10-26 10:38:22.500,LG-H970,1572086302509.5,2.53,8.113,2.125,41.1039623,16.8796758,False,NONE
2019-10-26 10:38:22.520,LG-H970,1572086302530.0,1.738,10.104,-0.419,41.1039623,16.8796758,False,NONE
2019-10-26 10:38:22.540,LG-H970,1572086302548.3333,-0.074,9.951,-2.574,41.1039623,16.8796758,False,NONE
2019-10-26 10:38:22.560,LG-H970,1572086302568.25,1.334,9.752,0.376,41.1039623,16.8796758,False,NONE
2019-10-26 10:38:22.580,LG-H970,1572086302589.75,2.584,10.035,0.86,41.1039623,16.8796758,False,NONE
2019-10-26 10:38:22.600,LG-H970,1572086302609.25,1.481,10.796,2.597,41.1039623,16.8796758,False,NONE
2019-10-26 10:38:22.620,LG-H970,1572086302628.5,0.126,11.083,0.701,41.1039623,16.8796758,False,NONE
2019-10-26 10:38:22.640,LG-H970,1572086302648.25,0.126,11.83,-0.004,41.1039623,16.8796758,False,NONE
2019-10-26 10:38:22.660,LG-H970,1572086302667.75,0.442,10.095,0.143,41.1039623,16.8796758,False,NONE
2019-10-26 10:38:22.680,LG-H970,1572086302689.0,1.098,10.279,0.736,41.1039623,16.8796758,False,NONE
2019-10-26 10:38:22.700,LG-H970,1572086302710.2,-1.291,11.245,-0.537,41.1039623,16.8796758,False,NONE
2019-10-26 10:38:22.720,LG-H970,1572086302732.0,-2.304,12.051,-0.177,41.1039623,16.8796758,False,NONE
2019-10-26 10:38:22.740,LG-H970,1572086302751.5,0.356,9.734,0.491,41.1039623,16.8796758,False,NONE
2019-10-26 10:38:22.760,LG-H970,1572086302771.25,1.25,8.881,1.169,41.1039623,16.8796758,False,NONE
2019-10-26 10:38:22.780,LG-H970,1572086302791.5,-0.482,10.74,-0.528,41.1039623,16.8796758,False,NONE
2019-10-26 10:38:22.800,LG-H970,1572086302810.75,-1.279,10.403,-1.351,41.1039623,16.8796758,False,NONE
2019-10-26 10:38:22.820,LG-H970,1572086302831.0,0.38,8.791,0.534,41.1039623,16.8796758,False,NONE
2019-10-26 10:38:22.840,LG-H970,1572086302850.5,1.596,8.911,0.118,41.1039623,16.8796758,False,NONE
2019-10-26 10:38:22.860,LG-H970,1572086302869.0,0.847,9.706,0.541,41.1039623,16.8796758,False,NONE
2019-10-26 10:38:22.880,LG-H970,1572086302890.5,-0.452,8.685,0.018,41.1039623,16.8796758,False,NONE
2019-10-26 10:38:22.900,LG-H970,1572086302911.25,0.937,9.132,0.384,41.1039623,16.8796758,False,NONE
2019-10-26 10:38:22.920,LG-H970,1572086302932.6667,1.772,8.973,1.05,41.1039623,16.8796758,False,NONE
2019-10-26 10:38:22.940,LG-H970,1572086302949.75,0.494,9.466,1.223,41.1039623,16.8796758,False,NONE
2019-10-26 10:38:22.960,LG-H970,1572086302970.25,-0.293,10.246,-0.229,41.1039623,16.8796758,False,NONE
2019-10-26 10:38:22.980,LG-H970,1572086302990.25,1.013,8.796,-0.822,41.1039623,16.8796758,False,NONE
2019-10-26 10:38:23.000,LG-H970,1572086303009.5,3.12,8.541,0.3,41.1039623,16.8796758,False,NONE
2019-10-26 10:38:23.020,LG-H970,1572086303029.25,2.768,7.393,0.608,41.1039623,16.8796758,False,NONE
2019-10-26 10:38:23.040,LG-H970,1572086303048.5,2.479,8.477,0.154,41.1039623,16.8796758,False,NONE
2019-10-26 10:38:23.060,LG-H970,1572086303068.75,0.531,10.04,-2.189,41.1039623,16.8796758,False,NONE
2019-10-26 10:38:23.080,LG-H970,1572086303088.0,-0.612,10.842,-1.255,41.1039623,16.8796758,False,NONE
2019-10-26 10:38:23.100,LG-H970,1572086303109.8,-0.006,10.986,-0.228,41.1039623,16.8796758,False,NONE
2019-10-26 10:38:23.120,LG-H970,1572086303131.25,-1.978,11.778,-1.378,41.1039623,16.8796758,False,NONE
2019-10-26 10:38:23.140,LG-H970,1572086303151.25,-3.042,12.827,-1.401,41.1039623,16.8796758,False,NONE
2019-10-26 10:38:23.160,LG-H970,1572086303171.5,-2.293,11.653,-1.287,41.1039623,16.8796758,False,NONE
2019-10-26 10:38:23.180,LG-H970,1572086303190.75,-2.549,11.188,1.645,41.1039623,16.8796758,False,NONE
2019-10-26 10:38:23.200,LG-H970,1572086303210.75,-4.204,10.405,-1.047,41.1039623,16.8796758,False,NONE
2019-10-26 10:38:23.220,LG-H970,1572086303230.75,-3.196,11.471,-2.415,41.1039623,16.8796758,False,NONE
2019-10-26 10:38:23.240,LG-H970,1572086303250.25,-1.267,9.257,-1.771,41.1039623,16.8796758,False,NONE
2019-10-26 10:38:23.260,LG-H970,1572086303270.25,-1.497,9.126,0.277,41.1039623,16.8796758,False,NONE
2019-10-26 10:38:23.280,LG-H970,1572086303289.25,-2.546,10.669,-0.556,41.1039623,16.8796758,False,NONE
2019-10-26 10:38:23.300,LG-H970,1572086303309.25,-1.459,11.406,-0.742,41.1039623,16.8796758,False,NONE
2019-10-26 10:38:23.320,LG-H970,1572086303330.4,0.648,9.368,-1.119,41.1039623,16.8796758,False,NONE
2019-10-26 10:38:23.340,LG-H970,1572086303350.0,1.555,9.034,-2.012,41.1039623,16.8796758,False,NONE
2019-10-26 10:38:23.360,LG-H970,1572086303369.25,0.078,8.653,-2.611,41.1039623,16.8796758,False,NONE
2019-10-26 10:38:23.380,LG-H970,1572086303389.5,0.263,9.473,-2.821,41.1039623,16.8796758,False,NONE
2019-10-26 10:38:23.400,LG-H970,1572086303406.75,1.682,10.048,-1.619,41.1039623,16.8796758,False,NONE
2019-10-26 10:38:23.420,LG-H970,1572086303426.75,2.209,8.92,-1.416,41.1039623,16.8796758,False,NONE
2019-10-26 10:38:23.440,LG-H970,1572086303446.75,0.971,7.931,-2.882,41.1039623,16.8796758,False,NONE
2019-10-26 10:38:23.460,LG-H970,1572086303469.2,0.606,9.072,-1.784,41.1039623,16.8796758,False,NONE
2019-10-26 10:38:23.480,LG-H970,1572086303487.0,1.345,9.108,-1.154,41.1039623,16.8796758,False,NONE
2019-10-26 10:38:23.500,LG-H970,1572086303508.8,1.487,9.446,1.074,41.1039623,16.8796758,False,NONE
2019-10-26 10:38:23.520,LG-H970,1572086303530.5,-0.064,9.326,-0.639,41.1039623,16.8796758,False,NONE
2019-10-26 10:38:23.540,LG-H970,1572086303550.5,-1.166,10.092,-0.277,41.1039623,16.8796758,False,NONE
2019-10-26 10:38:23.560,LG-H970,1572086303570.5,-0.876,8.245,-1.105,41.1039623,16.8796758,False,NONE
2019-10-26 10:38:23.580,LG-H970,1572086303590.5,1.926,9.875,1.546,41.1039623,16.8796758,False,NONE
2019-10-26 10:38:23.600,LG-H970,1572086303609.25,1.959,9.891,-0.169,41.1039623,16.8796758,False,NONE
2019-10-26 10:38:23.620,LG-H970,1572086303629.25,0.148,11.807,-0.289,41.1039623,16.8796758,False,NONE
2019-10-26 10:38:23.640,LG-H970,1572086303649.25,0.97,9.973,-2.038,41.1039623,16.8796758,False,NONE
2019-10-26 10:38:23.660,LG-H970,1572086303668.25,4.771,10.039,-0.334,41.1039623,16.8796758,False,NONE
2019-10-26 10:38:23.680,LG-H970,1572086303690.6,4.334,8.769,0.094,41.1039623,16.8796758,False,NONE
2019-10-26 10:38:23.700,LG-H970,1572086303712.0,1.535,10.8,-2.075,41.1039623,16.8796758,False,NONE
2019-10-26 10:38:23.720,LG-H970,1572086303730.2,0.546,10.981,-1.879,41.1039623,16.8796758,False,NONE
2019-10-26 10:38:23.740,LG-H970,1572086303749.6667,-0.251,7.623,-3.202,41.1039623,16.8796758,False,NONE
2019-10-26 10:38:23.760,LG-H970,1572086303767.25,1.573,9.211,0.54,41.1039623,16.8796758,False,NONE
2019-10-26 10:38:23.780,LG-H970,1572086303787.5,1.026,8.648,-1.29,41.1039623,16.8796758,True,NONE
2019-10-26 10:38:23.800,LG-H970,1572086303809.2,-1.122,11.619,-2.083,41.1039623,16.8796758,True,NONE
2019-10-26 10:38:23.820,LG-H970,1572086303831.5,-3.294,9.716,-0.83,41.1039623,16.8796758,False,NONE
2019-10-26 10:38:23.840,LG-H970,1572086303850.75,0.086,7.356,0.305,41.1039623,16.8796758,False,NONE
2019-10-26 10:38:23.860,LG-H970,1572086303872.0,1.436,9.308,0.193,41.1039623,16.8796758,False,NONE
2019-10-26 10:38:23.880,LG-H970,1572086303888.6667,-3.127,11.678,-2.783,41.1039623,16.8796758,False,NONE
2019-10-26 10:38:23.900,LG-H970,1572086303908.4,-6.396,12.892,-3.645,41.1039623,16.8796758,False,NONE
2019-10-26 10:38:23.920,LG-H970,1572086303931.0,-3.478,9.702,-0.735,41.1039623,16.8796758,False,NONE
2019-10-26 10:38:23.940,LG-H970,1572086303950.5,-0.956,8.515,-1.08,41.1039623,16.8796758,False,NONE
2019-10-26 10:38:23.960,LG-H970,1572086303970.25,-4.618,11.74,-4.178,41.1039623,16.8796758,False,NONE
2019-10-26 10:38:23.980,LG-H970,1572086303990.25,-4.756,12.295,-2.805,41.1039623,16.8796758,False,NONE
2019-10-26 10:38:24.000,LG-H970,1572086304009.75,-0.67,8.436,0.892,41.1039623,16.8796758,False,NONE
2019-10-26 10:38:24.020,LG-H970,1572086304029.75,1.284,8.828,1.923,41.1039623,16.8796758,False,NONE
2019-10-26 10:38:24.040,LG-H970,1572086304049.25,-1.891,11.115,-0.994,41.1039623,16.8796758,False,NONE
2019-10-26 10:38:24.060,LG-H970,1572086304069.25,-2.746,10.541,-1.205,41.1039623,16.8796758,False,NONE
2019-10-26 10:38:24.080,LG-H970,1572086304089.25,1.162,8.236,0.952,41.1039623,16.8796758,False,NONE
2019-10-26 10:38:24.100,LG-H970,1572086304108.5,3.035,8.248,1.771,41.1039623,16.8796758,False,NONE
2019-10-26 10:38:24.120,LG-H970,1572086304128.75,-0.036,10.446,0.509,41.1039623,16.8796758,False,NONE
2019-10-26 10:38:24.140,LG-H970,1572086304147.25,-1.018,11.217,-0.815,41.1039623,16.8796758,False,NONE
2019-10-26 10:38:24.160,LG-H970,1572086304167.5,2.425,8.797,-0.763,41.1039623,16.8796758,False,NONE
2019-10-26 10:38:24.180,LG-H970,1572086304187.25,4.53,8.049,0.727,41.1039623,16.8796758,False,NONE
2019-10-26 10:38:24.200,LG-H970,1572086304207.25,1.9,9.332,-0.789,41.1039623,16.8796758,False,NONE
2019-10-26 10:38:24.220,LG-H970,1572086304229.8,-0.416,11.378,-2.476,41.1039623,16.8796758,False,NONE
2019-10-26 10:38:24.240,LG-H970,1572086304252.0,2.608,9.011,-0.85,41.1039623,16.8796758,False,NONE
2019-10-26 10:38:24.260,LG-H970,1572086304271.25,5.112,7.416,-0.78,41.1039623,16.8796758,False,NONE
2019-10-26 10:38:24.280,LG-H970,1572086304291.25,2.051,9.267,-0.395,41.1039623,16.8796758,False,NONE
2019-10-26 10:38:24.300,LG-H970,1572086304310.5,-1.153,9.964,-4.134,41.1039623,16.8796758,False,NONE
2019-10-26 10:38:24.320,LG-H970,1572086304330.5,0.112,11.881,0.05,41.1039623,16.8796758,False,NONE
2019-10-26 10:38:24.340,LG-H970,1572086304349.75,0.907,8.778,-0.231,41.1039623,16.8796758,False,NONE
2019-10-26 10:38:24.360,LG-H970,1572086304367.3333,0.931,10.154,0.353,41.1039623,16.8796758,False,NONE
2019-10-26 10:38:24.380,LG-H970,1572086304388.6,-1.248,9.891,-2.495,41.1039623,16.8796758,False,NONE
2019-10-26 10:38:24.400,LG-H970,1572086304408.5,-0.964,9.933,-2.026,41.1039623,16.8796758,False,NONE
2019-10-26 10:38:24.420,LG-H970,1572086304428.25,0.548,8.376,-1.042,41.1039623,16.8796758,False,NONE
2019-10-26 10:38:24.440,LG-H970,1572086304448.5,1.174,9.272,0.48,41.1039623,16.8796758,False,NONE
2019-10-26 10:38:24.460,LG-H970,1572086304469.0,-0.612,11.063,-0.447,41.1039623,16.8796758,False,NONE
2019-10-26 10:38:24.480,LG-H970,1572086304488.5,-2.802,11.176,-1.858,41.1039623,16.8796758,False,NONE
2019-10-26 10:38:24.500,LG-H970,1572086304507.5,-1.927,10.992,-1.137,41.1039623,16.8796758,False,NONE
2019-10-26 10:38:24.520,LG-H970,1572086304527.5,-1.92,8.796,-1.449,41.1039623,16.8796758,False,NONE
2019-10-26 10:38:24.540,LG-H970,1572086304550.0,-0.877,10.342,0.004,41.1039623,16.8796758,False,NONE
2019-10-26 10:38:24.560,LG-H970,1572086304570.0,-2.076,11.006,-0.837,41.1039623,16.8796758,False,NONE
2019-10-26 10:38:24.580,LG-H970,1572086304587.25,-4.076,11.222,0.494,41.1039623,16.8796758,False,NONE
2019-10-26 10:38:24.600,LG-H970,1572086304609.2,-2.153,10.373,-1.722,41.1039623,16.8796758,False,NONE
2019-10-26 10:38:24.620,LG-H970,1572086304631.5,-0.395,9.094,0.257,41.1039623,16.8796758,False,NONE
2019-10-26 10:38:24.640,LG-H970,1572086304651.25,-1.449,9.293,-0.645,41.1039623,16.8796758,False,NONE
2019-10-26 10:38:24.660,LG-H970,1572086304671.5,-2.424,11.27,-0.329,41.1039623,16.8796758,False,NONE
2019-10-26 10:38:24.680,LG-H970,1572086304690.75,-0.884,10.855,-0.599,41.1039623,16.8796758,False,NONE
2019-10-26 10:38:24.700,LG-H970,1572086304710.5,-0.175,9.413,0.856,41.1039623,16.8796758,False,NONE
2019-10-26 10:38:24.720,LG-H970,1572086304730.75,-0.2,8.825,-1.186,41.1039623,16.8796758,False,NONE
2019-10-26 10:38:24.740,LG-H970,1572086304749.25,-0.384,9.65,-1.877,41.1039623,16.8796758,False,NONE
2019-10-26 10:38:24.760,LG-H970,1572086304770.25,0.018,9.81,-0.765,41.1039623,16.8796758,False,NONE
2019-10-26 10:38:24.780,LG-H970,1572086304789.5,0.57,8.767,-0.467,41.1039623,16.8796758,False,NONE
2019-10-26 10:38:24.800,LG-H970,1572086304809.25,1.583,9.852,-0.413,41.1039623,16.8796758,False,NONE
2019-10-26 10:38:24.820,LG-H970,1572086304829.0,0.246,9.509,-1.703,41.1039623,16.8796758,False,NONE
2019-10-26 10:38:24.840,LG-H970,1572086304848.5,0.346,9.997,-2.87,41.1039623,16.8796758,False,NONE
2019-10-26 10:38:24.860,LG-H970,1572086304871.0,0.091,8.822,-1.069,41.1039623,16.8796758,False,NONE
2019-10-26 10:38:24.880,LG-H970,1572086304893.0,0.989,9.574,-0.994,41.1039623,16.8796758,False,NONE
2019-10-26 10:38:24.900,LG-H970,1572086304907.25,0.646,10.438,-0.377,41.1039623,16.8796758,False,NONE
2019-10-26 10:38:24.920,LG-H970,1572086304927.25,-0.526,9.299,-1.16,41.1039623,16.8796758,False,NONE
2019-10-26 10:38:24.940,LG-H970,1572086304946.75,0.791,10.386,-0.917,41.1039623,16.8796758,False,NONE
2019-10-26 10:38:24.960,LG-H970,1572086304969.6,0.386,8.727,-1.18,41.1039623,16.8796758,False,NONE
2019-10-26 10:38:24.980,LG-H970,1572086304992.5,-0.211,10.632,-0.698,41.1039623,16.8796758,False,NONE
2019-10-26 10:38:25.000,LG-H970,1572086305010.5,-2.215,9.72,-1.51,41.1039623,16.8796758,False,NONE
2019-10-26 10:38:25.020,LG-H970,1572086305030.75,0.737,11.018,-0.323,41.1039623,16.8796758,False,NONE
2019-10-26 10:38:25.040,LG-H970,1572086305051.25,0.837,8.06,-1.106,41.1039623,16.8796758,False,NONE
2019-10-26 10:38:25.060,LG-H970,1572086305070.5,0.148,9.248,0.107,41.1039623,16.8796758,False,NONE
2019-10-26 10:38:25.080,LG-H970,1572086305090.5,-1.243,9.665,-3.446,41.1039623,16.8796758,False,NONE
2019-10-26 10:38:25.100,LG-H970,1572086305111.0,-1.862,10.21,0.978,41.1039623,16.8796758,False,NONE
2019-10-26 10:38:25.120,LG-H970,1572086305130.0,0.286,9.02,-1.387,41.1039623,16.8796758,False,NONE
2019-10-26 10:38:25.140,LG-H970,1572086305149.5,-0.533,11.087,0.587,41.1039623,16.8796758,False,NONE
2019-10-26 10:38:25.160,LG-H970,1572086305169.25,-1.587,11.076,-1.132,41.1039623,16.8796758,False,NONE
2019-10-26 10:38:25.180,LG-H970,1572086305189.0,-2.627,9.123,-1.076,41.1039623,16.8796758,False,NONE
2019-10-26 10:38:25.200,LG-H970,1572086305209.25,-0.733,10.481,0.249,41.1039623,16.8796758,False,NONE
2019-10-26 10:38:25.220,LG-H970,1572086305229.25,-0.675,9.462,-1.471,41.1039623,16.8796758,False,NONE
2019-10-26 10:38:25.240,LG-H970,1572086305248.5,-0.365,11.021,0.817,41.1039623,16.8796758,False,NONE
2019-10-26 10:38:25.260,LG-H970,1572086305268.25,-0.316,9.133,-2.39,41.1039623,16.8796758,False,NONE
2019-10-26 10:38:25.280,LG-H970,1572086305288.25,-0.493,10.254,1.238,41.1039623,16.8796758,False,NONE
2019-10-26 10:38:25.300,LG-H970,1572086305310.0,-0.768,10.043,-1.883,41.1039623,16.8796758,False,NONE
2019-10-26 10:38:25.320,LG-H970,1572086305330.3333,0.059,11.678,0.847,41.1039623,16.8796758,False,NONE
2019-10-26 10:38:25.340,LG-H970,1572086305349.0,0.768,9.614,-1.303,41.1039623,16.8796758,False,NONE
2019-10-26 10:38:25.360,LG-H970,1572086305369.6667,1.65,11.211,1.432,41.1039623,16.8796758,False,NONE
2019-10-26 10:38:25.380,LG-H970,1572086305390.4,0.178,9.566,-1.651,41.1039623,16.8796758,False,NONE
2019-10-26 10:38:25.400,LG-H970,1572086305412.25,-0.128,11.178,-0.076,41.1039623,16.8796758,False,NONE
2019-10-26 10:38:25.420,LG-H970,1572086305431.75,0.166,8.722,-1.763,41.1039623,16.8796758,False,NONE
2019-10-26 10:38:25.440,LG-H970,1572086305450.5,1.788,10.53,1.323,41.1039623,16.8796758,False,NONE
2019-10-26 10:38:25.460,LG-H970,1572086305468.0,0.283,9.394,-1.43,41.1039623,16.8796758,False,NONE
2019-10-26 10:38:25.480,LG-H970,1572086305487.6,-0.793,10.647,-0.802,41.1039623,16.8796758,False,NONE
2019-10-26 10:38:25.500,LG-H970,1572086305507.5,-0.614,8.187,-2.148,41.1039623,16.8796758,False,NONE
2019-10-26 10:38:25.520,LG-H970,1572086305527.5,2.666,9.964,0.818,41.1039623,16.8796758,False,NONE
