UTC_timestamp,device_name,timestamp,x,y,z,lat,long,event,speed
2019-10-26 09:37:59.880,LG-H970,1572082679888.25,0.337,9.886,0.515,41.1078125,16.8812176,False,NONE
2019-10-26 09:37:59.900,LG-H970,1572082679908.75,-0.644,9.935,-0.085,41.1078125,16.8812176,False,NONE
2019-10-26 09:37:59.920,LG-H970,1572082679928.5,-2.104,10.364,-0.437,41.1078125,16.8812176,False,NONE
2019-10-26 09:37:59.940,LG-H970,1572082679948.25,-1.03,10.175,-1.6,41.1078125,16.8812176,False,NONE
2019-10-26 09:37:59.960,LG-H970,1572082679967.5,-0.487,9.684,0.236,41.1078125,16.8812176,False,NONE
2019-10-26 09:37:59.980,LG-H970,1572082679987.5,-2.166,10.028,1.321,41.1078125,16.8812176,False,NONE
2019-10-26 09:38:00.000,LG-H970,1572082680007.5,-2.365,12.314,-0.115,41.1078125,16.8812176,False,NONE
2019-10-26 09:38:00.020,LG-H970,1572082680030.0,-2.047,11.059,0.895,41.1078125,16.8812176,False,NONE
2019-10-26 09:38:00.040,LG-H970,1572082680051.3333,-1.211,8.861,-0.521,41.1078125,16.8812176,False,NONE
2019-10-26 09:38:00.060,LG-H970,1572082680069.8,-0.929,9.938,0.242,41.1077977,16.8811994,False,NONE
2019-10-26 09:38:00.080,LG-H970,1572082680090.75,-1.701,10.282,0.266,41.1077878,16.8811873,False,NONE
2019-10-26 09:38:00.100,LG-H970,1572082680110.25,-1.052,10.001,1.741,41.1077878,16.8811873,False,NONE
2019-10-26 09:38:00.120,LG-H970,1572082680129.75,-1.446,11.331,0.949,41.1077878,16.8811873,False,NONE
2019-10-26 09:38:00.140,LG-H970,1572082680148.5,-3.474,10.53,-0.973,41.1077878,16.8811873,False,NONE
2019-10-26 09:38:00.160,LG-H970,1572082680169.0,-1.374,10.115,0.781,41.1077878,16.8811873,False,NONE
2019-10-26 09:38:00.180,LG-H970,1572082680188.75,1.211,8.537,-0.187,41.1077878,16.8811873,False,NONE
2019-10-26 09:38:00.200,LG-H970,1572082680207.5,0.291,11.136,2.354,41.1077878,16.8811873,False,NONE
2019-10-26 09:38:00.220,LG-H970,1572082680227.75,-2.266,11.088,-0.618,41.1077878,16.8811873,False,NONE
2019-10-26 09:38:00.240,LG-H970,1572082680247.5,-2.491,10.568,1.52,41.1077878,16.8811873,False,NONE
2019-10-26 09:38:00.260,LG-H970,1572082680268.25,-0.631,8.444,-1.015,41.1077878,16.8811873,False,NONE
2019-10-26 09:38:00.280,LG-H970,1572082680287.75,0.455,9.583,0.345,41.1077878,16.8811873,False,NONE
2019-10-26 09:38:00.300,LG-H970,1572082680308.0,-1.44,8.699,-0.441,41.1077878,16.8811873,False,NONE
2019-10-26 09:38:00.320,LG-H970,1572082680329.5,-1.959,10.31,0.51,41.1077878,16.8811873,False,NONE
2019-10-26 09:38:00.340,LG-H970,1572082680349.6,-0.864,9.487,-0.378,41.1077878,16.8811873,False,NONE
2019-10-26 09:38:00.360,LG-H970,1572082680369.6667,0.079,9.499,1.857,41.1077878,16.8811873,False,NONE
2019-10-26 09:38:00.380,LG-H970,1572082680389.8,0.367,9.032,-0.042,41.1077878,16.8811873,False,NONE
2019-10-26 09:38:00.400,LG-H970,1572082680411.75,0.703,10.329,2.019,41.1077878,16.8811873,False,NONE
2019-10-26 09:38:00.420,LG-H970,1572082680432.0,0.126,9.456,0.713,41.1077878,16.8811873,False,NONE
2019-10-26 09:38:00.440,LG-H970,1572082680450.75,-0.368,10.936,3.268,41.1077878,16.8811873,False,NONE
2019-10-26 09:38:00.460,LG-H970,1572082680470.25,0.092,10.781,-0.361,41.1077878,16.8811873,False,NONE
2019-10-26 09:38:00.480,LG-H970,1572082680490.5,-0.67,9.341,1.414,41.1077878,16.8811873,False,NONE
2019-10-26 09:38:00.500,LG-H970,1572082680510.0,-0.708,8.585,-1.955,41.1077878,16.8811873,False,NONE
2019-10-26 09:38:00.520,LG-H970,1572082680530.0,-0.385,9.12,0.187,41.1077878,16.8811873,False,NONE
2019-10-26 09:38:00.540,LG-H970,1572082680549.75,0.041,9.755,-0.988,41.1077878,16.8811873,False,NONE
2019-10-26 09:38:00.560,LG-H970,1572082680569.5,1.119,11.662,0.142,41.1077878,16.8811873,False,NONE
2019-10-26 09:38:00.580,LG-H970,1572082680589.25,-0.102,10.317,-1.184,41.1077878,16.8811873,False,NONE
2019-10-26 09:38:00.600,LG-H970,1572082680609.0,-2.111,10.194,-1.259,41.1077878,16.8811873,False,NONE
2019-10-26 09:38:00.620,LG-H970,1572082680628.75,-2.521,9.821,-1.382,41.1077878,16.8811873,False,NONE
2019-10-26 09:38:00.640,LG-H970,1572082680648.25,-0.98,10.257,-0.917,41.1077878,16.8811873,False,NONE
2019-10-26 09:38:00.660,LG-H970,1572082680668.75,0.403,9.295,-1.352,41.1077878,16.8811873,False,NONE
2019-10-26 09:38:00.680,LG-H970,1572082680687.75,-0.575,8.625,0.549,41.1077878,16.8811873,False,NONE
2019-10-26 09:38:00.700,LG-H970,1572082680708.25,-2.245,9.684,-1.496,41.1077878,16.8811873,False,NONE
2019-10-26 09:38:00.720,LG-H970,1572082680728.0,-2.331,10.141,0.091,41.1077878,16.8811873,False,NONE
2019-10-26 09:38:00.740,LG-H970,1572082680749.8,-0.592,10.301,-0.575,41.1077878,16.8811873,False,NONE
2019-10-26 09:38:00.760,LG-H970,1572082680771.75,-0.92,10.061,1.746,41.1077878,16.8811873,False,NONE
2019-10-26 09:38:00.780,LG-H970,1572082680791.75,-1.983,10.626,-0.42,41.1077878,16.8811873,False,NONE
2019-10-26 09:38:00.800,LG-H970,1572082680809.75,-1.704,11.067,-0.243,41.1077878,16.8811873,False,NONE
2019-10-26 09:38:00.820,LG-H970,1572082680828.0,-1.457,10.471,-1.554,41.1077878,16.8811873,False,NONE
2019-10-26 09:38:00.840,LG-H970,1572082680848.2,-1.611,10.355,-0.503,41.1077878,16.8811873,False,NONE
2019-10-26 09:38:00.860,LG-H970,1572082680870.0,-0.829,8.855,-2.022,41.1077878,16.8811873,False,NONE
2019-10-26 09:38:00.880,LG-H970,1572082680889.25,-0.008,10.625,0.027,41.1077878,16.8811873,False,NONE
2019-10-26 09:38:00.900,LG-H970,1572082680909.25,-2.212,9.128,-1.382,41.1077878,16.8811873,False,NONE
2019-10-26 09:38:00.920,LG-H970,1572082680929.0,-2.882,10.784,-0.891,41.1077878,16.8811873,False,NONE
2019-10-26 09:38:00.940,LG-H970,1572082680948.75,-2.138,7.927,-2.181,41.1077878,16.8811873,False,NONE
2019-10-26 09:38:00.960,LG-H970,1572082680968.25,0.539,9.331,0.012,41.1077878,16.8811873,False,NONE
2019-10-26 09:38:00.980,LG-H970,1572082680988.25,0.38,8.834,-1.148,41.1077878,16.8811873,False,NONE
2019-10-26 09:38:01.000,LG-H970,1572082681008.0,-0.797,9.955,-0.062,41.1077878,16.8811873,False,NONE
2019-10-26 09:38:01.020,LG-H970,1572082681027.5,-0.403,8.962,-1.035,41.1077878,16.8811873,False,NONE
2019-10-26 09:38:01.040,LG-H970,1572082681047.5,1.131,9.74,0.057,41.1077878,16.8811873,False,NONE
2019-10-26 09:38:01.060,LG-H970,1572082681067.25,0.765,9.59,-0.969,41.1077878,16.8811873,False,NONE
2019-10-26 09:38:01.080,LG-H970,1572082681087.0,-0.831,9.422,-0.694,41.1077878,16.8811873,False,NONE
2019-10-26 09:38:01.100,LG-H970,1572082681109.2,-0.874,10.108,-0.83,41.1077878,16.8811873,False,NONE
2019-10-26 09:38:01.120,LG-H970,1572082681131.5,0.841,10.554,0.489,41.1077878,16.8811873,False,NONE
2019-10-26 09:38:01.140,LG-H970,1572082681149.0,0.797,11.465,-1.172,41.1077878,16.8811873,False,NONE
2019-10-26 09:38:01.160,LG-H970,1572082681166.5,-1.689,9.141,-1.226,41.1077878,16.8811873,False,NONE
2019-10-26 09:38:01.180,LG-H970,1572082681189.0,-0.791,8.501,-2.61,41.1077878,16.8811873,False,NONE
2019-10-26 09:38:01.200,LG-H970,1572082681210.75,1.809,7.455,-1.879,41.1077878,16.8811873,False,NONE
2019-10-26 09:38:01.220,LG-H970,1572082681230.25,1.055,8.631,-0.311,41.1077878,16.8811873,False,NONE
2019-10-26 09:38:01.240,LG-H970,1572082681250.0,-0.988,11.324,-0.842,41.1077878,16.8811873,False,NONE
2019-10-26 09:38:01.260,LG-H970,1572082681269.0,-3.353,11.005,-0.41,41.1077878,16.8811873,False,NONE
2019-10-26 09:38:01.280,LG-H970,1572082681289.0,-0.396,11.012,-0.039,41.1077878,16.8811873,False,NONE
2019-10-26 09:38:01.300,LG-H970,1572082681308.75,2.004,7.921,0.107,41.1077878,16.8811873,False,NONE
2019-10-26 09:38:01.320,LG-H970,1572082681328.6667,0.658,8.49,1.787,41.1077878,16.8811873,False,NONE
2019-10-26 09:38:01.340,LG-H970,1572082681350.0,-4.544,10.933,-3.733,41.1077878,16.8811873,False,NONE
2019-10-26 09:38:01.360,LG-H970,1572082681372.25,-2.36,13.439,0.574,41.1077878,16.8811873,False,NONE
2019-10-26 09:38:01.380,LG-H970,1572082681392.25,1.389,9.63,-0.722,41.1077878,16.8811873,False,NONE
2019-10-26 09:38:01.400,LG-H970,1572082681412.0,1.229,8.935,2.658,41.1077878,16.8811873,False,NONE
2019-10-26 09:38:01.420,LG-H970,1572082681431.75,-0.214,11.335,-2.818,41.1077878,16.8811873,False,NONE
2019-10-26 09:38:01.440,LG-H970,1572082681452.5,-2.534,14.079,-1.691,41.1077878,16.8811873,False,NONE
2019-10-26 09:38:01.460,LG-H970,1572082681470.75,-1.592,11.1,0.35,41.1077878,16.8811873,False,NONE
2019-10-26 09:38:01.480,LG-H970,1572082681490.75,0.59,6.965,1.016,41.1077878,16.8811873,False,NONE
2019-10-26 09:38:01.500,LG-H970,1572082681510.5,0.194,9.945,0.617,41.1077878,16.8811873,False,NONE
2019-10-26 09:38:01.520,LG-H970,1572082681530.75,-2.083,11.235,-3.179,41.1077878,16.8811873,False,NONE
2019-10-26 09:38:01.540,LG-H970,1572082681550.5,-1.045,10.707,-0.981,41.1077878,16.8811873,False,NONE
2019-10-26 09:38:01.560,LG-H970,1572082681570.25,1.721,8.699,0.604,41.1077878,16.8811873,False,NONE
2019-10-26 09:38:01.580,LG-H970,1572082681590.0,0.746,8.838,0.729,41.1077878,16.8811873,False,NONE
2019-10-26 09:38:01.600,LG-H970,1572082681609.75,-2.011,10.142,-1.105,41.1077878,16.8811873,False,NONE
2019-10-26 09:38:01.620,LG-H970,1572082681629.5,-0.528,10.41,-2.369,41.1077878,16.8811873,False,NONE
2019-10-26 09:38:01.640,LG-H970,1572082681649.0,1.861,7.856,-0.997,41.1077878,16.8811873,False,NONE
2019-10-26 09:38:01.660,LG-H970,1572082681668.5,0.91,8.689,-0.473,41.1077878,16.8811873,False,NONE
2019-10-26 09:38:01.680,LG-H970,1572082681688.5,-2.947,10.381,-1.542,41.1077878,16.8811873,False,NONE
2019-10-26 09:38:01.700,LG-H970,1572082681707.75,-3.136,10.927,-0.457,41.1077878,16.8811873,False,NONE
2019-10-26 09:38:01.720,LG-H970,1572082681727.75,0.453,9.098,-0.291,41.1077878,16.8811873,False,NONE
2019-10-26 09:38:01.740,LG-H970,1572082681747.5,0.909,8.685,1.331,41.1077878,16.8811873,False,NONE
2019-10-26 09:38:01.760,LG-H970,1572082681769.2,-2.33,9.914,-2.043,41.1077878,16.8811873,False,NONE
2019-10-26 09:38:01.780,LG-H970,1572082681791.75,-3.169,12.28,-1.343,41.1077878,16.8811873,False,NONE
2019-10-26 09:38:01.800,LG-H970,1572082681811.75,-0.086,9.5,-0.103,41.1077878,16.8811873,False,NONE
2019-10-26 09:38:01.820,LG-H970,1572082681832.0,1.158,7.904,1.409,41.1077878,16.8811873,False,NONE
2019-10-26 09:38:01.840,LG-H970,1572082681850.5,-1.943,10.828,-0.714,41.1077878,16.8811873,False,NONE
2019-10-26 09:38:01.860,LG-H970,1572082681870.0,-4.773,10.599,-2.184,41.1077878,16.8811873,False,NONE
2019-10-26 09:38:01.880,LG-H970,1572082681889.5,-0.765,10.088,-3.08,41.1077878,16.8811873,False,NONE
2019-10-26 09:38:01.900,LG-H970,1572082681909.75,1.084,6.481,-0.998,41.1077878,16.8811873,False,NONE
2019-10-26 09:38:01.920,LG-H970,1572082681928.75,1.317,10.45,0.364,41.1077878,16.8811873,False,NONE
2019-10-26 09:38:01.940,LG-H970,1572082681948.75,-1.814,9.198,-2.964,41.1077878,16.8811873,False,NONE
2019-10-26 09:38:01.960,LG-H970,1572082681969.0,-0.554,12.303,-0.88,41.1077878,16.8811873,False,NONE
2019-10-26 09:38:01.980,LG-H970,1572082681988.75,-0.012,9.445,-0.231,41.1077878,16.8811873,False,NONE
2019-10-26 09:38:02.000,LG-H970,1572082682008.5,0.65,9.822,0.41,41.1077878,16.8811873,False,NONE
2019-10-26 09:38:02.020,LG-H970,1572082682028.25,0.063,11.046,-0.147,41.1077878,16.8811873,False,NONE
2019-10-26 09:38:02.040,LG-H970,1572082682048.0,-1.95,10.733,-0.25,41.1077878,16.8811873,False,NONE
2019-10-26 09:38:02.060,LG-H970,1572082682070.0,-2.221,10.284,-0.507,41.1077878,16.8811873,False,NONE
2019-10-26 09:38:02.080,LG-H970,1572082682090.3333,-1.381,10.192,-0.32,41.1077878,16.8811873,False,NONE
2019-10-26 09:38:02.100,LG-H970,1572082682109.6,0.035,9.691,-0.198,41.1077878,16.8811873,False,NONE
2019-10-26 09:38:02.120,LG-H970,1572082682129.3333,0.829,10.366,1.459,41.1077878,16.8811873,False,NONE
2019-10-26 09:38:02.140,LG-H970,1572082682149.4,-0.42,10.653,0.635,41.1077878,16.8811873,False,NONE
2019-10-26 09:38:02.160,LG-H970,1572082682171.5,-2.454,11.407,-0.508,41.1077878,16.8811873,False,NONE
2019-10-26 09:38:02.180,LG-H970,1572082682191.25,-1.144,8.983,-1.169,41.1077878,16.8811873,False,NONE
2019-10-26 09:38:02.200,LG-H970,1572082682211.25,1.537,8.3,-1.833,41.1077878,16.8811873,False,NONE
2019-10-26 09:38:02.220,LG-H970,1572082682230.5,-0.874,9.159,0.574,41.1077878,16.8811873,False,NONE
2019-10-26 09:38:02.240,LG-H970,1572082682250.5,-3.257,12.911,-2.552,41.1077878,16.8811873,False,NONE
2019-10-26 09:38:02.260,LG-H970,1572082682270.25,-3.045,12.751,2.362,41.1077878,16.8811873,False,NONE
2019-10-26 09:38:02.280,LG-H970,1572082682289.5,0.352,9.019,-1.451,41.1077878,16.8811873,False,NONE
2019-10-26 09:38:02.300,LG-H970,1572082682309.75,0.305,7.732,0.687,41.1077878,16.8811873,False,NONE
2019-10-26 09:38:02.320,LG-H970,1572082682326.6667,-1.94,9.133,-3.169,41.1077878,16.8811873,False,NONE
2019-10-26 09:38:02.340,LG-H970,1572082682347.0,-3.157,9.845,-2.68,41.1077878,16.8811873,False,NONE
2019-10-26 09:38:02.360,LG-H970,1572082682367.5,0.921,9.9,0.628,41.1077878,16.8811873,False,NONE
2019-10-26 09:38:02.380,LG-H970,1572082682387.75,2.101,8.525,2.791,41.1077878,16.8811873,False,NONE
2019-10-26 09:38:02.400,LG-H970,1572082682407.5,-1.614,10.288,-0.871,41.1077878,16.8811873,False,NONE
2019-10-26 09:38:02.420,LG-H970,1572082682430.4,-3.142,10.911,-2.273,41.1077878,16.8811873,False,NONE
2019-10-26 09:38:02.440,LG-H970,1572082682452.0,1.152,8.993,-1.404,41.1077878,16.8811873,False,NONE
2019-10-26 09:38:02.460,LG-H970,1572082682471.5,3.136,8.219,2.102,41.1077878,16.8811873,False,NONE
2019-10-26 09:38:02.480,LG-H970,1572082682491.5,1.488,9.921,-1.468,41.1077878,16.8811873,False,NONE
2019-10-26 09:38:02.500,LG-H970,1572082682511.0,-1.612,10.411,-2.694,41.1077878,16.8811873,False,NONE
2019-10-26 09:38:02.520,LG-H970,1572082682529.0,-2.495,8.694,-2.002,41.1077878,16.8811873,False,NONE
2019-10-26 09:38:02.540,LG-H970,1572082682548.8,0.108,8.41,-1.154,41.1077878,16.8811873,False,NONE
2019-10-26 09:38:02.560,LG-H970,1572082682570.5,0.648,8.482,0.113,41.1077878,16.8811873,False,NONE
2019-10-26 09:38:02.580,LG-H970,1572082682590.75,-0.709,9.182,-0.817,41.1077878,16.8811873,False,NONE
2019-10-26 09:38:02.600,LG-H970,1572082682610.75,-3.419,10.726,-0.8,41.1077878,16.8811873,False,NONE
2019-10-26 09:38:02.620,LG-H970,1572082682630.0,-2.555,11.589,-0.562,41.1077878,16.8811873,False,NONE
2019-10-26 09:38:02.640,LG-H970,1572082682650.25,-1.14,8.325,0.929,41.1077878,16.8811873,False,NONE
2019-10-26 09:38:02.660,LG-H970,1572082682670.25,0.052,9.389,-0.445,41.1077878,16.8811873,False,NONE
2019-10-26 09:38:02.680,LG-H970,1572082682688.0,-1.75,9.4,1.506,41.1077878,16.8811873,False,NONE
2019-10-26 09:38:02.700,LG-H970,1572082682708.0,-2.46,12.239,-2.57,41.1077878,16.8811873,False,NONE
2019-10-26 09:38:02.720,LG-H970,1572082682727.75,-3.312,12.228,-0.736,41.1077878,16.8811873,False,NONE
2019-10-26 09:38:02.740,LG-H970,1572082682747.5,-0.526,10.293,1.356,41.1077878,16.8811873,False,NONE
2019-10-26 09:38:02.760,LG-H970,1572082682768.0,0.942,7.863,1.042,41.1077878,16.8811873,False,NONE
2019-10-26 09:38:02.780,LG-H970,1572082682789.6,-1.441,11.254,-0.566,41.1077878,16.8811873,False,NONE
2019-10-26 09:38:02.800,LG-H970,1572082682811.5,-2.169,13.536,-1.791,41.1077878,16.8811873,False,NONE
2019-10-26 09:38:02.820,LG-H970,1572082682832.0,0.005,11.504,1.211,41.1077878,16.8811873,False,NONE
2019-10-26 09:38:02.840,LG-H970,1572082682851.0,1.942,10.095,0.837,41.1077878,16.8811873,False,NONE
2019-10-26 09:38:02.860,LG-H970,1572082682871.0,0.206,10.865,0.662,41.1077878,16.8811873,False,NONE
2019-10-26 09:38:02.880,LG-H970,1572082682890.75,-1.163,11.182,-2.006,41.1077878,16.8811873,False,NONE
2019-10-26 09:38:02.900,LG-H970,1572082682910.5,-0.119,8.191,-1.309,41.1077878,16.8811873,False,NONE
2019-10-26 09:38:02.920,LG-H970,1572082682931.75,1.863,7.415,-0.125,41.1077878,16.8811873,False,NONE
2019-10-26 09:38:02.940,LG-H970,1572082682950.0,1.331,8.148,-1.13,41.1077878,16.8811873,False,NONE
2019-10-26 09:38:02.960,LG-H970,1572082682969.75,0.142,9.162,1.026,41.1077878,16.8811873,False,NONE
2019-10-26 09:38:02.980,LG-H970,1572082682989.75,-0.098,9.111,-0.697,41.1077878,16.8811873,False,NONE
2019-10-26 09:38:03.000,LG-H970,1572082683009.5,-1.96,9.531,-0.49,41.1077878,16.8811873,False,NONE
2019-10-26 09:38:03.020,LG-H970,1572082683028.0,-2.574,8.35,-1.428,41.1077878,16.8811873,False,NONE
2019-10-26 09:38:03.040,LG-H970,1572082683049.8,0.768,7.74,-0.547,41.1077878,16.8811873,False,NONE
2019-10-26 09:38:03.060,LG-H970,1572082683070.6667,1.751,7.286,2.912,41.1077878,16.8811873,False,NONE
2019-10-26 09:38:03.080,LG-H970,1572082683087.75,-1.297,9.925,-2.093,41.1077878,16.8811873,False,NONE
2019-10-26 09:38:03.100,LG-H970,1572082683107.5,-4.205,13.235,-0.66,41.1077878,16.8811873,False,NONE
2019-10-26 09:38:03.120,LG-H970,1572082683129.0,-2.014,8.862,0.872,41.1077878,16.8811873,False,NONE
2019-10-26 09:38:03.140,LG-H970,1572082683149.2,1.749,9.266,0.76,41.1077878,16.8811873,False,NONE
2019-10-26 09:38:03.160,LG-H970,1572082683169.3333,0.304,10.2,1.297,41.1077878,16.8811873,False,NONE
2019-10-26 09:38:03.180,LG-H970,1572082683188.6,-0.503,11.245,-1.299,41.1077878,16.8811873,False,NONE
2019-10-26 09:38:03.200,LG-H970,1572082683210.75,-0.528,11.209,0.094,41.1077878,16.8811873,False,NONE
2019-10-26 09:38:03.220,LG-H970,1572082683230.5,1.214,10.541,0.953,41.1077878,16.8811873,False,NONE
2019-10-26 09:38:03.240,LG-H970,1572082683250.5,1.274,11.299,0.522,41.1077878,16.8811873,False,NONE
2019-10-26 09:38:03.260,LG-H970,1572082683270.25,-1.385,11.437,-1.191,41.1077878,16.8811873,False,NONE
2019-10-26 09:38:03.280,LG-H970,1572082683289.0,-1.984,10.383,0.591,41.1077878,16.8811873,False,NONE
2019-10-26 09:38:03.300,LG-H970,1572082683309.25,-0.052,7.02,0.016,41.1077878,16.8811873,False,NONE
2019-10-26 09:38:03.320,LG-H970,1572082683326.0,-0.672,5.299,0.098,41.1077878,16.8811873,False,NONE
2019-10-26 09:38:03.340,LG-H970,1572082683349.0,-5.364,4.5,-0.271,41.1077878,16.8811873,False,NONE
2019-10-26 09:38:03.360,LG-H970,1572082683368.25,-3.657,9.129,-4.726,41.1077878,16.8811873,False,NONE
2019-10-26 09:38:03.380,LG-H970,1572082683387.5,1.09,6.572,5.295,41.1077878,16.8811873,False,NONE
2019-10-26 09:38:03.400,LG-H970,1572082683407.5,9.066,15.203,1.782,41.1077878,16.8811873,False,NONE
2019-10-26 09:38:03.420,LG-H970,1572082683429.8,2.662,10.833,2.925,41.1077878,16.8811873,False,NONE
2019-10-26 09:38:03.440,LG-H970,1572082683450.3333,-0.261,7.857,2.007,41.1077878,16.8811873,False,NONE
2019-10-26 09:38:03.460,LG-H970,1572082683467.75,-0.301,10.265,-1.469,41.1077878,16.8811873,False,NONE
2019-10-26 09:38:03.480,LG-H970,1572082683489.4,-1.6,13.457,-0.419,41.1077878,16.8811873,False,NONE
2019-10-26 09:38:03.500,LG-H970,1572082683511.25,2.097,10.516,3.589,41.1077878,16.8811873,False,NONE
2019-10-26 09:38:03.520,LG-H970,1572082683530.0,6.842,13.072,4.142,41.1077878,16.8811873,False,NONE
2019-10-26 09:38:03.540,LG-H970,1572082683549.6,-0.065,12.439,2.893,41.1077878,16.8811873,False,NONE
2019-10-26 09:38:03.560,LG-H970,1572082683571.5,-4.801,13.902,-1.228,41.1077878,16.8811873,False,NONE
2019-10-26 09:38:03.580,LG-H970,1572082683591.0,1.68,11.04,1.157,41.1077878,16.8811873,False,NONE
2019-10-26 09:38:03.600,LG-H970,1572082683610.75,3.449,9.35,2.262,41.1077878,16.8811873,False,NONE
2019-10-26 09:38:03.620,LG-H970,1572082683629.75,-2.443,12.619,1.694,41.1077878,16.8811873,False,NONE
2019-10-26 09:38:03.640,LG-H970,1572082683650.0,-4.343,12.178,-1.63,41.1077878,16.8811873,False,NONE
2019-10-26 09:38:03.660,LG-H970,1572082683669.75,0.713,9.817,-1.143,41.1077878,16.8811873,False,NONE
2019-10-26 09:38:03.680,LG-H970,1572082683689.75,3.041,7.98,2.431,41.1077878,16.8811873,False,NONE
2019-10-26 09:38:03.700,LG-H970,1572082683709.0,-0.216,8.053,-2.272,41.1077878,16.8811873,False,NONE
2019-10-26 09:38:03.720,LG-H970,1572082683728.25,-2.567,10.067,-2.19,41.1077878,16.8811873,False,NONE
2019-10-26 09:38:03.740,LG-H970,1572082683747.75,-1.904,10.174,-1.799,41.1077878,16.8811873,False,NONE
2019-10-26 09:38:03.760,LG-H970,1572082683767.75,-0.325,7.623,0.919,41.1077878,16.8811873,False,NONE
2019-10-26 09:38:03.780,LG-H970,1572082683789.8,-0.321,5.086,2.732,41.1077878,16.8811873,False,NONE
2019-10-26 09:38:03.800,LG-H970,1572082683809.6667,-2.555,7.652,0.22,41.1077878,16.8811873,False,NONE
2019-10-26 09:38:03.820,LG-H970,1572082683827.5,-6.057,6.715,-0.665,41.1077878,16.8811873,False,NONE
2019-10-26 09:38:03.840,LG-H970,1572082683847.75,-7.033,4.516,0.605,41.1077878,16.8811873,False,NONE
2019-10-26 09:38:03.860,LG-H970,1572082683870.0,-2.075,9.888,3.085,41.1077878,16.8811873,False,NONE
2019-10-26 09:38:03.880,LG-H970,1572082683891.75,1.583,14.823,-5.196,41.1077878,16.8811873,False,NONE
2019-10-26 09:38:03.900,LG-H970,1572082683911.0,5.506,8.901,7.358,41.1077878,16.8811873,False,NONE
2019-10-26 09:38:03.920,LG-H970,1572082683931.0,7.785,7.575,-2.214,41.1077878,16.8811873,False,NONE
2019-10-26 09:38:03.940,LG-H970,1572082683953.3333,1.423,14.542,-2.262,41.1077878,16.8811873,False,NONE
2019-10-26 09:38:03.960,LG-H970,1572082683970.75,-2.061,11.559,-2.841,41.1077878,16.8811873,False,NONE
2019-10-26 09:38:03.980,LG-H970,1572082683990.0,2.565,4.5,-1.717,41.1077878,16.8811873,False,NONE
2019-10-26 09:38:04.000,LG-H970,1572082684009.75,11.553,11.937,6.554,41.1077878,16.8811873,False,NONE
2019-10-26 09:38:04.020,LG-H970,1572082684029.75,4.403,9.638,1.993,41.1077878,16.8811873,False,NONE
2019-10-26 09:38:04.040,LG-H970,1572082684050.25,-4.363,14.89,-1.397,41.1077878,16.8811873,False,NONE
2019-10-26 09:38:04.060,LG-H970,1572082684069.75,-2.851,15.291,-1.914,41.1077878,16.8811873,False,NONE
2019-10-26 09:38:04.080,LG-H970,1572082684089.0,4.312,11.614,1.677,41.1077878,16.8811873,False,NONE
2019-10-26 09:38:04.100,LG-H970,1572082684108.5,6.144,9.202,4.768,41.1077878,16.8811873,False,NONE
2019-10-26 09:38:04.120,LG-H970,1572082684128.0,-2.615,12.12,-1.555,41.1077878,16.8811873,False,NONE
2019-10-26 09:38:04.140,LG-H970,1572082684147.75,-5.396,15.822,-3.398,41.1077878,16.8811873,False,NONE
2019-10-26 09:38:04.160,LG-H970,1572082684169.8,-0.056,11.242,2.469,41.1077878,16.8811873,False,NONE
2019-10-26 09:38:04.180,LG-H970,1572082684192.25,2.79,7.551,5.724,41.1077878,16.8811873,False,NONE
2019-10-26 09:38:04.200,LG-H970,1572082684212.25,-4.46,10.48,0.741,41.1077878,16.8811873,False,NONE
2019-10-26 09:38:04.220,LG-H970,1572082684231.75,-8.411,14.088,-2.856,41.1077878,16.8811873,False,NONE
2019-10-26 09:38:04.240,LG-H970,1572082684251.5,-3.261,9.869,0.447,41.1077878,16.8811873,False,NONE
2019-10-26 09:38:04.260,LG-H970,1572082684271.0,4.469,4.926,3.064,41.1077878,16.8811873,False,NONE
2019-10-26 09:38:04.280,LG-H970,1572082684290.5,1.556,6.8,0.559,41.1077878,16.8811873,False,NONE
2019-10-26 09:38:04.300,LG-H970,1572082684310.5,-4.028,12.039,-0.845,41.1077878,16.8811873,False,NONE
2019-10-26 09:38:04.320,LG-H970,1572082684330.5,-5.018,10.945,1.178,41.1077878,16.8811873,False,NONE
2019-10-26 09:38:04.340,LG-H970,1572082684350.5,1.166,8.358,4.814,41.1077878,16.8811873,False,NONE
2019-10-26 09:38:04.360,LG-H970,1572082684368.5,1.963,6.904,1.572,41.1077878,16.8811873,False,NONE
2019-10-26 09:38:04.380,LG-H970,1572082684388.5,-2.293,9.893,-2.956,41.1077878,16.8811873,False,NONE
2019-10-26 09:38:04.400,LG-H970,1572082684408.5,-3.459,10.063,-2.667,41.1077878,16.8811873,False,NONE
2019-10-26 09:38:04.420,LG-H970,1572082684429.0,-0.396,5.566,-0.281,41.1077878,16.8811873,False,NONE
2019-10-26 09:38:04.440,LG-H970,1572082684448.0,3.492,9.15,1.174,41.1077878,16.8811873,False,NONE
2019-10-26 09:38:04.460,LG-H970,1572082684467.5,-1.203,8.553,-0.441,41.1077878,16.8811873,False,NONE
2019-10-26 09:38:04.480,LG-H970,1572082684489.2,-3.581,11.329,-0.677,41.1077878,16.8811873,False,NONE
2019-10-26 09:38:04.500,LG-H970,1572082684511.75,2.222,8.935,-1.093,41.1077878,16.8811873,False,NONE
2019-10-26 09:38:04.520,LG-H970,1572082684531.75,3.737,7.383,0.494,41.1077878,16.8811873,False,NONE
2019-10-26 09:38:04.540,LG-H970,1572082684551.5,-0.128,10.395,-2.645,41.1077878,16.8811873,False,NONE
2019-10-26 09:38:04.560,LG-H970,1572082684571.5,-1.2,13.393,-1.538,41.1077878,16.8811873,False,NONE
2019-10-26 09:38:04.580,LG-H970,1572082684591.0,1.067,8.269,-0.379,41.1077878,16.8811873,False,NONE
2019-10-26 09:38:04.600,LG-H970,1572082684610.75,4.04,10.914,2.968,41.1077878,16.8811873,False,NONE
2019-10-26 09:38:04.620,LG-H970,1572082684630.5,-0.389,11.878,-1.808,41.1077878,16.8811873,False,NONE
2019-10-26 09:38:04.640,LG-H970,1572082684650.0,-1.184,12.075,-2.064,41.1077878,16.8811873,False,NONE
2019-10-26 09:38:04.660,LG-H970,1572082684669.5,2.374,7.308,-0.537,41.1077878,16.8811873,False,NONE
2019-10-26 09:38:04.680,LG-H970,1572082684689.5,3.75,7.69,3.165,41.1077878,16.8811873,False,NONE
2019-10-26 09:38:04.700,LG-H970,1572082684709.25,-0.511,9.633,-0.2,41.1077878,16.8811873,False,NONE
2019-10-26 09:38:04.720,LG-H970,1572082684728.75,-6.671,10.73,-1.791,41.1077878,16.8811873,False,NONE
2019-10-26 09:38:04.740,LG-H970,1572082684748.5,-1.165,14.034,-0.437,41.1077878,16.8811873,False,NONE
2019-10-26 09:38:04.760,LG-H970,1572082684768.5,2.654,6.593,2.017,41.1077878,16.8811873,False,NONE
2019-10-26 09:38:04.780,LG-H970,1572082684788.5,2.89,8.166,5.566,41.1077878,16.8811873,False,NONE
2019-10-26 09:38:04.800,LG-H970,1572082684808.75,-3.36,10.58,-1.126,41.1077878,16.8811873,False,NONE
2019-10-26 09:38:04.820,LG-H970,1572082684826.3333,-3.341,15.171,1.072,41.1077878,16.8811873,False,NONE
2019-10-26 09:38:04.840,LG-H970,1572082684850.6,0.151,7.783,2.708,41.1077878,16.8811873,False,NONE
2019-10-26 09:38:04.860,LG-H970,1572082684864.0,1.539,6.465,3.287,41.1077878,16.8811873,False,NONE
2019-10-26 09:38:04.880,LG-H970,1572082684889.4,-2.159,11.03,-1.484,41.1077878,16.8811873,True,NONE
2019-10-26 09:38:04.900,LG-H970,1572082684910.0,-3.426,12.326,-1.001,41.1077878,16.8811873,False,NONE
2019-10-26 09:38:04.920,LG-H970,1572082684930.5,0.901,9.172,1.764,41.1077878,16.8811873,False,NONE
2019-10-26 09:38:04.940,LG-H970,1572082684951.0,2.101,9.165,2.539,41.1077878,16.8811873,False,NONE
2019-10-26 09:38:04.960,LG-H970,1572082684970.75,-2.828,10.583,0.68,41.1077878,16.8811873,False,NONE
2019-10-26 09:38:04.980,LG-H970,1572082684990.5,-5.335,12.257,-2.784,41.1077878,16.8811873,False,NONE
2019-10-26 09:38:05.000,LG-H970,1572082685010.5,-1.581,8.837,-0.956,41.1077878,16.8811873,False,NONE
2019-10-26 09:38:05.020,LG-H970,1572082685030.5,3.134,6.679,0.761,41.1077878,16.8811873,False,NONE
2019-10-26 09:38:05.040,LG-H970,1572082685050.0,0.373,8.398,0.404,41.1077878,16.8811873,False,NONE
2019-10-26 09:38:05.060,LG-H970,1572082685069.5,-5.479,10.78,-1.206,41.1077878,16.8811873,False,NONE
2019-10-26 09:38:05.080,LG-H970,1572082685089.0,-4.53,13.487,0.126,41.1077878,16.8811873,False,NONE
2019-10-26 09:38:05.100,LG-H970,1572082685108.5,0.622,10.244,0.103,41.1077878,16.8811873,False,NONE
2019-10-26 09:38:05.120,LG-H970,1572082685128.5,2.224,9.612,3.085,41.1077878,16.8811873,False,NONE
2019-10-26 09:38:05.140,LG-H970,1572082685148.5,-0.057,10.114,-2.076,41.1077878,16.8811873,False,NONE
2019-10-26 09:38:05.160,LG-H970,1572082685168.0,-2.372,11.255,-1.976,41.1077878,16.8811873,False,NONE
2019-10-26 09:38:05.180,LG-H970,1572082685187.5,-0.733,9.919,-1.579,41.1077878,16.8811873,False,NONE
2019-10-26 09:38:05.200,LG-H970,1572082685208.0,2.983,10.587,1.218,41.1077878,16.8811873,False,NONE
2019-10-26 09:38:05.220,LG-H970,1572082685229.4,2.858,9.962,2.529,41.1077878,16.8811873,False,NONE
2019-10-26 09:38:05.240,LG-H970,1572082685251.75,-1.605,11.416,-0.519,41.1077878,16.8811873,False,NONE
2019-10-26 09:38:05.260,LG-H970,1572082685269.3333,-5.736,11.357,-2.722,41.1077878,16.8811873,False,NONE
2019-10-26 09:38:05.280,LG-H970,1572082685286.75,-1.34,11.83,0.745,41.1077878,16.8811873,False,NONE
2019-10-26 09:38:05.300,LG-H970,1572082685309.0,4.15,6.191,0.081,41.1077878,16.8811873,False,NONE
2019-10-26 09:38:05.320,LG-H970,1572082685331.0,1.263,7.498,1.186,41.1077878,16.8811873,False,NONE
2019-10-26 09:38:05.340,LG-H970,1572082685348.6667,-2.337,10.105,-3.999,41.1077878,16.8811873,False,NONE
2019-10-26 09:38:05.360,LG-H970,1572082685368.4,-2.327,9.973,-0.313,41.1077878,16.8811873,False,NONE
2019-10-26 09:38:05.380,LG-H970,1572082685389.0,2.196,8.726,0.377,41.1077878,16.8811873,False,NONE
2019-10-26 09:38:05.400,LG-H970,1572082685408.75,2.239,9.854,1.609,41.1077878,16.8811873,False,NONE
2019-10-26 09:38:05.420,LG-H970,1572082685428.5,-2.785,10.243,-2.233,41.1077878,16.8811873,False,NONE
2019-10-26 09:38:05.440,LG-H970,1572082685449.0,-2.834,10.367,-0.045,41.1077878,16.8811873,False,NONE
2019-10-26 09:38:05.460,LG-H970,1572082685469.0,1.457,7.997,-0.73,41.1077878,16.8811873,False,NONE
2019-10-26 09:38:05.480,LG-H970,1572082685489.4,0.357,8.79,0.942,41.1077878,16.8811873,False,NONE
2019-10-26 09:38:05.500,LG-H970,1572082685510.0,-3.59,11.343,-2.638,41.1077878,16.8811873,False,NONE
2019-10-26 09:38:05.520,LG-H970,1572082685527.5,-4.649,11.82,-2.438,41.1077878,16.8811873,False,NONE
2019-10-26 09:38:05.540,LG-H970,1572082685550.0,-0.501,8.942,0.803,41.1077878,16.8811873,False,NONE
2019-10-26 09:38:05.560,LG-H970,1572082685570.0,2.212,7.64,0.169,41.1077878,16.8811873,False,NONE
2019-10-26 09:38:05.580,LG-H970,1572082685590.0,-0.398,10.511,0.696,41.1077878,16.8811873,False,NONE
2019-10-26 09:38:05.600,LG-H970,1572082685612.0,-3.79,13.085,-2.12,41.1077878,16.8811873,False,NONE
2019-10-26 09:38:05.620,LG-H970,1572082685631.25,-1.269,10.613,1.375,41.1077878,16.8811873,False,NONE
2019-10-26 09:38:05.640,LG-H970,1572082685651.5,2.692,7.423,0.71,41.1077878,16.8811873,False,NONE
2019-10-26 09:38:05.660,LG-H970,1572082685671.0,1.416,10.779,0.037,41.1077878,16.8811873,False,NONE
2019-10-26 09:38:05.680,LG-H970,1572082685690.5,-3.338,10.369,-3.69,41.1077878,16.8811873,False,NONE
2019-10-26 09:38:05.700,LG-H970,1572082685710.25,-1.677,10.353,-0.211,41.1077878,16.8811873,False,NONE
2019-10-26 09:38:05.720,LG-H970,1572082685730.0,1.889,8.261,-0.157,41.1077878,16.8811873,False,NONE
2019-10-26 09:38:05.740,LG-H970,1572082685750.25,2.013,10.016,1.828,41.1077878,16.8811873,False,NONE
2019-10-26 09:38:05.760,LG-H970,1572082685769.25,-0.913,10.386,-2.927,41.1077878,16.8811873,False,NONE
2019-10-26 09:38:05.780,LG-H970,1572082685788.5,-2.546,10.568,-1.191,41.1077878,16.8811873,False,NONE
2019-10-26 09:38:05.800,LG-H970,1572082685808.75,-0.993,9.301,-2.018,41.1077878,16.8811873,False,NONE
2019-10-26 09:38:05.820,LG-H970,1572082685829.0,1.232,10.802,0.014,41.1077878,16.8811873,False,NONE
2019-10-26 09:38:05.840,LG-H970,1572082685848.25,-0.381,9.394,0.936,41.1077878,16.8811873,False,NONE
2019-10-26 09:38:05.860,LG-H970,1572082685867.5,-2.04,9.187,-1.077,41.1077878,16.8811873,False,NONE
2019-10-26 09:38:05.880,LG-H970,1572082685889.2,-0.943,8.225,-2.006,41.1077878,16.8811873,False,NONE
2019-10-26 09:38:05.900,LG-H970,1572082685911.5,0.488,5.49,-0.944,41.1077878,16.8811873,False,NONE
2019-10-26 09:38:05.920,LG-H970,1572082685932.5,1.007,9.233,-0.036,41.1077878,16.8811873,False,NONE
2019-10-26 09:38:05.940,LG-H970,1572082685948.3333,-1.56,9.86,-0.743,41.1077878,16.8811873,False,NONE
2019-10-26 09:38:05.960,LG-H970,1572082685968.6,-1.698,12.712,0.242,41.1077878,16.8811873,False,NONE
2019-10-26 09:38:05.980,LG-H970,1572082685990.5,-1.155,8.299,0.327,41.1077878,16.8811873,False,NONE
2019-10-26 09:38:06.000,LG-H970,1572082686010.75,1.004,9.125,0.124,41.1077878,16.8811873,False,NONE
2019-10-26 09:38:06.020,LG-H970,1572082686030.25,-1.44,7.554,-2.283,41.1077878,16.8811873,False,NONE
2019-10-26 09:38:06.040,LG-H970,1572082686050.0,-2.546,11.664,-1.516,41.1077878,16.8811873,False,NONE
2019-10-26 09:38:06.060,LG-H970,1572082686069.5,-0.927,9.314,-1.224,41.1077878,16.8811873,False,NONE
2019-10-26 09:38:06.080,LG-H970,1572082686089.0,3.05,10.304,2.197,41.1077878,16.8811873,False,NONE
2019-10-26 09:38:06.100,LG-H970,1572082686108.5,0.786,8.712,0.111,41.1077878,16.8811873,False,NONE
2019-10-26 09:38:06.120,LG-H970,1572082686128.5,-2.302,12.39,-2.107,41.1077878,16.8811873,False,NONE
2019-10-26 09:38:06.140,LG-H970,1572082686148.5,-1.522,12.506,-2.074,41.1077878,16.8811873,False,NONE
2019-10-26 09:38:06.160,LG-H970,1572082686168.5,1.022,8.653,-0.9,41.1077878,16.8811873,False,NONE
2019-10-26 09:38:06.180,LG-H970,1572082686188.5,2.318,9.372,2.426,41.1077878,16.8811873,False,NONE
2019-10-26 09:38:06.200,LG-H970,1572082686208.0,1.374,10.133,-1.635,41.1077878,16.8811873,False,NONE
2019-10-26 09:38:06.220,LG-H970,1572082686228.0,-0.163,13.223,-2.236,41.1077878,16.8811873,False,NONE
2019-10-26 09:38:06.240,LG-H970,1572082686248.0,-1.246,10.425,-0.586,41.1077878,16.8811873,False,NONE
2019-10-26 09:38:06.260,LG-H970,1572082686270.0,1.619,10.166,0.559,41.1077878,16.8811873,False,NONE
2019-10-26 09:38:06.280,LG-H970,1572082686289.3333,0.536,9.216,1.341,41.1077878,16.8811873,False,NONE
2019-10-26 09:38:06.300,LG-H970,1572082686307.25,-1.951,10.231,-1.621,41.1077878,16.8811873,False,NONE
2019-10-26 09:38:06.320,LG-H970,1572082686327.25,-2.862,10.466,-1.664,41.1077878,16.8811873,False,NONE
2019-10-26 09:38:06.340,LG-H970,1572082686345.6667,-0.594,9.512,-1.454,41.1077878,16.8811873,False,NONE
2019-10-26 09:38:06.360,LG-H970,1572082686364.3333,0.458,8.689,0.017,41.1077878,16.8811873,False,NONE
2019-10-26 09:38:06.380,LG-H970,1572082686364.3333,0.458,8.689,0.017,41.1077878,16.8811873,False,NONE
2019-10-26 09:38:06.400,LG-H970,1572082686411.6667,-2.62,11.497,1.173,41.1077878,16.8811873,False,NONE
2019-10-26 09:38:06.420,LG-H970,1572082686429.0,-1.24,8.096,1.603,41.1077878,16.8811873,False,NONE
2019-10-26 09:38:06.440,LG-H970,1572082686449.0,1.533,9.823,0.255,41.1077878,16.8811873,False,NONE
2019-10-26 09:38:06.460,LG-H970,1572082686468.5,-0.365,9.339,-1.284,41.1077878,16.8811873,False,NONE
2019-10-26 09:38:06.480,LG-H970,1572082686489.75,-3.165,10.291,-2.349,41.1077878,16.8811873,False,NONE
2019-10-26 09:38:06.500,LG-H970,1572082686508.25,-3.04,8.91,-0.133,41.1077878,16.8811873,False,NONE
2019-10-26 09:38:06.520,LG-H970,1572082686528.0,0.377,8.792,0.132,41.1077878,16.8811873,False,NONE
2019-10-26 09:38:06.540,LG-H970,1572082686547.75,0.254,9.736,0.735,41.1077878,16.8811873,False,NONE
2019-10-26 09:38:06.560,LG-H970,1572082686567.5,-1.548,10.67,-2.497,41.1077878,16.8811873,False,NONE
2019-10-26 09:38:06.580,LG-H970,1572082686587.5,-1.95,9.427,-0.986,41.1077878,16.8811873,False,NONE
2019-10-26 09:38:06.600,LG-H970,1572082686609.6,0.249,8.991,-0.283,41.1077878,16.8811873,False,NONE
2019-10-26 09:38:06.620,LG-H970,1572082686631.5,0.178,10.506,-1.284,41.1077878,16.8811873,False,NONE
2019-10-26 09:38:06.640,LG-H970,1572082686651.5,-1.96,9.997,-1.644,41.1077878,16.8811873,False,NONE
2019-10-26 09:38:06.660,LG-H970,1572082686671.5,-0.481,9.949,-2.185,41.1077878,16.8811873,False,NONE
2019-10-26 09:38:06.680,LG-H970,1572082686690.75,1.838,9.579,-0.34,41.1077878,16.8811873,False,NONE
2019-10-26 09:38:06.700,LG-H970,1572082686710.75,1.056,8.831,0.336,41.1077878,16.8811873,False,NONE
2019-10-26 09:38:06.720,LG-H970,1572082686730.5,-0.123,11.456,-0.982,41.1077878,16.8811873,False,NONE
2019-10-26 09:38:06.740,LG-H970,1572082686750.0,-1.581,10.343,-0.906,41.1077878,16.8811873,False,NONE
2019-10-26 09:38:06.760,LG-H970,1572082686770.0,0.114,9.903,-1.809,41.1077878,16.8811873,False,NONE
2019-10-26 09:38:06.780,LG-H970,1572082686789.25,1.201,9.931,0.03,41.1077878,16.8811873,False,NONE
2019-10-26 09:38:06.800,LG-H970,1572082686809.5,0.97,9.699,-0.347,41.1077878,16.8811873,False,NONE
2019-10-26 09:38:06.820,LG-H970,1572082686829.0,0.038,10.378,0.993,41.1077878,16.8811873,False,NONE
2019-10-26 09:38:06.840,LG-H970,1572082686849.0,-1.159,10.436,-0.148,41.1077878,16.8811873,False,NONE
2019-10-26 09:38:06.860,LG-H970,1572082686867.5,-0.793,10.841,-0.069,41.1077878,16.8811873,False,NONE
2019-10-26 09:38:06.880,LG-H970,1572082686887.5,0.39,10.855,-1.369,41.1077878,16.8811873,False,NONE
2019-10-26 09:38:06.900,LG-H970,1572082686907.5,-0.276,9.104,-0.34,41.1077878,16.8811873,False,NONE
2019-10-26 09:38:06.920,LG-H970,1572082686927.75,-1.363,9.653,-1.138,41.1077878,16.8811873,False,NONE
2019-10-26 09:38:06.940,LG-H970,1572082686944.6667,-2.852,8.415,0.138,41.1077878,16.8811873,False,NONE
2019-10-26 09:38:06.960,LG-H970,1572082686969.6,-0.879,10.129,-1.095,41.1077878,16.8811873,False,NONE
2019-10-26 09:38:06.980,LG-H970,1572082686990.5,-1.781,8.557,1.372,41.1077878,16.8811873,False,NONE
2019-10-26 09:38:07.000,LG-H970,1572082687011.25,-1.456,9.409,-1.504,41.1077878,16.8811873,False,NONE
2019-10-26 09:38:07.020,LG-H970,1572082687030.5,-1.42,10.021,-0.624,41.1077878,16.8811873,False,NONE
2019-10-26 09:38:07.040,LG-H970,1572082687051.0,-0.668,11.331,-0.043,41.1077878,16.8811873,False,NONE
2019-10-26 09:38:07.060,LG-H970,1572082687070.0,-0.315,9.682,-0.058,41.1077878,16.8811873,False,NONE
2019-10-26 09:38:07.080,LG-H970,1572082687089.75,-1.021,8.877,1.713,41.1077878,16.8811873,False,NONE
2019-10-26 09:38:07.100,LG-H970,1572082687109.75,-1.587,9.345,-1.874,41.1077878,16.8811873,False,NONE
2019-10-26 09:38:07.120,LG-H970,1572082687129.5,-2.073,9.906,0.16,41.1077878,16.8811873,False,NONE
2019-10-26 09:38:07.140,LG-H970,1572082687149.5,-0.263,9.172,-0.405,41.1077878,16.8811873,False,NONE
2019-10-26 09:38:07.160,LG-H970,1572082687168.75,0.75,10.064,1.424,41.1077878,16.8811873,False,NONE
2019-10-26 09:38:07.180,LG-H970,1572082687188.25,-1.114,11.063,-0.596,41.1077878,16.8811873,False,NONE
2019-10-26 09:38:07.200,LG-H970,1572082687208.0,-2.262,11.115,0.383,41.1077878,16.8811873,False,NONE
2019-10-26 09:38:07.220,LG-H970,1572082687227.75,0.261,8.05,-1.52,41.1077878,16.8811873,False,NONE
2019-10-26 09:38:07.240,LG-H970,1572082687247.5,1.803,7.974,0.808,41.1077878,16.8811873,False,NONE
2019-10-26 09:38:07.260,LG-H970,1572082687267.5,0.099,10.436,-0.241,41.1077878,16.8811873,False,NONE
2019-10-26 09:38:07.280,LG-H970,1572082687290.0,-2.879,10.713,-0.214,41.1077878,16.8811873,False,NONE
2019-10-26 09:38:07.300,LG-H970,1572082687311.75,-1.259,10.708,-0.386,41.1077878,16.8811873,False,NONE
2019-10-26 09:38:07.320,LG-H970,1572082687329.3333,0.416,9.061,-0.797,41.1077878,16.8811873,False,NONE
2019-10-26 09:38:07.340,LG-H970,1572082687345.6667,1.002,9.479,2.166,41.1077878,16.8811873,False,NONE
2019-10-26 09:38:07.360,LG-H970,1572082687369.6,-0.133,9.736,-0.873,41.1077878,16.8811873,False,NONE
2019-10-26 09:38:07.380,LG-H970,1572082687390.25,-2.04,9.984,0.336,41.1077878,16.8811873,False,NONE
2019-10-26 09:38:07.400,LG-H970,1572082687410.5,-1.119,10.877,-0.388,41.1077878,16.8811873,False,NONE
2019-10-26 09:38:07.420,LG-H970,1572082687430.5,-0.383,10.311,0.905,41.1077878,16.8811873,False,NONE
2019-10-26 09:38:07.440,LG-H970,1572082687449.75,-0.029,8.28,-1.05,41.1077878,16.8811873,False,NONE
2019-10-26 09:38:07.460,LG-H970,1572082687471.0,-0.09,9.981,0.764,41.1077878,16.8811873,False,NONE
2019-10-26 09:38:07.480,LG-H970,1572082687488.5,-1.545,8.771,-0.718,41.1077878,16.8811873,False,NONE
2019-10-26 09:38:07.500,LG-H970,1572082687508.5,-1.39,10.862,0.944,41.1077878,16.8811873,False,NONE
2019-10-26 09:38:07.520,LG-H970,1572082687528.5,-1.27,9.779,0.689,41.1077878,16.8811873,False,NONE
2019-10-26 09:38:07.540,LG-H970,1572082687548.5,0.459,10.869,-0.356,41.1077878,16.8811873,False,NONE
2019-10-26 09:38:07.560,LG-H970,1572082687568.5,0.008,9.552,0.856,41.1077878,16.8811873,False,NONE
2019-10-26 09:38:07.580,LG-H970,1572082687587.5,-0.295,9.797,0.412,41.1077878,16.8811873,False,NONE
2019-10-26 09:38:07.600,LG-H970,1572082687607.5,-0.672,9.457,0.509,41.1077878,16.8811873,False,NONE
2019-10-26 09:38:07.620,LG-H970,1572082687629.8,-0.527,10.542,0.763,41.1077878,16.8811873,False,NONE
2019-10-26 09:38:07.640,LG-H970,1572082687652.0,-0.816,10.513,0.055,41.1077878,16.8811873,False,NONE
2019-10-26 09:38:07.660,LG-H970,1572082687671.25,-1.483,8.776,0.679,41.1077878,16.8811873,False,NONE
2019-10-26 09:38:07.680,LG-H970,1572082687690.5,-1.438,8.33,-1.673,41.1077878,16.8811873,False,NONE
2019-10-26 09:38:07.700,LG-H970,1572082687710.5,-2.066,8.972,-0.64,41.1077878,16.8811873,False,NONE
2019-10-26 09:38:07.720,LG-H970,1572082687730.5,-1.214,8.953,0.771,41.1077878,16.8811873,False,NONE
2019-10-26 09:38:07.740,LG-H970,1572082687750.25,2.586,12.472,1.506,41.1077878,16.8811873,False,NONE
2019-10-26 09:38:07.760,LG-H970,1572082687770.0,1.261,10.841,2.202,41.1077878,16.8811873,False,NONE
2019-10-26 09:38:07.780,LG-H970,1572082687789.25,-1.232,10.657,0.243,41.1077878,16.8811873,False,NONE
2019-10-26 09:38:07.800,LG-H970,1572082687808.75,-1.839,11.412,-1.655,41.1077878,16.8811873,False,NONE
2019-10-26 09:38:07.820,LG-H970,1572082687828.75,0.598,10.807,0.319,41.1077878,16.8811873,False,NONE
2019-10-26 09:38:07.840,LG-H970,1572082687848.75,1.988,9.277,1.142,41.1077878,16.8811873,False,NONE
2019-10-26 09:38:07.860,LG-H970,1572082687867.5,0.552,11.665,0.819,41.1077878,16.8811873,False,NONE
2019-10-26 09:38:07.880,LG-H970,1572082687887.5,-2.224,10.438,-0.47,41.1077878,16.8811873,False,NONE
2019-10-26 09:38:07.900,LG-H970,1572082687907.25,-0.229,10.541,-0.244,41.1077878,16.8811873,False,NONE
2019-10-26 09:38:07.920,LG-H970,1572082687929.8,1.754,9.479,-0.048,41.1077878,16.8811873,False,NONE
2019-10-26 09:38:07.940,LG-H970,1572082687950.0,0.137,8.662,0.975,41.1077878,16.8811873,False,NONE
2019-10-26 09:38:07.960,LG-H970,1572082687969.2,-2.077,10.133,-0.18,41.1077878,16.8811873,False,NONE
2019-10-26 09:38:07.980,LG-H970,1572082687991.5,-2.004,10.954,0.914,41.1077878,16.8811873,False,NONE
2019-10-26 09:38:08.000,LG-H970,1572082688012.25,-0.751,9.734,0.824,41.1077878,16.8811873,False,NONE
2019-10-26 09:38:08.020,LG-H970,1572082688031.75,-0.98,10.377,0.665,41.1077878,16.8811873,False,NONE
2019-10-26 09:38:08.040,LG-H970,1572082688051.5,-0.879,9.766,-0.724,41.1077878,16.8811873,False,NONE
2019-10-26 09:38:08.060,LG-H970,1572082688071.5,0.5,10.221,0.612,41.1077878,16.8811873,False,NONE
2019-10-26 09:38:08.080,LG-H970,1572082688090.75,-0.947,8.98,0.096,41.1077878,16.8811873,False,NONE
2019-10-26 09:38:08.100,LG-H970,1572082688110.5,-1.669,10.929,1.208,41.1077878,16.8811873,False,NONE
2019-10-26 09:38:08.120,LG-H970,1572082688130.5,-0.139,10.59,-1.036,41.1077878,16.8811873,False,NONE
2019-10-26 09:38:08.140,LG-H970,1572082688150.25,1.386,8.138,0.118,41.1077878,16.8811873,False,NONE
2019-10-26 09:38:08.160,LG-H970,1572082688169.75,1.142,6.231,-0.552,41.1077878,16.8811873,False,NONE
2019-10-26 09:38:08.180,LG-H970,1572082688190.0,-0.038,8.0,-1.157,41.1077878,16.8811873,False,NONE
2019-10-26 09:38:08.200,LG-H970,1572082688210.0,-3.311,5.87,-0.841,41.1077878,16.8811873,False,NONE
2019-10-26 09:38:08.220,LG-H970,1572082688229.5,-2.13,10.869,2.709,41.1077878,16.8811873,False,NONE
2019-10-26 09:38:08.240,LG-H970,1572082688249.75,-0.129,12.099,2.089,41.1077878,16.8811873,False,NONE
2019-10-26 09:38:08.260,LG-H970,1572082688270.0,-3.824,13.138,-0.29,41.1077878,16.8811873,False,NONE
2019-10-26 09:38:08.280,LG-H970,1572082688288.75,-3.335,9.958,-3.483,41.1077878,16.8811873,False,NONE
2019-10-26 09:38:08.300,LG-H970,1572082688308.75,3.771,9.692,4.269,41.1077878,16.8811873,False,NONE
2019-10-26 09:38:08.320,LG-H970,1572082688328.5,-0.014,5.403,-0.031,41.1077878,16.8811873,False,NONE
2019-10-26 09:38:08.340,LG-H970,1572082688347.75,-5.853,10.999,-3.35,41.1077878,16.8811873,False,NONE
2019-10-26 09:38:08.360,LG-H970,1572082688368.75,-1.544,17.587,-0.037,41.1077878,16.8811873,False,NONE
2019-10-26 09:38:08.380,LG-H970,1572082688389.4,2.054,8.406,2.623,41.1077878,16.8811873,False,NONE
2019-10-26 09:38:08.400,LG-H970,1572082688411.75,0.876,6.113,1.277,41.1077878,16.8811873,False,NONE
2019-10-26 09:38:08.420,LG-H970,1572082688431.5,-1.856,10.942,-4.264,41.1077878,16.8811873,False,NONE
2019-10-26 09:38:08.440,LG-H970,1572082688451.5,-2.393,11.064,-2.019,41.1077878,16.8811873,False,NONE
2019-10-26 09:38:08.460,LG-H970,1572082688471.5,0.164,7.674,0.418,41.1077878,16.8811873,False,NONE
2019-10-26 09:38:08.480,LG-H970,1572082688490.5,2.337,7.923,2.975,41.1077878,16.8811873,False,NONE
2019-10-26 09:38:08.500,LG-H970,1572082688509.5,0.074,11.143,-0.077,41.1077878,16.8811873,False,NONE
2019-10-26 09:38:08.520,LG-H970,1572082688530.5,-2.773,14.842,-2.05,41.1077878,16.8811873,False,NONE
2019-10-26 09:38:08.540,LG-H970,1572082688550.5,-3.787,9.562,0.758,41.1077878,16.8811873,False,NONE
2019-10-26 09:38:08.560,LG-H970,1572082688569.75,2.648,8.357,1.843,41.1077878,16.8811873,False,NONE
2019-10-26 09:38:08.580,LG-H970,1572082688589.75,1.652,8.205,0.067,41.1077878,16.8811873,False,NONE
2019-10-26 09:38:08.600,LG-H970,1572082688609.5,-3.504,11.377,-1.078,41.1077878,16.8811873,False,NONE
2019-10-26 09:38:08.620,LG-H970,1572082688629.75,-2.856,12.919,-0.377,41.1077878,16.8811873,False,NONE
2019-10-26 09:38:08.640,LG-H970,1572082688650.3333,2.356,9.081,1.743,41.1077878,16.8811873,False,NONE
2019-10-26 09:38:08.660,LG-H970,1572082688668.0,4.937,10.095,2.714,41.1077878,16.8811873,False,NONE
2019-10-26 09:38:08.680,LG-H970,1572082688687.5,-0.183,11.119,0.388,41.1077878,16.8811873,False,NONE
2019-10-26 09:38:08.700,LG-H970,1572082688707.0,-1.413,11.786,-0.829,41.1077878,16.8811873,False,NONE
2019-10-26 09:38:08.720,LG-H970,1572082688727.5,-0.336,8.759,0.382,41.1077878,16.8811873,False,NONE
2019-10-26 09:38:08.740,LG-H970,1572082688747.5,1.384,7.874,4.45,41.1077878,16.8811873,False,NONE
2019-10-26 09:38:08.760,LG-H970,1572082688769.4,-1.002,8.738,-1.976,41.1077878,16.8811873,False,NONE
2019-10-26 09:38:08.780,LG-H970,1572082688791.75,-5.626,12.813,-2.631,41.1077878,16.8811873,False,NONE
2019-10-26 09:38:08.800,LG-H970,1572082688810.75,-2.728,8.713,-0.747,41.1077878,16.8811873,False,NONE
2019-10-26 09:38:08.820,LG-H970,1572082688830.5,4.2,7.298,3.819,41.1077878,16.8811873,False,NONE
2019-10-26 09:38:08.840,LG-H970,1572082688850.75,-0.357,9.198,-1.937,41.1077878,16.8811873,False,NONE
2019-10-26 09:38:08.860,LG-H970,1572082688870.75,-7.149,11.428,-0.393,41.1077878,16.8811873,False,NONE
2019-10-26 09:38:08.880,LG-H970,1572082688890.75,-3.49,11.437,-0.534,41.1077878,16.8811873,False,NONE
2019-10-26 09:38:08.900,LG-H970,1572082688911.0,1.829,7.446,-0.537,41.1077878,16.8811873,False,NONE
2019-10-26 09:38:08.920,LG-H970,1572082688930.75,1.233,9.114,2.48,41.1077878,16.8811873,False,NONE
2019-10-26 09:38:08.940,LG-H970,1572082688950.75,-3.725,10.092,-0.947,41.1077878,16.8811873,False,NONE
2019-10-26 09:38:08.960,LG-H970,1572082688970.0,-5.048,11.284,-0.273,41.1077878,16.8811873,False,NONE
2019-10-26 09:38:08.980,LG-H970,1572082688989.5,-0.035,10.621,1.752,41.1077878,16.8811873,False,NONE
2019-10-26 09:38:09.000,LG-H970,1572082689009.25,2.939,8.722,1.203,41.1077878,16.8811873,False,NONE
2019-10-26 09:38:09.020,LG-H970,1572082689029.25,-0.192,9.131,-0.231,41.1077878,16.8811873,False,NONE
2019-10-26 09:38:09.040,LG-H970,1572082689048.5,-4.126,10.317,-2.521,41.1077878,16.8811873,False,NONE
2019-10-26 09:38:09.060,LG-H970,1572082689068.5,-1.886,10.804,-1.312,41.1077878,16.8811873,False,NONE
2019-10-26 09:38:09.080,LG-H970,1572082689088.5,0.722,7.788,3.271,41.1077878,16.8811873,False,NONE
2019-10-26 09:38:09.100,LG-H970,1572082689108.5,1.72,11.901,0.868,41.1077878,16.8811873,False,NONE
2019-10-26 09:38:09.120,LG-H970,1572082689128.0,-4.053,11.308,-0.943,41.1077878,16.8811873,False,NONE
2019-10-26 09:38:09.140,LG-H970,1572082689148.0,-2.309,11.705,-0.553,41.1077878,16.8811873,False,NONE
2019-10-26 09:38:09.160,LG-H970,1572082689167.5,1.508,6.681,-1.263,41.1077878,16.8811873,False,NONE
2019-10-26 09:38:09.180,LG-H970,1572082689187.5,2.75,9.534,3.067,41.1077878,16.8811873,False,NONE
2019-10-26 09:38:09.200,LG-H970,1572082689209.6,-0.131,9.996,-1.843,41.1077878,16.8811873,False,NONE
2019-10-26 09:38:09.220,LG-H970,1572082689231.75,-1.022,11.702,-0.911,41.1077878,16.8811873,False,NONE
2019-10-26 09:38:09.240,LG-H970,1572082689251.5,0.344,8.899,-1.464,41.1077878,16.8811873,False,NONE
2019-10-26 09:38:09.260,LG-H970,1572082689271.5,1.715,8.345,2.035,41.1077878,16.8811873,False,NONE
2019-10-26 09:38:09.280,LG-H970,1572082689291.25,-0.39,10.434,0.598,41.1077878,16.8811873,False,NONE
2019-10-26 09:38:09.300,LG-H970,1572082689310.75,-3.828,12.164,0.468,41.1077878,16.8811873,False,NONE
2019-10-26 09:38:09.320,LG-H970,1572082689330.75,-2.503,10.82,0.355,41.1077878,16.8811873,False,NONE
2019-10-26 09:38:09.340,LG-H970,1572082689348.6667,0.177,7.657,-0.975,41.1077878,16.8811873,False,NONE
2019-10-26 09:38:09.360,LG-H970,1572082689369.2,1.187,7.971,0.085,41.1077878,16.8811873,False,NONE
2019-10-26 09:38:09.380,LG-H970,1572082689390.0,-0.979,7.061,-2.127,41.1077878,16.8811873,False,NONE
2019-10-26 09:38:09.400,LG-H970,1572082689408.75,-1.362,10.244,-0.27,41.1077878,16.8811873,False,NONE
2019-10-26 09:38:09.420,LG-H970,1572082689427.0,-1.705,9.463,-0.39,41.1077878,16.8811873,False,NONE
2019-10-26 09:38:09.440,LG-H970,1572082689448.25,-0.625,10.529,1.517,41.1077878,16.8811873,False,NONE
2019-10-26 09:38:09.460,LG-H970,1572082689468.0,-0.79,9.037,0.742,41.1077878,16.8811873,False,NONE
2019-10-26 09:38:09.480,LG-H970,1572082689489.8,-0.836,10.387,-0.302,41.1077878,16.8811873,False,NONE
2019-10-26 09:38:09.500,LG-H970,1572082689512.25,-1.71,10.707,-0.872,41.1077878,16.8811873,False,NONE
2019-10-26 09:38:09.520,LG-H970,1572082689532.25,-0.735,11.342,1.045,41.1077878,16.8811873,False,NONE
2019-10-26 09:38:09.540,LG-H970,1572082689552.0,0.846,10.777,0.641,41.1077878,16.8811873,False,NONE
2019-10-26 09:38:09.560,LG-H970,1572082689571.75,-0.119,11.341,1.215,41.1077878,16.8811873,False,NONE
2019-10-26 09:38:09.580,LG-H970,1572082689591.75,-1.552,9.949,0.314,41.1077878,16.8811873,False,NONE
2019-10-26 09:38:09.600,LG-H970,1572082689611.75,-1.387,8.867,-0.943,41.1077878,16.8811873,False,NONE
2019-10-26 09:38:09.620,LG-H970,1572082689631.5,-1.65,10.117,-0.164,41.1077878,16.8811873,False,NONE
2019-10-26 09:38:09.640,LG-H970,1572082689651.0,-2.011,10.298,-1.836,41.1077878,16.8811873,False,NONE
2019-10-26 09:38:09.660,LG-H970,1572082689670.75,-1.088,10.296,0.975,41.1077878,16.8811873,False,NONE
2019-10-26 09:38:09.680,LG-H970,1572082689690.5,1.798,10.574,0.35,41.1077878,16.8811873,False,NONE
2019-10-26 09:38:09.700,LG-H970,1572082689710.5,1.277,10.085,1.731,41.1077878,16.8811873,False,NONE
2019-10-26 09:38:09.720,LG-H970,1572082689730.25,-2.02,10.534,-0.951,41.1077878,16.8811873,False,NONE
2019-10-26 09:38:09.740,LG-H970,1572082689750.5,-3.013,11.783,-0.903,41.1077878,16.8811873,False,NONE
2019-10-26 09:38:09.760,LG-H970,1572082689770.25,-0.663,9.63,0.708,41.1077878,16.8811873,False,NONE
2019-10-26 09:38:09.780,LG-H970,1572082689790.25,1.378,9.02,1.467,41.1077878,16.8811873,False,NONE
2019-10-26 09:38:09.800,LG-H970,1572082689809.75,-0.976,9.9,0.251,41.1077878,16.8811873,False,NONE
2019-10-26 09:38:09.820,LG-H970,1572082689829.25,-3.355,11.759,0.231,41.1077878,16.8811873,False,NONE
2019-10-26 09:38:09.840,LG-H970,1572082689849.0,-1.748,11.951,-0.321,41.1077878,16.8811873,False,NONE
2019-10-26 09:38:09.860,LG-H970,1572082689872.5,1.041,10.149,1.832,41.1077878,16.8811873,False,NONE
