UTC_timestamp,device_name,timestamp,x,y,z,lat,long,event,speed
2019-10-26 10:42:20.300,LG-H970,1572086540309.6,-1.198,10.622,-0.772,41.1054967,16.8785805,False,NONE
2019-10-26 10:42:20.320,LG-H970,1572086540331.5,-0.389,10.081,0.102,41.1054967,16.8785805,False,NONE
2019-10-26 10:42:20.340,LG-H970,1572086540351.5,-0.455,9.069,-0.513,41.1054967,16.8785805,False,NONE
2019-10-26 10:42:20.360,LG-H970,1572086540371.25,-0.393,9.637,-0.589,41.1054967,16.8785805,False,NONE
2019-10-26 10:42:20.380,LG-H970,1572086540391.25,-0.878,9.444,-0.956,41.1054967,16.8785805,False,NONE
2019-10-26 10:42:20.400,LG-H970,1572086540411.25,-0.641,10.006,-0.219,41.1054967,16.8785805,False,NONE
2019-10-26 10:42:20.420,LG-H970,1572086540431.5,-0.396,9.723,0.48,41.1054967,16.8785805,False,NONE
2019-10-26 10:42:20.440,LG-H970,1572086540450.25,-0.634,9.799,0.006,41.1054967,16.8785805,False,NONE
2019-10-26 10:42:20.460,LG-H970,1572086540470.5,-0.888,10.572,-0.883,41.1054967,16.8785805,False,NONE
2019-10-26 10:42:20.480,LG-H970,1572086540490.25,-0.965,10.332,-0.269,41.1054967,16.8785805,False,NONE
2019-10-26 10:42:20.500,LG-H970,1572086540510.25,0.31,10.202,0.394,41.1054967,16.8785805,False,NONE
2019-10-26 10:42:20.520,LG-H970,1572086540529.75,0.317,10.286,0.481,41.1054967,16.8785805,False,NONE
2019-10-26 10:42:20.540,LG-H970,1572086540549.25,-1.027,10.256,-1.029,41.1054967,16.8785805,False,NONE
2019-10-26 10:42:20.560,LG-H970,1572086540569.0,-0.956,10.27,-0.649,41.1054967,16.8785805,False,NONE
2019-10-26 10:42:20.580,LG-H970,1572086540589.0,0.358,9.078,-0.222,41.1054967,16.8785805,False,NONE
2019-10-26 10:42:20.600,LG-H970,1572086540609.0,0.868,9.661,0.121,41.1054967,16.8785805,False,NONE
2019-10-26 10:42:20.620,LG-H970,1572086540629.0,-0.463,10.633,-0.803,41.1054967,16.8785805,False,NONE
2019-10-26 10:42:20.640,LG-H970,1572086540648.25,-1.09,10.686,-0.388,41.1054967,16.8785805,False,NONE
2019-10-26 10:42:20.660,LG-H970,1572086540669.25,-0.587,9.646,-0.128,41.1054967,16.8785805,False,NONE
2019-10-26 10:42:20.680,LG-H970,1572086540689.75,-0.022,9.492,-0.058,41.1054967,16.8785805,False,NONE
2019-10-26 10:42:20.700,LG-H970,1572086540709.6,-0.1,10.177,-0.662,41.1054967,16.8785805,False,NONE
2019-10-26 10:42:20.720,LG-H970,1572086540731.5,-0.614,10.686,0.043,41.1054967,16.8785805,False,NONE
2019-10-26 10:42:20.740,LG-H970,1572086540750.75,-0.294,10.237,0.175,41.1054967,16.8785805,False,NONE
2019-10-26 10:42:20.760,LG-H970,1572086540768.3333,-0.236,9.496,0.026,41.1054967,16.8785805,False,NONE
2019-10-26 10:42:20.780,LG-H970,1572086540789.0,-0.53,9.416,-1.234,41.1054967,16.8785805,False,NONE
2019-10-26 10:42:20.800,LG-H970,1572086540810.75,-0.56,9.26,-0.639,41.1054967,16.8785805,False,NONE
2019-10-26 10:42:20.820,LG-H970,1572086540830.0,0.014,8.861,-0.575,41.1054967,16.8785805,False,NONE
2019-10-26 10:42:20.840,LG-H970,1572086540850.5,-0.339,10.097,0.236,41.1054967,16.8785805,False,NONE
2019-10-26 10:42:20.860,LG-H970,1572086540869.5,-1.593,9.811,-0.235,41.1054967,16.8785805,False,NONE
2019-10-26 10:42:20.880,LG-H970,1572086540889.5,-0.553,9.313,-0.271,41.1054967,16.8785805,False,NONE
2019-10-26 10:42:20.900,LG-H970,1572086540909.0,0.862,7.947,-1.093,41.1054967,16.8785805,False,NONE
2019-10-26 10:42:20.920,LG-H970,1572086540929.25,-0.345,8.691,-0.571,41.1054967,16.8785805,False,NONE
2019-10-26 10:42:20.940,LG-H970,1572086540950.25,-2.024,10.168,-0.707,41.1054967,16.8785805,False,NONE
2019-10-26 10:42:20.960,LG-H970,1572086540969.0,-1.351,11.155,0.285,41.1054967,16.8785805,False,NONE
2019-10-26 10:42:20.980,LG-H970,1572086540988.75,-0.104,10.253,0.35,41.1054967,16.8785805,False,NONE
2019-10-26 10:42:21.000,LG-H970,1572086541008.25,-0.222,10.231,0.231,41.1054967,16.8785805,False,NONE
2019-10-26 10:42:21.020,LG-H970,1572086541028.25,-0.931,9.871,-0.347,41.1054967,16.8785805,False,NONE
2019-10-26 10:42:21.040,LG-H970,1572086541050.0,-0.479,10.339,-0.569,41.1054967,16.8785805,False,NONE
2019-10-26 10:42:21.060,LG-H970,1572086541070.0,-0.746,11.083,0.304,41.1054967,16.8785805,False,NONE
2019-10-26 10:42:21.080,LG-H970,1572086541087.25,-1.043,11.333,0.829,41.1054967,16.8785805,False,NONE
2019-10-26 10:42:21.100,LG-H970,1572086541109.6,-1.111,9.917,0.366,41.1054967,16.8785805,False,NONE
2019-10-26 10:42:21.120,LG-H970,1572086541131.75,-0.769,9.904,-1.058,41.1054967,16.8785805,False,NONE
2019-10-26 10:42:21.140,LG-H970,1572086541151.5,-1.202,10.04,-0.425,41.1054967,16.8785805,False,NONE
2019-10-26 10:42:21.160,LG-H970,1572086541174.25,-1.099,10.177,0.274,41.1054967,16.8785805,False,NONE
2019-10-26 10:42:21.180,LG-H970,1572086541191.0,-0.457,10.353,0.835,41.1054967,16.8785805,False,NONE
2019-10-26 10:42:21.200,LG-H970,1572086541210.6667,-0.685,10.002,-0.416,41.1054967,16.8785805,False,NONE
2019-10-26 10:42:21.220,LG-H970,1572086541229.5,-0.784,9.52,0.902,41.1054967,16.8785805,False,NONE
2019-10-26 10:42:21.240,LG-H970,1572086541249.75,-0.217,9.099,-0.672,41.1054967,16.8785805,False,NONE
2019-10-26 10:42:21.260,LG-H970,1572086541270.25,-0.827,10.21,-0.35,41.1054967,16.8785805,False,NONE
2019-10-26 10:42:21.280,LG-H970,1572086541292.75,-0.754,10.462,-0.696,41.1054967,16.8785805,False,NONE
2019-10-26 10:42:21.300,LG-H970,1572086541308.5,-0.994,9.716,0.728,41.1054967,16.8785805,False,NONE
2019-10-26 10:42:21.320,LG-H970,1572086541329.75,-0.374,10.048,-0.483,41.1054967,16.8785805,False,NONE
2019-10-26 10:42:21.340,LG-H970,1572086541348.25,-0.81,10.313,-1.315,41.1054967,16.8785805,False,NONE
2019-10-26 10:42:21.360,LG-H970,1572086541370.6,-0.378,9.832,-0.158,41.1054967,16.8785805,False,NONE
2019-10-26 10:42:21.380,LG-H970,1572086541391.0,0.327,9.929,0.471,41.1054967,16.8785805,False,NONE
2019-10-26 10:42:21.400,LG-H970,1572086541408.5,-0.171,10.014,-0.359,41.1054967,16.8785805,False,NONE
2019-10-26 10:42:21.420,LG-H970,1572086541430.4,-1.164,10.014,-1.053,41.1054967,16.8785805,False,NONE
2019-10-26 10:42:21.440,LG-H970,1572086541449.6667,-0.611,8.935,-0.735,41.1054967,16.8785805,False,NONE
2019-10-26 10:42:21.460,LG-H970,1572086541469.6,0.417,8.983,0.141,41.1054967,16.8785805,False,NONE
2019-10-26 10:42:21.480,LG-H970,1572086541490.25,-0.91,10.322,-0.332,41.1054967,16.8785805,False,NONE
2019-10-26 10:42:21.500,LG-H970,1572086541511.5,-1.824,10.911,-0.447,41.1054967,16.8785805,False,NONE
2019-10-26 10:42:21.520,LG-H970,1572086541531.0,-0.835,9.572,0.186,41.1054967,16.8785805,False,NONE
2019-10-26 10:42:21.540,LG-H970,1572086541550.75,0.221,8.498,-0.361,41.1054967,16.8785805,False,NONE
2019-10-26 10:42:21.560,LG-H970,1572086541567.6667,0.224,10.131,-0.364,41.1054967,16.8785805,False,NONE
2019-10-26 10:42:21.580,LG-H970,1572086541588.4,-1.217,10.28,-0.277,41.1054967,16.8785805,False,NONE
2019-10-26 10:42:21.600,LG-H970,1572086541610.25,-0.241,10.455,0.75,41.1054967,16.8785805,False,NONE
2019-10-26 10:42:21.620,LG-H970,1572086541629.0,0.034,9.707,0.181,41.1054967,16.8785805,False,NONE
2019-10-26 10:42:21.640,LG-H970,1572086541649.25,-0.807,9.736,-0.556,41.1054967,16.8785805,False,NONE
2019-10-26 10:42:21.660,LG-H970,1572086541669.5,-0.878,9.66,-0.873,41.1054967,16.8785805,False,NONE
2019-10-26 10:42:21.680,LG-H970,1572086541690.25,-0.362,8.817,-0.317,41.1054967,16.8785805,False,NONE
2019-10-26 10:42:21.700,LG-H970,1572086541707.5,-0.242,9.478,0.262,41.1054967,16.8785805,False,NONE
2019-10-26 10:42:21.720,LG-H970,1572086541727.5,-1.443,10.007,-0.029,41.1054967,16.8785805,False,NONE
2019-10-26 10:42:21.740,LG-H970,1572086541747.75,-1.34,9.943,-0.38,41.1054967,16.8785805,False,NONE
2019-10-26 10:42:21.760,LG-H970,1572086541767.75,-0.47,9.9,-0.586,41.1054967,16.8785805,False,NONE
2019-10-26 10:42:21.780,LG-H970,1572086541788.75,-0.247,9.612,0.157,41.1054967,16.8785805,False,NONE
2019-10-26 10:42:21.800,LG-H970,1572086541810.0,-0.473,10.652,0.576,41.1054967,16.8785805,True,NONE
2019-10-26 10:42:21.820,LG-H970,1572086541831.0,-1.402,10.659,-0.112,41.1054967,16.8785805,True,NONE
2019-10-26 10:42:21.840,LG-H970,1572086541850.5,-0.543,10.262,0.021,41.1054967,16.8785805,False,NONE
2019-10-26 10:42:21.860,LG-H970,1572086541870.0,0.188,9.807,0.037,41.1054967,16.8785805,False,NONE
2019-10-26 10:42:21.880,LG-H970,1572086541891.0,-0.406,9.998,-0.089,41.1054967,16.8785805,False,NONE
2019-10-26 10:42:21.900,LG-H970,1572086541910.3333,-0.824,10.665,-0.297,41.1054967,16.8785805,False,NONE
2019-10-26 10:42:21.920,LG-H970,1572086541927.5,-1.084,10.334,-0.254,41.1054967,16.8785805,False,NONE
2019-10-26 10:42:21.940,LG-H970,1572086541948.0,-0.179,9.842,0.052,41.1054967,16.8785805,False,NONE
2019-10-26 10:42:21.960,LG-H970,1572086541971.25,-0.341,9.46,-0.155,41.1054967,16.8785805,False,NONE
2019-10-26 10:42:21.980,LG-H970,1572086541992.0,-0.994,10.373,-0.681,41.1054967,16.8785805,False,NONE
2019-10-26 10:42:22.000,LG-H970,1572086542008.0,-1.303,10.295,-0.167,41.1054967,16.8785805,False,NONE
2019-10-26 10:42:22.020,LG-H970,1572086542025.6667,-0.333,9.879,0.542,41.1054967,16.8785805,False,NONE
2019-10-26 10:42:22.040,LG-H970,1572086542049.75,-0.092,9.751,0.09,41.1054967,16.8785805,False,NONE
2019-10-26 10:42:22.060,LG-H970,1572086542069.5,-1.055,9.842,-1.338,41.1054967,16.8785805,False,NONE
2019-10-26 10:42:22.080,LG-H970,1572086542089.0,-0.721,10.184,-0.232,41.1054967,16.8785805,False,NONE
2019-10-26 10:42:22.100,LG-H970,1572086542109.25,-0.056,9.854,0.303,41.1054967,16.8785805,False,NONE
2019-10-26 10:42:22.120,LG-H970,1572086542129.5,-0.205,10.103,0.115,41.1054967,16.8785805,False,NONE
2019-10-26 10:42:22.140,LG-H970,1572086542148.5,-1.1,10.563,-0.342,41.1054967,16.8785805,False,NONE
2019-10-26 10:42:22.160,LG-H970,1572086542168.5,-0.89,10.011,-0.848,41.1054967,16.8785805,False,NONE
2019-10-26 10:42:22.180,LG-H970,1572086542192.4,-0.199,9.903,0.437,41.1054967,16.8785805,False,NONE
2019-10-26 10:42:22.200,LG-H970,1572086542211.5,-0.831,10.532,-0.627,41.1054967,16.8785805,False,NONE
2019-10-26 10:42:22.220,LG-H970,1572086542229.3333,-1.251,10.369,0.048,41.1054967,16.8785805,False,NONE
2019-10-26 10:42:22.240,LG-H970,1572086542249.2,-0.082,9.471,-0.56,41.1054967,16.8785805,False,NONE
2019-10-26 10:42:22.260,LG-H970,1572086542271.25,0.498,9.306,0.097,41.1054967,16.8785805,False,NONE
2019-10-26 10:42:22.280,LG-H970,1572086542291.5,-0.222,10.265,-0.492,41.1054967,16.8785805,False,NONE
2019-10-26 10:42:22.300,LG-H970,1572086542310.75,-1.258,10.44,-0.405,41.1054967,16.8785805,False,NONE
2019-10-26 10:42:22.320,LG-H970,1572086542330.5,-0.394,9.67,-0.533,41.1054967,16.8785805,False,NONE
2019-10-26 10:42:22.340,LG-H970,1572086542351.25,-0.102,8.789,0.275,41.1054967,16.8785805,False,NONE
2019-10-26 10:42:22.360,LG-H970,1572086542369.5,0.2,9.773,-0.583,41.1054967,16.8785805,False,NONE
2019-10-26 10:42:22.380,LG-H970,1572086542389.75,-0.791,10.177,-0.325,41.1054967,16.8785805,False,NONE
2019-10-26 10:42:22.400,LG-H970,1572086542410.25,-0.824,9.938,-0.328,41.1054967,16.8785805,False,NONE
2019-10-26 10:42:22.420,LG-H970,1572086542429.75,0.153,9.855,0.142,41.1054967,16.8785805,False,NONE
2019-10-26 10:42:22.440,LG-H970,1572086542449.25,0.128,9.528,-0.252,41.1054967,16.8785805,False,NONE
2019-10-26 10:42:22.460,LG-H970,1572086542468.5,-0.604,10.393,-0.18,41.1054967,16.8785805,False,NONE
2019-10-26 10:42:22.480,LG-H970,1572086542489.0,-1.259,10.536,-0.204,41.1054967,16.8785805,False,NONE
2019-10-26 10:42:22.500,LG-H970,1572086542508.75,-0.283,9.78,0.084,41.1054967,16.8785805,False,NONE
2019-10-26 10:42:22.520,LG-H970,1572086542528.25,0.052,9.447,0.368,41.1054967,16.8785805,False,NONE
2019-10-26 10:42:22.540,LG-H970,1572086542548.25,-0.77,9.348,-1.378,41.1054967,16.8785805,False,NONE
2019-10-26 10:42:22.560,LG-H970,1572086542568.0,-0.735,9.516,-0.23,41.1054967,16.8785805,False,NONE
2019-10-26 10:42:22.580,LG-H970,1572086542587.75,-0.048,9.061,-0.49,41.1054967,16.8785805,False,NONE
2019-10-26 10:42:22.600,LG-H970,1572086542609.8,-0.552,9.932,0.503,41.1054967,16.8785805,False,NONE
2019-10-26 10:42:22.620,LG-H970,1572086542632.25,-1.642,10.335,-0.101,41.1054967,16.8785805,False,NONE
2019-10-26 10:42:22.640,LG-H970,1572086542651.25,-0.556,9.733,-1.085,41.1054967,16.8785805,False,NONE
2019-10-26 10:42:22.660,LG-H970,1572086542669.0,0.665,9.686,0.21,41.1054967,16.8785805,False,NONE
2019-10-26 10:42:22.680,LG-H970,1572086542688.25,0.18,9.361,0.779,41.1054967,16.8785805,False,NONE
2019-10-26 10:42:22.700,LG-H970,1572086542708.2,-0.76,10.829,0.624,41.1054967,16.8785805,False,NONE
2019-10-26 10:42:22.720,LG-H970,1572086542730.5,-1.252,10.428,-0.347,41.1054967,16.8785805,False,NONE
2019-10-26 10:42:22.740,LG-H970,1572086542750.5,-0.478,9.789,0.313,41.1054967,16.8785805,False,NONE
2019-10-26 10:42:22.760,LG-H970,1572086542770.25,-0.209,9.186,0.158,41.1054967,16.8785805,False,NONE
2019-10-26 10:42:22.780,LG-H970,1572086542789.5,-0.731,9.806,-0.543,41.1054967,16.8785805,False,NONE
2019-10-26 10:42:22.800,LG-H970,1572086542809.25,-0.901,10.387,-0.775,41.1054967,16.8785805,False,NONE
2019-10-26 10:42:22.820,LG-H970,1572086542829.25,-0.196,9.52,0.312,41.1054967,16.8785805,False,NONE
2019-10-26 10:42:22.840,LG-H970,1572086542848.75,0.213,9.064,0.43,41.1054967,16.8785805,False,NONE
2019-10-26 10:42:22.860,LG-H970,1572086542870.2,-0.921,10.198,-0.93,41.1054967,16.8785805,False,NONE
2019-10-26 10:42:22.880,LG-H970,1572086542890.6667,-1.338,10.349,-0.347,41.1054967,16.8785805,False,NONE
2019-10-26 10:42:22.900,LG-H970,1572086542908.5,-0.298,10.356,0.96,41.1054967,16.8785805,False,NONE
2019-10-26 10:42:22.920,LG-H970,1572086542930.4,-0.201,10.166,0.575,41.1054967,16.8785805,False,NONE
2019-10-26 10:42:22.940,LG-H970,1572086542950.6667,-0.729,9.921,-0.58,41.1054967,16.8785805,False,NONE
2019-10-26 10:42:22.960,LG-H970,1572086542967.25,-0.88,9.734,-1.021,41.1054967,16.8785805,False,NONE
2019-10-26 10:42:22.980,LG-H970,1572086542987.0,-0.017,9.156,-0.28,41.1054967,16.8785805,False,NONE
2019-10-26 10:42:23.000,LG-H970,1572086543007.0,0.142,9.563,0.333,41.1054967,16.8785805,False,NONE
2019-10-26 10:42:23.020,LG-H970,1572086543029.6,-1.285,10.089,-0.322,41.1054967,16.8785805,False,NONE
2019-10-26 10:42:23.040,LG-H970,1572086543051.5,-1.317,10.24,-0.468,41.1054967,16.8785805,False,NONE
2019-10-26 10:42:23.060,LG-H970,1572086543071.25,-0.409,8.956,-0.459,41.1054967,16.8785805,False,NONE
2019-10-26 10:42:23.080,LG-H970,1572086543090.75,-0.004,9.897,0.032,41.1054967,16.8785805,False,NONE
2019-10-26 10:42:23.100,LG-H970,1572086543110.25,-1.438,10.922,-0.052,41.1054967,16.8785805,False,NONE
2019-10-26 10:42:23.120,LG-H970,1572086543130.25,-0.795,11.216,0.6,41.1054967,16.8785805,False,NONE
2019-10-26 10:42:23.140,LG-H970,1572086543149.75,-0.351,10.089,0.811,41.1054967,16.8785805,False,NONE
2019-10-26 10:42:23.160,LG-H970,1572086543170.0,-0.993,9.952,-0.162,41.1054967,16.8785805,False,NONE
2019-10-26 10:42:23.180,LG-H970,1572086543192.6667,-1.569,10.078,-0.666,41.1054967,16.8785805,False,NONE
2019-10-26 10:42:23.200,LG-H970,1572086543209.75,-1.36,9.699,-0.101,41.1054967,16.8785805,False,NONE
2019-10-26 10:42:23.220,LG-H970,1572086543228.0,-1.031,9.847,0.573,41.1054967,16.8785805,False,NONE
2019-10-26 10:42:23.240,LG-H970,1572086543247.25,-1.613,10.157,-0.3,41.1054967,16.8785805,False,NONE
2019-10-26 10:42:23.260,LG-H970,1572086543268.0,-1.291,9.876,-0.839,41.1054967,16.8785805,False,NONE
2019-10-26 10:42:23.280,LG-H970,1572086543288.25,-0.764,9.004,-0.265,41.1054967,16.8785805,False,NONE
