UTC_timestamp,device_name,timestamp,x,y,z,lat,long,event,speed
2019-11-13 12:04:36.100,Mi 9T,1573646676109.2856,0.013,-9.473,-1.477,41.4665749,15.5349423,False,5.515
2019-11-13 12:04:36.120,Mi 9T,1573646676129.5557,1.062,-9.713,-1.906,41.4665749,15.5349423,False,5.515
2019-11-13 12:04:36.140,Mi 9T,1573646676149.0,1.51,-10.083,-1.721,41.4665749,15.5349423,False,5.515
2019-11-13 12:04:36.160,Mi 9T,1573646676170.75,0.352,-10.491,-1.468,41.4665749,15.5349423,False,5.515
2019-11-13 12:04:36.180,Mi 9T,1573646676189.3,-0.296,-9.721,-0.572,41.4665749,15.5349423,False,5.515
2019-11-13 12:04:36.200,Mi 9T,1573646676208.7778,-0.264,-10.411,-1.28,41.4665828,15.5349514,False,5.408
2019-11-13 12:04:36.220,Mi 9T,1573646676228.4,0.604,-9.083,-0.955,41.4666104,15.5349834,False,5.033
2019-11-13 12:04:36.240,Mi 9T,1573646676242.0,1.533,-10.324,-2.306,41.4666104,15.5349834,False,5.033
2019-11-13 12:04:36.260,Mi 9T,1573646676273.0,1.159,-9.674,-2.121,41.4666104,15.5349834,False,5.033
2019-11-13 12:04:36.280,Mi 9T,1573646676288.7778,0.213,-9.111,-1.363,41.4666104,15.5349834,False,5.033
2019-11-13 12:04:36.300,Mi 9T,1573646676308.8,-0.188,-9.777,-1.495,41.4666104,15.5349834,False,5.033
2019-11-13 12:04:36.320,Mi 9T,1573646676329.4443,0.615,-10.124,-1.269,41.4666104,15.5349834,False,5.033
2019-11-13 12:04:36.340,Mi 9T,1573646676350.3333,1.109,-9.716,-0.653,41.4666104,15.5349834,False,5.033
2019-11-13 12:04:36.360,Mi 9T,1573646676370.0,0.569,-10.25,-1.007,41.4666104,15.5349834,False,5.033
2019-11-13 12:04:36.380,Mi 9T,1573646676389.75,0.295,-9.389,-0.839,41.4666104,15.5349834,False,5.033
2019-11-13 12:04:36.400,Mi 9T,1573646676409.875,0.561,-9.516,-1.482,41.4666104,15.5349834,False,5.033
2019-11-13 12:04:36.420,Mi 9T,1573646676431.4,1.159,-9.462,-1.625,41.4666104,15.5349834,False,5.033
2019-11-13 12:04:36.440,Mi 9T,1573646676449.6667,1.164,-9.956,-1.338,41.4666104,15.5349834,False,5.033
2019-11-13 12:04:36.460,Mi 9T,1573646676468.8333,0.222,-10.347,-0.78,41.4666104,15.5349834,False,5.033
2019-11-13 12:04:36.480,Mi 9T,1573646676489.2,-0.228,-9.826,-0.079,41.4666104,15.5349834,False,5.033
2019-11-13 12:04:36.500,Mi 9T,1573646676509.0,-0.194,-9.742,-0.788,41.4666104,15.5349834,False,5.033
2019-11-13 12:04:36.520,Mi 9T,1573646676530.8,0.889,-9.504,-1.448,41.4666104,15.5349834,False,5.033
2019-11-13 12:04:36.540,Mi 9T,1573646676550.111,1.42,-9.209,-1.65,41.4666104,15.5349834,False,5.033
2019-11-13 12:04:36.560,Mi 9T,1573646676568.4443,0.802,-9.824,-1.797,41.4666104,15.5349834,False,5.033
2019-11-13 12:04:36.580,Mi 9T,1573646676589.4,0.322,-9.312,-0.538,41.4666104,15.5349834,False,5.033
2019-11-13 12:04:36.600,Mi 9T,1573646676609.2222,0.174,-10.151,-0.643,41.4666104,15.5349834,False,5.033
2019-11-13 12:04:36.620,Mi 9T,1573646676630.5557,0.756,-10.246,-0.355,41.4666104,15.5349834,False,5.033
2019-11-13 12:04:36.640,Mi 9T,1573646676650.5,0.987,-10.206,-0.729,41.4666104,15.5349834,False,5.033
2019-11-13 12:04:36.660,Mi 9T,1573646676670.5,0.569,-10.252,-1.112,41.4666104,15.5349834,False,5.033
2019-11-13 12:04:36.680,Mi 9T,1573646676690.375,0.402,-9.746,-0.886,41.4666104,15.5349834,False,5.033
2019-11-13 12:04:36.700,Mi 9T,1573646676709.8333,0.186,-10.14,-1.004,41.4666104,15.5349834,False,5.033
2019-11-13 12:04:36.720,Mi 9T,1573646676729.0,0.56,-9.745,-0.57,41.4666104,15.5349834,False,5.033
2019-11-13 12:04:36.740,Mi 9T,1573646676750.3333,0.891,-10.127,-0.901,41.4666104,15.5349834,False,5.033
2019-11-13 12:04:36.760,Mi 9T,1573646676770.25,0.514,-10.23,-0.918,41.4666104,15.5349834,False,5.033
2019-11-13 12:04:36.780,Mi 9T,1573646676789.889,0.112,-9.574,-0.653,41.4666104,15.5349834,False,5.033
2019-11-13 12:04:36.800,Mi 9T,1573646676809.8572,-0.162,-9.781,-1.04,41.4666104,15.5349834,False,5.033
2019-11-13 12:04:36.820,Mi 9T,1573646676831.4,0.32,-9.445,-1.128,41.4666104,15.5349834,False,5.033
2019-11-13 12:04:36.840,Mi 9T,1573646676851.0,0.914,-9.702,-1.232,41.4666104,15.5349834,False,5.033
2019-11-13 12:04:36.860,Mi 9T,1573646676869.875,0.977,-9.979,-0.892,41.4666104,15.5349834,False,5.033
2019-11-13 12:04:36.880,Mi 9T,1573646676887.5,0.815,-10.055,-0.746,41.4666104,15.5349834,False,5.033
2019-11-13 12:04:36.900,Mi 9T,1573646676908.4285,0.691,-10.279,-0.44,41.4666104,15.5349834,False,5.033
2019-11-13 12:04:36.920,Mi 9T,1573646676929.0,0.662,-9.771,-0.674,41.4666104,15.5349834,False,5.033
2019-11-13 12:04:36.940,Mi 9T,1573646676951.8572,0.796,-10.066,-1.282,41.4666104,15.5349834,False,5.033
2019-11-13 12:04:36.960,Mi 9T,1573646676970.5,0.585,-9.506,-0.879,41.4666104,15.5349834,False,5.033
2019-11-13 12:04:36.980,Mi 9T,1573646676990.8572,0.478,-9.5,-1.1,41.4666104,15.5349834,False,5.033
2019-11-13 12:04:37.000,Mi 9T,1573646677009.7778,0.604,-9.774,-0.895,41.4666104,15.5349834,False,5.033
2019-11-13 12:04:37.020,Mi 9T,1573646677029.625,0.727,-9.247,-0.821,41.4666104,15.5349834,False,5.033
2019-11-13 12:04:37.040,Mi 9T,1573646677051.0,0.902,-9.998,-1.158,41.4666104,15.5349834,False,5.033
2019-11-13 12:04:37.060,Mi 9T,1573646677072.0,0.646,-9.479,-0.696,41.4666104,15.5349834,False,5.033
2019-11-13 12:04:37.080,Mi 9T,1573646677090.2222,0.396,-9.931,-1.143,41.4666104,15.5349834,False,5.033
2019-11-13 12:04:37.100,Mi 9T,1573646677109.1,0.405,-10.015,-0.769,41.4666104,15.5349834,False,5.033
2019-11-13 12:04:37.120,Mi 9T,1573646677129.4285,0.289,-10.042,-0.819,41.4666104,15.5349834,False,5.033
2019-11-13 12:04:37.140,Mi 9T,1573646677150.2856,0.731,-10.608,-0.754,41.4666104,15.5349834,False,5.033
2019-11-13 12:04:37.160,Mi 9T,1573646677169.0,0.816,-10.034,-0.584,41.4666104,15.5349834,False,5.033
2019-11-13 12:04:37.180,Mi 9T,1573646677189.5,0.831,-10.467,-0.951,41.4666104,15.5349834,False,5.033
2019-11-13 12:04:37.200,Mi 9T,1573646677208.4443,0.845,-9.968,-0.667,41.4666104,15.5349834,False,5.033
2019-11-13 12:04:37.220,Mi 9T,1573646677231.0,0.475,-9.857,-1.062,41.4666104,15.5349834,False,5.033
2019-11-13 12:04:37.240,Mi 9T,1573646677250.1428,0.69,-9.78,-0.896,41.4666104,15.5349834,False,5.033
2019-11-13 12:04:37.260,Mi 9T,1573646677271.0,0.719,-9.198,-0.824,41.4666104,15.5349834,False,5.033
2019-11-13 12:04:37.280,Mi 9T,1573646677290.6667,0.656,-9.789,-1.281,41.4666104,15.5349834,False,5.033
2019-11-13 12:04:37.300,Mi 9T,1573646677310.0,0.6,-9.17,-0.848,41.4666104,15.5349834,False,5.033
2019-11-13 12:04:37.320,Mi 9T,1573646677331.2856,0.268,-9.718,-1.217,41.4666104,15.5349834,False,5.033
2019-11-13 12:04:37.340,Mi 9T,1573646677350.6667,0.492,-9.549,-0.909,41.4666104,15.5349834,False,5.033
2019-11-13 12:04:37.360,Mi 9T,1573646677369.3333,0.579,-10.062,-1.421,41.4666104,15.5349834,False,5.033
2019-11-13 12:04:37.380,Mi 9T,1573646677387.375,0.573,-9.654,-0.871,41.4666104,15.5349834,False,5.033
2019-11-13 12:04:37.400,Mi 9T,1573646677409.5,0.392,-9.919,-1.293,41.4666104,15.5349834,False,5.033
2019-11-13 12:04:37.420,Mi 9T,1573646677430.2222,0.495,-10.028,-1.18,41.4666104,15.5349834,False,5.033
2019-11-13 12:04:37.440,Mi 9T,1573646677449.8,0.576,-9.65,-1.364,41.4666104,15.5349834,False,5.033
2019-11-13 12:04:37.460,Mi 9T,1573646677470.0,0.71,-9.982,-1.793,41.4666104,15.5349834,False,5.033
2019-11-13 12:04:37.480,Mi 9T,1573646677489.0,0.539,-9.352,-1.424,41.4666104,15.5349834,False,5.033
2019-11-13 12:04:37.500,Mi 9T,1573646677509.182,0.294,-9.749,-2.08,41.4666104,15.5349834,False,5.033
2019-11-13 12:04:37.520,Mi 9T,1573646677529.111,0.651,-9.373,-1.373,41.4666104,15.5349834,False,5.033
2019-11-13 12:04:37.540,Mi 9T,1573646677548.2,0.585,-9.659,-2.04,41.4666104,15.5349834,False,5.033
2019-11-13 12:04:37.560,Mi 9T,1573646677566.375,0.95,-9.656,-1.471,41.4666104,15.5349834,False,5.033
2019-11-13 12:04:37.580,Mi 9T,1573646677566.375,0.95,-9.656,-1.471,41.4666104,15.5349834,False,5.033
2019-11-13 12:04:37.600,Mi 9T,1573646677601.5,0.606,-9.825,-1.792,41.4666104,15.5349834,True,5.033
2019-11-13 12:04:37.620,Mi 9T,1573646677632.3333,0.396,-9.704,-1.956,41.4666104,15.5349834,True,5.033
2019-11-13 12:04:37.640,Mi 9T,1573646677648.375,0.521,-9.823,-2.384,41.4666104,15.5349834,True,5.033
2019-11-13 12:04:37.660,Mi 9T,1573646677667.875,0.658,-9.348,-1.912,41.4666104,15.5349834,True,5.033
2019-11-13 12:04:37.680,Mi 9T,1573646677688.9,0.374,-9.783,-2.216,41.4666104,15.5349834,False,5.033
2019-11-13 12:04:37.700,Mi 9T,1573646677710.125,0.474,-9.434,-1.501,41.4666104,15.5349834,False,5.033
2019-11-13 12:04:37.720,Mi 9T,1573646677729.1,0.496,-9.673,-2.304,41.4666104,15.5349834,False,5.033
2019-11-13 12:04:37.740,Mi 9T,1573646677749.7,0.804,-9.652,-1.989,41.4666104,15.5349834,False,5.033
2019-11-13 12:04:37.760,Mi 9T,1573646677771.0,0.527,-9.364,-2.123,41.4666104,15.5349834,False,5.033
2019-11-13 12:04:37.780,Mi 9T,1573646677790.7778,0.502,-9.688,-2.122,41.4666104,15.5349834,False,5.033
2019-11-13 12:04:37.800,Mi 9T,1573646677808.4285,0.484,-9.313,-1.897,41.4666104,15.5349834,False,5.033
2019-11-13 12:04:37.820,Mi 9T,1573646677829.3,0.683,-9.838,-2.371,41.4666104,15.5349834,False,5.033
2019-11-13 12:04:37.840,Mi 9T,1573646677851.25,1.057,-9.443,-1.708,41.4666104,15.5349834,False,5.033
2019-11-13 12:04:37.860,Mi 9T,1573646677869.0,0.703,-9.626,-2.267,41.4666104,15.5349834,False,5.033
2019-11-13 12:04:37.880,Mi 9T,1573646677888.5,0.78,-9.481,-1.927,41.4666104,15.5349834,False,5.033
2019-11-13 12:04:37.900,Mi 9T,1573646677908.1428,0.562,-9.654,-2.396,41.4666104,15.5349834,False,5.033
2019-11-13 12:04:37.920,Mi 9T,1573646677928.7144,0.886,-9.48,-1.867,41.4666104,15.5349834,False,5.033
2019-11-13 12:04:37.940,Mi 9T,1573646677947.75,0.788,-9.603,-2.411,41.4666104,15.5349834,False,5.033
2019-11-13 12:04:37.960,Mi 9T,1573646677968.2,0.786,-9.724,-1.967,41.4666104,15.5349834,False,5.033
2019-11-13 12:04:37.980,Mi 9T,1573646677988.25,0.485,-9.371,-1.955,41.4666104,15.5349834,False,5.033
2019-11-13 12:04:38.000,Mi 9T,1573646678008.5,0.509,-9.809,-2.31,41.4666104,15.5349834,False,5.033
2019-11-13 12:04:38.020,Mi 9T,1573646678028.125,0.629,-9.311,-2.007,41.4666104,15.5349834,False,5.033
2019-11-13 12:04:38.040,Mi 9T,1573646678048.6,0.384,-9.796,-2.571,41.4666104,15.5349834,False,5.033
2019-11-13 12:04:38.060,Mi 9T,1573646678069.5,0.539,-9.435,-1.692,41.4666104,15.5349834,False,5.033
2019-11-13 12:04:38.080,Mi 9T,1573646678088.3333,0.188,-9.659,-2.298,41.4666104,15.5349834,False,5.033
2019-11-13 12:04:38.100,Mi 9T,1573646678108.8,0.635,-9.589,-1.864,41.4666104,15.5349834,False,5.033
2019-11-13 12:04:38.120,Mi 9T,1573646678127.75,0.615,-9.577,-2.374,41.4666104,15.5349834,False,5.033
2019-11-13 12:04:38.140,Mi 9T,1573646678149.5,0.649,-9.557,-1.999,41.4666104,15.5349834,False,5.033
2019-11-13 12:04:38.160,Mi 9T,1573646678169.2222,0.408,-9.501,-2.207,41.4666104,15.5349834,False,5.033
2019-11-13 12:04:38.180,Mi 9T,1573646678189.6667,0.452,-9.616,-2.061,41.4666104,15.5349834,False,5.033
2019-11-13 12:04:38.200,Mi 9T,1573646678208.7,0.681,-9.335,-1.878,41.466611,15.5350159,False,3.115
2019-11-13 12:04:38.220,Mi 9T,1573646678228.4,0.773,-9.815,-2.316,41.4666112,15.535024,False,2.635
2019-11-13 12:04:38.240,Mi 9T,1573646678249.2222,0.808,-9.344,-1.645,41.4666112,15.535024,False,2.635
2019-11-13 12:04:38.260,Mi 9T,1573646678269.0,0.542,-9.672,-2.152,41.4666112,15.535024,False,2.635
2019-11-13 12:04:38.280,Mi 9T,1573646678289.375,0.846,-9.513,-1.729,41.4666112,15.535024,False,2.635
2019-11-13 12:04:38.300,Mi 9T,1573646678309.7,0.657,-9.675,-2.226,41.4666112,15.535024,False,2.635
2019-11-13 12:04:38.320,Mi 9T,1573646678329.375,0.86,-9.588,-1.72,41.4666112,15.535024,False,2.635
2019-11-13 12:04:38.340,Mi 9T,1573646678350.0,0.619,-9.658,-1.998,41.4666112,15.535024,False,2.635
2019-11-13 12:04:38.360,Mi 9T,1573646678370.889,0.659,-9.719,-1.806,41.4666112,15.535024,False,2.635
2019-11-13 12:04:38.380,Mi 9T,1573646678387.7144,0.57,-9.606,-2.269,41.4666112,15.535024,False,2.635
2019-11-13 12:04:38.400,Mi 9T,1573646678409.5,0.78,-9.603,-1.977,41.4666112,15.535024,False,2.635
2019-11-13 12:04:38.420,Mi 9T,1573646678430.4285,0.629,-9.292,-1.957,41.4666112,15.535024,False,2.635
2019-11-13 12:04:38.440,Mi 9T,1573646678448.5,0.514,-9.722,-2.288,41.4666112,15.535024,False,2.635
2019-11-13 12:04:38.460,Mi 9T,1573646678470.0,0.554,-9.264,-1.585,41.4666112,15.535024,False,2.635
2019-11-13 12:04:38.480,Mi 9T,1573646678489.182,0.492,-9.624,-2.216,41.4666112,15.535024,False,2.635
2019-11-13 12:04:38.500,Mi 9T,1573646678511.875,0.905,-9.703,-1.87,41.4666112,15.535024,False,2.635
2019-11-13 12:04:38.520,Mi 9T,1573646678529.5,0.509,-9.764,-2.255,41.4666112,15.535024,False,2.635
2019-11-13 12:04:38.540,Mi 9T,1573646678549.6667,0.441,-9.662,-1.698,41.4666112,15.535024,False,2.635
2019-11-13 12:04:38.560,Mi 9T,1573646678566.8572,0.064,-9.81,-2.31,41.4666112,15.535024,False,2.635
2019-11-13 12:04:38.580,Mi 9T,1573646678590.0,0.411,-9.656,-2.043,41.4666112,15.535024,False,2.635
2019-11-13 12:04:38.600,Mi 9T,1573646678609.6667,0.685,-9.337,-2.107,41.4666112,15.535024,False,2.635
2019-11-13 12:04:38.620,Mi 9T,1573646678629.75,0.721,-9.646,-2.251,41.4666112,15.535024,False,2.635
2019-11-13 12:04:38.640,Mi 9T,1573646678650.6667,0.532,-9.28,-1.897,41.4666112,15.535024,False,2.635
2019-11-13 12:04:38.660,Mi 9T,1573646678669.0,0.42,-9.56,-2.159,41.4666112,15.535024,False,2.635
2019-11-13 12:04:38.680,Mi 9T,1573646678687.6667,0.59,-9.095,-1.794,41.4666112,15.535024,False,2.635
2019-11-13 12:04:38.700,Mi 9T,1573646678710.5715,0.538,-9.595,-2.683,41.4666112,15.535024,False,2.635
2019-11-13 12:04:38.720,Mi 9T,1573646678729.375,0.839,-9.331,-1.804,41.4666112,15.535024,False,2.635
2019-11-13 12:04:38.740,Mi 9T,1573646678750.1667,0.363,-9.449,-2.224,41.4666112,15.535024,False,2.635
2019-11-13 12:04:38.760,Mi 9T,1573646678769.625,0.611,-9.677,-1.841,41.4666112,15.535024,False,2.635
2019-11-13 12:04:38.780,Mi 9T,1573646678790.2222,0.66,-9.564,-1.995,41.4666112,15.535024,False,2.635
2019-11-13 12:04:38.800,Mi 9T,1573646678810.7778,0.803,-10.097,-2.062,41.4666112,15.535024,False,2.635
2019-11-13 12:04:38.820,Mi 9T,1573646678830.625,0.842,-9.731,-1.62,41.4666112,15.535024,False,2.635
2019-11-13 12:04:38.840,Mi 9T,1573646678850.4285,0.589,-10.112,-1.828,41.4666112,15.535024,False,2.635
2019-11-13 12:04:38.860,Mi 9T,1573646678870.25,0.656,-9.768,-1.431,41.4666112,15.535024,False,2.635
2019-11-13 12:04:38.880,Mi 9T,1573646678890.1667,0.689,-10.09,-2.112,41.4666112,15.535024,False,2.635
2019-11-13 12:04:38.900,Mi 9T,1573646678907.8333,1.078,-9.495,-1.35,41.4666112,15.535024,False,2.635
2019-11-13 12:04:38.920,Mi 9T,1573646678931.875,0.794,-9.605,-2.011,41.4666112,15.535024,False,2.635
2019-11-13 12:04:38.940,Mi 9T,1573646678948.5715,0.886,-9.523,-1.422,41.4666112,15.535024,False,2.635
2019-11-13 12:04:38.960,Mi 9T,1573646678969.0,0.529,-9.32,-1.876,41.4666112,15.535024,False,2.635
2019-11-13 12:04:38.980,Mi 9T,1573646678990.2,0.865,-9.636,-1.894,41.4666112,15.535024,False,2.635
2019-11-13 12:04:39.000,Mi 9T,1573646679009.7144,0.873,-9.129,-1.641,41.4666112,15.535024,False,2.635
2019-11-13 12:04:39.020,Mi 9T,1573646679030.5557,0.722,-9.685,-2.014,41.4666112,15.535024,False,2.635
2019-11-13 12:04:39.040,Mi 9T,1573646679048.3333,0.698,-9.276,-1.492,41.4666112,15.535024,False,2.635
2019-11-13 12:04:39.060,Mi 9T,1573646679070.6667,0.483,-9.795,-1.856,41.4666112,15.535024,False,2.635
2019-11-13 12:04:39.080,Mi 9T,1573646679089.8333,0.772,-9.595,-1.29,41.4666112,15.535024,False,2.635
