UTC_timestamp,device_name,timestamp,x,y,z,lat,long,event,speed
2019-11-13 10:11:14.400,Mi 9T,1573639874410.0,-0.749,-9.594,0.548,41.4566556,15.5296191,False,0.708
2019-11-13 10:11:14.420,Mi 9T,1573639874429.2222,-0.718,-9.861,-0.135,41.4566556,15.5296191,False,0.708
2019-11-13 10:11:14.440,Mi 9T,1573639874447.75,-0.551,-9.725,0.315,41.4566556,15.5296191,False,0.708
2019-11-13 10:11:14.460,Mi 9T,1573639874468.75,-0.775,-9.727,0.07,41.4566556,15.5296191,False,0.708
2019-11-13 10:11:14.480,Mi 9T,1573639874488.7144,-0.725,-9.695,0.282,41.4566556,15.5296191,False,0.708
2019-11-13 10:11:14.500,Mi 9T,1573639874510.7144,-0.728,-9.829,0.166,41.4566556,15.5296191,False,0.708
2019-11-13 10:11:14.520,Mi 9T,1573639874529.8,-0.623,-9.775,0.161,41.4566556,15.5296191,False,0.708
2019-11-13 10:11:14.540,Mi 9T,1573639874548.7144,-0.532,-9.825,0.139,41.4566556,15.5296191,False,0.708
2019-11-13 10:11:14.560,Mi 9T,1573639874567.889,-0.793,-9.778,0.22,41.4566556,15.5296191,False,0.708
2019-11-13 10:11:14.580,Mi 9T,1573639874589.6667,-0.771,-9.742,0.271,41.4566556,15.5296191,False,0.708
2019-11-13 10:11:14.600,Mi 9T,1573639874609.5715,-0.607,-9.788,0.011,41.4566556,15.5296191,False,0.708
2019-11-13 10:11:14.620,Mi 9T,1573639874629.6,-0.604,-9.66,0.278,41.4566556,15.5296191,False,0.708
2019-11-13 10:11:14.640,Mi 9T,1573639874650.2856,-0.878,-9.877,-0.153,41.4566556,15.5296191,False,0.708
2019-11-13 10:11:14.660,Mi 9T,1573639874669.25,-0.704,-9.706,0.44,41.4566556,15.5296191,False,0.708
2019-11-13 10:11:14.680,Mi 9T,1573639874690.4285,-0.68,-9.81,0.058,41.4566556,15.5296191,False,0.708
2019-11-13 10:11:14.700,Mi 9T,1573639874708.8333,-0.524,-9.746,0.173,41.4566556,15.5296191,False,0.708
2019-11-13 10:11:14.720,Mi 9T,1573639874729.625,-0.809,-9.942,-0.008,41.4566556,15.5296191,False,0.708
2019-11-13 10:11:14.740,Mi 9T,1573639874747.8333,-0.795,-9.571,0.728,41.4566556,15.5296191,False,0.708
2019-11-13 10:11:14.760,Mi 9T,1573639874770.1,-0.629,-9.865,-0.11,41.4566556,15.5296191,False,0.708
2019-11-13 10:11:14.780,Mi 9T,1573639874790.1428,-0.555,-9.746,0.178,41.4566556,15.5296191,False,0.708
2019-11-13 10:11:14.800,Mi 9T,1573639874809.5715,-0.791,-9.784,0.128,41.4566556,15.5296191,False,0.708
2019-11-13 10:11:14.820,Mi 9T,1573639874831.111,-0.747,-9.734,0.216,41.4566556,15.5296191,False,0.708
2019-11-13 10:11:14.840,Mi 9T,1573639874849.4443,-0.68,-9.893,0.028,41.4566556,15.5296191,False,0.708
2019-11-13 10:11:14.860,Mi 9T,1573639874869.111,-0.677,-9.674,0.163,41.4566556,15.5296191,False,0.708
2019-11-13 10:11:14.880,Mi 9T,1573639874889.4443,-0.621,-9.78,0.197,41.4566556,15.5296191,False,0.708
2019-11-13 10:11:14.900,Mi 9T,1573639874908.625,-0.814,-9.764,0.186,41.4566556,15.5296191,False,0.708
2019-11-13 10:11:14.920,Mi 9T,1573639874929.4443,-0.734,-9.755,0.226,41.4566556,15.5296191,False,0.708
2019-11-13 10:11:14.940,Mi 9T,1573639874948.4443,-0.624,-9.779,0.046,41.4566556,15.5296191,False,0.708
2019-11-13 10:11:14.960,Mi 9T,1573639874968.7,-0.577,-9.743,0.383,41.4566556,15.5296191,False,0.708
2019-11-13 10:11:14.980,Mi 9T,1573639874988.5715,-0.817,-9.807,0.016,41.4566556,15.5296191,False,0.708
2019-11-13 10:11:15.000,Mi 9T,1573639875010.25,-0.678,-9.746,0.402,41.4566556,15.5296191,False,0.708
2019-11-13 10:11:15.020,Mi 9T,1573639875029.5,-0.789,-9.765,0.116,41.4566556,15.5296191,False,0.708
2019-11-13 10:11:15.040,Mi 9T,1573639875047.5715,-0.588,-9.718,0.144,41.4566556,15.5296191,False,0.708
2019-11-13 10:11:15.060,Mi 9T,1573639875067.1428,-0.685,-9.822,-0.134,41.4566556,15.5296191,False,0.708
2019-11-13 10:11:15.080,Mi 9T,1573639875089.9,-0.779,-9.635,0.566,41.4566556,15.5296191,False,0.708
2019-11-13 10:11:15.100,Mi 9T,1573639875110.5557,-0.715,-9.882,-0.062,41.4566556,15.5296191,False,0.708
2019-11-13 10:11:15.120,Mi 9T,1573639875129.1428,-0.499,-9.68,0.307,41.4566556,15.5296191,False,0.708
2019-11-13 10:11:15.140,Mi 9T,1573639875150.5,-0.779,-9.789,0.045,41.4566556,15.5296191,False,0.708
2019-11-13 10:11:15.160,Mi 9T,1573639875169.7778,-0.709,-9.685,0.284,41.4566556,15.5296191,False,0.708
2019-11-13 10:11:15.180,Mi 9T,1573639875189.4,-0.747,-9.937,-0.049,41.4566556,15.5296191,False,0.708
2019-11-13 10:11:15.200,Mi 9T,1573639875210.1428,-0.668,-9.648,0.431,41.4566556,15.5296191,False,0.708
2019-11-13 10:11:15.220,Mi 9T,1573639875229.125,-0.698,-9.852,0.045,41.4566556,15.5296191,False,0.708
2019-11-13 10:11:15.240,Mi 9T,1573639875251.1667,-0.682,-9.706,0.208,41.4566556,15.5296191,False,0.708
2019-11-13 10:11:15.260,Mi 9T,1573639875271.0,-0.78,-9.833,0.085,41.4566556,15.5296191,False,0.708
2019-11-13 10:11:15.280,Mi 9T,1573639875289.4,-0.627,-9.526,0.381,41.4566556,15.5296191,False,0.708
2019-11-13 10:11:15.300,Mi 9T,1573639875309.3333,-0.639,-9.984,-0.03,41.4566556,15.5296191,False,0.708
2019-11-13 10:11:15.320,Mi 9T,1573639875331.0,-0.778,-9.674,0.285,41.4566556,15.5296191,False,0.708
2019-11-13 10:11:15.340,Mi 9T,1573639875348.6,-0.739,-9.877,0.08,41.4566556,15.5296191,False,0.708
2019-11-13 10:11:15.360,Mi 9T,1573639875370.7144,-0.708,-9.693,0.172,41.4566556,15.5296191,False,0.708
2019-11-13 10:11:15.380,Mi 9T,1573639875390.0,-0.642,-9.859,0.031,41.4566556,15.5296191,False,0.708
2019-11-13 10:11:15.400,Mi 9T,1573639875407.5,-0.653,-9.583,0.336,41.4566556,15.5296191,False,0.708
2019-11-13 10:11:15.420,Mi 9T,1573639875429.0,-0.72,-9.929,0.156,41.4566556,15.5296191,False,0.708
2019-11-13 10:11:15.440,Mi 9T,1573639875447.5,-0.76,-9.628,0.317,41.4566556,15.5296191,False,0.708
2019-11-13 10:11:15.460,Mi 9T,1573639875469.75,-0.599,-9.765,0.127,41.4566556,15.5296191,False,0.708
2019-11-13 10:11:15.480,Mi 9T,1573639875491.0,-0.723,-9.784,0.102,41.4566556,15.5296191,False,0.708
2019-11-13 10:11:15.500,Mi 9T,1573639875509.625,-0.75,-9.728,0.243,41.4566556,15.5296191,False,0.708
2019-11-13 10:11:15.520,Mi 9T,1573639875529.8,-0.703,-9.846,0.108,41.4566556,15.5296191,False,0.708
2019-11-13 10:11:15.540,Mi 9T,1573639875548.6667,-0.628,-9.716,0.335,41.4566556,15.5296191,False,0.708
2019-11-13 10:11:15.560,Mi 9T,1573639875569.4285,-0.726,-9.894,-0.102,41.4566556,15.5296191,False,0.708
2019-11-13 10:11:15.580,Mi 9T,1573639875587.875,-0.619,-9.673,0.377,41.4566556,15.5296191,False,0.708
2019-11-13 10:11:15.600,Mi 9T,1573639875608.7144,-0.829,-9.797,0.096,41.4566556,15.5296191,False,0.708
2019-11-13 10:11:15.620,Mi 9T,1573639875630.1428,-0.687,-9.646,0.246,41.4566556,15.5296191,False,0.708
2019-11-13 10:11:15.640,Mi 9T,1573639875651.7144,-0.703,-9.943,-0.106,41.4566556,15.5296191,False,0.708
2019-11-13 10:11:15.660,Mi 9T,1573639875671.0,-0.686,-9.606,0.432,41.4566556,15.5296191,False,0.708
2019-11-13 10:11:15.680,Mi 9T,1573639875689.889,-0.661,-9.852,-0.04,41.4566556,15.5296191,False,0.708
2019-11-13 10:11:15.700,Mi 9T,1573639875709.2,-0.701,-9.736,0.286,41.4566556,15.5296191,False,0.708
2019-11-13 10:11:15.720,Mi 9T,1573639875729.5,-0.793,-9.779,0.083,41.4566556,15.5296191,False,0.708
2019-11-13 10:11:15.740,Mi 9T,1573639875750.111,-0.644,-9.752,0.182,41.4566556,15.5296191,False,0.708
2019-11-13 10:11:15.760,Mi 9T,1573639875770.0,-0.605,-9.814,0.227,41.4566556,15.5296191,False,0.708
2019-11-13 10:11:15.780,Mi 9T,1573639875789.2,-0.708,-9.821,0.148,41.4566556,15.5296191,False,0.708
2019-11-13 10:11:15.800,Mi 9T,1573639875810.0,-0.646,-9.738,0.29,41.4566556,15.5296191,False,0.708
2019-11-13 10:11:15.820,Mi 9T,1573639875831.875,-0.836,-9.804,-0.01,41.4567204,15.5296044,False,1.991
2019-11-13 10:11:15.840,Mi 9T,1573639875849.7,-0.653,-9.66,0.255,41.4567593,15.5295955,False,2.761
2019-11-13 10:11:15.860,Mi 9T,1573639875869.8,-0.69,-9.898,-0.091,41.4567593,15.5295955,False,2.761
2019-11-13 10:11:15.880,Mi 9T,1573639875884.8,-0.663,-9.71,0.339,41.4567593,15.5295955,False,2.761
2019-11-13 10:11:15.900,Mi 9T,1573639875918.0,-0.695,-9.696,0.455,41.4567593,15.5295955,True,2.761
2019-11-13 10:11:15.920,Mi 9T,1573639875920.0,-0.824,-9.811,-0.136,41.4567593,15.5295955,True,2.761
2019-11-13 10:11:15.940,Mi 9T,1573639875952.8333,-0.707,-9.724,0.117,41.4567593,15.5295955,True,2.761
2019-11-13 10:11:15.960,Mi 9T,1573639875968.0,-0.593,-9.66,0.297,41.4567593,15.5295955,True,2.761
2019-11-13 10:11:15.980,Mi 9T,1573639875989.4443,-0.805,-9.918,-0.016,41.4567593,15.5295955,True,2.761
2019-11-13 10:11:16.000,Mi 9T,1573639876008.9,-0.722,-9.636,0.551,41.4567593,15.5295955,False,2.761
2019-11-13 10:11:16.020,Mi 9T,1573639876028.4443,-0.666,-9.92,-0.196,41.4567593,15.5295955,False,2.761
2019-11-13 10:11:16.040,Mi 9T,1573639876048.9,-0.554,-9.752,0.352,41.4567593,15.5295955,False,2.761
2019-11-13 10:11:16.060,Mi 9T,1573639876067.5,-0.802,-9.807,0.006,41.4567593,15.5295955,False,2.761
2019-11-13 10:11:16.080,Mi 9T,1573639876088.4546,-0.728,-9.719,0.218,41.4567593,15.5295955,False,2.761
2019-11-13 10:11:16.100,Mi 9T,1573639876109.2,-0.761,-9.839,0.122,41.4567593,15.5295955,False,2.761
2019-11-13 10:11:16.120,Mi 9T,1573639876129.75,-0.652,-9.717,0.204,41.4567593,15.5295955,False,2.761
2019-11-13 10:11:16.140,Mi 9T,1573639876149.4,-0.561,-9.806,0.054,41.4567593,15.5295955,False,2.761
2019-11-13 10:11:16.160,Mi 9T,1573639876168.125,-0.761,-9.753,0.239,41.4567593,15.5295955,False,2.761
2019-11-13 10:11:16.180,Mi 9T,1573639876190.111,-0.833,-9.736,0.267,41.4567593,15.5295955,False,2.761
2019-11-13 10:11:16.200,Mi 9T,1573639876209.7,-0.645,-9.792,-0.017,41.4567593,15.5295955,False,2.761
2019-11-13 10:11:16.220,Mi 9T,1573639876228.7144,-0.553,-9.796,0.194,41.4567593,15.5295955,False,2.761
2019-11-13 10:11:16.240,Mi 9T,1573639876250.111,-0.786,-9.82,0.031,41.4567593,15.5295955,False,2.761
2019-11-13 10:11:16.260,Mi 9T,1573639876270.7778,-0.705,-9.722,0.408,41.4567593,15.5295955,False,2.761
2019-11-13 10:11:16.280,Mi 9T,1573639876290.7144,-0.763,-9.836,0.012,41.4567593,15.5295955,False,2.761
2019-11-13 10:11:16.300,Mi 9T,1573639876310.2,-0.562,-9.66,0.225,41.4567593,15.5295955,False,2.761
2019-11-13 10:11:16.320,Mi 9T,1573639876333.0,-0.698,-9.96,-0.083,41.4567593,15.5295955,False,2.761
2019-11-13 10:11:16.340,Mi 9T,1573639876350.889,-0.755,-9.6,0.563,41.4567593,15.5295955,False,2.761
2019-11-13 10:11:16.360,Mi 9T,1573639876370.4,-0.807,-9.917,-0.085,41.4567593,15.5295955,False,2.761
2019-11-13 10:11:16.380,Mi 9T,1573639876389.875,-0.548,-9.697,0.333,41.4567593,15.5295955,False,2.761
2019-11-13 10:11:16.400,Mi 9T,1573639876409.182,-0.7,-9.809,-0.003,41.4567593,15.5295955,False,2.761
2019-11-13 10:11:16.420,Mi 9T,1573639876428.875,-0.658,-9.652,0.36,41.4567593,15.5295955,False,2.761
2019-11-13 10:11:16.440,Mi 9T,1573639876450.0,-0.807,-9.908,0.007,41.4567593,15.5295955,False,2.761
2019-11-13 10:11:16.460,Mi 9T,1573639876469.3333,-0.694,-9.668,0.319,41.4567593,15.5295955,False,2.761
2019-11-13 10:11:16.480,Mi 9T,1573639876488.111,-0.602,-9.815,-0.043,41.4567593,15.5295955,False,2.761
2019-11-13 10:11:16.500,Mi 9T,1573639876508.5557,-0.704,-9.813,0.196,41.4567593,15.5295955,False,2.761
2019-11-13 10:11:16.520,Mi 9T,1573639876528.6,-0.794,-9.706,0.215,41.4567593,15.5295955,False,2.761
2019-11-13 10:11:16.540,Mi 9T,1573639876548.5,-0.706,-9.89,0.087,41.4567593,15.5295955,False,2.761
2019-11-13 10:11:16.560,Mi 9T,1573639876569.7,-0.632,-9.611,0.41,41.4567593,15.5295955,False,2.761
2019-11-13 10:11:16.580,Mi 9T,1573639876588.6,-0.705,-9.937,-0.208,41.4567593,15.5295955,False,2.761
2019-11-13 10:11:16.600,Mi 9T,1573639876608.9,-0.623,-9.684,0.543,41.4567593,15.5295955,False,2.761
2019-11-13 10:11:16.620,Mi 9T,1573639876628.8,-0.923,-9.819,-0.013,41.4567593,15.5295955,False,2.761
2019-11-13 10:11:16.640,Mi 9T,1573639876649.0,-0.55,-9.69,0.326,41.4567593,15.5295955,False,2.761
2019-11-13 10:11:16.660,Mi 9T,1573639876670.111,-0.732,-9.787,-0.119,41.4567593,15.5295955,False,2.761
2019-11-13 10:11:16.680,Mi 9T,1573639876689.2,-0.654,-9.728,0.398,41.4567593,15.5295955,False,2.761
2019-11-13 10:11:16.700,Mi 9T,1573639876709.3,-0.703,-9.755,0.012,41.4567593,15.5295955,False,2.761
2019-11-13 10:11:16.720,Mi 9T,1573639876730.2222,-0.686,-9.906,0.266,41.4567593,15.5295955,False,2.761
2019-11-13 10:11:16.740,Mi 9T,1573639876749.0,-0.82,-9.631,0.079,41.4567593,15.5295955,False,2.761
2019-11-13 10:11:16.760,Mi 9T,1573639876770.4443,-0.615,-9.956,0.051,41.4567593,15.5295955,False,2.761
2019-11-13 10:11:16.780,Mi 9T,1573639876789.7,-0.745,-9.55,0.352,41.4567593,15.5295955,False,2.761
2019-11-13 10:11:16.800,Mi 9T,1573639876810.4443,-0.674,-9.948,-0.043,41.4567593,15.5295955,False,2.761
2019-11-13 10:11:16.820,Mi 9T,1573639876833.0,-0.644,-9.755,0.373,41.4567593,15.5295955,False,2.761
2019-11-13 10:11:16.840,Mi 9T,1573639876850.375,-0.817,-9.809,0.092,41.4567593,15.5295955,False,2.761
2019-11-13 10:11:16.860,Mi 9T,1573639876868.7778,-0.676,-9.636,0.328,41.4567593,15.5295955,False,2.761
2019-11-13 10:11:16.880,Mi 9T,1573639876889.6,-0.68,-9.821,-0.022,41.4567593,15.5295955,False,2.761
2019-11-13 10:11:16.900,Mi 9T,1573639876910.1,-0.697,-9.759,0.291,41.4567593,15.5295955,False,2.761
2019-11-13 10:11:16.920,Mi 9T,1573639876930.2,-0.669,-9.723,0.16,41.4567593,15.5295955,False,2.761
2019-11-13 10:11:16.940,Mi 9T,1573639876948.75,-0.742,-9.876,0.217,41.4567593,15.5295955,False,2.761
2019-11-13 10:11:16.960,Mi 9T,1573639876969.0,-0.741,-9.628,0.169,41.4567593,15.5295955,False,2.761
2019-11-13 10:11:16.980,Mi 9T,1573639876989.3635,-0.619,-9.911,0.074,41.4567593,15.5295955,False,2.761
2019-11-13 10:11:17.000,Mi 9T,1573639877009.2222,-0.709,-9.563,0.389,41.4567593,15.5295955,False,2.761
2019-11-13 10:11:17.020,Mi 9T,1573639877029.25,-0.736,-9.96,-0.094,41.4567593,15.5295955,False,2.761
2019-11-13 10:11:17.040,Mi 9T,1573639877049.5557,-0.639,-9.642,0.52,41.4567593,15.5295955,False,2.761
2019-11-13 10:11:17.060,Mi 9T,1573639877069.1667,-0.769,-9.869,-0.046,41.4567593,15.5295955,False,2.761
2019-11-13 10:11:17.080,Mi 9T,1573639877088.625,-0.641,-9.716,0.232,41.4567593,15.5295955,False,2.761
2019-11-13 10:11:17.100,Mi 9T,1573639877110.5,-0.754,-9.734,0.126,41.4567593,15.5295955,False,2.761
2019-11-13 10:11:17.120,Mi 9T,1573639877128.9,-0.689,-9.783,0.26,41.4567593,15.5295955,False,2.761
2019-11-13 10:11:17.140,Mi 9T,1573639877148.7,-0.62,-9.707,0.157,41.4567593,15.5295955,False,2.761
2019-11-13 10:11:17.160,Mi 9T,1573639877169.1,-0.728,-9.908,0.157,41.4567593,15.5295955,False,2.761
2019-11-13 10:11:17.180,Mi 9T,1573639877189.2,-0.76,-9.592,0.281,41.4567593,15.5295955,False,2.761
2019-11-13 10:11:17.200,Mi 9T,1573639877209.5,-0.666,-9.956,-0.025,41.4567593,15.5295955,False,2.761
2019-11-13 10:11:17.220,Mi 9T,1573639877229.5,-0.683,-9.599,0.365,41.4567593,15.5295955,False,2.761
2019-11-13 10:11:17.240,Mi 9T,1573639877250.3333,-0.693,-9.855,0.0,41.4567593,15.5295955,False,2.761
2019-11-13 10:11:17.260,Mi 9T,1573639877269.6667,-0.693,-9.735,0.386,41.4567593,15.5295955,False,2.761
2019-11-13 10:11:17.280,Mi 9T,1573639877290.2222,-0.851,-9.803,-0.002,41.4567593,15.5295955,False,2.761
2019-11-13 10:11:17.300,Mi 9T,1573639877310.7778,-0.528,-9.723,0.373,41.4567593,15.5295955,False,2.761
2019-11-13 10:11:17.320,Mi 9T,1573639877332.375,-0.678,-9.826,-0.017,41.4567593,15.5295955,False,2.761
2019-11-13 10:11:17.340,Mi 9T,1573639877349.5,-0.72,-9.731,0.348,41.4567593,15.5295955,False,2.761
2019-11-13 10:11:17.360,Mi 9T,1573639877367.625,-0.854,-9.774,-0.036,41.4567593,15.5295955,False,2.761
2019-11-13 10:11:17.380,Mi 9T,1573639877389.2727,-0.696,-9.807,0.25,41.4567593,15.5295955,False,2.761
