UTC_timestamp,device_name,timestamp,x,y,z,lat,long,event,speed
2019-11-13 10:08:51.380,Mi 9T,1573639731389.1,4.007,-7.41,4.118,41.4572109,15.5348655,False,10.01
2019-11-13 10:08:51.400,Mi 9T,1573639731409.3333,3.05,-12.696,-4.124,41.4572109,15.5348655,False,10.01
2019-11-13 10:08:51.420,Mi 9T,1573639731430.0,-2.031,-9.782,1.058,41.4572109,15.5348655,False,10.01
2019-11-13 10:08:51.440,Mi 9T,1573639731450.4,-4.096,-6.638,4.161,41.4572109,15.5348655,False,10.01
2019-11-13 10:08:51.460,Mi 9T,1573639731470.5,-2.421,-8.636,-1.066,41.4572109,15.5348655,False,10.01
2019-11-13 10:08:51.480,Mi 9T,1573639731489.4443,0.195,-9.311,-2.243,41.4572109,15.5348655,False,10.01
2019-11-13 10:08:51.500,Mi 9T,1573639731508.25,2.382,-11.487,-1.178,41.4572109,15.5348655,False,10.01
2019-11-13 10:08:51.520,Mi 9T,1573639731529.4443,1.268,-8.615,2.4,41.4572109,15.5348655,False,10.01
2019-11-13 10:08:51.540,Mi 9T,1573639731549.5,-2.335,-10.239,0.547,41.4572109,15.5348655,False,10.01
2019-11-13 10:08:51.560,Mi 9T,1573639731566.5715,-4.173,-10.237,0.255,41.4572109,15.5348655,False,10.01
2019-11-13 10:08:51.580,Mi 9T,1573639731588.5,-0.781,-8.101,2.966,41.4572109,15.5348655,False,10.01
2019-11-13 10:08:51.600,Mi 9T,1573639731609.125,1.12,-11.73,-4.467,41.4572109,15.5348655,False,10.01
2019-11-13 10:08:51.620,Mi 9T,1573639731629.111,2.77,-10.195,0.328,41.4572109,15.5348655,False,10.01
2019-11-13 10:08:51.640,Mi 9T,1573639731647.875,-0.085,-9.346,1.516,41.4572109,15.5348655,False,10.01
2019-11-13 10:08:51.660,Mi 9T,1573639731669.4,-2.82,-10.019,1.136,41.4572109,15.5348655,False,10.01
2019-11-13 10:08:51.680,Mi 9T,1573639731690.2222,-2.398,-10.459,-1.032,41.4572109,15.5348655,False,10.01
2019-11-13 10:08:51.700,Mi 9T,1573639731709.6667,1.508,-9.581,2.718,41.4572109,15.5348655,False,10.01
2019-11-13 10:08:51.720,Mi 9T,1573639731729.5,0.726,-10.305,-0.197,41.4572109,15.5348655,False,10.01
2019-11-13 10:08:51.740,Mi 9T,1573639731747.6,0.682,-10.283,0.624,41.4572109,15.5348655,False,10.01
2019-11-13 10:08:51.760,Mi 9T,1573639731769.1,-2.648,-9.599,-0.075,41.4572109,15.5348655,False,10.01
2019-11-13 10:08:51.780,Mi 9T,1573639731789.2856,-2.915,-10.081,0.039,41.4572109,15.5348655,False,10.01
2019-11-13 10:08:51.800,Mi 9T,1573639731810.625,0.572,-9.364,-0.269,41.4572109,15.5348655,False,10.01
2019-11-13 10:08:51.820,Mi 9T,1573639731831.3333,2.249,-12.374,-0.582,41.4572357,15.5348429,False,9.947
2019-11-13 10:08:51.840,Mi 9T,1573639731849.9,0.067,-13.274,0.571,41.4572852,15.5347978,False,9.82
2019-11-13 10:08:51.860,Mi 9T,1573639731870.1,0.548,-10.498,5.062,41.4572852,15.5347978,False,9.82
2019-11-13 10:08:51.880,Mi 9T,1573639731889.889,-1.182,-9.712,0.537,41.4572852,15.5347978,False,9.82
2019-11-13 10:08:51.900,Mi 9T,1573639731909.125,-2.732,-8.696,-1.127,41.4572852,15.5347978,False,9.82
2019-11-13 10:08:51.920,Mi 9T,1573639731930.8572,-0.284,-6.55,-0.131,41.4572852,15.5347978,False,9.82
2019-11-13 10:08:51.940,Mi 9T,1573639731949.4546,2.803,-8.856,-3.544,41.4572852,15.5347978,False,9.82
2019-11-13 10:08:51.960,Mi 9T,1573639731971.6667,3.39,-10.392,-0.075,41.4572852,15.5347978,False,9.82
2019-11-13 10:08:51.980,Mi 9T,1573639731990.5,-1.503,-15.259,-0.38,41.4572852,15.5347978,False,9.82
2019-11-13 10:08:52.000,Mi 9T,1573639732009.6667,-3.025,-8.222,7.869,41.4572852,15.5347978,False,9.82
2019-11-13 10:08:52.020,Mi 9T,1573639732030.0,-1.175,-8.579,2.23,41.4572852,15.5347978,False,9.82
2019-11-13 10:08:52.040,Mi 9T,1573639732050.625,0.862,-12.242,-3.973,41.4572852,15.5347978,False,9.82
2019-11-13 10:08:52.060,Mi 9T,1573639732069.875,0.661,-7.275,0.639,41.4572852,15.5347978,False,9.82
2019-11-13 10:08:52.080,Mi 9T,1573639732088.8,-1.256,-11.134,-7.204,41.4572852,15.5347978,False,9.82
2019-11-13 10:08:52.100,Mi 9T,1573639732110.625,-0.076,-6.375,3.058,41.4572852,15.5347978,False,9.82
2019-11-13 10:08:52.120,Mi 9T,1573639732128.9,-1.335,-12.069,-2.828,41.4572852,15.5347978,False,9.82
2019-11-13 10:08:52.140,Mi 9T,1573639732151.125,-0.053,-9.608,4.097,41.4572852,15.5347978,False,9.82
2019-11-13 10:08:52.160,Mi 9T,1573639732168.3333,1.237,-12.146,0.845,41.4572852,15.5347978,False,9.82
2019-11-13 10:08:52.180,Mi 9T,1573639732189.2222,2.416,-9.268,3.373,41.4572852,15.5347978,False,9.82
2019-11-13 10:08:52.200,Mi 9T,1573639732209.4285,-0.414,-10.35,-1.945,41.4572852,15.5347978,False,9.82
2019-11-13 10:08:52.220,Mi 9T,1573639732230.5557,-1.351,-10.79,0.424,41.4572852,15.5347978,False,9.82
2019-11-13 10:08:52.240,Mi 9T,1573639732251.6667,-1.923,-7.158,1.018,41.4572852,15.5347978,False,9.82
2019-11-13 10:08:52.260,Mi 9T,1573639732270.4443,1.023,-9.85,-0.743,41.4572852,15.5347978,False,9.82
2019-11-13 10:08:52.280,Mi 9T,1573639732289.7,0.799,-9.77,-0.32,41.4572852,15.5347978,False,9.82
2019-11-13 10:08:52.300,Mi 9T,1573639732310.875,-0.538,-10.158,0.622,41.4572852,15.5347978,False,9.82
2019-11-13 10:08:52.320,Mi 9T,1573639732331.6667,-1.442,-9.102,0.117,41.4572852,15.5347978,False,9.82
2019-11-13 10:08:52.340,Mi 9T,1573639732350.7144,0.093,-9.993,-0.913,41.4572852,15.5347978,False,9.82
2019-11-13 10:08:52.360,Mi 9T,1573639732369.0908,-0.509,-9.3,0.793,41.4572852,15.5347978,False,9.82
2019-11-13 10:08:52.380,Mi 9T,1573639732388.625,-0.22,-9.054,0.879,41.4572852,15.5347978,False,9.82
2019-11-13 10:08:52.400,Mi 9T,1573639732407.625,0.586,-10.943,-1.276,41.4572852,15.5347978,False,9.82
2019-11-13 10:08:52.420,Mi 9T,1573639732429.7144,-0.321,-10.224,0.881,41.4572852,15.5347978,False,9.82
2019-11-13 10:08:52.440,Mi 9T,1573639732449.4546,-0.912,-7.503,1.756,41.4572852,15.5347978,False,9.82
2019-11-13 10:08:52.460,Mi 9T,1573639732471.0,1.994,-11.447,-1.942,41.4572852,15.5347978,False,9.82
2019-11-13 10:08:52.480,Mi 9T,1573639732489.111,2.726,-11.009,-1.64,41.4572852,15.5347978,False,9.82
2019-11-13 10:08:52.500,Mi 9T,1573639732508.0,1.23,-6.721,3.031,41.4572852,15.5347978,False,9.82
2019-11-13 10:08:52.520,Mi 9T,1573639732528.6,-1.031,-10.012,-1.747,41.4572852,15.5347978,False,9.82
2019-11-13 10:08:52.540,Mi 9T,1573639732550.5,1.892,-7.426,0.648,41.4572852,15.5347978,False,9.82
2019-11-13 10:08:52.560,Mi 9T,1573639732569.1428,3.524,-11.025,-2.359,41.4572852,15.5347978,False,9.82
2019-11-13 10:08:52.580,Mi 9T,1573639732589.7273,0.474,-9.915,-0.041,41.4572852,15.5347978,False,9.82
2019-11-13 10:08:52.600,Mi 9T,1573639732609.5557,-2.211,-12.427,0.262,41.4572852,15.5347978,False,9.82
2019-11-13 10:08:52.620,Mi 9T,1573639732629.0,-2.526,-7.8,5.105,41.4572852,15.5347978,False,9.82
2019-11-13 10:08:52.640,Mi 9T,1573639732648.2,-0.059,-12.301,-3.269,41.4572852,15.5347978,False,9.82
2019-11-13 10:08:52.660,Mi 9T,1573639732669.2727,1.902,-10.402,0.068,41.4572852,15.5347978,False,9.82
2019-11-13 10:08:52.680,Mi 9T,1573639732689.6667,-0.87,-7.72,1.738,41.4572852,15.5347978,False,9.82
2019-11-13 10:08:52.700,Mi 9T,1573639732708.5,-0.928,-10.699,-0.579,41.4572852,15.5347978,False,9.82
2019-11-13 10:08:52.720,Mi 9T,1573639732728.6,2.958,-8.501,0.825,41.4572852,15.5347978,False,9.82
2019-11-13 10:08:52.740,Mi 9T,1573639732748.9,3.645,-12.087,-1.728,41.4572852,15.5347978,False,9.82
2019-11-13 10:08:52.760,Mi 9T,1573639732768.9,-1.992,-9.115,1.299,41.4572852,15.5347978,False,9.82
2019-11-13 10:08:52.780,Mi 9T,1573639732788.9,-3.078,-8.658,2.933,41.4572852,15.5347978,False,9.82
2019-11-13 10:08:52.800,Mi 9T,1573639732808.889,2.381,-10.159,-0.361,41.4572852,15.5347978,False,9.82
2019-11-13 10:08:52.820,Mi 9T,1573639732830.0,5.334,-11.313,-2.013,41.457304,15.5347816,False,9.875
2019-11-13 10:08:52.840,Mi 9T,1573639732849.1,2.239,-12.135,-0.678,41.4573605,15.5347331,False,10.04
2019-11-13 10:08:52.860,Mi 9T,1573639732863.25,-1.143,-8.06,3.21,41.4573605,15.5347331,False,10.04
2019-11-13 10:08:52.880,Mi 9T,1573639732898.0,-2.726,-7.11,3.071,41.4573605,15.5347331,True,10.04
2019-11-13 10:08:52.900,Mi 9T,1573639732900.5,-3.016,-11.145,-1.738,41.4573605,15.5347331,True,10.04
2019-11-13 10:08:52.920,Mi 9T,1573639732934.5,0.734,-9.746,1.034,41.4573605,15.5347331,True,10.04
2019-11-13 10:08:52.940,Mi 9T,1573639732944.5,2.278,-13.313,-3.98,41.4573605,15.5347331,True,10.04
2019-11-13 10:08:52.960,Mi 9T,1573639732968.9092,1.674,-8.468,1.849,41.4573605,15.5347331,True,10.04
2019-11-13 10:08:52.980,Mi 9T,1573639732990.0,-0.096,-10.433,-1.647,41.4573605,15.5347331,False,10.04
2019-11-13 10:08:53.000,Mi 9T,1573639733009.5557,-1.936,-11.582,-1.479,41.4573605,15.5347331,False,10.04
2019-11-13 10:08:53.020,Mi 9T,1573639733029.3333,-0.752,-6.015,2.052,41.4573605,15.5347331,False,10.04
2019-11-13 10:08:53.040,Mi 9T,1573639733048.6,1.898,-6.47,0.462,41.4573605,15.5347331,False,10.04
2019-11-13 10:08:53.060,Mi 9T,1573639733068.5557,1.556,-12.917,-5.461,41.4573605,15.5347331,False,10.04
2019-11-13 10:08:53.080,Mi 9T,1573639733088.3333,-0.428,-8.423,1.651,41.4573605,15.5347331,False,10.04
2019-11-13 10:08:53.100,Mi 9T,1573639733109.25,-1.485,-10.104,1.227,41.4573605,15.5347331,False,10.04
2019-11-13 10:08:53.120,Mi 9T,1573639733129.0,-2.342,-11.565,1.005,41.4573605,15.5347331,False,10.04
2019-11-13 10:08:53.140,Mi 9T,1573639733151.0,0.03,-9.623,2.804,41.4573605,15.5347331,False,10.04
2019-11-13 10:08:53.160,Mi 9T,1573639733168.4285,1.96,-11.739,-0.174,41.4573605,15.5347331,False,10.04
2019-11-13 10:08:53.180,Mi 9T,1573639733188.875,1.242,-10.091,-2.222,41.4573605,15.5347331,False,10.04
2019-11-13 10:08:53.200,Mi 9T,1573639733209.8572,0.726,-7.973,1.888,41.4573605,15.5347331,False,10.04
2019-11-13 10:08:53.220,Mi 9T,1573639733229.7,-2.069,-9.265,-1.638,41.4573605,15.5347331,False,10.04
2019-11-13 10:08:53.240,Mi 9T,1573639733249.0,-2.854,-10.046,-1.352,41.4573605,15.5347331,False,10.04
2019-11-13 10:08:53.260,Mi 9T,1573639733269.889,-0.998,-8.692,1.911,41.4573605,15.5347331,False,10.04
2019-11-13 10:08:53.280,Mi 9T,1573639733289.7778,3.096,-9.382,1.995,41.4573605,15.5347331,False,10.04
2019-11-13 10:08:53.300,Mi 9T,1573639733309.9,3.683,-12.554,-2.657,41.4573605,15.5347331,False,10.04
2019-11-13 10:08:53.320,Mi 9T,1573639733331.25,0.892,-9.875,1.794,41.4573605,15.5347331,False,10.04
2019-11-13 10:08:53.340,Mi 9T,1573639733349.6,-3.195,-8.552,1.037,41.4573605,15.5347331,False,10.04
2019-11-13 10:08:53.360,Mi 9T,1573639733369.4443,-3.679,-8.975,-0.835,41.4573605,15.5347331,False,10.04
2019-11-13 10:08:53.380,Mi 9T,1573639733391.625,-2.449,-8.665,-1.396,41.4573605,15.5347331,False,10.04
2019-11-13 10:08:53.400,Mi 9T,1573639733409.3333,1.458,-11.205,-1.135,41.4573605,15.5347331,False,10.04
2019-11-13 10:08:53.420,Mi 9T,1573639733430.75,3.722,-9.014,1.836,41.4573605,15.5347331,False,10.04
2019-11-13 10:08:53.440,Mi 9T,1573639733449.625,1.512,-12.29,-0.706,41.4573605,15.5347331,False,10.04
2019-11-13 10:08:53.460,Mi 9T,1573639733470.5,-4.277,-10.335,0.091,41.4573605,15.5347331,False,10.04
2019-11-13 10:08:53.480,Mi 9T,1573639733489.8572,-4.638,-5.717,5.082,41.4573605,15.5347331,False,10.04
2019-11-13 10:08:53.500,Mi 9T,1573639733508.6,-1.901,-8.851,-4.372,41.4573605,15.5347331,False,10.04
2019-11-13 10:08:53.520,Mi 9T,1573639733528.4443,4.441,-9.082,-2.246,41.4573605,15.5347331,False,10.04
2019-11-13 10:08:53.540,Mi 9T,1573639733548.5,5.228,-10.457,-1.949,41.4573605,15.5347331,False,10.04
2019-11-13 10:08:53.560,Mi 9T,1573639733567.375,-0.215,-10.306,1.067,41.4573605,15.5347331,False,10.04
2019-11-13 10:08:53.580,Mi 9T,1573639733587.6667,-4.797,-10.142,3.187,41.4573605,15.5347331,False,10.04
2019-11-13 10:08:53.600,Mi 9T,1573639733609.5557,-1.716,-7.478,2.987,41.4573605,15.5347331,False,10.04
2019-11-13 10:08:53.620,Mi 9T,1573639733628.4443,2.469,-11.12,-2.912,41.4573605,15.5347331,False,10.04
2019-11-13 10:08:53.640,Mi 9T,1573639733650.5,2.871,-11.852,-2.935,41.4573605,15.5347331,False,10.04
2019-11-13 10:08:53.660,Mi 9T,1573639733668.5557,-0.917,-4.249,4.56,41.4573605,15.5347331,False,10.04
2019-11-13 10:08:53.680,Mi 9T,1573639733689.1,-4.057,-11.518,-3.697,41.4573605,15.5347331,False,10.04
2019-11-13 10:08:53.700,Mi 9T,1573639733708.2222,-4.965,-11.542,-0.698,41.4573605,15.5347331,False,10.04
2019-11-13 10:08:53.720,Mi 9T,1573639733729.889,-1.24,-8.468,5.077,41.4573605,15.5347331,False,10.04
2019-11-13 10:08:53.740,Mi 9T,1573639733749.4443,0.883,-11.291,0.215,41.4573605,15.5347331,False,10.04
2019-11-13 10:08:53.760,Mi 9T,1573639733769.3333,2.216,-12.433,-0.061,41.4573605,15.5347331,False,10.04
2019-11-13 10:08:53.780,Mi 9T,1573639733789.0,1.677,-9.822,2.476,41.4573605,15.5347331,False,10.04
2019-11-13 10:08:53.800,Mi 9T,1573639733808.75,-0.576,-9.877,-0.695,41.4573605,15.5347331,False,10.04
2019-11-13 10:08:53.820,Mi 9T,1573639733830.0,-2.276,-5.815,0.912,41.4573605,15.5347331,False,10.04
2019-11-13 10:08:53.840,Mi 9T,1573639733849.3,-0.166,-9.307,-2.736,41.4573605,15.5347331,False,10.04
2019-11-13 10:08:53.860,Mi 9T,1573639733869.3,1.629,-11.506,-1.881,41.4573605,15.5347331,False,10.04
2019-11-13 10:08:53.880,Mi 9T,1573639733889.4,0.881,-12.421,0.974,41.4573605,15.5347331,False,10.04
2019-11-13 10:08:53.900,Mi 9T,1573639733909.4,0.52,-8.133,5.51,41.4573605,15.5347331,False,10.04
2019-11-13 10:08:53.920,Mi 9T,1573639733930.889,-1.637,-10.65,-0.08,41.4573605,15.5347331,False,10.04
2019-11-13 10:08:53.940,Mi 9T,1573639733949.6667,-3.754,-10.477,-2.283,41.4573605,15.5347331,False,10.04
2019-11-13 10:08:53.960,Mi 9T,1573639733970.125,-3.392,-7.91,-1.628,41.4573605,15.5347331,False,10.04
2019-11-13 10:08:53.980,Mi 9T,1573639733990.0,0.089,-7.741,-0.134,41.4573605,15.5347331,False,10.04
2019-11-13 10:08:54.000,Mi 9T,1573639734008.25,1.415,-13.312,-4.295,41.4573605,15.5347331,False,10.04
2019-11-13 10:08:54.020,Mi 9T,1573639734028.5,0.599,-10.187,3.848,41.4573605,15.5347331,False,10.04
2019-11-13 10:08:54.040,Mi 9T,1573639734048.4,-3.342,-11.64,1.76,41.4573605,15.5347331,False,10.04
2019-11-13 10:08:54.060,Mi 9T,1573639734068.8572,-3.115,-6.01,6.023,41.4573605,15.5347331,False,10.04
2019-11-13 10:08:54.080,Mi 9T,1573639734088.9,0.856,-10.571,-3.209,41.4573605,15.5347331,False,10.04
2019-11-13 10:08:54.100,Mi 9T,1573639734109.5557,3.513,-10.453,-3.548,41.4573605,15.5347331,False,10.04
2019-11-13 10:08:54.120,Mi 9T,1573639734128.3333,0.512,-10.345,-3.248,41.4573605,15.5347331,False,10.04
2019-11-13 10:08:54.140,Mi 9T,1573639734149.625,-1.963,-8.083,4.661,41.4573605,15.5347331,False,10.04
2019-11-13 10:08:54.160,Mi 9T,1573639734168.7,-3.115,-11.529,0.382,41.4573605,15.5347331,False,10.04
2019-11-13 10:08:54.180,Mi 9T,1573639734189.125,-1.009,-9.649,4.082,41.4573605,15.5347331,False,10.04
2019-11-13 10:08:54.200,Mi 9T,1573639734209.5715,0.932,-10.32,-0.167,41.4573605,15.5347331,False,10.04
2019-11-13 10:08:54.220,Mi 9T,1573639734229.375,2.967,-9.417,-1.085,41.4573605,15.5347331,False,10.04
2019-11-13 10:08:54.240,Mi 9T,1573639734248.4443,0.486,-9.981,-1.936,41.4573605,15.5347331,False,10.04
2019-11-13 10:08:54.260,Mi 9T,1573639734269.2222,-1.712,-8.169,0.664,41.4573605,15.5347331,False,10.04
2019-11-13 10:08:54.280,Mi 9T,1573639734288.5,-0.605,-8.36,0.891,41.4573605,15.5347331,False,10.04
2019-11-13 10:08:54.300,Mi 9T,1573639734309.5,2.081,-9.0,0.163,41.4573605,15.5347331,False,10.04
2019-11-13 10:08:54.320,Mi 9T,1573639734329.7144,-0.589,-11.924,-2.227,41.4573605,15.5347331,False,10.04
2019-11-13 10:08:54.340,Mi 9T,1573639734349.6,-3.917,-8.617,2.434,41.4573605,15.5347331,False,10.04
2019-11-13 10:08:54.360,Mi 9T,1573639734368.4443,-1.856,-6.897,2.037,41.4573605,15.5347331,False,10.04
