UTC_timestamp,device_name,timestamp,x,y,z,lat,long,event,speed
2019-11-13 12:00:05.900,Mi 9T,1573646405909.5,0.651,-12.668,-2.116,41.4590621,15.5268122,False,13.318
2019-11-13 12:00:05.920,Mi 9T,1573646405931.3333,-0.64,-10.639,0.748,41.4590621,15.5268122,False,13.318
2019-11-13 12:00:05.940,Mi 9T,1573646405950.8333,-1.826,-8.854,-1.164,41.4590621,15.5268122,False,13.318
2019-11-13 12:00:05.960,Mi 9T,1573646405969.125,0.274,-9.962,-3.765,41.4590621,15.5268122,False,13.318
2019-11-13 12:00:05.980,Mi 9T,1573646405986.625,2.635,-7.594,-3.767,41.4590621,15.5268122,False,13.318
2019-11-13 12:00:06.000,Mi 9T,1573646406008.6667,1.16,-10.391,-4.54,41.4590621,15.5268122,False,13.318
2019-11-13 12:00:06.020,Mi 9T,1573646406029.8572,-0.434,-7.05,-0.292,41.4590621,15.5268122,False,13.318
2019-11-13 12:00:06.040,Mi 9T,1573646406048.6667,0.108,-10.222,-1.907,41.4590621,15.5268122,False,13.318
2019-11-13 12:00:06.060,Mi 9T,1573646406068.2856,0.093,-10.866,-1.895,41.4590621,15.5268122,False,13.318
2019-11-13 12:00:06.080,Mi 9T,1573646406088.8,0.067,-9.15,0.505,41.4590621,15.5268122,False,13.318
2019-11-13 12:00:06.100,Mi 9T,1573646406109.5,0.15,-9.114,-0.782,41.4590621,15.5268122,False,13.318
2019-11-13 12:00:06.120,Mi 9T,1573646406129.25,-0.149,-8.92,-2.651,41.4590621,15.5268122,False,13.318
2019-11-13 12:00:06.140,Mi 9T,1573646406149.625,0.562,-9.987,-2.88,41.4590621,15.5268122,False,13.318
2019-11-13 12:00:06.160,Mi 9T,1573646406168.6667,0.569,-7.555,0.781,41.4590621,15.5268122,False,13.318
2019-11-13 12:00:06.180,Mi 9T,1573646406189.7778,-0.513,-8.848,-0.121,41.459086,15.5267946,False,13.38
2019-11-13 12:00:06.200,Mi 9T,1573646406209.1,-0.131,-10.753,-1.991,41.4591696,15.5267329,False,13.599
2019-11-13 12:00:06.220,Mi 9T,1573646406229.6667,1.535,-8.395,0.084,41.4591696,15.5267329,False,13.599
2019-11-13 12:00:06.240,Mi 9T,1573646406248.2222,1.152,-10.513,-1.815,41.4591696,15.5267329,False,13.599
2019-11-13 12:00:06.260,Mi 9T,1573646406269.6,0.011,-9.073,-1.494,41.4591696,15.5267329,False,13.599
2019-11-13 12:00:06.280,Mi 9T,1573646406290.0,-1.026,-9.031,-0.93,41.4591696,15.5267329,False,13.599
2019-11-13 12:00:06.300,Mi 9T,1573646406310.625,-0.603,-8.307,-0.139,41.4591696,15.5267329,False,13.599
2019-11-13 12:00:06.320,Mi 9T,1573646406329.0,0.342,-8.403,-1.674,41.4591696,15.5267329,False,13.599
2019-11-13 12:00:06.340,Mi 9T,1573646406349.5,1.953,-8.46,-1.951,41.4591696,15.5267329,False,13.599
2019-11-13 12:00:06.360,Mi 9T,1573646406371.2856,1.92,-8.491,-2.36,41.4591696,15.5267329,False,13.599
2019-11-13 12:00:06.380,Mi 9T,1573646406390.4285,0.735,-9.57,-1.53,41.4591696,15.5267329,False,13.599
2019-11-13 12:00:06.400,Mi 9T,1573646406409.4443,-1.475,-9.71,-1.066,41.4591696,15.5267329,False,13.599
2019-11-13 12:00:06.420,Mi 9T,1573646406428.625,-1.302,-10.189,-0.427,41.4591696,15.5267329,False,13.599
2019-11-13 12:00:06.440,Mi 9T,1573646406448.2,0.972,-11.719,-0.813,41.4591696,15.5267329,False,13.599
2019-11-13 12:00:06.460,Mi 9T,1573646406469.1667,2.069,-8.64,0.386,41.4591696,15.5267329,False,13.599
2019-11-13 12:00:06.480,Mi 9T,1573646406488.8,-1.115,-10.458,-3.393,41.4591696,15.5267329,False,13.599
2019-11-13 12:00:06.500,Mi 9T,1573646406510.75,-2.403,-8.296,-0.387,41.4591696,15.5267329,False,13.599
2019-11-13 12:00:06.520,Mi 9T,1573646406531.125,0.399,-9.207,-2.644,41.4591696,15.5267329,False,13.599
2019-11-13 12:00:06.540,Mi 9T,1573646406549.4443,3.54,-12.243,-2.929,41.4591696,15.5267329,False,13.599
2019-11-13 12:00:06.560,Mi 9T,1573646406569.8333,4.321,-9.999,1.496,41.4591696,15.5267329,False,13.599
2019-11-13 12:00:06.580,Mi 9T,1573646406588.4443,0.254,-12.326,0.163,41.4591696,15.5267329,False,13.599
2019-11-13 12:00:06.600,Mi 9T,1573646406609.1,-6.123,-8.374,-0.235,41.4591696,15.5267329,False,13.599
2019-11-13 12:00:06.620,Mi 9T,1573646406629.5557,-4.689,-4.441,-2.134,41.4591696,15.5267329,False,13.599
2019-11-13 12:00:06.640,Mi 9T,1573646406648.375,1.838,-10.796,-7.554,41.4591696,15.5267329,False,13.599
2019-11-13 12:00:06.660,Mi 9T,1573646406668.0,5.744,-9.654,-1.091,41.4591696,15.5267329,False,13.599
2019-11-13 12:00:06.680,Mi 9T,1573646406690.0,0.239,-12.507,-1.662,41.4591696,15.5267329,False,13.599
2019-11-13 12:00:06.700,Mi 9T,1573646406709.0,-0.271,-10.944,3.746,41.4591696,15.5267329,False,13.599
2019-11-13 12:00:06.720,Mi 9T,1573646406730.25,-1.36,-11.714,0.32,41.4591696,15.5267329,False,13.599
2019-11-13 12:00:06.740,Mi 9T,1573646406749.375,1.38,-10.573,0.439,41.4591696,15.5267329,False,13.599
2019-11-13 12:00:06.760,Mi 9T,1573646406768.875,0.091,-9.492,-4.098,41.4591696,15.5267329,False,13.599
2019-11-13 12:00:06.780,Mi 9T,1573646406788.4,-2.415,-8.888,-1.668,41.4591696,15.5267329,False,13.599
2019-11-13 12:00:06.800,Mi 9T,1573646406809.375,-3.08,-7.545,-1.148,41.4591696,15.5267329,False,13.599
2019-11-13 12:00:06.820,Mi 9T,1573646406828.889,2.489,-11.391,-1.1,41.4591696,15.5267329,False,13.599
2019-11-13 12:00:06.840,Mi 9T,1573646406850.889,3.597,-10.761,-1.835,41.4591696,15.5267329,False,13.599
2019-11-13 12:00:06.860,Mi 9T,1573646406869.0,1.726,-9.764,0.261,41.4591696,15.5267329,False,13.599
2019-11-13 12:00:06.880,Mi 9T,1573646406889.0,-1.719,-8.64,0.021,41.4591696,15.5267329,False,13.599
2019-11-13 12:00:06.900,Mi 9T,1573646406909.5715,-2.974,-8.379,-2.924,41.4591696,15.5267329,False,13.599
2019-11-13 12:00:06.920,Mi 9T,1573646406928.5,-0.114,-8.219,-3.457,41.4591696,15.5267329,False,13.599
2019-11-13 12:00:06.940,Mi 9T,1573646406950.75,3.627,-10.485,-3.8,41.4591696,15.5267329,False,13.599
2019-11-13 12:00:06.960,Mi 9T,1573646406970.5,3.226,-9.855,0.473,41.4591696,15.5267329,False,13.599
2019-11-13 12:00:06.980,Mi 9T,1573646406989.1667,-1.068,-11.326,0.253,41.4591696,15.5267329,False,13.599
2019-11-13 12:00:07.000,Mi 9T,1573646407007.375,-3.356,-10.268,1.143,41.4591696,15.5267329,False,13.599
2019-11-13 12:00:07.020,Mi 9T,1573646407028.5,-2.365,-9.023,-0.218,41.4591696,15.5267329,False,13.599
2019-11-13 12:00:07.040,Mi 9T,1573646407049.5,1.563,-8.753,-2.226,41.4591696,15.5267329,False,13.599
2019-11-13 12:00:07.060,Mi 9T,1573646407069.625,2.956,-10.354,-5.136,41.4591696,15.5267329,False,13.599
2019-11-13 12:00:07.080,Mi 9T,1573646407090.375,0.988,-9.855,-2.06,41.4591696,15.5267329,False,13.599
2019-11-13 12:00:07.100,Mi 9T,1573646407109.75,-1.926,-8.932,0.331,41.4591696,15.5267329,False,13.599
2019-11-13 12:00:07.120,Mi 9T,1573646407128.6667,-2.216,-10.462,-0.238,41.4591696,15.5267329,False,13.599
2019-11-13 12:00:07.140,Mi 9T,1573646407148.0,0.4,-9.605,-0.445,41.4591696,15.5267329,False,13.599
2019-11-13 12:00:07.160,Mi 9T,1573646407168.7144,2.432,-9.655,-1.842,41.4591696,15.5267329,False,13.599
2019-11-13 12:00:07.180,Mi 9T,1573646407189.6,2.323,-9.404,-1.898,41.4591696,15.5267329,False,13.599
2019-11-13 12:00:07.200,Mi 9T,1573646407210.0,-0.583,-9.697,-2.654,41.4591696,15.5267329,False,13.599
2019-11-13 12:00:07.220,Mi 9T,1573646407229.111,-2.461,-9.364,-1.693,41.4591696,15.5267329,False,13.599
2019-11-13 12:00:07.240,Mi 9T,1573646407248.2,-1.348,-8.914,-0.657,41.4591696,15.5267329,False,13.599
2019-11-13 12:00:07.260,Mi 9T,1573646407268.3,1.205,-9.523,-1.367,41.4591696,15.5267329,False,13.599
2019-11-13 12:00:07.280,Mi 9T,1573646407288.3,2.353,-9.983,-1.934,41.4591696,15.5267329,False,13.599
2019-11-13 12:00:07.300,Mi 9T,1573646407308.4,0.79,-9.872,-1.535,41.4591696,15.5267329,False,13.599
2019-11-13 12:00:07.320,Mi 9T,1573646407328.7,-0.366,-9.076,-0.559,41.4591696,15.5267329,False,13.599
2019-11-13 12:00:07.340,Mi 9T,1573646407348.6,-0.538,-9.515,-1.814,41.4591696,15.5267329,False,13.599
2019-11-13 12:00:07.360,Mi 9T,1573646407368.6,0.23,-9.379,-1.828,41.4591696,15.5267329,False,13.599
2019-11-13 12:00:07.380,Mi 9T,1573646407383.8,0.291,-9.307,-1.441,41.4591696,15.5267329,False,13.599
2019-11-13 12:00:07.400,Mi 9T,1573646407416.5,0.502,-9.755,-1.458,41.4591696,15.5267329,True,13.599
2019-11-13 12:00:07.420,Mi 9T,1573646407416.5,0.502,-9.755,-1.458,41.4591696,15.5267329,True,13.599
2019-11-13 12:00:07.440,Mi 9T,1573646407451.4285,1.061,-9.814,-1.295,41.4591696,15.5267329,True,13.599
2019-11-13 12:00:07.460,Mi 9T,1573646407469.8572,0.422,-9.031,-0.639,41.4591696,15.5267329,True,13.599
2019-11-13 12:00:07.480,Mi 9T,1573646407487.4443,0.242,-9.333,-1.289,41.4591696,15.5267329,True,13.599
2019-11-13 12:00:07.500,Mi 9T,1573646407509.4,0.132,-9.322,-2.334,41.4591696,15.5267329,False,13.599
2019-11-13 12:00:07.520,Mi 9T,1573646407530.0,0.609,-9.64,-1.879,41.4591696,15.5267329,False,13.599
2019-11-13 12:00:07.540,Mi 9T,1573646407550.2,0.354,-9.399,-0.954,41.4591696,15.5267329,False,13.599
2019-11-13 12:00:07.560,Mi 9T,1573646407570.875,0.414,-10.306,-1.066,41.4591696,15.5267329,False,13.599
2019-11-13 12:00:07.580,Mi 9T,1573646407589.6667,0.05,-10.246,-1.252,41.4591696,15.5267329,False,13.599
2019-11-13 12:00:07.600,Mi 9T,1573646407611.3333,0.453,-9.358,-0.548,41.4591696,15.5267329,False,13.599
2019-11-13 12:00:07.620,Mi 9T,1573646407630.5,0.428,-8.814,-1.999,41.4591696,15.5267329,False,13.599
2019-11-13 12:00:07.640,Mi 9T,1573646407649.875,1.568,-9.826,-2.583,41.4591696,15.5267329,False,13.599
2019-11-13 12:00:07.660,Mi 9T,1573646407667.875,1.497,-9.771,-2.517,41.4591696,15.5267329,False,13.599
2019-11-13 12:00:07.680,Mi 9T,1573646407688.7144,0.561,-10.575,-0.673,41.4591696,15.5267329,False,13.599
2019-11-13 12:00:07.700,Mi 9T,1573646407708.6667,-0.629,-9.706,0.122,41.4591696,15.5267329,False,13.599
2019-11-13 12:00:07.720,Mi 9T,1573646407729.2222,-0.272,-10.315,-1.405,41.4591696,15.5267329,False,13.599
2019-11-13 12:00:07.740,Mi 9T,1573646407748.375,0.276,-10.374,-2.417,41.4591696,15.5267329,False,13.599
2019-11-13 12:00:07.760,Mi 9T,1573646407767.5,1.12,-9.626,-1.663,41.4591696,15.5267329,False,13.599
2019-11-13 12:00:07.780,Mi 9T,1573646407789.375,0.451,-10.537,-1.839,41.4591696,15.5267329,False,13.599
2019-11-13 12:00:07.800,Mi 9T,1573646407809.7778,-0.112,-10.459,-0.818,41.4591696,15.5267329,False,13.599
2019-11-13 12:00:07.820,Mi 9T,1573646407830.625,-0.112,-11.514,-0.749,41.4591696,15.5267329,False,13.599
2019-11-13 12:00:07.840,Mi 9T,1573646407850.3333,0.686,-10.546,-0.566,41.4591696,15.5267329,False,13.599
2019-11-13 12:00:07.860,Mi 9T,1573646407869.2,0.534,-10.385,-1.966,41.4591696,15.5267329,False,13.599
2019-11-13 12:00:07.880,Mi 9T,1573646407889.3,0.83,-9.369,-2.03,41.4591696,15.5267329,False,13.599
2019-11-13 12:00:07.900,Mi 9T,1573646407910.2222,0.225,-10.087,-2.806,41.4591696,15.5267329,False,13.599
2019-11-13 12:00:07.920,Mi 9T,1573646407930.1,-0.215,-9.896,-1.606,41.4591696,15.5267329,False,13.599
2019-11-13 12:00:07.940,Mi 9T,1573646407949.7778,-0.672,-9.769,-1.262,41.4591696,15.5267329,False,13.599
2019-11-13 12:00:07.960,Mi 9T,1573646407968.4443,0.281,-9.84,-1.188,41.4591696,15.5267329,False,13.599
2019-11-13 12:00:07.980,Mi 9T,1573646407988.0,0.787,-9.158,-2.088,41.4591696,15.5267329,False,13.599
2019-11-13 12:00:08.000,Mi 9T,1573646408007.4443,1.907,-9.734,-1.838,41.4591696,15.5267329,False,13.599
2019-11-13 12:00:08.020,Mi 9T,1573646408027.4285,1.035,-8.422,-2.183,41.4591696,15.5267329,False,13.599
2019-11-13 12:00:08.040,Mi 9T,1573646408048.1,-0.259,-9.614,-2.031,41.4591696,15.5267329,False,13.599
2019-11-13 12:00:08.060,Mi 9T,1573646408067.9,-0.673,-8.917,-1.284,41.4591696,15.5267329,False,13.599
2019-11-13 12:00:08.080,Mi 9T,1573646408087.7778,0.642,-9.134,-0.592,41.4591696,15.5267329,False,13.599
2019-11-13 12:00:08.100,Mi 9T,1573646408109.0,1.008,-9.677,-2.016,41.4591696,15.5267329,False,13.599
2019-11-13 12:00:08.120,Mi 9T,1573646408130.1428,1.609,-8.576,-0.691,41.4591696,15.5267329,False,13.599
2019-11-13 12:00:08.140,Mi 9T,1573646408150.4285,0.256,-10.165,-2.322,41.4591696,15.5267329,False,13.599
2019-11-13 12:00:08.160,Mi 9T,1573646408170.125,-0.188,-8.344,-0.38,41.4591696,15.5267329,False,13.599
2019-11-13 12:00:08.180,Mi 9T,1573646408189.4546,-0.114,-9.315,-1.723,41.4592279,15.5266904,False,13.583
2019-11-13 12:00:08.200,Mi 9T,1573646408209.2222,0.841,-8.955,-1.25,41.4593832,15.526577,False,13.54
2019-11-13 12:00:08.220,Mi 9T,1573646408229.125,1.38,-9.258,-1.616,41.4593832,15.526577,False,13.54
2019-11-13 12:00:08.240,Mi 9T,1573646408248.75,1.571,-9.823,-1.06,41.4593832,15.526577,False,13.54
2019-11-13 12:00:08.260,Mi 9T,1573646408268.5557,0.979,-9.71,-1.175,41.4593832,15.526577,False,13.54
2019-11-13 12:00:08.280,Mi 9T,1573646408290.2856,-0.065,-9.046,-0.781,41.4593832,15.526577,False,13.54
2019-11-13 12:00:08.300,Mi 9T,1573646408309.4443,-0.195,-9.632,-1.379,41.4593832,15.526577,False,13.54
2019-11-13 12:00:08.320,Mi 9T,1573646408331.5715,-0.113,-8.138,-1.68,41.4593832,15.526577,False,13.54
2019-11-13 12:00:08.340,Mi 9T,1573646408349.625,1.105,-9.073,-2.153,41.4593832,15.526577,False,13.54
2019-11-13 12:00:08.360,Mi 9T,1573646408368.2,1.402,-9.322,-2.464,41.4593832,15.526577,False,13.54
2019-11-13 12:00:08.380,Mi 9T,1573646408388.7778,1.234,-9.958,-1.311,41.4593832,15.526577,False,13.54
2019-11-13 12:00:08.400,Mi 9T,1573646408408.25,-0.131,-9.494,-0.849,41.4593832,15.526577,False,13.54
2019-11-13 12:00:08.420,Mi 9T,1573646408431.8572,-0.19,-9.766,-0.902,41.4593832,15.526577,False,13.54
2019-11-13 12:00:08.440,Mi 9T,1573646408449.4285,0.425,-9.096,-1.472,41.4593832,15.526577,False,13.54
2019-11-13 12:00:08.460,Mi 9T,1573646408469.0,1.348,-9.826,-2.523,41.4593832,15.526577,False,13.54
2019-11-13 12:00:08.480,Mi 9T,1573646408489.8,0.845,-9.259,-1.741,41.4593832,15.526577,False,13.54
2019-11-13 12:00:08.500,Mi 9T,1573646408508.6667,-0.246,-10.071,-1.605,41.4593832,15.526577,False,13.54
2019-11-13 12:00:08.520,Mi 9T,1573646408528.5557,-0.427,-9.69,-0.775,41.4593832,15.526577,False,13.54
2019-11-13 12:00:08.540,Mi 9T,1573646408549.875,0.642,-9.326,-0.538,41.4593832,15.526577,False,13.54
2019-11-13 12:00:08.560,Mi 9T,1573646408569.0,1.362,-9.994,-2.389,41.4593832,15.526577,False,13.54
2019-11-13 12:00:08.580,Mi 9T,1573646408589.125,1.578,-9.356,-1.989,41.4593832,15.526577,False,13.54
2019-11-13 12:00:08.600,Mi 9T,1573646408610.7144,0.25,-9.198,-1.83,41.4593832,15.526577,False,13.54
2019-11-13 12:00:08.620,Mi 9T,1573646408631.625,-0.261,-9.504,-0.966,41.4593832,15.526577,False,13.54
2019-11-13 12:00:08.640,Mi 9T,1573646408650.4,-0.751,-10.154,-1.909,41.4593832,15.526577,False,13.54
2019-11-13 12:00:08.660,Mi 9T,1573646408671.3333,0.518,-10.893,-1.07,41.4593832,15.526577,False,13.54
2019-11-13 12:00:08.680,Mi 9T,1573646408688.375,1.024,-12.771,-2.102,41.4593832,15.526577,False,13.54
2019-11-13 12:00:08.700,Mi 9T,1573646408708.7,1.564,-10.258,1.485,41.4593832,15.526577,False,13.54
2019-11-13 12:00:08.720,Mi 9T,1573646408728.6,-1.813,-10.368,-1.906,41.4593832,15.526577,False,13.54
2019-11-13 12:00:08.740,Mi 9T,1573646408749.2222,-2.801,-6.712,0.072,41.4593832,15.526577,False,13.54
2019-11-13 12:00:08.760,Mi 9T,1573646408770.7144,-1.445,-10.3,-5.782,41.4593832,15.526577,False,13.54
2019-11-13 12:00:08.780,Mi 9T,1573646408790.3333,2.896,-7.256,-1.685,41.4593832,15.526577,False,13.54
2019-11-13 12:00:08.800,Mi 9T,1573646408809.7144,4.925,-9.701,-3.452,41.4593832,15.526577,False,13.54
2019-11-13 12:00:08.820,Mi 9T,1573646408829.5,3.399,-12.653,-1.342,41.4593832,15.526577,False,13.54
2019-11-13 12:00:08.840,Mi 9T,1573646408851.125,-1.298,-8.412,2.082,41.4593832,15.526577,False,13.54
2019-11-13 12:00:08.860,Mi 9T,1573646408867.3333,-0.696,-10.336,-2.909,41.4593832,15.526577,False,13.54
2019-11-13 12:00:08.880,Mi 9T,1573646408888.2,1.756,-5.427,-2.427,41.4593832,15.526577,False,13.54
