UTC_timestamp,device_name,x,y,z,lat,long,speed,event
2019-10-25 17:24:51.480,SmartbBox,0.035,-0.017,-0.978,0,0,0.0,False
2019-10-25 17:24:51.500,SmartbBox,0.006,-0.014,-0.974,0,0,0.0,False
2019-10-25 17:24:51.520,SmartbBox,0.006,-0.073,-0.922,0,0,0.0,False
2019-10-25 17:24:51.540,SmartbBox,0.021,-0.014,-1.084,0,0,0.0,False
2019-10-25 17:24:51.560,SmartbBox,-0.04,-0.034,-1.076,0,0,0.0,False
2019-10-25 17:24:51.580,SmartbBox,0.003,-0.013,-1.0,0,0,0.0,False
2019-10-25 17:24:51.600,SmartbBox,-0.011,-0.012,-0.89,0,0,0.0,False
2019-10-25 17:24:51.620,SmartbBox,-0.018,0.019,-0.969,0,0,0.0,False
2019-10-25 17:24:51.640,SmartbBox,-0.026,-0.039,-0.97,0,0,0.0,False
2019-10-25 17:24:51.660,SmartbBox,0.003,0.017,-1.026,0,0,0.0,False
2019-10-25 17:24:51.680,SmartbBox,0.01,0.015,-0.973,0,0,0.0,False
2019-10-25 17:24:51.700,SmartbBox,-0.005,-0.041,-1.027,0,0,0.0,False
2019-10-25 17:24:51.720,SmartbBox,-0.005,-0.07,-1.001,0,0,0.0,False
2019-10-25 17:24:51.740,SmartbBox,-0.037,-0.066,-1.023,0,0,0.0,False
2019-10-25 17:24:51.760,SmartbBox,-0.034,-0.066,-0.997,0,0,0.0,False
2019-10-25 17:24:51.780,SmartbBox,-0.022,-0.01,-0.97,0,0,0.0,False
2019-10-25 17:24:51.800,SmartbBox,0.003,0.017,-1.026,0,0,0.0,False
2019-10-25 17:24:51.820,SmartbBox,-0.022,0.02,-0.996,0,0,0.0,False
2019-10-25 17:24:51.840,SmartbBox,0.003,0.017,-1.026,0,0,0.0,False
2019-10-25 17:24:51.860,SmartbBox,0.043,0.01,-0.95,0,0,0.0,False
2019-10-25 17:24:51.880,SmartbBox,-0.022,0.02,-0.996,0,0,0.0,False
2019-10-25 17:24:51.900,SmartbBox,-0.008,-0.04,-1.054,0,0,0.0,False
2019-10-25 17:24:51.920,SmartbBox,-0.012,-0.038,-1.08,0,0,0.0,False
2019-10-25 17:24:51.940,SmartbBox,-0.016,-0.068,-1.08,0,0,0.0,False
2019-10-25 17:24:51.960,SmartbBox,0.002,-0.072,-0.948,0,0,0.0,False
2019-10-25 17:24:51.980,SmartbBox,-0.028,0.022,-1.048,0,0,0.0,False
2019-10-25 17:24:52.000,SmartbBox,-0.004,-0.011,-1.053,0,0,0.0,False
2019-10-25 17:24:52.020,SmartbBox,-0.018,0.019,-0.969,0,0,0.0,False
2019-10-25 17:24:52.040,SmartbBox,0.023,0.071,-0.946,0,0,0.0,False
2019-10-25 17:24:52.060,SmartbBox,0.0,0.018,-1.052,0,0,0.0,False
2019-10-25 17:24:52.080,SmartbBox,-0.026,-0.038,-0.97,0,0,0.0,False
2019-10-25 17:24:52.100,SmartbBox,-0.058,-0.034,-0.992,0,0,0.0,False
2019-10-25 17:24:52.120,SmartbBox,-0.001,-0.042,-1.0,0,0,0.0,False
2019-10-25 17:24:52.140,SmartbBox,-0.005,-0.07,-1.001,0,0,0.0,False
2019-10-25 17:24:52.160,SmartbBox,-0.033,-0.037,-1.023,0,0,0.0,False
2019-10-25 17:24:52.180,SmartbBox,-0.026,-0.009,-0.996,0,0,0.0,False
2019-10-25 17:24:52.200,SmartbBox,-0.026,-0.038,-0.97,0,0,0.0,False
2019-10-25 17:24:52.220,SmartbBox,-0.018,0.019,-0.969,0,0,0.0,False
2019-10-25 17:24:52.240,SmartbBox,-0.022,-0.039,-0.944,0,0,0.0,False
2019-10-25 17:24:52.260,SmartbBox,-0.022,-0.01,-0.97,0,0,0.0,False
2019-10-25 17:24:52.280,SmartbBox,-0.03,-0.038,-0.996,0,0,0.0,False
2019-10-25 17:24:52.300,SmartbBox,-0.051,-0.035,-0.94,0,0,0.0,False
2019-10-25 17:24:52.320,SmartbBox,-0.022,-0.01,-0.97,0,0,0.0,False
2019-10-25 17:24:52.340,SmartbBox,-0.026,-0.038,-0.97,0,0,0.0,False
2019-10-25 17:24:52.360,SmartbBox,-0.026,-0.008,-0.996,0,0,0.0,False
2019-10-25 17:24:52.380,SmartbBox,-0.018,0.019,-0.969,0,0,0.0,False
2019-10-25 17:24:52.400,SmartbBox,0.006,-0.013,-0.974,0,0,0.0,False
2019-10-25 17:24:52.420,SmartbBox,-0.018,0.048,-0.995,0,0,0.0,False
2019-10-25 17:24:52.440,SmartbBox,-0.025,0.021,-1.022,0,0,0.0,False
2019-10-25 17:24:52.460,SmartbBox,-0.001,-0.012,-1.026,0,0,0.0,False
2019-10-25 17:24:52.480,SmartbBox,-0.026,-0.008,-0.996,0,0,0.0,False
2019-10-25 17:24:52.500,SmartbBox,-0.026,-0.008,-0.996,0,0,0.0,False
2019-10-25 17:24:52.520,SmartbBox,-0.025,0.021,-1.022,0,0,0.0,False
2019-10-25 17:24:52.540,SmartbBox,-0.022,-0.01,-0.97,0,0,0.0,False
2019-10-25 17:24:52.560,SmartbBox,-0.029,-0.008,-1.022,0,0,0.0,False
2019-10-25 17:24:52.580,SmartbBox,0.0,0.018,-1.052,0,0,0.0,False
2019-10-25 17:24:52.600,SmartbBox,0.003,-0.012,-1.0,0,0,0.0,False
2019-10-25 17:24:52.620,SmartbBox,-0.026,-0.038,-0.97,0,0,0.0,False
2019-10-25 17:24:52.640,SmartbBox,-0.057,-0.004,-1.018,0,0,0.0,False
2019-10-25 17:24:52.660,SmartbBox,-0.008,-0.04,-1.053,0,0,0.0,False
2019-10-25 17:24:52.680,SmartbBox,-0.022,0.02,-0.996,0,0,0.0,False
2019-10-25 17:24:52.700,SmartbBox,0.01,0.015,-0.973,0,0,0.0,False
2019-10-25 17:24:52.720,SmartbBox,0.01,-0.014,-0.947,0,0,0.0,False
2019-10-25 17:24:52.740,SmartbBox,-0.034,0.079,-0.938,0,0,0.0,False
2019-10-25 17:24:52.760,SmartbBox,-0.033,-0.036,-1.023,0,0,0.0,False
2019-10-25 17:24:52.780,SmartbBox,-0.014,0.018,-0.942,0,0,0.0,False
2019-10-25 17:24:52.800,SmartbBox,-0.014,0.018,-0.942,0,0,0.0,False
2019-10-25 17:24:52.820,SmartbBox,-0.044,-0.064,-1.076,0,0,0.0,False
2019-10-25 17:24:52.840,SmartbBox,-0.027,-0.068,-0.944,0,0,0.0,False
2019-10-25 17:24:52.860,SmartbBox,-0.022,-0.01,-0.97,0,0,0.0,False
2019-10-25 17:24:52.880,SmartbBox,-0.037,-0.066,-1.023,0,0,0.0,False
2019-10-25 17:24:52.900,SmartbBox,-0.029,-0.008,-1.022,0,0,0.0,False
2019-10-25 17:24:52.920,SmartbBox,-0.024,0.05,-1.048,0,0,0.0,False
2019-10-25 17:24:52.940,SmartbBox,0.006,-0.014,-0.974,0,0,0.0,False
2019-10-25 17:24:52.960,SmartbBox,-0.022,0.02,-0.996,0,0,0.0,False
2019-10-25 17:24:52.980,SmartbBox,-0.021,0.05,-1.022,0,0,0.0,True
2019-10-25 17:24:53.000,SmartbBox,-0.029,-0.008,-1.022,0,0,0.0,False
2019-10-25 17:24:53.020,SmartbBox,-0.022,-0.01,-0.97,0,0,0.0,False
2019-10-25 17:24:53.040,SmartbBox,-0.023,-0.069,-0.918,0,0,0.0,False
2019-10-25 17:24:53.060,SmartbBox,-0.037,-0.066,-1.023,0,0,0.0,False
2019-10-25 17:24:53.080,SmartbBox,-0.026,-0.038,-0.97,0,0,0.0,False
2019-10-25 17:24:53.100,SmartbBox,-0.022,-0.01,-0.969,0,0,0.0,False
2019-10-25 17:24:53.120,SmartbBox,0.006,-0.014,-0.974,0,0,0.0,False
2019-10-25 17:24:53.140,SmartbBox,-0.018,0.019,-0.969,0,0,0.0,False
2019-10-25 17:24:53.160,SmartbBox,-0.026,-0.008,-0.996,0,0,0.0,False
2019-10-25 17:24:53.180,SmartbBox,-0.029,-0.008,-1.022,0,0,0.0,False
2019-10-25 17:24:53.200,SmartbBox,-0.022,-0.01,-0.97,0,0,0.0,False
2019-10-25 17:24:53.220,SmartbBox,-0.034,-0.066,-0.997,0,0,0.0,False
2019-10-25 17:24:53.240,SmartbBox,-0.034,-0.066,-0.997,0,0,0.0,False
2019-10-25 17:24:53.260,SmartbBox,-0.029,-0.008,-1.022,0,0,0.0,False
2019-10-25 17:24:53.280,SmartbBox,-0.026,-0.038,-0.97,0,0,0.0,False
2019-10-25 17:24:53.300,SmartbBox,-0.037,-0.036,-1.049,0,0,0.0,False
2019-10-25 17:24:53.320,SmartbBox,-0.025,0.021,-1.022,0,0,0.0,False
2019-10-25 17:24:53.340,SmartbBox,-0.026,-0.009,-0.996,0,0,0.0,False
2019-10-25 17:24:53.360,SmartbBox,-0.026,-0.038,-0.97,0,0,0.0,False
2019-10-25 17:24:53.380,SmartbBox,-0.019,-0.01,-0.943,0,0,0.0,False
2019-10-25 17:24:53.400,SmartbBox,-0.055,-0.034,-0.966,0,0,0.0,False
2019-10-25 17:24:53.420,SmartbBox,-0.027,-0.068,-0.944,0,0,0.0,False
2019-10-25 17:24:53.440,SmartbBox,-0.014,0.018,-0.942,0,0,0.0,False
2019-10-25 17:24:53.460,SmartbBox,-0.014,-0.012,-0.916,0,0,0.0,False
2019-10-25 17:24:53.480,SmartbBox,-0.026,-0.008,-0.996,0,0,0.0,False
2019-10-25 17:24:53.500,SmartbBox,-0.022,0.02,-0.996,0,0,0.0,False
2019-10-25 17:24:53.520,SmartbBox,-0.018,0.019,-0.969,0,0,0.0,False
2019-10-25 17:24:53.540,SmartbBox,-0.034,-0.066,-0.997,0,0,0.0,False
2019-10-25 17:24:53.560,SmartbBox,-0.03,-0.038,-0.996,0,0,0.0,False
2019-10-25 17:24:53.580,SmartbBox,-0.033,-0.037,-1.023,0,0,0.0,False
2019-10-25 17:24:53.600,SmartbBox,-0.037,-0.036,-1.049,0,0,0.0,False
2019-10-25 17:24:53.620,SmartbBox,-0.033,-0.037,-1.023,0,0,0.0,False
2019-10-25 17:24:53.640,SmartbBox,-0.022,-0.01,-0.97,0,0,0.0,False
2019-10-25 17:24:53.660,SmartbBox,-0.03,-0.038,-0.996,0,0,0.0,False
2019-10-25 17:24:53.680,SmartbBox,-0.025,0.021,-1.022,0,0,0.0,False
2019-10-25 17:24:53.700,SmartbBox,-0.05,-0.006,-0.966,0,0,0.0,False
2019-10-25 17:24:53.720,SmartbBox,-0.022,-0.039,-0.944,0,0,0.0,False
2019-10-25 17:24:53.740,SmartbBox,-0.026,-0.008,-0.996,0,0,0.0,False
2019-10-25 17:24:53.760,SmartbBox,-0.03,-0.038,-0.996,0,0,0.0,False
2019-10-25 17:24:53.780,SmartbBox,-0.033,-0.037,-1.023,0,0,0.0,False
2019-10-25 17:24:53.800,SmartbBox,-0.053,0.025,-1.018,0,0,0.0,False
2019-10-25 17:24:53.820,SmartbBox,-0.022,-0.01,-0.97,0,0,0.0,False
2019-10-25 17:24:53.840,SmartbBox,-0.053,0.025,-1.018,0,0,0.0,False
2019-10-25 17:24:53.860,SmartbBox,-0.026,-0.009,-0.996,0,0,0.0,False
2019-10-25 17:24:53.880,SmartbBox,-0.014,0.018,-0.942,0,0,0.0,False
2019-10-25 17:24:53.900,SmartbBox,-0.018,-0.01,-0.943,0,0,0.0,False
2019-10-25 17:24:53.920,SmartbBox,-0.058,-0.034,-0.992,0,0,0.0,False
2019-10-25 17:24:53.940,SmartbBox,-0.055,-0.034,-0.966,0,0,0.0,False
2019-10-25 17:24:53.960,SmartbBox,-0.022,0.02,-0.996,0,0,0.0,False
2019-10-25 17:24:53.980,SmartbBox,-0.037,-0.036,-1.049,0,0,0.0,False
2019-10-25 17:24:54.000,SmartbBox,-0.037,-0.036,-1.049,0,0,0.0,False
2019-10-25 17:24:54.020,SmartbBox,-0.032,-0.007,-1.049,0,0,0.0,False
2019-10-25 17:24:54.040,SmartbBox,-0.026,-0.038,-0.97,0,0,0.0,False
2019-10-25 17:24:54.060,SmartbBox,-0.038,-0.095,-0.998,0,0,0.0,False
2019-10-25 17:24:54.080,SmartbBox,-0.025,0.021,-1.022,0,0,0.0,False
2019-10-25 17:24:54.100,SmartbBox,-0.026,-0.009,-0.996,0,0,0.0,False
2019-10-25 17:24:54.120,SmartbBox,-0.026,-0.038,-0.97,0,0,0.0,False
2019-10-25 17:24:54.140,SmartbBox,-0.064,-0.002,-1.072,0,0,0.0,False
2019-10-25 17:24:54.160,SmartbBox,-0.057,0.026,-1.044,0,0,0.0,False
2019-10-25 17:24:54.180,SmartbBox,-0.018,0.019,-0.969,0,0,0.0,False
2019-10-25 17:24:54.200,SmartbBox,-0.018,0.019,-0.969,0,0,0.0,False
2019-10-25 17:24:54.220,SmartbBox,-0.05,0.024,-0.992,0,0,0.0,False
2019-10-25 17:24:54.240,SmartbBox,-0.05,-0.006,-0.966,0,0,0.0,False
2019-10-25 17:24:54.260,SmartbBox,-0.019,-0.04,-0.917,0,0,0.0,False
2019-10-25 17:24:54.280,SmartbBox,-0.058,-0.034,-0.992,0,0,0.0,False
2019-10-25 17:24:54.300,SmartbBox,-0.022,-0.01,-0.97,0,0,0.0,False
2019-10-25 17:24:54.320,SmartbBox,-0.022,-0.01,-0.97,0,0,0.0,False
2019-10-25 17:24:54.340,SmartbBox,-0.037,-0.066,-1.023,0,0,0.0,False
2019-10-25 17:24:54.360,SmartbBox,-0.086,0.03,-1.04,0,0,0.0,False
2019-10-25 17:24:54.380,SmartbBox,-0.04,0.024,-1.128,0,0,0.0,False
2019-10-25 17:24:54.400,SmartbBox,-0.058,-0.003,-1.018,0,0,0.0,False
2019-10-25 17:24:54.420,SmartbBox,-0.066,-0.061,-1.02,0,0,0.0,False
2019-10-25 17:24:54.440,SmartbBox,0.007,-0.014,-0.973,0,0,0.0,False
2019-10-25 17:24:54.460,SmartbBox,-0.05,-0.006,-0.965,0,0,0.0,False
