UTC_timestamp,device_name,x,y,z,lat,long,speed,event
2019-10-22 15:06:11.480,SmartbBox,-0.033,-0.037,-1.023,0,0,0.0,False
2019-10-22 15:06:11.500,SmartbBox,-0.054,-0.005,-0.992,0,0,0.0,False
2019-10-22 15:06:11.520,SmartbBox,-0.062,-0.033,-1.019,0,0,0.0,False
2019-10-22 15:06:11.540,SmartbBox,-0.029,-0.008,-1.022,0,0,0.0,False
2019-10-22 15:06:11.560,SmartbBox,-0.061,-0.003,-1.045,0,0,0.0,False
2019-10-22 15:06:11.580,SmartbBox,-0.036,-0.006,-1.076,0,0,0.0,False
2019-10-22 15:06:11.600,SmartbBox,-0.082,0.029,-1.014,0,0,0.0,False
2019-10-22 15:06:11.620,SmartbBox,-0.029,-0.008,-1.022,0,0,0.0,False
2019-10-22 15:06:11.640,SmartbBox,-0.078,0.028,-0.988,0,0,0.0,False
2019-10-22 15:06:11.660,SmartbBox,-0.062,-0.033,-1.019,0,0,0.0,False
2019-10-22 15:06:11.680,SmartbBox,-0.026,-0.038,-0.97,0,0,0.0,False
2019-10-22 15:06:11.700,SmartbBox,-0.062,-0.033,-1.019,0,0,0.0,False
2019-10-22 15:06:11.720,SmartbBox,-0.033,-0.037,-1.023,0,0,0.0,False
2019-10-22 15:06:11.740,SmartbBox,-0.062,-0.033,-1.019,0,0,0.0,False
2019-10-22 15:06:11.760,SmartbBox,-0.061,-0.003,-1.045,0,0,0.0,False
2019-10-22 15:06:11.780,SmartbBox,-0.09,-0.029,-1.015,0,0,0.0,False
2019-10-22 15:06:11.800,SmartbBox,-0.057,-0.004,-1.018,0,0,0.0,False
2019-10-22 15:06:11.820,SmartbBox,-0.028,0.022,-1.048,0,0,0.0,False
2019-10-22 15:06:11.840,SmartbBox,-0.09,-0.029,-1.015,0,0,0.0,False
2019-10-22 15:06:11.860,SmartbBox,-0.057,-0.004,-1.018,0,0,0.0,False
2019-10-22 15:06:11.880,SmartbBox,-0.086,-0.03,-0.988,0,0,0.0,False
2019-10-22 15:06:11.900,SmartbBox,-0.086,-0.03,-0.988,0,0,0.0,False
2019-10-22 15:06:11.920,SmartbBox,-0.094,-0.028,-1.042,0,0,0.0,False
2019-10-22 15:06:11.940,SmartbBox,-0.029,-0.008,-1.022,0,0,0.0,False
2019-10-22 15:06:11.960,SmartbBox,-0.062,-0.033,-1.019,0,0,0.0,False
2019-10-22 15:06:11.980,SmartbBox,-0.09,0.001,-1.041,0,0,0.0,False
2019-10-22 15:06:12.000,SmartbBox,-0.046,0.023,-0.965,0,0,0.0,False
2019-10-22 15:06:12.020,SmartbBox,-0.09,-0.029,-1.015,0,0,0.0,False
2019-10-22 15:06:12.040,SmartbBox,-0.054,-0.005,-0.992,0,0,0.0,False
2019-10-22 15:06:12.060,SmartbBox,-0.062,-0.033,-1.019,0,0,0.0,False
2019-10-22 15:06:12.080,SmartbBox,-0.086,0.0,-1.014,0,0,0.0,False
2019-10-22 15:06:12.100,SmartbBox,-0.097,-0.027,-1.068,0,0,0.0,False
2019-10-22 15:06:12.120,SmartbBox,-0.032,-0.007,-1.049,0,0,0.0,False
2019-10-22 15:06:12.140,SmartbBox,-0.065,-0.032,-1.045,0,0,0.0,False
2019-10-22 15:06:12.160,SmartbBox,-0.068,-0.031,-1.072,0,0,0.0,False
2019-10-22 15:06:12.180,SmartbBox,-0.032,-0.007,-1.049,0,0,0.0,False
2019-10-22 15:06:12.200,SmartbBox,-0.057,-0.004,-1.018,0,0,0.0,False
2019-10-22 15:06:12.220,SmartbBox,-0.058,-0.034,-0.992,0,0,0.0,False
2019-10-22 15:06:12.240,SmartbBox,-0.062,-0.033,-1.019,0,0,0.0,False
2019-10-22 15:06:12.260,SmartbBox,-0.082,-0.001,-0.988,0,0,0.0,False
2019-10-22 15:06:12.280,SmartbBox,-0.09,-0.029,-1.015,0,0,0.0,False
2019-10-22 15:06:12.300,SmartbBox,-0.033,-0.037,-1.023,0,0,0.0,False
2019-10-22 15:06:12.320,SmartbBox,-0.061,-0.003,-1.045,0,0,0.0,False
2019-10-22 15:06:12.340,SmartbBox,-0.097,-0.027,-1.068,0,0,0.0,False
2019-10-22 15:06:12.360,SmartbBox,-0.064,-0.002,-1.072,0,0,0.0,False
2019-10-22 15:06:12.380,SmartbBox,-0.094,-0.028,-1.042,0,0,0.0,False
2019-10-22 15:06:12.400,SmartbBox,-0.062,-0.033,-1.019,0,0,0.0,False
2019-10-22 15:06:12.420,SmartbBox,-0.086,0.0,-1.014,0,0,0.0,False
2019-10-22 15:06:12.440,SmartbBox,-0.086,0.0,-1.014,0,0,0.0,False
2019-10-22 15:06:12.460,SmartbBox,-0.057,-0.004,-1.018,0,0,0.0,False
2019-10-22 15:06:12.480,SmartbBox,-0.037,-0.036,-1.049,0,0,0.0,False
2019-10-22 15:06:12.500,SmartbBox,-0.058,-0.003,-1.018,0,0,0.0,False
2019-10-22 15:06:12.520,SmartbBox,-0.094,-0.028,-1.042,0,0,0.0,False
2019-10-22 15:06:12.540,SmartbBox,-0.082,-0.001,-0.988,0,0,0.0,False
2019-10-22 15:06:12.560,SmartbBox,-0.09,-0.029,-1.015,0,0,0.0,False
2019-10-22 15:06:12.580,SmartbBox,-0.053,0.025,-1.018,0,0,0.0,False
2019-10-22 15:06:12.600,SmartbBox,-0.061,-0.003,-1.045,0,0,0.0,False
2019-10-22 15:06:12.620,SmartbBox,-0.086,-0.03,-0.988,0,0,0.0,False
2019-10-22 15:06:12.640,SmartbBox,-0.026,-0.038,-0.97,0,0,0.0,False
2019-10-22 15:06:12.660,SmartbBox,-0.09,-0.029,-1.015,0,0,0.0,False
2019-10-22 15:06:12.680,SmartbBox,-0.093,0.002,-1.068,0,0,0.0,False
2019-10-22 15:06:12.700,SmartbBox,-0.097,0.003,-1.094,0,0,0.0,False
2019-10-22 15:06:12.720,SmartbBox,-0.064,-0.002,-1.072,0,0,0.0,False
2019-10-22 15:06:12.740,SmartbBox,-0.082,0.029,-1.014,0,0,0.0,False
2019-10-22 15:06:12.760,SmartbBox,-0.075,0.027,-0.961,0,0,0.0,False
2019-10-22 15:06:12.780,SmartbBox,-0.083,-0.03,-0.962,0,0,0.0,False
2019-10-22 15:06:12.800,SmartbBox,-0.079,-0.001,-0.962,0,0,0.0,False
2019-10-22 15:06:12.820,SmartbBox,-0.057,-0.004,-1.018,0,0,0.0,False
2019-10-22 15:06:12.840,SmartbBox,-0.086,-0.029,-0.988,0,0,0.0,False
2019-10-22 15:06:12.860,SmartbBox,-0.094,-0.028,-1.042,0,0,0.0,False
2019-10-22 15:06:12.880,SmartbBox,-0.058,-0.034,-0.992,0,0,0.0,False
2019-10-22 15:06:12.900,SmartbBox,-0.078,0.028,-0.988,0,0,0.0,False
2019-10-22 15:06:12.920,SmartbBox,-0.082,0.029,-1.014,0,0,0.0,False
2019-10-22 15:06:12.940,SmartbBox,-0.082,0.029,-1.014,0,0,0.0,False
2019-10-22 15:06:12.960,SmartbBox,-0.057,-0.004,-1.018,0,0,0.0,False
2019-10-22 15:06:12.980,SmartbBox,-0.057,-0.004,-1.018,0,0,0.0,True
2019-10-22 15:06:13.000,SmartbBox,-0.09,0.001,-1.041,0,0,0.0,False
2019-10-22 15:06:13.020,SmartbBox,-0.089,0.031,-1.067,0,0,0.0,False
2019-10-22 15:06:13.040,SmartbBox,-0.057,-0.004,-1.018,0,0,0.0,False
2019-10-22 15:06:13.060,SmartbBox,-0.09,0.001,-1.041,0,0,0.0,False
2019-10-22 15:06:13.080,SmartbBox,-0.085,0.03,-1.04,0,0,0.0,False
2019-10-22 15:06:13.100,SmartbBox,-0.086,0.0,-1.014,0,0,0.0,False
2019-10-22 15:06:13.120,SmartbBox,-0.086,-0.03,-0.988,0,0,0.0,False
2019-10-22 15:06:13.140,SmartbBox,-0.061,-0.003,-1.045,0,0,0.0,False
2019-10-22 15:06:13.160,SmartbBox,-0.118,-0.025,-1.011,0,0,0.0,False
2019-10-22 15:06:13.180,SmartbBox,-0.09,-0.029,-1.015,0,0,0.0,False
2019-10-22 15:06:13.200,SmartbBox,-0.097,-0.027,-1.068,0,0,0.0,False
2019-10-22 15:06:13.220,SmartbBox,-0.118,0.005,-1.037,0,0,0.0,False
2019-10-22 15:06:13.240,SmartbBox,-0.118,0.035,-1.063,0,0,0.0,False
2019-10-22 15:06:13.260,SmartbBox,-0.036,0.024,-1.102,0,0,0.0,False
2019-10-22 15:06:13.280,SmartbBox,-0.032,0.023,-1.075,0,0,0.0,False
2019-10-22 15:06:13.300,SmartbBox,-0.078,0.058,-1.013,0,0,0.0,False
2019-10-22 15:06:13.320,SmartbBox,-0.082,0.029,-1.014,0,0,0.0,False
2019-10-22 15:06:13.340,SmartbBox,-0.062,-0.032,-1.019,0,0,0.0,False
2019-10-22 15:06:13.360,SmartbBox,-0.061,-0.003,-1.045,0,0,0.0,False
2019-10-22 15:06:13.380,SmartbBox,-0.09,-0.058,-0.989,0,0,0.0,False
2019-10-22 15:06:13.400,SmartbBox,-0.062,-0.033,-1.019,0,0,0.0,False
2019-10-22 15:06:13.420,SmartbBox,-0.09,-0.029,-1.015,0,0,0.0,False
2019-10-22 15:06:13.440,SmartbBox,-0.094,-0.028,-1.042,0,0,0.0,False
2019-10-22 15:06:13.460,SmartbBox,-0.082,-0.001,-0.988,0,0,0.0,False
2019-10-22 15:06:13.480,SmartbBox,-0.086,0.0,-1.014,0,0,0.0,False
2019-10-22 15:06:13.500,SmartbBox,-0.11,0.033,-1.01,0,0,0.0,False
2019-10-22 15:06:13.520,SmartbBox,-0.09,-0.029,-1.015,0,0,0.0,False
2019-10-22 15:06:13.540,SmartbBox,-0.086,0.0,-1.014,0,0,0.0,False
2019-10-22 15:06:13.560,SmartbBox,-0.062,-0.033,-1.019,0,0,0.0,False
2019-10-22 15:06:13.580,SmartbBox,-0.054,-0.005,-0.992,0,0,0.0,False
2019-10-22 15:06:13.600,SmartbBox,-0.114,0.004,-1.01,0,0,0.0,False
2019-10-22 15:06:13.620,SmartbBox,-0.082,-0.001,-0.988,0,0,0.0,False
2019-10-22 15:06:13.640,SmartbBox,-0.075,0.056,-0.987,0,0,0.0,False
2019-10-22 15:06:13.660,SmartbBox,-0.09,0.001,-1.041,0,0,0.0,False
2019-10-22 15:06:13.680,SmartbBox,-0.104,0.031,-0.957,0,0,0.0,False
2019-10-22 15:06:13.700,SmartbBox,-0.082,0.029,-1.014,0,0,0.0,False
2019-10-22 15:06:13.720,SmartbBox,-0.05,0.024,-0.992,0,0,0.0,False
2019-10-22 15:06:13.740,SmartbBox,-0.086,0.0,-1.014,0,0,0.0,False
2019-10-22 15:06:13.760,SmartbBox,-0.09,-0.029,-1.015,0,0,0.0,False
2019-10-22 15:06:13.780,SmartbBox,-0.086,0.0,-1.014,0,0,0.0,False
2019-10-22 15:06:13.800,SmartbBox,-0.097,-0.027,-1.068,0,0,0.0,False
2019-10-22 15:06:13.820,SmartbBox,-0.085,0.03,-1.04,0,0,0.0,False
2019-10-22 15:06:13.840,SmartbBox,-0.085,0.03,-1.04,0,0,0.0,False
2019-10-22 15:06:13.860,SmartbBox,-0.078,0.058,-1.014,0,0,0.0,False
2019-10-22 15:06:13.880,SmartbBox,-0.057,0.026,-1.044,0,0,0.0,False
2019-10-22 15:06:13.900,SmartbBox,-0.089,0.031,-1.067,0,0,0.0,False
2019-10-22 15:06:13.920,SmartbBox,-0.082,-0.001,-0.988,0,0,0.0,False
2019-10-22 15:06:13.940,SmartbBox,-0.082,-0.001,-0.988,0,0,0.0,False
2019-10-22 15:06:13.960,SmartbBox,-0.122,-0.024,-1.038,0,0,0.0,False
2019-10-22 15:06:13.980,SmartbBox,-0.086,0.0,-1.014,0,0,0.0,False
2019-10-22 15:06:14.000,SmartbBox,-0.09,0.001,-1.041,0,0,0.0,False
2019-10-22 15:06:14.020,SmartbBox,-0.062,-0.033,-1.019,0,0,0.0,False
2019-10-22 15:06:14.040,SmartbBox,-0.078,0.058,-1.014,0,0,0.0,False
2019-10-22 15:06:14.060,SmartbBox,-0.082,0.029,-1.014,0,0,0.0,False
2019-10-22 15:06:14.080,SmartbBox,-0.114,0.004,-1.01,0,0,0.0,False
2019-10-22 15:06:14.100,SmartbBox,-0.085,0.03,-1.04,0,0,0.0,False
2019-10-22 15:06:14.120,SmartbBox,-0.057,-0.004,-1.018,0,0,0.0,False
2019-10-22 15:06:14.140,SmartbBox,-0.054,-0.005,-0.992,0,0,0.0,False
2019-10-22 15:06:14.160,SmartbBox,-0.086,-0.03,-0.988,0,0,0.0,False
2019-10-22 15:06:14.180,SmartbBox,-0.054,-0.005,-0.992,0,0,0.0,False
2019-10-22 15:06:14.200,SmartbBox,-0.094,-0.028,-1.042,0,0,0.0,False
2019-10-22 15:06:14.220,SmartbBox,-0.078,0.028,-0.988,0,0,0.0,False
2019-10-22 15:06:14.240,SmartbBox,-0.114,0.034,-1.036,0,0,0.0,False
2019-10-22 15:06:14.260,SmartbBox,-0.085,0.06,-1.066,0,0,0.0,False
2019-10-22 15:06:14.280,SmartbBox,-0.082,0.029,-1.014,0,0,0.0,False
2019-10-22 15:06:14.300,SmartbBox,-0.053,0.025,-1.018,0,0,0.0,False
2019-10-22 15:06:14.320,SmartbBox,-0.085,0.03,-1.04,0,0,0.0,False
2019-10-22 15:06:14.340,SmartbBox,-0.09,0.001,-1.041,0,0,0.0,False
2019-10-22 15:06:14.360,SmartbBox,-0.062,-0.033,-1.019,0,0,0.0,False
2019-10-22 15:06:14.380,SmartbBox,-0.082,0.029,-1.014,0,0,0.0,False
2019-10-22 15:06:14.400,SmartbBox,-0.082,-0.001,-0.988,0,0,0.0,False
2019-10-22 15:06:14.420,SmartbBox,-0.085,0.03,-1.04,0,0,0.0,False
2019-10-22 15:06:14.440,SmartbBox,-0.082,0.029,-1.014,0,0,0.0,False
2019-10-22 15:06:14.460,SmartbBox,-0.078,0.057,-1.014,0,0,0.0,False
