UTC_timestamp,device_name,x,y,z,lat,long,speed,event
2019-10-28 10:55:28.480,SmartbBox,-0.026,-0.102,-1.007,0,0,0.0,False
2019-10-28 10:55:28.500,SmartbBox,-0.024,-0.062,-0.901,0,0,0.0,False
2019-10-28 10:55:28.520,SmartbBox,-0.058,-0.013,-0.852,0,0,0.0,False
2019-10-28 10:55:28.540,SmartbBox,-0.053,-0.054,-1.036,0,0,0.0,False
2019-10-28 10:55:28.560,SmartbBox,0.069,-0.018,-1.106,0,0,0.0,False
2019-10-28 10:55:28.580,SmartbBox,-0.187,0.039,-0.916,0,0,0.0,False
2019-10-28 10:55:28.600,SmartbBox,-0.012,-0.087,-0.874,0,0,0.0,False
2019-10-28 10:55:28.620,SmartbBox,0.026,-0.096,-0.844,0,0,0.0,False
2019-10-28 10:55:28.640,SmartbBox,-0.086,-0.068,-0.933,0,0,0.0,False
2019-10-28 10:55:28.660,SmartbBox,-0.152,-0.034,-0.806,0,0,0.0,False
2019-10-28 10:55:28.680,SmartbBox,0.012,-0.096,-0.687,0,0,0.0,False
2019-10-28 10:55:28.700,SmartbBox,-0.066,0.011,-0.932,0,0,0.0,False
2019-10-28 10:55:28.720,SmartbBox,-0.132,0.005,-0.911,0,0,0.0,False
2019-10-28 10:55:28.740,SmartbBox,-0.062,-0.013,-0.799,0,0,0.0,False
2019-10-28 10:55:28.760,SmartbBox,-0.024,-0.062,-0.901,0,0,0.0,False
2019-10-28 10:55:28.780,SmartbBox,-0.059,0.011,-1.01,0,0,0.0,False
2019-10-28 10:55:28.800,SmartbBox,-0.034,-0.038,-0.955,0,0,0.0,False
2019-10-28 10:55:28.820,SmartbBox,-0.076,-0.029,-0.932,0,0,0.0,False
2019-10-28 10:55:28.840,SmartbBox,-0.059,0.011,-1.01,0,0,0.0,False
2019-10-28 10:55:28.860,SmartbBox,-0.059,0.011,-1.01,0,0,0.0,False
2019-10-28 10:55:28.880,SmartbBox,-0.061,0.011,-0.984,0,0,0.0,False
2019-10-28 10:55:28.900,SmartbBox,-0.059,0.011,-1.01,0,0,0.0,False
2019-10-28 10:55:28.920,SmartbBox,-0.042,-0.014,-1.036,0,0,0.0,False
2019-10-28 10:55:28.940,SmartbBox,-0.064,0.011,-0.958,0,0,0.0,False
2019-10-28 10:55:28.960,SmartbBox,-0.053,-0.014,-0.904,0,0,0.0,False
2019-10-28 10:55:28.980,SmartbBox,-0.08,-0.029,-0.88,0,0,0.0,False
2019-10-28 10:55:29.000,SmartbBox,-0.04,-0.038,-0.876,0,0,0.0,False
2019-10-28 10:55:29.020,SmartbBox,-0.055,-0.014,-0.878,0,0,0.0,False
2019-10-28 10:55:29.040,SmartbBox,-0.053,-0.014,-0.904,0,0,0.0,False
2019-10-28 10:55:29.060,SmartbBox,-0.051,-0.014,-0.931,0,0,0.0,False
2019-10-28 10:55:29.080,SmartbBox,-0.026,0.002,-0.928,0,0,0.0,False
2019-10-28 10:55:29.100,SmartbBox,-0.04,-0.038,-0.876,0,0,0.0,False
2019-10-28 10:55:29.120,SmartbBox,-0.055,-0.014,-0.878,0,0,0.0,False
2019-10-28 10:55:29.140,SmartbBox,-0.028,0.002,-0.902,0,0,0.0,False
2019-10-28 10:55:29.160,SmartbBox,-0.055,-0.014,-0.878,0,0,0.0,False
2019-10-28 10:55:29.180,SmartbBox,-0.055,-0.014,-0.878,0,0,0.0,False
2019-10-28 10:55:29.200,SmartbBox,-0.051,-0.014,-0.931,0,0,0.0,False
2019-10-28 10:55:29.220,SmartbBox,-0.051,-0.014,-0.931,0,0,0.0,False
2019-10-28 10:55:29.240,SmartbBox,-0.051,-0.014,-0.931,0,0,0.0,False
2019-10-28 10:55:29.260,SmartbBox,-0.038,-0.038,-0.902,0,0,0.0,False
2019-10-28 10:55:29.280,SmartbBox,-0.011,-0.022,-0.927,0,0,0.0,False
2019-10-28 10:55:29.300,SmartbBox,-0.037,-0.038,-0.929,0,0,0.0,False
2019-10-28 10:55:29.320,SmartbBox,-0.051,-0.014,-0.931,0,0,0.0,False
2019-10-28 10:55:29.340,SmartbBox,-0.026,0.002,-0.928,0,0,0.0,False
2019-10-28 10:55:29.360,SmartbBox,-0.046,-0.014,-0.983,0,0,0.0,False
2019-10-28 10:55:29.380,SmartbBox,-0.009,-0.022,-0.953,0,0,0.0,False
2019-10-28 10:55:29.400,SmartbBox,-0.024,0.002,-0.955,0,0,0.0,False
2019-10-28 10:55:29.420,SmartbBox,-0.001,0.017,-0.926,0,0,0.0,False
2019-10-28 10:55:29.440,SmartbBox,-0.001,0.017,-0.926,0,0,0.0,False
2019-10-28 10:55:29.460,SmartbBox,-0.028,0.002,-0.902,0,0,0.0,False
2019-10-28 10:55:29.480,SmartbBox,-0.049,-0.014,-0.957,0,0,0.0,False
2019-10-28 10:55:29.500,SmartbBox,-0.046,-0.014,-0.983,0,0,0.0,False
2019-10-28 10:55:29.520,SmartbBox,-0.009,-0.022,-0.953,0,0,0.0,False
2019-10-28 10:55:29.540,SmartbBox,-0.051,-0.014,-0.931,0,0,0.0,False
2019-10-28 10:55:29.560,SmartbBox,-0.038,-0.038,-0.902,0,0,0.0,False
2019-10-28 10:55:29.580,SmartbBox,-0.041,-0.038,-0.876,0,0,0.0,False
2019-10-28 10:55:29.600,SmartbBox,-0.037,-0.038,-0.929,0,0,0.0,False
2019-10-28 10:55:29.620,SmartbBox,-0.026,0.002,-0.929,0,0,0.0,False
2019-10-28 10:55:29.640,SmartbBox,-0.034,-0.038,-0.956,0,0,0.0,False
2019-10-28 10:55:29.660,SmartbBox,-0.032,-0.038,-0.982,0,0,0.0,False
2019-10-28 10:55:29.680,SmartbBox,-0.003,0.017,-0.9,0,0,0.0,False
2019-10-28 10:55:29.700,SmartbBox,-0.028,0.002,-0.902,0,0,0.0,False
2019-10-28 10:55:29.720,SmartbBox,0.001,-0.047,-0.899,0,0,0.0,False
2019-10-28 10:55:29.740,SmartbBox,-0.015,-0.022,-0.874,0,0,0.0,False
2019-10-28 10:55:29.760,SmartbBox,-0.028,0.002,-0.902,0,0,0.0,False
2019-10-28 10:55:29.780,SmartbBox,-0.011,-0.022,-0.927,0,0,0.0,False
2019-10-28 10:55:29.800,SmartbBox,0.006,-0.047,-0.952,0,0,0.0,False
2019-10-28 10:55:29.820,SmartbBox,-0.028,0.002,-0.902,0,0,0.0,False
2019-10-28 10:55:29.840,SmartbBox,-0.013,-0.023,-0.901,0,0,0.0,False
2019-10-28 10:55:29.860,SmartbBox,0.012,-0.008,-0.899,0,0,0.0,False
2019-10-28 10:55:29.880,SmartbBox,0.012,-0.008,-0.899,0,0,0.0,False
2019-10-28 10:55:29.900,SmartbBox,0.037,0.008,-0.896,0,0,0.0,False
2019-10-28 10:55:29.920,SmartbBox,0.12,0.052,-0.996,0,0,0.0,False
2019-10-28 10:55:29.940,SmartbBox,0.064,0.022,-0.921,0,0,0.0,False
2019-10-28 10:55:29.960,SmartbBox,0.066,0.022,-0.947,0,0,0.0,False
2019-10-28 10:55:29.980,SmartbBox,0.076,-0.002,-0.893,0,0,0.0,True
2019-10-28 10:55:30.000,SmartbBox,0.022,-0.032,-0.845,0,0,0.0,False
2019-10-28 10:55:30.020,SmartbBox,-0.013,-0.023,-0.901,0,0,0.0,False
2019-10-28 10:55:30.040,SmartbBox,-0.024,-0.062,-0.901,0,0,0.0,False
2019-10-28 10:55:30.060,SmartbBox,0.01,-0.008,-0.872,0,0,0.0,False
2019-10-28 10:55:30.080,SmartbBox,0.016,-0.008,-0.951,0,0,0.0,False
2019-10-28 10:55:30.100,SmartbBox,0.033,-0.032,-0.976,0,0,0.0,False
2019-10-28 10:55:30.120,SmartbBox,0.054,-0.017,-0.922,0,0,0.0,False
2019-10-28 10:55:30.140,SmartbBox,0.081,-0.002,-0.946,0,0,0.0,False
2019-10-28 10:55:30.160,SmartbBox,0.066,0.022,-0.947,0,0,0.0,False
2019-10-28 10:55:30.180,SmartbBox,0.016,-0.008,-0.951,0,0,0.0,False
2019-10-28 10:55:30.200,SmartbBox,0.026,-0.032,-0.897,0,0,0.0,False
2019-10-28 10:55:30.220,SmartbBox,0.031,-0.032,-0.95,0,0,0.0,False
2019-10-28 10:55:30.240,SmartbBox,0.045,-0.056,-0.948,0,0,0.0,False
2019-10-28 10:55:30.260,SmartbBox,0.006,-0.047,-0.952,0,0,0.0,False
2019-10-28 10:55:30.280,SmartbBox,0.031,-0.032,-0.95,0,0,0.0,False
2019-10-28 10:55:30.300,SmartbBox,0.028,-0.032,-0.924,0,0,0.0,False
2019-10-28 10:55:30.320,SmartbBox,0.038,0.008,-0.922,0,0,0.0,False
2019-10-28 10:55:30.340,SmartbBox,0.056,-0.017,-0.948,0,0,0.0,False
2019-10-28 10:55:30.360,SmartbBox,0.077,-0.002,-0.894,0,0,0.0,False
2019-10-28 10:55:30.380,SmartbBox,0.039,0.008,-0.923,0,0,0.0,False
2019-10-28 10:55:30.400,SmartbBox,0.056,-0.017,-0.948,0,0,0.0,False
2019-10-28 10:55:30.420,SmartbBox,0.001,-0.047,-0.899,0,0,0.0,False
2019-10-28 10:55:30.440,SmartbBox,0.024,-0.032,-0.871,0,0,0.0,False
2019-10-28 10:55:30.460,SmartbBox,0.046,-0.056,-0.948,0,0,0.0,False
2019-10-28 10:55:30.480,SmartbBox,0.026,-0.032,-0.897,0,0,0.0,False
2019-10-28 10:55:30.500,SmartbBox,0.051,-0.017,-0.895,0,0,0.0,False
2019-10-28 10:55:30.520,SmartbBox,0.016,-0.008,-0.951,0,0,0.0,False
2019-10-28 10:55:30.540,SmartbBox,0.031,-0.032,-0.95,0,0,0.0,False
2019-10-28 10:55:30.560,SmartbBox,0.043,-0.056,-0.922,0,0,0.0,False
2019-10-28 10:55:30.580,SmartbBox,0.028,-0.032,-0.924,0,0,0.0,False
2019-10-28 10:55:30.600,SmartbBox,0.038,-0.056,-0.87,0,0,0.0,False
2019-10-28 10:55:30.620,SmartbBox,0.056,-0.017,-0.948,0,0,0.0,False
2019-10-28 10:55:30.640,SmartbBox,0.026,-0.032,-0.897,0,0,0.0,False
2019-10-28 10:55:30.660,SmartbBox,-0.003,0.017,-0.9,0,0,0.0,False
2019-10-28 10:55:30.680,SmartbBox,0.016,-0.008,-0.951,0,0,0.0,False
2019-10-28 10:55:30.700,SmartbBox,0.033,-0.032,-0.976,0,0,0.0,False
2019-10-28 10:55:30.720,SmartbBox,0.031,-0.032,-0.95,0,0,0.0,False
2019-10-28 10:55:30.740,SmartbBox,0.028,-0.032,-0.924,0,0,0.0,False
2019-10-28 10:55:30.760,SmartbBox,0.04,-0.056,-0.896,0,0,0.0,False
2019-10-28 10:55:30.780,SmartbBox,0.024,-0.032,-0.871,0,0,0.0,False
2019-10-28 10:55:30.800,SmartbBox,0.026,-0.032,-0.897,0,0,0.0,False
2019-10-28 10:55:30.820,SmartbBox,0.014,-0.008,-0.925,0,0,0.0,False
2019-10-28 10:55:30.840,SmartbBox,0.03,-0.032,-0.95,0,0,0.0,False
2019-10-28 10:55:30.860,SmartbBox,0.028,-0.032,-0.924,0,0,0.0,False
2019-10-28 10:55:30.880,SmartbBox,0.043,-0.056,-0.922,0,0,0.0,False
2019-10-28 10:55:30.900,SmartbBox,0.012,-0.008,-0.899,0,0,0.0,False
2019-10-28 10:55:30.920,SmartbBox,0.038,-0.056,-0.87,0,0,0.0,False
2019-10-28 10:55:30.940,SmartbBox,0.026,-0.032,-0.898,0,0,0.0,False
2019-10-28 10:55:30.960,SmartbBox,0.026,-0.032,-0.897,0,0,0.0,False
2019-10-28 10:55:30.980,SmartbBox,0.016,-0.008,-0.951,0,0,0.0,False
2019-10-28 10:55:31.000,SmartbBox,0.031,-0.032,-0.95,0,0,0.0,False
2019-10-28 10:55:31.020,SmartbBox,0.031,-0.032,-0.95,0,0,0.0,False
2019-10-28 10:55:31.040,SmartbBox,0.028,-0.032,-0.924,0,0,0.0,False
2019-10-28 10:55:31.060,SmartbBox,0.04,-0.056,-0.896,0,0,0.0,False
2019-10-28 10:55:31.080,SmartbBox,0.028,-0.032,-0.924,0,0,0.0,False
2019-10-28 10:55:31.100,SmartbBox,0.054,-0.017,-0.922,0,0,0.0,False
2019-10-28 10:55:31.120,SmartbBox,0.046,-0.056,-0.948,0,0,0.0,False
2019-10-28 10:55:31.140,SmartbBox,0.014,-0.008,-0.925,0,0,0.0,False
2019-10-28 10:55:31.160,SmartbBox,0.05,-0.056,-1.001,0,0,0.0,False
2019-10-28 10:55:31.180,SmartbBox,0.048,-0.056,-0.975,0,0,0.0,False
2019-10-28 10:55:31.200,SmartbBox,0.043,-0.056,-0.922,0,0,0.0,False
2019-10-28 10:55:31.220,SmartbBox,0.026,-0.032,-0.897,0,0,0.0,False
2019-10-28 10:55:31.240,SmartbBox,0.06,-0.081,-0.947,0,0,0.0,False
2019-10-28 10:55:31.260,SmartbBox,0.026,-0.032,-0.897,0,0,0.0,False
2019-10-28 10:55:31.280,SmartbBox,0.014,-0.008,-0.925,0,0,0.0,False
2019-10-28 10:55:31.300,SmartbBox,0.004,-0.047,-0.926,0,0,0.0,False
2019-10-28 10:55:31.320,SmartbBox,0.031,-0.032,-0.95,0,0,0.0,False
2019-10-28 10:55:31.340,SmartbBox,0.046,-0.056,-0.948,0,0,0.0,False
2019-10-28 10:55:31.360,SmartbBox,0.048,-0.056,-0.974,0,0,0.0,False
2019-10-28 10:55:31.380,SmartbBox,0.01,-0.008,-0.872,0,0,0.0,False
2019-10-28 10:55:31.400,SmartbBox,0.04,-0.056,-0.896,0,0,0.0,False
2019-10-28 10:55:31.420,SmartbBox,0.028,-0.032,-0.924,0,0,0.0,False
2019-10-28 10:55:31.440,SmartbBox,0.026,-0.032,-0.897,0,0,0.0,False
2019-10-28 10:55:31.460,SmartbBox,0.016,-0.008,-0.951,0,0,0.0,False
