UTC_timestamp,device_name,x,y,z,lat,long,speed,event
2019-11-11 07:17:09.480,SmartbBox,-0.144,-0.022,-0.981,0,0,0.0,False
2019-11-11 07:17:09.500,SmartbBox,-0.126,-0.023,-1.064,0,0,0.0,False
2019-11-11 07:17:09.520,SmartbBox,-0.122,-0.024,-1.038,0,0,0.0,False
2019-11-11 07:17:09.540,SmartbBox,-0.147,-0.021,-1.007,0,0,0.0,False
2019-11-11 07:17:09.560,SmartbBox,-0.115,-0.026,-0.985,0,0,0.0,False
2019-11-11 07:17:09.580,SmartbBox,-0.087,-0.059,-0.962,0,0,0.0,False
2019-11-11 07:17:09.600,SmartbBox,-0.147,-0.021,-1.007,0,0,0.0,False
2019-11-11 07:17:09.620,SmartbBox,-0.083,-0.03,-0.962,0,0,0.0,False
2019-11-11 07:17:09.640,SmartbBox,-0.144,-0.022,-0.981,0,0,0.0,False
2019-11-11 07:17:09.660,SmartbBox,-0.118,-0.025,-1.011,0,0,0.0,False
2019-11-11 07:17:09.680,SmartbBox,-0.094,-0.028,-1.042,0,0,0.0,False
2019-11-11 07:17:09.700,SmartbBox,-0.158,-0.048,-1.06,0,0,0.0,False
2019-11-11 07:17:09.720,SmartbBox,-0.13,-0.052,-1.064,0,0,0.0,False
2019-11-11 07:17:09.740,SmartbBox,-0.094,-0.028,-1.042,0,0,0.0,False
2019-11-11 07:17:09.760,SmartbBox,-0.115,-0.026,-0.984,0,0,0.0,False
2019-11-11 07:17:09.780,SmartbBox,-0.115,-0.025,-0.984,0,0,0.0,False
2019-11-11 07:17:09.800,SmartbBox,-0.119,-0.054,-0.985,0,0,0.0,False
2019-11-11 07:17:09.820,SmartbBox,-0.122,-0.054,-1.012,0,0,0.0,False
2019-11-11 07:17:09.840,SmartbBox,-0.122,-0.054,-1.011,0,0,0.0,False
2019-11-11 07:17:09.860,SmartbBox,-0.122,-0.024,-1.038,0,0,0.0,False
2019-11-11 07:17:09.880,SmartbBox,-0.122,-0.024,-1.038,0,0,0.0,False
2019-11-11 07:17:09.900,SmartbBox,-0.13,-0.022,-1.09,0,0,0.0,False
2019-11-11 07:17:09.920,SmartbBox,-0.154,-0.019,-1.06,0,0,0.0,False
2019-11-11 07:17:09.940,SmartbBox,-0.122,-0.024,-1.038,0,0,0.0,False
2019-11-11 07:17:09.960,SmartbBox,-0.122,-0.024,-1.038,0,0,0.0,False
2019-11-11 07:17:09.980,SmartbBox,-0.126,-0.023,-1.064,0,0,0.0,False
2019-11-11 07:17:10.000,SmartbBox,-0.115,-0.026,-0.985,0,0,0.0,False
2019-11-11 07:17:10.020,SmartbBox,-0.118,-0.025,-1.011,0,0,0.0,False
2019-11-11 07:17:10.040,SmartbBox,-0.122,-0.024,-1.038,0,0,0.0,False
2019-11-11 07:17:10.060,SmartbBox,-0.154,-0.019,-1.06,0,0,0.0,False
2019-11-11 07:17:10.080,SmartbBox,-0.122,-0.054,-1.011,0,0,0.0,False
2019-11-11 07:17:10.100,SmartbBox,-0.115,-0.026,-0.985,0,0,0.0,False
2019-11-11 07:17:10.120,SmartbBox,-0.119,-0.054,-0.985,0,0,0.0,False
2019-11-11 07:17:10.140,SmartbBox,-0.144,-0.022,-0.981,0,0,0.0,False
2019-11-11 07:17:10.160,SmartbBox,-0.115,-0.026,-0.984,0,0,0.0,False
2019-11-11 07:17:10.180,SmartbBox,-0.09,-0.058,-0.989,0,0,0.0,False
2019-11-11 07:17:10.200,SmartbBox,-0.09,-0.058,-0.989,0,0,0.0,False
2019-11-11 07:17:10.220,SmartbBox,-0.15,-0.02,-1.034,0,0,0.0,False
2019-11-11 07:17:10.240,SmartbBox,-0.118,-0.025,-1.011,0,0,0.0,False
2019-11-11 07:17:10.260,SmartbBox,-0.09,-0.028,-1.015,0,0,0.0,False
2019-11-11 07:17:10.280,SmartbBox,-0.126,-0.053,-1.038,0,0,0.0,False
2019-11-11 07:17:10.300,SmartbBox,-0.118,-0.025,-1.011,0,0,0.0,False
2019-11-11 07:17:10.320,SmartbBox,-0.086,-0.03,-0.988,0,0,0.0,False
2019-11-11 07:17:10.340,SmartbBox,-0.144,-0.022,-0.981,0,0,0.0,False
2019-11-11 07:17:10.360,SmartbBox,-0.116,-0.055,-0.958,0,0,0.0,False
2019-11-11 07:17:10.380,SmartbBox,-0.119,-0.054,-0.985,0,0,0.0,False
2019-11-11 07:17:10.400,SmartbBox,-0.148,-0.05,-0.981,0,0,0.0,False
2019-11-11 07:17:10.420,SmartbBox,-0.158,-0.048,-1.06,0,0,0.0,False
2019-11-11 07:17:10.440,SmartbBox,-0.126,-0.023,-1.064,0,0,0.0,False
2019-11-11 07:17:10.460,SmartbBox,-0.09,-0.029,-1.015,0,0,0.0,False
2019-11-11 07:17:10.480,SmartbBox,-0.114,0.004,-1.01,0,0,0.0,False
2019-11-11 07:17:10.500,SmartbBox,-0.122,-0.054,-1.012,0,0,0.0,False
2019-11-11 07:17:10.520,SmartbBox,-0.098,-0.086,-1.016,0,0,0.0,False
2019-11-11 07:17:10.540,SmartbBox,-0.147,-0.021,-1.007,0,0,0.0,False
2019-11-11 07:17:10.560,SmartbBox,-0.118,-0.025,-1.011,0,0,0.0,False
2019-11-11 07:17:10.580,SmartbBox,-0.144,-0.022,-0.981,0,0,0.0,False
2019-11-11 07:17:10.600,SmartbBox,-0.126,-0.053,-1.038,0,0,0.0,False
2019-11-11 07:17:10.620,SmartbBox,-0.154,-0.019,-1.06,0,0,0.0,False
2019-11-11 07:17:10.640,SmartbBox,-0.144,-0.022,-0.981,0,0,0.0,False
2019-11-11 07:17:10.660,SmartbBox,-0.14,0.007,-0.98,0,0,0.0,False
2019-11-11 07:17:10.680,SmartbBox,-0.112,-0.026,-0.958,0,0,0.0,False
2019-11-11 07:17:10.700,SmartbBox,-0.152,-0.079,-0.982,0,0,0.0,False
2019-11-11 07:17:10.720,SmartbBox,-0.112,-0.026,-0.958,0,0,0.0,False
2019-11-11 07:17:10.740,SmartbBox,-0.112,-0.026,-0.958,0,0,0.0,False
2019-11-11 07:17:10.760,SmartbBox,-0.122,-0.024,-1.038,0,0,0.0,False
2019-11-11 07:17:10.780,SmartbBox,-0.144,-0.022,-0.981,0,0,0.0,False
2019-11-11 07:17:10.800,SmartbBox,-0.144,-0.022,-0.981,0,0,0.0,False
2019-11-11 07:17:10.820,SmartbBox,-0.115,-0.026,-0.985,0,0,0.0,False
2019-11-11 07:17:10.840,SmartbBox,-0.118,-0.025,-1.011,0,0,0.0,False
2019-11-11 07:17:10.860,SmartbBox,-0.144,-0.022,-0.981,0,0,0.0,False
2019-11-11 07:17:10.880,SmartbBox,-0.108,0.003,-0.958,0,0,0.0,False
2019-11-11 07:17:10.900,SmartbBox,-0.094,-0.057,-1.015,0,0,0.0,False
2019-11-11 07:17:10.920,SmartbBox,-0.14,-0.022,-0.954,0,0,0.0,False
2019-11-11 07:17:10.940,SmartbBox,-0.115,-0.026,-0.984,0,0,0.0,False
2019-11-11 07:17:10.960,SmartbBox,-0.082,-0.001,-0.988,0,0,0.0,False
2019-11-11 07:17:10.980,SmartbBox,-0.115,-0.026,-0.984,0,0,0.0,True
2019-11-11 07:17:11.000,SmartbBox,-0.115,-0.026,-0.985,0,0,0.0,False
2019-11-11 07:17:11.020,SmartbBox,-0.147,-0.021,-1.007,0,0,0.0,False
2019-11-11 07:17:11.040,SmartbBox,-0.15,-0.02,-1.034,0,0,0.0,False
2019-11-11 07:17:11.060,SmartbBox,-0.114,0.034,-1.036,0,0,0.0,False
2019-11-11 07:17:11.080,SmartbBox,-0.126,-0.053,-1.038,0,0,0.0,False
2019-11-11 07:17:11.100,SmartbBox,-0.122,-0.024,-1.038,0,0,0.0,False
2019-11-11 07:17:11.120,SmartbBox,-0.094,-0.087,-0.99,0,0,0.0,False
2019-11-11 07:17:11.140,SmartbBox,-0.086,0.001,-1.014,0,0,0.0,False
2019-11-11 07:17:11.160,SmartbBox,-0.15,-0.02,-1.034,0,0,0.0,False
2019-11-11 07:17:11.180,SmartbBox,-0.122,-0.054,-1.012,0,0,0.0,False
2019-11-11 07:17:11.200,SmartbBox,-0.122,-0.024,-1.038,0,0,0.0,False
2019-11-11 07:17:11.220,SmartbBox,-0.118,0.035,-1.063,0,0,0.0,False
2019-11-11 07:17:11.240,SmartbBox,-0.15,-0.02,-1.034,0,0,0.0,False
2019-11-11 07:17:11.260,SmartbBox,-0.14,0.008,-0.98,0,0,0.0,False
2019-11-11 07:17:11.280,SmartbBox,-0.09,-0.058,-0.989,0,0,0.0,False
2019-11-11 07:17:11.300,SmartbBox,-0.147,-0.021,-1.007,0,0,0.0,False
2019-11-11 07:17:11.320,SmartbBox,-0.144,-0.022,-0.981,0,0,0.0,False
2019-11-11 07:17:11.340,SmartbBox,-0.118,-0.025,-1.011,0,0,0.0,False
2019-11-11 07:17:11.360,SmartbBox,-0.094,-0.028,-1.042,0,0,0.0,False
2019-11-11 07:17:11.380,SmartbBox,-0.115,-0.026,-0.984,0,0,0.0,False
2019-11-11 07:17:11.400,SmartbBox,-0.126,-0.023,-1.064,0,0,0.0,False
2019-11-11 07:17:11.420,SmartbBox,-0.15,-0.02,-1.034,0,0,0.0,False
2019-11-11 07:17:11.440,SmartbBox,-0.094,-0.057,-1.015,0,0,0.0,False
2019-11-11 07:17:11.460,SmartbBox,-0.119,-0.054,-0.985,0,0,0.0,False
2019-11-11 07:17:11.480,SmartbBox,-0.118,-0.025,-1.011,0,0,0.0,False
2019-11-11 07:17:11.500,SmartbBox,-0.118,-0.025,-1.011,0,0,0.0,False
2019-11-11 07:17:11.520,SmartbBox,-0.147,-0.021,-1.007,0,0,0.0,False
2019-11-11 07:17:11.540,SmartbBox,-0.115,-0.026,-0.985,0,0,0.0,False
2019-11-11 07:17:11.560,SmartbBox,-0.112,-0.026,-0.958,0,0,0.0,False
2019-11-11 07:17:11.580,SmartbBox,-0.078,0.028,-0.988,0,0,0.0,False
2019-11-11 07:17:11.600,SmartbBox,-0.115,-0.026,-0.985,0,0,0.0,False
2019-11-11 07:17:11.620,SmartbBox,-0.144,-0.022,-0.981,0,0,0.0,False
2019-11-11 07:17:11.640,SmartbBox,-0.144,-0.022,-0.981,0,0,0.0,False
2019-11-11 07:17:11.660,SmartbBox,-0.118,-0.025,-1.011,0,0,0.0,False
2019-11-11 07:17:11.680,SmartbBox,-0.147,-0.021,-1.007,0,0,0.0,False
2019-11-11 07:17:11.700,SmartbBox,-0.122,-0.024,-1.038,0,0,0.0,False
2019-11-11 07:17:11.720,SmartbBox,-0.144,-0.022,-0.981,0,0,0.0,False
2019-11-11 07:17:11.740,SmartbBox,-0.097,-0.027,-1.068,0,0,0.0,False
2019-11-11 07:17:11.760,SmartbBox,-0.114,0.034,-1.037,0,0,0.0,False
2019-11-11 07:17:11.780,SmartbBox,-0.122,-0.024,-1.038,0,0,0.0,False
2019-11-11 07:17:11.800,SmartbBox,-0.082,-0.03,-0.962,0,0,0.0,False
2019-11-11 07:17:11.820,SmartbBox,-0.122,-0.054,-1.011,0,0,0.0,False
2019-11-11 07:17:11.840,SmartbBox,-0.09,-0.028,-1.015,0,0,0.0,False
2019-11-11 07:17:11.860,SmartbBox,-0.116,-0.055,-0.958,0,0,0.0,False
2019-11-11 07:17:11.880,SmartbBox,-0.136,-0.023,-0.928,0,0,0.0,False
2019-11-11 07:17:11.900,SmartbBox,-0.098,-0.056,-1.042,0,0,0.0,False
2019-11-11 07:17:11.920,SmartbBox,-0.122,-0.054,-1.012,0,0,0.0,False
2019-11-11 07:17:11.940,SmartbBox,-0.13,-0.052,-1.064,0,0,0.0,False
2019-11-11 07:17:11.960,SmartbBox,-0.122,-0.024,-1.038,0,0,0.0,False
2019-11-11 07:17:11.980,SmartbBox,-0.078,-0.002,-0.962,0,0,0.0,False
2019-11-11 07:17:12.000,SmartbBox,-0.144,-0.022,-0.981,0,0,0.0,False
2019-11-11 07:17:12.020,SmartbBox,-0.112,-0.026,-0.958,0,0,0.0,False
2019-11-11 07:17:12.040,SmartbBox,-0.083,-0.03,-0.962,0,0,0.0,False
2019-11-11 07:17:12.060,SmartbBox,-0.079,-0.001,-0.962,0,0,0.0,False
2019-11-11 07:17:12.080,SmartbBox,-0.136,0.007,-0.954,0,0,0.0,False
2019-11-11 07:17:12.100,SmartbBox,-0.094,-0.028,-1.042,0,0,0.0,False
2019-11-11 07:17:12.120,SmartbBox,-0.122,0.006,-1.064,0,0,0.0,False
2019-11-11 07:17:12.140,SmartbBox,-0.161,0.013,-1.139,0,0,0.0,False
2019-11-11 07:17:12.160,SmartbBox,-0.113,-0.082,-1.122,0,0,0.0,False
2019-11-11 07:17:12.180,SmartbBox,-0.1,0.001,-0.904,0,0,0.0,False
2019-11-11 07:17:12.200,SmartbBox,-0.12,-0.084,-0.959,0,0,0.0,False
2019-11-11 07:17:12.220,SmartbBox,-0.108,-0.027,-0.932,0,0,0.0,False
2019-11-11 07:17:12.240,SmartbBox,-0.122,-0.024,-1.038,0,0,0.0,False
2019-11-11 07:17:12.260,SmartbBox,-0.107,0.062,-1.01,0,0,0.0,False
2019-11-11 07:17:12.280,SmartbBox,-0.1,0.001,-0.905,0,0,0.0,False
2019-11-11 07:17:12.300,SmartbBox,-0.082,0.029,-1.014,0,0,0.0,False
2019-11-11 07:17:12.320,SmartbBox,-0.146,0.038,-1.059,0,0,0.0,False
2019-11-11 07:17:12.340,SmartbBox,-0.13,-0.052,-1.064,0,0,0.0,False
2019-11-11 07:17:12.360,SmartbBox,-0.09,0.002,-1.041,0,0,0.0,False
2019-11-11 07:17:12.380,SmartbBox,-0.155,-0.078,-1.008,0,0,0.0,False
2019-11-11 07:17:12.400,SmartbBox,-0.09,-0.058,-0.989,0,0,0.0,False
2019-11-11 07:17:12.420,SmartbBox,-0.124,0.033,-0.9,0,0,0.0,False
2019-11-11 07:17:12.440,SmartbBox,-0.143,0.038,-1.032,0,0,0.0,False
2019-11-11 07:17:12.460,SmartbBox,-0.118,0.035,-1.063,0,0,0.0,False
