UTC_timestamp,device_name,x,y,z,lat,long,speed,event
2019-10-22 15:08:42.480,SmartbBox,0.018,0.042,-0.946,0,0,0.0,False
2019-10-22 15:08:42.500,SmartbBox,-0.001,-0.012,-1.026,0,0,0.0,False
2019-10-22 15:08:42.520,SmartbBox,0.032,-0.017,-1.004,0,0,0.0,False
2019-10-22 15:08:42.540,SmartbBox,-0.03,-0.038,-0.996,0,0,0.0,False
2019-10-22 15:08:42.560,SmartbBox,-0.005,-0.041,-1.027,0,0,0.0,False
2019-10-22 15:08:42.580,SmartbBox,0.024,-0.045,-1.031,0,0,0.0,False
2019-10-22 15:08:42.600,SmartbBox,-0.008,-0.04,-1.054,0,0,0.0,False
2019-10-22 15:08:42.620,SmartbBox,-0.001,-0.012,-1.026,0,0,0.0,False
2019-10-22 15:08:42.640,SmartbBox,-0.005,-0.07,-1.001,0,0,0.0,False
2019-10-22 15:08:42.660,SmartbBox,0.007,0.016,-1.0,0,0,0.0,False
2019-10-22 15:08:42.680,SmartbBox,-0.026,-0.038,-0.97,0,0,0.0,False
2019-10-22 15:08:42.700,SmartbBox,-0.033,-0.037,-1.023,0,0,0.0,False
2019-10-22 15:08:42.720,SmartbBox,-0.025,0.021,-1.022,0,0,0.0,False
2019-10-22 15:08:42.740,SmartbBox,-0.001,-0.042,-1.0,0,0,0.0,False
2019-10-22 15:08:42.760,SmartbBox,0.024,-0.015,-1.057,0,0,0.0,False
2019-10-22 15:08:42.780,SmartbBox,-0.033,-0.037,-1.023,0,0,0.0,False
2019-10-22 15:08:42.800,SmartbBox,-0.012,-0.039,-1.08,0,0,0.0,False
2019-10-22 15:08:42.820,SmartbBox,-0.005,-0.04,-1.027,0,0,0.0,False
2019-10-22 15:08:42.840,SmartbBox,-0.005,-0.041,-1.027,0,0,0.0,False
2019-10-22 15:08:42.860,SmartbBox,0.024,-0.044,-1.031,0,0,0.0,False
2019-10-22 15:08:42.880,SmartbBox,-0.001,-0.012,-1.026,0,0,0.0,False
2019-10-22 15:08:42.900,SmartbBox,-0.001,-0.042,-1.0,0,0,0.0,False
2019-10-22 15:08:42.920,SmartbBox,-0.033,-0.037,-1.023,0,0,0.0,False
2019-10-22 15:08:42.940,SmartbBox,-0.005,-0.041,-1.027,0,0,0.0,False
2019-10-22 15:08:42.960,SmartbBox,0.003,-0.013,-1.0,0,0,0.0,False
2019-10-22 15:08:42.980,SmartbBox,-0.028,0.022,-1.048,0,0,0.0,False
2019-10-22 15:08:43.000,SmartbBox,-0.008,-0.04,-1.054,0,0,0.0,False
2019-10-22 15:08:43.020,SmartbBox,-0.028,0.022,-1.048,0,0,0.0,False
2019-10-22 15:08:43.040,SmartbBox,0.003,0.017,-1.026,0,0,0.0,False
2019-10-22 15:08:43.060,SmartbBox,-0.032,-0.007,-1.049,0,0,0.0,False
2019-10-22 15:08:43.080,SmartbBox,-0.001,-0.012,-1.026,0,0,0.0,False
2019-10-22 15:08:43.100,SmartbBox,0.02,-0.073,-1.031,0,0,0.0,False
2019-10-22 15:08:43.120,SmartbBox,-0.005,-0.041,-1.027,0,0,0.0,False
2019-10-22 15:08:43.140,SmartbBox,-0.001,-0.041,-1.0,0,0,0.0,False
2019-10-22 15:08:43.160,SmartbBox,-0.012,-0.039,-1.08,0,0,0.0,False
2019-10-22 15:08:43.180,SmartbBox,-0.001,-0.012,-1.026,0,0,0.0,False
2019-10-22 15:08:43.200,SmartbBox,-0.026,-0.008,-0.996,0,0,0.0,False
2019-10-22 15:08:43.220,SmartbBox,-0.033,-0.037,-1.023,0,0,0.0,False
2019-10-22 15:08:43.240,SmartbBox,-0.022,0.02,-0.996,0,0,0.0,False
2019-10-22 15:08:43.260,SmartbBox,-0.005,-0.041,-1.027,0,0,0.0,False
2019-10-22 15:08:43.280,SmartbBox,0.024,-0.045,-1.031,0,0,0.0,False
2019-10-22 15:08:43.300,SmartbBox,-0.005,-0.041,-1.027,0,0,0.0,False
2019-10-22 15:08:43.320,SmartbBox,-0.012,-0.039,-1.08,0,0,0.0,False
2019-10-22 15:08:43.340,SmartbBox,-0.001,-0.012,-1.026,0,0,0.0,False
2019-10-22 15:08:43.360,SmartbBox,-0.008,-0.04,-1.053,0,0,0.0,False
2019-10-22 15:08:43.380,SmartbBox,-0.032,-0.007,-1.049,0,0,0.0,False
2019-10-22 15:08:43.400,SmartbBox,0.007,0.016,-1.0,0,0,0.0,False
2019-10-22 15:08:43.420,SmartbBox,-0.001,-0.012,-1.026,0,0,0.0,False
2019-10-22 15:08:43.440,SmartbBox,-0.03,-0.038,-0.996,0,0,0.0,False
2019-10-22 15:08:43.460,SmartbBox,0.007,0.016,-1.0,0,0,0.0,False
2019-10-22 15:08:43.480,SmartbBox,-0.033,-0.037,-1.023,0,0,0.0,False
2019-10-22 15:08:43.500,SmartbBox,-0.037,-0.036,-1.049,0,0,0.0,False
2019-10-22 15:08:43.520,SmartbBox,-0.032,-0.007,-1.049,0,0,0.0,False
2019-10-22 15:08:43.540,SmartbBox,-0.001,-0.042,-1.0,0,0,0.0,False
2019-10-22 15:08:43.560,SmartbBox,0.028,-0.016,-1.03,0,0,0.0,False
2019-10-22 15:08:43.580,SmartbBox,-0.025,0.021,-1.022,0,0,0.0,False
2019-10-22 15:08:43.600,SmartbBox,-0.026,-0.009,-0.996,0,0,0.0,False
2019-10-22 15:08:43.620,SmartbBox,-0.033,-0.037,-1.023,0,0,0.0,False
2019-10-22 15:08:43.640,SmartbBox,-0.026,-0.008,-0.996,0,0,0.0,False
2019-10-22 15:08:43.660,SmartbBox,-0.001,-0.041,-1.0,0,0,0.0,False
2019-10-22 15:08:43.680,SmartbBox,-0.029,-0.008,-1.022,0,0,0.0,False
2019-10-22 15:08:43.700,SmartbBox,0.0,0.018,-1.052,0,0,0.0,False
2019-10-22 15:08:43.720,SmartbBox,-0.04,-0.035,-1.076,0,0,0.0,False
2019-10-22 15:08:43.740,SmartbBox,0.003,0.016,-1.026,0,0,0.0,False
2019-10-22 15:08:43.760,SmartbBox,-0.025,0.021,-1.022,0,0,0.0,False
2019-10-22 15:08:43.780,SmartbBox,0.003,-0.012,-1.0,0,0,0.0,False
2019-10-22 15:08:43.800,SmartbBox,-0.001,-0.042,-1.0,0,0,0.0,False
2019-10-22 15:08:43.820,SmartbBox,0.028,-0.016,-1.03,0,0,0.0,False
2019-10-22 15:08:43.840,SmartbBox,0.02,-0.103,-1.006,0,0,0.0,False
2019-10-22 15:08:43.860,SmartbBox,-0.033,-0.037,-1.023,0,0,0.0,False
2019-10-22 15:08:43.880,SmartbBox,-0.028,0.022,-1.048,0,0,0.0,False
2019-10-22 15:08:43.900,SmartbBox,-0.004,-0.011,-1.053,0,0,0.0,False
2019-10-22 15:08:43.920,SmartbBox,-0.029,-0.008,-1.022,0,0,0.0,False
2019-10-22 15:08:43.940,SmartbBox,-0.021,0.05,-1.022,0,0,0.0,False
2019-10-22 15:08:43.960,SmartbBox,-0.001,-0.012,-1.026,0,0,0.0,False
2019-10-22 15:08:43.980,SmartbBox,-0.001,-0.012,-1.026,0,0,0.0,True
2019-10-22 15:08:44.000,SmartbBox,-0.032,-0.007,-1.049,0,0,0.0,False
2019-10-22 15:08:44.020,SmartbBox,0.02,-0.074,-1.031,0,0,0.0,False
2019-10-22 15:08:44.040,SmartbBox,-0.037,-0.066,-1.023,0,0,0.0,False
2019-10-22 15:08:44.060,SmartbBox,-0.053,0.025,-1.018,0,0,0.0,False
2019-10-22 15:08:44.080,SmartbBox,-0.032,-0.007,-1.049,0,0,0.0,False
2019-10-22 15:08:44.100,SmartbBox,0.003,-0.013,-1.0,0,0,0.0,False
2019-10-22 15:08:44.120,SmartbBox,0.032,-0.016,-1.004,0,0,0.0,False
2019-10-22 15:08:44.140,SmartbBox,-0.025,0.021,-1.022,0,0,0.0,False
2019-10-22 15:08:44.160,SmartbBox,-0.026,-0.038,-0.97,0,0,0.0,False
2019-10-22 15:08:44.180,SmartbBox,-0.033,-0.037,-1.023,0,0,0.0,False
2019-10-22 15:08:44.200,SmartbBox,-0.026,-0.009,-0.996,0,0,0.0,False
2019-10-22 15:08:44.220,SmartbBox,-0.008,-0.04,-1.053,0,0,0.0,False
2019-10-22 15:08:44.240,SmartbBox,-0.029,-0.008,-1.022,0,0,0.0,False
2019-10-22 15:08:44.260,SmartbBox,-0.025,0.021,-1.022,0,0,0.0,False
2019-10-22 15:08:44.280,SmartbBox,-0.026,-0.009,-0.996,0,0,0.0,False
2019-10-22 15:08:44.300,SmartbBox,-0.005,-0.041,-1.027,0,0,0.0,False
2019-10-22 15:08:44.320,SmartbBox,0.003,0.017,-1.026,0,0,0.0,False
2019-10-22 15:08:44.340,SmartbBox,-0.022,-0.01,-0.97,0,0,0.0,False
2019-10-22 15:08:44.360,SmartbBox,-0.033,-0.037,-1.023,0,0,0.0,False
2019-10-22 15:08:44.380,SmartbBox,-0.033,-0.037,-1.023,0,0,0.0,False
2019-10-22 15:08:44.400,SmartbBox,-0.025,0.021,-1.022,0,0,0.0,False
2019-10-22 15:08:44.420,SmartbBox,-0.012,-0.068,-1.054,0,0,0.0,False
2019-10-22 15:08:44.440,SmartbBox,-0.025,0.021,-1.022,0,0,0.0,False
2019-10-22 15:08:44.460,SmartbBox,-0.025,0.021,-1.022,0,0,0.0,False
2019-10-22 15:08:44.480,SmartbBox,-0.005,-0.041,-1.027,0,0,0.0,False
2019-10-22 15:08:44.500,SmartbBox,-0.026,-0.038,-0.97,0,0,0.0,False
2019-10-22 15:08:44.520,SmartbBox,-0.033,-0.037,-1.023,0,0,0.0,False
2019-10-22 15:08:44.540,SmartbBox,-0.001,-0.041,-1.0,0,0,0.0,False
2019-10-22 15:08:44.560,SmartbBox,-0.033,-0.037,-1.023,0,0,0.0,False
2019-10-22 15:08:44.580,SmartbBox,-0.032,-0.007,-1.049,0,0,0.0,False
2019-10-22 15:08:44.600,SmartbBox,-0.025,0.021,-1.022,0,0,0.0,False
2019-10-22 15:08:44.620,SmartbBox,-0.018,0.019,-0.969,0,0,0.0,False
2019-10-22 15:08:44.640,SmartbBox,-0.029,-0.008,-1.022,0,0,0.0,False
2019-10-22 15:08:44.660,SmartbBox,-0.001,-0.012,-1.026,0,0,0.0,False
2019-10-22 15:08:44.680,SmartbBox,-0.03,-0.038,-0.996,0,0,0.0,False
2019-10-22 15:08:44.700,SmartbBox,-0.03,-0.038,-0.996,0,0,0.0,False
2019-10-22 15:08:44.720,SmartbBox,-0.026,-0.009,-0.996,0,0,0.0,False
2019-10-22 15:08:44.740,SmartbBox,-0.028,0.022,-1.048,0,0,0.0,False
2019-10-22 15:08:44.760,SmartbBox,-0.033,-0.037,-1.023,0,0,0.0,False
2019-10-22 15:08:44.780,SmartbBox,-0.03,-0.038,-0.996,0,0,0.0,False
2019-10-22 15:08:44.800,SmartbBox,-0.024,0.05,-1.048,0,0,0.0,False
2019-10-22 15:08:44.820,SmartbBox,0.036,0.012,-1.004,0,0,0.0,False
2019-10-22 15:08:44.840,SmartbBox,-0.029,-0.008,-1.022,0,0,0.0,False
2019-10-22 15:08:44.860,SmartbBox,-0.029,-0.008,-1.022,0,0,0.0,False
2019-10-22 15:08:44.880,SmartbBox,-0.033,-0.037,-1.023,0,0,0.0,False
2019-10-22 15:08:44.900,SmartbBox,-0.033,-0.037,-1.023,0,0,0.0,False
2019-10-22 15:08:44.920,SmartbBox,-0.029,-0.008,-1.022,0,0,0.0,False
2019-10-22 15:08:44.940,SmartbBox,-0.053,0.025,-1.018,0,0,0.0,False
2019-10-22 15:08:44.960,SmartbBox,-0.022,0.02,-0.996,0,0,0.0,False
2019-10-22 15:08:44.980,SmartbBox,0.003,-0.012,-1.0,0,0,0.0,False
2019-10-22 15:08:45.000,SmartbBox,-0.03,-0.038,-0.996,0,0,0.0,False
2019-10-22 15:08:45.020,SmartbBox,-0.033,-0.037,-1.023,0,0,0.0,False
2019-10-22 15:08:45.040,SmartbBox,-0.008,-0.04,-1.053,0,0,0.0,False
2019-10-22 15:08:45.060,SmartbBox,-0.037,-0.036,-1.049,0,0,0.0,False
2019-10-22 15:08:45.080,SmartbBox,-0.03,-0.038,-0.996,0,0,0.0,False
2019-10-22 15:08:45.100,SmartbBox,-0.001,-0.012,-1.026,0,0,0.0,False
2019-10-22 15:08:45.120,SmartbBox,-0.029,-0.008,-1.022,0,0,0.0,False
2019-10-22 15:08:45.140,SmartbBox,-0.033,-0.037,-1.023,0,0,0.0,False
2019-10-22 15:08:45.160,SmartbBox,-0.032,0.023,-1.075,0,0,0.0,False
2019-10-22 15:08:45.180,SmartbBox,-0.037,-0.036,-1.049,0,0,0.0,False
2019-10-22 15:08:45.200,SmartbBox,0.002,-0.042,-0.974,0,0,0.0,False
2019-10-22 15:08:45.220,SmartbBox,-0.029,-0.008,-1.022,0,0,0.0,False
2019-10-22 15:08:45.240,SmartbBox,-0.036,-0.006,-1.076,0,0,0.0,False
2019-10-22 15:08:45.260,SmartbBox,-0.037,-0.036,-1.049,0,0,0.0,False
2019-10-22 15:08:45.280,SmartbBox,-0.061,-0.003,-1.045,0,0,0.0,False
2019-10-22 15:08:45.300,SmartbBox,-0.033,-0.037,-1.023,0,0,0.0,False
2019-10-22 15:08:45.320,SmartbBox,-0.022,-0.01,-0.97,0,0,0.0,False
2019-10-22 15:08:45.340,SmartbBox,-0.025,0.021,-1.022,0,0,0.0,False
2019-10-22 15:08:45.360,SmartbBox,-0.026,-0.038,-0.97,0,0,0.0,False
2019-10-22 15:08:45.380,SmartbBox,-0.03,-0.038,-0.996,0,0,0.0,False
2019-10-22 15:08:45.400,SmartbBox,-0.03,-0.038,-0.996,0,0,0.0,False
2019-10-22 15:08:45.420,SmartbBox,-0.029,-0.008,-1.022,0,0,0.0,False
2019-10-22 15:08:45.440,SmartbBox,-0.008,-0.04,-1.054,0,0,0.0,False
2019-10-22 15:08:45.460,SmartbBox,-0.029,-0.008,-1.022,0,0,0.0,False
