UTC_timestamp,device_name,x,y,z,lat,long,speed,event
2019-11-11 11:34:58.480,SmartbBox,-0.026,-0.009,-0.996,0,0,0.0,False
2019-11-11 11:34:58.500,SmartbBox,-0.025,0.02,-1.022,0,0,0.0,False
2019-11-11 11:34:58.520,SmartbBox,-0.004,-0.011,-1.053,0,0,0.0,False
2019-11-11 11:34:58.540,SmartbBox,-0.026,-0.009,-0.996,0,0,0.0,False
2019-11-11 11:34:58.560,SmartbBox,-0.022,-0.01,-0.97,0,0,0.0,False
2019-11-11 11:34:58.580,SmartbBox,-0.004,-0.011,-1.053,0,0,0.0,False
2019-11-11 11:34:58.600,SmartbBox,-0.053,0.025,-1.018,0,0,0.0,False
2019-11-11 11:34:58.620,SmartbBox,-0.026,-0.009,-0.996,0,0,0.0,False
2019-11-11 11:34:58.640,SmartbBox,-0.025,-0.009,-0.996,0,0,0.0,False
2019-11-11 11:34:58.660,SmartbBox,-0.037,-0.006,-1.076,0,0,0.0,False
2019-11-11 11:34:58.680,SmartbBox,-0.036,-0.006,-1.076,0,0,0.0,False
2019-11-11 11:34:58.700,SmartbBox,-0.026,-0.008,-0.996,0,0,0.0,False
2019-11-11 11:34:58.720,SmartbBox,-0.012,-0.009,-1.106,0,0,0.0,False
2019-11-11 11:34:58.740,SmartbBox,0.003,-0.013,-1.0,0,0,0.0,False
2019-11-11 11:34:58.760,SmartbBox,-0.062,-0.003,-1.045,0,0,0.0,False
2019-11-11 11:34:58.780,SmartbBox,-0.029,-0.008,-1.022,0,0,0.0,False
2019-11-11 11:34:58.800,SmartbBox,-0.026,-0.009,-0.996,0,0,0.0,False
2019-11-11 11:34:58.820,SmartbBox,-0.028,0.022,-1.048,0,0,0.0,False
2019-11-11 11:34:58.840,SmartbBox,-0.029,-0.008,-1.022,0,0,0.0,False
2019-11-11 11:34:58.860,SmartbBox,-0.022,0.02,-0.996,0,0,0.0,False
2019-11-11 11:34:58.880,SmartbBox,0.003,-0.013,-1.0,0,0,0.0,False
2019-11-11 11:34:58.900,SmartbBox,-0.029,-0.008,-1.022,0,0,0.0,False
2019-11-11 11:34:58.920,SmartbBox,-0.029,-0.008,-1.022,0,0,0.0,False
2019-11-11 11:34:58.940,SmartbBox,0.01,0.015,-0.973,0,0,0.0,False
2019-11-11 11:34:58.960,SmartbBox,-0.052,-0.062,-1.13,0,0,0.0,False
2019-11-11 11:34:58.980,SmartbBox,-0.004,-0.011,-1.053,0,0,0.0,False
2019-11-11 11:34:59.000,SmartbBox,-0.037,-0.066,-1.023,0,0,0.0,False
2019-11-11 11:34:59.020,SmartbBox,-0.033,-0.007,-1.049,0,0,0.0,False
2019-11-11 11:34:59.040,SmartbBox,0.02,-0.044,-1.058,0,0,0.0,False
2019-11-11 11:34:59.060,SmartbBox,-0.037,-0.036,-1.049,0,0,0.0,False
2019-11-11 11:34:59.080,SmartbBox,-0.026,-0.008,-0.996,0,0,0.0,False
2019-11-11 11:34:59.100,SmartbBox,-0.001,-0.012,-1.026,0,0,0.0,False
2019-11-11 11:34:59.120,SmartbBox,-0.012,-0.039,-1.08,0,0,0.0,False
2019-11-11 11:34:59.140,SmartbBox,-0.02,0.05,-1.022,0,0,0.0,False
2019-11-11 11:34:59.160,SmartbBox,-0.041,-0.064,-1.05,0,0,0.0,False
2019-11-11 11:34:59.180,SmartbBox,-0.022,-0.01,-0.969,0,0,0.0,False
2019-11-11 11:34:59.200,SmartbBox,-0.032,-0.007,-1.049,0,0,0.0,False
2019-11-11 11:34:59.220,SmartbBox,-0.012,-0.039,-1.08,0,0,0.0,False
2019-11-11 11:34:59.240,SmartbBox,-0.019,-0.04,-0.917,0,0,0.0,False
2019-11-11 11:34:59.260,SmartbBox,-0.012,0.021,-1.132,0,0,0.0,False
2019-11-11 11:34:59.280,SmartbBox,-0.008,-0.04,-1.054,0,0,0.0,False
2019-11-11 11:34:59.300,SmartbBox,-0.05,0.024,-0.992,0,0,0.0,False
2019-11-11 11:34:59.320,SmartbBox,-0.037,-0.036,-1.049,0,0,0.0,False
2019-11-11 11:34:59.340,SmartbBox,-0.033,-0.007,-1.049,0,0,0.0,False
2019-11-11 11:34:59.360,SmartbBox,-0.065,-0.032,-1.046,0,0,0.0,False
2019-11-11 11:34:59.380,SmartbBox,-0.029,-0.008,-1.022,0,0,0.0,False
2019-11-11 11:34:59.400,SmartbBox,-0.001,-0.071,-0.974,0,0,0.0,False
2019-11-11 11:34:59.420,SmartbBox,-0.04,-0.035,-1.076,0,0,0.0,False
2019-11-11 11:34:59.440,SmartbBox,-0.034,-0.066,-0.997,0,0,0.0,False
2019-11-11 11:34:59.460,SmartbBox,-0.033,-0.037,-1.023,0,0,0.0,False
2019-11-11 11:34:59.480,SmartbBox,-0.018,0.019,-0.969,0,0,0.0,False
2019-11-11 11:34:59.500,SmartbBox,-0.004,-0.011,-1.053,0,0,0.0,False
2019-11-11 11:34:59.520,SmartbBox,-0.032,-0.007,-1.049,0,0,0.0,False
2019-11-11 11:34:59.540,SmartbBox,0.003,-0.012,-1.0,0,0,0.0,False
2019-11-11 11:34:59.560,SmartbBox,-0.001,-0.012,-1.026,0,0,0.0,False
2019-11-11 11:34:59.580,SmartbBox,-0.03,-0.038,-0.996,0,0,0.0,False
2019-11-11 11:34:59.600,SmartbBox,-0.025,0.021,-1.022,0,0,0.0,False
2019-11-11 11:34:59.620,SmartbBox,-0.022,-0.039,-0.944,0,0,0.0,False
2019-11-11 11:34:59.640,SmartbBox,-0.001,-0.042,-1.0,0,0,0.0,False
2019-11-11 11:34:59.660,SmartbBox,-0.033,-0.037,-1.023,0,0,0.0,False
2019-11-11 11:34:59.680,SmartbBox,-0.025,-0.009,-0.996,0,0,0.0,False
2019-11-11 11:34:59.700,SmartbBox,-0.022,-0.01,-0.97,0,0,0.0,False
2019-11-11 11:34:59.720,SmartbBox,0.003,-0.042,-0.974,0,0,0.0,False
2019-11-11 11:34:59.740,SmartbBox,-0.03,-0.038,-0.996,0,0,0.0,False
2019-11-11 11:34:59.760,SmartbBox,-0.018,0.019,-0.969,0,0,0.0,False
2019-11-11 11:34:59.780,SmartbBox,0.003,-0.012,-1.0,0,0,0.0,False
2019-11-11 11:34:59.800,SmartbBox,-0.004,-0.011,-1.053,0,0,0.0,False
2019-11-11 11:34:59.820,SmartbBox,-0.037,-0.036,-1.049,0,0,0.0,False
2019-11-11 11:34:59.840,SmartbBox,-0.033,-0.037,-1.023,0,0,0.0,False
2019-11-11 11:34:59.860,SmartbBox,-0.008,-0.04,-1.053,0,0,0.0,False
2019-11-11 11:34:59.880,SmartbBox,-0.004,-0.011,-1.053,0,0,0.0,False
2019-11-11 11:34:59.900,SmartbBox,-0.016,-0.038,-1.106,0,0,0.0,False
2019-11-11 11:34:59.920,SmartbBox,-0.028,0.022,-1.048,0,0,0.0,False
2019-11-11 11:34:59.940,SmartbBox,-0.02,-0.037,-1.133,0,0,0.0,False
2019-11-11 11:34:59.960,SmartbBox,-0.029,-0.008,-1.022,0,0,0.0,False
2019-11-11 11:34:59.980,SmartbBox,-0.048,-0.003,-1.155,0,0,0.0,True
2019-11-11 11:35:00.000,SmartbBox,-0.066,-0.062,-1.019,0,0,0.0,False
2019-11-11 11:35:00.020,SmartbBox,-0.016,-0.038,-1.106,0,0,0.0,False
2019-11-11 11:35:00.040,SmartbBox,-0.04,-0.064,-1.05,0,0,0.0,False
2019-11-11 11:35:00.060,SmartbBox,-0.037,-0.066,-1.023,0,0,0.0,False
2019-11-11 11:35:00.080,SmartbBox,-0.033,-0.036,-1.023,0,0,0.0,False
2019-11-11 11:35:00.100,SmartbBox,-0.04,-0.035,-1.076,0,0,0.0,False
2019-11-11 11:35:00.120,SmartbBox,-0.033,-0.037,-1.023,0,0,0.0,False
2019-11-11 11:35:00.140,SmartbBox,-0.033,-0.037,-1.023,0,0,0.0,False
2019-11-11 11:35:00.160,SmartbBox,-0.03,-0.038,-0.996,0,0,0.0,False
2019-11-11 11:35:00.180,SmartbBox,-0.03,-0.038,-0.996,0,0,0.0,False
2019-11-11 11:35:00.200,SmartbBox,-0.001,-0.041,-1.0,0,0,0.0,False
2019-11-11 11:35:00.220,SmartbBox,-0.033,-0.037,-1.023,0,0,0.0,False
2019-11-11 11:35:00.240,SmartbBox,-0.026,-0.039,-0.97,0,0,0.0,False
2019-11-11 11:35:00.260,SmartbBox,-0.03,-0.038,-0.996,0,0,0.0,False
2019-11-11 11:35:00.280,SmartbBox,-0.005,-0.041,-1.027,0,0,0.0,False
2019-11-11 11:35:00.300,SmartbBox,-0.055,-0.034,-0.966,0,0,0.0,False
2019-11-11 11:35:00.320,SmartbBox,-0.066,-0.062,-1.019,0,0,0.0,False
2019-11-11 11:35:00.340,SmartbBox,-0.033,-0.037,-1.023,0,0,0.0,False
2019-11-11 11:35:00.360,SmartbBox,-0.066,-0.061,-1.019,0,0,0.0,False
2019-11-11 11:35:00.380,SmartbBox,-0.001,-0.012,-1.026,0,0,0.0,False
2019-11-11 11:35:00.400,SmartbBox,-0.005,-0.041,-1.027,0,0,0.0,False
2019-11-11 11:35:00.420,SmartbBox,-0.037,-0.066,-1.023,0,0,0.0,False
2019-11-11 11:35:00.440,SmartbBox,-0.065,-0.032,-1.045,0,0,0.0,False
2019-11-11 11:35:00.460,SmartbBox,-0.034,-0.066,-0.997,0,0,0.0,False
2019-11-11 11:35:00.480,SmartbBox,-0.037,-0.066,-1.023,0,0,0.0,False
2019-11-11 11:35:00.500,SmartbBox,-0.02,-0.066,-1.107,0,0,0.0,False
2019-11-11 11:35:00.520,SmartbBox,-0.012,-0.068,-1.054,0,0,0.0,False
2019-11-11 11:35:00.540,SmartbBox,-0.038,-0.065,-1.023,0,0,0.0,False
2019-11-11 11:35:00.560,SmartbBox,-0.044,-0.064,-1.076,0,0,0.0,False
2019-11-11 11:35:00.580,SmartbBox,-0.044,-0.064,-1.076,0,0,0.0,False
2019-11-11 11:35:00.600,SmartbBox,-0.041,-0.064,-1.05,0,0,0.0,False
2019-11-11 11:35:00.620,SmartbBox,-0.045,-0.093,-1.05,0,0,0.0,False
2019-11-11 11:35:00.640,SmartbBox,-0.04,-0.064,-1.05,0,0,0.0,False
2019-11-11 11:35:00.660,SmartbBox,-0.013,-0.098,-1.028,0,0,0.0,False
2019-11-11 11:35:00.680,SmartbBox,-0.062,-0.062,-0.993,0,0,0.0,False
2019-11-11 11:35:00.700,SmartbBox,-0.041,-0.064,-1.05,0,0,0.0,False
2019-11-11 11:35:00.720,SmartbBox,-0.045,-0.093,-1.05,0,0,0.0,False
2019-11-11 11:35:00.740,SmartbBox,-0.048,-0.092,-1.077,0,0,0.0,False
2019-11-11 11:35:00.760,SmartbBox,-0.041,-0.124,-0.998,0,0,0.0,False
2019-11-11 11:35:00.780,SmartbBox,-0.045,-0.093,-1.05,0,0,0.0,False
2019-11-11 11:35:00.800,SmartbBox,-0.049,-0.092,-1.077,0,0,0.0,False
2019-11-11 11:35:00.820,SmartbBox,-0.002,-0.072,-0.974,0,0,0.0,False
2019-11-11 11:35:00.840,SmartbBox,-0.037,-0.066,-1.023,0,0,0.0,False
2019-11-11 11:35:00.860,SmartbBox,-0.041,-0.124,-0.998,0,0,0.0,False
2019-11-11 11:35:00.880,SmartbBox,-0.008,-0.04,-1.053,0,0,0.0,False
2019-11-11 11:35:00.900,SmartbBox,-0.066,-0.091,-0.994,0,0,0.0,False
2019-11-11 11:35:00.920,SmartbBox,0.019,-0.103,-1.006,0,0,0.0,False
2019-11-11 11:35:00.940,SmartbBox,-0.038,-0.095,-0.997,0,0,0.0,False
2019-11-11 11:35:00.960,SmartbBox,-0.045,-0.093,-1.05,0,0,0.0,False
2019-11-11 11:35:00.980,SmartbBox,-0.038,-0.095,-0.998,0,0,0.0,False
2019-11-11 11:35:01.000,SmartbBox,-0.013,-0.098,-1.028,0,0,0.0,False
2019-11-11 11:35:01.020,SmartbBox,-0.034,-0.096,-0.971,0,0,0.0,False
2019-11-11 11:35:01.040,SmartbBox,-0.045,-0.093,-1.05,0,0,0.0,False
2019-11-11 11:35:01.060,SmartbBox,0.02,-0.044,-1.058,0,0,0.0,False
2019-11-11 11:35:01.080,SmartbBox,-0.041,-0.094,-1.024,0,0,0.0,False
2019-11-11 11:35:01.100,SmartbBox,-0.049,-0.092,-1.077,0,0,0.0,False
2019-11-11 11:35:01.120,SmartbBox,-0.03,-0.038,-0.996,0,0,0.0,False
2019-11-11 11:35:01.140,SmartbBox,-0.045,-0.093,-1.05,0,0,0.0,False
2019-11-11 11:35:01.160,SmartbBox,-0.033,-0.037,-1.023,0,0,0.0,False
2019-11-11 11:35:01.180,SmartbBox,-0.024,-0.095,-1.108,0,0,0.0,False
2019-11-11 11:35:01.200,SmartbBox,-0.038,-0.095,-0.998,0,0,0.0,False
2019-11-11 11:35:01.220,SmartbBox,-0.016,-0.097,-1.054,0,0,0.0,False
2019-11-11 11:35:01.240,SmartbBox,-0.041,-0.064,-1.05,0,0,0.0,False
2019-11-11 11:35:01.260,SmartbBox,-0.049,-0.122,-1.051,0,0,0.0,False
2019-11-11 11:35:01.280,SmartbBox,-0.012,-0.098,-1.028,0,0,0.0,False
2019-11-11 11:35:01.300,SmartbBox,-0.048,-0.092,-1.077,0,0,0.0,False
2019-11-11 11:35:01.320,SmartbBox,-0.006,-0.1,-0.975,0,0,0.0,False
2019-11-11 11:35:01.340,SmartbBox,-0.062,-0.062,-0.993,0,0,0.0,False
2019-11-11 11:35:01.360,SmartbBox,-0.008,-0.07,-1.027,0,0,0.0,False
2019-11-11 11:35:01.380,SmartbBox,-0.038,-0.095,-0.998,0,0,0.0,False
2019-11-11 11:35:01.400,SmartbBox,-0.041,-0.094,-1.024,0,0,0.0,False
2019-11-11 11:35:01.420,SmartbBox,-0.046,-0.122,-1.024,0,0,0.0,False
2019-11-11 11:35:01.440,SmartbBox,-0.009,-0.099,-1.002,0,0,0.0,False
2019-11-11 11:35:01.460,SmartbBox,-0.049,-0.122,-1.051,0,0,0.0,False
