UTC_timestamp,device_name,x,y,z,lat,long,speed,event
2019-11-11 07:07:59.480,SmartbBox,0.081,-0.023,-1.065,0,0,0.0,False
2019-11-11 07:07:59.500,SmartbBox,0.017,-0.013,-1.11,0,0,0.0,False
2019-11-11 07:07:59.520,SmartbBox,0.038,-0.074,-1.115,0,0,0.0,False
2019-11-11 07:07:59.540,SmartbBox,0.045,-0.047,-1.088,0,0,0.0,False
2019-11-11 07:07:59.560,SmartbBox,0.042,-0.016,-1.14,0,0,0.0,False
2019-11-11 07:07:59.580,SmartbBox,0.045,-0.047,-1.088,0,0,0.0,False
2019-11-11 07:07:59.600,SmartbBox,0.016,-0.073,-1.058,0,0,0.0,False
2019-11-11 07:07:59.620,SmartbBox,0.028,-0.016,-1.03,0,0,0.0,False
2019-11-11 07:07:59.640,SmartbBox,0.053,-0.049,-1.035,0,0,0.0,False
2019-11-11 07:07:59.660,SmartbBox,0.06,-0.021,-1.008,0,0,0.0,False
2019-11-11 07:07:59.680,SmartbBox,0.056,-0.05,-1.009,0,0,0.0,False
2019-11-11 07:07:59.700,SmartbBox,0.031,-0.046,-0.978,0,0,0.0,False
2019-11-11 07:07:59.720,SmartbBox,0.06,-0.05,-0.982,0,0,0.0,False
2019-11-11 07:07:59.740,SmartbBox,0.063,-0.051,-0.956,0,0,0.0,False
2019-11-11 07:07:59.760,SmartbBox,0.031,-0.047,-0.978,0,0,0.0,False
2019-11-11 07:07:59.780,SmartbBox,0.02,-0.044,-1.058,0,0,0.0,False
2019-11-11 07:07:59.800,SmartbBox,0.088,-0.054,-0.987,0,0,0.0,False
2019-11-11 07:07:59.820,SmartbBox,0.028,-0.046,-1.004,0,0,0.0,False
2019-11-11 07:07:59.840,SmartbBox,0.027,-0.075,-0.978,0,0,0.0,False
2019-11-11 07:07:59.860,SmartbBox,0.056,-0.05,-1.009,0,0,0.0,False
2019-11-11 07:07:59.880,SmartbBox,0.088,-0.054,-0.987,0,0,0.0,False
2019-11-11 07:07:59.900,SmartbBox,0.064,-0.022,-0.982,0,0,0.0,False
2019-11-11 07:07:59.920,SmartbBox,0.06,-0.021,-1.008,0,0,0.0,False
2019-11-11 07:07:59.940,SmartbBox,0.053,-0.049,-1.035,0,0,0.0,False
2019-11-11 07:07:59.960,SmartbBox,0.06,-0.05,-0.982,0,0,0.0,False
2019-11-11 07:07:59.980,SmartbBox,0.028,-0.046,-1.004,0,0,0.0,False
2019-11-11 07:08:00.000,SmartbBox,0.028,-0.016,-1.03,0,0,0.0,False
2019-11-11 07:08:00.020,SmartbBox,0.024,-0.045,-1.031,0,0,0.0,False
2019-11-11 07:08:00.040,SmartbBox,0.06,-0.05,-0.982,0,0,0.0,False
2019-11-11 07:08:00.060,SmartbBox,0.039,0.011,-0.977,0,0,0.0,False
2019-11-11 07:08:00.080,SmartbBox,0.092,-0.026,-0.986,0,0,0.0,False
2019-11-11 07:08:00.100,SmartbBox,0.028,-0.046,-1.004,0,0,0.0,False
2019-11-11 07:08:00.120,SmartbBox,0.035,-0.017,-0.978,0,0,0.0,False
2019-11-11 07:08:00.140,SmartbBox,0.032,-0.016,-1.004,0,0,0.0,False
2019-11-11 07:08:00.160,SmartbBox,0.032,-0.017,-1.004,0,0,0.0,False
2019-11-11 07:08:00.180,SmartbBox,0.089,-0.025,-1.012,0,0,0.0,False
2019-11-11 07:08:00.200,SmartbBox,0.068,0.007,-0.982,0,0,0.0,False
2019-11-11 07:08:00.220,SmartbBox,0.042,-0.02,-0.925,0,0,0.0,False
2019-11-11 07:08:00.240,SmartbBox,0.034,-0.047,-0.952,0,0,0.0,False
2019-11-11 07:08:00.260,SmartbBox,0.06,-0.02,-1.008,0,0,0.0,False
2019-11-11 07:08:00.280,SmartbBox,0.028,-0.046,-1.004,0,0,0.0,False
2019-11-11 07:08:00.300,SmartbBox,0.064,-0.022,-0.982,0,0,0.0,False
2019-11-11 07:08:00.320,SmartbBox,0.035,-0.017,-0.978,0,0,0.0,False
2019-11-11 07:08:00.340,SmartbBox,0.039,0.011,-0.977,0,0,0.0,False
2019-11-11 07:08:00.360,SmartbBox,0.056,-0.02,-1.034,0,0,0.0,False
2019-11-11 07:08:00.380,SmartbBox,0.06,-0.021,-1.008,0,0,0.0,False
2019-11-11 07:08:00.400,SmartbBox,0.056,-0.02,-1.034,0,0,0.0,False
2019-11-11 07:08:00.420,SmartbBox,0.064,0.008,-1.008,0,0,0.0,False
2019-11-11 07:08:00.440,SmartbBox,0.056,-0.02,-1.034,0,0,0.0,False
2019-11-11 07:08:00.460,SmartbBox,0.088,-0.025,-1.013,0,0,0.0,False
2019-11-11 07:08:00.480,SmartbBox,0.028,-0.016,-1.03,0,0,0.0,False
2019-11-11 07:08:00.500,SmartbBox,0.068,0.007,-0.982,0,0,0.0,False
2019-11-11 07:08:00.520,SmartbBox,0.028,-0.016,-1.03,0,0,0.0,False
2019-11-11 07:08:00.540,SmartbBox,0.031,-0.046,-0.978,0,0,0.0,False
2019-11-11 07:08:00.560,SmartbBox,0.032,0.013,-1.03,0,0,0.0,False
2019-11-11 07:08:00.580,SmartbBox,0.064,0.008,-1.008,0,0,0.0,False
2019-11-11 07:08:00.600,SmartbBox,0.084,-0.024,-1.039,0,0,0.0,False
2019-11-11 07:08:00.620,SmartbBox,0.036,0.012,-1.004,0,0,0.0,False
2019-11-11 07:08:00.640,SmartbBox,0.043,0.01,-0.95,0,0,0.0,False
2019-11-11 07:08:00.660,SmartbBox,0.043,0.01,-0.95,0,0,0.0,False
2019-11-11 07:08:00.680,SmartbBox,0.035,-0.017,-0.978,0,0,0.0,False
2019-11-11 07:08:00.700,SmartbBox,0.028,-0.046,-1.004,0,0,0.0,False
2019-11-11 07:08:00.720,SmartbBox,0.035,-0.017,-0.978,0,0,0.0,False
2019-11-11 07:08:00.740,SmartbBox,0.076,0.034,-0.954,0,0,0.0,False
2019-11-11 07:08:00.760,SmartbBox,0.035,-0.017,-0.978,0,0,0.0,False
2019-11-11 07:08:00.780,SmartbBox,0.043,0.01,-0.95,0,0,0.0,False
2019-11-11 07:08:00.800,SmartbBox,0.043,0.01,-0.95,0,0,0.0,False
2019-11-11 07:08:00.820,SmartbBox,0.035,-0.017,-0.978,0,0,0.0,False
2019-11-11 07:08:00.840,SmartbBox,0.06,-0.021,-1.008,0,0,0.0,False
2019-11-11 07:08:00.860,SmartbBox,0.028,-0.016,-1.03,0,0,0.0,False
2019-11-11 07:08:00.880,SmartbBox,0.092,0.004,-1.012,0,0,0.0,False
2019-11-11 07:08:00.900,SmartbBox,0.1,0.032,-0.986,0,0,0.0,False
2019-11-11 07:08:00.920,SmartbBox,0.06,-0.021,-1.008,0,0,0.0,False
2019-11-11 07:08:00.940,SmartbBox,0.032,0.042,-1.056,0,0,0.0,False
2019-11-11 07:08:00.960,SmartbBox,0.064,0.038,-1.034,0,0,0.0,False
2019-11-11 07:08:00.980,SmartbBox,0.024,-0.015,-1.057,0,0,0.0,True
2019-11-11 07:08:01.000,SmartbBox,0.028,0.014,-1.056,0,0,0.0,False
2019-11-11 07:08:01.020,SmartbBox,0.032,0.013,-1.03,0,0,0.0,False
2019-11-11 07:08:01.040,SmartbBox,0.025,0.015,-1.083,0,0,0.0,False
2019-11-11 07:08:01.060,SmartbBox,0.036,0.012,-1.004,0,0,0.0,False
2019-11-11 07:08:01.080,SmartbBox,0.056,-0.02,-1.034,0,0,0.0,False
2019-11-11 07:08:01.100,SmartbBox,0.072,0.006,-0.955,0,0,0.0,False
2019-11-11 07:08:01.120,SmartbBox,0.039,-0.018,-0.951,0,0,0.0,False
2019-11-11 07:08:01.140,SmartbBox,0.068,-0.022,-0.956,0,0,0.0,False
2019-11-11 07:08:01.160,SmartbBox,0.042,-0.02,-0.925,0,0,0.0,False
2019-11-11 07:08:01.180,SmartbBox,-0.001,-0.041,-1.0,0,0,0.0,False
2019-11-11 07:08:01.200,SmartbBox,0.038,-0.018,-0.951,0,0,0.0,False
2019-11-11 07:08:01.220,SmartbBox,0.071,-0.024,-0.929,0,0,0.0,False
2019-11-11 07:08:01.240,SmartbBox,0.05,0.008,-0.898,0,0,0.0,False
2019-11-11 07:08:01.260,SmartbBox,0.068,-0.022,-0.956,0,0,0.0,False
2019-11-11 07:08:01.280,SmartbBox,0.028,-0.046,-1.004,0,0,0.0,False
2019-11-11 07:08:01.300,SmartbBox,0.063,-0.051,-0.956,0,0,0.0,False
2019-11-11 07:08:01.320,SmartbBox,0.039,-0.018,-0.951,0,0,0.0,False
2019-11-11 07:08:01.340,SmartbBox,0.028,-0.046,-1.005,0,0,0.0,False
2019-11-11 07:08:01.360,SmartbBox,0.032,-0.017,-1.004,0,0,0.0,False
2019-11-11 07:08:01.380,SmartbBox,0.031,-0.047,-0.978,0,0,0.0,False
2019-11-11 07:08:01.400,SmartbBox,0.056,-0.02,-1.034,0,0,0.0,False
2019-11-11 07:08:01.420,SmartbBox,0.028,-0.016,-1.03,0,0,0.0,False
2019-11-11 07:08:01.440,SmartbBox,0.02,-0.044,-1.058,0,0,0.0,False
2019-11-11 07:08:01.460,SmartbBox,0.02,-0.044,-1.058,0,0,0.0,False
2019-11-11 07:08:01.480,SmartbBox,0.036,0.012,-1.004,0,0,0.0,False
2019-11-11 07:08:01.500,SmartbBox,0.028,0.014,-1.056,0,0,0.0,False
2019-11-11 07:08:01.520,SmartbBox,0.02,-0.074,-1.031,0,0,0.0,False
2019-11-11 07:08:01.540,SmartbBox,0.053,-0.019,-1.061,0,0,0.0,False
2019-11-11 07:08:01.560,SmartbBox,0.048,-0.048,-1.062,0,0,0.0,False
2019-11-11 07:08:01.580,SmartbBox,0.028,-0.016,-1.03,0,0,0.0,False
2019-11-11 07:08:01.600,SmartbBox,0.024,-0.044,-1.031,0,0,0.0,False
2019-11-11 07:08:01.620,SmartbBox,0.042,-0.02,-0.925,0,0,0.0,False
2019-11-11 07:08:01.640,SmartbBox,-0.005,-0.041,-1.027,0,0,0.0,False
2019-11-11 07:08:01.660,SmartbBox,0.024,-0.044,-1.031,0,0,0.0,False
2019-11-11 07:08:01.680,SmartbBox,0.028,-0.016,-1.03,0,0,0.0,False
2019-11-11 07:08:01.700,SmartbBox,0.036,-0.018,-0.978,0,0,0.0,False
2019-11-11 07:08:01.720,SmartbBox,0.039,-0.018,-0.951,0,0,0.0,False
2019-11-11 07:08:01.740,SmartbBox,0.034,-0.047,-0.952,0,0,0.0,False
2019-11-11 07:08:01.760,SmartbBox,0.06,-0.05,-0.982,0,0,0.0,False
2019-11-11 07:08:01.780,SmartbBox,0.042,-0.02,-0.925,0,0,0.0,False
2019-11-11 07:08:01.800,SmartbBox,0.035,-0.018,-0.978,0,0,0.0,False
2019-11-11 07:08:01.820,SmartbBox,0.06,-0.08,-0.956,0,0,0.0,False
2019-11-11 07:08:01.840,SmartbBox,0.06,-0.05,-0.982,0,0,0.0,False
2019-11-11 07:08:01.860,SmartbBox,0.01,-0.014,-0.947,0,0,0.0,False
2019-11-11 07:08:01.880,SmartbBox,0.031,-0.046,-0.978,0,0,0.0,False
2019-11-11 07:08:01.900,SmartbBox,0.075,-0.024,-0.903,0,0,0.0,False
2019-11-11 07:08:01.920,SmartbBox,-0.004,-0.04,-1.027,0,0,0.0,False
2019-11-11 07:08:01.940,SmartbBox,0.0,0.018,-1.052,0,0,0.0,False
2019-11-11 07:08:01.960,SmartbBox,0.064,-0.052,-0.956,0,0,0.0,False
2019-11-11 07:08:01.980,SmartbBox,0.082,0.037,-1.117,0,0,0.0,False
2019-11-11 07:08:02.000,SmartbBox,0.017,-0.017,-0.894,0,0,0.0,False
2019-11-11 07:08:02.020,SmartbBox,-0.001,-0.012,-1.026,0,0,0.0,False
2019-11-11 07:08:02.040,SmartbBox,0.077,-0.022,-1.092,0,0,0.0,False
2019-11-11 07:08:02.060,SmartbBox,0.07,-0.053,-0.903,0,0,0.0,False
2019-11-11 07:08:02.080,SmartbBox,-0.015,-0.008,-1.132,0,0,0.0,False
2019-11-11 07:08:02.100,SmartbBox,0.046,0.012,-1.14,0,0,0.0,False
2019-11-11 07:08:02.120,SmartbBox,0.096,0.003,-0.986,0,0,0.0,False
2019-11-11 07:08:02.140,SmartbBox,0.056,-0.049,-1.009,0,0,0.0,False
2019-11-11 07:08:02.160,SmartbBox,0.018,0.016,-1.136,0,0,0.0,False
2019-11-11 07:08:02.180,SmartbBox,0.039,-0.019,-0.952,0,0,0.0,False
2019-11-11 07:08:02.200,SmartbBox,0.07,-0.02,-1.145,0,0,0.0,False
2019-11-11 07:08:02.220,SmartbBox,0.099,-0.024,-1.149,0,0,0.0,False
2019-11-11 07:08:02.240,SmartbBox,-0.025,-0.009,-0.996,0,0,0.0,False
2019-11-11 07:08:02.260,SmartbBox,0.021,0.016,-1.11,0,0,0.0,False
2019-11-11 07:08:02.280,SmartbBox,0.082,0.003,-0.876,0,0,0.0,False
2019-11-11 07:08:02.300,SmartbBox,0.043,0.01,-0.951,0,0,0.0,False
2019-11-11 07:08:02.320,SmartbBox,0.011,0.044,-0.999,0,0,0.0,False
2019-11-11 07:08:02.340,SmartbBox,0.108,0.0,-0.906,0,0,0.0,False
2019-11-11 07:08:02.360,SmartbBox,0.061,0.005,-0.819,0,0,0.0,False
2019-11-11 07:08:02.380,SmartbBox,0.09,0.06,-0.875,0,0,0.0,False
2019-11-11 07:08:02.400,SmartbBox,0.046,0.009,-0.924,0,0,0.0,False
2019-11-11 07:08:02.420,SmartbBox,0.05,0.038,-0.924,0,0,0.0,False
2019-11-11 07:08:02.440,SmartbBox,0.058,0.066,-0.897,0,0,0.0,False
2019-11-11 07:08:02.460,SmartbBox,0.039,0.011,-0.977,0,0,0.0,False
