UTC_timestamp,device_name,timestamp,x,y,z,lat,long,event,speed
2019-10-26 10:29:26.420,LG-H970,1572085766429.8,-2.141,10.218,-0.687,41.1039867,16.8796145,False,NONE
2019-10-26 10:29:26.440,LG-H970,1572085766449.6667,-2.519,11.249,-0.829,41.1039867,16.8796145,False,NONE
2019-10-26 10:29:26.460,LG-H970,1572085766467.25,-1.031,10.182,-0.337,41.1039867,16.8796145,False,NONE
2019-10-26 10:29:26.480,LG-H970,1572085766489.2,1.037,8.582,0.592,41.1039867,16.8796145,False,NONE
2019-10-26 10:29:26.500,LG-H970,1572085766510.75,-0.011,8.822,-0.171,41.1039867,16.8796145,False,NONE
2019-10-26 10:29:26.520,LG-H970,1572085766531.0,-1.917,10.757,-2.033,41.1039867,16.8796145,False,NONE
2019-10-26 10:29:26.540,LG-H970,1572085766551.25,-1.165,10.639,-0.829,41.1039867,16.8796145,False,NONE
2019-10-26 10:29:26.560,LG-H970,1572085766570.0,1.408,8.988,0.464,41.1039867,16.8796145,False,NONE
2019-10-26 10:29:26.580,LG-H970,1572085766589.25,1.113,8.736,0.084,41.1039867,16.8796145,False,NONE
2019-10-26 10:29:26.600,LG-H970,1572085766609.75,-1.556,10.035,-1.698,41.1039867,16.8796145,False,NONE
2019-10-26 10:29:26.620,LG-H970,1572085766628.75,-1.842,10.428,-1.331,41.1039867,16.8796145,False,NONE
2019-10-26 10:29:26.640,LG-H970,1572085766648.5,0.773,9.78,-0.495,41.1039867,16.8796145,False,NONE
2019-10-26 10:29:26.660,LG-H970,1572085766668.75,0.905,9.314,-0.136,41.1039867,16.8796145,False,NONE
2019-10-26 10:29:26.680,LG-H970,1572085766688.25,-0.857,9.15,-1.12,41.1039867,16.8796145,False,NONE
2019-10-26 10:29:26.700,LG-H970,1572085766707.5,-1.283,9.741,-1.717,41.1039867,16.8796145,False,NONE
2019-10-26 10:29:26.720,LG-H970,1572085766729.8,-0.878,10.053,-0.574,41.1039867,16.8796145,False,NONE
2019-10-26 10:29:26.740,LG-H970,1572085766752.0,-0.56,10.05,-0.195,41.1039867,16.8796145,False,NONE
2019-10-26 10:29:26.760,LG-H970,1572085766769.6667,-0.617,9.777,0.437,41.1039867,16.8796145,False,NONE
2019-10-26 10:29:26.780,LG-H970,1572085766789.6,-0.725,10.534,-1.325,41.1039867,16.8796145,False,NONE
2019-10-26 10:29:26.800,LG-H970,1572085766811.75,-1.969,10.368,-0.543,41.1039867,16.8796145,False,NONE
2019-10-26 10:29:26.820,LG-H970,1572085766832.0,-0.487,9.548,-0.158,41.1039867,16.8796145,False,NONE
2019-10-26 10:29:26.840,LG-H970,1572085766851.0,0.949,9.105,0.595,41.1039867,16.8796145,False,NONE
2019-10-26 10:29:26.860,LG-H970,1572085766870.5,0.482,8.555,-1.869,41.1039867,16.8796145,False,NONE
2019-10-26 10:29:26.880,LG-H970,1572085766890.75,0.573,8.219,-2.602,41.1039867,16.8796145,False,NONE
2019-10-26 10:29:26.900,LG-H970,1572085766910.5,1.535,5.096,-0.812,41.1039867,16.8796145,False,NONE
2019-10-26 10:29:26.920,LG-H970,1572085766930.25,2.411,8.176,-0.707,41.1039867,16.8796145,False,NONE
2019-10-26 10:29:26.940,LG-H970,1572085766949.75,-1.428,10.9,-0.106,41.1039867,16.8796145,False,NONE
2019-10-26 10:29:26.960,LG-H970,1572085766969.5,-3.318,11.327,-0.523,41.1039867,16.8796145,False,NONE
2019-10-26 10:29:26.980,LG-H970,1572085766989.75,-0.259,9.539,-0.944,41.1039867,16.8796145,False,NONE
2019-10-26 10:29:27.000,LG-H970,1572085767009.0,1.339,8.728,-0.077,41.1039867,16.8796145,False,NONE
2019-10-26 10:29:27.020,LG-H970,1572085767028.75,-2.388,9.563,0.094,41.1039867,16.8796145,False,NONE
2019-10-26 10:29:27.040,LG-H970,1572085767048.25,-4.949,12.525,-1.061,41.1039867,16.8796145,False,NONE
2019-10-26 10:29:27.060,LG-H970,1572085767067.5,-3.511,13.312,0.821,41.1039867,16.8796145,False,NONE
2019-10-26 10:29:27.080,LG-H970,1572085767087.25,-0.888,11.816,3.398,41.1039867,16.8796145,False,NONE
2019-10-26 10:29:27.100,LG-H970,1572085767109.8,-3.161,11.224,1.412,41.1039867,16.8796145,False,NONE
2019-10-26 10:29:27.120,LG-H970,1572085767131.5,-6.079,12.518,-2.53,41.1039867,16.8796145,False,NONE
2019-10-26 10:29:27.140,LG-H970,1572085767150.0,-5.448,12.89,-2.181,41.1039867,16.8796145,False,NONE
2019-10-26 10:29:27.160,LG-H970,1572085767169.2,-0.879,12.494,3.615,41.1039867,16.8796145,False,NONE
2019-10-26 10:29:27.180,LG-H970,1572085767191.0,-1.048,12.222,4.174,41.1039867,16.8796145,False,NONE
2019-10-26 10:29:27.200,LG-H970,1572085767210.5,-5.351,13.814,-1.571,41.1039867,16.8796145,False,NONE
2019-10-26 10:29:27.220,LG-H970,1572085767231.0,-4.031,11.887,-4.126,41.1039867,16.8796145,False,NONE
2019-10-26 10:29:27.240,LG-H970,1572085767250.0,1.565,7.742,-0.745,41.1039867,16.8796145,False,NONE
2019-10-26 10:29:27.260,LG-H970,1572085767270.5,2.967,7.164,1.871,41.1039867,16.8796145,False,NONE
2019-10-26 10:29:27.280,LG-H970,1572085767290.5,-0.284,11.115,-1.076,41.1039867,16.8796145,False,NONE
2019-10-26 10:29:27.300,LG-H970,1572085767309.75,-3.385,12.025,-3.351,41.1039867,16.8796145,False,NONE
2019-10-26 10:29:27.320,LG-H970,1572085767329.75,0.502,9.651,-1.383,41.1039867,16.8796145,False,NONE
2019-10-26 10:29:27.340,LG-H970,1572085767349.5,4.612,5.531,-0.168,41.1039867,16.8796145,False,NONE
2019-10-26 10:29:27.360,LG-H970,1572085767368.75,3.853,7.395,0.492,41.1039867,16.8796145,False,NONE
2019-10-26 10:29:27.380,LG-H970,1572085767389.25,-0.368,8.964,-3.72,41.1039867,16.8796145,False,NONE
2019-10-26 10:29:27.400,LG-H970,1572085767408.75,-0.517,10.431,-1.319,41.1039867,16.8796145,False,NONE
2019-10-26 10:29:27.420,LG-H970,1572085767427.75,3.045,7.376,0.559,41.1039867,16.8796145,False,NONE
2019-10-26 10:29:27.440,LG-H970,1572085767450.0,3.891,6.566,1.206,41.1039867,16.8796145,False,NONE
2019-10-26 10:29:27.460,LG-H970,1572085767472.25,0.034,8.349,-1.859,41.1039867,16.8796145,False,NONE
2019-10-26 10:29:27.480,LG-H970,1572085767492.0,-1.839,10.23,-2.283,41.1039867,16.8796145,False,NONE
2019-10-26 10:29:27.500,LG-H970,1572085767511.5,0.666,9.884,0.459,41.1039867,16.8796145,False,NONE
2019-10-26 10:29:27.520,LG-H970,1572085767529.0,2.394,6.856,1.426,41.1039867,16.8796145,False,NONE
2019-10-26 10:29:27.540,LG-H970,1572085767549.2,1.617,9.645,-0.178,41.1039867,16.8796145,False,NONE
2019-10-26 10:29:27.560,LG-H970,1572085767569.75,-2.566,10.001,-2.906,41.1039867,16.8796145,False,NONE
2019-10-26 10:29:27.580,LG-H970,1572085767589.75,-0.468,9.4,-0.985,41.1039867,16.8796145,False,NONE
2019-10-26 10:29:27.600,LG-H970,1572085767609.5,1.589,7.528,-0.291,41.1039867,16.8796145,False,NONE
2019-10-26 10:29:27.620,LG-H970,1572085767629.25,-0.0,10.18,0.57,41.1039867,16.8796145,False,NONE
2019-10-26 10:29:27.640,LG-H970,1572085767649.0,-1.585,10.912,-1.826,41.1039867,16.8796145,False,NONE
2019-10-26 10:29:27.660,LG-H970,1572085767667.5,-0.21,9.848,0.203,41.1039867,16.8796145,False,NONE
2019-10-26 10:29:27.680,LG-H970,1572085767687.5,2.163,7.975,1.22,41.1039867,16.8796145,False,NONE
2019-10-26 10:29:27.700,LG-H970,1572085767707.5,1.517,8.778,2.138,41.1039867,16.8796145,False,NONE
2019-10-26 10:29:27.720,LG-H970,1572085767730.4,-1.863,11.742,-2.28,41.1039867,16.8796145,False,NONE
2019-10-26 10:29:27.740,LG-H970,1572085767751.5,-2.502,12.226,-1.525,41.1039867,16.8796145,False,NONE
2019-10-26 10:29:27.760,LG-H970,1572085767769.6667,0.094,8.056,0.52,41.1039867,16.8796145,False,NONE
2019-10-26 10:29:27.780,LG-H970,1572085767789.2,1.971,8.124,0.639,41.1039867,16.8796145,False,NONE
2019-10-26 10:29:27.800,LG-H970,1572085767811.5,-1.811,12.104,-0.646,41.1039867,16.8796145,False,NONE
2019-10-26 10:29:27.820,LG-H970,1572085767831.75,-4.893,12.469,-2.986,41.1039867,16.8796145,False,NONE
2019-10-26 10:29:27.840,LG-H970,1572085767851.75,-3.927,11.713,-0.319,41.1039867,16.8796145,False,NONE
2019-10-26 10:29:27.860,LG-H970,1572085767871.5,-2.803,9.052,-1.882,41.1039867,16.8796145,False,NONE
2019-10-26 10:29:27.880,LG-H970,1572085767891.5,-3.086,10.957,-2.305,41.1039867,16.8796145,False,NONE
2019-10-26 10:29:27.900,LG-H970,1572085767910.75,-4.587,11.678,-2.677,41.1039867,16.8796145,False,NONE
2019-10-26 10:29:27.920,LG-H970,1572085767930.25,-2.959,10.715,0.436,41.1039867,16.8796145,True,NONE
2019-10-26 10:29:27.940,LG-H970,1572085767949.25,-2.044,10.58,0.114,41.1039867,16.8796145,True,NONE
2019-10-26 10:29:27.960,LG-H970,1572085767968.75,-3.478,11.759,-0.792,41.1039867,16.8796145,False,NONE
2019-10-26 10:29:27.980,LG-H970,1572085767988.5,-2.283,10.047,-2.396,41.1039867,16.8796145,False,NONE
2019-10-26 10:29:28.000,LG-H970,1572085768008.5,0.525,7.851,0.797,41.1039867,16.8796145,False,NONE
2019-10-26 10:29:28.020,LG-H970,1572085768029.0,2.312,9.472,1.508,41.1039867,16.8796145,False,NONE
2019-10-26 10:29:28.040,LG-H970,1572085768049.5,0.181,10.882,0.753,41.1039867,16.8796145,False,NONE
2019-10-26 10:29:28.060,LG-H970,1572085768068.5,0.245,10.968,-0.41,41.1039867,16.8796145,False,NONE
2019-10-26 10:29:28.080,LG-H970,1572085768087.5,2.705,7.272,-0.712,41.1039867,16.8796145,False,NONE
2019-10-26 10:29:28.100,LG-H970,1572085768109.8,5.819,8.146,2.936,41.1039867,16.8796145,False,NONE
2019-10-26 10:29:28.120,LG-H970,1572085768132.25,2.247,9.244,0.316,41.1039867,16.8796145,False,NONE
2019-10-26 10:29:28.140,LG-H970,1572085768152.25,-0.108,12.771,0.537,41.1039867,16.8796145,False,NONE
2019-10-26 10:29:28.160,LG-H970,1572085768169.3333,1.58,10.593,-0.385,41.1039867,16.8796145,False,NONE
2019-10-26 10:29:28.180,LG-H970,1572085768189.6,4.805,7.404,1.631,41.1039867,16.8796145,False,NONE
2019-10-26 10:29:28.200,LG-H970,1572085768211.0,3.867,8.233,0.655,41.1039867,16.8796145,False,NONE
2019-10-26 10:29:28.220,LG-H970,1572085768228.3333,-0.286,9.271,-2.562,41.1039867,16.8796145,False,NONE
2019-10-26 10:29:28.240,LG-H970,1572085768248.8,-0.675,11.439,-0.153,41.1039867,16.8796145,False,NONE
2019-10-26 10:29:28.260,LG-H970,1572085768270.3333,1.182,9.296,1.372,41.1039867,16.8796145,False,NONE
2019-10-26 10:29:28.280,LG-H970,1572085768289.75,2.315,8.859,1.335,41.1039867,16.8796145,False,NONE
2019-10-26 10:29:28.300,LG-H970,1572085768309.75,0.193,9.773,-2.213,41.1039867,16.8796145,False,NONE
2019-10-26 10:29:28.320,LG-H970,1572085768329.75,-1.632,10.019,-2.057,41.1039867,16.8796145,False,NONE
2019-10-26 10:29:28.340,LG-H970,1572085768349.5,0.102,9.637,-0.146,41.1039867,16.8796145,False,NONE
2019-10-26 10:29:28.360,LG-H970,1572085768369.25,1.915,9.38,0.704,41.1039867,16.8796145,False,NONE
2019-10-26 10:29:28.380,LG-H970,1572085768389.0,0.594,10.309,0.117,41.1039867,16.8796145,False,NONE
2019-10-26 10:29:28.400,LG-H970,1572085768408.5,-1.045,10.85,-2.335,41.1039867,16.8796145,False,NONE
2019-10-26 10:29:28.420,LG-H970,1572085768428.75,-0.708,10.032,-2.15,41.1039867,16.8796145,False,NONE
2019-10-26 10:29:28.440,LG-H970,1572085768448.25,0.962,9.477,-0.846,41.1039867,16.8796145,False,NONE
2019-10-26 10:29:28.460,LG-H970,1572085768467.75,0.514,10.254,0.822,41.1039867,16.8796145,False,NONE
2019-10-26 10:29:28.480,LG-H970,1572085768488.0,-0.99,11.251,0.404,41.1039867,16.8796145,False,NONE
2019-10-26 10:29:28.500,LG-H970,1572085768507.5,-0.544,12.716,-1.191,41.1039867,16.8796145,False,NONE
2019-10-26 10:29:28.520,LG-H970,1572085768529.2,0.737,9.503,-0.415,41.1039867,16.8796145,False,NONE
2019-10-26 10:29:28.540,LG-H970,1572085768551.75,1.325,8.424,0.002,41.1039867,16.8796145,False,NONE
2019-10-26 10:29:28.560,LG-H970,1572085768572.5,-1.88,9.522,0.927,41.1039867,16.8796145,False,NONE
2019-10-26 10:29:28.580,LG-H970,1572085768591.0,-2.995,11.837,0.669,41.1039867,16.8796145,False,NONE
2019-10-26 10:29:28.600,LG-H970,1572085768610.5,-0.155,11.225,-0.897,41.1039867,16.8796145,False,NONE
2019-10-26 10:29:28.620,LG-H970,1572085768627.0,0.531,10.216,2.318,41.1039867,16.8796145,False,NONE
2019-10-26 10:29:28.640,LG-H970,1572085768648.0,-0.451,8.641,-1.089,41.1039867,16.8796145,False,NONE
2019-10-26 10:29:28.660,LG-H970,1572085768669.25,-0.031,9.381,-0.386,41.1039867,16.8796145,False,NONE
2019-10-26 10:29:28.680,LG-H970,1572085768689.0,0.841,9.596,0.775,41.1039867,16.8796145,False,NONE
2019-10-26 10:29:28.700,LG-H970,1572085768708.5,0.314,10.903,1.02,41.1039867,16.8796145,False,NONE
2019-10-26 10:29:28.720,LG-H970,1572085768728.5,0.504,10.298,0.292,41.1039867,16.8796145,False,NONE
2019-10-26 10:29:28.740,LG-H970,1572085768748.75,2.208,8.591,-0.877,41.1039867,16.8796145,False,NONE
2019-10-26 10:29:28.760,LG-H970,1572085768768.5,1.954,8.266,0.507,41.1039867,16.8796145,False,NONE
2019-10-26 10:29:28.780,LG-H970,1572085768790.6,1.253,10.212,-0.26,41.1039867,16.8796145,False,NONE
2019-10-26 10:29:28.800,LG-H970,1572085768809.3333,0.299,10.993,0.896,41.1039867,16.8796145,False,NONE
2019-10-26 10:29:28.820,LG-H970,1572085768829.8,1.429,10.287,0.626,41.1039867,16.8796145,False,NONE
2019-10-26 10:29:28.840,LG-H970,1572085768851.75,2.83,8.97,-0.335,41.1039867,16.8796145,False,NONE
2019-10-26 10:29:28.860,LG-H970,1572085768871.5,2.705,9.438,-0.397,41.1039867,16.8796145,False,NONE
2019-10-26 10:29:28.880,LG-H970,1572085768891.25,2.442,9.907,-0.778,41.1039867,16.8796145,False,NONE
2019-10-26 10:29:28.900,LG-H970,1572085768911.75,2.789,10.0,1.172,41.1039867,16.8796145,False,NONE
2019-10-26 10:29:28.920,LG-H970,1572085768931.5,2.971,9.485,-0.235,41.1039867,16.8796145,False,NONE
2019-10-26 10:29:28.940,LG-H970,1572085768950.5,2.495,8.746,-1.342,41.1039867,16.8796145,False,NONE
2019-10-26 10:29:28.960,LG-H970,1572085768969.75,2.088,8.281,-2.188,41.1039867,16.8796145,False,NONE
2019-10-26 10:29:28.980,LG-H970,1572085768990.25,1.497,8.806,-1.029,41.1039867,16.8796145,False,NONE
2019-10-26 10:29:29.000,LG-H970,1572085769009.75,0.901,10.041,0.207,41.1039867,16.8796145,False,NONE
2019-10-26 10:29:29.020,LG-H970,1572085769029.75,0.612,10.681,1.308,41.1039867,16.8796145,False,NONE
2019-10-26 10:29:29.040,LG-H970,1572085769049.5,0.044,10.235,-0.42,41.1039867,16.8796145,False,NONE
2019-10-26 10:29:29.060,LG-H970,1572085769069.5,0.367,9.315,-1.231,41.1039867,16.8796145,False,NONE
2019-10-26 10:29:29.080,LG-H970,1572085769089.0,0.613,8.896,-1.357,41.1039867,16.8796145,False,NONE
2019-10-26 10:29:29.100,LG-H970,1572085769108.75,1.41,10.165,0.049,41.1039867,16.8796145,False,NONE
2019-10-26 10:29:29.120,LG-H970,1572085769128.5,0.472,9.626,1.209,41.1039867,16.8796145,False,NONE
2019-10-26 10:29:29.140,LG-H970,1572085769148.25,0.368,10.02,-0.116,41.1039867,16.8796145,False,NONE
2019-10-26 10:29:29.160,LG-H970,1572085769167.5,-1.016,9.285,-0.971,41.1039867,16.8796145,False,NONE
2019-10-26 10:29:29.180,LG-H970,1572085769192.25,-0.694,9.508,-1.234,41.1039867,16.8796145,False,NONE
2019-10-26 10:29:29.200,LG-H970,1572085769208.6667,-0.107,10.523,0.309,41.1039867,16.8796145,False,NONE
2019-10-26 10:29:29.220,LG-H970,1572085769228.8,-0.174,10.992,0.866,41.1039867,16.8796145,False,NONE
2019-10-26 10:29:29.240,LG-H970,1572085769251.5,0.429,10.494,0.311,41.1039867,16.8796145,False,NONE
2019-10-26 10:29:29.260,LG-H970,1572085769271.25,0.609,8.018,-0.948,41.1039867,16.8796145,False,NONE
2019-10-26 10:29:29.280,LG-H970,1572085769290.25,1.817,7.738,-1.942,41.1039867,16.8796145,False,NONE
2019-10-26 10:29:29.300,LG-H970,1572085769309.5,2.711,7.203,-0.773,41.1039867,16.8796145,False,NONE
2019-10-26 10:29:29.320,LG-H970,1572085769330.0,3.579,5.9,0.683,41.1039867,16.8796145,False,NONE
2019-10-26 10:29:29.340,LG-H970,1572085769350.5,0.123,8.521,1.091,41.1039867,16.8796145,False,NONE
2019-10-26 10:29:29.360,LG-H970,1572085769370.25,-2.527,14.115,0.732,41.1039867,16.8796145,False,NONE
2019-10-26 10:29:29.380,LG-H970,1572085769389.5,-2.698,12.977,2.574,41.1039867,16.8796145,False,NONE
2019-10-26 10:29:29.400,LG-H970,1572085769409.0,-2.119,11.88,3.253,41.1039867,16.8796145,False,NONE
