UTC_timestamp,device_name,timestamp,x,y,z,lat,long,event,speed
2019-10-25 10:01:54.460,LG-H970,1571997714468.6,-3.035,9.814,-1.395,41.1076293,16.8818172,False,NONE
2019-10-25 10:01:54.480,LG-H970,1571997714486.0,0.221,6.477,0.334,41.1076293,16.8818172,False,NONE
2019-10-25 10:01:54.500,LG-H970,1571997714510.2,-0.598,8.124,0.55,41.1076293,16.8818172,False,NONE
2019-10-25 10:01:54.520,LG-H970,1571997714529.25,-0.777,13.158,-3.8,41.1076293,16.8818172,False,NONE
2019-10-25 10:01:54.540,LG-H970,1571997714554.0,-1.307,8.008,-2.862,41.1076293,16.8818172,False,NONE
2019-10-25 10:01:54.560,LG-H970,1571997714570.4,2.291,9.035,-0.754,41.1076293,16.8818172,False,NONE
2019-10-25 10:01:54.580,LG-H970,1571997714590.0,2.157,7.893,-1.482,41.1076293,16.8818172,False,NONE
2019-10-25 10:01:54.600,LG-H970,1571997714607.75,0.276,11.564,-2.214,41.1076293,16.8818172,False,NONE
2019-10-25 10:01:54.620,LG-H970,1571997714629.3333,-1.582,10.969,-1.268,41.1076293,16.8818172,False,NONE
2019-10-25 10:01:54.640,LG-H970,1571997714648.4,0.436,10.731,-0.416,41.1076293,16.8818172,False,NONE
2019-10-25 10:01:54.660,LG-H970,1571997714669.6667,1.871,7.662,2.264,41.1076293,16.8818172,False,NONE
2019-10-25 10:01:54.680,LG-H970,1571997714688.0,0.904,9.063,-2.124,41.1076293,16.8818172,False,NONE
2019-10-25 10:01:54.700,LG-H970,1571997714704.6667,-1.597,12.913,-2.393,41.1076293,16.8818172,False,NONE
2019-10-25 10:01:54.720,LG-H970,1571997714729.5,-2.534,10.78,-1.722,41.1076293,16.8818172,False,NONE
2019-10-25 10:01:54.740,LG-H970,1571997714749.8,0.828,9.57,1.148,41.1076293,16.8818172,False,NONE
2019-10-25 10:01:54.760,LG-H970,1571997714764.0,0.789,6.235,2.041,41.1076293,16.8818172,False,NONE
2019-10-25 10:01:54.780,LG-H970,1571997714790.4,-1.055,10.382,-0.879,41.1076293,16.8818172,False,NONE
2019-10-25 10:01:54.800,LG-H970,1571997714809.25,-3.491,10.811,-2.138,41.1076293,16.8818172,False,NONE
2019-10-25 10:01:54.820,LG-H970,1571997714828.6,0.162,9.338,-0.394,41.1076293,16.8818172,False,NONE
2019-10-25 10:01:54.840,LG-H970,1571997714852.0,2.195,8.765,-0.256,41.1076293,16.8818172,False,NONE
2019-10-25 10:01:54.860,LG-H970,1571997714869.2,-0.677,9.994,-0.137,41.1076293,16.8818172,False,NONE
2019-10-25 10:01:54.880,LG-H970,1571997714889.75,-2.799,10.65,-1.504,41.1076293,16.8818172,False,NONE
2019-10-25 10:01:54.900,LG-H970,1571997714910.0,-0.516,9.734,-0.703,41.1076293,16.8818172,False,NONE
2019-10-25 10:01:54.920,LG-H970,1571997714930.6667,1.491,9.09,-0.377,41.1076293,16.8818172,False,NONE
2019-10-25 10:01:54.940,LG-H970,1571997714950.6667,0.968,8.512,-0.342,41.1076293,16.8818172,False,NONE
2019-10-25 10:01:54.960,LG-H970,1571997714970.25,-1.0,10.422,-0.498,41.1076293,16.8818172,False,NONE
2019-10-25 10:01:54.980,LG-H970,1571997714986.5,-1.637,10.493,-1.675,41.1076293,16.8818172,False,NONE
2019-10-25 10:01:55.000,LG-H970,1571997715011.0,0.837,9.79,-0.849,41.1076293,16.8818172,False,NONE
2019-10-25 10:01:55.020,LG-H970,1571997715029.0,1.323,8.572,-0.662,41.1076293,16.8818172,False,NONE
2019-10-25 10:01:55.040,LG-H970,1571997715046.75,-0.934,10.007,-1.128,41.1076293,16.8818172,False,NONE
2019-10-25 10:01:55.060,LG-H970,1571997715069.4,-1.721,10.679,-1.457,41.1076293,16.8818172,False,NONE
2019-10-25 10:01:55.080,LG-H970,1571997715089.0,0.349,9.925,-0.135,41.1076293,16.8818172,False,NONE
2019-10-25 10:01:55.100,LG-H970,1571997715109.0,0.199,9.238,-1.045,41.1076293,16.8818172,False,NONE
2019-10-25 10:01:55.120,LG-H970,1571997715127.75,-0.622,10.667,-1.213,41.1076293,16.8818172,False,NONE
2019-10-25 10:01:55.140,LG-H970,1571997715150.5,-0.493,9.861,-1.752,41.1076293,16.8818172,False,NONE
2019-10-25 10:01:55.160,LG-H970,1571997715169.6,0.413,10.617,0.276,41.1076293,16.8818172,False,NONE
2019-10-25 10:01:55.180,LG-H970,1571997715191.25,-0.287,9.989,-0.698,41.1076293,16.8818172,False,NONE
2019-10-25 10:01:55.200,LG-H970,1571997715207.0,-0.492,10.896,-0.425,41.1076293,16.8818172,False,NONE
2019-10-25 10:01:55.220,LG-H970,1571997715229.25,-0.301,9.673,-2.086,41.1076293,16.8818172,False,NONE
2019-10-25 10:01:55.240,LG-H970,1571997715246.75,0.385,9.309,-0.754,41.1076293,16.8818172,False,NONE
2019-10-25 10:01:55.260,LG-H970,1571997715267.0,0.294,9.082,-0.686,41.1076293,16.8818172,False,NONE
2019-10-25 10:01:55.280,LG-H970,1571997715288.5,-0.565,9.733,-0.841,41.1076293,16.8818172,False,NONE
2019-10-25 10:01:55.300,LG-H970,1571997715311.25,-0.925,10.358,-0.832,41.1076293,16.8818172,False,NONE
2019-10-25 10:01:55.320,LG-H970,1571997715329.0,-0.695,9.392,-1.017,41.1076293,16.8818172,False,NONE
2019-10-25 10:01:55.340,LG-H970,1571997715348.8,-0.137,9.616,-0.489,41.1076293,16.8818172,False,NONE
2019-10-25 10:01:55.360,LG-H970,1571997715372.3333,-0.689,9.992,-1.456,41.1076293,16.8818172,False,NONE
2019-10-25 10:01:55.380,LG-H970,1571997715390.6,-0.585,10.981,-0.619,41.1076293,16.8818172,False,NONE
2019-10-25 10:01:55.400,LG-H970,1571997715410.6,0.406,9.123,-0.296,41.1076293,16.8818172,False,NONE
2019-10-25 10:01:55.420,LG-H970,1571997715429.5,0.382,9.453,-0.738,41.1076293,16.8818172,False,NONE
2019-10-25 10:01:55.440,LG-H970,1571997715451.25,-1.354,10.188,-1.898,41.1076293,16.8818172,False,NONE
2019-10-25 10:01:55.460,LG-H970,1571997715470.0,-1.148,10.586,-0.443,41.1076293,16.8818172,False,NONE
2019-10-25 10:01:55.480,LG-H970,1571997715491.25,0.479,9.481,-0.23,41.1076293,16.8818172,False,NONE
2019-10-25 10:01:55.500,LG-H970,1571997715511.6667,0.621,9.686,-0.861,41.1076293,16.8818172,False,NONE
2019-10-25 10:01:55.520,LG-H970,1571997715530.0,-0.283,10.107,-1.176,41.1076293,16.8818172,False,NONE
2019-10-25 10:01:55.540,LG-H970,1571997715548.6,-0.506,9.385,-1.471,41.1076293,16.8818172,False,NONE
2019-10-25 10:01:55.560,LG-H970,1571997715571.25,0.708,10.192,-0.796,41.1076293,16.8818172,False,NONE
2019-10-25 10:01:55.580,LG-H970,1571997715588.5,-0.178,9.743,-0.619,41.1076293,16.8818172,False,NONE
2019-10-25 10:01:55.600,LG-H970,1571997715607.5,-1.161,10.714,-0.212,41.1076293,16.8818172,False,NONE
2019-10-25 10:01:55.620,LG-H970,1571997715631.5,-1.162,9.113,-1.135,41.1076293,16.8818172,False,NONE
2019-10-25 10:01:55.640,LG-H970,1571997715649.5,-0.029,9.263,-1.102,41.1076293,16.8818172,False,NONE
2019-10-25 10:01:55.660,LG-H970,1571997715667.75,-0.318,9.526,-1.613,41.1076293,16.8818172,False,NONE
2019-10-25 10:01:55.680,LG-H970,1571997715688.75,-0.582,10.171,-0.292,41.1076293,16.8818172,False,NONE
2019-10-25 10:01:55.700,LG-H970,1571997715708.25,-0.011,9.866,-0.609,41.1076293,16.8818172,False,NONE
2019-10-25 10:01:55.720,LG-H970,1571997715730.6667,-0.186,10.038,-0.121,41.1076293,16.8818172,False,NONE
2019-10-25 10:01:55.740,LG-H970,1571997715749.0,-1.456,10.186,-1.017,41.1076293,16.8818172,False,NONE
2019-10-25 10:01:55.760,LG-H970,1571997715770.6667,-1.591,9.95,-0.833,41.1076293,16.8818172,False,NONE
2019-10-25 10:01:55.780,LG-H970,1571997715788.0,-0.063,9.579,-0.823,41.1076293,16.8818172,False,NONE
2019-10-25 10:01:55.800,LG-H970,1571997715806.75,-0.175,9.487,-0.769,41.1076293,16.8818172,False,NONE
2019-10-25 10:01:55.820,LG-H970,1571997715830.0,-1.399,9.33,-0.315,41.1076293,16.8818172,False,NONE
2019-10-25 10:01:55.840,LG-H970,1571997715851.25,-1.152,9.615,-1.601,41.1076293,16.8818172,False,NONE
2019-10-25 10:01:55.860,LG-H970,1571997715869.75,-0.341,9.786,-0.674,41.1076293,16.8818172,False,NONE
2019-10-25 10:01:55.880,LG-H970,1571997715886.75,-0.826,9.332,-0.78,41.1076293,16.8818172,False,NONE
2019-10-25 10:01:55.900,LG-H970,1571997715910.8,-1.145,10.488,-0.397,41.1076293,16.8818172,False,NONE
2019-10-25 10:01:55.920,LG-H970,1571997715925.0,-0.697,10.51,-1.396,41.1076293,16.8818172,False,NONE
2019-10-25 10:01:55.940,LG-H970,1571997715925.0,-0.697,10.51,-1.396,41.1076293,16.8818172,False,NONE
2019-10-25 10:01:55.960,LG-H970,1571997715977.0,-0.537,9.714,-1.218,41.1076293,16.8818172,True,NONE
2019-10-25 10:01:55.980,LG-H970,1571997715990.6,-0.195,10.221,-0.553,41.1076293,16.8818172,True,NONE
2019-10-25 10:01:56.000,LG-H970,1571997716008.75,-0.639,9.389,-1.172,41.1076293,16.8818172,False,NONE
2019-10-25 10:01:56.020,LG-H970,1571997716029.3333,-0.135,10.416,-0.689,41.1076293,16.8818172,False,NONE
2019-10-25 10:01:56.040,LG-H970,1571997716048.6,0.263,10.036,-0.715,41.1076293,16.8818172,False,NONE
2019-10-25 10:01:56.060,LG-H970,1571997716070.5,-0.087,10.387,-0.086,41.1076293,16.8818172,False,NONE
2019-10-25 10:01:56.080,LG-H970,1571997716089.75,-0.584,10.825,-0.852,41.1076293,16.8818172,False,NONE
2019-10-25 10:01:56.100,LG-H970,1571997716109.5,-0.585,10.121,-0.891,41.1076293,16.8818172,False,NONE
2019-10-25 10:01:56.120,LG-H970,1571997716129.5,0.22,9.851,-0.722,41.1076293,16.8818172,False,NONE
2019-10-25 10:01:56.140,LG-H970,1571997716149.25,0.445,8.93,-0.783,41.1076293,16.8818172,False,NONE
2019-10-25 10:01:56.160,LG-H970,1571997716169.5,-0.041,9.365,-0.996,41.1076293,16.8818172,False,NONE
2019-10-25 10:01:56.180,LG-H970,1571997716189.0,-1.009,9.806,-1.317,41.1076293,16.8818172,False,NONE
2019-10-25 10:01:56.200,LG-H970,1571997716212.6667,-0.934,9.941,-0.804,41.1076293,16.8818172,False,NONE
2019-10-25 10:01:56.220,LG-H970,1571997716228.2,-0.215,9.508,-0.306,41.1076293,16.8818172,False,NONE
2019-10-25 10:01:56.240,LG-H970,1571997716248.4,-0.402,10.369,-1.215,41.1076293,16.8818172,False,NONE
2019-10-25 10:01:56.260,LG-H970,1571997716266.75,-1.305,9.195,-0.226,41.1076293,16.8818172,False,NONE
2019-10-25 10:01:56.280,LG-H970,1571997716291.25,-0.167,10.639,-0.345,41.1076293,16.8818172,False,NONE
2019-10-25 10:01:56.300,LG-H970,1571997716310.0,-0.299,10.333,-0.594,41.1076293,16.8818172,False,NONE
2019-10-25 10:01:56.320,LG-H970,1571997716328.6667,-1.064,10.68,-1.341,41.1076293,16.8818172,False,NONE
2019-10-25 10:01:56.340,LG-H970,1571997716350.0,-0.635,10.354,-0.888,41.1076293,16.8818172,False,NONE
2019-10-25 10:01:56.360,LG-H970,1571997716370.5,0.391,9.132,-0.829,41.1076293,16.8818172,False,NONE
2019-10-25 10:01:56.380,LG-H970,1571997716389.6,-0.852,10.437,-0.875,41.1076293,16.8818172,False,NONE
2019-10-25 10:01:56.400,LG-H970,1571997716410.6667,-1.419,9.363,-2.107,41.1076293,16.8818172,False,NONE
2019-10-25 10:01:56.420,LG-H970,1571997716430.4,0.606,9.288,-0.417,41.1076293,16.8818172,False,NONE
2019-10-25 10:01:56.440,LG-H970,1571997716451.2,0.397,9.119,-1.453,41.1076293,16.8818172,False,NONE
2019-10-25 10:01:56.460,LG-H970,1571997716469.0,-1.141,11.115,-0.705,41.1076293,16.8818172,False,NONE
2019-10-25 10:01:56.480,LG-H970,1571997716486.75,-0.928,9.751,-1.266,41.1076293,16.8818172,False,NONE
2019-10-25 10:01:56.500,LG-H970,1571997716512.25,0.603,10.217,-0.386,41.1076293,16.8818172,False,NONE
2019-10-25 10:01:56.520,LG-H970,1571997716530.5,-0.107,9.271,-1.49,41.1076293,16.8818172,False,NONE
2019-10-25 10:01:56.540,LG-H970,1571997716549.0,-0.635,10.34,-0.82,41.1076293,16.8818172,False,NONE
2019-10-25 10:01:56.560,LG-H970,1571997716567.0,-0.244,9.492,-1.544,41.1076293,16.8818172,False,NONE
2019-10-25 10:01:56.580,LG-H970,1571997716589.75,0.627,9.708,-0.152,41.1076293,16.8818172,False,NONE
2019-10-25 10:01:56.600,LG-H970,1571997716600.0,0.837,8.952,-0.587,41.1076293,16.8818172,False,NONE
2019-10-25 10:01:56.620,LG-H970,1571997716623.0,0.531,7.937,-0.525,41.1076293,16.8818172,False,NONE
2019-10-25 10:01:56.640,LG-H970,1571997716647.6667,0.331,9.017,-1.639,41.1076293,16.8818172,False,NONE
2019-10-25 10:01:56.660,LG-H970,1571997716669.6667,-0.74,9.895,0.047,41.1076293,16.8818172,False,NONE
2019-10-25 10:01:56.680,LG-H970,1571997716690.0,-1.196,10.327,-0.661,41.1076293,16.8818172,False,NONE
2019-10-25 10:01:56.700,LG-H970,1571997716711.0,-0.404,10.392,0.273,41.1076293,16.8818172,False,NONE
2019-10-25 10:01:56.720,LG-H970,1571997716730.0,0.189,9.49,-1.094,41.1076293,16.8818172,False,NONE
2019-10-25 10:01:56.740,LG-H970,1571997716744.6667,-0.891,10.164,-1.008,41.1076293,16.8818172,False,NONE
2019-10-25 10:01:56.760,LG-H970,1571997716768.8,-1.7,10.033,-1.308,41.1076293,16.8818172,False,NONE
2019-10-25 10:01:56.780,LG-H970,1571997716790.0,0.255,10.305,-0.607,41.1076293,16.8818172,False,NONE
2019-10-25 10:01:56.800,LG-H970,1571997716809.5,0.268,10.14,-0.088,41.1076293,16.8818172,False,NONE
2019-10-25 10:01:56.820,LG-H970,1571997716828.4,-1.353,10.104,-1.696,41.1076293,16.8818172,False,NONE
2019-10-25 10:01:56.840,LG-H970,1571997716849.6667,-1.105,9.721,-2.165,41.1076293,16.8818172,False,NONE
2019-10-25 10:01:56.860,LG-H970,1571997716869.2,-0.128,9.421,-1.654,41.1076293,16.8818172,False,NONE
2019-10-25 10:01:56.880,LG-H970,1571997716889.5,-0.335,10.422,-0.853,41.1076293,16.8818172,False,NONE
2019-10-25 10:01:56.900,LG-H970,1571997716910.25,-0.62,10.417,-0.751,41.1076293,16.8818172,False,NONE
2019-10-25 10:01:56.920,LG-H970,1571997716930.4,0.143,10.08,-0.895,41.1076293,16.8818172,False,NONE
2019-10-25 10:01:56.940,LG-H970,1571997716949.3333,-0.117,9.653,-0.694,41.1076293,16.8818172,False,NONE
2019-10-25 10:01:56.960,LG-H970,1571997716970.5,-1.028,9.438,-1.44,41.1076293,16.8818172,False,NONE
2019-10-25 10:01:56.980,LG-H970,1571997716990.2,-0.617,9.91,-1.322,41.1076293,16.8818172,False,NONE
2019-10-25 10:01:57.000,LG-H970,1571997717009.5,0.406,9.36,-1.461,41.1076293,16.8818172,False,NONE
2019-10-25 10:01:57.020,LG-H970,1571997717024.3333,0.638,9.605,-0.675,41.1076293,16.8818172,False,NONE
2019-10-25 10:01:57.040,LG-H970,1571997717048.4,-0.129,9.099,-1.304,41.1076293,16.8818172,False,NONE
2019-10-25 10:01:57.060,LG-H970,1571997717069.8,-0.795,10.643,-1.855,41.1076293,16.8818172,False,NONE
2019-10-25 10:01:57.080,LG-H970,1571997717089.3333,-1.402,10.657,-2.614,41.1076293,16.8818172,False,NONE
2019-10-25 10:01:57.100,LG-H970,1571997717110.4,-0.387,9.622,-0.866,41.1076293,16.8818172,False,NONE
2019-10-25 10:01:57.120,LG-H970,1571997717129.0,1.31,8.775,-1.102,41.1076293,16.8818172,False,NONE
2019-10-25 10:01:57.140,LG-H970,1571997717149.0,-0.259,9.921,-1.237,41.1076293,16.8818172,False,NONE
2019-10-25 10:01:57.160,LG-H970,1571997717170.8,-1.749,10.762,-1.921,41.1076293,16.8818172,False,NONE
2019-10-25 10:01:57.180,LG-H970,1571997717189.75,-0.011,9.007,-0.149,41.1076293,16.8818172,False,NONE
2019-10-25 10:01:57.200,LG-H970,1571997717208.8,0.511,8.966,-1.364,41.1076293,16.8818172,False,NONE
2019-10-25 10:01:57.220,LG-H970,1571997717227.5,-1.561,10.404,-2.634,41.1076293,16.8818172,False,NONE
2019-10-25 10:01:57.240,LG-H970,1571997717250.5,-1.383,10.379,-2.027,41.1076293,16.8818172,False,NONE
2019-10-25 10:01:57.260,LG-H970,1571997717269.8,0.642,8.836,-0.894,41.1076293,16.8818172,False,NONE
2019-10-25 10:01:57.280,LG-H970,1571997717289.25,0.423,9.815,-1.376,41.1076293,16.8818172,False,NONE
2019-10-25 10:01:57.300,LG-H970,1571997717305.3333,-1.839,9.717,-2.314,41.1076293,16.8818172,False,NONE
2019-10-25 10:01:57.320,LG-H970,1571997717329.25,-1.423,10.869,-1.129,41.1076293,16.8818172,False,NONE
2019-10-25 10:01:57.340,LG-H970,1571997717348.75,0.348,9.216,-1.656,41.1076293,16.8818172,False,NONE
2019-10-25 10:01:57.360,LG-H970,1571997717368.6,0.408,10.25,-0.127,41.1076293,16.8818172,False,NONE
2019-10-25 10:01:57.380,LG-H970,1571997717389.3333,-1.732,9.532,-2.086,41.1076293,16.8818172,False,NONE
2019-10-25 10:01:57.400,LG-H970,1571997717409.8,-1.194,10.351,-1.354,41.1076293,16.8818172,False,NONE
2019-10-25 10:01:57.420,LG-H970,1571997717429.25,0.076,8.978,-2.455,41.1076293,16.8818172,False,NONE
2019-10-25 10:01:57.440,LG-H970,1571997717450.3333,-0.503,9.066,-1.152,41.1076293,16.8818172,False,NONE
