UTC_timestamp,device_name,timestamp,x,y,z,lat,long,event,speed
2019-10-27 16:02:47.060,LG-H970,1572192167070.25,0.282,9.733,-0.23,41.1068076,16.8799004,False,2.883
2019-10-27 16:02:47.080,LG-H970,1572192167090.75,-0.146,10.542,-2.108,41.1068076,16.8799004,False,2.883
2019-10-27 16:02:47.100,LG-H970,1572192167110.5,-0.299,11.01,-0.343,41.1068076,16.8799004,False,2.883
2019-10-27 16:02:47.120,LG-H970,1572192167130.25,0.532,9.688,-0.948,41.1068076,16.8799004,False,2.883
2019-10-27 16:02:47.140,LG-H970,1572192167149.0,-1.084,10.359,-1.704,41.1068076,16.8799004,False,2.883
2019-10-27 16:02:47.160,LG-H970,1572192167169.25,-2.81,11.549,-3.663,41.1068076,16.8799004,False,2.883
2019-10-27 16:02:47.180,LG-H970,1572192167188.75,0.691,11.395,2.329,41.1068076,16.8799004,False,2.883
2019-10-27 16:02:47.200,LG-H970,1572192167209.0,3.145,10.687,3.08,41.1068076,16.8799004,False,2.883
2019-10-27 16:02:47.220,LG-H970,1572192167228.5,-4.696,13.821,-0.273,41.1068076,16.8799004,False,2.883
2019-10-27 16:02:47.240,LG-H970,1572192167247.75,-9.31,17.444,-5.197,41.1068076,16.8799004,False,2.883
2019-10-27 16:02:47.260,LG-H970,1572192167267.75,-3.361,15.226,0.331,41.1068076,16.8799004,False,2.883
2019-10-27 16:02:47.280,LG-H970,1572192167287.25,2.693,11.781,3.186,41.1068076,16.8799004,False,2.883
2019-10-27 16:02:47.300,LG-H970,1572192167307.75,-0.241,10.502,-0.893,41.1068076,16.8799004,False,2.883
2019-10-27 16:02:47.320,LG-H970,1572192167326.75,-3.302,9.774,-3.904,41.1068076,16.8799004,False,2.883
2019-10-27 16:02:47.340,LG-H970,1572192167348.8,0.158,8.209,-2.738,41.1068076,16.8799004,False,2.883
2019-10-27 16:02:47.360,LG-H970,1572192167371.5,2.07,8.588,0.079,41.1068076,16.8799004,False,2.883
2019-10-27 16:02:47.380,LG-H970,1572192167390.75,-0.487,10.334,-1.205,41.1068076,16.8799004,False,2.883
2019-10-27 16:02:47.400,LG-H970,1572192167408.0,0.086,10.298,-1.892,41.1068076,16.8799004,False,2.8830000000000005
2019-10-27 16:02:47.420,LG-H970,1572192167429.2,3.697,7.637,-1.123,41.1068076,16.8799004,False,2.883
2019-10-27 16:02:47.440,LG-H970,1572192167449.3333,3.532,7.129,-1.298,41.1068076,16.8799004,False,2.8830000000000005
2019-10-27 16:02:47.460,LG-H970,1572192167469.75,-0.666,8.416,-2.305,41.1068076,16.8799004,False,2.883
2019-10-27 16:02:47.480,LG-H970,1572192167489.25,0.922,7.897,-2.379,41.1068076,16.8799004,False,2.883
2019-10-27 16:02:47.500,LG-H970,1572192167509.0,4.855,6.745,-0.897,41.1068076,16.8799004,False,2.883
2019-10-27 16:02:47.520,LG-H970,1572192167526.6667,4.233,6.43,-0.938,41.1068076,16.8799004,False,2.8830000000000005
2019-10-27 16:02:47.540,LG-H970,1572192167547.4,0.414,8.481,-1.692,41.1068076,16.8799004,False,2.883
2019-10-27 16:02:47.560,LG-H970,1572192167567.75,0.631,9.384,-1.734,41.1068076,16.8799004,False,2.883
2019-10-27 16:02:47.580,LG-H970,1572192167587.5,1.743,8.495,0.674,41.1068076,16.8799004,False,2.883
2019-10-27 16:02:47.600,LG-H970,1572192167607.5,0.521,9.459,-3.064,41.1068076,16.8799004,False,2.883
2019-10-27 16:02:47.620,LG-H970,1572192167627.5,-0.791,7.751,-1.937,41.1068076,16.8799004,False,2.883
2019-10-27 16:02:47.640,LG-H970,1572192167650.6,0.836,7.595,-1.421,41.1068076,16.8799004,False,2.883
2019-10-27 16:02:47.660,LG-H970,1572192167670.0,0.445,9.419,-0.896,41.1068076,16.8799004,False,2.8830000000000005
2019-10-27 16:02:47.680,LG-H970,1572192167686.5,-0.01,10.74,0.145,41.1068076,16.8799004,False,2.883
2019-10-27 16:02:47.700,LG-H970,1572192167715.3333,1.539,9.555,0.218,41.1068332,16.8799734,False,2.892
2019-10-27 16:02:47.720,LG-H970,1572192167729.75,1.899,8.789,-0.669,41.1068332,16.8799734,False,2.892
2019-10-27 16:02:47.740,LG-H970,1572192167750.0,1.201,9.632,-1.817,41.1068332,16.8799734,False,2.892
2019-10-27 16:02:47.760,LG-H970,1572192167770.25,1.015,10.42,0.042,41.1068332,16.8799734,False,2.892
2019-10-27 16:02:47.780,LG-H970,1572192167790.25,1.631,11.931,-1.018,41.1068332,16.8799734,False,2.892
2019-10-27 16:02:47.800,LG-H970,1572192167809.75,-0.345,11.465,-1.304,41.1068332,16.8799734,False,2.892
2019-10-27 16:02:47.820,LG-H970,1572192167829.5,-1.101,10.295,-3.232,41.1068332,16.8799734,False,2.892
2019-10-27 16:02:47.840,LG-H970,1572192167849.5,-0.813,9.29,-2.482,41.1068332,16.8799734,False,2.892
2019-10-27 16:02:47.860,LG-H970,1572192167868.75,-0.771,10.227,-0.152,41.1068332,16.8799734,False,2.892
2019-10-27 16:02:47.880,LG-H970,1572192167888.25,-0.711,11.98,-2.037,41.1068332,16.8799734,False,2.892
2019-10-27 16:02:47.900,LG-H970,1572192167909.0,-1.617,11.005,-1.435,41.1068332,16.8799734,False,2.892
2019-10-27 16:02:47.920,LG-H970,1572192167928.25,-2.646,10.852,-3.818,41.1068332,16.8799734,False,2.892
2019-10-27 16:02:47.940,LG-H970,1572192167947.25,-3.472,9.481,-1.954,41.1068332,16.8799734,False,2.892
2019-10-27 16:02:47.960,LG-H970,1572192167969.2,-2.393,11.347,-3.376,41.1068332,16.8799734,False,2.892
2019-10-27 16:02:47.980,LG-H970,1572192167989.0,-3.242,12.051,-3.429,41.1068332,16.8799734,False,2.892
2019-10-27 16:02:48.000,LG-H970,1572192168007.25,-2.644,11.005,-1.542,41.1068332,16.8799734,False,2.892
2019-10-27 16:02:48.020,LG-H970,1572192168027.25,-0.539,9.739,-1.182,41.1068332,16.8799734,False,2.892
2019-10-27 16:02:48.040,LG-H970,1572192168049.4,-1.141,11.261,0.296,41.1068332,16.8799734,False,2.892
2019-10-27 16:02:48.060,LG-H970,1572192168067.6667,-1.985,12.67,-0.129,41.1068332,16.8799734,False,2.892
2019-10-27 16:02:48.080,LG-H970,1572192168093.0,-1.717,12.434,0.574,41.1068332,16.8799734,False,2.892
2019-10-27 16:02:48.100,LG-H970,1572192168110.75,1.723,10.614,-0.562,41.1068332,16.8799734,False,2.892
2019-10-27 16:02:48.120,LG-H970,1572192168129.75,4.172,9.235,-0.662,41.1068332,16.8799734,False,2.892
2019-10-27 16:02:48.140,LG-H970,1572192168149.5,2.084,9.233,-0.641,41.1068332,16.8799734,False,2.892
2019-10-27 16:02:48.160,LG-H970,1572192168168.5,0.214,10.758,-0.498,41.1068332,16.8799734,False,2.892
2019-10-27 16:02:48.180,LG-H970,1572192168189.0,2.951,9.501,-0.325,41.1068332,16.8799734,False,2.892
2019-10-27 16:02:48.200,LG-H970,1572192168209.0,4.584,7.401,0.3,41.1068332,16.8799734,False,2.892
2019-10-27 16:02:48.220,LG-H970,1572192168228.75,2.661,6.085,-2.341,41.1068332,16.8799734,False,2.892
2019-10-27 16:02:48.240,LG-H970,1572192168248.5,2.789,5.879,-1.923,41.1068332,16.8799734,False,2.892
2019-10-27 16:02:48.260,LG-H970,1572192168268.0,3.662,4.95,-0.944,41.1068332,16.8799734,False,2.892
2019-10-27 16:02:48.280,LG-H970,1572192168287.75,2.741,7.953,-1.337,41.1068332,16.8799734,False,2.892
2019-10-27 16:02:48.300,LG-H970,1572192168306.75,1.583,7.911,-1.68,41.1068332,16.8799734,False,2.892
2019-10-27 16:02:48.320,LG-H970,1572192168327.75,2.466,5.568,-2.127,41.1068332,16.8799734,False,2.892
2019-10-27 16:02:48.340,LG-H970,1572192168347.0,2.109,5.58,-2.621,41.1068332,16.8799734,False,2.892
2019-10-27 16:02:48.360,LG-H970,1572192168367.25,0.17,7.765,-1.856,41.1068332,16.8799734,False,2.892
2019-10-27 16:02:48.380,LG-H970,1572192168389.0,1.302,10.345,-1.655,41.1068332,16.8799734,False,2.892
2019-10-27 16:02:48.400,LG-H970,1572192168411.0,2.192,9.385,-0.203,41.1068332,16.8799734,False,2.892
2019-10-27 16:02:48.420,LG-H970,1572192168430.5,-0.772,7.459,-3.202,41.1068332,16.8799734,False,2.892
2019-10-27 16:02:48.440,LG-H970,1572192168449.5,-2.041,8.791,-4.591,41.1068332,16.8799734,False,2.892
2019-10-27 16:02:48.460,LG-H970,1572192168470.0,-0.479,9.086,-2.463,41.1068332,16.8799734,False,2.892
2019-10-27 16:02:48.480,LG-H970,1572192168489.75,0.624,10.887,0.544,41.1068332,16.8799734,False,2.892
2019-10-27 16:02:48.500,LG-H970,1572192168508.3333,-0.128,13.001,-1.255,41.1068332,16.8799734,False,2.892
2019-10-27 16:02:48.520,LG-H970,1572192168528.5,-2.36,11.849,-2.894,41.1068332,16.8799734,False,2.892
2019-10-27 16:02:48.540,LG-H970,1572192168543.5,-1.569,10.985,-3.116,41.1068332,16.8799734,False,2.892
2019-10-27 16:02:48.560,LG-H970,1572192168567.0,-0.011,11.085,-2.007,41.1068332,16.8799734,True,2.892
2019-10-27 16:02:48.580,LG-H970,1572192168567.0,-0.011,11.085,-2.007,41.1068332,16.8799734,True,2.892
2019-10-27 16:02:48.600,LG-H970,1572192168611.5,-2.535,12.995,-1.685,41.1068332,16.8799734,False,2.892
2019-10-27 16:02:48.620,LG-H970,1572192168611.5,-2.535,12.995,-1.685,41.1068332,16.8799734,False,2.892
2019-10-27 16:02:48.640,LG-H970,1572192168653.0,-2.495,11.018,-0.994,41.1068332,16.8799734,False,2.892
2019-10-27 16:02:48.660,LG-H970,1572192168666.4,0.923,10.217,-1.201,41.1068332,16.8799734,False,2.892
2019-10-27 16:02:48.680,LG-H970,1572192168693.3333,-1.259,10.998,-1.6,41.1068434,16.879994,False,2.736
2019-10-27 16:02:48.700,LG-H970,1572192168710.5,-0.651,10.007,-0.969,41.1068485,16.8800043,False,2.658
2019-10-27 16:02:48.720,LG-H970,1572192168729.75,0.067,9.256,-1.646,41.1068485,16.8800043,False,2.658
2019-10-27 16:02:48.740,LG-H970,1572192168749.5,-1.4,8.724,-1.522,41.1068485,16.8800043,False,2.658
2019-10-27 16:02:48.760,LG-H970,1572192168770.0,-1.561,8.673,-1.909,41.1068485,16.8800043,False,2.658
2019-10-27 16:02:48.780,LG-H970,1572192168790.0,0.912,9.571,-0.663,41.1068485,16.8800043,False,2.658
2019-10-27 16:02:48.800,LG-H970,1572192168810.25,0.463,10.364,-1.181,41.1068485,16.8800043,False,2.658
2019-10-27 16:02:48.820,LG-H970,1572192168829.75,-2.051,10.947,-1.811,41.1068485,16.8800043,False,2.658
2019-10-27 16:02:48.840,LG-H970,1572192168848.25,0.292,8.663,-1.88,41.1068485,16.8800043,False,2.658
2019-10-27 16:02:48.860,LG-H970,1572192168867.75,2.886,7.204,-1.036,41.1068485,16.8800043,False,2.658
2019-10-27 16:02:48.880,LG-H970,1572192168888.0,-0.857,9.634,-1.415,41.1068485,16.8800043,False,2.658
2019-10-27 16:02:48.900,LG-H970,1572192168908.6667,-1.809,11.867,-2.219,41.1068485,16.8800043,False,2.658
2019-10-27 16:02:48.920,LG-H970,1572192168928.0,2.349,10.403,-0.465,41.1068485,16.8800043,False,2.658
2019-10-27 16:02:48.940,LG-H970,1572192168947.75,3.57,8.185,0.777,41.1068485,16.8800043,False,2.658
2019-10-27 16:02:48.960,LG-H970,1572192168967.5,2.039,9.463,-0.953,41.1068485,16.8800043,False,2.658
2019-10-27 16:02:48.980,LG-H970,1572192168988.5,1.077,10.528,-0.903,41.1068485,16.8800043,False,2.658
2019-10-27 16:02:49.000,LG-H970,1572192169007.25,3.42,10.92,0.93,41.1068485,16.8800043,False,2.658
2019-10-27 16:02:49.020,LG-H970,1572192169028.5,4.186,10.199,0.295,41.1068485,16.8800043,False,2.658
2019-10-27 16:02:49.040,LG-H970,1572192169049.6,1.407,9.024,-1.525,41.1068485,16.8800043,False,2.658
2019-10-27 16:02:49.060,LG-H970,1572192169070.5,1.728,8.094,-1.536,41.1068485,16.8800043,False,2.658
2019-10-27 16:02:49.080,LG-H970,1572192169090.75,3.073,7.121,0.064,41.1068485,16.8800043,False,2.658
2019-10-27 16:02:49.100,LG-H970,1572192169110.75,2.615,9.301,-1.533,41.1068485,16.8800043,False,2.658
2019-10-27 16:02:49.120,LG-H970,1572192169130.75,1.349,8.276,-2.775,41.1068485,16.8800043,False,2.658
2019-10-27 16:02:49.140,LG-H970,1572192169149.75,1.954,5.908,-1.151,41.1068485,16.8800043,False,2.658
2019-10-27 16:02:49.160,LG-H970,1572192169169.0,1.809,7.204,-1.002,41.1068485,16.8800043,False,2.658
2019-10-27 16:02:49.180,LG-H970,1572192169189.75,-0.807,9.308,-1.788,41.1068485,16.8800043,False,2.658
2019-10-27 16:02:49.200,LG-H970,1572192169210.0,-1.396,12.122,-2.305,41.1068485,16.8800043,False,2.658
2019-10-27 16:02:49.220,LG-H970,1572192169228.75,-0.347,9.587,-1.227,41.1068485,16.8800043,False,2.658
2019-10-27 16:02:49.240,LG-H970,1572192169248.5,1.051,7.286,-0.838,41.1068485,16.8800043,False,2.658
2019-10-27 16:02:49.260,LG-H970,1572192169268.25,-0.919,9.565,-3.172,41.1068485,16.8800043,False,2.658
2019-10-27 16:02:49.280,LG-H970,1572192169288.5,-3.542,10.747,-2.737,41.1068485,16.8800043,False,2.658
2019-10-27 16:02:49.300,LG-H970,1572192169308.5,-1.62,12.71,-0.64,41.1068485,16.8800043,False,2.658
2019-10-27 16:02:49.320,LG-H970,1572192169328.5,-1.628,10.771,0.058,41.1068485,16.8800043,False,2.658
2019-10-27 16:02:49.340,LG-H970,1572192169348.5,-2.528,10.595,-1.749,41.1068485,16.8800043,False,2.658
2019-10-27 16:02:49.360,LG-H970,1572192169367.5,-1.597,10.252,-2.384,41.1068485,16.8800043,False,2.658
2019-10-27 16:02:49.380,LG-H970,1572192169389.2,0.708,10.97,-0.522,41.1068485,16.8800043,False,2.658
2019-10-27 16:02:49.400,LG-H970,1572192169411.0,0.325,12.067,-0.234,41.1068485,16.8800043,False,2.658
2019-10-27 16:02:49.420,LG-H970,1572192169431.75,-0.673,11.737,-1.143,41.1068485,16.8800043,False,2.658
2019-10-27 16:02:49.440,LG-H970,1572192169450.0,0.907,9.886,-1.212,41.1068485,16.8800043,False,2.658
2019-10-27 16:02:49.460,LG-H970,1572192169469.75,2.687,9.747,-0.705,41.1068485,16.8800043,False,2.658
2019-10-27 16:02:49.480,LG-H970,1572192169489.75,0.72,9.735,-1.318,41.1068485,16.8800043,False,2.658
2019-10-27 16:02:49.500,LG-H970,1572192169509.75,0.186,10.78,-0.32,41.1068485,16.8800043,False,2.658
2019-10-27 16:02:49.520,LG-H970,1572192169529.5,2.374,10.811,-0.842,41.1068485,16.8800043,False,2.658
2019-10-27 16:02:49.540,LG-H970,1572192169549.5,2.81,10.373,-1.355,41.1068485,16.8800043,False,2.658
2019-10-27 16:02:49.560,LG-H970,1572192169569.0,1.562,8.312,-1.645,41.1068485,16.8800043,False,2.658
2019-10-27 16:02:49.580,LG-H970,1572192169588.75,0.739,8.768,-1.202,41.1068485,16.8800043,False,2.658
2019-10-27 16:02:49.600,LG-H970,1572192169608.5,0.372,9.418,-1.234,41.1068485,16.8800043,False,2.658
2019-10-27 16:02:49.620,LG-H970,1572192169629.0,1.776,10.522,-0.634,41.1068485,16.8800043,False,2.658
2019-10-27 16:02:49.640,LG-H970,1572192169646.0,1.743,9.429,-2.047,41.1068485,16.8800043,False,2.658
2019-10-27 16:02:49.660,LG-H970,1572192169670.0,0.187,8.014,-2.188,41.1068485,16.8800043,False,2.658
2019-10-27 16:02:49.680,LG-H970,1572192169689.3333,0.402,7.636,-2.659,41.1068485,16.8800043,False,2.658
2019-10-27 16:02:49.700,LG-H970,1572192169710.2,1.324,8.659,-2.122,41.1068598,16.8800285,False,2.9444
2019-10-27 16:02:49.720,LG-H970,1572192169730.5,1.174,11.268,-1.491,41.1068626,16.8800346,False,3.016
2019-10-27 16:02:49.740,LG-H970,1572192169750.5,1.176,9.884,-0.674,41.1068626,16.8800346,False,3.016
2019-10-27 16:02:49.760,LG-H970,1572192169771.25,1.747,8.442,-1.753,41.1068626,16.8800346,False,3.016
2019-10-27 16:02:49.780,LG-H970,1572192169790.25,-0.201,8.41,-2.429,41.1068626,16.8800346,False,3.016
2019-10-27 16:02:49.800,LG-H970,1572192169810.25,-0.618,10.931,-1.837,41.1068626,16.8800346,False,3.016
2019-10-27 16:02:49.820,LG-H970,1572192169831.0,1.479,10.721,0.898,41.1068626,16.8800346,False,3.016
2019-10-27 16:02:49.840,LG-H970,1572192169849.75,2.052,9.643,0.708,41.1068626,16.8800346,False,3.016
2019-10-27 16:02:49.860,LG-H970,1572192169869.75,-0.357,9.378,-2.256,41.1068626,16.8800346,False,3.016
2019-10-27 16:02:49.880,LG-H970,1572192169889.75,-1.183,8.637,-1.647,41.1068626,16.8800346,False,3.016
2019-10-27 16:02:49.900,LG-H970,1572192169907.0,1.461,9.816,-2.98,41.1068626,16.8800346,False,3.016
2019-10-27 16:02:49.920,LG-H970,1572192169928.75,0.855,9.965,-0.508,41.1068626,16.8800346,False,3.016
2019-10-27 16:02:49.940,LG-H970,1572192169947.5,-0.788,9.497,-0.972,41.1068626,16.8800346,False,3.016
2019-10-27 16:02:49.960,LG-H970,1572192169967.25,-0.954,9.614,-1.672,41.1068626,16.8800346,False,3.016
2019-10-27 16:02:49.980,LG-H970,1572192169987.3333,-1.138,8.408,-1.995,41.1068626,16.8800346,False,3.016
2019-10-27 16:02:50.000,LG-H970,1572192170006.75,0.057,8.993,-1.272,41.1068626,16.8800346,False,3.016
2019-10-27 16:02:50.020,LG-H970,1572192170028.8,-0.186,9.841,-1.231,41.1068626,16.8800346,False,3.016
2019-10-27 16:02:50.040,LG-H970,1572192170050.75,-1.219,9.979,-0.837,41.1068626,16.8800346,False,3.016
