UTC_timestamp,device_name,timestamp,x,y,z,lat,long,event,speed
2019-10-26 09:56:07.180,LG-H970,1572083767190.75,-3.687,9.847,-2.326,41.1038389,16.8790971,False,NONE
2019-10-26 09:56:07.200,LG-H970,1572083767210.75,-0.631,9.123,0.335,41.1038389,16.8790971,False,NONE
2019-10-26 09:56:07.220,LG-H970,1572083767230.25,0.889,8.437,1.435,41.1038389,16.8790971,False,NONE
2019-10-26 09:56:07.240,LG-H970,1572083767250.5,-1.862,8.349,0.726,41.1038389,16.8790971,False,NONE
2019-10-26 09:56:07.260,LG-H970,1572083767270.25,-3.044,8.829,-3.271,41.1038389,16.8790971,False,NONE
2019-10-26 09:56:07.280,LG-H970,1572083767289.5,-1.556,8.677,-1.223,41.1038389,16.8790971,False,NONE
2019-10-26 09:56:07.300,LG-H970,1572083767309.25,1.43,10.301,0.708,41.1038389,16.8790971,False,NONE
2019-10-26 09:56:07.320,LG-H970,1572083767329.75,1.27,11.533,3.494,41.1038389,16.8790971,False,NONE
2019-10-26 09:56:07.340,LG-H970,1572083767349.25,3.164,18.458,0.48,41.1038389,16.8790971,False,NONE
2019-10-26 09:56:07.360,LG-H970,1572083767369.0,3.066,14.835,0.438,41.1038389,16.8790971,False,NONE
2019-10-26 09:56:07.380,LG-H970,1572083767388.25,2.231,7.377,1.16,41.1038389,16.8790971,False,NONE
2019-10-26 09:56:07.400,LG-H970,1572083767408.0,2.42,9.655,-3.225,41.1038389,16.8790971,False,NONE
2019-10-26 09:56:07.420,LG-H970,1572083767429.0,-1.559,10.443,-1.794,41.1038389,16.8790971,False,NONE
2019-10-26 09:56:07.440,LG-H970,1572083767451.5,1.232,11.85,0.395,41.1038389,16.8790971,False,NONE
2019-10-26 09:56:07.460,LG-H970,1572083767471.25,1.757,9.127,0.439,41.1038389,16.8790971,False,NONE
2019-10-26 09:56:07.480,LG-H970,1572083767489.3333,-0.514,8.718,-2.124,41.1038389,16.8790971,False,NONE
2019-10-26 09:56:07.500,LG-H970,1572083767509.4,-2.753,7.768,-4.374,41.1038389,16.8790971,False,NONE
2019-10-26 09:56:07.520,LG-H970,1572083767531.25,-1.675,7.664,-2.215,41.1038389,16.8790971,False,NONE
2019-10-26 09:56:07.540,LG-H970,1572083767550.0,-0.131,8.339,-1.215,41.1038389,16.8790971,False,NONE
2019-10-26 09:56:07.560,LG-H970,1572083767570.5,-1.207,11.121,1.716,41.1038389,16.8790971,False,NONE
2019-10-26 09:56:07.580,LG-H970,1572083767590.0,-3.229,11.215,-2.294,41.1038389,16.8790971,False,NONE
2019-10-26 09:56:07.600,LG-H970,1572083767610.0,-1.885,9.074,-0.385,41.1038389,16.8790971,False,NONE
2019-10-26 09:56:07.620,LG-H970,1572083767630.25,1.762,8.139,-3.51,41.1038389,16.8790971,False,NONE
2019-10-26 09:56:07.640,LG-H970,1572083767649.5,0.221,7.602,0.386,41.1038389,16.8790971,False,NONE
2019-10-26 09:56:07.660,LG-H970,1572083767669.0,-4.137,7.684,-0.808,41.1038389,16.8790971,False,NONE
2019-10-26 09:56:07.680,LG-H970,1572083767688.75,-3.448,12.341,1.177,41.1038389,16.8790971,False,NONE
2019-10-26 09:56:07.700,LG-H970,1572083767707.75,-1.151,10.186,-1.097,41.1038389,16.8790971,False,NONE
2019-10-26 09:56:07.720,LG-H970,1572083767727.5,-0.204,9.041,1.406,41.1038389,16.8790971,False,NONE
2019-10-26 09:56:07.740,LG-H970,1572083767747.5,-1.834,5.973,-1.164,41.1038389,16.8790971,False,NONE
2019-10-26 09:56:07.760,LG-H970,1572083767767.5,-2.389,9.931,-1.193,41.1038389,16.8790971,False,NONE
2019-10-26 09:56:07.780,LG-H970,1572083767789.8,-1.852,10.194,-1.557,41.1038389,16.8790971,False,NONE
2019-10-26 09:56:07.800,LG-H970,1572083767812.0,0.501,9.757,2.5,41.1038389,16.8790971,False,NONE
2019-10-26 09:56:07.820,LG-H970,1572083767831.0,5.441,11.561,-3.295,41.1038389,16.8790971,False,NONE
2019-10-26 09:56:07.840,LG-H970,1572083767851.0,2.042,7.793,-1.176,41.1038389,16.8790971,False,NONE
2019-10-26 09:56:07.860,LG-H970,1572083767871.5,0.449,10.847,-2.944,41.1038389,16.8790971,False,NONE
2019-10-26 09:56:07.880,LG-H970,1572083767888.3333,0.305,12.478,-2.579,41.1038389,16.8790971,False,NONE
2019-10-26 09:56:07.900,LG-H970,1572083767908.6,1.632,11.228,3.152,41.1038389,16.8790971,False,NONE
2019-10-26 09:56:07.920,LG-H970,1572083767930.5,2.136,11.147,-0.971,41.1038389,16.8790971,False,NONE
2019-10-26 09:56:07.940,LG-H970,1572083767949.75,-0.8,11.223,-0.99,41.1038389,16.8790971,False,NONE
2019-10-26 09:56:07.960,LG-H970,1572083767969.75,-2.634,9.726,-2.759,41.1038389,16.8790971,False,NONE
2019-10-26 09:56:07.980,LG-H970,1572083767988.75,-1.179,9.49,0.021,41.1038389,16.8790971,False,NONE
2019-10-26 09:56:08.000,LG-H970,1572083768008.5,0.312,9.393,0.849,41.1038389,16.8790971,False,NONE
2019-10-26 09:56:08.020,LG-H970,1572083768029.25,-1.349,11.495,1.014,41.1038389,16.8790971,False,NONE
2019-10-26 09:56:08.040,LG-H970,1572083768048.0,-4.404,11.435,-1.066,41.1038389,16.8790971,False,NONE
2019-10-26 09:56:08.060,LG-H970,1572083768068.5,-2.573,11.267,0.452,41.1038389,16.8790971,False,NONE
2019-10-26 09:56:08.080,LG-H970,1572083768089.2,0.856,9.615,0.882,41.1038389,16.8790971,False,NONE
2019-10-26 09:56:08.100,LG-H970,1572083768109.3333,0.738,10.287,2.116,41.1038389,16.8790971,False,NONE
2019-10-26 09:56:08.120,LG-H970,1572083768129.2,-1.994,9.761,-0.489,41.1038389,16.8790971,False,NONE
2019-10-26 09:56:08.140,LG-H970,1572083768150.75,-1.475,9.066,-0.253,41.1038389,16.8790971,False,NONE
2019-10-26 09:56:08.160,LG-H970,1572083768170.75,0.391,7.848,-1.501,41.1038389,16.8790971,False,NONE
2019-10-26 09:56:08.180,LG-H970,1572083768190.75,0.29,7.993,0.561,41.1038389,16.8790971,False,NONE
2019-10-26 09:56:08.200,LG-H970,1572083768211.0,-1.562,8.858,-1.115,41.1038389,16.8790971,False,NONE
2019-10-26 09:56:08.220,LG-H970,1572083768230.5,-2.291,10.923,0.435,41.1038389,16.8790971,False,NONE
2019-10-26 09:56:08.240,LG-H970,1572083768248.3333,-3.345,9.934,-0.727,41.1038389,16.8790971,False,NONE
2019-10-26 09:56:08.260,LG-H970,1572083768266.5,-2.104,9.93,-0.719,41.1038389,16.8790971,False,NONE
2019-10-26 09:56:08.280,LG-H970,1572083768287.8,1.618,10.238,-1.487,41.1038389,16.8790971,False,NONE
2019-10-26 09:56:08.300,LG-H970,1572083768309.0,-0.098,8.193,0.987,41.1038389,16.8790971,False,NONE
2019-10-26 09:56:08.320,LG-H970,1572083768328.75,-1.311,12.61,-2.147,41.1038389,16.8790971,False,NONE
2019-10-26 09:56:08.340,LG-H970,1572083768348.5,-2.705,11.641,-2.409,41.1038389,16.8790971,False,NONE
2019-10-26 09:56:08.360,LG-H970,1572083768369.0,-0.894,9.769,-0.62,41.1038389,16.8790971,False,NONE
2019-10-26 09:56:08.380,LG-H970,1572083768388.25,0.588,7.974,-0.246,41.1038389,16.8790971,False,NONE
2019-10-26 09:56:08.400,LG-H970,1572083768408.0,-1.201,10.558,-2.547,41.1038389,16.8790971,False,NONE
2019-10-26 09:56:08.420,LG-H970,1572083768429.0,-3.466,10.863,-3.329,41.1038389,16.8790971,False,NONE
2019-10-26 09:56:08.440,LG-H970,1572083768447.25,-0.729,9.572,-0.272,41.1038389,16.8790971,False,NONE
2019-10-26 09:56:08.460,LG-H970,1572083768469.2,1.893,7.612,0.516,41.1038389,16.8790971,False,NONE
2019-10-26 09:56:08.480,LG-H970,1572083768491.5,0.482,10.825,-0.188,41.1038389,16.8790971,False,NONE
2019-10-26 09:56:08.500,LG-H970,1572083768512.0,-1.787,11.097,-2.868,41.1038389,16.8790971,False,NONE
2019-10-26 09:56:08.520,LG-H970,1572083768531.5,-1.103,9.391,0.364,41.1038389,16.8790971,False,NONE
2019-10-26 09:56:08.540,LG-H970,1572083768550.0,1.444,6.675,-1.785,41.1038389,16.8790971,False,NONE
2019-10-26 09:56:08.560,LG-H970,1572083768570.0,3.611,7.675,0.036,41.1038389,16.8790971,False,NONE
2019-10-26 09:56:08.580,LG-H970,1572083768589.75,1.81,6.753,-1.997,41.1038389,16.8790971,False,NONE
2019-10-26 09:56:08.600,LG-H970,1572083768610.25,-0.762,10.779,0.742,41.1038389,16.8790971,False,NONE
2019-10-26 09:56:08.620,LG-H970,1572083768630.25,-0.949,11.489,0.514,41.1038389,16.8790971,False,NONE
2019-10-26 09:56:08.640,LG-H970,1572083768649.75,2.073,10.004,2.725,41.1038389,16.8790971,False,NONE
2019-10-26 09:56:08.660,LG-H970,1572083768665.5,3.575,7.998,0.457,41.1038389,16.8790971,False,NONE
2019-10-26 09:56:08.680,LG-H970,1572083768687.75,0.069,10.171,-2.655,41.1038389,16.8790971,True,NONE
2019-10-26 09:56:08.700,LG-H970,1572083768708.0,-4.452,10.219,-0.625,41.1038389,16.8790971,True,NONE
2019-10-26 09:56:08.720,LG-H970,1572083768728.0,-0.51,12.441,0.239,41.1038389,16.8790971,False,NONE
2019-10-26 09:56:08.740,LG-H970,1572083768747.25,-0.729,10.586,2.709,41.1038389,16.8790971,False,NONE
2019-10-26 09:56:08.760,LG-H970,1572083768767.5,-3.299,11.935,0.485,41.1038389,16.8790971,False,NONE
2019-10-26 09:56:08.780,LG-H970,1572083768787.5,-3.09,9.246,-3.293,41.1038389,16.8790971,False,NONE
2019-10-26 09:56:08.800,LG-H970,1572083768809.8,-0.831,9.412,-0.002,41.1038389,16.8790971,False,NONE
2019-10-26 09:56:08.820,LG-H970,1572083768832.0,-3.284,9.052,-1.501,41.1038389,16.8790971,False,NONE
2019-10-26 09:56:08.840,LG-H970,1572083768852.0,-3.743,13.02,1.336,41.1038389,16.8790971,False,NONE
2019-10-26 09:56:08.860,LG-H970,1572083768871.5,-2.342,11.926,-0.071,41.1038389,16.8790971,False,NONE
2019-10-26 09:56:08.880,LG-H970,1572083768888.6667,-0.4,10.89,1.965,41.1038389,16.8790971,False,NONE
2019-10-26 09:56:08.900,LG-H970,1572083768908.4,-0.521,8.396,-1.009,41.1038389,16.8790971,False,NONE
2019-10-26 09:56:08.920,LG-H970,1572083768930.75,-2.546,9.97,-1.29,41.1038389,16.8790971,False,NONE
2019-10-26 09:56:08.940,LG-H970,1572083768949.5,-2.647,10.468,-2.655,41.1038389,16.8790971,False,NONE
2019-10-26 09:56:08.960,LG-H970,1572083768968.5,-0.013,9.792,0.544,41.1038389,16.8790971,False,NONE
2019-10-26 09:56:08.980,LG-H970,1572083768988.5,2.549,8.67,1.168,41.1038389,16.8790971,False,NONE
2019-10-26 09:56:09.000,LG-H970,1572083769009.25,0.518,9.545,1.521,41.1038389,16.8790971,False,NONE
2019-10-26 09:56:09.020,LG-H970,1572083769029.0,-2.096,10.951,-0.953,41.1038389,16.8790971,False,NONE
2019-10-26 09:56:09.040,LG-H970,1572083769048.5,0.465,10.439,-0.148,41.1038389,16.8790971,False,NONE
2019-10-26 09:56:09.060,LG-H970,1572083769068.5,1.09,7.321,-0.617,41.1038389,16.8790971,False,NONE
2019-10-26 09:56:09.080,LG-H970,1572083769088.0,0.017,9.439,-0.614,41.1038389,16.8790971,False,NONE
2019-10-26 09:56:09.100,LG-H970,1572083769107.5,0.005,9.155,-0.792,41.1038389,16.8790971,False,NONE
2019-10-26 09:56:09.120,LG-H970,1572083769128.0,0.059,9.004,0.231,41.1038389,16.8790971,False,NONE
2019-10-26 09:56:09.140,LG-H970,1572083769147.75,-0.573,11.089,-2.4,41.1038389,16.8790971,False,NONE
2019-10-26 09:56:09.160,LG-H970,1572083769168.0,-2.342,8.682,0.981,41.1038389,16.8790971,False,NONE
2019-10-26 09:56:09.180,LG-H970,1572083769187.5,1.192,9.52,-1.084,41.1038389,16.8790971,False,NONE
2019-10-26 09:56:09.200,LG-H970,1572083769207.5,0.984,11.102,-0.624,41.1038389,16.8790971,False,NONE
2019-10-26 09:56:09.220,LG-H970,1572083769226.75,-1.399,11.777,0.488,41.1038389,16.8790971,False,NONE
2019-10-26 09:56:09.240,LG-H970,1572083769249.2,1.335,13.674,-0.074,41.1038389,16.8790971,False,NONE
2019-10-26 09:56:09.260,LG-H970,1572083769270.75,-1.141,8.761,1.229,41.1038389,16.8790971,False,NONE
2019-10-26 09:56:09.280,LG-H970,1572083769291.0,-3.086,5.656,-1.143,41.1038389,16.8790971,False,NONE
2019-10-26 09:56:09.300,LG-H970,1572083769310.75,-1.69,10.37,-4.212,41.1038389,16.8790971,False,NONE
2019-10-26 09:56:09.320,LG-H970,1572083769329.75,-2.617,8.863,-1.576,41.1038389,16.8790971,False,NONE
2019-10-26 09:56:09.340,LG-H970,1572083769349.5,0.302,9.052,0.922,41.1038389,16.8790971,False,NONE
2019-10-26 09:56:09.360,LG-H970,1572083769369.5,2.007,10.128,1.202,41.1038389,16.8790971,False,NONE
2019-10-26 09:56:09.380,LG-H970,1572083769388.75,-2.381,10.337,0.105,41.1038389,16.8790971,False,NONE
2019-10-26 09:56:09.400,LG-H970,1572083769406.3333,-4.006,9.251,-1.913,41.1038389,16.8790971,False,NONE
2019-10-26 09:56:09.420,LG-H970,1572083769428.75,0.208,8.511,-1.541,41.1038389,16.8790971,False,NONE
2019-10-26 09:56:09.440,LG-H970,1572083769447.75,0.844,7.059,0.585,41.1038389,16.8790971,False,NONE
2019-10-26 09:56:09.460,LG-H970,1572083769467.75,-1.621,10.807,-0.23,41.1038389,16.8790971,False,NONE
2019-10-26 09:56:09.480,LG-H970,1572083769487.75,-3.059,11.176,0.688,41.1038389,16.8790971,False,NONE
2019-10-26 09:56:09.500,LG-H970,1572083769511.25,0.109,8.498,-0.004,41.1038389,16.8790971,False,NONE
2019-10-26 09:56:09.520,LG-H970,1572083769531.5,0.099,8.336,1.813,41.1038389,16.8790971,False,NONE
2019-10-26 09:56:09.540,LG-H970,1572083769551.5,-2.69,11.829,-1.594,41.1038389,16.8790971,False,NONE
2019-10-26 09:56:09.560,LG-H970,1572083769571.5,-4.806,12.343,0.486,41.1038389,16.8790971,False,NONE
2019-10-26 09:56:09.580,LG-H970,1572083769590.75,0.081,11.046,1.825,41.1038389,16.8790971,False,NONE
2019-10-26 09:56:09.600,LG-H970,1572083769610.75,1.955,10.155,1.843,41.1038389,16.8790971,False,NONE
2019-10-26 09:56:09.620,LG-H970,1572083769630.75,-2.139,10.206,-0.007,41.1038389,16.8790971,False,NONE
2019-10-26 09:56:09.640,LG-H970,1572083769650.5,-1.992,9.979,-2.831,41.1038389,16.8790971,False,NONE
2019-10-26 09:56:09.660,LG-H970,1572083769670.25,1.607,9.201,-0.795,41.1038389,16.8790971,False,NONE
2019-10-26 09:56:09.680,LG-H970,1572083769690.0,4.09,12.838,0.175,41.1038389,16.8790971,False,NONE
2019-10-26 09:56:09.700,LG-H970,1572083769709.5,-0.566,9.686,1.539,41.1038389,16.8790971,False,NONE
2019-10-26 09:56:09.720,LG-H970,1572083769728.75,-2.59,9.801,1.579,41.1038389,16.8790971,False,NONE
2019-10-26 09:56:09.740,LG-H970,1572083769748.5,-0.553,8.35,-4.047,41.1038389,16.8790971,False,NONE
2019-10-26 09:56:09.760,LG-H970,1572083769768.75,1.975,10.783,0.726,41.1038389,16.8790971,False,NONE
2019-10-26 09:56:09.780,LG-H970,1572083769789.75,0.612,8.325,0.493,41.1038389,16.8790971,False,NONE
2019-10-26 09:56:09.800,LG-H970,1572083769808.25,-1.523,10.915,2.364,41.1038389,16.8790971,False,NONE
2019-10-26 09:56:09.820,LG-H970,1572083769828.0,-1.719,12.92,0.57,41.1038389,16.8790971,False,NONE
2019-10-26 09:56:09.840,LG-H970,1572083769847.75,-1.516,11.193,1.237,41.1038389,16.8790971,False,NONE
2019-10-26 09:56:09.860,LG-H970,1572083769867.75,0.66,9.251,1.127,41.1038389,16.8790971,False,NONE
2019-10-26 09:56:09.880,LG-H970,1572083769888.0,0.953,8.202,-1.428,41.1038389,16.8790971,False,NONE
2019-10-26 09:56:09.900,LG-H970,1572083769908.0,-0.77,11.014,-1.076,41.1038389,16.8790971,False,NONE
2019-10-26 09:56:09.920,LG-H970,1572083769928.6,-1.821,10.417,0.027,41.1038389,16.8790971,False,NONE
2019-10-26 09:56:09.940,LG-H970,1572083769950.75,0.424,9.655,2.787,41.1038389,16.8790971,False,NONE
2019-10-26 09:56:09.960,LG-H970,1572083769970.5,-0.307,9.256,0.176,41.1038389,16.8790971,False,NONE
2019-10-26 09:56:09.980,LG-H970,1572083769990.5,-2.454,11.309,-1.734,41.1038389,16.8790971,False,NONE
2019-10-26 09:56:10.000,LG-H970,1572083770010.25,-4.559,8.285,-3.432,41.1038389,16.8790971,False,NONE
2019-10-26 09:56:10.020,LG-H970,1572083770030.5,0.008,10.729,3.224,41.1038389,16.8790971,False,NONE
2019-10-26 09:56:10.040,LG-H970,1572083770049.5,1.203,7.971,-1.63,41.1038389,16.8790971,False,NONE
2019-10-26 09:56:10.060,LG-H970,1572083770068.75,-2.205,11.89,0.858,41.1038389,16.8790971,False,NONE
2019-10-26 09:56:10.080,LG-H970,1572083770088.75,-3.745,10.07,-2.908,41.1038389,16.8790971,False,NONE
2019-10-26 09:56:10.100,LG-H970,1572083770108.75,0.071,7.225,0.192,41.1038389,16.8790971,False,NONE
2019-10-26 09:56:10.120,LG-H970,1572083770128.75,2.798,7.863,1.448,41.1038389,16.8790971,False,NONE
2019-10-26 09:56:10.140,LG-H970,1572083770149.5,-0.527,10.538,-2.273,41.1038389,16.8790971,False,NONE
2019-10-26 09:56:10.160,LG-H970,1572083770168.75,-4.925,12.117,-1.263,41.1038389,16.8790971,False,NONE
