UTC_timestamp,device_name,timestamp,x,y,z,lat,long,event,speed
2019-10-26 10:38:22.280,LG-H970,1572086302292.25,2.824,11.05,1.038,41.1039623,16.8796758,False,NONE
2019-10-26 10:38:22.300,LG-H970,1572086302310.0,-0.134,10.454,0.372,41.1039623,16.8796758,False,NONE
2019-10-26 10:38:22.320,LG-H970,1572086302329.2,1.229,9.652,-0.437,41.1039623,16.8796758,False,NONE
2019-10-26 10:38:22.340,LG-H970,1572086302348.6667,2.35,6.722,-0.875,41.1039623,16.8796758,False,NONE
2019-10-26 10:38:22.360,LG-H970,1572086302369.4,3.497,9.668,0.718,41.1039623,16.8796758,False,NONE
2019-10-26 10:38:22.380,LG-H970,1572086302391.0,1.746,9.189,-0.104,41.1039623,16.8796758,True,NONE
2019-10-26 10:38:22.400,LG-H970,1572086302410.0,2.18,9.436,0.915,41.1039623,16.8796758,True,NONE
2019-10-26 10:38:22.420,LG-H970,1572086302429.5,2.592,8.328,-0.209,41.1039623,16.8796758,False,NONE
2019-10-26 10:38:22.440,LG-H970,1572086302449.5,1.856,9.266,0.14,41.1039623,16.8796758,False,NONE
2019-10-26 10:38:22.460,LG-H970,1572086302469.75,0.86,10.589,-0.988,41.1039623,16.8796758,False,NONE
2019-10-26 10:38:22.480,LG-H970,1572086302490.5,2.58,11.179,1.461,41.1039623,16.8796758,False,NONE
2019-10-26 10:38:22.500,LG-H970,1572086302509.5,2.53,8.113,2.125,41.1039623,16.8796758,False,NONE
2019-10-26 10:38:22.520,LG-H970,1572086302530.0,1.738,10.104,-0.419,41.1039623,16.8796758,False,NONE
2019-10-26 10:38:22.540,LG-H970,1572086302548.3333,-0.074,9.951,-2.574,41.1039623,16.8796758,False,NONE
2019-10-26 10:38:22.560,LG-H970,1572086302568.25,1.334,9.752,0.376,41.1039623,16.8796758,False,NONE
2019-10-26 10:38:22.580,LG-H970,1572086302589.75,2.584,10.035,0.86,41.1039623,16.8796758,False,NONE
2019-10-26 10:38:22.600,LG-H970,1572086302609.25,1.481,10.796,2.597,41.1039623,16.8796758,False,NONE
2019-10-26 10:38:22.620,LG-H970,1572086302628.5,0.126,11.083,0.701,41.1039623,16.8796758,False,NONE
2019-10-26 10:38:22.640,LG-H970,1572086302648.25,0.126,11.83,-0.004,41.1039623,16.8796758,False,NONE
2019-10-26 10:38:22.660,LG-H970,1572086302667.75,0.442,10.095,0.143,41.1039623,16.8796758,False,NONE
2019-10-26 10:38:22.680,LG-H970,1572086302689.0,1.098,10.279,0.736,41.1039623,16.8796758,False,NONE
2019-10-26 10:38:22.700,LG-H970,1572086302710.2,-1.291,11.245,-0.537,41.1039623,16.8796758,False,NONE
2019-10-26 10:38:22.720,LG-H970,1572086302732.0,-2.304,12.051,-0.177,41.1039623,16.8796758,False,NONE
2019-10-26 10:38:22.740,LG-H970,1572086302751.5,0.356,9.734,0.491,41.1039623,16.8796758,False,NONE
2019-10-26 10:38:22.760,LG-H970,1572086302771.25,1.25,8.881,1.169,41.1039623,16.8796758,False,NONE
2019-10-26 10:38:22.780,LG-H970,1572086302791.5,-0.482,10.74,-0.528,41.1039623,16.8796758,False,NONE
2019-10-26 10:38:22.800,LG-H970,1572086302810.75,-1.279,10.403,-1.351,41.1039623,16.8796758,False,NONE
2019-10-26 10:38:22.820,LG-H970,1572086302831.0,0.38,8.791,0.534,41.1039623,16.8796758,False,NONE
2019-10-26 10:38:22.840,LG-H970,1572086302850.5,1.596,8.911,0.118,41.1039623,16.8796758,False,NONE
2019-10-26 10:38:22.860,LG-H970,1572086302869.0,0.847,9.706,0.541,41.1039623,16.8796758,False,NONE
2019-10-26 10:38:22.880,LG-H970,1572086302890.5,-0.452,8.685,0.018,41.1039623,16.8796758,False,NONE
2019-10-26 10:38:22.900,LG-H970,1572086302911.25,0.937,9.132,0.384,41.1039623,16.8796758,False,NONE
2019-10-26 10:38:22.920,LG-H970,1572086302932.6667,1.772,8.973,1.05,41.1039623,16.8796758,False,NONE
2019-10-26 10:38:22.940,LG-H970,1572086302949.75,0.494,9.466,1.223,41.1039623,16.8796758,False,NONE
2019-10-26 10:38:22.960,LG-H970,1572086302970.25,-0.293,10.246,-0.229,41.1039623,16.8796758,False,NONE
2019-10-26 10:38:22.980,LG-H970,1572086302990.25,1.013,8.796,-0.822,41.1039623,16.8796758,False,NONE
2019-10-26 10:38:23.000,LG-H970,1572086303009.5,3.12,8.541,0.3,41.1039623,16.8796758,False,NONE
2019-10-26 10:38:23.020,LG-H970,1572086303029.25,2.768,7.393,0.608,41.1039623,16.8796758,False,NONE
2019-10-26 10:38:23.040,LG-H970,1572086303048.5,2.479,8.477,0.154,41.1039623,16.8796758,False,NONE
2019-10-26 10:38:23.060,LG-H970,1572086303068.75,0.531,10.04,-2.189,41.1039623,16.8796758,False,NONE
2019-10-26 10:38:23.080,LG-H970,1572086303088.0,-0.612,10.842,-1.255,41.1039623,16.8796758,False,NONE
2019-10-26 10:38:23.100,LG-H970,1572086303109.8,-0.006,10.986,-0.228,41.1039623,16.8796758,False,NONE
2019-10-26 10:38:23.120,LG-H970,1572086303131.25,-1.978,11.778,-1.378,41.1039623,16.8796758,False,NONE
2019-10-26 10:38:23.140,LG-H970,1572086303151.25,-3.042,12.827,-1.401,41.1039623,16.8796758,False,NONE
2019-10-26 10:38:23.160,LG-H970,1572086303171.5,-2.293,11.653,-1.287,41.1039623,16.8796758,False,NONE
2019-10-26 10:38:23.180,LG-H970,1572086303190.75,-2.549,11.188,1.645,41.1039623,16.8796758,False,NONE
2019-10-26 10:38:23.200,LG-H970,1572086303210.75,-4.204,10.405,-1.047,41.1039623,16.8796758,False,NONE
2019-10-26 10:38:23.220,LG-H970,1572086303230.75,-3.196,11.471,-2.415,41.1039623,16.8796758,False,NONE
2019-10-26 10:38:23.240,LG-H970,1572086303250.25,-1.267,9.257,-1.771,41.1039623,16.8796758,False,NONE
2019-10-26 10:38:23.260,LG-H970,1572086303270.25,-1.497,9.126,0.277,41.1039623,16.8796758,False,NONE
2019-10-26 10:38:23.280,LG-H970,1572086303289.25,-2.546,10.669,-0.556,41.1039623,16.8796758,False,NONE
2019-10-26 10:38:23.300,LG-H970,1572086303309.25,-1.459,11.406,-0.742,41.1039623,16.8796758,False,NONE
2019-10-26 10:38:23.320,LG-H970,1572086303330.4,0.648,9.368,-1.119,41.1039623,16.8796758,False,NONE
2019-10-26 10:38:23.340,LG-H970,1572086303350.0,1.555,9.034,-2.012,41.1039623,16.8796758,False,NONE
2019-10-26 10:38:23.360,LG-H970,1572086303369.25,0.078,8.653,-2.611,41.1039623,16.8796758,False,NONE
2019-10-26 10:38:23.380,LG-H970,1572086303389.5,0.263,9.473,-2.821,41.1039623,16.8796758,False,NONE
2019-10-26 10:38:23.400,LG-H970,1572086303406.75,1.682,10.048,-1.619,41.1039623,16.8796758,False,NONE
2019-10-26 10:38:23.420,LG-H970,1572086303426.75,2.209,8.92,-1.416,41.1039623,16.8796758,False,NONE
2019-10-26 10:38:23.440,LG-H970,1572086303446.75,0.971,7.931,-2.882,41.1039623,16.8796758,False,NONE
2019-10-26 10:38:23.460,LG-H970,1572086303469.2,0.606,9.072,-1.784,41.1039623,16.8796758,False,NONE
2019-10-26 10:38:23.480,LG-H970,1572086303487.0,1.345,9.108,-1.154,41.1039623,16.8796758,False,NONE
2019-10-26 10:38:23.500,LG-H970,1572086303508.8,1.487,9.446,1.074,41.1039623,16.8796758,False,NONE
2019-10-26 10:38:23.520,LG-H970,1572086303530.5,-0.064,9.326,-0.639,41.1039623,16.8796758,False,NONE
2019-10-26 10:38:23.540,LG-H970,1572086303550.5,-1.166,10.092,-0.277,41.1039623,16.8796758,False,NONE
2019-10-26 10:38:23.560,LG-H970,1572086303570.5,-0.876,8.245,-1.105,41.1039623,16.8796758,False,NONE
2019-10-26 10:38:23.580,LG-H970,1572086303590.5,1.926,9.875,1.546,41.1039623,16.8796758,False,NONE
2019-10-26 10:38:23.600,LG-H970,1572086303609.25,1.959,9.891,-0.169,41.1039623,16.8796758,False,NONE
2019-10-26 10:38:23.620,LG-H970,1572086303629.25,0.148,11.807,-0.289,41.1039623,16.8796758,False,NONE
2019-10-26 10:38:23.640,LG-H970,1572086303649.25,0.97,9.973,-2.038,41.1039623,16.8796758,False,NONE
2019-10-26 10:38:23.660,LG-H970,1572086303668.25,4.771,10.039,-0.334,41.1039623,16.8796758,False,NONE
2019-10-26 10:38:23.680,LG-H970,1572086303690.6,4.334,8.769,0.094,41.1039623,16.8796758,False,NONE
2019-10-26 10:38:23.700,LG-H970,1572086303712.0,1.535,10.8,-2.075,41.1039623,16.8796758,False,NONE
2019-10-26 10:38:23.720,LG-H970,1572086303730.2,0.546,10.981,-1.879,41.1039623,16.8796758,False,NONE
2019-10-26 10:38:23.740,LG-H970,1572086303749.6667,-0.251,7.623,-3.202,41.1039623,16.8796758,False,NONE
2019-10-26 10:38:23.760,LG-H970,1572086303767.25,1.573,9.211,0.54,41.1039623,16.8796758,False,NONE
2019-10-26 10:38:23.780,LG-H970,1572086303787.5,1.026,8.648,-1.29,41.1039623,16.8796758,True,NONE
2019-10-26 10:38:23.800,LG-H970,1572086303809.2,-1.122,11.619,-2.083,41.1039623,16.8796758,True,NONE
2019-10-26 10:38:23.820,LG-H970,1572086303831.5,-3.294,9.716,-0.83,41.1039623,16.8796758,False,NONE
2019-10-26 10:38:23.840,LG-H970,1572086303850.75,0.086,7.356,0.305,41.1039623,16.8796758,False,NONE
2019-10-26 10:38:23.860,LG-H970,1572086303872.0,1.436,9.308,0.193,41.1039623,16.8796758,False,NONE
2019-10-26 10:38:23.880,LG-H970,1572086303888.6667,-3.127,11.678,-2.783,41.1039623,16.8796758,False,NONE
2019-10-26 10:38:23.900,LG-H970,1572086303908.4,-6.396,12.892,-3.645,41.1039623,16.8796758,False,NONE
2019-10-26 10:38:23.920,LG-H970,1572086303931.0,-3.478,9.702,-0.735,41.1039623,16.8796758,False,NONE
2019-10-26 10:38:23.940,LG-H970,1572086303950.5,-0.956,8.515,-1.08,41.1039623,16.8796758,False,NONE
2019-10-26 10:38:23.960,LG-H970,1572086303970.25,-4.618,11.74,-4.178,41.1039623,16.8796758,False,NONE
2019-10-26 10:38:23.980,LG-H970,1572086303990.25,-4.756,12.295,-2.805,41.1039623,16.8796758,False,NONE
2019-10-26 10:38:24.000,LG-H970,1572086304009.75,-0.67,8.436,0.892,41.1039623,16.8796758,False,NONE
2019-10-26 10:38:24.020,LG-H970,1572086304029.75,1.284,8.828,1.923,41.1039623,16.8796758,False,NONE
2019-10-26 10:38:24.040,LG-H970,1572086304049.25,-1.891,11.115,-0.994,41.1039623,16.8796758,False,NONE
2019-10-26 10:38:24.060,LG-H970,1572086304069.25,-2.746,10.541,-1.205,41.1039623,16.8796758,False,NONE
2019-10-26 10:38:24.080,LG-H970,1572086304089.25,1.162,8.236,0.952,41.1039623,16.8796758,False,NONE
2019-10-26 10:38:24.100,LG-H970,1572086304108.5,3.035,8.248,1.771,41.1039623,16.8796758,False,NONE
2019-10-26 10:38:24.120,LG-H970,1572086304128.75,-0.036,10.446,0.509,41.1039623,16.8796758,False,NONE
2019-10-26 10:38:24.140,LG-H970,1572086304147.25,-1.018,11.217,-0.815,41.1039623,16.8796758,False,NONE
2019-10-26 10:38:24.160,LG-H970,1572086304167.5,2.425,8.797,-0.763,41.1039623,16.8796758,False,NONE
2019-10-26 10:38:24.180,LG-H970,1572086304187.25,4.53,8.049,0.727,41.1039623,16.8796758,False,NONE
2019-10-26 10:38:24.200,LG-H970,1572086304207.25,1.9,9.332,-0.789,41.1039623,16.8796758,False,NONE
2019-10-26 10:38:24.220,LG-H970,1572086304229.8,-0.416,11.378,-2.476,41.1039623,16.8796758,False,NONE
2019-10-26 10:38:24.240,LG-H970,1572086304252.0,2.608,9.011,-0.85,41.1039623,16.8796758,False,NONE
2019-10-26 10:38:24.260,LG-H970,1572086304271.25,5.112,7.416,-0.78,41.1039623,16.8796758,False,NONE
2019-10-26 10:38:24.280,LG-H970,1572086304291.25,2.051,9.267,-0.395,41.1039623,16.8796758,False,NONE
2019-10-26 10:38:24.300,LG-H970,1572086304310.5,-1.153,9.964,-4.134,41.1039623,16.8796758,False,NONE
2019-10-26 10:38:24.320,LG-H970,1572086304330.5,0.112,11.881,0.05,41.1039623,16.8796758,False,NONE
2019-10-26 10:38:24.340,LG-H970,1572086304349.75,0.907,8.778,-0.231,41.1039623,16.8796758,False,NONE
2019-10-26 10:38:24.360,LG-H970,1572086304367.3333,0.931,10.154,0.353,41.1039623,16.8796758,False,NONE
2019-10-26 10:38:24.380,LG-H970,1572086304388.6,-1.248,9.891,-2.495,41.1039623,16.8796758,False,NONE
2019-10-26 10:38:24.400,LG-H970,1572086304408.5,-0.964,9.933,-2.026,41.1039623,16.8796758,False,NONE
2019-10-26 10:38:24.420,LG-H970,1572086304428.25,0.548,8.376,-1.042,41.1039623,16.8796758,False,NONE
2019-10-26 10:38:24.440,LG-H970,1572086304448.5,1.174,9.272,0.48,41.1039623,16.8796758,False,NONE
2019-10-26 10:38:24.460,LG-H970,1572086304469.0,-0.612,11.063,-0.447,41.1039623,16.8796758,False,NONE
2019-10-26 10:38:24.480,LG-H970,1572086304488.5,-2.802,11.176,-1.858,41.1039623,16.8796758,False,NONE
2019-10-26 10:38:24.500,LG-H970,1572086304507.5,-1.927,10.992,-1.137,41.1039623,16.8796758,False,NONE
2019-10-26 10:38:24.520,LG-H970,1572086304527.5,-1.92,8.796,-1.449,41.1039623,16.8796758,False,NONE
2019-10-26 10:38:24.540,LG-H970,1572086304550.0,-0.877,10.342,0.004,41.1039623,16.8796758,False,NONE
2019-10-26 10:38:24.560,LG-H970,1572086304570.0,-2.076,11.006,-0.837,41.1039623,16.8796758,False,NONE
2019-10-26 10:38:24.580,LG-H970,1572086304587.25,-4.076,11.222,0.494,41.1039623,16.8796758,False,NONE
2019-10-26 10:38:24.600,LG-H970,1572086304609.2,-2.153,10.373,-1.722,41.1039623,16.8796758,False,NONE
2019-10-26 10:38:24.620,LG-H970,1572086304631.5,-0.395,9.094,0.257,41.1039623,16.8796758,False,NONE
2019-10-26 10:38:24.640,LG-H970,1572086304651.25,-1.449,9.293,-0.645,41.1039623,16.8796758,False,NONE
2019-10-26 10:38:24.660,LG-H970,1572086304671.5,-2.424,11.27,-0.329,41.1039623,16.8796758,False,NONE
2019-10-26 10:38:24.680,LG-H970,1572086304690.75,-0.884,10.855,-0.599,41.1039623,16.8796758,False,NONE
2019-10-26 10:38:24.700,LG-H970,1572086304710.5,-0.175,9.413,0.856,41.1039623,16.8796758,False,NONE
2019-10-26 10:38:24.720,LG-H970,1572086304730.75,-0.2,8.825,-1.186,41.1039623,16.8796758,False,NONE
2019-10-26 10:38:24.740,LG-H970,1572086304749.25,-0.384,9.65,-1.877,41.1039623,16.8796758,False,NONE
2019-10-26 10:38:24.760,LG-H970,1572086304770.25,0.018,9.81,-0.765,41.1039623,16.8796758,False,NONE
2019-10-26 10:38:24.780,LG-H970,1572086304789.5,0.57,8.767,-0.467,41.1039623,16.8796758,False,NONE
2019-10-26 10:38:24.800,LG-H970,1572086304809.25,1.583,9.852,-0.413,41.1039623,16.8796758,False,NONE
2019-10-26 10:38:24.820,LG-H970,1572086304829.0,0.246,9.509,-1.703,41.1039623,16.8796758,False,NONE
2019-10-26 10:38:24.840,LG-H970,1572086304848.5,0.346,9.997,-2.87,41.1039623,16.8796758,False,NONE
2019-10-26 10:38:24.860,LG-H970,1572086304871.0,0.091,8.822,-1.069,41.1039623,16.8796758,False,NONE
2019-10-26 10:38:24.880,LG-H970,1572086304893.0,0.989,9.574,-0.994,41.1039623,16.8796758,False,NONE
2019-10-26 10:38:24.900,LG-H970,1572086304907.25,0.646,10.438,-0.377,41.1039623,16.8796758,False,NONE
2019-10-26 10:38:24.920,LG-H970,1572086304927.25,-0.526,9.299,-1.16,41.1039623,16.8796758,False,NONE
2019-10-26 10:38:24.940,LG-H970,1572086304946.75,0.791,10.386,-0.917,41.1039623,16.8796758,False,NONE
2019-10-26 10:38:24.960,LG-H970,1572086304969.6,0.386,8.727,-1.18,41.1039623,16.8796758,False,NONE
2019-10-26 10:38:24.980,LG-H970,1572086304992.5,-0.211,10.632,-0.698,41.1039623,16.8796758,False,NONE
2019-10-26 10:38:25.000,LG-H970,1572086305010.5,-2.215,9.72,-1.51,41.1039623,16.8796758,False,NONE
2019-10-26 10:38:25.020,LG-H970,1572086305030.75,0.737,11.018,-0.323,41.1039623,16.8796758,False,NONE
2019-10-26 10:38:25.040,LG-H970,1572086305051.25,0.837,8.06,-1.106,41.1039623,16.8796758,False,NONE
2019-10-26 10:38:25.060,LG-H970,1572086305070.5,0.148,9.248,0.107,41.1039623,16.8796758,False,NONE
2019-10-26 10:38:25.080,LG-H970,1572086305090.5,-1.243,9.665,-3.446,41.1039623,16.8796758,False,NONE
2019-10-26 10:38:25.100,LG-H970,1572086305111.0,-1.862,10.21,0.978,41.1039623,16.8796758,False,NONE
2019-10-26 10:38:25.120,LG-H970,1572086305130.0,0.286,9.02,-1.387,41.1039623,16.8796758,False,NONE
2019-10-26 10:38:25.140,LG-H970,1572086305149.5,-0.533,11.087,0.587,41.1039623,16.8796758,False,NONE
2019-10-26 10:38:25.160,LG-H970,1572086305169.25,-1.587,11.076,-1.132,41.1039623,16.8796758,False,NONE
2019-10-26 10:38:25.180,LG-H970,1572086305189.0,-2.627,9.123,-1.076,41.1039623,16.8796758,False,NONE
2019-10-26 10:38:25.200,LG-H970,1572086305209.25,-0.733,10.481,0.249,41.1039623,16.8796758,False,NONE
2019-10-26 10:38:25.220,LG-H970,1572086305229.25,-0.675,9.462,-1.471,41.1039623,16.8796758,False,NONE
2019-10-26 10:38:25.240,LG-H970,1572086305248.5,-0.365,11.021,0.817,41.1039623,16.8796758,False,NONE
2019-10-26 10:38:25.260,LG-H970,1572086305268.25,-0.316,9.133,-2.39,41.1039623,16.8796758,False,NONE
