UTC_timestamp,device_name,timestamp,x,y,z,lat,long,event,speed
2019-10-25 09:44:24.240,LG-H970,1571996664250.75,3.138,10.367,-0.119,41.1077959,16.8803074,False,NONE
2019-10-25 09:44:24.260,LG-H970,1571996664270.2,1.938,10.705,0.55,41.1077959,16.8803074,False,NONE
2019-10-25 09:44:24.280,LG-H970,1571996664292.5,-2.575,10.822,-1.496,41.1077959,16.8803074,False,NONE
2019-10-25 09:44:24.300,LG-H970,1571996664308.25,-1.607,10.928,-1.834,41.1077959,16.8803074,False,NONE
2019-10-25 09:44:24.320,LG-H970,1571996664330.4,1.198,8.435,-0.956,41.1077959,16.8803074,False,NONE
2019-10-25 09:44:24.340,LG-H970,1571996664349.5,0.554,10.253,0.142,41.1077959,16.8803074,False,NONE
2019-10-25 09:44:24.360,LG-H970,1571996664369.6,-1.986,10.732,0.345,41.1077959,16.8803074,False,NONE
2019-10-25 09:44:24.380,LG-H970,1571996664393.0,-0.177,10.747,0.48,41.1077959,16.8803074,False,NONE
2019-10-25 09:44:24.400,LG-H970,1571996664408.6667,0.663,8.192,-0.737,41.1077959,16.8803074,False,NONE
2019-10-25 09:44:24.420,LG-H970,1571996664429.3333,-0.828,9.326,-1.547,41.1077959,16.8803074,False,NONE
2019-10-25 09:44:24.440,LG-H970,1571996664453.0,-2.947,8.421,-2.108,41.1077959,16.8803074,False,NONE
2019-10-25 09:44:24.460,LG-H970,1571996664465.75,-1.904,9.139,0.052,41.1077959,16.8803074,False,NONE
2019-10-25 09:44:24.480,LG-H970,1571996664489.0,-1.031,9.682,-0.984,41.1077959,16.8803074,False,NONE
2019-10-25 09:44:24.500,LG-H970,1571996664511.25,-1.621,9.915,-0.897,41.1077959,16.8803074,False,NONE
2019-10-25 09:44:24.520,LG-H970,1571996664530.4,-1.596,8.707,-0.485,41.1077959,16.8803074,False,NONE
2019-10-25 09:44:24.540,LG-H970,1571996664553.25,-2.179,8.35,0.036,41.1077959,16.8803074,False,NONE
2019-10-25 09:44:24.560,LG-H970,1571996664568.5,-1.081,12.124,-1.191,41.1077959,16.8803074,False,NONE
2019-10-25 09:44:24.580,LG-H970,1571996664590.2,-1.423,9.507,-0.858,41.1077959,16.8803074,False,NONE
2019-10-25 09:44:24.600,LG-H970,1571996664610.25,-1.147,10.096,-1.133,41.1077959,16.8803074,False,NONE
2019-10-25 09:44:24.620,LG-H970,1571996664630.4,-1.748,8.838,-2.114,41.1077959,16.8803074,False,NONE
2019-10-25 09:44:24.640,LG-H970,1571996664649.0,-1.177,9.931,-0.634,41.1077959,16.8803074,False,NONE
2019-10-25 09:44:24.660,LG-H970,1571996664669.0,-0.905,10.506,-1.115,41.1077959,16.8803074,False,NONE
2019-10-25 09:44:24.680,LG-H970,1571996664687.0,-1.008,8.855,0.242,41.1077959,16.8803074,False,NONE
2019-10-25 09:44:24.700,LG-H970,1571996664710.0,-1.218,9.812,-0.33,41.1077959,16.8803074,False,NONE
2019-10-25 09:44:24.720,LG-H970,1571996664730.0,-0.509,11.693,-3.024,41.1077959,16.8803074,False,NONE
2019-10-25 09:44:24.740,LG-H970,1571996664749.75,-0.067,9.884,-1.572,41.1077959,16.8803074,False,NONE
2019-10-25 09:44:24.760,LG-H970,1571996664770.2,0.509,9.226,0.72,41.1077959,16.8803074,False,NONE
2019-10-25 09:44:24.780,LG-H970,1571996664792.0,0.497,9.569,-0.659,41.1077959,16.8803074,False,NONE
2019-10-25 09:44:24.800,LG-H970,1571996664809.0,0.543,11.462,-1.233,41.1077959,16.8803074,False,NONE
2019-10-25 09:44:24.820,LG-H970,1571996664828.5,0.177,10.586,-1.086,41.1077959,16.8803074,False,NONE
2019-10-25 09:44:24.840,LG-H970,1571996664851.0,0.597,9.408,-1.125,41.1077959,16.8803074,False,NONE
2019-10-25 09:44:24.860,LG-H970,1571996664872.3333,0.417,8.852,-0.892,41.1077959,16.8803074,False,NONE
2019-10-25 09:44:24.880,LG-H970,1571996664888.6,0.102,9.448,-0.894,41.1077959,16.8803074,False,NONE
2019-10-25 09:44:24.900,LG-H970,1571996664912.0,0.071,10.094,-1.154,41.1077959,16.8803074,False,NONE
2019-10-25 09:44:24.920,LG-H970,1571996664925.0,-0.092,10.822,-0.757,41.1077959,16.8803074,False,NONE
2019-10-25 09:44:24.940,LG-H970,1571996664948.0,-0.117,10.344,-0.964,41.1077959,16.8803074,False,NONE
2019-10-25 09:44:24.960,LG-H970,1571996664972.0,-0.48,9.709,-0.714,41.1077959,16.8803074,False,NONE
2019-10-25 09:44:24.980,LG-H970,1571996664990.0,-0.82,9.219,-0.465,41.1077959,16.8803074,False,NONE
2019-10-25 09:44:25.000,LG-H970,1571996665007.8,-0.662,9.955,-0.695,41.1077959,16.8803074,False,NONE
2019-10-25 09:44:25.020,LG-H970,1571996665032.5,-0.343,10.489,-0.446,41.1077959,16.8803074,False,NONE
2019-10-25 09:44:25.040,LG-H970,1571996665050.6667,0.038,9.834,-1.101,41.1077959,16.8803074,False,NONE
2019-10-25 09:44:25.060,LG-H970,1571996665067.5,-0.381,9.347,-0.128,41.1077959,16.8803074,False,NONE
2019-10-25 09:44:25.080,LG-H970,1571996665090.0,-1.68,9.762,-1.171,41.1077959,16.8803074,False,NONE
2019-10-25 09:44:25.100,LG-H970,1571996665110.6667,-1.931,9.204,-0.703,41.1077959,16.8803074,False,NONE
2019-10-25 09:44:25.120,LG-H970,1571996665129.0,-0.652,9.245,-0.061,41.1077959,16.8803074,False,NONE
2019-10-25 09:44:25.140,LG-H970,1571996665153.0,-0.907,9.376,-0.3,41.1077959,16.8803074,False,NONE
2019-10-25 09:44:25.160,LG-H970,1571996665167.0,-1.082,10.206,-1.168,41.1077959,16.8803074,False,NONE
2019-10-25 09:44:25.180,LG-H970,1571996665190.0,-0.892,9.883,-0.857,41.1077959,16.8803074,False,NONE
2019-10-25 09:44:25.200,LG-H970,1571996665208.2,-0.571,9.482,-0.238,41.1077959,16.8803074,False,NONE
2019-10-25 09:44:25.220,LG-H970,1571996665230.5,-0.872,9.097,-0.238,41.1077959,16.8803074,False,NONE
2019-10-25 09:44:25.240,LG-H970,1571996665249.0,-2.087,9.757,-1.093,41.1077959,16.8803074,False,NONE
2019-10-25 09:44:25.260,LG-H970,1571996665273.0,-2.571,9.883,-1.358,41.1077959,16.8803074,False,NONE
2019-10-25 09:44:25.280,LG-H970,1571996665288.5,-1.347,9.372,-1.079,41.1077959,16.8803074,False,NONE
2019-10-25 09:44:25.300,LG-H970,1571996665311.0,-0.523,9.778,-0.644,41.1077959,16.8803074,False,NONE
2019-10-25 09:44:25.320,LG-H970,1571996665331.8,-0.778,11.017,-0.715,41.1077959,16.8803074,False,NONE
2019-10-25 09:44:25.340,LG-H970,1571996665354.0,-1.13,11.534,0.102,41.1077959,16.8803074,False,NONE
2019-10-25 09:44:25.360,LG-H970,1571996665373.0,-1.04,10.317,-0.837,41.1077959,16.8803074,False,NONE
2019-10-25 09:44:25.380,LG-H970,1571996665390.0,0.79,10.483,-1.218,41.1077959,16.8803074,False,NONE
2019-10-25 09:44:25.400,LG-H970,1571996665407.0,0.327,9.949,-1.282,41.1077959,16.8803074,False,NONE
2019-10-25 09:44:25.420,LG-H970,1571996665430.3333,-0.869,10.592,-0.913,41.1077959,16.8803074,False,NONE
2019-10-25 09:44:25.440,LG-H970,1571996665449.0,-0.191,11.16,-1.009,41.1077959,16.8803074,False,NONE
2019-10-25 09:44:25.460,LG-H970,1571996665466.5,0.01,9.581,0.1,41.1077959,16.8803074,False,NONE
2019-10-25 09:44:25.480,LG-H970,1571996665490.0,-0.916,9.609,-1.0,41.1077959,16.8803074,False,NONE
2019-10-25 09:44:25.500,LG-H970,1571996665513.75,-1.438,10.531,-1.428,41.1077959,16.8803074,False,NONE
2019-10-25 09:44:25.520,LG-H970,1571996665529.0,-0.657,10.039,-1.093,41.1077959,16.8803074,False,NONE
2019-10-25 09:44:25.540,LG-H970,1571996665551.6,0.602,9.333,-0.051,41.1077959,16.8803074,False,NONE
2019-10-25 09:44:25.560,LG-H970,1571996665569.0,0.414,9.852,-0.475,41.1077959,16.8803074,False,NONE
2019-10-25 09:44:25.580,LG-H970,1571996665590.0,-1.176,9.605,-1.04,41.1077959,16.8803074,False,NONE
2019-10-25 09:44:25.600,LG-H970,1571996665612.0,-1.322,9.521,-1.39,41.1077959,16.8803074,False,NONE
2019-10-25 09:44:25.620,LG-H970,1571996665627.0,-1.294,8.364,-0.751,41.1077959,16.8803074,False,NONE
2019-10-25 09:44:25.640,LG-H970,1571996665651.4,-0.897,8.231,-1.204,41.1077959,16.8803074,False,NONE
2019-10-25 09:44:25.660,LG-H970,1571996665670.6,-1.311,9.693,-0.867,41.1077959,16.8803074,False,NONE
2019-10-25 09:44:25.680,LG-H970,1571996665689.6,0.405,10.064,-0.691,41.1077959,16.8803074,False,NONE
2019-10-25 09:44:25.700,LG-H970,1571996665711.0,1.256,10.236,0.108,41.1077959,16.8803074,False,NONE
2019-10-25 09:44:25.720,LG-H970,1571996665728.25,-0.785,9.717,-0.458,41.1077959,16.8803074,False,NONE
2019-10-25 09:44:25.740,LG-H970,1571996665746.5,-1.794,11.125,-1.791,41.1077959,16.8803074,True,NONE
2019-10-25 09:44:25.760,LG-H970,1571996665771.0,0.318,10.257,-1.027,41.1077959,16.8803074,False,NONE
2019-10-25 09:44:25.780,LG-H970,1571996665792.25,1.204,10.037,0.606,41.1077959,16.8803074,False,NONE
2019-10-25 09:44:25.800,LG-H970,1571996665810.25,-1.258,10.879,-0.901,41.1077959,16.8803074,False,NONE
2019-10-25 09:44:25.820,LG-H970,1571996665831.25,-2.315,11.021,-1.327,41.1077959,16.8803074,False,NONE
2019-10-25 09:44:25.840,LG-H970,1571996665849.25,-0.788,9.649,-1.222,41.1077959,16.8803074,False,NONE
2019-10-25 09:44:25.860,LG-H970,1571996665870.25,0.235,7.89,-1.544,41.1077959,16.8803074,False,NONE
2019-10-25 09:44:25.880,LG-H970,1571996665888.0,-0.392,9.429,-0.807,41.1077959,16.8803074,False,NONE
2019-10-25 09:44:25.900,LG-H970,1571996665908.2,-2.105,9.396,-1.631,41.1077959,16.8803074,False,NONE
2019-10-25 09:44:25.920,LG-H970,1571996665931.25,-1.833,9.849,-0.28,41.1077959,16.8803074,False,NONE
2019-10-25 09:44:25.940,LG-H970,1571996665948.25,-1.054,8.781,-1.294,41.1077959,16.8803074,False,NONE
2019-10-25 09:44:25.960,LG-H970,1571996665970.0,-0.931,8.803,-0.932,41.1077959,16.8803074,False,NONE
2019-10-25 09:44:25.980,LG-H970,1571996665990.25,-1.522,8.555,-1.462,41.1077959,16.8803074,False,NONE
2019-10-25 09:44:26.000,LG-H970,1571996666009.5,-0.524,10.796,-1.789,41.1077959,16.8803074,False,NONE
2019-10-25 09:44:26.020,LG-H970,1571996666030.2,-0.199,9.277,-0.394,41.1077959,16.8803074,False,NONE
2019-10-25 09:44:26.040,LG-H970,1571996666052.0,0.56,11.376,-0.715,41.1077959,16.8803074,False,NONE
2019-10-25 09:44:26.060,LG-H970,1571996666065.75,-0.047,9.771,-0.994,41.1077959,16.8803074,False,NONE
2019-10-25 09:44:26.080,LG-H970,1571996666090.25,0.059,10.549,-0.56,41.1077959,16.8803074,False,NONE
2019-10-25 09:44:26.100,LG-H970,1571996666107.0,-0.05,10.395,-1.919,41.1077959,16.8803074,False,NONE
2019-10-25 09:44:26.120,LG-H970,1571996666130.25,0.239,10.125,-0.231,41.1077959,16.8803074,False,NONE
2019-10-25 09:44:26.140,LG-H970,1571996666145.0,-0.366,9.677,-0.75,41.1077959,16.8803074,False,NONE
2019-10-25 09:44:26.160,LG-H970,1571996666169.0,-0.853,10.743,-1.08,41.1077959,16.8803074,False,NONE
2019-10-25 09:44:26.180,LG-H970,1571996666187.3333,-0.518,9.925,-0.793,41.1077959,16.8803074,False,NONE
2019-10-25 09:44:26.200,LG-H970,1571996666209.1667,-0.058,10.311,-0.48,41.1077959,16.8803074,False,NONE
2019-10-25 09:44:26.220,LG-H970,1571996666230.25,-0.432,10.278,-0.93,41.1077959,16.8803074,False,NONE
2019-10-25 09:44:26.240,LG-H970,1571996666248.5,-0.432,10.25,-0.844,41.1077959,16.8803074,False,NONE
2019-10-25 09:44:26.260,LG-H970,1571996666271.0,-0.551,9.144,-0.908,41.1077959,16.8803074,False,NONE
2019-10-25 09:44:26.280,LG-H970,1571996666287.75,-0.584,9.788,-1.398,41.1077959,16.8803074,False,NONE
2019-10-25 09:44:26.300,LG-H970,1571996666309.0,-1.534,9.969,-0.413,41.1077959,16.8803074,False,NONE
2019-10-25 09:44:26.320,LG-H970,1571996666329.25,-0.85,10.716,-0.307,41.1077959,16.8803074,False,NONE
2019-10-25 09:44:26.340,LG-H970,1571996666346.6667,-0.642,10.124,-0.387,41.1077959,16.8803074,False,NONE
2019-10-25 09:44:26.360,LG-H970,1571996666368.0,-0.462,10.214,-0.01,41.1077959,16.8803074,False,NONE
2019-10-25 09:44:26.380,LG-H970,1571996666394.0,-0.721,8.447,-0.832,41.1077959,16.8803074,False,NONE
2019-10-25 09:44:26.400,LG-H970,1571996666408.0,-0.442,9.387,-2.032,41.1077959,16.8803074,False,NONE
2019-10-25 09:44:26.420,LG-H970,1571996666430.0,-0.638,8.344,-1.599,41.1077959,16.8803074,False,NONE
2019-10-25 09:44:26.440,LG-H970,1571996666451.25,-0.547,9.478,-1.041,41.1077959,16.8803074,False,NONE
2019-10-25 09:44:26.460,LG-H970,1571996666469.3333,0.061,10.288,-0.719,41.1077959,16.8803074,False,NONE
2019-10-25 09:44:26.480,LG-H970,1571996666490.8,1.028,10.541,-0.114,41.1077959,16.8803074,False,NONE
2019-10-25 09:44:26.500,LG-H970,1571996666509.0,0.762,10.841,-0.742,41.1077959,16.8803074,False,NONE
2019-10-25 09:44:26.520,LG-H970,1571996666529.4,0.327,10.25,-1.576,41.1077959,16.8803074,False,NONE
2019-10-25 09:44:26.540,LG-H970,1571996666551.0,0.457,8.445,-1.038,41.1077959,16.8803074,False,NONE
2019-10-25 09:44:26.560,LG-H970,1571996666569.8,0.944,9.22,-1.279,41.1077959,16.8803074,False,NONE
2019-10-25 09:44:26.580,LG-H970,1571996666587.8,-0.278,10.204,-1.11,41.1077959,16.8803074,False,NONE
2019-10-25 09:44:26.600,LG-H970,1571996666610.25,-0.59,10.158,-0.229,41.1077959,16.8803074,False,NONE
2019-10-25 09:44:26.620,LG-H970,1571996666628.4,0.251,9.923,-0.919,41.1077959,16.8803074,False,NONE
2019-10-25 09:44:26.640,LG-H970,1571996666652.5,-0.285,10.137,-0.898,41.1077959,16.8803074,False,NONE
2019-10-25 09:44:26.660,LG-H970,1571996666668.75,-0.582,10.942,-1.343,41.1077959,16.8803074,False,NONE
2019-10-25 09:44:26.680,LG-H970,1571996666691.0,-0.19,10.027,-0.239,41.1077959,16.8803074,False,NONE
2019-10-25 09:44:26.700,LG-H970,1571996666709.25,-0.604,9.38,0.112,41.1077959,16.8803074,False,NONE
2019-10-25 09:44:26.720,LG-H970,1571996666730.0,-1.274,10.335,-0.512,41.1077959,16.8803074,False,NONE
2019-10-25 09:44:26.740,LG-H970,1571996666747.0,-1.404,9.983,-0.743,41.1077959,16.8803074,False,NONE
2019-10-25 09:44:26.760,LG-H970,1571996666768.4,-0.116,10.086,-0.977,41.1077959,16.8803074,False,NONE
2019-10-25 09:44:26.780,LG-H970,1571996666790.0,-0.714,9.765,-0.719,41.1077959,16.8803074,False,NONE
2019-10-25 09:44:26.800,LG-H970,1571996666811.25,-0.969,10.267,-1.741,41.1077959,16.8803074,False,NONE
2019-10-25 09:44:26.820,LG-H970,1571996666832.0,0.343,9.614,-1.086,41.1077959,16.8803074,False,NONE
2019-10-25 09:44:26.840,LG-H970,1571996666848.2,1.109,9.052,-0.572,41.1077959,16.8803074,False,NONE
2019-10-25 09:44:26.860,LG-H970,1571996666871.5,-0.33,10.173,-1.709,41.1077959,16.8803074,False,NONE
2019-10-25 09:44:26.880,LG-H970,1571996666889.25,-1.001,10.302,-0.953,41.1077959,16.8803074,False,NONE
2019-10-25 09:44:26.900,LG-H970,1571996666911.5,0.27,9.794,-0.454,41.1077959,16.8803074,False,NONE
2019-10-25 09:44:26.920,LG-H970,1571996666928.0,0.528,10.731,-0.665,41.1077959,16.8803074,False,NONE
2019-10-25 09:44:26.940,LG-H970,1571996666947.5,-0.663,9.957,-1.145,41.1077959,16.8803074,False,NONE
2019-10-25 09:44:26.960,LG-H970,1571996666969.0,-1.008,9.48,-1.408,41.1077959,16.8803074,False,NONE
2019-10-25 09:44:26.980,LG-H970,1571996666989.5,-0.644,8.941,-1.612,41.1077959,16.8803074,False,NONE
2019-10-25 09:44:27.000,LG-H970,1571996667008.75,-0.419,10.291,-0.821,41.1077959,16.8803074,False,NONE
2019-10-25 09:44:27.020,LG-H970,1571996667031.0,-0.546,9.744,-1.009,41.1077959,16.8803074,False,NONE
2019-10-25 09:44:27.040,LG-H970,1571996667051.3333,0.053,9.727,0.384,41.1077959,16.8803074,False,NONE
2019-10-25 09:44:27.060,LG-H970,1571996667069.2,-0.499,9.786,-1.493,41.1077959,16.8803074,False,NONE
2019-10-25 09:44:27.080,LG-H970,1571996667092.25,-1.039,10.423,-0.903,41.1077959,16.8803074,False,NONE
2019-10-25 09:44:27.100,LG-H970,1571996667108.0,-0.892,9.762,-1.611,41.1077959,16.8803074,False,NONE
2019-10-25 09:44:27.120,LG-H970,1571996667129.8,-0.229,10.653,-0.168,41.1077959,16.8803074,False,NONE
2019-10-25 09:44:27.140,LG-H970,1571996667149.3333,-0.554,10.194,-0.956,41.1077959,16.8803074,False,NONE
2019-10-25 09:44:27.160,LG-H970,1571996667168.8,-1.396,9.35,-0.465,41.1077959,16.8803074,False,NONE
2019-10-25 09:44:27.180,LG-H970,1571996667193.25,-0.433,10.253,-2.15,41.1077959,16.8803074,False,NONE
2019-10-25 09:44:27.200,LG-H970,1571996667209.25,0.375,8.663,-0.845,41.1077959,16.8803074,False,NONE
2019-10-25 09:44:27.220,LG-H970,1571996667231.25,0.305,10.21,-0.247,41.1077959,16.8803074,False,NONE
