UTC_timestamp,device_name,timestamp,x,y,z,lat,long,event,speed
2019-10-26 10:29:37.060,LG-H970,1572085777067.4,-3.564,12.862,1.09,41.1040582,16.8800951,False,NONE
2019-10-26 10:29:37.080,LG-H970,1572085777088.5,-0.338,11.396,0.17,41.1040582,16.8800951,False,NONE
2019-10-26 10:29:37.100,LG-H970,1572085777108.25,0.496,8.717,2.144,41.1040582,16.8800951,False,NONE
2019-10-26 10:29:37.120,LG-H970,1572085777129.4,0.717,8.475,-1.003,41.1040582,16.8800951,False,NONE
2019-10-26 10:29:37.140,LG-H970,1572085777151.5,-0.894,9.428,-0.354,41.1040582,16.8800951,False,NONE
2019-10-26 10:29:37.160,LG-H970,1572085777171.25,0.982,9.633,-0.071,41.1040582,16.8800951,False,NONE
2019-10-26 10:29:37.180,LG-H970,1572085777190.5,3.073,8.533,0.656,41.1040582,16.8800951,False,NONE
2019-10-26 10:29:37.200,LG-H970,1572085777210.5,1.095,9.403,1.408,41.1040582,16.8800951,False,NONE
2019-10-26 10:29:37.220,LG-H970,1572085777230.5,-2.536,8.342,-1.457,41.1040582,16.8800951,False,NONE
2019-10-26 10:29:37.240,LG-H970,1572085777251.25,-0.315,10.369,-2.447,41.1040582,16.8800951,False,NONE
2019-10-26 10:29:37.260,LG-H970,1572085777270.5,1.394,8.094,0.746,41.1040582,16.8800951,False,NONE
2019-10-26 10:29:37.280,LG-H970,1572085777291.0,3.27,10.143,1.765,41.1040582,16.8800951,False,NONE
2019-10-26 10:29:37.300,LG-H970,1572085777310.0,2.364,11.288,1.072,41.1040582,16.8800951,False,NONE
2019-10-26 10:29:37.320,LG-H970,1572085777329.75,0.146,10.089,-0.708,41.1040582,16.8800951,False,NONE
2019-10-26 10:29:37.340,LG-H970,1572085777349.5,0.492,10.2,-1.929,41.1040582,16.8800951,False,NONE
2019-10-26 10:29:37.360,LG-H970,1572085777369.5,2.069,9.936,-0.161,41.1040582,16.8800951,False,NONE
2019-10-26 10:29:37.380,LG-H970,1572085777390.0,2.831,9.326,2.002,41.1040582,16.8800951,False,NONE
2019-10-26 10:29:37.400,LG-H970,1572085777409.25,2.161,10.918,0.054,41.1040582,16.8800951,False,NONE
2019-10-26 10:29:37.420,LG-H970,1572085777428.5,-1.209,10.441,-1.673,41.1040582,16.8800951,False,NONE
2019-10-26 10:29:37.440,LG-H970,1572085777447.5,-1.2,9.618,-0.972,41.1040582,16.8800951,False,NONE
2019-10-26 10:29:37.460,LG-H970,1572085777467.5,2.165,8.954,-0.991,41.1040582,16.8800951,False,NONE
2019-10-26 10:29:37.480,LG-H970,1572085777487.25,2.786,10.477,0.983,41.1040582,16.8800951,False,NONE
2019-10-26 10:29:37.500,LG-H970,1572085777509.6,-0.707,10.651,-0.042,41.1040582,16.8800951,False,NONE
2019-10-26 10:29:37.520,LG-H970,1572085777531.75,-0.334,10.477,-0.134,41.1040582,16.8800951,False,NONE
2019-10-26 10:29:37.540,LG-H970,1572085777549.3333,1.607,8.254,-1.52,41.1040582,16.8800951,False,NONE
2019-10-26 10:29:37.560,LG-H970,1572085777567.25,0.993,8.715,1.959,41.1040582,16.8800951,False,NONE
2019-10-26 10:29:37.580,LG-H970,1572085777589.4,-0.729,10.506,0.451,41.1040582,16.8800951,False,NONE
2019-10-26 10:29:37.600,LG-H970,1572085777612.0,-1.611,11.87,1.357,41.1040582,16.8800951,False,NONE
2019-10-26 10:29:37.620,LG-H970,1572085777630.75,-0.242,10.743,-0.066,41.1040582,16.8800951,False,NONE
2019-10-26 10:29:37.640,LG-H970,1572085777650.75,-0.344,8.384,-0.045,41.1040582,16.8800951,False,NONE
2019-10-26 10:29:37.660,LG-H970,1572085777670.75,0.475,7.972,-1.135,41.1040582,16.8800951,False,NONE
2019-10-26 10:29:37.680,LG-H970,1572085777690.25,0.551,7.944,-1.898,41.1040582,16.8800951,False,NONE
2019-10-26 10:29:37.700,LG-H970,1572085777709.25,1.22,8.093,0.665,41.1040582,16.8800951,False,NONE
2019-10-26 10:29:37.720,LG-H970,1572085777729.5,2.02,7.043,-1.158,41.1040582,16.8800951,False,NONE
2019-10-26 10:29:37.740,LG-H970,1572085777749.25,-0.08,10.009,0.357,41.1040582,16.8800951,False,NONE
2019-10-26 10:29:37.760,LG-H970,1572085777769.25,-4.028,10.231,-3.768,41.1040582,16.8800951,False,NONE
2019-10-26 10:29:37.780,LG-H970,1572085777788.5,-3.546,11.589,0.172,41.1040582,16.8800951,False,NONE
2019-10-26 10:29:37.800,LG-H970,1572085777807.75,-1.043,10.56,-0.238,41.1040582,16.8800951,False,NONE
2019-10-26 10:29:37.820,LG-H970,1572085777827.5,-2.727,10.909,1.515,41.1040582,16.8800951,False,NONE
2019-10-26 10:29:37.840,LG-H970,1572085777847.5,-3.975,12.607,0.34,41.1040582,16.8800951,False,NONE
2019-10-26 10:29:37.860,LG-H970,1572085777867.75,-1.941,12.432,0.899,41.1040582,16.8800951,False,NONE
2019-10-26 10:29:37.880,LG-H970,1572085777887.5,-5.081,12.475,2.336,41.1040582,16.8800951,False,NONE
2019-10-26 10:29:37.900,LG-H970,1572085777907.25,-5.646,12.106,-1.972,41.1040582,16.8800951,False,NONE
2019-10-26 10:29:37.920,LG-H970,1572085777929.4,0.498,10.179,0.287,41.1040582,16.8800951,False,NONE
2019-10-26 10:29:37.940,LG-H970,1572085777952.25,0.102,7.546,1.251,41.1040582,16.8800951,False,NONE
2019-10-26 10:29:37.960,LG-H970,1572085777971.0,-2.749,13.243,-1.339,41.1040582,16.8800951,False,NONE
2019-10-26 10:29:37.980,LG-H970,1572085777990.75,-2.745,12.667,-2.441,41.1040582,16.8800951,False,NONE
2019-10-26 10:29:38.000,LG-H970,1572085778010.5,1.236,9.155,-0.47,41.1040582,16.8800951,False,NONE
2019-10-26 10:29:38.020,LG-H970,1572085778030.75,3.299,7.254,1.281,41.1040582,16.8800951,False,NONE
2019-10-26 10:29:38.040,LG-H970,1572085778050.25,0.757,8.313,0.253,41.1040582,16.8800951,False,NONE
2019-10-26 10:29:38.060,LG-H970,1572085778069.25,-0.214,10.736,-2.886,41.1040582,16.8800951,False,NONE
2019-10-26 10:29:38.080,LG-H970,1572085778091.0,1.417,11.414,-1.541,41.1040582,16.8800951,False,NONE
2019-10-26 10:29:38.100,LG-H970,1572085778108.25,2.426,8.737,0.034,41.1040582,16.8800951,False,NONE
2019-10-26 10:29:38.120,LG-H970,1572085778128.5,2.083,8.199,-0.261,41.1040582,16.8800951,False,NONE
2019-10-26 10:29:38.140,LG-H970,1572085778148.25,1.918,9.733,-3.356,41.1040582,16.8800951,False,NONE
2019-10-26 10:29:38.160,LG-H970,1572085778170.4,0.885,9.798,-2.345,41.1040582,16.8800951,False,NONE
2019-10-26 10:29:38.180,LG-H970,1572085778189.3333,2.191,9.943,-0.756,41.1040582,16.8800951,False,NONE
2019-10-26 10:29:38.200,LG-H970,1572085778207.25,1.67,7.66,-0.453,41.1040582,16.8800951,False,NONE
2019-10-26 10:29:38.220,LG-H970,1572085778227.25,1.693,9.016,0.211,41.1040582,16.8800951,False,NONE
2019-10-26 10:29:38.240,LG-H970,1572085778249.2,0.33,8.868,-1.663,41.1040582,16.8800951,False,NONE
2019-10-26 10:29:38.260,LG-H970,1572085778271.75,0.898,10.288,-0.127,41.1040582,16.8800951,False,NONE
2019-10-26 10:29:38.280,LG-H970,1572085778291.25,0.557,8.319,-0.328,41.1040582,16.8800951,False,NONE
2019-10-26 10:29:38.300,LG-H970,1572085778310.5,1.055,9.855,0.261,41.1040582,16.8800951,False,NONE
2019-10-26 10:29:38.320,LG-H970,1572085778330.0,-0.236,8.893,-1.273,41.1040582,16.8800951,False,NONE
2019-10-26 10:29:38.340,LG-H970,1572085778350.0,-0.442,9.85,-0.095,41.1040582,16.8800951,False,NONE
2019-10-26 10:29:38.360,LG-H970,1572085778370.5,0.836,9.014,-0.772,41.1040582,16.8800951,False,NONE
2019-10-26 10:29:38.380,LG-H970,1572085778390.0,0.995,9.047,0.531,41.1040582,16.8800951,False,NONE
2019-10-26 10:29:38.400,LG-H970,1572085778409.75,1.019,10.064,0.538,41.1040582,16.8800951,False,NONE
2019-10-26 10:29:38.420,LG-H970,1572085778429.0,1.257,10.453,-0.403,41.1040582,16.8800951,False,NONE
2019-10-26 10:29:38.440,LG-H970,1572085778449.0,0.214,9.187,-3.112,41.1040582,16.8800951,False,NONE
2019-10-26 10:29:38.460,LG-H970,1572085778468.75,-1.258,8.151,-2.273,41.1040582,16.8800951,False,NONE
2019-10-26 10:29:38.480,LG-H970,1572085778489.0,-2.093,8.032,-0.678,41.1040582,16.8800951,False,NONE
2019-10-26 10:29:38.500,LG-H970,1572085778508.25,-2.203,11.292,-1.071,41.1040582,16.8800951,False,NONE
2019-10-26 10:29:38.520,LG-H970,1572085778528.0,-5.481,10.765,-2.163,41.1040582,16.8800951,False,NONE
2019-10-26 10:29:38.540,LG-H970,1572085778549.8,-0.653,9.867,1.634,41.1040582,16.8800951,False,NONE
2019-10-26 10:29:38.560,LG-H970,1572085778571.25,-8.084,5.885,-4.494,41.1040582,16.8800951,True,NONE
2019-10-26 10:29:38.580,LG-H970,1572085778590.75,-11.029,13.365,-5.838,41.1040582,16.8800951,True,NONE
2019-10-26 10:29:38.600,LG-H970,1572085778611.25,-5.575,9.652,-2.567,41.1040582,16.8800951,False,NONE
2019-10-26 10:29:38.620,LG-H970,1572085778629.75,2.949,6.562,5.021,41.1040582,16.8800951,False,NONE
2019-10-26 10:29:38.640,LG-H970,1572085778649.5,-1.065,10.654,1.875,41.1040582,16.8800951,False,NONE
2019-10-26 10:29:38.660,LG-H970,1572085778669.5,-8.469,14.737,-2.925,41.1040582,16.8800951,False,NONE
2019-10-26 10:29:38.680,LG-H970,1572085778690.75,-5.707,13.076,-2.9,41.1040582,16.8800951,False,NONE
2019-10-26 10:29:38.700,LG-H970,1572085778708.5,2.227,9.185,2.594,41.1040582,16.8800951,False,NONE
2019-10-26 10:29:38.720,LG-H970,1572085778728.5,4.874,8.295,3.904,41.1040582,16.8800951,False,NONE
2019-10-26 10:29:38.740,LG-H970,1572085778748.5,-0.67,11.74,0.257,41.1040582,16.8800951,False,NONE
2019-10-26 10:29:38.760,LG-H970,1572085778768.0,-3.494,13.705,-2.485,41.1040582,16.8800951,False,NONE
2019-10-26 10:29:38.780,LG-H970,1572085778788.5,0.106,10.837,0.494,41.1040582,16.8800951,False,NONE
2019-10-26 10:29:38.800,LG-H970,1572085778808.5,6.12,7.616,3.739,41.1040582,16.8800951,False,NONE
2019-10-26 10:29:38.820,LG-H970,1572085778828.75,4.839,9.068,1.66,41.1040582,16.8800951,False,NONE
2019-10-26 10:29:38.840,LG-H970,1572085778848.5,-1.803,11.264,-1.926,41.1040582,16.8800951,False,NONE
2019-10-26 10:29:38.860,LG-H970,1572085778868.25,-1.164,11.919,-1.571,41.1040582,16.8800951,False,NONE
2019-10-26 10:29:38.880,LG-H970,1572085778888.5,3.352,8.042,1.502,41.1040582,16.8800951,False,NONE
2019-10-26 10:29:38.900,LG-H970,1572085778907.25,4.943,7.37,2.149,41.1040582,16.8800951,False,NONE
2019-10-26 10:29:38.920,LG-H970,1572085778927.0,-0.175,9.41,-1.497,41.1040582,16.8800951,False,NONE
2019-10-26 10:29:38.940,LG-H970,1572085778949.4,-2.309,11.424,-2.318,41.1040582,16.8800951,False,NONE
2019-10-26 10:29:38.960,LG-H970,1572085778971.25,1.74,9.061,0.342,41.1040582,16.8800951,False,NONE
2019-10-26 10:29:38.980,LG-H970,1572085778990.75,3.557,8.567,1.197,41.1040582,16.8800951,False,NONE
2019-10-26 10:29:39.000,LG-H970,1572085779008.0,-0.64,8.974,-1.311,41.1040582,16.8800951,False,NONE
2019-10-26 10:29:39.020,LG-H970,1572085779028.8,-2.932,10.864,-2.9,41.1040582,16.8800951,False,NONE
2019-10-26 10:29:39.040,LG-H970,1572085779050.25,-0.414,9.767,-1.096,41.1040582,16.8800951,False,NONE
2019-10-26 10:29:39.060,LG-H970,1572085779070.25,1.133,8.354,1.182,41.1040582,16.8800951,False,NONE
2019-10-26 10:29:39.080,LG-H970,1572085779089.75,-0.617,10.288,-0.375,41.1040582,16.8800951,False,NONE
2019-10-26 10:29:39.100,LG-H970,1572085779109.25,-2.315,11.154,-1.083,41.1040582,16.8800951,False,NONE
2019-10-26 10:29:39.120,LG-H970,1572085779129.25,-0.433,9.137,0.212,41.1040582,16.8800951,False,NONE
2019-10-26 10:29:39.140,LG-H970,1572085779148.75,0.373,7.594,0.002,41.1040582,16.8800951,False,NONE
2019-10-26 10:29:39.160,LG-H970,1572085779168.5,-1.197,10.352,-1.061,41.1040582,16.8800951,False,NONE
2019-10-26 10:29:39.180,LG-H970,1572085779191.0,-3.345,10.778,-1.46,41.1040582,16.8800951,False,NONE
2019-10-26 10:29:39.200,LG-H970,1572085779207.75,-1.23,10.146,0.706,41.1040582,16.8800951,False,NONE
2019-10-26 10:29:39.220,LG-H970,1572085779229.8,-0.334,8.754,0.958,41.1040582,16.8800951,False,NONE
2019-10-26 10:29:39.240,LG-H970,1572085779252.0,-2.357,9.663,-0.815,41.1040582,16.8800951,False,NONE
2019-10-26 10:29:39.260,LG-H970,1572085779271.75,-3.852,10.7,-0.49,41.1040582,16.8800951,False,NONE
2019-10-26 10:29:39.280,LG-H970,1572085779291.5,-2.947,10.461,-0.094,41.1040582,16.8800951,False,NONE
2019-10-26 10:29:39.300,LG-H970,1572085779311.25,-0.76,10.663,0.98,41.1040582,16.8800951,False,NONE
2019-10-26 10:29:39.320,LG-H970,1572085779330.75,-0.572,10.283,0.223,41.1040582,16.8800951,False,NONE
2019-10-26 10:29:39.340,LG-H970,1572085779351.25,-1.745,10.031,-0.989,41.1040582,16.8800951,False,NONE
2019-10-26 10:29:39.360,LG-H970,1572085779370.75,-1.537,10.016,-1.486,41.1040582,16.8800951,False,NONE
2019-10-26 10:29:39.380,LG-H970,1572085779391.25,-0.238,9.512,-0.249,41.1040582,16.8800951,False,NONE
2019-10-26 10:29:39.400,LG-H970,1572085779409.75,0.794,9.794,0.929,41.1040582,16.8800951,False,NONE
2019-10-26 10:29:39.420,LG-H970,1572085779430.0,0.417,10.217,-0.51,41.1040582,16.8800951,False,NONE
2019-10-26 10:29:39.440,LG-H970,1572085779448.5,0.216,10.475,-0.234,41.1040582,16.8800951,False,NONE
2019-10-26 10:29:39.460,LG-H970,1572085779468.5,0.964,10.094,-0.57,41.1040582,16.8800951,False,NONE
2019-10-26 10:29:39.480,LG-H970,1572085779489.5,1.123,9.633,0.424,41.1040582,16.8800951,False,NONE
2019-10-26 10:29:39.500,LG-H970,1572085779508.75,1.274,10.217,0.098,41.1040582,16.8800951,False,NONE
2019-10-26 10:29:39.520,LG-H970,1572085779529.0,0.722,10.284,-0.844,41.1040582,16.8800951,False,NONE
2019-10-26 10:29:39.540,LG-H970,1572085779548.25,0.439,9.646,0.148,41.1040582,16.8800951,False,NONE
2019-10-26 10:29:39.560,LG-H970,1572085779568.5,-0.122,8.774,-0.232,41.1040582,16.8800951,False,NONE
2019-10-26 10:29:39.580,LG-H970,1572085779587.5,-0.576,10.073,-0.539,41.1040582,16.8800951,False,NONE
2019-10-26 10:29:39.600,LG-H970,1572085779610.2,-1.63,10.353,-0.309,41.1040582,16.8800951,False,NONE
2019-10-26 10:29:39.620,LG-H970,1572085779631.5,-1.348,9.123,-0.009,41.1040582,16.8800951,False,NONE
2019-10-26 10:29:39.640,LG-H970,1572085779651.25,0.144,9.379,-0.64,41.1040582,16.8800951,False,NONE
2019-10-26 10:29:39.660,LG-H970,1572085779671.25,-0.705,9.581,0.212,41.1040582,16.8800951,False,NONE
2019-10-26 10:29:39.680,LG-H970,1572085779689.6667,-0.451,11.098,0.568,41.1040582,16.8800951,False,NONE
2019-10-26 10:29:39.700,LG-H970,1572085779708.8,-0.864,9.822,-0.359,41.1040582,16.8800951,False,NONE
2019-10-26 10:29:39.720,LG-H970,1572085779730.25,0.196,8.135,-0.65,41.1040582,16.8800951,False,NONE
2019-10-26 10:29:39.740,LG-H970,1572085779750.5,0.678,6.903,-1.476,41.1040582,16.8800951,False,NONE
2019-10-26 10:29:39.760,LG-H970,1572085779770.25,0.352,7.091,-1.498,41.1040582,16.8800951,False,NONE
2019-10-26 10:29:39.780,LG-H970,1572085779790.0,0.578,5.743,-0.944,41.1040582,16.8800951,False,NONE
2019-10-26 10:29:39.800,LG-H970,1572085779809.75,-0.575,8.475,-2.713,41.1040582,16.8800951,False,NONE
2019-10-26 10:29:39.820,LG-H970,1572085779829.5,-1.894,11.324,2.745,41.1040582,16.8800951,False,NONE
2019-10-26 10:29:39.840,LG-H970,1572085779849.25,-1.638,9.93,0.099,41.1040582,16.8800951,False,NONE
2019-10-26 10:29:39.860,LG-H970,1572085779868.5,-1.167,11.981,0.355,41.1040582,16.8800951,False,NONE
2019-10-26 10:29:39.880,LG-H970,1572085779888.75,-0.628,11.07,-2.015,41.1040582,16.8800951,False,NONE
2019-10-26 10:29:39.900,LG-H970,1572085779907.75,-0.306,9.233,0.462,41.1040582,16.8800951,False,NONE
2019-10-26 10:29:39.920,LG-H970,1572085779927.5,-1.89,10.568,0.309,41.1040582,16.8800951,False,NONE
2019-10-26 10:29:39.940,LG-H970,1572085779949.8,-3.491,13.835,-0.463,41.1040582,16.8800951,False,NONE
2019-10-26 10:29:39.960,LG-H970,1572085779971.0,-2.981,13.282,1.393,41.1040582,16.8800951,False,NONE
2019-10-26 10:29:39.980,LG-H970,1572085779988.6,0.006,10.845,1.312,41.1040582,16.8800951,False,NONE
2019-10-26 10:29:40.000,LG-H970,1572085780010.0,-1.628,9.796,-0.359,41.1040582,16.8800951,False,NONE
2019-10-26 10:29:40.020,LG-H970,1572085780028.3333,-2.813,11.559,-3.157,41.1040582,16.8800951,False,NONE
2019-10-26 10:29:40.040,LG-H970,1572085780047.8,-1.344,11.574,-0.619,41.1040582,16.8800951,False,NONE
