UTC_timestamp,device_name,timestamp,x,y,z,lat,long,event,speed
2019-10-26 09:38:03.380,LG-H970,1572082683387.5,1.09,6.572,5.295,41.1077878,16.8811873,False,NONE
2019-10-26 09:38:03.400,LG-H970,1572082683407.5,9.066,15.203,1.782,41.1077878,16.8811873,False,NONE
2019-10-26 09:38:03.420,LG-H970,1572082683429.8,2.662,10.833,2.925,41.1077878,16.8811873,False,NONE
2019-10-26 09:38:03.440,LG-H970,1572082683450.3333,-0.261,7.857,2.007,41.1077878,16.8811873,False,NONE
2019-10-26 09:38:03.460,LG-H970,1572082683467.75,-0.301,10.265,-1.469,41.1077878,16.8811873,False,NONE
2019-10-26 09:38:03.480,LG-H970,1572082683489.4,-1.6,13.457,-0.419,41.1077878,16.8811873,False,NONE
2019-10-26 09:38:03.500,LG-H970,1572082683511.25,2.097,10.516,3.589,41.1077878,16.8811873,False,NONE
2019-10-26 09:38:03.520,LG-H970,1572082683530.0,6.842,13.072,4.142,41.1077878,16.8811873,False,NONE
2019-10-26 09:38:03.540,LG-H970,1572082683549.6,-0.065,12.439,2.893,41.1077878,16.8811873,False,NONE
2019-10-26 09:38:03.560,LG-H970,1572082683571.5,-4.801,13.902,-1.228,41.1077878,16.8811873,False,NONE
2019-10-26 09:38:03.580,LG-H970,1572082683591.0,1.68,11.04,1.157,41.1077878,16.8811873,False,NONE
2019-10-26 09:38:03.600,LG-H970,1572082683610.75,3.449,9.35,2.262,41.1077878,16.8811873,False,NONE
2019-10-26 09:38:03.620,LG-H970,1572082683629.75,-2.443,12.619,1.694,41.1077878,16.8811873,False,NONE
2019-10-26 09:38:03.640,LG-H970,1572082683650.0,-4.343,12.178,-1.63,41.1077878,16.8811873,False,NONE
2019-10-26 09:38:03.660,LG-H970,1572082683669.75,0.713,9.817,-1.143,41.1077878,16.8811873,False,NONE
2019-10-26 09:38:03.680,LG-H970,1572082683689.75,3.041,7.98,2.431,41.1077878,16.8811873,False,NONE
2019-10-26 09:38:03.700,LG-H970,1572082683709.0,-0.216,8.053,-2.272,41.1077878,16.8811873,False,NONE
2019-10-26 09:38:03.720,LG-H970,1572082683728.25,-2.567,10.067,-2.19,41.1077878,16.8811873,False,NONE
2019-10-26 09:38:03.740,LG-H970,1572082683747.75,-1.904,10.174,-1.799,41.1077878,16.8811873,False,NONE
2019-10-26 09:38:03.760,LG-H970,1572082683767.75,-0.325,7.623,0.919,41.1077878,16.8811873,False,NONE
2019-10-26 09:38:03.780,LG-H970,1572082683789.8,-0.321,5.086,2.732,41.1077878,16.8811873,False,NONE
2019-10-26 09:38:03.800,LG-H970,1572082683809.6667,-2.555,7.652,0.22,41.1077878,16.8811873,False,NONE
2019-10-26 09:38:03.820,LG-H970,1572082683827.5,-6.057,6.715,-0.665,41.1077878,16.8811873,False,NONE
2019-10-26 09:38:03.840,LG-H970,1572082683847.75,-7.033,4.516,0.605,41.1077878,16.8811873,False,NONE
2019-10-26 09:38:03.860,LG-H970,1572082683870.0,-2.075,9.888,3.085,41.1077878,16.8811873,False,NONE
2019-10-26 09:38:03.880,LG-H970,1572082683891.75,1.583,14.823,-5.196,41.1077878,16.8811873,False,NONE
2019-10-26 09:38:03.900,LG-H970,1572082683911.0,5.506,8.901,7.358,41.1077878,16.8811873,False,NONE
2019-10-26 09:38:03.920,LG-H970,1572082683931.0,7.785,7.575,-2.214,41.1077878,16.8811873,False,NONE
2019-10-26 09:38:03.940,LG-H970,1572082683953.3333,1.423,14.542,-2.262,41.1077878,16.8811873,False,NONE
2019-10-26 09:38:03.960,LG-H970,1572082683970.75,-2.061,11.559,-2.841,41.1077878,16.8811873,False,NONE
2019-10-26 09:38:03.980,LG-H970,1572082683990.0,2.565,4.5,-1.717,41.1077878,16.8811873,False,NONE
2019-10-26 09:38:04.000,LG-H970,1572082684009.75,11.553,11.937,6.554,41.1077878,16.8811873,False,NONE
2019-10-26 09:38:04.020,LG-H970,1572082684029.75,4.403,9.638,1.993,41.1077878,16.8811873,False,NONE
2019-10-26 09:38:04.040,LG-H970,1572082684050.25,-4.363,14.89,-1.397,41.1077878,16.8811873,False,NONE
2019-10-26 09:38:04.060,LG-H970,1572082684069.75,-2.851,15.291,-1.914,41.1077878,16.8811873,False,NONE
2019-10-26 09:38:04.080,LG-H970,1572082684089.0,4.312,11.614,1.677,41.1077878,16.8811873,False,NONE
2019-10-26 09:38:04.100,LG-H970,1572082684108.5,6.144,9.202,4.768,41.1077878,16.8811873,False,NONE
2019-10-26 09:38:04.120,LG-H970,1572082684128.0,-2.615,12.12,-1.555,41.1077878,16.8811873,False,NONE
2019-10-26 09:38:04.140,LG-H970,1572082684147.75,-5.396,15.822,-3.398,41.1077878,16.8811873,False,NONE
2019-10-26 09:38:04.160,LG-H970,1572082684169.8,-0.056,11.242,2.469,41.1077878,16.8811873,False,NONE
2019-10-26 09:38:04.180,LG-H970,1572082684192.25,2.79,7.551,5.724,41.1077878,16.8811873,False,NONE
2019-10-26 09:38:04.200,LG-H970,1572082684212.25,-4.46,10.48,0.741,41.1077878,16.8811873,False,NONE
2019-10-26 09:38:04.220,LG-H970,1572082684231.75,-8.411,14.088,-2.856,41.1077878,16.8811873,False,NONE
2019-10-26 09:38:04.240,LG-H970,1572082684251.5,-3.261,9.869,0.447,41.1077878,16.8811873,False,NONE
2019-10-26 09:38:04.260,LG-H970,1572082684271.0,4.469,4.926,3.064,41.1077878,16.8811873,False,NONE
2019-10-26 09:38:04.280,LG-H970,1572082684290.5,1.556,6.8,0.559,41.1077878,16.8811873,False,NONE
2019-10-26 09:38:04.300,LG-H970,1572082684310.5,-4.028,12.039,-0.845,41.1077878,16.8811873,False,NONE
2019-10-26 09:38:04.320,LG-H970,1572082684330.5,-5.018,10.945,1.178,41.1077878,16.8811873,False,NONE
2019-10-26 09:38:04.340,LG-H970,1572082684350.5,1.166,8.358,4.814,41.1077878,16.8811873,False,NONE
2019-10-26 09:38:04.360,LG-H970,1572082684368.5,1.963,6.904,1.572,41.1077878,16.8811873,False,NONE
2019-10-26 09:38:04.380,LG-H970,1572082684388.5,-2.293,9.893,-2.956,41.1077878,16.8811873,False,NONE
2019-10-26 09:38:04.400,LG-H970,1572082684408.5,-3.459,10.063,-2.667,41.1077878,16.8811873,False,NONE
2019-10-26 09:38:04.420,LG-H970,1572082684429.0,-0.396,5.566,-0.281,41.1077878,16.8811873,False,NONE
2019-10-26 09:38:04.440,LG-H970,1572082684448.0,3.492,9.15,1.174,41.1077878,16.8811873,False,NONE
2019-10-26 09:38:04.460,LG-H970,1572082684467.5,-1.203,8.553,-0.441,41.1077878,16.8811873,False,NONE
2019-10-26 09:38:04.480,LG-H970,1572082684489.2,-3.581,11.329,-0.677,41.1077878,16.8811873,False,NONE
2019-10-26 09:38:04.500,LG-H970,1572082684511.75,2.222,8.935,-1.093,41.1077878,16.8811873,False,NONE
2019-10-26 09:38:04.520,LG-H970,1572082684531.75,3.737,7.383,0.494,41.1077878,16.8811873,False,NONE
2019-10-26 09:38:04.540,LG-H970,1572082684551.5,-0.128,10.395,-2.645,41.1077878,16.8811873,False,NONE
2019-10-26 09:38:04.560,LG-H970,1572082684571.5,-1.2,13.393,-1.538,41.1077878,16.8811873,False,NONE
2019-10-26 09:38:04.580,LG-H970,1572082684591.0,1.067,8.269,-0.379,41.1077878,16.8811873,False,NONE
2019-10-26 09:38:04.600,LG-H970,1572082684610.75,4.04,10.914,2.968,41.1077878,16.8811873,False,NONE
2019-10-26 09:38:04.620,LG-H970,1572082684630.5,-0.389,11.878,-1.808,41.1077878,16.8811873,False,NONE
2019-10-26 09:38:04.640,LG-H970,1572082684650.0,-1.184,12.075,-2.064,41.1077878,16.8811873,False,NONE
2019-10-26 09:38:04.660,LG-H970,1572082684669.5,2.374,7.308,-0.537,41.1077878,16.8811873,False,NONE
2019-10-26 09:38:04.680,LG-H970,1572082684689.5,3.75,7.69,3.165,41.1077878,16.8811873,False,NONE
2019-10-26 09:38:04.700,LG-H970,1572082684709.25,-0.511,9.633,-0.2,41.1077878,16.8811873,False,NONE
2019-10-26 09:38:04.720,LG-H970,1572082684728.75,-6.671,10.73,-1.791,41.1077878,16.8811873,False,NONE
2019-10-26 09:38:04.740,LG-H970,1572082684748.5,-1.165,14.034,-0.437,41.1077878,16.8811873,False,NONE
2019-10-26 09:38:04.760,LG-H970,1572082684768.5,2.654,6.593,2.017,41.1077878,16.8811873,False,NONE
2019-10-26 09:38:04.780,LG-H970,1572082684788.5,2.89,8.166,5.566,41.1077878,16.8811873,False,NONE
2019-10-26 09:38:04.800,LG-H970,1572082684808.75,-3.36,10.58,-1.126,41.1077878,16.8811873,False,NONE
2019-10-26 09:38:04.820,LG-H970,1572082684826.3333,-3.341,15.171,1.072,41.1077878,16.8811873,False,NONE
2019-10-26 09:38:04.840,LG-H970,1572082684850.6,0.151,7.783,2.708,41.1077878,16.8811873,False,NONE
2019-10-26 09:38:04.860,LG-H970,1572082684864.0,1.539,6.465,3.287,41.1077878,16.8811873,False,NONE
2019-10-26 09:38:04.880,LG-H970,1572082684889.4,-2.159,11.03,-1.484,41.1077878,16.8811873,True,NONE
2019-10-26 09:38:04.900,LG-H970,1572082684910.0,-3.426,12.326,-1.001,41.1077878,16.8811873,False,NONE
2019-10-26 09:38:04.920,LG-H970,1572082684930.5,0.901,9.172,1.764,41.1077878,16.8811873,False,NONE
2019-10-26 09:38:04.940,LG-H970,1572082684951.0,2.101,9.165,2.539,41.1077878,16.8811873,False,NONE
2019-10-26 09:38:04.960,LG-H970,1572082684970.75,-2.828,10.583,0.68,41.1077878,16.8811873,False,NONE
2019-10-26 09:38:04.980,LG-H970,1572082684990.5,-5.335,12.257,-2.784,41.1077878,16.8811873,False,NONE
2019-10-26 09:38:05.000,LG-H970,1572082685010.5,-1.581,8.837,-0.956,41.1077878,16.8811873,False,NONE
2019-10-26 09:38:05.020,LG-H970,1572082685030.5,3.134,6.679,0.761,41.1077878,16.8811873,False,NONE
2019-10-26 09:38:05.040,LG-H970,1572082685050.0,0.373,8.398,0.404,41.1077878,16.8811873,False,NONE
2019-10-26 09:38:05.060,LG-H970,1572082685069.5,-5.479,10.78,-1.206,41.1077878,16.8811873,False,NONE
2019-10-26 09:38:05.080,LG-H970,1572082685089.0,-4.53,13.487,0.126,41.1077878,16.8811873,False,NONE
2019-10-26 09:38:05.100,LG-H970,1572082685108.5,0.622,10.244,0.103,41.1077878,16.8811873,False,NONE
2019-10-26 09:38:05.120,LG-H970,1572082685128.5,2.224,9.612,3.085,41.1077878,16.8811873,False,NONE
2019-10-26 09:38:05.140,LG-H970,1572082685148.5,-0.057,10.114,-2.076,41.1077878,16.8811873,False,NONE
2019-10-26 09:38:05.160,LG-H970,1572082685168.0,-2.372,11.255,-1.976,41.1077878,16.8811873,False,NONE
2019-10-26 09:38:05.180,LG-H970,1572082685187.5,-0.733,9.919,-1.579,41.1077878,16.8811873,False,NONE
2019-10-26 09:38:05.200,LG-H970,1572082685208.0,2.983,10.587,1.218,41.1077878,16.8811873,False,NONE
2019-10-26 09:38:05.220,LG-H970,1572082685229.4,2.858,9.962,2.529,41.1077878,16.8811873,False,NONE
2019-10-26 09:38:05.240,LG-H970,1572082685251.75,-1.605,11.416,-0.519,41.1077878,16.8811873,False,NONE
2019-10-26 09:38:05.260,LG-H970,1572082685269.3333,-5.736,11.357,-2.722,41.1077878,16.8811873,False,NONE
2019-10-26 09:38:05.280,LG-H970,1572082685286.75,-1.34,11.83,0.745,41.1077878,16.8811873,False,NONE
2019-10-26 09:38:05.300,LG-H970,1572082685309.0,4.15,6.191,0.081,41.1077878,16.8811873,False,NONE
2019-10-26 09:38:05.320,LG-H970,1572082685331.0,1.263,7.498,1.186,41.1077878,16.8811873,False,NONE
2019-10-26 09:38:05.340,LG-H970,1572082685348.6667,-2.337,10.105,-3.999,41.1077878,16.8811873,False,NONE
2019-10-26 09:38:05.360,LG-H970,1572082685368.4,-2.327,9.973,-0.313,41.1077878,16.8811873,False,NONE
2019-10-26 09:38:05.380,LG-H970,1572082685389.0,2.196,8.726,0.377,41.1077878,16.8811873,False,NONE
2019-10-26 09:38:05.400,LG-H970,1572082685408.75,2.239,9.854,1.609,41.1077878,16.8811873,False,NONE
2019-10-26 09:38:05.420,LG-H970,1572082685428.5,-2.785,10.243,-2.233,41.1077878,16.8811873,False,NONE
2019-10-26 09:38:05.440,LG-H970,1572082685449.0,-2.834,10.367,-0.045,41.1077878,16.8811873,False,NONE
2019-10-26 09:38:05.460,LG-H970,1572082685469.0,1.457,7.997,-0.73,41.1077878,16.8811873,False,NONE
2019-10-26 09:38:05.480,LG-H970,1572082685489.4,0.357,8.79,0.942,41.1077878,16.8811873,False,NONE
2019-10-26 09:38:05.500,LG-H970,1572082685510.0,-3.59,11.343,-2.638,41.1077878,16.8811873,False,NONE
2019-10-26 09:38:05.520,LG-H970,1572082685527.5,-4.649,11.82,-2.438,41.1077878,16.8811873,False,NONE
2019-10-26 09:38:05.540,LG-H970,1572082685550.0,-0.501,8.942,0.803,41.1077878,16.8811873,False,NONE
2019-10-26 09:38:05.560,LG-H970,1572082685570.0,2.212,7.64,0.169,41.1077878,16.8811873,False,NONE
2019-10-26 09:38:05.580,LG-H970,1572082685590.0,-0.398,10.511,0.696,41.1077878,16.8811873,False,NONE
2019-10-26 09:38:05.600,LG-H970,1572082685612.0,-3.79,13.085,-2.12,41.1077878,16.8811873,False,NONE
2019-10-26 09:38:05.620,LG-H970,1572082685631.25,-1.269,10.613,1.375,41.1077878,16.8811873,False,NONE
2019-10-26 09:38:05.640,LG-H970,1572082685651.5,2.692,7.423,0.71,41.1077878,16.8811873,False,NONE
2019-10-26 09:38:05.660,LG-H970,1572082685671.0,1.416,10.779,0.037,41.1077878,16.8811873,False,NONE
2019-10-26 09:38:05.680,LG-H970,1572082685690.5,-3.338,10.369,-3.69,41.1077878,16.8811873,False,NONE
2019-10-26 09:38:05.700,LG-H970,1572082685710.25,-1.677,10.353,-0.211,41.1077878,16.8811873,False,NONE
2019-10-26 09:38:05.720,LG-H970,1572082685730.0,1.889,8.261,-0.157,41.1077878,16.8811873,False,NONE
2019-10-26 09:38:05.740,LG-H970,1572082685750.25,2.013,10.016,1.828,41.1077878,16.8811873,False,NONE
2019-10-26 09:38:05.760,LG-H970,1572082685769.25,-0.913,10.386,-2.927,41.1077878,16.8811873,False,NONE
2019-10-26 09:38:05.780,LG-H970,1572082685788.5,-2.546,10.568,-1.191,41.1077878,16.8811873,False,NONE
2019-10-26 09:38:05.800,LG-H970,1572082685808.75,-0.993,9.301,-2.018,41.1077878,16.8811873,False,NONE
2019-10-26 09:38:05.820,LG-H970,1572082685829.0,1.232,10.802,0.014,41.1077878,16.8811873,False,NONE
2019-10-26 09:38:05.840,LG-H970,1572082685848.25,-0.381,9.394,0.936,41.1077878,16.8811873,False,NONE
2019-10-26 09:38:05.860,LG-H970,1572082685867.5,-2.04,9.187,-1.077,41.1077878,16.8811873,False,NONE
2019-10-26 09:38:05.880,LG-H970,1572082685889.2,-0.943,8.225,-2.006,41.1077878,16.8811873,False,NONE
2019-10-26 09:38:05.900,LG-H970,1572082685911.5,0.488,5.49,-0.944,41.1077878,16.8811873,False,NONE
2019-10-26 09:38:05.920,LG-H970,1572082685932.5,1.007,9.233,-0.036,41.1077878,16.8811873,False,NONE
2019-10-26 09:38:05.940,LG-H970,1572082685948.3333,-1.56,9.86,-0.743,41.1077878,16.8811873,False,NONE
2019-10-26 09:38:05.960,LG-H970,1572082685968.6,-1.698,12.712,0.242,41.1077878,16.8811873,False,NONE
2019-10-26 09:38:05.980,LG-H970,1572082685990.5,-1.155,8.299,0.327,41.1077878,16.8811873,False,NONE
2019-10-26 09:38:06.000,LG-H970,1572082686010.75,1.004,9.125,0.124,41.1077878,16.8811873,False,NONE
2019-10-26 09:38:06.020,LG-H970,1572082686030.25,-1.44,7.554,-2.283,41.1077878,16.8811873,False,NONE
2019-10-26 09:38:06.040,LG-H970,1572082686050.0,-2.546,11.664,-1.516,41.1077878,16.8811873,False,NONE
2019-10-26 09:38:06.060,LG-H970,1572082686069.5,-0.927,9.314,-1.224,41.1077878,16.8811873,False,NONE
2019-10-26 09:38:06.080,LG-H970,1572082686089.0,3.05,10.304,2.197,41.1077878,16.8811873,False,NONE
2019-10-26 09:38:06.100,LG-H970,1572082686108.5,0.786,8.712,0.111,41.1077878,16.8811873,False,NONE
2019-10-26 09:38:06.120,LG-H970,1572082686128.5,-2.302,12.39,-2.107,41.1077878,16.8811873,False,NONE
2019-10-26 09:38:06.140,LG-H970,1572082686148.5,-1.522,12.506,-2.074,41.1077878,16.8811873,False,NONE
2019-10-26 09:38:06.160,LG-H970,1572082686168.5,1.022,8.653,-0.9,41.1077878,16.8811873,False,NONE
2019-10-26 09:38:06.180,LG-H970,1572082686188.5,2.318,9.372,2.426,41.1077878,16.8811873,False,NONE
2019-10-26 09:38:06.200,LG-H970,1572082686208.0,1.374,10.133,-1.635,41.1077878,16.8811873,False,NONE
2019-10-26 09:38:06.220,LG-H970,1572082686228.0,-0.163,13.223,-2.236,41.1077878,16.8811873,False,NONE
2019-10-26 09:38:06.240,LG-H970,1572082686248.0,-1.246,10.425,-0.586,41.1077878,16.8811873,False,NONE
2019-10-26 09:38:06.260,LG-H970,1572082686270.0,1.619,10.166,0.559,41.1077878,16.8811873,False,NONE
2019-10-26 09:38:06.280,LG-H970,1572082686289.3333,0.536,9.216,1.341,41.1077878,16.8811873,False,NONE
2019-10-26 09:38:06.300,LG-H970,1572082686307.25,-1.951,10.231,-1.621,41.1077878,16.8811873,False,NONE
2019-10-26 09:38:06.320,LG-H970,1572082686327.25,-2.862,10.466,-1.664,41.1077878,16.8811873,False,NONE
2019-10-26 09:38:06.340,LG-H970,1572082686345.6667,-0.594,9.512,-1.454,41.1077878,16.8811873,False,NONE
2019-10-26 09:38:06.360,LG-H970,1572082686364.3333,0.458,8.689,0.017,41.1077878,16.8811873,False,NONE
