UTC_timestamp,device_name,timestamp,x,y,z,lat,long,event,speed
2019-10-26 18:54:28.180,LG-H970,1572116068190.5,-1.762,8.206,-0.252,41.1027598,16.8757367,False,NONE
2019-10-26 18:54:28.200,LG-H970,1572116068211.0,-1.432,9.388,-1.218,41.1027598,16.8757367,False,NONE
2019-10-26 18:54:28.220,LG-H970,1572116068231.5,-1.651,9.963,-0.393,41.1027598,16.8757367,False,NONE
2019-10-26 18:54:28.240,LG-H970,1572116068250.5,-0.874,10.261,1.712,41.1027598,16.8757367,False,NONE
2019-10-26 18:54:28.260,LG-H970,1572116068269.75,-0.406,10.319,1.533,41.1027598,16.8757367,False,NONE
2019-10-26 18:54:28.280,LG-H970,1572116068289.25,-1.014,10.938,-0.059,41.1027598,16.8757367,False,NONE
2019-10-26 18:54:28.300,LG-H970,1572116068310.25,-2.368,9.476,0.695,41.1027598,16.8757367,False,NONE
2019-10-26 18:54:28.320,LG-H970,1572116068327.0,-1.27,8.405,-1.904,41.1027598,16.8757367,False,NONE
2019-10-26 18:54:28.340,LG-H970,1572116068341.5,-0.658,7.936,-1.306,41.1027598,16.8757367,False,NONE
2019-10-26 18:54:28.360,LG-H970,1572116068369.1667,-0.87,9.854,0.932,41.1027598,16.8757367,False,NONE
2019-10-26 18:54:28.380,LG-H970,1572116068391.3333,-0.969,11.646,2.224,41.1027598,16.8757367,False,NONE
2019-10-26 18:54:28.400,LG-H970,1572116068408.75,-0.493,10.844,0.726,41.1027598,16.8757367,False,NONE
2019-10-26 18:54:28.420,LG-H970,1572116068428.5,-1.016,9.881,0.632,41.1027598,16.8757367,False,NONE
2019-10-26 18:54:28.440,LG-H970,1572116068448.5,-0.818,9.323,-0.449,41.1027598,16.8757367,False,NONE
2019-10-26 18:54:28.460,LG-H970,1572116068470.2,-1.178,8.087,-0.107,41.1027598,16.8757367,False,NONE
2019-10-26 18:54:28.480,LG-H970,1572116068490.3333,-0.261,10.924,0.206,41.1027598,16.8757367,False,NONE
2019-10-26 18:54:28.500,LG-H970,1572116068507.25,-1.456,10.646,1.05,41.1027598,16.8757367,False,NONE
2019-10-26 18:54:28.520,LG-H970,1572116068528.5,-1.035,11.349,1.735,41.1027598,16.8757367,False,NONE
2019-10-26 18:54:28.540,LG-H970,1572116068551.75,-0.76,10.082,1.057,41.1027598,16.8757367,False,NONE
2019-10-26 18:54:28.560,LG-H970,1572116068569.3333,-0.21,9.596,-0.997,41.1027598,16.8757367,False,NONE
2019-10-26 18:54:28.580,LG-H970,1572116068589.6,-1.16,8.75,0.487,41.1027598,16.8757367,False,NONE
2019-10-26 18:54:28.600,LG-H970,1572116068609.0,-0.839,9.595,-0.359,41.1027598,16.8757367,False,NONE
2019-10-26 18:54:28.620,LG-H970,1572116068628.8,-0.99,10.373,1.179,41.1027598,16.8757367,False,NONE
2019-10-26 18:54:28.640,LG-H970,1572116068650.25,-0.675,10.879,0.618,41.1027598,16.8757367,False,NONE
2019-10-26 18:54:28.660,LG-H970,1572116068671.0,-1.273,10.408,1.488,41.1027598,16.8757367,False,NONE
2019-10-26 18:54:28.680,LG-H970,1572116068691.25,-1.248,9.251,-0.704,41.1027598,16.8757367,False,NONE
2019-10-26 18:54:28.700,LG-H970,1572116068707.3333,-1.081,9.453,-0.596,41.1027598,16.8757367,False,NONE
2019-10-26 18:54:28.720,LG-H970,1572116068725.75,-1.434,8.547,0.085,41.1027598,16.8757367,False,NONE
2019-10-26 18:54:28.740,LG-H970,1572116068747.2,-0.922,9.579,0.803,41.1027598,16.8757367,False,NONE
2019-10-26 18:54:28.760,LG-H970,1572116068770.75,-1.317,10.035,1.769,41.1027598,16.8757367,False,NONE
2019-10-26 18:54:28.780,LG-H970,1572116068789.75,-1.401,10.404,-0.503,41.1027598,16.8757367,False,NONE
2019-10-26 18:54:28.800,LG-H970,1572116068809.0,-1.335,10.123,0.531,41.1027598,16.8757367,False,NONE
2019-10-26 18:54:28.820,LG-H970,1572116068829.25,-0.43,9.28,-0.299,41.1027598,16.8757367,False,NONE
2019-10-26 18:54:28.840,LG-H970,1572116068849.0,-0.537,10.332,1.109,41.1027598,16.8757367,False,NONE
2019-10-26 18:54:28.860,LG-H970,1572116068869.0,-1.569,10.537,0.686,41.1027598,16.8757367,False,NONE
2019-10-26 18:54:28.880,LG-H970,1572116068888.5,-1.483,10.634,1.321,41.1027598,16.8757367,False,NONE
2019-10-26 18:54:28.900,LG-H970,1572116068908.25,-1.327,9.065,0.008,41.1027598,16.8757367,False,NONE
2019-10-26 18:54:28.920,LG-H970,1572116068928.0,-0.775,9.776,0.92,41.1027598,16.8757367,False,NONE
2019-10-26 18:54:28.940,LG-H970,1572116068948.25,-1.079,10.447,-0.225,41.1027598,16.8757367,False,NONE
2019-10-26 18:54:28.960,LG-H970,1572116068967.25,-2.024,10.558,0.846,41.1027598,16.8757367,False,NONE
2019-10-26 18:54:28.980,LG-H970,1572116068988.25,-1.459,10.272,0.55,41.1027598,16.8757367,False,NONE
2019-10-26 18:54:29.000,LG-H970,1572116069008.5,-0.426,8.794,0.771,41.1027598,16.8757367,False,NONE
2019-10-26 18:54:29.020,LG-H970,1572116069029.8,-0.166,9.61,0.78,41.1027598,16.8757367,False,NONE
2019-10-26 18:54:29.040,LG-H970,1572116069049.6667,-1.693,10.801,0.185,41.1027598,16.8757367,False,NONE
2019-10-26 18:54:29.060,LG-H970,1572116069069.6,-2.204,11.023,0.703,41.1027598,16.8757367,False,NONE
2019-10-26 18:54:29.080,LG-H970,1572116069091.25,-0.917,10.22,1.057,41.1027598,16.8757367,False,NONE
2019-10-26 18:54:29.100,LG-H970,1572116069109.6667,-1.527,7.742,1.177,41.1027598,16.8757367,False,NONE
2019-10-26 18:54:29.120,LG-H970,1572116069127.5,-0.549,9.821,-0.111,41.1027598,16.8757367,False,NONE
2019-10-26 18:54:29.140,LG-H970,1572116069148.2,-1.455,10.125,-0.433,41.1027598,16.8757367,False,NONE
2019-10-26 18:54:29.160,LG-H970,1572116069170.25,-1.146,10.245,0.51,41.1027598,16.8757367,False,NONE
2019-10-26 18:54:29.180,LG-H970,1572116069190.25,-0.342,10.024,1.224,41.1027598,16.8757367,False,NONE
2019-10-26 18:54:29.200,LG-H970,1572116069210.0,-0.437,10.013,0.556,41.1027598,16.8757367,False,NONE
2019-10-26 18:54:29.220,LG-H970,1572116069230.25,-1.578,9.573,-0.147,41.1027598,16.8757367,False,NONE
2019-10-26 18:54:29.240,LG-H970,1572116069249.75,-1.717,9.815,0.048,41.1027598,16.8757367,False,NONE
2019-10-26 18:54:29.260,LG-H970,1572116069268.75,-1.173,9.585,0.322,41.1027598,16.8757367,False,NONE
2019-10-26 18:54:29.280,LG-H970,1572116069288.75,-0.698,9.587,0.919,41.1027598,16.8757367,False,NONE
2019-10-26 18:54:29.300,LG-H970,1572116069309.75,-1.326,9.682,1.159,41.1027598,16.8757367,False,NONE
2019-10-26 18:54:29.320,LG-H970,1572116069330.0,-1.767,10.053,-0.196,41.1027598,16.8757367,False,NONE
2019-10-26 18:54:29.340,LG-H970,1572116069349.25,-1.478,10.195,0.154,41.1027598,16.8757367,False,NONE
2019-10-26 18:54:29.360,LG-H970,1572116069368.75,-0.853,9.884,0.466,41.1027598,16.8757367,False,NONE
2019-10-26 18:54:29.380,LG-H970,1572116069388.5,-0.759,9.542,0.646,41.1027598,16.8757367,False,NONE
2019-10-26 18:54:29.400,LG-H970,1572116069408.75,-1.277,9.682,0.725,41.1027598,16.8757367,False,NONE
2019-10-26 18:54:29.420,LG-H970,1572116069430.8,-1.901,9.94,-0.058,41.1027598,16.8757367,False,NONE
2019-10-26 18:54:29.440,LG-H970,1572116069450.3333,-1.731,9.797,0.101,41.1027598,16.8757367,False,NONE
2019-10-26 18:54:29.460,LG-H970,1572116069470.0,-0.886,9.599,0.897,41.1027598,16.8757367,False,NONE
2019-10-26 18:54:29.480,LG-H970,1572116069492.5,-0.693,9.47,0.749,41.1027598,16.8757367,False,NONE
2019-10-26 18:54:29.500,LG-H970,1572116069510.3333,-1.278,10.083,0.835,41.1027598,16.8757367,False,NONE
2019-10-26 18:54:29.520,LG-H970,1572116069529.4,-1.805,10.306,0.305,41.1027598,16.8757367,False,NONE
2019-10-26 18:54:29.540,LG-H970,1572116069552.0,-1.662,9.495,0.367,41.1027598,16.8757367,False,NONE
2019-10-26 18:54:29.560,LG-H970,1572116069569.3333,-1.001,9.775,1.168,41.1027598,16.8757367,False,NONE
2019-10-26 18:54:29.580,LG-H970,1572116069589.6,-1.515,9.491,0.443,41.1027598,16.8757367,False,NONE
2019-10-26 18:54:29.600,LG-H970,1572116069612.5,-1.155,10.37,-0.092,41.1027598,16.8757367,False,NONE
2019-10-26 18:54:29.620,LG-H970,1572116069630.25,-0.688,10.186,0.684,41.1027598,16.8757367,False,NONE
2019-10-26 18:54:29.640,LG-H970,1572116069650.0,-0.694,9.086,0.438,41.1027598,16.8757367,False,NONE
2019-10-26 18:54:29.660,LG-H970,1572116069670.25,-1.024,9.778,1.292,41.1027598,16.8757367,False,NONE
2019-10-26 18:54:29.680,LG-H970,1572116069689.25,-1.685,9.776,-0.167,41.1027598,16.8757367,False,NONE
2019-10-26 18:54:29.700,LG-H970,1572116069709.5,-1.988,9.963,0.623,41.1027598,16.8757367,False,NONE
2019-10-26 18:54:29.720,LG-H970,1572116069729.6667,-1.105,10.046,0.226,41.1027598,16.8757367,False,NONE
2019-10-26 18:54:29.740,LG-H970,1572116069748.75,-0.448,9.828,0.95,41.1027598,16.8757367,False,NONE
2019-10-26 18:54:29.760,LG-H970,1572116069769.25,-0.994,10.353,0.811,41.1027598,16.8757367,False,NONE
2019-10-26 18:54:29.780,LG-H970,1572116069788.25,-1.753,10.305,-0.076,41.1027598,16.8757367,False,NONE
2019-10-26 18:54:29.800,LG-H970,1572116069810.3333,-0.906,9.682,-0.201,41.1027598,16.8757367,False,NONE
2019-10-26 18:54:29.820,LG-H970,1572116069836.0,-0.416,9.236,0.384,41.1027598,16.8757367,False,NONE
2019-10-26 18:54:29.840,LG-H970,1572116069850.0,-1.543,9.418,0.522,41.1027598,16.8757367,False,NONE
2019-10-26 18:54:29.860,LG-H970,1572116069869.0,-2.248,10.762,0.823,41.1027598,16.8757367,False,NONE
2019-10-26 18:54:29.880,LG-H970,1572116069888.0,-2.164,9.838,0.21,41.1027598,16.8757367,False,NONE
2019-10-26 18:54:29.900,LG-H970,1572116069911.5,-0.571,8.942,0.437,41.1027598,16.8757367,False,NONE
2019-10-26 18:54:29.920,LG-H970,1572116069931.75,-0.151,9.264,0.921,41.1027598,16.8757367,False,NONE
2019-10-26 18:54:29.940,LG-H970,1572116069952.25,-1.06,9.353,-0.437,41.1027598,16.8757367,False,NONE
2019-10-26 18:54:29.960,LG-H970,1572116069969.3333,-1.666,10.735,0.524,41.1027598,16.8757367,False,NONE
2019-10-26 18:54:29.980,LG-H970,1572116069986.75,-1.835,10.772,0.44,41.1027598,16.8757367,False,NONE
2019-10-26 18:54:30.000,LG-H970,1572116070009.0,-1.075,10.216,1.285,41.1027598,16.8757367,False,NONE
2019-10-26 18:54:30.020,LG-H970,1572116070030.5,-0.21,9.818,0.404,41.1027598,16.8757367,False,NONE
2019-10-26 18:54:30.040,LG-H970,1572116070050.5,-1.212,9.569,0.082,41.1027598,16.8757367,False,NONE
2019-10-26 18:54:30.060,LG-H970,1572116070070.25,-2.016,10.151,0.254,41.1027598,16.8757367,False,NONE
2019-10-26 18:54:30.080,LG-H970,1572116070090.75,-1.415,10.046,0.719,41.1027598,16.8757367,False,NONE
2019-10-26 18:54:30.100,LG-H970,1572116070107.6667,-0.408,8.972,0.541,41.1027598,16.8757367,False,NONE
2019-10-26 18:54:30.120,LG-H970,1572116070131.75,-0.646,9.326,0.744,41.1027598,16.8757367,False,NONE
2019-10-26 18:54:30.140,LG-H970,1572116070150.0,-1.932,9.931,-0.735,41.1027598,16.8757367,False,NONE
2019-10-26 18:54:30.160,LG-H970,1572116070169.75,-1.822,10.681,0.427,41.1027598,16.8757367,False,NONE
2019-10-26 18:54:30.180,LG-H970,1572116070189.75,-0.799,10.299,1.214,41.1027598,16.8757367,False,NONE
2019-10-26 18:54:30.200,LG-H970,1572116070209.0,0.123,9.986,1.194,41.1027598,16.8757367,False,NONE
2019-10-26 18:54:30.220,LG-H970,1572116070230.8,-0.804,9.564,0.463,41.1027598,16.8757367,False,NONE
2019-10-26 18:54:30.240,LG-H970,1572116070251.0,-1.685,9.443,-0.713,41.1027598,16.8757367,False,NONE
2019-10-26 18:54:30.260,LG-H970,1572116070268.75,-1.662,10.105,0.283,41.1027598,16.8757367,False,NONE
2019-10-26 18:54:30.280,LG-H970,1572116070288.5,-1.118,9.758,0.652,41.1027598,16.8757367,False,NONE
2019-10-26 18:54:30.300,LG-H970,1572116070308.5,-0.55,10.007,1.142,41.1027598,16.8757367,False,NONE
2019-10-26 18:54:30.320,LG-H970,1572116070328.0,-1.01,9.686,0.647,41.1027598,16.8757367,False,NONE
2019-10-26 18:54:30.340,LG-H970,1572116070347.75,-1.216,9.829,-0.302,41.1027598,16.8757367,False,NONE
2019-10-26 18:54:30.360,LG-H970,1572116070369.8,-1.192,9.635,0.294,41.1027598,16.8757367,False,NONE
2019-10-26 18:54:30.380,LG-H970,1572116070392.75,-0.73,9.474,0.164,41.1027598,16.8757367,False,NONE
2019-10-26 18:54:30.400,LG-H970,1572116070411.3333,-0.427,9.903,1.374,41.1027598,16.8757367,False,NONE
2019-10-26 18:54:30.420,LG-H970,1572116070427.25,-0.98,10.019,0.751,41.1027598,16.8757367,False,NONE
2019-10-26 18:54:30.440,LG-H970,1572116070447.0,-1.619,10.459,0.015,41.1027598,16.8757367,False,NONE
2019-10-26 18:54:30.460,LG-H970,1572116070469.2,-1.12,10.292,0.296,41.1027598,16.8757367,False,NONE
2019-10-26 18:54:30.480,LG-H970,1572116070491.75,-0.475,9.491,0.331,41.1027598,16.8757367,False,NONE
2019-10-26 18:54:30.500,LG-H970,1572116070509.3333,-0.677,9.932,1.831,41.1027598,16.8757367,False,NONE
2019-10-26 18:54:30.520,LG-H970,1572116070528.6,-1.198,10.034,0.321,41.1027598,16.8757367,False,NONE
2019-10-26 18:54:30.540,LG-H970,1572116070551.0,-1.416,9.818,0.145,41.1027598,16.8757367,False,NONE
2019-10-26 18:54:30.560,LG-H970,1572116070570.5,-0.961,9.387,0.166,41.1027598,16.8757367,False,NONE
2019-10-26 18:54:30.580,LG-H970,1572116070590.5,-0.563,9.171,0.002,41.1027598,16.8757367,False,NONE
2019-10-26 18:54:30.600,LG-H970,1572116070610.75,-0.499,10.328,1.083,41.1027598,16.8757367,False,NONE
2019-10-26 18:54:30.620,LG-H970,1572116070631.0,-1.371,9.996,0.274,41.1027598,16.8757367,False,NONE
2019-10-26 18:54:30.640,LG-H970,1572116070650.0,-1.34,10.42,0.605,41.1027598,16.8757367,False,NONE
2019-10-26 18:54:30.660,LG-H970,1572116070669.6667,-1.029,9.378,-0.129,41.1027598,16.8757367,False,NONE
2019-10-26 18:54:30.680,LG-H970,1572116070689.0,-0.074,9.26,0.5,41.1027598,16.8757367,False,NONE
2019-10-26 18:54:30.700,LG-H970,1572116070708.75,-0.542,9.654,0.69,41.1027598,16.8757367,False,NONE
2019-10-26 18:54:30.720,LG-H970,1572116070728.5,-1.711,10.445,0.576,41.1027598,16.8757367,False,NONE
2019-10-26 18:54:30.740,LG-H970,1572116070747.25,-1.742,10.917,1.212,41.1027598,16.8757367,False,NONE
2019-10-26 18:54:30.760,LG-H970,1572116070767.3333,-1.317,8.815,-0.038,41.1027598,16.8757367,False,NONE
2019-10-26 18:54:30.780,LG-H970,1572116070788.25,-0.623,9.114,0.187,41.1027598,16.8757367,False,NONE
2019-10-26 18:54:30.800,LG-H970,1572116070808.25,-1.189,9.137,-0.495,41.1027598,16.8757367,False,NONE
2019-10-26 18:54:30.820,LG-H970,1572116070830.0,-1.029,10.319,0.273,41.1027598,16.8757367,False,NONE
2019-10-26 18:54:30.840,LG-H970,1572116070850.0,-0.807,10.508,1.788,41.1027598,16.8757367,False,NONE
2019-10-26 18:54:30.860,LG-H970,1572116070867.75,-0.397,9.817,0.736,41.1027598,16.8757367,False,NONE
2019-10-26 18:54:30.880,LG-H970,1572116070887.25,-0.675,9.852,0.807,41.1027598,16.8757367,False,NONE
2019-10-26 18:54:30.900,LG-H970,1572116070907.5,-1.185,9.084,-1.087,41.1027598,16.8757367,False,NONE
2019-10-26 18:54:30.920,LG-H970,1572116070929.4,-1.245,10.032,0.605,41.1027598,16.8757367,False,NONE
2019-10-26 18:54:30.940,LG-H970,1572116070949.3333,-1.541,9.598,0.837,41.1027598,16.8757367,False,NONE
2019-10-26 18:54:30.960,LG-H970,1572116070969.4,-1.136,10.294,0.814,41.1027598,16.8757367,False,NONE
2019-10-26 18:54:30.980,LG-H970,1572116070988.6667,-0.986,10.052,0.934,41.1027598,16.8757367,False,NONE
2019-10-26 18:54:31.000,LG-H970,1572116071008.8,-0.687,8.928,-0.452,41.1027598,16.8757367,False,NONE
2019-10-26 18:54:31.020,LG-H970,1572116071030.75,-0.487,9.77,0.641,41.1027598,16.8757367,False,NONE
2019-10-26 18:54:31.040,LG-H970,1572116071050.5,-0.946,9.722,-0.306,41.1027598,16.8757367,False,NONE
2019-10-26 18:54:31.060,LG-H970,1572116071070.25,-1.239,11.009,1.949,41.1027598,16.8757367,False,NONE
2019-10-26 18:54:31.080,LG-H970,1572116071090.25,-1.2,10.486,0.268,41.1027598,16.8757367,False,NONE
2019-10-26 18:54:31.100,LG-H970,1572116071110.0,-1.04,9.854,0.832,41.1027598,16.8757367,False,NONE
2019-10-26 18:54:31.120,LG-H970,1572116071131.75,-0.776,8.93,-0.219,41.1027598,16.8757367,False,NONE
2019-10-26 18:54:31.140,LG-H970,1572116071150.0,-0.872,9.265,0.013,41.1027598,16.8757367,False,NONE
2019-10-26 18:54:31.160,LG-H970,1572116071168.75,-1.65,10.096,0.901,41.1027598,16.8757367,False,NONE
2019-10-26 18:54:31.180,LG-H970,1572116071188.5,-1.656,10.211,0.673,41.1027598,16.8757367,False,NONE
2019-10-26 18:54:31.200,LG-H970,1572116071208.5,-0.65,10.144,1.216,41.1027598,16.8757367,False,NONE
2019-10-26 18:54:31.220,LG-H970,1572116071228.5,-0.048,8.878,-0.48,41.1027598,16.8757367,False,NONE
2019-10-26 18:54:31.240,LG-H970,1572116071247.75,-0.776,9.652,0.703,41.1027598,16.8757367,False,NONE
2019-10-26 18:54:31.260,LG-H970,1572116071270.4,-1.899,10.316,0.239,41.1027598,16.8757367,False,NONE
2019-10-26 18:54:31.280,LG-H970,1572116071291.3333,-1.811,11.02,1.116,41.1027598,16.8757367,False,NONE
2019-10-26 18:54:31.300,LG-H970,1572116071307.5,-1.199,10.443,1.237,41.1027598,16.8757367,False,NONE
2019-10-26 18:54:31.320,LG-H970,1572116071327.25,-0.776,9.519,0.658,41.1027598,16.8757367,False,NONE
2019-10-26 18:54:31.340,LG-H970,1572116071347.5,-1.124,9.159,0.51,41.1027598,16.8757367,False,NONE
2019-10-26 18:54:31.360,LG-H970,1572116071367.5,-1.063,9.384,-1.358,41.1027598,16.8757367,False,NONE
2019-10-26 18:54:31.380,LG-H970,1572116071387.0,-1.443,10.512,1.275,41.1027598,16.8757367,False,NONE
2019-10-26 18:54:31.400,LG-H970,1572116071409.4,-1.167,10.215,0.975,41.1027598,16.8757367,False,NONE
2019-10-26 18:54:31.420,LG-H970,1572116071430.75,-0.891,9.91,0.672,41.1027598,16.8757367,False,NONE
2019-10-26 18:54:31.440,LG-H970,1572116071450.5,-1.336,9.325,0.201,41.1027598,16.8757367,False,NONE
2019-10-26 18:54:31.460,LG-H970,1572116071470.5,-1.711,9.548,-0.01,41.1027598,16.8757367,False,NONE
2019-10-26 18:54:31.480,LG-H970,1572116071490.0,-1.44,10.412,0.724,41.1027598,16.8757367,False,NONE
2019-10-26 18:54:31.500,LG-H970,1572116071513.0,-1.336,10.007,0.699,41.1027598,16.8757367,False,NONE
2019-10-26 18:54:31.520,LG-H970,1572116071530.5,-1.583,10.343,1.447,41.1027598,16.8757367,False,NONE
2019-10-26 18:54:31.540,LG-H970,1572116071551.0,-1.241,9.291,-0.549,41.1027598,16.8757367,False,NONE
2019-10-26 18:54:31.560,LG-H970,1572116071569.75,-0.586,10.073,0.453,41.1027598,16.8757367,False,NONE
2019-10-26 18:54:31.580,LG-H970,1572116071590.25,-0.665,9.814,0.035,41.1027598,16.8757367,False,NONE
2019-10-26 18:54:31.600,LG-H970,1572116071609.75,-1.206,10.758,1.13,41.1027598,16.8757367,False,NONE
2019-10-26 18:54:31.620,LG-H970,1572116071630.75,-1.728,10.209,0.653,41.1027598,16.8757367,False,NONE
2019-10-26 18:54:31.640,LG-H970,1572116071650.0,-0.659,10.227,0.398,41.1027598,16.8757367,False,NONE
2019-10-26 18:54:31.660,LG-H970,1572116071668.5,-0.562,8.678,0.661,41.1027598,16.8757367,False,NONE
2019-10-26 18:54:31.680,LG-H970,1572116071690.6,-0.958,9.019,-0.535,41.1027598,16.8757367,False,NONE
2019-10-26 18:54:31.700,LG-H970,1572116071711.3333,-1.958,10.769,0.847,41.1027598,16.8757367,False,NONE
2019-10-26 18:54:31.720,LG-H970,1572116071727.75,-1.522,10.721,-0.238,41.1027598,16.8757367,False,NONE
2019-10-26 18:54:31.740,LG-H970,1572116071747.5,-0.607,10.069,1.916,41.1027598,16.8757367,False,NONE
2019-10-26 18:54:31.760,LG-H970,1572116071767.25,0.247,9.249,0.252,41.1027598,16.8757367,False,NONE
2019-10-26 18:54:31.780,LG-H970,1572116071789.6,-1.458,9.637,0.443,41.1027598,16.8757367,False,NONE
2019-10-26 18:54:31.800,LG-H970,1572116071812.0,-1.968,10.243,-1.064,41.1027598,16.8757367,False,NONE
2019-10-26 18:54:31.820,LG-H970,1572116071828.3333,-1.228,10.143,1.317,41.1027598,16.8757367,False,NONE
2019-10-26 18:54:31.840,LG-H970,1572116071847.0,-0.401,8.994,0.389,41.1027598,16.8757367,False,NONE
2019-10-26 18:54:31.860,LG-H970,1572116071867.25,-0.981,9.909,2.118,41.1027598,16.8757367,False,NONE
2019-10-26 18:54:31.880,LG-H970,1572116071889.4,-1.882,9.933,-0.492,41.1027598,16.8757367,False,NONE
2019-10-26 18:54:31.900,LG-H970,1572116071909.0,-1.04,10.02,0.189,41.1027598,16.8757367,False,NONE
2019-10-26 18:54:31.920,LG-H970,1572116071929.8,-0.514,9.353,0.406,41.1027598,16.8757367,False,NONE
2019-10-26 18:54:31.940,LG-H970,1572116071948.3333,-0.854,9.72,0.772,41.1027598,16.8757367,False,NONE
2019-10-26 18:54:31.960,LG-H970,1572116071968.4,-1.688,10.756,1.106,41.1027598,16.8757367,False,NONE
2019-10-26 18:54:31.980,LG-H970,1572116071990.75,-1.504,10.478,-0.329,41.1027598,16.8757367,False,NONE
2019-10-26 18:54:32.000,LG-H970,1572116072011.0,-0.379,9.76,0.781,41.1027598,16.8757367,False,NONE
2019-10-26 18:54:32.020,LG-H970,1572116072030.5,0.087,8.718,0.166,41.1027598,16.8757367,False,NONE
2019-10-26 18:54:32.040,LG-H970,1572116072049.75,-0.771,10.176,0.919,41.1027598,16.8757367,False,NONE
2019-10-26 18:54:32.060,LG-H970,1572116072070.75,-1.866,10.455,-0.301,41.1027598,16.8757367,False,NONE
2019-10-26 18:54:32.080,LG-H970,1572116072089.5,-1.58,10.607,0.989,41.1027598,16.8757367,False,NONE
2019-10-26 18:54:32.100,LG-H970,1572116072110.0,-0.871,9.494,0.713,41.1027598,16.8757367,False,NONE
2019-10-26 18:54:32.120,LG-H970,1572116072130.0,-0.706,9.542,0.865,41.1027598,16.8757367,False,NONE
2019-10-26 18:54:32.140,LG-H970,1572116072148.5,-1.451,9.966,-0.313,41.1027598,16.8757367,False,NONE
2019-10-26 18:54:32.160,LG-H970,1572116072168.5,-1.729,10.615,0.636,41.1027598,16.8757367,False,NONE
2019-10-26 18:54:32.180,LG-H970,1572116072188.25,-0.554,9.95,0.738,41.1027598,16.8757367,False,NONE
2019-10-26 18:54:32.200,LG-H970,1572116072207.5,0.232,9.576,1.024,41.1027598,16.8757367,False,NONE
2019-10-26 18:54:32.220,LG-H970,1572116072230.8,-1.244,9.618,0.24,41.1027598,16.8757367,False,NONE
2019-10-26 18:54:32.240,LG-H970,1572116072252.25,-1.871,10.431,-0.336,41.1027598,16.8757367,False,NONE
2019-10-26 18:54:32.260,LG-H970,1572116072272.0,-1.353,9.877,0.728,41.1027598,16.8757367,False,NONE
2019-10-26 18:54:32.280,LG-H970,1572116072291.25,0.049,9.849,0.704,41.1027598,16.8757367,False,NONE
2019-10-26 18:54:32.300,LG-H970,1572116072309.0,-0.319,9.69,1.336,41.1027598,16.8757367,False,NONE
2019-10-26 18:54:32.320,LG-H970,1572116072329.2,-1.494,10.154,-0.292,41.1027598,16.8757367,False,NONE
2019-10-26 18:54:32.340,LG-H970,1572116072349.3333,-2.365,10.07,0.49,41.1027598,16.8757367,False,NONE
2019-10-26 18:54:32.360,LG-H970,1572116072366.75,-0.638,10.041,0.292,41.1027598,16.8757367,False,NONE
2019-10-26 18:54:32.380,LG-H970,1572116072386.5,0.093,9.347,1.523,41.1027598,16.8757367,False,NONE
2019-10-26 18:54:32.400,LG-H970,1572116072406.0,-0.8,9.495,0.048,41.1027598,16.8757367,False,NONE
2019-10-26 18:54:32.420,LG-H970,1572116072428.2,-2.296,10.112,0.254,41.1027598,16.8757367,False,NONE
2019-10-26 18:54:32.440,LG-H970,1572116072451.25,-1.337,9.96,-0.692,41.1027598,16.8757367,False,NONE
2019-10-26 18:54:32.460,LG-H970,1572116072470.5,-0.448,9.957,1.667,41.1027598,16.8757367,False,NONE
2019-10-26 18:54:32.480,LG-H970,1572116072490.0,-0.491,9.837,0.428,41.1027598,16.8757367,False,NONE
2019-10-26 18:54:32.500,LG-H970,1572116072510.75,-1.754,10.358,0.726,41.1027598,16.8757367,False,NONE
2019-10-26 18:54:32.520,LG-H970,1572116072529.5,-1.571,9.994,-0.405,41.1027598,16.8757367,False,NONE
2019-10-26 18:54:32.540,LG-H970,1572116072549.5,-0.266,9.547,0.462,41.1027598,16.8757367,False,NONE
2019-10-26 18:54:32.560,LG-H970,1572116072569.25,0.214,9.027,0.412,41.1027598,16.8757367,False,NONE
2019-10-26 18:54:32.580,LG-H970,1572116072589.25,-1.182,10.109,0.816,41.1027598,16.8757367,False,NONE
2019-10-26 18:54:32.600,LG-H970,1572116072609.25,-2.204,10.412,-0.181,41.1027598,16.8757367,False,NONE
2019-10-26 18:54:32.620,LG-H970,1572116072609.25,-2.204,10.412,-0.181,41.1027598,16.8757367,False,NONE
2019-10-26 18:54:32.640,LG-H970,1572116072653.0,0.217,9.503,0.704,41.1027598,16.8757367,False,NONE
2019-10-26 18:54:32.660,LG-H970,1572116072672.5,-0.7,9.522,0.307,41.1027598,16.8757367,False,NONE
2019-10-26 18:54:32.680,LG-H970,1572116072690.3333,-1.937,9.555,-1.191,41.1027598,16.8757367,False,NONE
2019-10-26 18:54:32.700,LG-H970,1572116072707.25,-1.632,10.434,0.802,41.1027598,16.8757367,False,NONE
2019-10-26 18:54:32.720,LG-H970,1572116072729.4,-0.559,9.851,1.14,41.1027598,16.8757367,False,NONE
2019-10-26 18:54:32.740,LG-H970,1572116072748.6667,-0.321,10.039,1.05,41.1027598,16.8757367,False,NONE
2019-10-26 18:54:32.760,LG-H970,1572116072769.5,-1.319,10.224,-0.213,41.1027598,16.8757367,False,NONE
2019-10-26 18:54:32.780,LG-H970,1572116072789.6667,-1.958,10.168,0.032,41.1027598,16.8757367,False,NONE
2019-10-26 18:54:32.800,LG-H970,1572116072811.6667,-0.889,9.615,0.175,41.1027598,16.8757367,False,NONE
2019-10-26 18:54:32.820,LG-H970,1572116072829.5,-0.45,9.827,1.026,41.1027598,16.8757367,False,NONE
2019-10-26 18:54:32.840,LG-H970,1572116072851.0,-1.863,10.0,0.029,41.1027598,16.8757367,False,NONE
2019-10-26 18:54:32.860,LG-H970,1572116072870.0,-2.039,10.487,-0.404,41.1027598,16.8757367,False,NONE
2019-10-26 18:54:32.880,LG-H970,1572116072889.5,-0.898,9.43,0.468,41.1027598,16.8757367,False,NONE
2019-10-26 18:54:32.900,LG-H970,1572116072908.5,0.46,8.836,1.068,41.1027598,16.8757367,False,NONE
2019-10-26 18:54:32.920,LG-H970,1572116072928.5,-0.332,9.424,0.272,41.1027598,16.8757367,False,NONE
2019-10-26 18:54:32.940,LG-H970,1572116072949.5,-1.927,10.704,-0.38,41.1027598,16.8757367,False,NONE
2019-10-26 18:54:32.960,LG-H970,1572116072968.5,-1.802,10.541,0.156,41.1027598,16.8757367,False,NONE
2019-10-26 18:54:32.980,LG-H970,1572116072989.5,-0.056,10.012,0.549,41.1027598,16.8757367,False,NONE
2019-10-26 18:54:33.000,LG-H970,1572116073008.5,-0.153,9.265,0.88,41.1027598,16.8757367,False,NONE
2019-10-26 18:54:33.020,LG-H970,1572116073028.25,-1.563,10.012,0.357,41.1027598,16.8757367,False,NONE
2019-10-26 18:54:33.040,LG-H970,1572116073048.5,-2.042,10.071,-0.999,41.1027598,16.8757367,False,NONE
2019-10-26 18:54:33.060,LG-H970,1572116073072.0,-0.777,9.548,-0.035,41.1027598,16.8757367,False,NONE
2019-10-26 18:54:33.080,LG-H970,1572116073087.75,0.023,8.955,0.437,41.1027598,16.8757367,False,NONE
2019-10-26 18:54:33.100,LG-H970,1572116073108.25,-0.848,9.788,1.017,41.1027598,16.8757367,False,NONE
2019-10-26 18:54:33.120,LG-H970,1572116073128.5,-2.042,10.238,-0.287,41.1027598,16.8757367,False,NONE
2019-10-26 18:54:33.140,LG-H970,1572116073149.8,-1.884,9.866,-0.336,41.1027598,16.8757367,False,NONE
2019-10-26 18:54:33.160,LG-H970,1572116073171.75,-1.016,8.667,-0.04,41.1027598,16.8757367,False,NONE
2019-10-26 18:54:33.180,LG-H970,1572116073196.5,-1.163,8.838,0.651,41.1027598,16.8757367,True,NONE
2019-10-26 18:54:33.200,LG-H970,1572116073196.5,-1.163,8.838,0.651,41.1027598,16.8757367,True,NONE
2019-10-26 18:54:33.220,LG-H970,1572116073230.0,-1.716,10.359,-0.31,41.1027598,16.8757367,False,NONE
2019-10-26 18:54:33.240,LG-H970,1572116073249.3333,-1.128,10.694,0.435,41.1027598,16.8757367,False,NONE
2019-10-26 18:54:33.260,LG-H970,1572116073268.4,-0.45,9.194,0.343,41.1027598,16.8757367,False,NONE
2019-10-26 18:54:33.280,LG-H970,1572116073290.5,-0.338,9.634,-0.142,41.1027598,16.8757367,False,NONE
2019-10-26 18:54:33.300,LG-H970,1572116073310.5,-1.353,9.779,-0.225,41.1027598,16.8757367,False,NONE
2019-10-26 18:54:33.320,LG-H970,1572116073328.0,-1.802,10.192,0.418,41.1027598,16.8757367,False,NONE
2019-10-26 18:54:33.340,LG-H970,1572116073348.8,-1.628,10.063,0.31,41.1027598,16.8757367,False,NONE
2019-10-26 18:54:33.360,LG-H970,1572116073370.5,-0.897,9.731,0.07,41.1027598,16.8757367,False,NONE
2019-10-26 18:54:33.380,LG-H970,1572116073390.5,-0.779,9.524,0.293,41.1027598,16.8757367,False,NONE
2019-10-26 18:54:33.400,LG-H970,1572116073409.25,-1.128,9.256,-0.614,41.1027598,16.8757367,False,NONE
2019-10-26 18:54:33.420,LG-H970,1572116073429.25,-1.308,10.046,0.334,41.1027598,16.8757367,False,NONE
2019-10-26 18:54:33.440,LG-H970,1572116073449.75,-1.285,10.245,0.067,41.1027598,16.8757367,False,NONE
2019-10-26 18:54:33.460,LG-H970,1572116073469.75,-1.094,10.153,0.925,41.1027598,16.8757367,False,NONE
2019-10-26 18:54:33.480,LG-H970,1572116073489.25,-0.99,10.082,0.434,41.1027598,16.8757367,False,NONE
2019-10-26 18:54:33.500,LG-H970,1572116073508.75,-1.534,9.45,0.137,41.1027598,16.8757367,False,NONE
2019-10-26 18:54:33.520,LG-H970,1572116073528.0,-1.533,9.364,-0.667,41.1027598,16.8757367,False,NONE
2019-10-26 18:54:33.540,LG-H970,1572116073548.5,-1.37,9.347,0.256,41.1027598,16.8757367,False,NONE
2019-10-26 18:54:33.560,LG-H970,1572116073568.75,-0.875,9.388,-0.024,41.1027598,16.8757367,False,NONE
2019-10-26 18:54:33.580,LG-H970,1572116073590.6,-0.84,9.951,0.416,41.1027598,16.8757367,False,NONE
2019-10-26 18:54:33.600,LG-H970,1572116073610.6667,-1.458,10.265,0.388,41.1027598,16.8757367,False,NONE
2019-10-26 18:54:33.620,LG-H970,1572116073627.75,-1.63,10.458,0.046,41.1027598,16.8757367,False,NONE
2019-10-26 18:54:33.640,LG-H970,1572116073649.8,-0.961,9.979,0.294,41.1027598,16.8757367,False,NONE
2019-10-26 18:54:33.660,LG-H970,1572116073669.0,-0.559,9.275,0.171,41.1027598,16.8757367,False,NONE
2019-10-26 18:54:33.680,LG-H970,1572116073689.0,-1.054,9.283,0.082,41.1027598,16.8757367,False,NONE
2019-10-26 18:54:33.700,LG-H970,1572116073712.0,-1.996,9.725,-0.083,41.1027598,16.8757367,False,NONE
2019-10-26 18:54:33.720,LG-H970,1572116073731.5,-1.923,9.535,-0.449,41.1027598,16.8757367,False,NONE
2019-10-26 18:54:33.740,LG-H970,1572116073748.0,-0.547,10.422,0.789,41.1027598,16.8757367,False,NONE
2019-10-26 18:54:33.760,LG-H970,1572116073769.4,-0.454,9.568,0.298,41.1027598,16.8757367,False,NONE
2019-10-26 18:54:33.780,LG-H970,1572116073790.75,-1.048,9.969,0.276,41.1027598,16.8757367,False,NONE
2019-10-26 18:54:33.800,LG-H970,1572116073810.25,-1.41,10.346,-0.25,41.1027598,16.8757367,False,NONE
2019-10-26 18:54:33.820,LG-H970,1572116073830.5,-1.391,10.075,0.011,41.1027598,16.8757367,False,NONE
2019-10-26 18:54:33.840,LG-H970,1572116073850.0,-1.029,10.097,0.58,41.1027598,16.8757367,False,NONE
2019-10-26 18:54:33.860,LG-H970,1572116073872.25,-1.226,9.964,0.151,41.1027598,16.8757367,False,NONE
2019-10-26 18:54:33.880,LG-H970,1572116073890.25,-1.438,10.052,0.261,41.1027598,16.8757367,False,NONE
2019-10-26 18:54:33.900,LG-H970,1572116073907.3333,-1.181,9.944,-0.035,41.1027598,16.8757367,False,NONE
2019-10-26 18:54:33.920,LG-H970,1572116073928.4,-1.213,9.58,0.716,41.1027598,16.8757367,False,NONE
2019-10-26 18:54:33.940,LG-H970,1572116073949.5,-1.601,9.253,-0.259,41.1027598,16.8757367,False,NONE
2019-10-26 18:54:33.960,LG-H970,1572116073969.25,-1.796,9.586,-0.29,41.1027598,16.8757367,False,NONE
2019-10-26 18:54:33.980,LG-H970,1572116073990.0,-1.305,9.236,-0.022,41.1027598,16.8757367,False,NONE
2019-10-26 18:54:34.000,LG-H970,1572116074010.0,-1.063,9.388,0.59,41.1027598,16.8757367,False,NONE
2019-10-26 18:54:34.020,LG-H970,1572116074024.6667,-1.144,9.641,-0.214,41.1027598,16.8757367,False,NONE
2019-10-26 18:54:34.040,LG-H970,1572116074047.6,-1.346,10.041,0.048,41.1027598,16.8757367,False,NONE
2019-10-26 18:54:34.060,LG-H970,1572116074068.25,-1.188,10.025,0.222,41.1027598,16.8757367,False,NONE
2019-10-26 18:54:34.080,LG-H970,1572116074088.25,-0.717,9.687,0.324,41.1027598,16.8757367,False,NONE
2019-10-26 18:54:34.100,LG-H970,1572116074108.0,-0.972,9.977,0.448,41.1027598,16.8757367,False,NONE
2019-10-26 18:54:34.120,LG-H970,1572116074127.75,-1.613,10.407,0.326,41.1027598,16.8757367,False,NONE
2019-10-26 18:54:34.140,LG-H970,1572116074149.0,-1.757,10.266,0.015,41.1027598,16.8757367,False,NONE
2019-10-26 18:54:34.160,LG-H970,1572116074168.5,-0.925,9.565,0.264,41.1027598,16.8757367,False,NONE
2019-10-26 18:54:34.180,LG-H970,1572116074189.0,-0.483,9.543,-0.08,41.1027598,16.8757367,False,NONE
2019-10-26 18:54:34.200,LG-H970,1572116074212.0,-1.797,10.285,0.637,41.1027598,16.8757367,False,NONE
2019-10-26 18:54:34.220,LG-H970,1572116074231.25,-1.688,11.267,0.551,41.1027598,16.8757367,False,NONE
2019-10-26 18:54:34.240,LG-H970,1572116074247.3333,-2.172,10.436,1.965,41.1027598,16.8757367,False,NONE
2019-10-26 18:54:34.260,LG-H970,1572116074266.0,-0.948,9.814,0.214,41.1027598,16.8757367,False,NONE
2019-10-26 18:54:34.280,LG-H970,1572116074285.75,-0.96,9.274,-0.169,41.1027598,16.8757367,False,NONE
2019-10-26 18:54:34.300,LG-H970,1572116074308.4,-1.473,10.596,-0.201,41.1027598,16.8757367,False,NONE
2019-10-26 18:54:34.320,LG-H970,1572116074330.75,-1.924,9.589,1.852,41.1027598,16.8757367,False,NONE
2019-10-26 18:54:34.340,LG-H970,1572116074349.5,-0.277,8.276,-0.527,41.1027598,16.8757367,False,NONE
2019-10-26 18:54:34.360,LG-H970,1572116074370.0,-0.551,10.223,0.372,41.1027598,16.8757367,False,NONE
2019-10-26 18:54:34.380,LG-H970,1572116074390.0,-2.409,9.789,-0.154,41.1027598,16.8757367,False,NONE
2019-10-26 18:54:34.400,LG-H970,1572116074408.75,-1.188,9.752,0.388,41.1027598,16.8757367,False,NONE
2019-10-26 18:54:34.420,LG-H970,1572116074428.0,0.017,8.167,0.288,41.1027598,16.8757367,False,NONE
2019-10-26 18:54:34.440,LG-H970,1572116074449.75,-1.057,9.292,0.72,41.1027598,16.8757367,False,NONE
2019-10-26 18:54:34.460,LG-H970,1572116074468.5,-2.501,10.547,0.392,41.1027598,16.8757367,False,NONE
2019-10-26 18:54:34.480,LG-H970,1572116074488.5,-1.69,10.423,-0.333,41.1027598,16.8757367,False,NONE
2019-10-26 18:54:34.500,LG-H970,1572116074508.5,0.363,9.866,0.583,41.1027598,16.8757367,False,NONE
2019-10-26 18:54:34.520,LG-H970,1572116074528.75,0.095,10.372,2.101,41.1027598,16.8757367,False,NONE
2019-10-26 18:54:34.540,LG-H970,1572116074549.0,-2.112,9.945,0.951,41.1027598,16.8757367,False,NONE
2019-10-26 18:54:34.560,LG-H970,1572116074568.25,-2.281,8.704,-0.902,41.1027598,16.8757367,False,NONE
2019-10-26 18:54:34.580,LG-H970,1572116074590.0,-0.868,6.246,-1.988,41.1027598,16.8757367,False,NONE
2019-10-26 18:54:34.600,LG-H970,1572116074610.3333,0.49,8.552,-2.448,41.1027598,16.8757367,False,NONE
2019-10-26 18:54:34.620,LG-H970,1572116074628.0,-1.58,9.104,2.092,41.1027598,16.8757367,False,NONE
2019-10-26 18:54:34.640,LG-H970,1572116074649.6667,-0.932,13.274,0.692,41.1027598,16.8757367,False,NONE
2019-10-26 18:54:34.660,LG-H970,1572116074669.0,-1.74,12.704,3.639,41.1027598,16.8757367,False,NONE
2019-10-26 18:54:34.680,LG-H970,1572116074690.75,-0.81,9.86,-1.965,41.1027598,16.8757367,False,NONE
2019-10-26 18:54:34.700,LG-H970,1572116074708.0,-1.1,10.618,2.862,41.1027598,16.8757367,False,NONE
2019-10-26 18:54:34.720,LG-H970,1572116074728.4,-1.291,9.209,-0.843,41.1027598,16.8757367,False,NONE
2019-10-26 18:54:34.740,LG-H970,1572116074749.5,-0.091,12.493,2.506,41.1027598,16.8757367,False,NONE
2019-10-26 18:54:34.760,LG-H970,1572116074772.6667,-0.993,13.753,2.916,41.1027598,16.8757367,False,NONE
2019-10-26 18:54:34.780,LG-H970,1572116074789.75,-2.874,11.918,1.571,41.1027598,16.8757367,False,NONE
2019-10-26 18:54:34.800,LG-H970,1572116074809.25,-1.598,10.124,0.476,41.1027598,16.8757367,False,NONE
2019-10-26 18:54:34.820,LG-H970,1572116074829.0,0.463,9.378,-0.163,41.1027598,16.8757367,False,NONE
2019-10-26 18:54:34.840,LG-H970,1572116074849.75,-1.467,9.728,2.819,41.1027598,16.8757367,False,NONE
2019-10-26 18:54:34.860,LG-H970,1572116074866.3333,-3.809,11.242,-0.199,41.1027598,16.8757367,False,NONE
2019-10-26 18:54:34.880,LG-H970,1572116074886.6,-4.325,10.01,0.256,41.1027598,16.8757367,False,NONE
2019-10-26 18:54:34.900,LG-H970,1572116074909.5,-0.145,7.476,-1.137,41.1027598,16.8757367,False,NONE
2019-10-26 18:54:34.920,LG-H970,1572116074929.25,2.002,6.059,-0.15,41.1027598,16.8757367,False,NONE
2019-10-26 18:54:34.940,LG-H970,1572116074950.2,0.055,7.364,-0.448,41.1027598,16.8757367,False,NONE
2019-10-26 18:54:34.960,LG-H970,1572116074971.0,-3.062,10.958,0.388,41.1027598,16.8757367,False,NONE
2019-10-26 18:54:34.980,LG-H970,1572116074988.75,-1.856,13.919,2.615,41.1027598,16.8757367,False,NONE
2019-10-26 18:54:35.000,LG-H970,1572116075008.0,0.332,8.864,5.059,41.1027598,16.8757367,False,NONE
2019-10-26 18:54:35.020,LG-H970,1572116075027.75,4.055,8.083,-1.574,41.1027598,16.8757367,False,NONE
2019-10-26 18:54:35.040,LG-H970,1572116075050.8,0.037,6.343,-4.828,41.1027598,16.8757367,False,NONE
2019-10-26 18:54:35.060,LG-H970,1572116075070.6667,-1.188,7.399,-1.051,41.1027598,16.8757367,False,NONE
2019-10-26 18:54:35.080,LG-H970,1572116075089.0,0.298,9.894,-0.329,41.1027598,16.8757367,False,NONE
2019-10-26 18:54:35.100,LG-H970,1572116075112.0,0.042,14.165,6.599,41.1027598,16.8757367,False,NONE
2019-10-26 18:54:35.120,LG-H970,1572116075132.0,0.709,11.349,-0.509,41.1027598,16.8757367,False,NONE
2019-10-26 18:54:35.140,LG-H970,1572116075153.6667,1.761,8.791,-0.719,41.1027598,16.8757367,False,NONE
2019-10-26 18:54:35.160,LG-H970,1572116075170.75,0.275,5.899,-3.499,41.1027598,16.8757367,False,NONE
2019-10-26 18:54:35.180,LG-H970,1572116075187.0,-0.202,10.393,0.436,41.1027598,16.8757367,False,NONE
2019-10-26 18:54:35.200,LG-H970,1572116075215.0,-2.649,13.806,3.172,41.1027598,16.8757367,False,NONE
2019-10-26 18:54:35.220,LG-H970,1572116075229.25,-3.156,16.155,5.98,41.1027598,16.8757367,False,NONE
2019-10-26 18:54:35.240,LG-H970,1572116075251.0,-1.787,9.903,2.401,41.1027598,16.8757367,False,NONE
2019-10-26 18:54:35.260,LG-H970,1572116075271.6667,-1.71,5.765,-1.527,41.1027598,16.8757367,False,NONE
2019-10-26 18:54:35.280,LG-H970,1572116075289.5,-2.661,8.267,-3.089,41.1027598,16.8757367,False,NONE
2019-10-26 18:54:35.300,LG-H970,1572116075307.3333,-2.842,10.198,-1.544,41.1027598,16.8757367,False,NONE
2019-10-26 18:54:35.320,LG-H970,1572116075330.0,-1.507,12.159,5.78,41.1027598,16.8757367,False,NONE
2019-10-26 18:54:35.340,LG-H970,1572116075348.75,-0.351,11.284,4.677,41.1027598,16.8757367,False,NONE
2019-10-26 18:54:35.360,LG-H970,1572116075367.6667,-2.163,10.785,3.288,41.1027598,16.8757367,False,NONE
2019-10-26 18:54:35.380,LG-H970,1572116075388.0,-1.799,9.22,-4.844,41.1027598,16.8757367,False,NONE
2019-10-26 18:54:35.400,LG-H970,1572116075408.25,-2.85,6.008,-2.409,41.1027598,16.8757367,False,NONE
2019-10-26 18:54:35.420,LG-H970,1572116075428.25,0.068,9.529,0.594,41.1027598,16.8757367,False,NONE
2019-10-26 18:54:35.440,LG-H970,1572116075448.25,0.531,10.409,5.473,41.1027598,16.8757367,False,NONE
2019-10-26 18:54:35.460,LG-H970,1572116075469.0,0.864,10.677,5.134,41.1027598,16.8757367,False,NONE
2019-10-26 18:54:35.480,LG-H970,1572116075489.6,0.273,11.603,-0.126,41.1027598,16.8757367,False,NONE
2019-10-26 18:54:35.500,LG-H970,1572116075510.0,-2.977,8.065,-7.061,41.1027598,16.8757367,False,NONE
2019-10-26 18:54:35.520,LG-H970,1572116075530.2,-0.9,8.023,0.297,41.1027598,16.8757367,False,NONE
2019-10-26 18:54:35.540,LG-H970,1572116075551.5,2.127,7.773,0.78,41.1027598,16.8757367,False,NONE
2019-10-26 18:54:35.560,LG-H970,1572116075571.5,0.026,13.751,6.184,41.1027598,16.8757367,False,NONE
2019-10-26 18:54:35.580,LG-H970,1572116075591.0,-2.345,11.48,0.181,41.1027598,16.8757367,False,NONE
2019-10-26 18:54:35.600,LG-H970,1572116075611.5,-1.253,9.221,-2.5,41.1027598,16.8757367,False,NONE
2019-10-26 18:54:35.620,LG-H970,1572116075630.5,0.254,6.785,-2.627,41.1027598,16.8757367,False,NONE
2019-10-26 18:54:35.640,LG-H970,1572116075650.25,-0.206,7.357,0.568,41.1027598,16.8757367,False,NONE
2019-10-26 18:54:35.660,LG-H970,1572116075670.25,-2.527,11.811,1.185,41.1027598,16.8757367,False,NONE
2019-10-26 18:54:35.680,LG-H970,1572116075690.25,-3.969,14.116,3.98,41.1027598,16.8757367,False,NONE
2019-10-26 18:54:35.700,LG-H970,1572116075710.25,-0.293,11.743,1.582,41.1027598,16.8757367,False,NONE
2019-10-26 18:54:35.720,LG-H970,1572116075729.75,1.641,7.554,0.403,41.1027598,16.8757367,False,NONE
2019-10-26 18:54:35.740,LG-H970,1572116075749.25,0.082,7.718,-0.966,41.1027598,16.8757367,False,NONE
2019-10-26 18:54:35.760,LG-H970,1572116075769.75,-3.603,10.286,-1.466,41.1027598,16.8757367,False,NONE
2019-10-26 18:54:35.780,LG-H970,1572116075789.25,-3.496,13.341,2.397,41.1027598,16.8757367,False,NONE
2019-10-26 18:54:35.800,LG-H970,1572116075809.75,-0.082,11.545,4.315,41.1027598,16.8757367,False,NONE
2019-10-26 18:54:35.820,LG-H970,1572116075829.25,1.302,8.218,2.614,41.1027598,16.8757367,False,NONE
2019-10-26 18:54:35.840,LG-H970,1572116075849.25,-1.206,7.741,-1.137,41.1027598,16.8757367,False,NONE
2019-10-26 18:54:35.860,LG-H970,1572116075869.0,-3.847,8.999,-2.699,41.1027598,16.8757367,False,NONE
2019-10-26 18:54:35.880,LG-H970,1572116075891.2,-2.461,11.017,0.737,41.1027598,16.8757367,False,NONE
2019-10-26 18:54:35.900,LG-H970,1572116075912.0,0.942,11.181,3.981,41.1027598,16.8757367,False,NONE
2019-10-26 18:54:35.920,LG-H970,1572116075928.75,1.273,9.635,3.763,41.1027598,16.8757367,False,NONE
2019-10-26 18:54:35.940,LG-H970,1572116075948.25,-1.085,8.788,0.278,41.1027598,16.8757367,False,NONE
2019-10-26 18:54:35.960,LG-H970,1572116075968.0,-3.077,9.727,-1.833,41.1027598,16.8757367,False,NONE
2019-10-26 18:54:35.980,LG-H970,1572116075990.4,-3.003,10.188,-0.565,41.1027598,16.8757367,False,NONE
2019-10-26 18:54:36.000,LG-H970,1572116076010.0,-0.73,10.458,2.062,41.1027598,16.8757367,False,NONE
2019-10-26 18:54:36.020,LG-H970,1572116076026.5,0.821,10.359,3.324,41.1027598,16.8757367,False,NONE
2019-10-26 18:54:36.040,LG-H970,1572116076047.5,0.419,9.575,2.793,41.1027598,16.8757367,False,NONE
2019-10-26 18:54:36.060,LG-H970,1572116076067.25,-1.984,9.267,-1.296,41.1027598,16.8757367,False,NONE
2019-10-26 18:54:36.080,LG-H970,1572116076089.2,-3.073,10.145,-1.5,41.1027598,16.8757367,False,NONE
2019-10-26 18:54:36.100,LG-H970,1572116076109.6667,-1.592,9.785,0.965,41.1027598,16.8757367,False,NONE
2019-10-26 18:54:36.120,LG-H970,1572116076125.75,0.08,9.552,2.925,41.1027598,16.8757367,False,NONE
2019-10-26 18:54:36.140,LG-H970,1572116076148.4,-0.514,10.393,2.299,41.1027598,16.8757367,False,NONE
2019-10-26 18:54:36.160,LG-H970,1572116076171.5,-2.369,10.398,-0.378,41.1027598,16.8757367,False,NONE
2019-10-26 18:54:36.180,LG-H970,1572116076189.5,-1.863,9.487,-0.839,41.1027598,16.8757367,False,NONE
2019-10-26 18:54:36.200,LG-H970,1572116076209.25,-0.043,8.953,0.615,41.1027598,16.8757367,False,NONE
2019-10-26 18:54:36.220,LG-H970,1572116076230.0,0.145,9.961,2.19,41.1027598,16.8757367,False,NONE
2019-10-26 18:54:36.240,LG-H970,1572116076249.5,-1.434,11.339,2.375,41.1027598,16.8757367,False,NONE
2019-10-26 18:54:36.260,LG-H970,1572116076269.0,-2.378,11.281,0.628,41.1027598,16.8757367,False,NONE
2019-10-26 18:54:36.280,LG-H970,1572116076289.5,-1.554,9.502,0.583,41.1027598,16.8757367,False,NONE
2019-10-26 18:54:36.300,LG-H970,1572116076308.5,-0.187,8.141,0.136,41.1027598,16.8757367,False,NONE
2019-10-26 18:54:36.320,LG-H970,1572116076331.4,-0.827,9.159,1.273,41.1027598,16.8757367,False,NONE
2019-10-26 18:54:36.340,LG-H970,1572116076350.0,-1.933,10.884,1.544,41.1027598,16.8757367,False,NONE
2019-10-26 18:54:36.360,LG-H970,1572116076369.3333,-1.767,10.808,1.68,41.1032423,16.8756234,False,NONE
2019-10-26 18:54:36.380,LG-H970,1572116076387.0,-0.746,9.089,1.482,41.1034835,16.8755668,False,NONE
2019-10-26 18:54:36.400,LG-H970,1572116076410.0,-0.527,8.265,0.381,41.1034835,16.8755668,False,NONE
2019-10-26 18:54:36.420,LG-H970,1572116076430.5,-1.955,9.846,0.667,41.1034835,16.8755668,False,NONE
2019-10-26 18:54:36.440,LG-H970,1572116076450.5,-2.296,10.769,1.221,41.1034835,16.8755668,False,NONE
2019-10-26 18:54:36.460,LG-H970,1572116076470.5,-1.399,10.716,2.669,41.1034835,16.8755668,False,NONE
2019-10-26 18:54:36.480,LG-H970,1572116076485.0,-0.681,9.791,2.153,41.1034835,16.8755668,False,NONE
2019-10-26 18:54:36.500,LG-H970,1572116076509.0,-0.844,9.272,0.849,41.1034835,16.8755668,False,NONE
2019-10-26 18:54:36.520,LG-H970,1572116076529.75,-1.584,9.576,-0.19,41.1034835,16.8755668,False,NONE
2019-10-26 18:54:36.540,LG-H970,1572116076549.5,-1.418,10.356,1.32,41.1034835,16.8755668,False,NONE
2019-10-26 18:54:36.560,LG-H970,1572116076568.5,-0.839,10.421,2.782,41.1034835,16.8755668,False,NONE
2019-10-26 18:54:36.580,LG-H970,1572116076587.5,-0.782,10.675,2.428,41.1034835,16.8755668,False,NONE
2019-10-26 18:54:36.600,LG-H970,1572116076608.0,-1.629,10.001,0.989,41.1034835,16.8755668,False,NONE
2019-10-26 18:54:36.620,LG-H970,1572116076628.5,-2.105,9.009,0.201,41.1034835,16.8755668,False,NONE
2019-10-26 18:54:36.640,LG-H970,1572116076648.0,-0.845,9.113,0.127,41.1034835,16.8755668,False,NONE
2019-10-26 18:54:36.660,LG-H970,1572116076668.5,-0.181,9.308,2.351,41.1034835,16.8755668,False,NONE
2019-10-26 18:54:36.680,LG-H970,1572116076689.2,-0.598,10.123,2.266,41.1034835,16.8755668,False,NONE
2019-10-26 18:54:36.700,LG-H970,1572116076709.3333,-1.74,10.854,1.918,41.1034835,16.8755668,False,NONE
2019-10-26 18:54:36.720,LG-H970,1572116076727.25,-2.012,10.067,0.474,41.1034835,16.8755668,False,NONE
2019-10-26 18:54:36.740,LG-H970,1572116076746.75,-1.271,9.362,1.217,41.1034835,16.8755668,False,NONE
2019-10-26 18:54:36.760,LG-H970,1572116076768.75,-0.437,9.422,1.427,41.1034835,16.8755668,False,NONE
2019-10-26 18:54:36.780,LG-H970,1572116076791.75,-0.995,10.176,2.19,41.1034835,16.8755668,False,NONE
2019-10-26 18:54:36.800,LG-H970,1572116076810.5,-1.719,10.458,1.99,41.1034835,16.8755668,False,NONE
2019-10-26 18:54:36.820,LG-H970,1572116076830.25,-1.253,9.776,1.154,41.1034835,16.8755668,False,NONE
2019-10-26 18:54:36.840,LG-H970,1572116076850.5,-0.65,9.065,1.496,41.1034835,16.8755668,False,NONE
2019-10-26 18:54:36.860,LG-H970,1572116076870.5,-0.669,9.207,1.138,41.1034835,16.8755668,False,NONE
2019-10-26 18:54:36.880,LG-H970,1572116076890.0,-1.228,10.564,2.427,41.1034835,16.8755668,False,NONE
2019-10-26 18:54:36.900,LG-H970,1572116076909.75,-1.527,10.502,1.973,41.1034835,16.8755668,False,NONE
2019-10-26 18:54:36.920,LG-H970,1572116076929.5,-1.177,10.478,2.146,41.1034835,16.8755668,False,NONE
2019-10-26 18:54:36.940,LG-H970,1572116076948.0,-0.675,9.743,1.29,41.1034835,16.8755668,False,NONE
2019-10-26 18:54:36.960,LG-H970,1572116076968.0,-0.737,9.291,1.215,41.1034835,16.8755668,False,NONE
2019-10-26 18:54:36.980,LG-H970,1572116076988.25,-1.15,9.858,1.442,41.1034835,16.8755668,False,NONE
2019-10-26 18:54:37.000,LG-H970,1572116077008.25,-1.36,10.117,1.934,41.1034835,16.8755668,False,NONE
2019-10-26 18:54:37.020,LG-H970,1572116077027.5,-0.893,10.081,1.956,41.1034835,16.8755668,False,NONE
2019-10-26 18:54:37.040,LG-H970,1572116077047.25,-0.562,9.436,1.651,41.1034835,16.8755668,False,NONE
2019-10-26 18:54:37.060,LG-H970,1572116077069.6,-0.486,9.148,1.349,41.1034835,16.8755668,False,NONE
2019-10-26 18:54:37.080,LG-H970,1572116077089.0,-0.966,10.088,1.518,41.1034835,16.8755668,False,NONE
2019-10-26 18:54:37.100,LG-H970,1572116077108.8,-1.6,10.528,1.744,41.1034835,16.8755668,False,NONE
2019-10-26 18:54:37.120,LG-H970,1572116077128.3333,-1.309,10.784,2.272,41.1034835,16.8755668,False,NONE
2019-10-26 18:54:37.140,LG-H970,1572116077150.75,-0.758,9.794,1.737,41.1034835,16.8755668,False,NONE
2019-10-26 18:54:37.160,LG-H970,1572116077170.0,-0.672,9.301,1.097,41.1034835,16.8755668,False,NONE
2019-10-26 18:54:37.180,LG-H970,1572116077189.5,-1.265,9.585,1.38,41.1034835,16.8755668,False,NONE
2019-10-26 18:54:37.200,LG-H970,1572116077209.5,-1.259,10.122,1.627,41.1034835,16.8755668,False,NONE
2019-10-26 18:54:37.220,LG-H970,1572116077229.25,-0.976,10.175,2.455,41.1034835,16.8755668,False,NONE
2019-10-26 18:54:37.240,LG-H970,1572116077249.5,-0.598,9.714,1.857,41.1034835,16.8755668,False,NONE
2019-10-26 18:54:37.260,LG-H970,1572116077269.25,-0.757,9.541,1.394,41.1034835,16.8755668,False,NONE
2019-10-26 18:54:37.280,LG-H970,1572116077287.5,-0.993,9.491,0.862,41.1034835,16.8755668,False,NONE
2019-10-26 18:54:37.300,LG-H970,1572116077307.5,-1.051,9.942,1.749,41.1034835,16.8755668,False,NONE
2019-10-26 18:54:37.320,LG-H970,1572116077327.75,-0.807,10.402,1.916,41.1034835,16.8755668,False,NONE
2019-10-26 18:54:37.340,LG-H970,1572116077347.5,-0.961,10.249,2.354,41.1034835,16.8755668,False,NONE
2019-10-26 18:54:37.360,LG-H970,1572116077368.5,-0.836,9.7,1.318,41.1034835,16.8755668,False,NONE
2019-10-26 18:54:37.380,LG-H970,1572116077387.0,-0.872,9.753,1.071,41.1034835,16.8755668,False,NONE
2019-10-26 18:54:37.400,LG-H970,1572116077409.0,-1.177,9.758,1.408,41.1034835,16.8755668,False,NONE
2019-10-26 18:54:37.420,LG-H970,1572116077429.3333,-1.059,10.122,2.026,41.1034835,16.8755668,False,NONE
2019-10-26 18:54:37.440,LG-H970,1572116077449.0,-1.104,10.199,2.146,41.1034835,16.8755668,False,NONE
2019-10-26 18:54:37.460,LG-H970,1572116077471.25,-1.071,9.836,1.381,41.1034835,16.8755668,False,NONE
2019-10-26 18:54:37.480,LG-H970,1572116077490.75,-1.123,9.534,1.406,41.1034835,16.8755668,False,NONE
2019-10-26 18:54:37.500,LG-H970,1572116077510.5,-0.776,9.567,1.061,41.1034835,16.8755668,False,NONE
2019-10-26 18:54:37.520,LG-H970,1572116077530.25,-1.028,9.77,1.934,41.1034835,16.8755668,False,NONE
2019-10-26 18:54:37.540,LG-H970,1572116077550.25,-1.099,10.319,1.867,41.1034835,16.8755668,False,NONE
2019-10-26 18:54:37.560,LG-H970,1572116077569.75,-1.289,10.312,1.746,41.1034835,16.8755668,False,NONE
2019-10-26 18:54:37.580,LG-H970,1572116077589.5,-1.189,9.757,1.266,41.1034835,16.8755668,False,NONE
2019-10-26 18:54:37.600,LG-H970,1572116077609.0,-1.328,9.255,1.191,41.1034835,16.8755668,False,NONE
2019-10-26 18:54:37.620,LG-H970,1572116077628.75,-1.231,9.728,1.044,41.1034835,16.8755668,False,NONE
2019-10-26 18:54:37.640,LG-H970,1572116077646.6667,-1.633,9.863,1.795,41.1034835,16.8755668,False,NONE
2019-10-26 18:54:37.660,LG-H970,1572116077668.6667,-1.426,10.196,1.258,41.1034835,16.8755668,False,NONE
2019-10-26 18:54:37.680,LG-H970,1572116077691.75,-1.174,9.84,1.387,41.1034835,16.8755668,False,NONE
2019-10-26 18:54:37.700,LG-H970,1572116077709.0,-0.971,9.195,0.768,41.1034835,16.8755668,False,NONE
2019-10-26 18:54:37.720,LG-H970,1572116077729.2,-1.102,9.559,1.065,41.1034835,16.8755668,False,NONE
2019-10-26 18:54:37.740,LG-H970,1572116077751.5,-1.525,10.104,0.962,41.1034835,16.8755668,False,NONE
2019-10-26 18:54:37.760,LG-H970,1572116077772.5,-1.537,10.437,1.623,41.1034835,16.8755668,False,NONE
2019-10-26 18:54:37.780,LG-H970,1572116077791.25,-1.148,10.145,1.343,41.1034835,16.8755668,False,NONE
2019-10-26 18:54:37.800,LG-H970,1572116077810.75,-0.644,9.918,1.056,41.1034835,16.8755668,False,NONE
2019-10-26 18:54:37.820,LG-H970,1572116077830.25,-0.755,9.705,0.838,41.1034835,16.8755668,False,NONE
2019-10-26 18:54:37.840,LG-H970,1572116077850.25,-1.131,9.809,0.712,41.1034835,16.8755668,False,NONE
2019-10-26 18:54:37.860,LG-H970,1572116077870.5,-1.368,9.91,1.261,41.1034835,16.8755668,False,NONE
2019-10-26 18:54:37.880,LG-H970,1572116077890.0,-1.159,9.91,1.116,41.1034835,16.8755668,False,NONE
2019-10-26 18:54:37.900,LG-H970,1572116077909.5,-1.094,9.906,1.239,41.1034835,16.8755668,False,NONE
2019-10-26 18:54:37.920,LG-H970,1572116077929.5,-1.1,9.599,0.747,41.1034835,16.8755668,False,NONE
2019-10-26 18:54:37.940,LG-H970,1572116077949.0,-1.122,9.719,0.935,41.1034835,16.8755668,False,NONE
2019-10-26 18:54:37.960,LG-H970,1572116077968.75,-1.099,9.715,0.988,41.1034835,16.8755668,False,NONE
2019-10-26 18:54:37.980,LG-H970,1572116077989.0,-1.17,9.801,1.612,41.1034835,16.8755668,False,NONE
2019-10-26 18:54:38.000,LG-H970,1572116078008.25,-1.103,9.795,1.199,41.1034835,16.8755668,False,NONE
2019-10-26 18:54:38.020,LG-H970,1572116078029.6,-1.049,9.712,1.306,41.1034835,16.8755668,False,NONE
2019-10-26 18:54:38.040,LG-H970,1572116078052.5,-1.129,9.533,1.369,41.1034835,16.8755668,False,NONE
2019-10-26 18:54:38.060,LG-H970,1572116078072.0,-1.143,10.133,1.337,41.1034835,16.8755668,False,NONE
2019-10-26 18:54:38.080,LG-H970,1572116078091.75,-1.388,10.597,1.809,41.1034835,16.8755668,False,NONE
2019-10-26 18:54:38.100,LG-H970,1572116078111.5,-1.238,10.551,1.64,41.1034835,16.8755668,False,NONE
2019-10-26 18:54:38.120,LG-H970,1572116078131.0,-1.143,10.091,1.614,41.1034835,16.8755668,False,NONE
2019-10-26 18:54:38.140,LG-H970,1572116078149.6667,-1.021,9.935,1.518,41.1034835,16.8755668,False,NONE
2019-10-26 18:54:38.160,LG-H970,1572116078168.4,-1.38,9.713,1.263,41.1034835,16.8755668,False,NONE
