UTC_timestamp,device_name,timestamp,x,y,z,lat,long,event,speed
2019-10-26 09:56:03.680,LG-H970,1572083763691.75,-0.174,12.048,-0.362,41.1038389,16.8790971,False,NONE
2019-10-26 09:56:03.700,LG-H970,1572083763711.5,-0.946,9.41,-2.52,41.1038389,16.8790971,False,NONE
2019-10-26 09:56:03.720,LG-H970,1572083763730.75,-0.712,10.001,-0.592,41.1038389,16.8790971,False,NONE
2019-10-26 09:56:03.740,LG-H970,1572083763750.75,-0.554,8.587,-2.625,41.1038389,16.8790971,False,NONE
2019-10-26 09:56:03.760,LG-H970,1572083763769.75,0.027,10.622,-0.022,41.1038389,16.8790971,False,NONE
2019-10-26 09:56:03.780,LG-H970,1572083763790.0,-0.465,9.645,-1.616,41.1038389,16.8790971,False,NONE
2019-10-26 09:56:03.800,LG-H970,1572083763809.5,-0.223,10.59,0.622,41.1038389,16.8790971,False,NONE
2019-10-26 09:56:03.820,LG-H970,1572083763829.5,-0.132,9.618,-1.498,41.1038389,16.8790971,False,NONE
2019-10-26 09:56:03.840,LG-H970,1572083763849.25,-0.122,10.368,-0.776,41.1038389,16.8790971,False,NONE
2019-10-26 09:56:03.860,LG-H970,1572083763868.25,-0.651,9.342,-2.163,41.1038389,16.8790971,False,NONE
2019-10-26 09:56:03.880,LG-H970,1572083763889.0,-0.634,10.166,-0.268,41.1038389,16.8790971,False,NONE
2019-10-26 09:56:03.900,LG-H970,1572083763909.8,-0.831,9.898,-0.829,41.1038389,16.8790971,False,NONE
2019-10-26 09:56:03.920,LG-H970,1572083763930.0,-0.345,10.51,0.381,41.1038389,16.8790971,False,NONE
2019-10-26 09:56:03.940,LG-H970,1572083763947.5,-0.187,9.8,-1.342,41.1038389,16.8790971,False,NONE
2019-10-26 09:56:03.960,LG-H970,1572083763969.6,-0.895,9.58,-0.889,41.1038389,16.8790971,False,NONE
2019-10-26 09:56:03.980,LG-H970,1572083763992.0,-1.851,9.575,-1.768,41.1038389,16.8790971,False,NONE
2019-10-26 09:56:04.000,LG-H970,1572083764012.25,-1.937,9.866,-0.84,41.1038389,16.8790971,False,NONE
2019-10-26 09:56:04.020,LG-H970,1572083764030.75,-1.92,9.554,0.185,41.1038389,16.8790971,False,NONE
2019-10-26 09:56:04.040,LG-H970,1572083764050.75,-2.421,9.603,-0.164,41.1038389,16.8790971,False,NONE
2019-10-26 09:56:04.060,LG-H970,1572083764070.5,-2.778,8.828,-1.537,41.1038389,16.8790971,False,NONE
2019-10-26 09:56:04.080,LG-H970,1572083764090.5,-2.58,9.23,-1.021,41.1038389,16.8790971,False,NONE
2019-10-26 09:56:04.100,LG-H970,1572083764110.5,-2.325,8.605,-1.776,41.1038389,16.8790971,False,NONE
2019-10-26 09:56:04.120,LG-H970,1572083764130.25,-1.863,9.566,-0.341,41.1038389,16.8790971,False,NONE
2019-10-26 09:56:04.140,LG-H970,1572083764149.5,-2.494,9.225,-1.357,41.1038389,16.8790971,False,NONE
2019-10-26 09:56:04.160,LG-H970,1572083764170.0,-1.826,10.289,-0.733,41.1038389,16.8790971,False,NONE
2019-10-26 09:56:04.180,LG-H970,1572083764189.25,-1.049,8.605,-1.946,41.1038389,16.8790971,False,NONE
2019-10-26 09:56:04.200,LG-H970,1572083764209.0,-0.763,8.708,-1.196,41.1038389,16.8790971,False,NONE
2019-10-26 09:56:04.220,LG-H970,1572083764229.0,-1.359,8.957,-2.701,41.1038389,16.8790971,False,NONE
2019-10-26 09:56:04.240,LG-H970,1572083764248.75,-1.002,9.885,-1.494,41.1038389,16.8790971,False,NONE
2019-10-26 09:56:04.260,LG-H970,1572083764268.0,0.189,9.57,-1.328,41.1038389,16.8790971,False,NONE
2019-10-26 09:56:04.280,LG-H970,1572083764287.75,0.596,10.1,-0.109,41.1038389,16.8790971,False,NONE
2019-10-26 09:56:04.300,LG-H970,1572083764309.8,-0.157,10.339,-1.811,41.1038389,16.8790971,False,NONE
2019-10-26 09:56:04.320,LG-H970,1572083764332.0,-0.142,11.603,-1.522,41.1038389,16.8790971,False,NONE
2019-10-26 09:56:04.340,LG-H970,1572083764352.0,0.317,10.309,-1.592,41.1038389,16.8790971,False,NONE
2019-10-26 09:56:04.360,LG-H970,1572083764372.0,1.088,10.766,-0.277,41.1038389,16.8790971,False,NONE
2019-10-26 09:56:04.380,LG-H970,1572083764392.5,0.706,10.411,-1.324,41.1038389,16.8790971,False,NONE
2019-10-26 09:56:04.400,LG-H970,1572083764411.25,-0.163,10.638,-1.793,41.1038389,16.8790971,False,NONE
2019-10-26 09:56:04.420,LG-H970,1572083764431.5,-0.997,8.758,-1.728,41.1038389,16.8790971,False,NONE
2019-10-26 09:56:04.440,LG-H970,1572083764450.5,0.008,9.05,-1.18,41.1038389,16.8790971,False,NONE
2019-10-26 09:56:04.460,LG-H970,1572083764470.75,-0.907,8.944,-1.738,41.1038389,16.8790971,False,NONE
2019-10-26 09:56:04.480,LG-H970,1572083764490.25,-1.211,11.3,-0.863,41.1038389,16.8790971,False,NONE
2019-10-26 09:56:04.500,LG-H970,1572083764509.5,0.202,10.942,-0.119,41.1038389,16.8790971,False,NONE
2019-10-26 09:56:04.520,LG-H970,1572083764529.0,1.432,9.627,0.58,41.1038389,16.8790971,False,NONE
2019-10-26 09:56:04.540,LG-H970,1572083764548.75,0.47,9.803,-1.224,41.1038389,16.8790971,False,NONE
2019-10-26 09:56:04.560,LG-H970,1572083764568.5,-1.41,10.521,-1.877,41.1038389,16.8790971,False,NONE
2019-10-26 09:56:04.580,LG-H970,1572083764588.5,-0.726,10.088,-1.031,41.1038389,16.8790971,False,NONE
2019-10-26 09:56:04.600,LG-H970,1572083764608.0,1.348,9.573,0.133,41.1038389,16.8790971,False,NONE
2019-10-26 09:56:04.620,LG-H970,1572083764627.75,1.313,10.62,0.134,41.1038389,16.8790971,False,NONE
2019-10-26 09:56:04.640,LG-H970,1572083764647.25,-0.963,10.684,-1.247,41.1038389,16.8790971,False,NONE
2019-10-26 09:56:04.660,LG-H970,1572083764669.6,-0.622,10.471,-1.51,41.1038389,16.8790971,False,NONE
2019-10-26 09:56:04.680,LG-H970,1572083764691.75,1.397,9.341,-0.771,41.1038389,16.8790971,False,NONE
2019-10-26 09:56:04.700,LG-H970,1572083764711.75,0.789,9.688,-0.14,41.1038389,16.8790971,False,NONE
2019-10-26 09:56:04.720,LG-H970,1572083764731.5,-1.098,10.138,-1.039,41.1038389,16.8790971,False,NONE
2019-10-26 09:56:04.740,LG-H970,1572083764751.25,-0.559,10.607,-1.465,41.1038389,16.8790971,False,NONE
2019-10-26 09:56:04.760,LG-H970,1572083764772.25,1.468,9.392,-0.926,41.1038389,16.8790971,False,NONE
2019-10-26 09:56:04.780,LG-H970,1572083764790.0,2.254,9.677,0.193,41.1038389,16.8790971,False,NONE
2019-10-26 09:56:04.800,LG-H970,1572083764809.75,0.968,11.785,-0.74,41.1038389,16.8790971,False,NONE
2019-10-26 09:56:04.820,LG-H970,1572083764831.5,-0.311,11.464,0.113,41.1038389,16.8790971,False,NONE
2019-10-26 09:56:04.840,LG-H970,1572083764849.0,0.197,9.842,-0.234,41.1038389,16.8790971,False,NONE
2019-10-26 09:56:04.860,LG-H970,1572083764869.25,0.7,9.471,-1.155,41.1038389,16.8790971,False,NONE
2019-10-26 09:56:04.880,LG-H970,1572083764889.5,-0.132,8.534,-0.963,41.1038389,16.8790971,False,NONE
2019-10-26 09:56:04.900,LG-H970,1572083764908.25,-0.469,9.042,-0.764,41.1038389,16.8790971,False,NONE
2019-10-26 09:56:04.920,LG-H970,1572083764928.25,-0.779,10.675,-1.018,41.1038389,16.8790971,False,NONE
2019-10-26 09:56:04.940,LG-H970,1572083764948.25,-1.853,9.799,-0.018,41.1038389,16.8790971,False,NONE
2019-10-26 09:56:04.960,LG-H970,1572083764967.75,-1.353,9.331,0.125,41.1038389,16.8790971,False,NONE
2019-10-26 09:56:04.980,LG-H970,1572083764987.5,-0.481,9.093,-0.795,41.1038389,16.8790971,False,NONE
2019-10-26 09:56:05.000,LG-H970,1572083765008.5,-0.761,9.207,-1.385,41.1038389,16.8790971,False,NONE
2019-10-26 09:56:05.020,LG-H970,1572083765029.2,-1.938,9.691,-1.147,41.1038389,16.8790971,False,NONE
2019-10-26 09:56:05.040,LG-H970,1572083765051.5,-1.768,9.993,-0.778,41.1038389,16.8790971,False,NONE
2019-10-26 09:56:05.060,LG-H970,1572083765071.25,-0.21,9.539,-1.092,41.1038389,16.8790971,False,NONE
2019-10-26 09:56:05.080,LG-H970,1572083765089.6667,0.165,8.449,-1.286,41.1038389,16.8790971,False,NONE
2019-10-26 09:56:05.100,LG-H970,1572083765109.4,-0.802,9.511,-1.537,41.1038389,16.8790971,False,NONE
2019-10-26 09:56:05.120,LG-H970,1572083765130.75,-2.2,9.725,-1.355,41.1038389,16.8790971,False,NONE
2019-10-26 09:56:05.140,LG-H970,1572083765151.0,-1.535,10.372,-0.403,41.1038389,16.8790971,False,NONE
2019-10-26 09:56:05.160,LG-H970,1572083765170.25,-1.755,8.606,-0.455,41.1038389,16.8790971,False,NONE
2019-10-26 09:56:05.180,LG-H970,1572083765190.75,-1.158,10.637,-0.907,41.1038389,16.8790971,False,NONE
2019-10-26 09:56:05.200,LG-H970,1572083765210.0,-1.531,9.64,-3.598,41.1038389,16.8790971,False,NONE
2019-10-26 09:56:05.220,LG-H970,1572083765229.25,-2.297,8.825,-0.079,41.1038389,16.8790971,False,NONE
2019-10-26 09:56:05.240,LG-H970,1572083765249.0,-1.091,10.382,-1.9,41.1038389,16.8790971,False,NONE
2019-10-26 09:56:05.260,LG-H970,1572083765268.0,-0.562,10.328,0.395,41.1038389,16.8790971,False,NONE
2019-10-26 09:56:05.280,LG-H970,1572083765287.5,0.132,9.479,-1.148,41.1038389,16.8790971,False,NONE
2019-10-26 09:56:05.300,LG-H970,1572083765307.75,0.157,9.24,-0.796,41.1038389,16.8790971,False,NONE
2019-10-26 09:56:05.320,LG-H970,1572083765327.5,0.05,9.476,-1.694,41.1038389,16.8790971,False,NONE
2019-10-26 09:56:05.340,LG-H970,1572083765349.6,-0.381,9.794,-0.51,41.1038389,16.8790971,False,NONE
2019-10-26 09:56:05.360,LG-H970,1572083765372.0,-0.153,10.209,-1.073,41.1038389,16.8790971,False,NONE
2019-10-26 09:56:05.380,LG-H970,1572083765389.3333,-0.057,10.302,-0.61,41.1038389,16.8790971,False,NONE
2019-10-26 09:56:05.400,LG-H970,1572083765412.75,-0.243,9.591,-0.949,41.1038389,16.8790971,False,NONE
2019-10-26 09:56:05.420,LG-H970,1572083765428.6667,0.022,9.445,-1.212,41.1038389,16.8790971,False,NONE
2019-10-26 09:56:05.440,LG-H970,1572083765451.0,1.003,9.492,-0.623,41.1038389,16.8790971,False,NONE
2019-10-26 09:56:05.460,LG-H970,1572083765471.0,2.186,10.7,-1.935,41.1038389,16.8790971,False,NONE
2019-10-26 09:56:05.480,LG-H970,1572083765490.0,0.224,8.316,-1.093,41.1038389,16.8790971,False,NONE
2019-10-26 09:56:05.500,LG-H970,1572083765511.25,0.078,9.778,-1.694,41.1038389,16.8790971,False,NONE
2019-10-26 09:56:05.520,LG-H970,1572083765529.75,0.852,9.794,-2.953,41.1038389,16.8790971,False,NONE
2019-10-26 09:56:05.540,LG-H970,1572083765550.25,1.482,10.53,1.233,41.1038389,16.8790971,False,NONE
2019-10-26 09:56:05.560,LG-H970,1572083765568.75,1.074,10.341,-0.894,41.1038389,16.8790971,False,NONE
2019-10-26 09:56:05.580,LG-H970,1572083765588.5,0.138,11.425,-1.263,41.1038389,16.8790971,False,NONE
2019-10-26 09:56:05.600,LG-H970,1572083765608.5,0.258,9.794,-2.047,41.1038389,16.8790971,False,NONE
2019-10-26 09:56:05.620,LG-H970,1572083765629.0,1.554,9.625,-0.815,41.1038389,16.8790971,False,NONE
2019-10-26 09:56:05.640,LG-H970,1572083765648.5,0.582,9.919,0.256,41.1038389,16.8790971,False,NONE
2019-10-26 09:56:05.660,LG-H970,1572083765668.0,-0.602,12.276,-1.35,41.1038389,16.8790971,False,NONE
2019-10-26 09:56:05.680,LG-H970,1572083765687.5,-0.871,11.382,-0.329,41.1038389,16.8790971,False,NONE
2019-10-26 09:56:05.700,LG-H970,1572083765708.0,0.364,7.951,-0.086,41.1038389,16.8790971,False,NONE
2019-10-26 09:56:05.720,LG-H970,1572083765727.75,1.276,8.386,-0.637,41.1038389,16.8790971,False,NONE
2019-10-26 09:56:05.740,LG-H970,1572083765749.6,-1.416,9.297,-1.781,41.1038389,16.8790971,False,NONE
2019-10-26 09:56:05.760,LG-H970,1572083765772.0,-3.446,9.842,0.082,41.1038389,16.8790971,False,NONE
2019-10-26 09:56:05.780,LG-H970,1572083765791.25,-2.615,8.932,0.063,41.1038389,16.8790971,False,NONE
2019-10-26 09:56:05.800,LG-H970,1572083765811.75,-2.059,9.175,-0.59,41.1038389,16.8790971,False,NONE
2019-10-26 09:56:05.820,LG-H970,1572083765830.75,-3.053,8.519,-1.523,41.1038389,16.8790971,False,NONE
2019-10-26 09:56:05.840,LG-H970,1572083765850.5,-2.811,9.045,-0.785,41.1038389,16.8790971,False,NONE
2019-10-26 09:56:05.860,LG-H970,1572083765870.5,-1.706,10.032,-0.521,41.1038389,16.8790971,False,NONE
2019-10-26 09:56:05.880,LG-H970,1572083765888.0,-1.928,10.84,0.322,41.1038389,16.8790971,False,NONE
2019-10-26 09:56:05.900,LG-H970,1572083765909.25,-2.675,10.627,-0.819,41.1038389,16.8790971,False,NONE
2019-10-26 09:56:05.920,LG-H970,1572083765928.75,-2.06,9.678,-0.587,41.1038389,16.8790971,False,NONE
2019-10-26 09:56:05.940,LG-H970,1572083765948.5,-0.106,9.815,-2.702,41.1038389,16.8790971,False,NONE
2019-10-26 09:56:05.960,LG-H970,1572083765968.5,-0.651,9.496,0.028,41.1038389,16.8790971,False,NONE
2019-10-26 09:56:05.980,LG-H970,1572083765988.25,-0.637,9.363,-0.748,41.1038389,16.8790971,False,NONE
2019-10-26 09:56:06.000,LG-H970,1572083766010.6667,-0.329,11.089,-1.215,41.1038389,16.8790971,False,NONE
2019-10-26 09:56:06.020,LG-H970,1572083766029.8,-1.159,10.433,-1.703,41.1038389,16.8790971,False,NONE
2019-10-26 09:56:06.040,LG-H970,1572083766051.5,-0.488,9.711,-0.163,41.1038389,16.8790971,False,NONE
2019-10-26 09:56:06.060,LG-H970,1572083766075.5,0.872,9.874,-0.169,41.1038389,16.8790971,False,NONE
2019-10-26 09:56:06.080,LG-H970,1572083766090.75,-0.576,10.295,0.58,41.1038389,16.8790971,False,NONE
2019-10-26 09:56:06.100,LG-H970,1572083766110.5,-0.477,11.111,-1.926,41.1038389,16.8790971,False,NONE
2019-10-26 09:56:06.120,LG-H970,1572083766128.6667,1.011,10.089,-0.489,41.1038389,16.8790971,False,NONE
2019-10-26 09:56:06.140,LG-H970,1572083766149.0,1.018,8.289,-1.25,41.1038389,16.8790971,False,NONE
2019-10-26 09:56:06.160,LG-H970,1572083766170.0,-0.563,8.728,-1.576,41.1038389,16.8790971,False,NONE
2019-10-26 09:56:06.180,LG-H970,1572083766190.25,-0.787,10.568,-0.656,41.1038389,16.8790971,False,NONE
2019-10-26 09:56:06.200,LG-H970,1572083766210.25,0.042,8.528,-1.192,41.1038389,16.8790971,False,NONE
2019-10-26 09:56:06.220,LG-H970,1572083766229.25,1.909,9.078,-0.046,41.1038389,16.8790971,False,NONE
2019-10-26 09:56:06.240,LG-H970,1572083766249.75,3.487,10.131,-3.273,41.1038389,16.8790971,False,NONE
2019-10-26 09:56:06.260,LG-H970,1572083766268.75,0.724,8.855,0.652,41.1038389,16.8790971,False,NONE
2019-10-26 09:56:06.280,LG-H970,1572083766287.75,1.864,12.264,-1.474,41.1038389,16.8790971,False,NONE
2019-10-26 09:56:06.300,LG-H970,1572083766307.5,1.767,10.711,0.74,41.1038389,16.8790971,False,NONE
2019-10-26 09:56:06.320,LG-H970,1572083766327.75,0.94,10.812,0.794,41.1038389,16.8790971,False,NONE
2019-10-26 09:56:06.340,LG-H970,1572083766347.5,-1.048,11.079,-3.045,41.1038389,16.8790971,False,NONE
2019-10-26 09:56:06.360,LG-H970,1572083766368.25,-1.514,10.616,0.543,41.1038389,16.8790971,False,NONE
2019-10-26 09:56:06.380,LG-H970,1572083766390.0,0.595,10.841,0.585,41.1038389,16.8790971,False,NONE
2019-10-26 09:56:06.400,LG-H970,1572083766411.25,-0.887,11.846,3.453,41.1038389,16.8790971,False,NONE
2019-10-26 09:56:06.420,LG-H970,1572083766432.0,-3.41,11.477,-1.078,41.1038389,16.8790971,False,NONE
2019-10-26 09:56:06.440,LG-H970,1572083766451.25,-3.754,10.837,-2.084,41.1038389,16.8790971,False,NONE
2019-10-26 09:56:06.460,LG-H970,1572083766471.0,-2.789,7.763,-1.253,41.1038389,16.8790971,False,NONE
2019-10-26 09:56:06.480,LG-H970,1572083766491.5,-2.072,8.34,-0.58,41.1038389,16.8790971,False,NONE
2019-10-26 09:56:06.500,LG-H970,1572083766509.75,-3.006,9.729,-1.315,41.1038389,16.8790971,False,NONE
2019-10-26 09:56:06.520,LG-H970,1572083766529.75,-1.936,9.769,-0.409,41.1038389,16.8790971,False,NONE
2019-10-26 09:56:06.540,LG-H970,1572083766550.0,-0.738,8.475,-0.107,41.1038389,16.8790971,False,NONE
2019-10-26 09:56:06.560,LG-H970,1572083766569.5,-1.756,9.488,0.155,41.1038389,16.8790971,False,NONE
2019-10-26 09:56:06.580,LG-H970,1572083766589.75,-2.967,10.644,-2.427,41.1038389,16.8790971,False,NONE
2019-10-26 09:56:06.600,LG-H970,1572083766609.5,-1.474,10.192,-1.351,41.1038389,16.8790971,False,NONE
2019-10-26 09:56:06.620,LG-H970,1572083766629.0,2.422,8.83,-0.742,41.1038389,16.8790971,False,NONE
2019-10-26 09:56:06.640,LG-H970,1572083766648.0,2.967,7.99,0.067,41.1038389,16.8790971,False,NONE
2019-10-26 09:56:06.660,LG-H970,1572083766668.0,-0.064,9.446,-1.543,41.1038389,16.8790971,False,NONE
2019-10-26 09:56:06.680,LG-H970,1572083766687.75,-2.776,11.263,-2.508,41.1038389,16.8790971,False,NONE
2019-10-26 09:56:06.700,LG-H970,1572083766707.75,-1.34,11.931,0.509,41.1038389,16.8790971,False,NONE
2019-10-26 09:56:06.720,LG-H970,1572083766727.25,0.91,9.4,0.589,41.1038389,16.8790971,False,NONE
2019-10-26 09:56:06.740,LG-H970,1572083766747.75,0.275,7.734,0.435,41.1038389,16.8790971,False,NONE
2019-10-26 09:56:06.760,LG-H970,1572083766770.0,-1.388,7.666,-3.488,41.1038389,16.8790971,False,NONE
2019-10-26 09:56:06.780,LG-H970,1572083766792.25,-2.196,7.899,-2.654,41.1038389,16.8790971,False,NONE
2019-10-26 09:56:06.800,LG-H970,1572083766809.3333,-1.689,8.302,-1.697,41.1038389,16.8790971,False,NONE
2019-10-26 09:56:06.820,LG-H970,1572083766829.0,-0.037,10.67,0.745,41.1038389,16.8790971,False,NONE
2019-10-26 09:56:06.840,LG-H970,1572083766850.5,0.845,10.58,-0.356,41.1038389,16.8790971,False,NONE
2019-10-26 09:56:06.860,LG-H970,1572083766871.0,0.986,10.362,-1.026,41.1038389,16.8790971,False,NONE
2019-10-26 09:56:06.880,LG-H970,1572083766890.75,0.294,7.49,-0.546,41.1038389,16.8790971,False,NONE
2019-10-26 09:56:06.900,LG-H970,1572083766907.3333,0.572,7.882,-2.594,41.1038389,16.8790971,False,NONE
2019-10-26 09:56:06.920,LG-H970,1572083766930.0,-1.332,10.755,-2.837,41.1038389,16.8790971,False,NONE
2019-10-26 09:56:06.940,LG-H970,1572083766948.5,-2.506,11.08,-0.026,41.1038389,16.8790971,False,NONE
2019-10-26 09:56:06.960,LG-H970,1572083766968.5,1.111,10.508,0.61,41.1038389,16.8790971,False,NONE
2019-10-26 09:56:06.980,LG-H970,1572083766988.5,1.399,11.003,1.267,41.1038389,16.8790971,False,NONE
2019-10-26 09:56:07.000,LG-H970,1572083767008.5,-3.287,10.891,-1.474,41.1038389,16.8790971,False,NONE
2019-10-26 09:56:07.020,LG-H970,1572083767028.5,-2.741,12.764,-2.214,41.1038389,16.8790971,False,NONE
2019-10-26 09:56:07.040,LG-H970,1572083767049.2,0.753,9.446,1.084,41.1038389,16.8790971,False,NONE
2019-10-26 09:56:07.060,LG-H970,1572083767069.3333,1.118,11.172,1.153,41.1038389,16.8790971,False,NONE
2019-10-26 09:56:07.080,LG-H970,1572083767089.4,-2.93,13.473,-0.702,41.1038389,16.8790971,False,NONE
2019-10-26 09:56:07.100,LG-H970,1572083767111.75,-2.737,13.545,0.418,41.1038389,16.8790971,False,NONE
2019-10-26 09:56:07.120,LG-H970,1572083767132.25,1.002,7.434,0.671,41.1038389,16.8790971,False,NONE
2019-10-26 09:56:07.140,LG-H970,1572083767151.75,1.003,6.855,1.838,41.1038389,16.8790971,False,NONE
2019-10-26 09:56:07.160,LG-H970,1572083767170.5,-2.486,8.658,-3.651,41.1038389,16.8790971,False,NONE
2019-10-26 09:56:07.180,LG-H970,1572083767190.75,-3.687,9.847,-2.326,41.1038389,16.8790971,False,NONE
2019-10-26 09:56:07.200,LG-H970,1572083767210.75,-0.631,9.123,0.335,41.1038389,16.8790971,False,NONE
2019-10-26 09:56:07.220,LG-H970,1572083767230.25,0.889,8.437,1.435,41.1038389,16.8790971,False,NONE
2019-10-26 09:56:07.240,LG-H970,1572083767250.5,-1.862,8.349,0.726,41.1038389,16.8790971,False,NONE
2019-10-26 09:56:07.260,LG-H970,1572083767270.25,-3.044,8.829,-3.271,41.1038389,16.8790971,False,NONE
2019-10-26 09:56:07.280,LG-H970,1572083767289.5,-1.556,8.677,-1.223,41.1038389,16.8790971,False,NONE
2019-10-26 09:56:07.300,LG-H970,1572083767309.25,1.43,10.301,0.708,41.1038389,16.8790971,False,NONE
2019-10-26 09:56:07.320,LG-H970,1572083767329.75,1.27,11.533,3.494,41.1038389,16.8790971,False,NONE
2019-10-26 09:56:07.340,LG-H970,1572083767349.25,3.164,18.458,0.48,41.1038389,16.8790971,False,NONE
2019-10-26 09:56:07.360,LG-H970,1572083767369.0,3.066,14.835,0.438,41.1038389,16.8790971,False,NONE
2019-10-26 09:56:07.380,LG-H970,1572083767388.25,2.231,7.377,1.16,41.1038389,16.8790971,False,NONE
2019-10-26 09:56:07.400,LG-H970,1572083767408.0,2.42,9.655,-3.225,41.1038389,16.8790971,False,NONE
2019-10-26 09:56:07.420,LG-H970,1572083767429.0,-1.559,10.443,-1.794,41.1038389,16.8790971,False,NONE
2019-10-26 09:56:07.440,LG-H970,1572083767451.5,1.232,11.85,0.395,41.1038389,16.8790971,False,NONE
2019-10-26 09:56:07.460,LG-H970,1572083767471.25,1.757,9.127,0.439,41.1038389,16.8790971,False,NONE
2019-10-26 09:56:07.480,LG-H970,1572083767489.3333,-0.514,8.718,-2.124,41.1038389,16.8790971,False,NONE
2019-10-26 09:56:07.500,LG-H970,1572083767509.4,-2.753,7.768,-4.374,41.1038389,16.8790971,False,NONE
2019-10-26 09:56:07.520,LG-H970,1572083767531.25,-1.675,7.664,-2.215,41.1038389,16.8790971,False,NONE
2019-10-26 09:56:07.540,LG-H970,1572083767550.0,-0.131,8.339,-1.215,41.1038389,16.8790971,False,NONE
2019-10-26 09:56:07.560,LG-H970,1572083767570.5,-1.207,11.121,1.716,41.1038389,16.8790971,False,NONE
2019-10-26 09:56:07.580,LG-H970,1572083767590.0,-3.229,11.215,-2.294,41.1038389,16.8790971,False,NONE
2019-10-26 09:56:07.600,LG-H970,1572083767610.0,-1.885,9.074,-0.385,41.1038389,16.8790971,False,NONE
2019-10-26 09:56:07.620,LG-H970,1572083767630.25,1.762,8.139,-3.51,41.1038389,16.8790971,False,NONE
2019-10-26 09:56:07.640,LG-H970,1572083767649.5,0.221,7.602,0.386,41.1038389,16.8790971,False,NONE
2019-10-26 09:56:07.660,LG-H970,1572083767669.0,-4.137,7.684,-0.808,41.1038389,16.8790971,False,NONE
2019-10-26 09:56:07.680,LG-H970,1572083767688.75,-3.448,12.341,1.177,41.1038389,16.8790971,False,NONE
2019-10-26 09:56:07.700,LG-H970,1572083767707.75,-1.151,10.186,-1.097,41.1038389,16.8790971,False,NONE
2019-10-26 09:56:07.720,LG-H970,1572083767727.5,-0.204,9.041,1.406,41.1038389,16.8790971,False,NONE
2019-10-26 09:56:07.740,LG-H970,1572083767747.5,-1.834,5.973,-1.164,41.1038389,16.8790971,False,NONE
2019-10-26 09:56:07.760,LG-H970,1572083767767.5,-2.389,9.931,-1.193,41.1038389,16.8790971,False,NONE
2019-10-26 09:56:07.780,LG-H970,1572083767789.8,-1.852,10.194,-1.557,41.1038389,16.8790971,False,NONE
2019-10-26 09:56:07.800,LG-H970,1572083767812.0,0.501,9.757,2.5,41.1038389,16.8790971,False,NONE
2019-10-26 09:56:07.820,LG-H970,1572083767831.0,5.441,11.561,-3.295,41.1038389,16.8790971,False,NONE
2019-10-26 09:56:07.840,LG-H970,1572083767851.0,2.042,7.793,-1.176,41.1038389,16.8790971,False,NONE
2019-10-26 09:56:07.860,LG-H970,1572083767871.5,0.449,10.847,-2.944,41.1038389,16.8790971,False,NONE
2019-10-26 09:56:07.880,LG-H970,1572083767888.3333,0.305,12.478,-2.579,41.1038389,16.8790971,False,NONE
2019-10-26 09:56:07.900,LG-H970,1572083767908.6,1.632,11.228,3.152,41.1038389,16.8790971,False,NONE
2019-10-26 09:56:07.920,LG-H970,1572083767930.5,2.136,11.147,-0.971,41.1038389,16.8790971,False,NONE
2019-10-26 09:56:07.940,LG-H970,1572083767949.75,-0.8,11.223,-0.99,41.1038389,16.8790971,False,NONE
2019-10-26 09:56:07.960,LG-H970,1572083767969.75,-2.634,9.726,-2.759,41.1038389,16.8790971,False,NONE
2019-10-26 09:56:07.980,LG-H970,1572083767988.75,-1.179,9.49,0.021,41.1038389,16.8790971,False,NONE
2019-10-26 09:56:08.000,LG-H970,1572083768008.5,0.312,9.393,0.849,41.1038389,16.8790971,False,NONE
2019-10-26 09:56:08.020,LG-H970,1572083768029.25,-1.349,11.495,1.014,41.1038389,16.8790971,False,NONE
2019-10-26 09:56:08.040,LG-H970,1572083768048.0,-4.404,11.435,-1.066,41.1038389,16.8790971,False,NONE
2019-10-26 09:56:08.060,LG-H970,1572083768068.5,-2.573,11.267,0.452,41.1038389,16.8790971,False,NONE
2019-10-26 09:56:08.080,LG-H970,1572083768089.2,0.856,9.615,0.882,41.1038389,16.8790971,False,NONE
2019-10-26 09:56:08.100,LG-H970,1572083768109.3333,0.738,10.287,2.116,41.1038389,16.8790971,False,NONE
2019-10-26 09:56:08.120,LG-H970,1572083768129.2,-1.994,9.761,-0.489,41.1038389,16.8790971,False,NONE
2019-10-26 09:56:08.140,LG-H970,1572083768150.75,-1.475,9.066,-0.253,41.1038389,16.8790971,False,NONE
2019-10-26 09:56:08.160,LG-H970,1572083768170.75,0.391,7.848,-1.501,41.1038389,16.8790971,False,NONE
2019-10-26 09:56:08.180,LG-H970,1572083768190.75,0.29,7.993,0.561,41.1038389,16.8790971,False,NONE
2019-10-26 09:56:08.200,LG-H970,1572083768211.0,-1.562,8.858,-1.115,41.1038389,16.8790971,False,NONE
2019-10-26 09:56:08.220,LG-H970,1572083768230.5,-2.291,10.923,0.435,41.1038389,16.8790971,False,NONE
2019-10-26 09:56:08.240,LG-H970,1572083768248.3333,-3.345,9.934,-0.727,41.1038389,16.8790971,False,NONE
2019-10-26 09:56:08.260,LG-H970,1572083768266.5,-2.104,9.93,-0.719,41.1038389,16.8790971,False,NONE
2019-10-26 09:56:08.280,LG-H970,1572083768287.8,1.618,10.238,-1.487,41.1038389,16.8790971,False,NONE
2019-10-26 09:56:08.300,LG-H970,1572083768309.0,-0.098,8.193,0.987,41.1038389,16.8790971,False,NONE
2019-10-26 09:56:08.320,LG-H970,1572083768328.75,-1.311,12.61,-2.147,41.1038389,16.8790971,False,NONE
2019-10-26 09:56:08.340,LG-H970,1572083768348.5,-2.705,11.641,-2.409,41.1038389,16.8790971,False,NONE
2019-10-26 09:56:08.360,LG-H970,1572083768369.0,-0.894,9.769,-0.62,41.1038389,16.8790971,False,NONE
2019-10-26 09:56:08.380,LG-H970,1572083768388.25,0.588,7.974,-0.246,41.1038389,16.8790971,False,NONE
2019-10-26 09:56:08.400,LG-H970,1572083768408.0,-1.201,10.558,-2.547,41.1038389,16.8790971,False,NONE
2019-10-26 09:56:08.420,LG-H970,1572083768429.0,-3.466,10.863,-3.329,41.1038389,16.8790971,False,NONE
2019-10-26 09:56:08.440,LG-H970,1572083768447.25,-0.729,9.572,-0.272,41.1038389,16.8790971,False,NONE
2019-10-26 09:56:08.460,LG-H970,1572083768469.2,1.893,7.612,0.516,41.1038389,16.8790971,False,NONE
2019-10-26 09:56:08.480,LG-H970,1572083768491.5,0.482,10.825,-0.188,41.1038389,16.8790971,False,NONE
2019-10-26 09:56:08.500,LG-H970,1572083768512.0,-1.787,11.097,-2.868,41.1038389,16.8790971,False,NONE
2019-10-26 09:56:08.520,LG-H970,1572083768531.5,-1.103,9.391,0.364,41.1038389,16.8790971,False,NONE
2019-10-26 09:56:08.540,LG-H970,1572083768550.0,1.444,6.675,-1.785,41.1038389,16.8790971,False,NONE
2019-10-26 09:56:08.560,LG-H970,1572083768570.0,3.611,7.675,0.036,41.1038389,16.8790971,False,NONE
2019-10-26 09:56:08.580,LG-H970,1572083768589.75,1.81,6.753,-1.997,41.1038389,16.8790971,False,NONE
2019-10-26 09:56:08.600,LG-H970,1572083768610.25,-0.762,10.779,0.742,41.1038389,16.8790971,False,NONE
2019-10-26 09:56:08.620,LG-H970,1572083768630.25,-0.949,11.489,0.514,41.1038389,16.8790971,False,NONE
2019-10-26 09:56:08.640,LG-H970,1572083768649.75,2.073,10.004,2.725,41.1038389,16.8790971,False,NONE
2019-10-26 09:56:08.660,LG-H970,1572083768665.5,3.575,7.998,0.457,41.1038389,16.8790971,False,NONE
2019-10-26 09:56:08.680,LG-H970,1572083768687.75,0.069,10.171,-2.655,41.1038389,16.8790971,True,NONE
2019-10-26 09:56:08.700,LG-H970,1572083768708.0,-4.452,10.219,-0.625,41.1038389,16.8790971,True,NONE
2019-10-26 09:56:08.720,LG-H970,1572083768728.0,-0.51,12.441,0.239,41.1038389,16.8790971,False,NONE
2019-10-26 09:56:08.740,LG-H970,1572083768747.25,-0.729,10.586,2.709,41.1038389,16.8790971,False,NONE
2019-10-26 09:56:08.760,LG-H970,1572083768767.5,-3.299,11.935,0.485,41.1038389,16.8790971,False,NONE
2019-10-26 09:56:08.780,LG-H970,1572083768787.5,-3.09,9.246,-3.293,41.1038389,16.8790971,False,NONE
2019-10-26 09:56:08.800,LG-H970,1572083768809.8,-0.831,9.412,-0.002,41.1038389,16.8790971,False,NONE
2019-10-26 09:56:08.820,LG-H970,1572083768832.0,-3.284,9.052,-1.501,41.1038389,16.8790971,False,NONE
2019-10-26 09:56:08.840,LG-H970,1572083768852.0,-3.743,13.02,1.336,41.1038389,16.8790971,False,NONE
2019-10-26 09:56:08.860,LG-H970,1572083768871.5,-2.342,11.926,-0.071,41.1038389,16.8790971,False,NONE
2019-10-26 09:56:08.880,LG-H970,1572083768888.6667,-0.4,10.89,1.965,41.1038389,16.8790971,False,NONE
2019-10-26 09:56:08.900,LG-H970,1572083768908.4,-0.521,8.396,-1.009,41.1038389,16.8790971,False,NONE
2019-10-26 09:56:08.920,LG-H970,1572083768930.75,-2.546,9.97,-1.29,41.1038389,16.8790971,False,NONE
2019-10-26 09:56:08.940,LG-H970,1572083768949.5,-2.647,10.468,-2.655,41.1038389,16.8790971,False,NONE
2019-10-26 09:56:08.960,LG-H970,1572083768968.5,-0.013,9.792,0.544,41.1038389,16.8790971,False,NONE
2019-10-26 09:56:08.980,LG-H970,1572083768988.5,2.549,8.67,1.168,41.1038389,16.8790971,False,NONE
2019-10-26 09:56:09.000,LG-H970,1572083769009.25,0.518,9.545,1.521,41.1038389,16.8790971,False,NONE
2019-10-26 09:56:09.020,LG-H970,1572083769029.0,-2.096,10.951,-0.953,41.1038389,16.8790971,False,NONE
2019-10-26 09:56:09.040,LG-H970,1572083769048.5,0.465,10.439,-0.148,41.1038389,16.8790971,False,NONE
2019-10-26 09:56:09.060,LG-H970,1572083769068.5,1.09,7.321,-0.617,41.1038389,16.8790971,False,NONE
2019-10-26 09:56:09.080,LG-H970,1572083769088.0,0.017,9.439,-0.614,41.1038389,16.8790971,False,NONE
2019-10-26 09:56:09.100,LG-H970,1572083769107.5,0.005,9.155,-0.792,41.1038389,16.8790971,False,NONE
2019-10-26 09:56:09.120,LG-H970,1572083769128.0,0.059,9.004,0.231,41.1038389,16.8790971,False,NONE
2019-10-26 09:56:09.140,LG-H970,1572083769147.75,-0.573,11.089,-2.4,41.1038389,16.8790971,False,NONE
2019-10-26 09:56:09.160,LG-H970,1572083769168.0,-2.342,8.682,0.981,41.1038389,16.8790971,False,NONE
2019-10-26 09:56:09.180,LG-H970,1572083769187.5,1.192,9.52,-1.084,41.1038389,16.8790971,False,NONE
2019-10-26 09:56:09.200,LG-H970,1572083769207.5,0.984,11.102,-0.624,41.1038389,16.8790971,False,NONE
2019-10-26 09:56:09.220,LG-H970,1572083769226.75,-1.399,11.777,0.488,41.1038389,16.8790971,False,NONE
2019-10-26 09:56:09.240,LG-H970,1572083769249.2,1.335,13.674,-0.074,41.1038389,16.8790971,False,NONE
2019-10-26 09:56:09.260,LG-H970,1572083769270.75,-1.141,8.761,1.229,41.1038389,16.8790971,False,NONE
2019-10-26 09:56:09.280,LG-H970,1572083769291.0,-3.086,5.656,-1.143,41.1038389,16.8790971,False,NONE
2019-10-26 09:56:09.300,LG-H970,1572083769310.75,-1.69,10.37,-4.212,41.1038389,16.8790971,False,NONE
2019-10-26 09:56:09.320,LG-H970,1572083769329.75,-2.617,8.863,-1.576,41.1038389,16.8790971,False,NONE
2019-10-26 09:56:09.340,LG-H970,1572083769349.5,0.302,9.052,0.922,41.1038389,16.8790971,False,NONE
2019-10-26 09:56:09.360,LG-H970,1572083769369.5,2.007,10.128,1.202,41.1038389,16.8790971,False,NONE
2019-10-26 09:56:09.380,LG-H970,1572083769388.75,-2.381,10.337,0.105,41.1038389,16.8790971,False,NONE
2019-10-26 09:56:09.400,LG-H970,1572083769406.3333,-4.006,9.251,-1.913,41.1038389,16.8790971,False,NONE
2019-10-26 09:56:09.420,LG-H970,1572083769428.75,0.208,8.511,-1.541,41.1038389,16.8790971,False,NONE
2019-10-26 09:56:09.440,LG-H970,1572083769447.75,0.844,7.059,0.585,41.1038389,16.8790971,False,NONE
2019-10-26 09:56:09.460,LG-H970,1572083769467.75,-1.621,10.807,-0.23,41.1038389,16.8790971,False,NONE
2019-10-26 09:56:09.480,LG-H970,1572083769487.75,-3.059,11.176,0.688,41.1038389,16.8790971,False,NONE
2019-10-26 09:56:09.500,LG-H970,1572083769511.25,0.109,8.498,-0.004,41.1038389,16.8790971,False,NONE
2019-10-26 09:56:09.520,LG-H970,1572083769531.5,0.099,8.336,1.813,41.1038389,16.8790971,False,NONE
2019-10-26 09:56:09.540,LG-H970,1572083769551.5,-2.69,11.829,-1.594,41.1038389,16.8790971,False,NONE
2019-10-26 09:56:09.560,LG-H970,1572083769571.5,-4.806,12.343,0.486,41.1038389,16.8790971,False,NONE
2019-10-26 09:56:09.580,LG-H970,1572083769590.75,0.081,11.046,1.825,41.1038389,16.8790971,False,NONE
2019-10-26 09:56:09.600,LG-H970,1572083769610.75,1.955,10.155,1.843,41.1038389,16.8790971,False,NONE
2019-10-26 09:56:09.620,LG-H970,1572083769630.75,-2.139,10.206,-0.007,41.1038389,16.8790971,False,NONE
2019-10-26 09:56:09.640,LG-H970,1572083769650.5,-1.992,9.979,-2.831,41.1038389,16.8790971,False,NONE
2019-10-26 09:56:09.660,LG-H970,1572083769670.25,1.607,9.201,-0.795,41.1038389,16.8790971,False,NONE
2019-10-26 09:56:09.680,LG-H970,1572083769690.0,4.09,12.838,0.175,41.1038389,16.8790971,False,NONE
2019-10-26 09:56:09.700,LG-H970,1572083769709.5,-0.566,9.686,1.539,41.1038389,16.8790971,False,NONE
2019-10-26 09:56:09.720,LG-H970,1572083769728.75,-2.59,9.801,1.579,41.1038389,16.8790971,False,NONE
2019-10-26 09:56:09.740,LG-H970,1572083769748.5,-0.553,8.35,-4.047,41.1038389,16.8790971,False,NONE
2019-10-26 09:56:09.760,LG-H970,1572083769768.75,1.975,10.783,0.726,41.1038389,16.8790971,False,NONE
2019-10-26 09:56:09.780,LG-H970,1572083769789.75,0.612,8.325,0.493,41.1038389,16.8790971,False,NONE
2019-10-26 09:56:09.800,LG-H970,1572083769808.25,-1.523,10.915,2.364,41.1038389,16.8790971,False,NONE
2019-10-26 09:56:09.820,LG-H970,1572083769828.0,-1.719,12.92,0.57,41.1038389,16.8790971,False,NONE
2019-10-26 09:56:09.840,LG-H970,1572083769847.75,-1.516,11.193,1.237,41.1038389,16.8790971,False,NONE
2019-10-26 09:56:09.860,LG-H970,1572083769867.75,0.66,9.251,1.127,41.1038389,16.8790971,False,NONE
2019-10-26 09:56:09.880,LG-H970,1572083769888.0,0.953,8.202,-1.428,41.1038389,16.8790971,False,NONE
2019-10-26 09:56:09.900,LG-H970,1572083769908.0,-0.77,11.014,-1.076,41.1038389,16.8790971,False,NONE
2019-10-26 09:56:09.920,LG-H970,1572083769928.6,-1.821,10.417,0.027,41.1038389,16.8790971,False,NONE
2019-10-26 09:56:09.940,LG-H970,1572083769950.75,0.424,9.655,2.787,41.1038389,16.8790971,False,NONE
2019-10-26 09:56:09.960,LG-H970,1572083769970.5,-0.307,9.256,0.176,41.1038389,16.8790971,False,NONE
2019-10-26 09:56:09.980,LG-H970,1572083769990.5,-2.454,11.309,-1.734,41.1038389,16.8790971,False,NONE
2019-10-26 09:56:10.000,LG-H970,1572083770010.25,-4.559,8.285,-3.432,41.1038389,16.8790971,False,NONE
2019-10-26 09:56:10.020,LG-H970,1572083770030.5,0.008,10.729,3.224,41.1038389,16.8790971,False,NONE
2019-10-26 09:56:10.040,LG-H970,1572083770049.5,1.203,7.971,-1.63,41.1038389,16.8790971,False,NONE
2019-10-26 09:56:10.060,LG-H970,1572083770068.75,-2.205,11.89,0.858,41.1038389,16.8790971,False,NONE
2019-10-26 09:56:10.080,LG-H970,1572083770088.75,-3.745,10.07,-2.908,41.1038389,16.8790971,False,NONE
2019-10-26 09:56:10.100,LG-H970,1572083770108.75,0.071,7.225,0.192,41.1038389,16.8790971,False,NONE
2019-10-26 09:56:10.120,LG-H970,1572083770128.75,2.798,7.863,1.448,41.1038389,16.8790971,False,NONE
2019-10-26 09:56:10.140,LG-H970,1572083770149.5,-0.527,10.538,-2.273,41.1038389,16.8790971,False,NONE
2019-10-26 09:56:10.160,LG-H970,1572083770168.75,-4.925,12.117,-1.263,41.1038389,16.8790971,False,NONE
2019-10-26 09:56:10.180,LG-H970,1572083770188.0,-1.086,9.86,-1.024,41.1038389,16.8790971,False,NONE
2019-10-26 09:56:10.200,LG-H970,1572083770207.75,3.306,6.359,3.372,41.1038389,16.8790971,False,NONE
2019-10-26 09:56:10.220,LG-H970,1572083770227.25,3.716,10.148,0.662,41.1038389,16.8790971,False,NONE
2019-10-26 09:56:10.240,LG-H970,1572083770246.75,-3.415,12.25,-2.296,41.1038389,16.8790971,False,NONE
2019-10-26 09:56:10.260,LG-H970,1572083770267.25,-4.979,12.682,-0.714,41.1038389,16.8790971,False,NONE
2019-10-26 09:56:10.280,LG-H970,1572083770289.4,1.869,9.785,1.631,41.1038389,16.8790971,False,NONE
2019-10-26 09:56:10.300,LG-H970,1572083770311.0,3.279,9.547,2.234,41.1038389,16.8790971,False,NONE
2019-10-26 09:56:10.320,LG-H970,1572083770330.75,-2.621,9.843,-1.559,41.1038389,16.8790971,False,NONE
2019-10-26 09:56:10.340,LG-H970,1572083770350.25,-4.711,9.517,-3.264,41.1038389,16.8790971,False,NONE
2019-10-26 09:56:10.360,LG-H970,1572083770370.25,-1.041,6.861,0.394,41.1038389,16.8790971,False,NONE
2019-10-26 09:56:10.380,LG-H970,1572083770389.5,4.062,12.264,-0.186,41.1038389,16.8790971,False,NONE
2019-10-26 09:56:10.400,LG-H970,1572083770410.25,0.821,8.07,1.923,41.1038389,16.8790971,False,NONE
2019-10-26 09:56:10.420,LG-H970,1572083770429.25,-2.269,8.665,0.445,41.1038389,16.8790971,False,NONE
2019-10-26 09:56:10.440,LG-H970,1572083770449.0,-2.528,11.335,-3.753,41.1038389,16.8790971,False,NONE
2019-10-26 09:56:10.460,LG-H970,1572083770468.0,-2.281,8.829,-0.165,41.1038389,16.8790971,False,NONE
2019-10-26 09:56:10.480,LG-H970,1572083770487.5,1.998,9.347,1.396,41.1038389,16.8790971,False,NONE
2019-10-26 09:56:10.500,LG-H970,1572083770508.0,0.979,10.39,1.302,41.1038389,16.8790971,False,NONE
2019-10-26 09:56:10.520,LG-H970,1572083770530.6,-2.875,13.566,-0.094,41.1038389,16.8790971,False,NONE
2019-10-26 09:56:10.540,LG-H970,1572083770550.0,-3.42,10.534,0.531,41.1038389,16.8790971,False,NONE
2019-10-26 09:56:10.560,LG-H970,1572083770569.2,1.509,8.688,1.547,41.1038389,16.8790971,False,NONE
2019-10-26 09:56:10.580,LG-H970,1572083770589.0,1.151,8.126,-0.48,41.1038389,16.8790971,False,NONE
2019-10-26 09:56:10.600,LG-H970,1572083770609.0,-3.513,11.005,-0.865,41.1038389,16.8790971,False,NONE
2019-10-26 09:56:10.620,LG-H970,1572083770630.0,-2.167,13.954,-0.118,41.1038389,16.8790971,False,NONE
2019-10-26 09:56:10.640,LG-H970,1572083770646.75,-0.657,7.035,1.509,41.1038389,16.8790971,False,NONE
2019-10-26 09:56:10.660,LG-H970,1572083770669.2,1.664,9.505,0.804,41.1038389,16.8790971,False,NONE
2019-10-26 09:56:10.680,LG-H970,1572083770690.5,-2.666,9.729,-2.717,41.1038389,16.8790971,False,NONE
2019-10-26 09:56:10.700,LG-H970,1572083770710.0,-1.024,9.913,-0.27,41.1038389,16.8790971,False,NONE
2019-10-26 09:56:10.720,LG-H970,1572083770729.5,2.189,8.448,-0.184,41.1038389,16.8790971,False,NONE
2019-10-26 09:56:10.740,LG-H970,1572083770749.5,1.295,11.516,0.87,41.1038389,16.8790971,False,NONE
2019-10-26 09:56:10.760,LG-H970,1572083770769.5,-2.682,10.636,-0.32,41.1038389,16.8790971,False,NONE
2019-10-26 09:56:10.780,LG-H970,1572083770790.0,-1.263,9.447,-1.534,41.1038389,16.8790971,False,NONE
2019-10-26 09:56:10.800,LG-H970,1572083770808.75,1.166,7.86,-0.28,41.1038389,16.8790971,False,NONE
2019-10-26 09:56:10.820,LG-H970,1572083770828.5,-0.587,6.767,1.898,41.1038389,16.8790971,False,NONE
2019-10-26 09:56:10.840,LG-H970,1572083770848.5,0.335,12.776,-0.582,41.1038389,16.8790971,False,NONE
2019-10-26 09:56:10.860,LG-H970,1572083770868.25,-2.103,10.903,-2.703,41.1038389,16.8790971,False,NONE
2019-10-26 09:56:10.880,LG-H970,1572083770888.0,-0.563,8.992,3.134,41.1038389,16.8790971,False,NONE
2019-10-26 09:56:10.900,LG-H970,1572083770907.5,1.978,6.026,0.684,41.1038389,16.8790971,False,NONE
2019-10-26 09:56:10.920,LG-H970,1572083770929.4,-0.736,10.108,0.631,41.1038389,16.8790971,False,NONE
2019-10-26 09:56:10.940,LG-H970,1572083770951.0,-3.281,13.484,-4.162,41.1038389,16.8790971,False,NONE
2019-10-26 09:56:10.960,LG-H970,1572083770969.0,-4.968,7.757,1.109,41.1038389,16.8790971,False,NONE
2019-10-26 09:56:10.980,LG-H970,1572083770988.8,0.997,8.021,1.772,41.1038389,16.8790971,False,NONE
2019-10-26 09:56:11.000,LG-H970,1572083771012.0,1.45,8.745,-1.394,41.1038389,16.8790971,False,NONE
2019-10-26 09:56:11.020,LG-H970,1572083771030.0,-3.676,9.454,0.091,41.1038389,16.8790971,False,NONE
2019-10-26 09:56:11.040,LG-H970,1572083771050.25,-1.769,13.516,-2.378,41.1038389,16.8790971,False,NONE
2019-10-26 09:56:11.060,LG-H970,1572083771070.0,0.785,10.456,2.232,41.1038389,16.8790971,False,NONE
2019-10-26 09:56:11.080,LG-H970,1572083771090.25,3.297,10.008,-0.046,41.1038389,16.8790971,False,NONE
2019-10-26 09:56:11.100,LG-H970,1572083771109.5,-0.624,9.305,-0.765,41.1038389,16.8790971,False,NONE
2019-10-26 09:56:11.120,LG-H970,1572083771129.75,-2.044,12.212,-0.851,41.1038389,16.8790971,False,NONE
2019-10-26 09:56:11.140,LG-H970,1572083771148.75,0.311,11.134,-0.276,41.1038389,16.8790971,False,NONE
2019-10-26 09:56:11.160,LG-H970,1572083771168.75,2.441,9.549,2.699,41.1038389,16.8790971,False,NONE
2019-10-26 09:56:11.180,LG-H970,1572083771186.0,0.58,10.52,0.491,41.1038389,16.8790971,False,NONE
2019-10-26 09:56:11.200,LG-H970,1572083771208.25,-2.134,11.734,-1.551,41.1038389,16.8790971,False,NONE
2019-10-26 09:56:11.220,LG-H970,1572083771228.0,-1.055,9.905,-0.111,41.1038389,16.8790971,False,NONE
2019-10-26 09:56:11.240,LG-H970,1572083771247.75,1.978,9.047,0.971,41.1038389,16.8790971,False,NONE
2019-10-26 09:56:11.260,LG-H970,1572083771267.5,0.342,9.471,0.901,41.1038389,16.8790971,False,NONE
2019-10-26 09:56:11.280,LG-H970,1572083771288.5,-2.249,11.429,-0.903,41.1038389,16.8790971,False,NONE
2019-10-26 09:56:11.300,LG-H970,1572083771310.2,0.224,9.862,-0.664,41.1038389,16.8790971,False,NONE
2019-10-26 09:56:11.320,LG-H970,1572083771330.5,3.405,8.549,0.826,41.1038389,16.8790971,False,NONE
2019-10-26 09:56:11.340,LG-H970,1572083771350.75,-0.381,8.44,1.85,41.1038389,16.8790971,False,NONE
2019-10-26 09:56:11.360,LG-H970,1572083771369.0,-3.629,12.894,-1.489,41.1038389,16.8790971,False,NONE
2019-10-26 09:56:11.380,LG-H970,1572083771388.8,-2.877,12.773,-0.467,41.1038389,16.8790971,False,NONE
2019-10-26 09:56:11.400,LG-H970,1572083771410.75,2.059,8.872,1.85,41.1038389,16.8790971,False,NONE
2019-10-26 09:56:11.420,LG-H970,1572083771427.6667,3.239,8.831,2.79,41.1038389,16.8790971,False,NONE
2019-10-26 09:56:11.440,LG-H970,1572083771448.0,-0.71,10.402,-0.352,41.1038389,16.8790971,False,NONE
2019-10-26 09:56:11.460,LG-H970,1572083771468.5,-3.642,11.475,-0.517,41.1038389,16.8790971,False,NONE
2019-10-26 09:56:11.480,LG-H970,1572083771488.25,-1.364,8.507,0.732,41.1038389,16.8790971,False,NONE
2019-10-26 09:56:11.500,LG-H970,1572083771508.5,-0.172,7.657,1.323,41.1038389,16.8790971,False,NONE
2019-10-26 09:56:11.520,LG-H970,1572083771529.25,-2.433,9.087,-1.576,41.1038389,16.8790971,False,NONE
2019-10-26 09:56:11.540,LG-H970,1572083771547.5,-3.511,11.858,-0.189,41.1038389,16.8790971,False,NONE
2019-10-26 09:56:11.560,LG-H970,1572083771567.25,-1.683,10.334,-0.999,41.1038389,16.8790971,False,NONE
2019-10-26 09:56:11.580,LG-H970,1572083771589.4,0.133,9.144,1.802,41.1038389,16.8790971,False,NONE
2019-10-26 09:56:11.600,LG-H970,1572083771609.3333,0.414,9.491,-0.47,41.1038389,16.8790971,False,NONE
2019-10-26 09:56:11.620,LG-H970,1572083771626.75,-0.746,10.604,-2.433,41.1038389,16.8790971,False,NONE
2019-10-26 09:56:11.640,LG-H970,1572083771649.6,-1.388,9.314,0.053,41.1038389,16.8790971,False,NONE
2019-10-26 09:56:11.660,LG-H970,1572083771671.5,-0.33,9.096,-0.361,41.1038389,16.8790971,False,NONE
2019-10-26 09:56:11.680,LG-H970,1572083771690.75,-0.403,11.239,0.293,41.1038389,16.8790971,False,NONE
2019-10-26 09:56:11.700,LG-H970,1572083771710.75,-0.608,8.232,-0.784,41.1038389,16.8790971,False,NONE
2019-10-26 09:56:11.720,LG-H970,1572083771730.5,0.205,7.865,0.356,41.1038389,16.8790971,False,NONE
2019-10-26 09:56:11.740,LG-H970,1572083771750.5,-1.079,10.057,-3.962,41.1038389,16.8790971,False,NONE
2019-10-26 09:56:11.760,LG-H970,1572083771769.75,-3.236,11.239,0.16,41.1038389,16.8790971,False,NONE
2019-10-26 09:56:11.780,LG-H970,1572083771789.75,0.582,10.183,0.116,41.1038389,16.8790971,False,NONE
2019-10-26 09:56:11.800,LG-H970,1572083771809.75,2.694,8.71,1.949,41.1038389,16.8790971,False,NONE
2019-10-26 09:56:11.820,LG-H970,1572083771829.25,0.093,8.182,-1.498,41.1038389,16.8790971,False,NONE
2019-10-26 09:56:11.840,LG-H970,1572083771848.75,-3.22,9.328,-3.595,41.1038389,16.8790971,False,NONE
2019-10-26 09:56:11.860,LG-H970,1572083771868.5,-2.574,8.603,-2.351,41.1038389,16.8790971,False,NONE
2019-10-26 09:56:11.880,LG-H970,1572083771888.5,2.521,7.821,-0.048,41.1038389,16.8790971,False,NONE
2019-10-26 09:56:11.900,LG-H970,1572083771908.5,3.691,7.585,1.289,41.1038389,16.8790971,False,NONE
2019-10-26 09:56:11.920,LG-H970,1572083771928.0,0.226,9.961,-1.225,41.1038389,16.8790971,False,NONE
2019-10-26 09:56:11.940,LG-H970,1572083771949.8,-1.556,10.608,-2.311,41.1038389,16.8790971,False,NONE
2019-10-26 09:56:11.960,LG-H970,1572083771971.75,-0.868,5.544,0.14,41.1038389,16.8790971,False,NONE
2019-10-26 09:56:11.980,LG-H970,1572083771989.3333,0.971,9.121,2.779,41.1038389,16.8790971,False,NONE
2019-10-26 09:56:12.000,LG-H970,1572083772009.2,-1.884,10.395,-0.357,41.1038389,16.8790971,False,NONE
2019-10-26 09:56:12.020,LG-H970,1572083772031.75,-3.998,12.949,1.682,41.1038389,16.8790971,False,NONE
2019-10-26 09:56:12.040,LG-H970,1572083772051.25,-0.639,9.857,-1.652,41.1038389,16.8790971,False,NONE
2019-10-26 09:56:12.060,LG-H970,1572083772070.5,0.392,8.295,2.457,41.1038389,16.8790971,False,NONE
2019-10-26 09:56:12.080,LG-H970,1572083772090.25,-2.46,8.507,-0.894,41.1038389,16.8790971,False,NONE
2019-10-26 09:56:12.100,LG-H970,1572083772109.5,-3.392,13.081,0.134,41.1038389,16.8790971,False,NONE
2019-10-26 09:56:12.120,LG-H970,1572083772129.75,-2.415,11.935,0.604,41.1038389,16.8790971,False,NONE
2019-10-26 09:56:12.140,LG-H970,1572083772149.75,-0.096,11.318,3.722,41.1038389,16.8790971,False,NONE
2019-10-26 09:56:12.160,LG-H970,1572083772169.5,-0.496,11.406,0.851,41.1038389,16.8790971,False,NONE
2019-10-26 09:56:12.180,LG-H970,1572083772188.5,-2.338,12.205,-0.307,41.1038389,16.8790971,False,NONE
2019-10-26 09:56:12.200,LG-H970,1572083772208.5,-2.365,11.342,0.57,41.1038389,16.8790971,False,NONE
2019-10-26 09:56:12.220,LG-H970,1572083772228.25,-0.831,11.166,2.095,41.1038389,16.8790971,False,NONE
2019-10-26 09:56:12.240,LG-H970,1572083772247.75,-1.09,10.719,1.77,41.1038389,16.8790971,False,NONE
2019-10-26 09:56:12.260,LG-H970,1572083772267.75,-1.791,11.249,-1.063,41.1038389,16.8790971,False,NONE
2019-10-26 09:56:12.280,LG-H970,1572083772287.5,-2.26,10.054,-0.822,41.1038389,16.8790971,False,NONE
2019-10-26 09:56:12.300,LG-H970,1572083772307.5,-1.842,8.373,0.104,41.1038389,16.8790971,False,NONE
2019-10-26 09:56:12.320,LG-H970,1572083772327.25,-0.544,10.454,1.007,41.1038389,16.8790971,False,NONE
2019-10-26 09:56:12.340,LG-H970,1572083772347.5,-0.8,11.549,0.882,41.1038389,16.8790971,False,NONE
2019-10-26 09:56:12.360,LG-H970,1572083772366.75,-1.617,11.589,1.414,41.1038389,16.8790971,False,NONE
2019-10-26 09:56:12.380,LG-H970,1572083772389.4,-0.632,9.597,0.119,41.1038389,16.8790971,False,NONE
2019-10-26 09:56:12.400,LG-H970,1572083772411.25,0.898,7.619,-0.152,41.1038389,16.8790971,False,NONE
2019-10-26 09:56:12.420,LG-H970,1572083772430.0,0.679,8.326,1.179,41.1038389,16.8790971,False,NONE
2019-10-26 09:56:12.440,LG-H970,1572083772449.5,-1.859,8.917,-2.491,41.1038389,16.8790971,False,NONE
2019-10-26 09:56:12.460,LG-H970,1572083772468.75,-1.843,10.402,1.223,41.1038389,16.8790971,False,NONE
2019-10-26 09:56:12.480,LG-H970,1572083772489.25,1.24,8.698,-1.251,41.1038389,16.8790971,False,NONE
2019-10-26 09:56:12.500,LG-H970,1572083772508.75,0.538,8.861,1.663,41.1038389,16.8790971,False,NONE
2019-10-26 09:56:12.520,LG-H970,1572083772528.75,-1.252,10.536,-3.057,41.1038389,16.8790971,False,NONE
2019-10-26 09:56:12.540,LG-H970,1572083772548.75,-1.429,8.781,-0.042,41.1038389,16.8790971,False,NONE
2019-10-26 09:56:12.560,LG-H970,1572083772568.0,1.087,8.349,-0.036,41.1038389,16.8790971,False,NONE
2019-10-26 09:56:12.580,LG-H970,1572083772589.8,0.259,9.394,1.29,41.1038389,16.8790971,False,NONE
2019-10-26 09:56:12.600,LG-H970,1572083772611.0,-1.69,12.145,-2.398,41.1038389,16.8790971,False,NONE
2019-10-26 09:56:12.620,LG-H970,1572083772630.75,-2.136,10.876,1.144,41.1038389,16.8790971,False,NONE
2019-10-26 09:56:12.640,LG-H970,1572083772650.5,0.217,9.01,-0.954,41.1038389,16.8790971,False,NONE
2019-10-26 09:56:12.660,LG-H970,1572083772670.0,-0.281,8.625,0.058,41.1038389,16.8790971,False,NONE
2019-10-26 09:56:12.680,LG-H970,1572083772689.75,-0.874,9.705,-3.126,41.1038389,16.8790971,False,NONE
2019-10-26 09:56:12.700,LG-H970,1572083772709.75,-0.89,10.768,-1.409,41.1038389,16.8790971,False,NONE
2019-10-26 09:56:12.720,LG-H970,1572083772729.5,-1.033,10.54,-1.095,41.1038389,16.8790971,False,NONE
2019-10-26 09:56:12.740,LG-H970,1572083772748.75,-0.668,10.698,0.853,41.1038389,16.8790971,False,NONE
2019-10-26 09:56:12.760,LG-H970,1572083772769.25,-0.181,11.224,0.673,41.1038389,16.8790971,False,NONE
2019-10-26 09:56:12.780,LG-H970,1572083772788.75,-1.733,9.217,0.945,41.1038389,16.8790971,False,NONE
2019-10-26 09:56:12.800,LG-H970,1572083772808.5,-3.315,10.231,-2.767,41.1038389,16.8790971,False,NONE
2019-10-26 09:56:12.820,LG-H970,1572083772828.5,-3.0,10.523,-1.322,41.1038389,16.8790971,False,NONE
2019-10-26 09:56:12.840,LG-H970,1572083772848.0,0.663,8.762,-0.353,41.1038389,16.8790971,False,NONE
2019-10-26 09:56:12.860,LG-H970,1572083772867.5,0.947,8.558,0.971,41.1038389,16.8790971,False,NONE
2019-10-26 09:56:12.880,LG-H970,1572083772887.5,-1.939,10.033,0.2,41.1038389,16.8790971,False,NONE
2019-10-26 09:56:12.900,LG-H970,1572083772910.2,-3.858,9.926,-1.119,41.1038389,16.8790971,False,NONE
2019-10-26 09:56:12.920,LG-H970,1572083772932.25,-1.637,8.889,0.173,41.1038389,16.8790971,False,NONE
2019-10-26 09:56:12.940,LG-H970,1572083772951.25,-0.872,8.123,0.282,41.1038389,16.8790971,False,NONE
2019-10-26 09:56:12.960,LG-H970,1572083772970.75,-1.203,10.209,0.749,41.1038389,16.8790971,False,NONE
2019-10-26 09:56:12.980,LG-H970,1572083772990.5,-1.972,10.714,-0.746,41.1038389,16.8790971,False,NONE
2019-10-26 09:56:13.000,LG-H970,1572083773011.5,-1.062,10.99,1.526,41.1038389,16.8790971,False,NONE
2019-10-26 09:56:13.020,LG-H970,1572083773030.5,0.331,9.099,1.067,41.1038389,16.8790971,False,NONE
2019-10-26 09:56:13.040,LG-H970,1572083773050.5,-0.326,10.904,-0.273,41.1038389,16.8790971,False,NONE
2019-10-26 09:56:13.060,LG-H970,1572083773070.75,-1.936,10.61,-0.973,41.1038389,16.8790971,False,NONE
2019-10-26 09:56:13.080,LG-H970,1572083773090.5,0.188,10.277,1.132,41.1038389,16.8790971,False,NONE
2019-10-26 09:56:13.100,LG-H970,1572083773110.25,2.273,9.691,0.668,41.1038389,16.8790971,False,NONE
2019-10-26 09:56:13.120,LG-H970,1572083773130.25,0.875,10.921,0.555,41.1038389,16.8790971,False,NONE
2019-10-26 09:56:13.140,LG-H970,1572083773151.0,-0.518,9.86,-2.815,41.1038389,16.8790971,False,NONE
2019-10-26 09:56:13.160,LG-H970,1572083773170.0,0.828,8.806,-0.631,41.1038389,16.8790971,False,NONE
2019-10-26 09:56:13.180,LG-H970,1572083773189.25,1.463,7.589,-0.541,41.1038389,16.8790971,False,NONE
2019-10-26 09:56:13.200,LG-H970,1572083773209.0,-0.387,9.824,0.598,41.1038389,16.8790971,False,NONE
2019-10-26 09:56:13.220,LG-H970,1572083773228.5,-1.692,12.215,-0.261,41.1038389,16.8790971,False,NONE
2019-10-26 09:56:13.240,LG-H970,1572083773248.25,-0.523,11.768,1.02,41.1038389,16.8790971,False,NONE
2019-10-26 09:56:13.260,LG-H970,1572083773268.0,2.274,8.312,1.386,41.1038389,16.8790971,False,NONE
2019-10-26 09:56:13.280,LG-H970,1572083773290.0,1.532,9.028,-0.403,41.1038389,16.8790971,False,NONE
2019-10-26 09:56:13.300,LG-H970,1572083773312.25,-3.648,10.109,-3.234,41.1038389,16.8790971,False,NONE
2019-10-26 09:56:13.320,LG-H970,1572083773332.25,-3.475,10.387,0.358,41.1038389,16.8790971,False,NONE
2019-10-26 09:56:13.340,LG-H970,1572083773350.0,1.175,9.318,0.392,41.1038389,16.8790971,False,NONE
2019-10-26 09:56:13.360,LG-H970,1572083773367.25,2.065,8.077,1.44,41.1038389,16.8790971,False,NONE
2019-10-26 09:56:13.380,LG-H970,1572083773387.0,0.266,10.97,0.37,41.1038389,16.8790971,False,NONE
2019-10-26 09:56:13.400,LG-H970,1572083773409.6,-2.625,10.355,-1.376,41.1038389,16.8790971,False,NONE
2019-10-26 09:56:13.420,LG-H970,1572083773431.5,-1.127,9.775,0.124,41.1038389,16.8790971,False,NONE
2019-10-26 09:56:13.440,LG-H970,1572083773450.25,-0.595,9.41,0.832,41.1038389,16.8790971,False,NONE
2019-10-26 09:56:13.460,LG-H970,1572083773469.5,-2.44,11.103,-0.519,41.1038389,16.8790971,False,NONE
2019-10-26 09:56:13.480,LG-H970,1572083773489.5,-2.716,11.421,-0.804,41.1038389,16.8790971,False,NONE
2019-10-26 09:56:13.500,LG-H970,1572083773509.25,-0.201,9.758,0.187,41.1038389,16.8790971,False,NONE
2019-10-26 09:56:13.520,LG-H970,1572083773529.5,0.702,10.151,0.933,41.1038389,16.8790971,False,NONE
2019-10-26 09:56:13.540,LG-H970,1572083773548.75,-1.786,10.329,-1.082,41.1038389,16.8790971,False,NONE
2019-10-26 09:56:13.560,LG-H970,1572083773568.5,-1.827,10.135,-2.481,41.1038389,16.8790971,False,NONE
2019-10-26 09:56:13.580,LG-H970,1572083773588.5,2.188,9.338,-1.243,41.1038389,16.8790971,False,NONE
2019-10-26 09:56:13.600,LG-H970,1572083773607.75,2.143,6.712,0.954,41.1038389,16.8790971,False,NONE
2019-10-26 09:56:13.620,LG-H970,1572083773628.0,-1.891,9.845,-0.679,41.1038389,16.8790971,False,NONE
2019-10-26 09:56:13.640,LG-H970,1572083773647.5,-5.398,13.105,-2.233,41.1038389,16.8790971,False,NONE
2019-10-26 09:56:13.660,LG-H970,1572083773669.8,-1.385,10.697,0.364,41.1038389,16.8790971,False,NONE
