UTC_timestamp,device_name,timestamp,x,y,z,lat,long,event,speed
2019-10-26 18:53:04.200,LG-H970,1572115984206.0,-3.705,10.117,0.737,41.1007425,16.8737208,False,NONE
2019-10-26 18:53:04.220,LG-H970,1572115984227.6,-2.925,9.573,-0.019,41.1007425,16.8737208,False,NONE
2019-10-26 18:53:04.240,LG-H970,1572115984250.75,-3.211,8.769,0.887,41.1007425,16.8737208,False,NONE
2019-10-26 18:53:04.260,LG-H970,1572115984271.25,-3.11,9.389,0.209,41.1007425,16.8737208,False,NONE
2019-10-26 18:53:04.280,LG-H970,1572115984290.5,-3.997,9.934,-0.297,41.1007425,16.8737208,False,NONE
2019-10-26 18:53:04.300,LG-H970,1572115984310.75,-4.979,9.645,0.052,41.1007425,16.8737208,False,NONE
2019-10-26 18:53:04.320,LG-H970,1572115984330.25,-4.56,9.63,0.687,41.1007425,16.8737208,False,NONE
2019-10-26 18:53:04.340,LG-H970,1572115984350.25,-3.43,9.965,0.528,41.1007425,16.8737208,False,NONE
2019-10-26 18:53:04.360,LG-H970,1572115984369.75,-3.933,9.564,0.409,41.1007425,16.8737208,False,NONE
2019-10-26 18:53:04.380,LG-H970,1572115984389.75,-4.073,8.973,0.121,41.1007425,16.8737208,False,NONE
2019-10-26 18:53:04.400,LG-H970,1572115984409.5,-3.401,8.416,-0.122,41.1007425,16.8737208,False,NONE
2019-10-26 18:53:04.420,LG-H970,1572115984429.25,-3.141,8.603,1.116,41.1007425,16.8737208,False,NONE
2019-10-26 18:53:04.440,LG-H970,1572115984449.5,-3.637,9.855,1.087,41.1007425,16.8737208,False,NONE
2019-10-26 18:53:04.460,LG-H970,1572115984468.75,-4.733,9.999,0.695,41.1007425,16.8737208,False,NONE
2019-10-26 18:53:04.480,LG-H970,1572115984488.5,-4.485,10.052,0.214,41.1007425,16.8737208,False,NONE
2019-10-26 18:53:04.500,LG-H970,1572115984509.0,-3.424,9.433,0.583,41.1007425,16.8737208,False,NONE
2019-10-26 18:53:04.520,LG-H970,1572115984527.5,-2.026,9.132,1.5,41.1007425,16.8737208,False,NONE
2019-10-26 18:53:04.540,LG-H970,1572115984549.2,-2.444,9.193,0.43,41.1007425,16.8737208,False,NONE
2019-10-26 18:53:04.560,LG-H970,1572115984571.5,-3.736,10.482,-0.888,41.1007425,16.8737208,False,NONE
2019-10-26 18:53:04.580,LG-H970,1572115984588.6667,-4.464,10.34,-0.281,41.1007425,16.8737208,False,NONE
2019-10-26 18:53:04.600,LG-H970,1572115984608.6,-2.592,10.01,0.493,41.1007425,16.8737208,False,NONE
2019-10-26 18:53:04.620,LG-H970,1572115984630.5,-2.015,9.456,1.707,41.1007425,16.8737208,False,NONE
2019-10-26 18:53:04.640,LG-H970,1572115984650.5,-2.615,9.71,0.442,41.1007425,16.8737208,False,NONE
2019-10-26 18:53:04.660,LG-H970,1572115984669.75,-4.136,10.594,-0.416,41.1007425,16.8737208,False,NONE
2019-10-26 18:53:04.680,LG-H970,1572115984689.75,-4.283,9.954,-0.221,41.1007425,16.8737208,False,NONE
2019-10-26 18:53:04.700,LG-H970,1572115984710.0,-2.367,9.084,0.979,41.1007425,16.8737208,False,NONE
2019-10-26 18:53:04.720,LG-H970,1572115984729.25,-2.167,8.64,0.754,41.1007425,16.8737208,False,NONE
2019-10-26 18:53:04.740,LG-H970,1572115984749.0,-3.261,9.007,0.595,41.1007425,16.8737208,False,NONE
2019-10-26 18:53:04.760,LG-H970,1572115984769.25,-4.108,9.28,0.497,41.1007425,16.8737208,False,NONE
2019-10-26 18:53:04.780,LG-H970,1572115984788.75,-2.825,9.753,0.218,41.1007425,16.8737208,False,NONE
2019-10-26 18:53:04.800,LG-H970,1572115984808.25,-1.756,8.88,0.832,41.1007425,16.8737208,False,NONE
2019-10-26 18:53:04.820,LG-H970,1572115984827.75,-3.175,8.558,-0.009,41.1007425,16.8737208,False,NONE
2019-10-26 18:53:04.840,LG-H970,1572115984847.5,-5.024,10.278,0.382,41.1007425,16.8737208,False,NONE
2019-10-26 18:53:04.860,LG-H970,1572115984869.8,-5.311,11.215,0.535,41.1007425,16.8737208,False,NONE
2019-10-26 18:53:04.880,LG-H970,1572115984891.5,-3.593,10.382,0.749,41.1007425,16.8737208,False,NONE
2019-10-26 18:53:04.900,LG-H970,1572115984911.75,-2.465,9.026,1.955,41.1007425,16.8737208,False,NONE
2019-10-26 18:53:04.920,LG-H970,1572115984928.6667,-3.293,8.63,0.869,41.1007425,16.8737208,False,NONE
2019-10-26 18:53:04.940,LG-H970,1572115984948.6,-5.77,10.305,-0.087,41.1007425,16.8737208,False,NONE
2019-10-26 18:53:04.960,LG-H970,1572115984970.75,-6.674,11.558,-0.179,41.1007425,16.8737208,False,NONE
2019-10-26 18:53:04.980,LG-H970,1572115984990.75,-4.838,9.847,1.68,41.1007425,16.8737208,False,NONE
2019-10-26 18:53:05.000,LG-H970,1572115985010.25,-2.381,8.822,1.72,41.1007425,16.8737208,False,NONE
2019-10-26 18:53:05.020,LG-H970,1572115985030.0,-3.033,8.663,0.695,41.1007425,16.8737208,False,NONE
2019-10-26 18:53:05.040,LG-H970,1572115985049.5,-5.597,9.968,-0.15,41.1007425,16.8737208,False,NONE
2019-10-26 18:53:05.060,LG-H970,1572115985069.5,-6.009,9.867,-0.262,41.1007425,16.8737208,False,NONE
2019-10-26 18:53:05.080,LG-H970,1572115985088.75,-3.328,8.826,-0.074,41.1007425,16.8737208,False,NONE
2019-10-26 18:53:05.100,LG-H970,1572115985109.25,-2.31,8.633,0.567,41.1007425,16.8737208,False,NONE
2019-10-26 18:53:05.120,LG-H970,1572115985128.5,-3.048,10.193,2.091,41.1007425,16.8737208,False,NONE
2019-10-26 18:53:05.140,LG-H970,1572115985148.5,-3.335,10.426,0.541,41.1007425,16.8737208,False,NONE
2019-10-26 18:53:05.160,LG-H970,1572115985167.75,-3.449,11.899,-0.273,41.1007425,16.8737208,False,NONE
2019-10-26 18:53:05.180,LG-H970,1572115985187.5,-4.487,10.474,1.217,41.1007425,16.8737208,False,NONE
2019-10-26 18:53:05.200,LG-H970,1572115985207.75,-2.806,8.614,-0.05,41.1007425,16.8737208,False,NONE
2019-10-26 18:53:05.220,LG-H970,1572115985230.2,-3.568,8.273,-0.377,41.1007425,16.8737208,False,NONE
2019-10-26 18:53:05.240,LG-H970,1572115985251.25,-5.151,9.114,0.057,41.1007425,16.8737208,False,NONE
2019-10-26 18:53:05.260,LG-H970,1572115985271.75,-4.173,9.663,1.087,41.1007425,16.8737208,False,NONE
2019-10-26 18:53:05.280,LG-H970,1572115985290.75,-3.388,8.989,1.469,41.1007425,16.8737208,False,NONE
2019-10-26 18:53:05.300,LG-H970,1572115985310.25,-4.229,6.929,0.258,41.1007425,16.8737208,False,NONE
2019-10-26 18:53:05.320,LG-H970,1572115985330.25,-4.258,8.517,-1.921,41.1007425,16.8737208,False,NONE
2019-10-26 18:53:05.340,LG-H970,1572115985350.0,-2.995,10.96,-1.725,41.1007425,16.8737208,False,NONE
2019-10-26 18:53:05.360,LG-H970,1572115985370.0,-1.059,11.653,1.578,41.1007425,16.8737208,False,NONE
2019-10-26 18:53:05.380,LG-H970,1572115985389.5,-0.311,11.023,3.104,41.1007425,16.8737208,False,NONE
2019-10-26 18:53:05.400,LG-H970,1572115985409.5,-1.975,10.323,1.208,41.1007425,16.8737208,False,NONE
2019-10-26 18:53:05.420,LG-H970,1572115985429.25,-3.888,9.779,-1.551,41.1007425,16.8737208,False,NONE
2019-10-26 18:53:05.440,LG-H970,1572115985449.0,-3.858,9.895,-1.381,41.1007425,16.8737208,False,NONE
2019-10-26 18:53:05.460,LG-H970,1572115985468.75,-1.919,9.833,-1.782,41.1007425,16.8737208,False,NONE
2019-10-26 18:53:05.480,LG-H970,1572115985488.5,0.266,10.961,3.131,41.1007425,16.8737208,False,NONE
2019-10-26 18:53:05.500,LG-H970,1572115985508.0,-1.285,12.518,3.225,41.1007425,16.8737208,False,NONE
2019-10-26 18:53:05.520,LG-H970,1572115985527.75,-4.242,11.445,0.421,41.1007425,16.8737208,False,NONE
2019-10-26 18:53:05.540,LG-H970,1572115985548.0,-3.011,9.388,-3.264,41.1007425,16.8737208,False,NONE
2019-10-26 18:53:05.560,LG-H970,1572115985571.75,-0.785,7.567,-1.83,41.1007425,16.8737208,False,NONE
2019-10-26 18:53:05.580,LG-H970,1572115985591.25,-0.302,10.042,2.061,41.1007425,16.8737208,False,NONE
2019-10-26 18:53:05.600,LG-H970,1572115985611.25,-1.484,12.012,1.877,41.1007425,16.8737208,False,NONE
2019-10-26 18:53:05.620,LG-H970,1572115985631.0,-4.829,11.461,0.262,41.1007425,16.8737208,False,NONE
2019-10-26 18:53:05.640,LG-H970,1572115985650.5,-3.21,11.428,-0.52,41.1007425,16.8737208,False,NONE
2019-10-26 18:53:05.660,LG-H970,1572115985670.5,-1.452,7.942,0.507,41.1007425,16.8737208,False,NONE
2019-10-26 18:53:05.680,LG-H970,1572115985690.5,-1.174,8.412,0.213,41.1007425,16.8737208,False,NONE
2019-10-26 18:53:05.700,LG-H970,1572115985710.25,-4.293,10.238,-0.844,41.1007425,16.8737208,False,NONE
2019-10-26 18:53:05.720,LG-H970,1572115985730.5,-4.334,11.982,-0.121,41.1007425,16.8737208,False,NONE
2019-10-26 18:53:05.740,LG-H970,1572115985748.75,-1.794,9.936,0.799,41.1007425,16.8737208,False,NONE
2019-10-26 18:53:05.760,LG-H970,1572115985768.0,-0.216,8.137,0.893,41.1007425,16.8737208,False,NONE
2019-10-26 18:53:05.780,LG-H970,1572115985789.5,-1.487,7.982,-0.895,41.1007425,16.8737208,False,NONE
2019-10-26 18:53:05.800,LG-H970,1572115985810.75,-3.347,9.498,-0.934,41.1007425,16.8737208,False,NONE
2019-10-26 18:53:05.820,LG-H970,1572115985828.75,-3.816,9.706,1.09,41.1007425,16.8737208,False,NONE
2019-10-26 18:53:05.840,LG-H970,1572115985849.25,-0.6,10.822,0.151,41.1007425,16.8737208,False,NONE
2019-10-26 18:53:05.860,LG-H970,1572115985867.6667,-0.716,9.139,0.032,41.1007425,16.8737208,False,NONE
2019-10-26 18:53:05.880,LG-H970,1572115985886.5,-2.07,8.011,-1.242,41.1007425,16.8737208,False,NONE
2019-10-26 18:53:05.900,LG-H970,1572115985908.8,-1.508,10.133,-0.516,41.1007425,16.8737208,False,NONE
2019-10-26 18:53:05.920,LG-H970,1572115985930.75,-1.525,10.383,0.582,41.1007425,16.8737208,False,NONE
2019-10-26 18:53:05.940,LG-H970,1572115985949.5,-1.899,10.674,1.671,41.1007425,16.8737208,False,NONE
2019-10-26 18:53:05.960,LG-H970,1572115985969.75,-2.388,9.215,1.309,41.1007425,16.8737208,False,NONE
2019-10-26 18:53:05.980,LG-H970,1572115985990.0,-0.102,8.983,0.276,41.1007425,16.8737208,False,NONE
2019-10-26 18:53:06.000,LG-H970,1572115986010.0,-0.958,8.631,0.43,41.1007425,16.8737208,False,NONE
2019-10-26 18:53:06.020,LG-H970,1572115986029.25,-2.69,9.021,1.178,41.1007425,16.8737208,False,NONE
2019-10-26 18:53:06.040,LG-H970,1572115986049.25,-2.255,10.616,2.857,41.1007425,16.8737208,False,NONE
2019-10-26 18:53:06.060,LG-H970,1572115986068.25,-0.952,10.12,1.85,41.1007425,16.8737208,False,NONE
2019-10-26 18:53:06.080,LG-H970,1572115986088.25,-0.339,10.023,1.518,41.1007425,16.8737208,False,NONE
2019-10-26 18:53:06.100,LG-H970,1572115986107.75,-1.543,9.361,-0.827,41.1007425,16.8737208,False,NONE
2019-10-26 18:53:06.120,LG-H970,1572115986127.5,-2.798,10.053,0.115,41.1007425,16.8737208,False,NONE
2019-10-26 18:53:06.140,LG-H970,1572115986147.25,-1.795,11.319,0.286,41.1007425,16.8737208,False,NONE
2019-10-26 18:53:06.160,LG-H970,1572115986167.5,-1.033,10.771,2.132,41.1007425,16.8737208,False,NONE
2019-10-26 18:53:06.180,LG-H970,1572115986187.75,-0.923,9.819,1.414,41.1007425,16.8737208,False,NONE
2019-10-26 18:53:06.200,LG-H970,1572115986207.5,-1.914,9.092,-0.525,41.1007425,16.8737208,False,NONE
2019-10-26 18:53:06.220,LG-H970,1572115986230.0,-3.168,9.646,-0.352,41.1007425,16.8737208,False,NONE
2019-10-26 18:53:06.240,LG-H970,1572115986251.75,-1.953,10.558,0.673,41.1007425,16.8737208,False,NONE
2019-10-26 18:53:06.260,LG-H970,1572115986272.25,0.17,9.983,2.149,41.1007425,16.8737208,False,NONE
2019-10-26 18:53:06.280,LG-H970,1572115986290.3333,0.152,8.943,1.493,41.1007425,16.8737208,False,NONE
2019-10-26 18:53:06.300,LG-H970,1572115986306.25,-1.657,9.588,1.756,41.1007425,16.8737208,False,NONE
2019-10-26 18:53:06.320,LG-H970,1572115986329.3333,-3.261,9.959,0.135,41.1007425,16.8737208,False,NONE
2019-10-26 18:53:06.340,LG-H970,1572115986349.0,-1.631,9.959,-0.149,41.1007425,16.8737208,False,NONE
2019-10-26 18:53:06.360,LG-H970,1572115986368.3333,-0.304,9.683,2.952,41.1006911,16.8738791,False,NONE
2019-10-26 18:53:06.380,LG-H970,1572115986388.0,-2.079,10.561,1.868,41.1006911,16.8738791,False,NONE
2019-10-26 18:53:06.400,LG-H970,1572115986409.5,-3.617,11.228,0.443,41.1006911,16.8738791,False,NONE
2019-10-26 18:53:06.420,LG-H970,1572115986429.0,-2.379,11.782,-1.003,41.1006911,16.8738791,False,NONE
2019-10-26 18:53:06.440,LG-H970,1572115986449.0,-1.956,10.657,1.622,41.1006911,16.8738791,False,NONE
2019-10-26 18:53:06.460,LG-H970,1572115986469.75,-1.771,8.905,1.721,41.1006911,16.8738791,False,NONE
2019-10-26 18:53:06.480,LG-H970,1572115986489.25,-2.379,8.343,-0.044,41.1006911,16.8738791,False,NONE
2019-10-26 18:53:06.500,LG-H970,1572115986509.25,-4.821,9.794,-1.422,41.1006911,16.8738791,False,NONE
2019-10-26 18:53:06.520,LG-H970,1572115986529.0,-5.157,10.83,-0.755,41.1006911,16.8738791,False,NONE
2019-10-26 18:53:06.540,LG-H970,1572115986549.0,-2.289,10.26,0.151,41.1006911,16.8738791,False,NONE
2019-10-26 18:53:06.560,LG-H970,1572115986569.25,0.746,7.668,0.345,41.1006911,16.8738791,False,NONE
2019-10-26 18:53:06.580,LG-H970,1572115986588.25,-1.73,8.808,0.603,41.1006911,16.8738791,False,NONE
2019-10-26 18:53:06.600,LG-H970,1572115986609.8,-5.943,9.758,-1.699,41.1006911,16.8738791,False,NONE
2019-10-26 18:53:06.620,LG-H970,1572115986630.0,-3.542,10.17,-1.569,41.1006911,16.8738791,False,NONE
2019-10-26 18:53:06.640,LG-H970,1572115986647.5,-1.137,6.123,-1.073,41.1006911,16.8738791,False,NONE
2019-10-26 18:53:06.660,LG-H970,1572115986669.6,1.302,5.899,0.553,41.1006911,16.8738791,False,NONE
2019-10-26 18:53:06.680,LG-H970,1572115986689.3333,-2.815,6.685,-0.64,41.1006911,16.8738791,False,NONE
2019-10-26 18:53:06.700,LG-H970,1572115986710.0,-6.037,10.628,-2.095,41.1006911,16.8738791,False,NONE
2019-10-26 18:53:06.720,LG-H970,1572115986734.0,-5.023,10.719,0.475,41.1006911,16.8738791,False,NONE
2019-10-26 18:53:06.740,LG-H970,1572115986748.6667,0.115,12.051,0.704,41.1006911,16.8738791,False,NONE
2019-10-26 18:53:06.760,LG-H970,1572115986768.8,-0.192,8.722,2.247,41.1006911,16.8738791,False,NONE
2019-10-26 18:53:06.780,LG-H970,1572115986791.0,-2.767,9.336,-2.077,41.1006911,16.8738791,False,NONE
2019-10-26 18:53:06.800,LG-H970,1572115986811.0,-4.983,11.661,-2.636,41.1006911,16.8738791,False,NONE
2019-10-26 18:53:06.820,LG-H970,1572115986830.5,-2.545,12.109,-0.189,41.1006911,16.8738791,False,NONE
2019-10-26 18:53:06.840,LG-H970,1572115986851.5,-0.072,10.034,2.628,41.1006911,16.8738791,False,NONE
2019-10-26 18:53:06.860,LG-H970,1572115986871.0,-0.869,9.952,2.326,41.1006911,16.8738791,False,NONE
2019-10-26 18:53:06.880,LG-H970,1572115986889.5,-2.464,12.294,-1.509,41.1006911,16.8738791,False,NONE
2019-10-26 18:53:06.900,LG-H970,1572115986909.5,-3.37,11.41,-1.773,41.1006911,16.8738791,False,NONE
2019-10-26 18:53:06.920,LG-H970,1572115986929.5,-0.453,10.304,0.323,41.1006911,16.8738791,False,NONE
2019-10-26 18:53:06.940,LG-H970,1572115986949.5,0.951,7.869,1.303,41.1006911,16.8738791,False,NONE
2019-10-26 18:53:06.960,LG-H970,1572115986969.25,-0.368,10.022,0.468,41.1006911,16.8738791,False,NONE
2019-10-26 18:53:06.980,LG-H970,1572115986988.5,-2.69,10.255,-1.931,41.1006911,16.8738791,False,NONE
2019-10-26 18:53:07.000,LG-H970,1572115987008.75,-1.324,9.763,-0.393,41.1006911,16.8738791,False,NONE
2019-10-26 18:53:07.020,LG-H970,1572115987028.75,1.681,8.734,0.015,41.1006911,16.8738791,False,NONE
2019-10-26 18:53:07.040,LG-H970,1572115987048.75,1.489,9.275,1.715,41.1006911,16.8738791,False,NONE
2019-10-26 18:53:07.060,LG-H970,1572115987067.75,-0.553,9.809,-0.017,41.1006911,16.8738791,False,NONE
2019-10-26 18:53:07.080,LG-H970,1572115987087.5,-2.6,11.561,-1.028,41.1006911,16.8738791,False,NONE
2019-10-26 18:53:07.100,LG-H970,1572115987108.75,-2.008,9.661,-2.802,41.1006911,16.8738791,False,NONE
2019-10-26 18:53:07.120,LG-H970,1572115987128.0,-0.021,8.03,0.182,41.1006911,16.8738791,False,NONE
2019-10-26 18:53:07.140,LG-H970,1572115987149.6,0.113,8.341,-0.587,41.1006911,16.8738791,False,NONE
2019-10-26 18:53:07.160,LG-H970,1572115987171.75,-2.455,10.252,-0.956,41.1006911,16.8738791,False,NONE
2019-10-26 18:53:07.180,LG-H970,1572115987191.75,-2.805,10.886,-1.694,41.1006911,16.8738791,False,NONE
2019-10-26 18:53:07.200,LG-H970,1572115987211.5,-1.61,9.513,-0.321,41.1006911,16.8738791,False,NONE
2019-10-26 18:53:07.220,LG-H970,1572115987230.6667,0.05,8.438,-1.228,41.1006911,16.8738791,False,NONE
2019-10-26 18:53:07.240,LG-H970,1572115987249.0,-0.457,9.096,-0.528,41.1006911,16.8738791,False,NONE
2019-10-26 18:53:07.260,LG-H970,1572115987272.6667,-2.672,9.82,-2.111,41.1006911,16.8738791,False,NONE
2019-10-26 18:53:07.280,LG-H970,1572115987290.25,-2.746,10.939,-1.152,41.1006911,16.8738791,False,NONE
2019-10-26 18:53:07.300,LG-H970,1572115987310.25,-0.949,10.145,0.779,41.1006911,16.8738791,False,NONE
2019-10-26 18:53:07.320,LG-H970,1572115987327.6667,0.474,9.796,0.748,41.1006911,16.8738791,False,NONE
2019-10-26 18:53:07.340,LG-H970,1572115987347.6,-1.045,10.158,-0.017,41.1006911,16.8738791,False,NONE
2019-10-26 18:53:07.360,LG-H970,1572115987369.5,-2.533,10.418,-2.126,41.1006911,16.8738791,False,NONE
2019-10-26 18:53:07.380,LG-H970,1572115987389.0,-1.94,10.329,-0.796,41.1006911,16.8738791,False,NONE
2019-10-26 18:53:07.400,LG-H970,1572115987409.5,0.164,9.827,0.291,41.1006911,16.8738791,False,NONE
2019-10-26 18:53:07.420,LG-H970,1572115987429.5,-0.067,9.258,0.526,41.1006911,16.8738791,False,NONE
2019-10-26 18:53:07.440,LG-H970,1572115987448.5,-1.972,10.143,-0.599,41.1006911,16.8738791,False,NONE
2019-10-26 18:53:07.460,LG-H970,1572115987466.6667,-2.835,10.788,-1.417,41.1006911,16.8738791,False,NONE
2019-10-26 18:53:07.480,LG-H970,1572115987488.5,-1.942,9.597,-0.228,41.1006911,16.8738791,False,NONE
2019-10-26 18:53:07.500,LG-H970,1572115987508.5,-0.02,8.577,0.372,41.1006911,16.8738791,False,NONE
2019-10-26 18:53:07.520,LG-H970,1572115987530.0,-1.051,9.646,-0.42,41.1006911,16.8738791,False,NONE
2019-10-26 18:53:07.540,LG-H970,1572115987550.3333,-2.864,9.562,-1.552,41.1006911,16.8738791,False,NONE
2019-10-26 18:53:07.560,LG-H970,1572115987569.8,-1.768,9.76,-0.631,41.1006911,16.8738791,False,NONE
2019-10-26 18:53:07.580,LG-H970,1572115987591.75,-0.597,9.411,0.349,41.1006911,16.8738791,False,NONE
2019-10-26 18:53:07.600,LG-H970,1572115987611.5,-0.985,9.545,0.039,41.1006911,16.8738791,False,NONE
2019-10-26 18:53:07.620,LG-H970,1572115987630.75,-1.938,10.46,-0.423,41.1006911,16.8738791,False,NONE
2019-10-26 18:53:07.640,LG-H970,1572115987651.25,-1.877,10.514,-1.169,41.1006911,16.8738791,False,NONE
2019-10-26 18:53:07.660,LG-H970,1572115987670.75,-0.728,9.658,-0.894,41.1006911,16.8738791,False,NONE
2019-10-26 18:53:07.680,LG-H970,1572115987690.5,0.094,9.256,-0.077,41.1006911,16.8738791,False,NONE
2019-10-26 18:53:07.700,LG-H970,1572115987708.0,-0.183,9.67,-1.039,41.1006911,16.8738791,False,NONE
2019-10-26 18:53:07.720,LG-H970,1572115987729.2,-1.134,10.456,-0.634,41.1006911,16.8738791,False,NONE
2019-10-26 18:53:07.740,LG-H970,1572115987751.0,-0.946,10.018,-1.162,41.1006911,16.8738791,False,NONE
2019-10-26 18:53:07.760,LG-H970,1572115987769.75,0.29,9.726,-0.484,41.1006911,16.8738791,False,NONE
2019-10-26 18:53:07.780,LG-H970,1572115987789.5,0.533,9.31,-0.773,41.1006911,16.8738791,False,NONE
2019-10-26 18:53:07.800,LG-H970,1572115987809.25,-0.485,9.989,-1.223,41.1006911,16.8738791,False,NONE
2019-10-26 18:53:07.820,LG-H970,1572115987829.0,-1.084,10.489,-1.123,41.1006911,16.8738791,False,NONE
2019-10-26 18:53:07.840,LG-H970,1572115987849.25,-0.253,9.756,-0.641,41.1006911,16.8738791,False,NONE
2019-10-26 18:53:07.860,LG-H970,1572115987869.5,0.72,9.449,0.238,41.1006911,16.8738791,False,NONE
2019-10-26 18:53:07.880,LG-H970,1572115987889.0,-0.057,9.354,-1.186,41.1006911,16.8738791,False,NONE
2019-10-26 18:53:07.900,LG-H970,1572115987908.75,-0.75,10.402,-1.229,41.1006911,16.8738791,False,NONE
2019-10-26 18:53:07.920,LG-H970,1572115987928.75,-0.354,9.825,-1.158,41.1006911,16.8738791,False,NONE
2019-10-26 18:53:07.940,LG-H970,1572115987948.75,0.382,9.253,-0.247,41.1006911,16.8738791,False,NONE
2019-10-26 18:53:07.960,LG-H970,1572115987968.5,-0.08,9.476,-0.322,41.1006911,16.8738791,False,NONE
2019-10-26 18:53:07.980,LG-H970,1572115987987.75,-0.773,10.328,-1.184,41.1006911,16.8738791,False,NONE
2019-10-26 18:53:08.000,LG-H970,1572115988008.0,-0.724,10.511,-0.301,41.1006911,16.8738791,False,NONE
2019-10-26 18:53:08.020,LG-H970,1572115988028.0,0.207,9.618,-0.611,41.1006911,16.8738791,False,NONE
2019-10-26 18:53:08.040,LG-H970,1572115988047.75,0.294,10.469,0.347,41.1006911,16.8738791,False,NONE
2019-10-26 18:53:08.060,LG-H970,1572115988070.0,-0.389,10.726,-0.851,41.1006911,16.8738791,False,NONE
2019-10-26 18:53:08.080,LG-H970,1572115988089.3333,-1.049,10.405,-0.471,41.1006911,16.8738791,False,NONE
2019-10-26 18:53:08.100,LG-H970,1572115988106.75,-0.729,9.572,-0.927,41.1006911,16.8738791,False,NONE
2019-10-26 18:53:08.120,LG-H970,1572115988127.5,-0.134,10.238,-0.279,41.1006911,16.8738791,False,NONE
2019-10-26 18:53:08.140,LG-H970,1572115988147.0,-0.694,10.362,0.1,41.1006911,16.8738791,False,NONE
2019-10-26 18:53:08.160,LG-H970,1572115988168.8,-0.638,10.358,-0.679,41.1006911,16.8738791,False,NONE
2019-10-26 18:53:08.180,LG-H970,1572115988189.0,-0.169,10.4,0.095,41.1006911,16.8738791,False,NONE
2019-10-26 18:53:08.200,LG-H970,1572115988206.5,-0.45,9.329,-1.014,41.1006911,16.8738791,False,NONE
2019-10-26 18:53:08.220,LG-H970,1572115988230.4,-1.03,10.44,-0.667,41.1006911,16.8738791,False,NONE
2019-10-26 18:53:08.240,LG-H970,1572115988249.75,-0.781,10.253,-0.376,41.1006911,16.8738791,False,NONE
2019-10-26 18:53:08.260,LG-H970,1572115988269.5,-0.269,9.467,-0.343,41.1006911,16.8738791,False,NONE
2019-10-26 18:53:08.280,LG-H970,1572115988289.75,-0.134,9.343,-0.528,41.1006911,16.8738791,False,NONE
2019-10-26 18:53:08.300,LG-H970,1572115988309.25,-0.646,9.004,-0.927,41.1006911,16.8738791,False,NONE
2019-10-26 18:53:08.320,LG-H970,1572115988329.25,-0.948,9.294,-1.399,41.1006911,16.8738791,False,NONE
2019-10-26 18:53:08.340,LG-H970,1572115988349.0,-0.818,9.745,-1.397,41.1006911,16.8738791,False,NONE
2019-10-26 18:53:08.360,LG-H970,1572115988369.0,-0.059,10.377,-0.146,41.1006911,16.8738791,False,NONE
2019-10-26 18:53:08.380,LG-H970,1572115988388.5,0.036,9.385,-0.283,41.1006911,16.8738791,False,NONE
2019-10-26 18:53:08.400,LG-H970,1572115988408.5,-0.059,9.131,-1.15,41.1006911,16.8738791,False,NONE
2019-10-26 18:53:08.420,LG-H970,1572115988428.0,-0.755,9.879,-1.537,41.1006911,16.8738791,False,NONE
2019-10-26 18:53:08.440,LG-H970,1572115988447.75,-1.144,9.988,-1.42,41.1006911,16.8738791,False,NONE
2019-10-26 18:53:08.460,LG-H970,1572115988468.5,0.114,10.38,-0.122,41.1006911,16.8738791,False,NONE
2019-10-26 18:53:08.480,LG-H970,1572115988487.5,0.434,10.131,0.052,41.1006911,16.8738791,False,NONE
2019-10-26 18:53:08.500,LG-H970,1572115988507.75,-0.485,9.815,-0.333,41.1006911,16.8738791,False,NONE
2019-10-26 18:53:08.520,LG-H970,1572115988527.75,-0.782,9.426,-1.405,41.1006911,16.8738791,False,NONE
2019-10-26 18:53:08.540,LG-H970,1572115988549.8,0.07,9.085,-1.757,41.1006911,16.8738791,False,NONE
2019-10-26 18:53:08.560,LG-H970,1572115988570.3333,0.411,8.791,-1.019,41.1006911,16.8738791,False,NONE
2019-10-26 18:53:08.580,LG-H970,1572115988586.75,0.363,9.476,0.081,41.1006911,16.8738791,False,NONE
2019-10-26 18:53:08.600,LG-H970,1572115988606.75,-0.017,10.231,0.421,41.1006911,16.8738791,False,NONE
2019-10-26 18:53:08.620,LG-H970,1572115988626.75,-0.337,10.004,-0.68,41.1006911,16.8738791,False,NONE
2019-10-26 18:53:08.640,LG-H970,1572115988648.6,-0.434,9.402,-0.779,41.1006911,16.8738791,False,NONE
2019-10-26 18:53:08.660,LG-H970,1572115988669.5,0.151,9.353,-1.223,41.1006911,16.8738791,False,NONE
2019-10-26 18:53:08.680,LG-H970,1572115988689.75,0.384,9.349,-0.203,41.1006911,16.8738791,False,NONE
2019-10-26 18:53:08.700,LG-H970,1572115988710.0,0.01,9.767,-0.187,41.1006911,16.8738791,False,NONE
2019-10-26 18:53:08.720,LG-H970,1572115988731.25,-1.194,10.036,-0.196,41.1006911,16.8738791,False,NONE
2019-10-26 18:53:08.740,LG-H970,1572115988749.75,-1.519,10.152,-0.142,41.1006911,16.8738791,False,NONE
2019-10-26 18:53:08.760,LG-H970,1572115988768.6667,0.311,12.386,-0.724,41.1006911,16.8738791,False,NONE
2019-10-26 18:53:08.780,LG-H970,1572115988789.25,-0.514,9.294,1.46,41.1006911,16.8738791,False,NONE
2019-10-26 18:53:08.800,LG-H970,1572115988808.75,0.434,5.638,-1.529,41.1006911,16.8738791,False,NONE
2019-10-26 18:53:08.820,LG-H970,1572115988829.25,0.655,5.827,-3.753,41.1006911,16.8738791,False,NONE
2019-10-26 18:53:08.840,LG-H970,1572115988848.75,-1.147,9.065,-1.02,41.1006911,16.8738791,False,NONE
2019-10-26 18:53:08.860,LG-H970,1572115988868.5,-1.859,12.219,-0.49,41.1006911,16.8738791,False,NONE
2019-10-26 18:53:08.880,LG-H970,1572115988888.5,-0.545,10.871,3.579,41.1006911,16.8738791,False,NONE
2019-10-26 18:53:08.900,LG-H970,1572115988908.0,1.657,11.327,0.187,41.1006911,16.8738791,False,NONE
2019-10-26 18:53:08.920,LG-H970,1572115988928.0,-1.319,10.294,-0.814,41.1006911,16.8738791,False,NONE
2019-10-26 18:53:08.940,LG-H970,1572115988947.5,-2.409,8.713,-1.69,41.1006911,16.8738791,False,NONE
2019-10-26 18:53:08.960,LG-H970,1572115988967.5,-0.567,9.049,-3.061,41.1006911,16.8738791,False,NONE
2019-10-26 18:53:08.980,LG-H970,1572115988987.25,-2.245,8.703,1.312,41.1006911,16.8738791,False,NONE
2019-10-26 18:53:09.000,LG-H970,1572115989007.5,-1.92,12.019,1.445,41.1006911,16.8738791,False,NONE
2019-10-26 18:53:09.020,LG-H970,1572115989027.5,-1.045,11.423,0.692,41.1006911,16.8738791,False,NONE
2019-10-26 18:53:09.040,LG-H970,1572115989049.2,-0.013,10.432,-0.913,41.1006911,16.8738791,False,NONE
2019-10-26 18:53:09.060,LG-H970,1572115989070.75,-0.107,11.43,-0.531,41.1006911,16.8738791,False,NONE
2019-10-26 18:53:09.080,LG-H970,1572115989090.75,-3.215,11.021,-1.152,41.1006911,16.8738791,False,NONE
2019-10-26 18:53:09.100,LG-H970,1572115989110.5,-1.971,11.688,0.093,41.1006911,16.8738791,False,NONE
2019-10-26 18:53:09.120,LG-H970,1572115989130.5,-0.718,7.213,2.38,41.1006911,16.8738791,False,NONE
2019-10-26 18:53:09.140,LG-H970,1572115989150.25,3.938,10.309,4.147,41.1006911,16.8738791,False,NONE
2019-10-26 18:53:09.160,LG-H970,1572115989170.0,-0.867,12.179,-5.535,41.1006911,16.8738791,False,NONE
2019-10-26 18:53:09.180,LG-H970,1572115989187.6667,-8.173,11.489,-0.322,41.1006911,16.8738791,False,NONE
2019-10-26 18:53:09.200,LG-H970,1572115989215.0,0.576,15.791,-2.153,41.1006911,16.8738791,True,NONE
2019-10-26 18:53:09.220,LG-H970,1572115989215.0,0.576,15.791,-2.153,41.1006911,16.8738791,True,NONE
2019-10-26 18:53:09.240,LG-H970,1572115989250.6667,0.439,8.615,-0.04,41.1006911,16.8738791,False,NONE
2019-10-26 18:53:09.260,LG-H970,1572115989268.25,-4.987,9.696,-3.013,41.1006911,16.8738791,False,NONE
2019-10-26 18:53:09.280,LG-H970,1572115989287.75,-5.896,10.788,-6.047,41.1006911,16.8738791,False,NONE
2019-10-26 18:53:09.300,LG-H970,1572115989308.0,-3.543,8.303,-1.89,41.1006911,16.8738791,False,NONE
2019-10-26 18:53:09.320,LG-H970,1572115989328.5,1.926,9.65,1.801,41.1006911,16.8738791,False,NONE
2019-10-26 18:53:09.340,LG-H970,1572115989348.75,1.829,11.89,2.949,41.1006911,16.8738791,False,NONE
2019-10-26 18:53:09.360,LG-H970,1572115989368.5,-3.74,12.009,-2.342,41.1006911,16.8738791,False,NONE
2019-10-26 18:53:09.380,LG-H970,1572115989388.5,-4.931,11.439,-2.014,41.1006911,16.8738791,False,NONE
2019-10-26 18:53:09.400,LG-H970,1572115989407.75,-0.968,7.813,-3.692,41.1006911,16.8738791,False,NONE
2019-10-26 18:53:09.420,LG-H970,1572115989429.4,1.297,6.978,0.178,41.1006911,16.8738791,False,NONE
2019-10-26 18:53:09.440,LG-H970,1572115989451.75,-2.126,8.491,-1.07,41.1006911,16.8738791,False,NONE
2019-10-26 18:53:09.460,LG-H970,1572115989469.3333,-5.344,11.733,1.68,41.1006911,16.8738791,False,NONE
2019-10-26 18:53:09.480,LG-H970,1572115989489.4,-2.282,12.381,-2.747,41.1006911,16.8738791,False,NONE
2019-10-26 18:53:09.500,LG-H970,1572115989511.25,-0.422,7.666,-0.525,41.1006911,16.8738791,False,NONE
2019-10-26 18:53:09.520,LG-H970,1572115989532.5,3.823,8.875,-1.755,41.1006911,16.8738791,False,NONE
2019-10-26 18:53:09.540,LG-H970,1572115989551.5,-1.188,7.374,-3.665,41.1006911,16.8738791,False,NONE
2019-10-26 18:53:09.560,LG-H970,1572115989568.3333,-4.897,10.174,2.921,41.1006911,16.8738791,False,NONE
2019-10-26 18:53:09.580,LG-H970,1572115989586.5,-2.221,12.896,-1.33,41.1006911,16.8738791,False,NONE
2019-10-26 18:53:09.600,LG-H970,1572115989608.6,-0.368,12.041,2.328,41.1006911,16.8738791,False,NONE
2019-10-26 18:53:09.620,LG-H970,1572115989630.25,-0.235,7.751,-3.354,41.1006911,16.8738791,False,NONE
2019-10-26 18:53:09.640,LG-H970,1572115989649.75,-1.357,6.294,-0.393,41.1006911,16.8738791,False,NONE
2019-10-26 18:53:09.660,LG-H970,1572115989669.75,-0.59,8.579,-3.529,41.1006911,16.8738791,False,NONE
2019-10-26 18:53:09.680,LG-H970,1572115989689.5,-2.295,11.367,2.711,41.1006911,16.8738791,False,NONE
2019-10-26 18:53:09.700,LG-H970,1572115989709.75,-1.367,11.781,1.46,41.1006911,16.8738791,False,NONE
2019-10-26 18:53:09.720,LG-H970,1572115989729.75,-0.315,9.651,1.929,41.1006911,16.8738791,False,NONE
2019-10-26 18:53:09.740,LG-H970,1572115989749.75,-0.538,6.862,-1.071,41.1006911,16.8738791,False,NONE
2019-10-26 18:53:09.760,LG-H970,1572115989770.25,-1.213,9.034,-1.32,41.1006911,16.8738791,False,NONE
2019-10-26 18:53:09.780,LG-H970,1572115989789.25,-2.371,10.143,-0.865,41.1006911,16.8738791,False,NONE
2019-10-26 18:53:09.800,LG-H970,1572115989809.25,-1.762,11.165,1.342,41.1006911,16.8738791,False,NONE
2019-10-26 18:53:09.820,LG-H970,1572115989828.75,-0.801,10.012,1.896,41.1006911,16.8738791,False,NONE
2019-10-26 18:53:09.840,LG-H970,1572115989848.75,-0.487,8.95,1.19,41.1006911,16.8738791,False,NONE
2019-10-26 18:53:09.860,LG-H970,1572115989868.75,-1.112,9.081,-1.043,41.1006911,16.8738791,False,NONE
2019-10-26 18:53:09.880,LG-H970,1572115989891.4,-2.627,9.914,-1.45,41.1006911,16.8738791,False,NONE
2019-10-26 18:53:09.900,LG-H970,1572115989912.25,-1.525,10.799,1.326,41.1006911,16.8738791,False,NONE
2019-10-26 18:53:09.920,LG-H970,1572115989932.0,0.147,10.24,1.877,41.1006911,16.8738791,False,NONE
2019-10-26 18:53:09.940,LG-H970,1572115989952.0,-0.108,9.931,1.117,41.1006911,16.8738791,False,NONE
2019-10-26 18:53:09.960,LG-H970,1572115989969.0,-2.272,9.793,-0.12,41.1006911,16.8738791,False,NONE
2019-10-26 18:53:09.980,LG-H970,1572115989990.0,-2.527,10.07,-1.961,41.1006911,16.8738791,False,NONE
2019-10-26 18:53:10.000,LG-H970,1572115990011.5,-0.376,10.171,0.802,41.1006911,16.8738791,False,NONE
2019-10-26 18:53:10.020,LG-H970,1572115990031.5,0.438,9.532,1.12,41.1006911,16.8738791,False,NONE
2019-10-26 18:53:10.040,LG-H970,1572115990051.0,-1.267,10.15,1.469,41.1006911,16.8738791,False,NONE
2019-10-26 18:53:10.060,LG-H970,1572115990068.6667,-2.166,11.666,-0.798,41.1006911,16.8738791,False,NONE
2019-10-26 18:53:10.080,LG-H970,1572115990086.25,-2.899,10.144,-0.947,41.1006911,16.8738791,False,NONE
2019-10-26 18:53:10.100,LG-H970,1572115990108.6,-1.013,8.71,-0.058,41.1006911,16.8738791,False,NONE
2019-10-26 18:53:10.120,LG-H970,1572115990130.5,-0.054,9.196,0.747,41.1006911,16.8738791,False,NONE
2019-10-26 18:53:10.140,LG-H970,1572115990150.0,-1.68,9.973,0.497,41.1006911,16.8738791,False,NONE
2019-10-26 18:53:10.160,LG-H970,1572115990167.3333,-2.306,11.369,0.551,41.1006911,16.8738791,False,NONE
2019-10-26 18:53:10.180,LG-H970,1572115990189.75,-1.651,9.955,0.418,41.1006911,16.8738791,False,NONE
2019-10-26 18:53:10.200,LG-H970,1572115990209.5,0.282,8.986,-0.266,41.1006911,16.8738791,False,NONE
2019-10-26 18:53:10.220,LG-H970,1572115990229.5,-0.93,8.152,0.357,41.1006911,16.8738791,False,NONE
2019-10-26 18:53:10.240,LG-H970,1572115990249.25,-2.18,10.042,-1.208,41.1006911,16.8738791,False,NONE
2019-10-26 18:53:10.260,LG-H970,1572115990270.75,-2.246,11.169,0.21,41.1006911,16.8738791,False,NONE
2019-10-26 18:53:10.280,LG-H970,1572115990289.25,-0.41,10.369,0.838,41.1006911,16.8738791,False,NONE
2019-10-26 18:53:10.300,LG-H970,1572115990308.75,0.626,9.405,1.333,41.1006911,16.8738791,False,NONE
2019-10-26 18:53:10.320,LG-H970,1572115990328.0,-0.72,9.629,-0.428,41.1006911,16.8738791,False,NONE
2019-10-26 18:53:10.340,LG-H970,1572115990347.75,-2.686,10.1,-0.588,41.1006911,16.8738791,False,NONE
2019-10-26 18:53:10.360,LG-H970,1572115990367.5,-1.72,10.637,-0.841,41.1006911,16.8738791,False,NONE
2019-10-26 18:53:10.380,LG-H970,1572115990390.4,-0.486,10.049,1.641,41.1006911,16.8738791,False,NONE
2019-10-26 18:53:10.400,LG-H970,1572115990411.5,-0.769,9.277,0.799,41.1006911,16.8738791,False,NONE
2019-10-26 18:53:10.420,LG-H970,1572115990431.75,-2.374,9.669,0.421,41.1006911,16.8738791,False,NONE
2019-10-26 18:53:10.440,LG-H970,1572115990451.5,-2.224,9.831,-1.788,41.1006911,16.8738791,False,NONE
2019-10-26 18:53:10.460,LG-H970,1572115990469.3333,-1.156,9.572,0.056,41.1006911,16.8738791,False,NONE
2019-10-26 18:53:10.480,LG-H970,1572115990488.6,0.174,9.217,0.967,41.1006911,16.8738791,False,NONE
2019-10-26 18:53:10.500,LG-H970,1572115990511.5,-0.489,9.159,2.13,41.1006911,16.8738791,False,NONE
2019-10-26 18:53:10.520,LG-H970,1572115990531.0,-1.839,10.001,0.34,41.1006911,16.8738791,False,NONE
2019-10-26 18:53:10.540,LG-H970,1572115990551.25,-2.497,9.852,0.001,41.1006911,16.8738791,False,NONE
2019-10-26 18:53:10.560,LG-H970,1572115990570.5,-1.151,9.189,0.393,41.1006911,16.8738791,False,NONE
2019-10-26 18:53:10.580,LG-H970,1572115990590.75,0.357,9.37,0.74,41.1006911,16.8738791,False,NONE
2019-10-26 18:53:10.600,LG-H970,1572115990610.25,-0.775,10.318,1.017,41.1006911,16.8738791,False,NONE
2019-10-26 18:53:10.620,LG-H970,1572115990627.6667,-2.977,10.068,0.067,41.1006911,16.8738791,False,NONE
2019-10-26 18:53:10.640,LG-H970,1572115990648.6,-2.091,11.078,-0.587,41.1006911,16.8738791,False,NONE
2019-10-26 18:53:10.660,LG-H970,1572115990669.5,-0.028,9.793,-1.094,41.1006911,16.8738791,False,NONE
2019-10-26 18:53:10.680,LG-H970,1572115990689.5,-0.609,9.573,-0.506,41.1006911,16.8738791,False,NONE
2019-10-26 18:53:10.700,LG-H970,1572115990709.5,-2.609,11.072,-0.717,41.1006911,16.8738791,False,NONE
2019-10-26 18:53:10.720,LG-H970,1572115990729.0,-2.926,11.214,-0.566,41.1006911,16.8738791,False,NONE
2019-10-26 18:53:10.740,LG-H970,1572115990749.0,-1.17,9.669,1.279,41.1006911,16.8738791,False,NONE
2019-10-26 18:53:10.760,LG-H970,1572115990769.25,0.312,8.46,-0.204,41.1006911,16.8738791,False,NONE
2019-10-26 18:53:10.780,LG-H970,1572115990788.75,-0.732,8.953,-0.326,41.1006911,16.8738791,False,NONE
2019-10-26 18:53:10.800,LG-H970,1572115990807.5,-2.318,9.709,-0.813,41.1006911,16.8738791,False,NONE
2019-10-26 18:53:10.820,LG-H970,1572115990827.75,-1.915,10.463,0.945,41.1006911,16.8738791,False,NONE
2019-10-26 18:53:10.840,LG-H970,1572115990847.25,-0.594,9.974,-0.167,41.1006911,16.8738791,False,NONE
2019-10-26 18:53:10.860,LG-H970,1572115990867.0,-0.433,9.442,0.307,41.1006911,16.8738791,False,NONE
2019-10-26 18:53:10.880,LG-H970,1572115990890.2,-1.63,9.409,-1.295,41.1006911,16.8738791,False,NONE
2019-10-26 18:53:10.900,LG-H970,1572115990912.0,-2.599,10.772,-2.243,41.1006911,16.8738791,False,NONE
2019-10-26 18:53:10.920,LG-H970,1572115990931.5,-2.088,11.565,-0.684,41.1006911,16.8738791,False,NONE
2019-10-26 18:53:10.940,LG-H970,1572115990951.5,-0.537,9.924,1.279,41.1006911,16.8738791,False,NONE
2019-10-26 18:53:10.960,LG-H970,1572115990968.3333,0.498,9.214,0.884,41.1006911,16.8738791,False,NONE
2019-10-26 18:53:10.980,LG-H970,1572115990989.2,-1.304,8.755,-1.527,41.1006911,16.8738791,False,NONE
2019-10-26 18:53:11.000,LG-H970,1572115991010.5,-2.945,9.583,-1.001,41.1006911,16.8738791,False,NONE
2019-10-26 18:53:11.020,LG-H970,1572115991034.0,-1.893,9.744,0.172,41.1006911,16.8738791,False,NONE
2019-10-26 18:53:11.040,LG-H970,1572115991050.0,0.105,9.496,0.755,41.1006911,16.8738791,False,NONE
2019-10-26 18:53:11.060,LG-H970,1572115991069.5,-0.515,10.423,0.833,41.1006911,16.8738791,False,NONE
2019-10-26 18:53:11.080,LG-H970,1572115991090.5,-2.416,9.872,-1.82,41.1006911,16.8738791,False,NONE
2019-10-26 18:53:11.100,LG-H970,1572115991109.5,-2.564,10.026,-1.536,41.1006911,16.8738791,False,NONE
2019-10-26 18:53:11.120,LG-H970,1572115991129.5,-0.999,9.395,-2.325,41.1006911,16.8738791,False,NONE
2019-10-26 18:53:11.140,LG-H970,1572115991149.5,-0.456,9.195,1.041,41.1006911,16.8738791,False,NONE
2019-10-26 18:53:11.160,LG-H970,1572115991169.25,-0.529,9.767,0.583,41.1006911,16.8738791,False,NONE
2019-10-26 18:53:11.180,LG-H970,1572115991188.75,-2.096,10.077,0.315,41.1006911,16.8738791,False,NONE
2019-10-26 18:53:11.200,LG-H970,1572115991204.5,-2.969,8.601,-1.712,41.1006911,16.8738791,False,NONE
2019-10-26 18:53:11.220,LG-H970,1572115991230.75,-1.459,9.159,-0.981,41.1006911,16.8738791,False,NONE
2019-10-26 18:53:11.240,LG-H970,1572115991248.0,-0.352,9.287,0.011,41.1006911,16.8738791,False,NONE
2019-10-26 18:53:11.260,LG-H970,1572115991268.5,-0.824,10.729,0.234,41.1006911,16.8738791,False,NONE
2019-10-26 18:53:11.280,LG-H970,1572115991290.2,-2.172,11.189,0.082,41.1006911,16.8738791,False,NONE
2019-10-26 18:53:11.300,LG-H970,1572115991310.0,-1.626,10.767,-1.671,41.1006911,16.8738791,False,NONE
2019-10-26 18:53:11.320,LG-H970,1572115991329.6,-0.771,9.225,-0.78,41.1006911,16.8738791,False,NONE
2019-10-26 18:53:11.340,LG-H970,1572115991352.5,-0.779,9.152,-0.44,41.1006911,16.8738791,False,NONE
2019-10-26 18:53:11.360,LG-H970,1572115991371.5,-1.738,10.384,0.084,41.1006911,16.8738791,False,NONE
2019-10-26 18:53:11.380,LG-H970,1572115991391.25,-1.833,11.075,0.443,41.1006911,16.8738791,False,NONE
2019-10-26 18:53:11.400,LG-H970,1572115991411.0,-1.434,9.73,0.604,41.1006911,16.8738791,False,NONE
2019-10-26 18:53:11.420,LG-H970,1572115991431.25,-0.446,9.111,0.069,41.1006911,16.8738791,False,NONE
2019-10-26 18:53:11.440,LG-H970,1572115991452.5,-0.898,9.68,-1.111,41.1006911,16.8738791,False,NONE
2019-10-26 18:53:11.460,LG-H970,1572115991470.75,-2.061,10.627,-0.917,41.1006911,16.8738791,False,NONE
2019-10-26 18:53:11.480,LG-H970,1572115991492.6667,-1.795,11.188,-0.345,41.1006911,16.8738791,False,NONE
2019-10-26 18:53:11.500,LG-H970,1572115991507.3333,-0.863,10.038,-0.302,41.1006911,16.8738791,False,NONE
2019-10-26 18:53:11.520,LG-H970,1572115991525.5,-0.253,9.119,0.472,41.1006911,16.8738791,False,NONE
2019-10-26 18:53:11.540,LG-H970,1572115991550.3333,-0.779,9.298,-0.892,41.1006911,16.8738791,False,NONE
2019-10-26 18:53:11.560,LG-H970,1572115991569.25,-2.215,9.721,-1.853,41.1006911,16.8738791,False,NONE
2019-10-26 18:53:11.580,LG-H970,1572115991589.5,-1.467,9.709,-0.183,41.1006911,16.8738791,False,NONE
2019-10-26 18:53:11.600,LG-H970,1572115991608.75,0.378,9.459,0.612,41.1006911,16.8738791,False,NONE
2019-10-26 18:53:11.620,LG-H970,1572115991628.5,0.635,10.422,0.439,41.1006911,16.8738791,False,NONE
2019-10-26 18:53:11.640,LG-H970,1572115991648.75,-1.651,10.674,-0.511,41.1006911,16.8738791,False,NONE
2019-10-26 18:53:11.660,LG-H970,1572115991668.25,-2.687,10.475,-1.085,41.1006911,16.8738791,False,NONE
2019-10-26 18:53:11.680,LG-H970,1572115991688.0,-0.836,9.674,-1.74,41.1006911,16.8738791,False,NONE
2019-10-26 18:53:11.700,LG-H970,1572115991708.25,0.377,9.239,-0.277,41.1006911,16.8738791,False,NONE
2019-10-26 18:53:11.720,LG-H970,1572115991728.0,-0.843,9.919,0.332,41.1006911,16.8738791,False,NONE
2019-10-26 18:53:11.740,LG-H970,1572115991747.75,-2.73,11.148,-0.143,41.1006911,16.8738791,False,NONE
2019-10-26 18:53:11.760,LG-H970,1572115991771.0,-2.917,10.888,-0.32,41.1006911,16.8738791,False,NONE
2019-10-26 18:53:11.780,LG-H970,1572115991789.3333,-1.191,9.843,-0.008,41.1006911,16.8738791,False,NONE
2019-10-26 18:53:11.800,LG-H970,1572115991809.6,-0.617,8.845,0.3,41.1006911,16.8738791,False,NONE
2019-10-26 18:53:11.820,LG-H970,1572115991832.25,-1.607,10.214,-0.73,41.1006911,16.8738791,False,NONE
2019-10-26 18:53:11.840,LG-H970,1572115991848.5,-2.655,11.286,-0.425,41.1006911,16.8738791,False,NONE
2019-10-26 18:53:11.860,LG-H970,1572115991867.5,-2.49,10.854,-0.544,41.1006911,16.8738791,False,NONE
2019-10-26 18:53:11.880,LG-H970,1572115991891.75,-1.182,8.913,0.4,41.1006911,16.8738791,False,NONE
2019-10-26 18:53:11.900,LG-H970,1572115991910.5,-0.593,9.281,-0.544,41.1006911,16.8738791,False,NONE
2019-10-26 18:53:11.920,LG-H970,1572115991930.5,-2.913,9.794,-1.746,41.1006911,16.8738791,False,NONE
2019-10-26 18:53:11.940,LG-H970,1572115991950.75,-3.01,10.821,-1.352,41.1006911,16.8738791,False,NONE
2019-10-26 18:53:11.960,LG-H970,1572115991971.25,-0.94,9.36,1.187,41.1006911,16.8738791,False,NONE
2019-10-26 18:53:11.980,LG-H970,1572115991991.25,0.15,8.389,0.98,41.1006911,16.8738791,False,NONE
2019-10-26 18:53:12.000,LG-H970,1572115992010.0,-1.287,9.108,-1.089,41.1006911,16.8738791,False,NONE
2019-10-26 18:53:12.020,LG-H970,1572115992029.75,-3.235,9.801,-2.113,41.1006911,16.8738791,False,NONE
2019-10-26 18:53:12.040,LG-H970,1572115992049.75,-2.561,9.449,-1.65,41.1006911,16.8738791,False,NONE
2019-10-26 18:53:12.060,LG-H970,1572115992069.5,-0.187,8.816,0.187,41.1006911,16.8738791,False,NONE
2019-10-26 18:53:12.080,LG-H970,1572115992089.75,0.044,9.098,0.869,41.1006911,16.8738791,False,NONE
2019-10-26 18:53:12.100,LG-H970,1572115992108.75,-2.373,9.977,-0.657,41.1006911,16.8738791,False,NONE
2019-10-26 18:53:12.120,LG-H970,1572115992128.75,-3.175,10.1,-2.239,41.1006911,16.8738791,False,NONE
2019-10-26 18:53:12.140,LG-H970,1572115992149.0,-0.969,8.841,-1.03,41.1006911,16.8738791,False,NONE
2019-10-26 18:53:12.160,LG-H970,1572115992168.75,0.85,8.424,0.641,41.1006911,16.8738791,False,NONE
2019-10-26 18:53:12.180,LG-H970,1572115992188.5,-0.642,9.476,0.641,41.1006911,16.8738791,False,NONE
2019-10-26 18:53:12.200,LG-H970,1572115992208.25,-2.961,10.857,-0.547,41.1006911,16.8738791,False,NONE
2019-10-26 18:53:12.220,LG-H970,1572115992228.0,-3.007,10.288,-1.285,41.1006911,16.8738791,False,NONE
2019-10-26 18:53:12.240,LG-H970,1572115992248.0,-0.946,8.598,-0.975,41.1006911,16.8738791,False,NONE
2019-10-26 18:53:12.260,LG-H970,1572115992270.2,-0.045,8.014,0.126,41.1006911,16.8738791,False,NONE
2019-10-26 18:53:12.280,LG-H970,1572115992291.75,-1.865,10.529,-0.408,41.1006911,16.8738791,False,NONE
2019-10-26 18:53:12.300,LG-H970,1572115992312.75,-2.864,12.394,-0.171,41.1006911,16.8738791,False,NONE
2019-10-26 18:53:12.320,LG-H970,1572115992331.5,-2.074,9.642,0.945,41.1006911,16.8738791,False,NONE
2019-10-26 18:53:12.340,LG-H970,1572115992351.75,1.204,8.146,-0.32,41.1006911,16.8738791,False,NONE
2019-10-26 18:53:12.360,LG-H970,1572115992369.0,1.141,8.043,-1.216,41.1006911,16.8738791,False,NONE
2019-10-26 18:53:12.380,LG-H970,1572115992388.25,-1.198,9.126,-1.267,41.1006911,16.8738791,False,NONE
2019-10-26 18:53:12.400,LG-H970,1572115992410.75,-3.25,10.202,0.228,41.1006911,16.8738791,False,NONE
2019-10-26 18:53:12.420,LG-H970,1572115992430.25,-1.325,10.532,0.273,41.1006911,16.8738791,False,NONE
2019-10-26 18:53:12.440,LG-H970,1572115992450.5,-0.676,7.751,0.88,41.1006911,16.8738791,False,NONE
2019-10-26 18:53:12.460,LG-H970,1572115992470.5,-0.976,7.049,-2.854,41.1006911,16.8738791,False,NONE
2019-10-26 18:53:12.480,LG-H970,1572115992490.25,-2.007,9.598,-2.498,41.1006911,16.8738791,False,NONE
2019-10-26 18:53:12.500,LG-H970,1572115992510.0,-2.369,10.251,-0.887,41.1006911,16.8738791,False,NONE
2019-10-26 18:53:12.520,LG-H970,1572115992530.25,-0.884,12.043,3.447,41.1006911,16.8738791,False,NONE
2019-10-26 18:53:12.540,LG-H970,1572115992550.75,-0.069,11.474,1.843,41.1006911,16.8738791,False,NONE
2019-10-26 18:53:12.560,LG-H970,1572115992570.0,-1.219,11.002,-0.187,41.1006911,16.8738791,False,NONE
2019-10-26 18:53:12.580,LG-H970,1572115992589.25,-2.728,9.304,-3.507,41.1006911,16.8738791,False,NONE
2019-10-26 18:53:12.600,LG-H970,1572115992609.0,-1.439,9.827,-1.339,41.1006911,16.8738791,False,NONE
2019-10-26 18:53:12.620,LG-H970,1572115992629.0,0.773,10.262,0.769,41.1006911,16.8738791,False,NONE
2019-10-26 18:53:12.640,LG-H970,1572115992648.25,-0.19,12.341,2.608,41.1006911,16.8738791,False,NONE
2019-10-26 18:53:12.660,LG-H970,1572115992668.5,-2.487,12.586,-0.164,41.1006911,16.8738791,False,NONE
2019-10-26 18:53:12.680,LG-H970,1572115992688.25,-2.415,10.669,-2.075,41.1006911,16.8738791,False,NONE
2019-10-26 18:53:12.700,LG-H970,1572115992708.5,-0.433,8.164,-1.609,41.1006911,16.8738791,False,NONE
2019-10-26 18:53:12.720,LG-H970,1572115992727.75,0.845,8.069,1.026,41.1006911,16.8738791,False,NONE
2019-10-26 18:53:12.740,LG-H970,1572115992745.0,0.22,11.073,1.506,41.1006911,16.8738791,False,NONE
2019-10-26 18:53:12.760,LG-H970,1572115992774.5,-2.627,11.401,0.609,41.1006911,16.8738791,False,NONE
2019-10-26 18:53:12.780,LG-H970,1572115992789.0,-4.119,11.674,-1.576,41.1006911,16.8738791,False,NONE
2019-10-26 18:53:12.800,LG-H970,1572115992808.8,-0.407,7.7,-1.681,41.1006911,16.8738791,False,NONE
2019-10-26 18:53:12.820,LG-H970,1572115992831.6667,0.95,8.994,-0.722,41.1006911,16.8738791,False,NONE
2019-10-26 18:53:12.840,LG-H970,1572115992849.6667,-1.394,10.504,-1.097,41.1006911,16.8738791,False,NONE
2019-10-26 18:53:12.860,LG-H970,1572115992870.4,-3.212,11.82,0.698,41.1006911,16.8738791,False,NONE
2019-10-26 18:53:12.880,LG-H970,1572115992890.75,-1.325,10.954,-0.52,41.1006911,16.8738791,False,NONE
2019-10-26 18:53:12.900,LG-H970,1572115992910.5,0.559,9.038,-0.223,41.1006911,16.8738791,False,NONE
2019-10-26 18:53:12.920,LG-H970,1572115992929.75,0.057,7.872,-1.576,41.1006911,16.8738791,False,NONE
2019-10-26 18:53:12.940,LG-H970,1572115992950.0,-2.111,9.537,-2.141,41.1006911,16.8738791,False,NONE
2019-10-26 18:53:12.960,LG-H970,1572115992969.5,-1.678,11.527,-0.061,41.1006911,16.8738791,False,NONE
2019-10-26 18:53:12.980,LG-H970,1572115992989.5,-0.921,10.954,2.019,41.1006911,16.8738791,False,NONE
2019-10-26 18:53:13.000,LG-H970,1572115993009.25,-0.149,9.25,-0.78,41.1006911,16.8738791,False,NONE
2019-10-26 18:53:13.020,LG-H970,1572115993029.5,-0.879,8.807,-1.091,41.1006911,16.8738791,False,NONE
2019-10-26 18:53:13.040,LG-H970,1572115993049.0,-1.51,8.821,-2.819,41.1006911,16.8738791,False,NONE
2019-10-26 18:53:13.060,LG-H970,1572115993069.25,-0.909,10.255,0.047,41.1006911,16.8738791,False,NONE
2019-10-26 18:53:13.080,LG-H970,1572115993089.5,0.056,10.384,0.626,41.1006911,16.8738791,False,NONE
2019-10-26 18:53:13.100,LG-H970,1572115993109.0,-0.502,10.091,1.256,41.1006911,16.8738791,False,NONE
2019-10-26 18:53:13.120,LG-H970,1572115993128.75,-1.178,9.679,-1.048,41.1006911,16.8738791,False,NONE
2019-10-26 18:53:13.140,LG-H970,1572115993149.25,-1.525,8.282,-2.217,41.1006911,16.8738791,False,NONE
2019-10-26 18:53:13.160,LG-H970,1572115993168.25,-0.902,8.572,-1.212,41.1006911,16.8738791,False,NONE
2019-10-26 18:53:13.180,LG-H970,1572115993188.0,-1.067,10.05,0.042,41.1006911,16.8738791,False,NONE
2019-10-26 18:53:13.200,LG-H970,1572115993208.0,-1.331,10.705,1.645,41.1006911,16.8738791,False,NONE
2019-10-26 18:53:13.220,LG-H970,1572115993227.25,-0.636,10.75,-0.227,41.1006911,16.8738791,False,NONE
2019-10-26 18:53:13.240,LG-H970,1572115993246.75,-1.383,8.509,-1.956,41.1006911,16.8738791,False,NONE
2019-10-26 18:53:13.260,LG-H970,1572115993267.5,-1.059,8.125,-1.085,41.1006911,16.8738791,False,NONE
2019-10-26 18:53:13.280,LG-H970,1572115993291.2,-0.777,9.351,-0.458,41.1006911,16.8738791,False,NONE
2019-10-26 18:53:13.300,LG-H970,1572115993311.25,-1.44,11.086,1.065,41.1006911,16.8738791,False,NONE
2019-10-26 18:53:13.320,LG-H970,1572115993330.5,-1.812,11.473,0.741,41.1006911,16.8738791,False,NONE
2019-10-26 18:53:13.340,LG-H970,1572115993350.5,-0.69,9.104,-0.687,41.1006911,16.8738791,False,NONE
2019-10-26 18:53:13.360,LG-H970,1572115993371.5,0.547,7.241,-1.725,41.1006911,16.8738791,False,NONE
2019-10-26 18:53:13.380,LG-H970,1572115993388.6667,-0.347,8.199,-0.909,41.1006911,16.8738791,False,NONE
2019-10-26 18:53:13.400,LG-H970,1572115993408.6667,-2.432,10.184,-0.693,41.1006911,16.8738791,False,NONE
2019-10-26 18:53:13.420,LG-H970,1572115993429.0,-2.269,12.696,0.96,41.1006911,16.8738791,False,NONE
2019-10-26 18:53:13.440,LG-H970,1572115993449.0,-0.886,11.292,1.235,41.1006911,16.8738791,False,NONE
2019-10-26 18:53:13.460,LG-H970,1572115993468.25,-1.593,8.639,-0.178,41.1006911,16.8738791,False,NONE
2019-10-26 18:53:13.480,LG-H970,1572115993488.5,-0.761,8.932,-1.982,41.1006911,16.8738791,False,NONE
2019-10-26 18:53:13.500,LG-H970,1572115993508.0,-0.607,9.078,-1.073,41.1006911,16.8738791,False,NONE
2019-10-26 18:53:13.520,LG-H970,1572115993527.75,0.224,10.369,-0.676,41.1006911,16.8738791,False,NONE
2019-10-26 18:53:13.540,LG-H970,1572115993548.25,-1.877,11.102,2.242,41.1006911,16.8738791,False,NONE
2019-10-26 18:53:13.560,LG-H970,1572115993568.5,-2.859,11.597,0.104,41.1006911,16.8738791,False,NONE
2019-10-26 18:53:13.580,LG-H970,1572115993588.25,-1.077,11.831,-1.479,41.1006911,16.8738791,False,NONE
2019-10-26 18:53:13.600,LG-H970,1572115993608.0,0.075,9.037,-0.665,41.1006911,16.8738791,False,NONE
2019-10-26 18:53:13.620,LG-H970,1572115993627.5,1.116,8.457,0.475,41.1006911,16.8738791,False,NONE
2019-10-26 18:53:13.640,LG-H970,1572115993647.75,-1.244,10.061,-0.295,41.1006911,16.8738791,False,NONE
2019-10-26 18:53:13.660,LG-H970,1572115993667.25,-3.39,11.682,-1.961,41.1006911,16.8738791,False,NONE
2019-10-26 18:53:13.680,LG-H970,1572115993687.75,-2.089,11.465,0.424,41.1006911,16.8738791,False,NONE
2019-10-26 18:53:13.700,LG-H970,1572115993707.0,0.217,8.415,0.1,41.1006911,16.8738791,False,NONE
2019-10-26 18:53:13.720,LG-H970,1572115993729.2,0.643,9.27,-1.787,41.1006911,16.8738791,False,NONE
2019-10-26 18:53:13.740,LG-H970,1572115993752.25,-3.476,8.491,0.435,41.1006911,16.8738791,False,NONE
2019-10-26 18:53:13.760,LG-H970,1572115993772.0,-1.936,9.877,-2.761,41.1006911,16.8738791,False,NONE
2019-10-26 18:53:13.780,LG-H970,1572115993791.5,-1.37,9.849,1.601,41.1006911,16.8738791,False,NONE
2019-10-26 18:53:13.800,LG-H970,1572115993809.3333,-0.187,9.793,-1.805,41.1006911,16.8738791,False,NONE
2019-10-26 18:53:13.820,LG-H970,1572115993828.6,-0.544,8.989,-0.106,41.1006911,16.8738791,False,NONE
2019-10-26 18:53:13.840,LG-H970,1572115993850.25,-1.58,10.478,-2.09,41.1006911,16.8738791,False,NONE
2019-10-26 18:53:13.860,LG-H970,1572115993870.25,-2.179,10.405,0.333,41.1006911,16.8738791,False,NONE
2019-10-26 18:53:13.880,LG-H970,1572115993890.0,-0.397,10.769,0.775,41.1006911,16.8738791,False,NONE
2019-10-26 18:53:13.900,LG-H970,1572115993910.0,-0.061,9.516,0.074,41.1006911,16.8738791,False,NONE
2019-10-26 18:53:13.920,LG-H970,1572115993929.5,-0.806,9.02,-0.337,41.1006911,16.8738791,False,NONE
2019-10-26 18:53:13.940,LG-H970,1572115993949.0,-1.538,9.405,-2.36,41.1006911,16.8738791,False,NONE
2019-10-26 18:53:13.960,LG-H970,1572115993968.75,-1.64,10.572,-0.489,41.1006911,16.8738791,False,NONE
2019-10-26 18:53:13.980,LG-H970,1572115993989.0,-1.094,10.447,1.19,41.1006911,16.8738791,False,NONE
2019-10-26 18:53:14.000,LG-H970,1572115994008.75,-0.939,9.405,0.794,41.1006911,16.8738791,False,NONE
2019-10-26 18:53:14.020,LG-H970,1572115994028.75,-0.732,9.897,-0.785,41.1006911,16.8738791,False,NONE
2019-10-26 18:53:14.040,LG-H970,1572115994048.5,-1.683,8.315,-0.733,41.1006911,16.8738791,False,NONE
2019-10-26 18:53:14.060,LG-H970,1572115994069.25,-1.057,9.43,-0.787,41.1006911,16.8738791,False,NONE
2019-10-26 18:53:14.080,LG-H970,1572115994088.5,-0.599,10.278,-0.558,41.1006911,16.8738791,False,NONE
2019-10-26 18:53:14.100,LG-H970,1572115994108.0,-1.197,10.2,0.504,41.1006911,16.8738791,False,NONE
2019-10-26 18:53:14.120,LG-H970,1572115994127.75,-0.843,10.257,-0.589,41.1006911,16.8738791,False,NONE
2019-10-26 18:53:14.140,LG-H970,1572115994148.25,-0.505,9.584,-0.515,41.1006911,16.8738791,False,NONE
2019-10-26 18:53:14.160,LG-H970,1572115994168.0,-1.048,8.999,-0.534,41.1006911,16.8738791,False,NONE
2019-10-26 18:53:14.180,LG-H970,1572115994189.6,-1.583,9.72,-0.671,41.1006911,16.8738791,False,NONE
