UTC_timestamp,device_name,timestamp,x,y,z,lat,long,event,speed
2019-10-26 10:24:21.420,LG-H970,1572085461428.5,0.947,9.453,-0.966,41.1038996,16.8791594,False,NONE
2019-10-26 10:24:21.440,LG-H970,1572085461448.5,0.075,10.811,-0.782,41.1038996,16.8791594,False,NONE
2019-10-26 10:24:21.460,LG-H970,1572085461467.5,-1.024,8.879,-1.677,41.1038996,16.8791594,False,NONE
2019-10-26 10:24:21.480,LG-H970,1572085461487.25,1.541,10.601,-0.246,41.1038996,16.8791594,False,NONE
2019-10-26 10:24:21.500,LG-H970,1572085461510.0,1.079,9.322,-0.637,41.1038996,16.8791594,False,NONE
2019-10-26 10:24:21.520,LG-H970,1572085461531.25,0.985,11.694,-0.314,41.1038996,16.8791594,False,NONE
2019-10-26 10:24:21.540,LG-H970,1572085461550.75,-0.404,9.972,-1.525,41.1038996,16.8791594,False,NONE
2019-10-26 10:24:21.560,LG-H970,1572085461571.0,0.579,10.274,0.156,41.1038996,16.8791594,False,NONE
2019-10-26 10:24:21.580,LG-H970,1572085461590.5,1.077,8.949,-0.823,41.1038996,16.8791594,False,NONE
2019-10-26 10:24:21.600,LG-H970,1572085461610.5,1.639,10.838,-0.131,41.1038996,16.8791594,False,NONE
2019-10-26 10:24:21.620,LG-H970,1572085461630.75,0.416,9.22,-1.9,41.1038996,16.8791594,False,NONE
2019-10-26 10:24:21.640,LG-H970,1572085461649.5,1.164,10.275,0.194,41.1038996,16.8791594,False,NONE
2019-10-26 10:24:21.660,LG-H970,1572085461669.75,1.309,9.633,-0.303,41.1038996,16.8791594,False,NONE
2019-10-26 10:24:21.680,LG-H970,1572085461689.0,1.397,11.257,0.589,41.1038996,16.8791594,False,NONE
2019-10-26 10:24:21.700,LG-H970,1572085461709.25,-0.138,10.128,0.012,41.1038996,16.8791594,False,NONE
2019-10-26 10:24:21.720,LG-H970,1572085461728.5,1.308,12.111,0.47,41.1038996,16.8791594,False,NONE
2019-10-26 10:24:21.740,LG-H970,1572085461748.25,1.869,10.623,0.023,41.1038996,16.8791594,False,NONE
2019-10-26 10:24:21.760,LG-H970,1572085461767.5,2.142,10.704,1.19,41.1038996,16.8791594,False,NONE
2019-10-26 10:24:21.780,LG-H970,1572085461788.25,0.048,8.885,-1.242,41.1038996,16.8791594,False,NONE
2019-10-26 10:24:21.800,LG-H970,1572085461808.5,-0.152,11.41,-0.036,41.1038996,16.8791594,False,NONE
2019-10-26 10:24:21.820,LG-H970,1572085461829.8,-0.108,9.306,-0.645,41.1038996,16.8791594,False,NONE
2019-10-26 10:24:21.840,LG-H970,1572085461852.0,1.043,9.478,1.25,41.1038996,16.8791594,False,NONE
2019-10-26 10:24:21.860,LG-H970,1572085461871.5,-0.969,8.19,-1.501,41.1038996,16.8791594,False,NONE
2019-10-26 10:24:21.880,LG-H970,1572085461891.5,-1.845,10.398,-0.486,41.1038996,16.8791594,False,NONE
2019-10-26 10:24:21.900,LG-H970,1572085461911.0,-1.326,9.333,-0.994,41.1038996,16.8791594,False,NONE
2019-10-26 10:24:21.920,LG-H970,1572085461931.0,0.718,10.208,1.19,41.1038996,16.8791594,False,NONE
2019-10-26 10:24:21.940,LG-H970,1572085461951.25,-0.845,8.442,-0.045,41.1038996,16.8791594,False,NONE
2019-10-26 10:24:21.960,LG-H970,1572085461970.5,-1.812,10.502,0.081,41.1038996,16.8791594,False,NONE
2019-10-26 10:24:21.980,LG-H970,1572085461988.0,-1.389,10.715,-2.182,41.1038996,16.8791594,False,NONE
2019-10-26 10:24:22.000,LG-H970,1572085462005.5,-0.954,9.518,-0.235,41.1038996,16.8791594,False,NONE
2019-10-26 10:24:22.020,LG-H970,1572085462028.8,-0.466,8.46,-0.42,41.1038996,16.8791594,False,NONE
2019-10-26 10:24:22.040,LG-H970,1572085462049.0,-1.13,9.437,-0.149,41.1038996,16.8791594,False,NONE
2019-10-26 10:24:22.060,LG-H970,1572085462067.5,-1.343,9.488,-1.681,41.1038996,16.8791594,False,NONE
2019-10-26 10:24:22.080,LG-H970,1572085462087.5,0.069,9.949,-1.121,41.1038996,16.8791594,False,NONE
2019-10-26 10:24:22.100,LG-H970,1572085462107.75,0.181,8.525,-0.917,41.1038996,16.8791594,False,NONE
2019-10-26 10:24:22.120,LG-H970,1572085462128.25,-0.335,9.429,-0.103,41.1038996,16.8791594,False,NONE
2019-10-26 10:24:22.140,LG-H970,1572085462147.5,-1.02,10.224,-1.009,41.1038996,16.8791594,False,NONE
2019-10-26 10:24:22.160,LG-H970,1572085462167.0,-0.124,10.708,-0.578,41.1038996,16.8791594,False,NONE
2019-10-26 10:24:22.180,LG-H970,1572085462189.4,0.355,9.379,-0.272,41.1038996,16.8791594,False,NONE
2019-10-26 10:24:22.200,LG-H970,1572085462211.75,-0.135,9.587,-0.171,41.1038996,16.8791594,False,NONE
2019-10-26 10:24:22.220,LG-H970,1572085462231.5,-1.1,10.139,-0.429,41.1038996,16.8791594,False,NONE
2019-10-26 10:24:22.240,LG-H970,1572085462251.75,-0.534,10.62,-0.425,41.1038996,16.8791594,False,NONE
2019-10-26 10:24:22.260,LG-H970,1572085462270.75,0.435,10.129,-0.435,41.1038996,16.8791594,False,NONE
2019-10-26 10:24:22.280,LG-H970,1572085462291.0,0.487,9.025,-0.306,41.1038996,16.8791594,False,NONE
2019-10-26 10:24:22.300,LG-H970,1572085462311.25,-0.052,9.089,-0.521,41.1038996,16.8791594,False,NONE
2019-10-26 10:24:22.320,LG-H970,1572085462330.5,0.12,10.587,-0.377,41.1038996,16.8791594,False,NONE
2019-10-26 10:24:22.340,LG-H970,1572085462350.0,0.351,10.333,-0.341,41.1038996,16.8791594,False,NONE
2019-10-26 10:24:22.360,LG-H970,1572085462369.25,0.788,9.517,0.213,41.1038996,16.8791594,False,NONE
2019-10-26 10:24:22.380,LG-H970,1572085462388.75,0.892,9.175,-0.465,41.1038996,16.8791594,False,NONE
2019-10-26 10:24:22.400,LG-H970,1572085462409.75,1.06,10.162,-0.307,41.1038996,16.8791594,False,NONE
2019-10-26 10:24:22.420,LG-H970,1572085462428.75,0.828,10.065,-0.372,41.1038996,16.8791594,False,NONE
2019-10-26 10:24:22.440,LG-H970,1572085462448.5,0.909,10.172,0.301,41.1038996,16.8791594,False,NONE
2019-10-26 10:24:22.460,LG-H970,1572085462468.5,0.652,9.808,-0.076,41.1038996,16.8791594,False,NONE
2019-10-26 10:24:22.480,LG-H970,1572085462490.2,0.833,10.133,-0.589,41.1038996,16.8791594,False,NONE
2019-10-26 10:24:22.500,LG-H970,1572085462512.5,0.879,9.888,-0.323,41.1038996,16.8791594,False,NONE
2019-10-26 10:24:22.520,LG-H970,1572085462531.75,0.59,9.319,-0.232,41.1038996,16.8791594,False,NONE
2019-10-26 10:24:22.540,LG-H970,1572085462551.5,-0.154,9.706,0.113,41.1038996,16.8791594,False,NONE
2019-10-26 10:24:22.560,LG-H970,1572085462571.25,-0.847,9.822,-0.754,41.1038996,16.8791594,False,NONE
2019-10-26 10:24:22.580,LG-H970,1572085462591.0,0.1,10.316,-1.084,41.1038996,16.8791594,False,NONE
2019-10-26 10:24:22.600,LG-H970,1572085462614.0,0.385,8.814,0.279,41.1038996,16.8791594,False,NONE
2019-10-26 10:24:22.620,LG-H970,1572085462629.5,1.043,9.29,0.275,41.1038996,16.8791594,False,NONE
2019-10-26 10:24:22.640,LG-H970,1572085462649.5,0.118,10.678,0.037,41.1038996,16.8791594,False,NONE
2019-10-26 10:24:22.660,LG-H970,1572085462669.75,-0.289,10.909,-0.491,41.1038996,16.8791594,False,NONE
2019-10-26 10:24:22.680,LG-H970,1572085462690.0,0.745,10.044,-1.092,41.1038996,16.8791594,False,NONE
2019-10-26 10:24:22.700,LG-H970,1572085462709.75,1.141,8.576,-0.705,41.1038996,16.8791594,False,NONE
2019-10-26 10:24:22.720,LG-H970,1572085462729.25,0.471,8.908,-0.465,41.1038996,16.8791594,False,NONE
2019-10-26 10:24:22.740,LG-H970,1572085462749.5,0.366,11.398,-1.694,41.1038996,16.8791594,False,NONE
2019-10-26 10:24:22.760,LG-H970,1572085462769.0,0.084,10.796,-0.594,41.1038996,16.8791594,False,NONE
2019-10-26 10:24:22.780,LG-H970,1572085462788.75,0.786,9.19,-0.038,41.1038996,16.8791594,False,NONE
2019-10-26 10:24:22.800,LG-H970,1572085462809.25,0.58,9.025,-0.381,41.1038996,16.8791594,False,NONE
2019-10-26 10:24:22.820,LG-H970,1572085462828.5,-0.138,10.924,-1.594,41.1038996,16.8791594,False,NONE
2019-10-26 10:24:22.840,LG-H970,1572085462848.0,-0.712,11.001,-1.506,41.1038996,16.8791594,False,NONE
2019-10-26 10:24:22.860,LG-H970,1572085462867.5,0.222,10.49,-0.036,41.1038996,16.8791594,False,NONE
2019-10-26 10:24:22.880,LG-H970,1572085462887.25,0.394,9.038,-0.469,41.1038996,16.8791594,False,NONE
2019-10-26 10:24:22.900,LG-H970,1572085462909.4,0.145,10.17,-0.881,41.1038996,16.8791594,False,NONE
2019-10-26 10:24:22.920,LG-H970,1572085462931.75,-0.64,9.788,-1.682,41.1038996,16.8791594,False,NONE
2019-10-26 10:24:22.940,LG-H970,1572085462951.75,0.666,10.529,-1.004,41.1038996,16.8791594,False,NONE
2019-10-26 10:24:22.960,LG-H970,1572085462970.75,0.704,9.384,-0.622,41.1038996,16.8791594,False,NONE
2019-10-26 10:24:22.980,LG-H970,1572085462990.5,0.409,9.693,0.038,41.1038996,16.8791594,False,NONE
2019-10-26 10:24:23.000,LG-H970,1572085463007.3333,0.635,10.329,-1.426,41.1038996,16.8791594,False,NONE
2019-10-26 10:24:23.020,LG-H970,1572085463028.6,0.145,10.055,-1.188,41.1038996,16.8791594,False,NONE
2019-10-26 10:24:23.040,LG-H970,1572085463049.25,0.6,8.568,-1.241,41.1038996,16.8791594,False,NONE
2019-10-26 10:24:23.060,LG-H970,1572085463068.75,0.761,9.116,-0.817,41.1038996,16.8791594,False,NONE
2019-10-26 10:24:23.080,LG-H970,1572085463088.75,-0.626,10.031,-0.516,41.1038996,16.8791594,False,NONE
2019-10-26 10:24:23.100,LG-H970,1572085463109.25,-0.57,10.69,-1.089,41.1038996,16.8791594,False,NONE
2019-10-26 10:24:23.120,LG-H970,1572085463127.75,0.18,9.922,-0.323,41.1038996,16.8791594,False,NONE
2019-10-26 10:24:23.140,LG-H970,1572085463147.75,-0.328,8.993,-1.16,41.1038996,16.8791594,False,NONE
2019-10-26 10:24:23.160,LG-H970,1572085463168.0,-1.702,9.758,-1.418,41.1038996,16.8791594,False,NONE
2019-10-26 10:24:23.180,LG-H970,1572085463187.75,-2.813,9.847,-1.55,41.1038996,16.8791594,False,NONE
2019-10-26 10:24:23.200,LG-H970,1572085463207.75,-1.814,9.405,-1.093,41.1038996,16.8791594,False,NONE
2019-10-26 10:24:23.220,LG-H970,1572085463230.4,-0.495,8.465,-0.979,41.1038996,16.8791594,False,NONE
2019-10-26 10:24:23.240,LG-H970,1572085463252.5,-2.215,8.896,-1.703,41.1038996,16.8791594,False,NONE
2019-10-26 10:24:23.260,LG-H970,1572085463271.75,-2.214,11.152,-2.086,41.1038996,16.8791594,False,NONE
2019-10-26 10:24:23.280,LG-H970,1572085463291.5,-1.54,10.089,-0.818,41.1038996,16.8791594,False,NONE
2019-10-26 10:24:23.300,LG-H970,1572085463311.0,0.283,10.182,-0.086,41.1038996,16.8791594,False,NONE
2019-10-26 10:24:23.320,LG-H970,1572085463331.0,-0.658,9.46,-0.92,41.1038996,16.8791594,False,NONE
2019-10-26 10:24:23.340,LG-H970,1572085463348.3333,-0.474,10.128,-2.075,41.1038996,16.8791594,False,NONE
2019-10-26 10:24:23.360,LG-H970,1572085463368.4,-0.191,9.199,-2.11,41.1038996,16.8791594,False,NONE
2019-10-26 10:24:23.380,LG-H970,1572085463389.75,0.427,9.877,-0.811,41.1038996,16.8791594,False,NONE
2019-10-26 10:24:23.400,LG-H970,1572085463409.75,0.229,10.587,-0.288,41.1038996,16.8791594,False,NONE
2019-10-26 10:24:23.420,LG-H970,1572085463429.5,-0.178,10.378,-0.347,41.1038996,16.8791594,False,NONE
2019-10-26 10:24:23.440,LG-H970,1572085463448.75,0.494,10.165,-1.405,41.1038996,16.8791594,False,NONE
2019-10-26 10:24:23.460,LG-H970,1572085463468.75,0.448,9.236,-0.891,41.1038996,16.8791594,False,NONE
2019-10-26 10:24:23.480,LG-H970,1572085463488.5,0.557,9.372,-1.297,41.1038996,16.8791594,False,NONE
2019-10-26 10:24:23.500,LG-H970,1572085463508.25,0.405,10.232,-0.809,41.1038996,16.8791594,False,NONE
2019-10-26 10:24:23.520,LG-H970,1572085463527.75,-0.114,10.756,0.097,41.1038996,16.8791594,False,NONE
2019-10-26 10:24:23.540,LG-H970,1572085463549.8,0.255,10.458,-0.617,41.1038996,16.8791594,False,NONE
2019-10-26 10:24:23.560,LG-H970,1572085463572.0,1.69,9.798,-1.294,41.1038996,16.8791594,False,NONE
2019-10-26 10:24:23.580,LG-H970,1572085463591.75,1.212,8.054,-0.905,41.1038996,16.8791594,False,NONE
2019-10-26 10:24:23.600,LG-H970,1572085463609.0,0.99,9.759,-0.912,41.1038996,16.8791594,False,NONE
2019-10-26 10:24:23.620,LG-H970,1572085463629.0,-0.502,11.043,-0.287,41.1038996,16.8791594,False,NONE
2019-10-26 10:24:23.640,LG-H970,1572085463650.5,0.107,10.385,-0.783,41.1038996,16.8791594,False,NONE
2019-10-26 10:24:23.660,LG-H970,1572085463670.75,1.362,8.619,-1.171,41.1038996,16.8791594,False,NONE
2019-10-26 10:24:23.680,LG-H970,1572085463690.75,0.76,7.533,-1.212,41.1038996,16.8791594,False,NONE
2019-10-26 10:24:23.700,LG-H970,1572085463710.5,0.075,9.143,-2.339,41.1038996,16.8791594,False,NONE
2019-10-26 10:24:23.720,LG-H970,1572085463729.75,-0.429,11.22,-0.929,41.1038996,16.8791594,False,NONE
2019-10-26 10:24:23.740,LG-H970,1572085463749.5,0.014,11.444,0.303,41.1038996,16.8791594,False,NONE
2019-10-26 10:24:23.760,LG-H970,1572085463769.5,0.684,9.406,-0.121,41.1038996,16.8791594,False,NONE
2019-10-26 10:24:23.780,LG-H970,1572085463789.0,0.871,8.96,-0.937,41.1038996,16.8791594,False,NONE
2019-10-26 10:24:23.800,LG-H970,1572085463809.0,-0.414,9.175,-2.092,41.1038996,16.8791594,False,NONE
2019-10-26 10:24:23.820,LG-H970,1572085463828.25,0.673,11.788,-2.033,41.1038996,16.8791594,False,NONE
2019-10-26 10:24:23.840,LG-H970,1572085463848.25,-0.029,10.027,1.326,41.1038996,16.8791594,False,NONE
2019-10-26 10:24:23.860,LG-H970,1572085463867.75,1.811,10.554,1.699,41.1038996,16.8791594,False,NONE
2019-10-26 10:24:23.880,LG-H970,1572085463887.5,1.333,9.564,-0.178,41.1038996,16.8791594,False,NONE
2019-10-26 10:24:23.900,LG-H970,1572085463910.0,-0.373,10.057,-1.117,41.1038996,16.8791594,False,NONE
2019-10-26 10:24:23.920,LG-H970,1572085463931.75,-0.709,9.746,-1.35,41.1038996,16.8791594,False,NONE
2019-10-26 10:24:23.940,LG-H970,1572085463951.75,0.485,9.885,1.272,41.1038996,16.8791594,False,NONE
2019-10-26 10:24:23.960,LG-H970,1572085463971.25,0.422,10.164,1.061,41.1038996,16.8791594,False,NONE
2019-10-26 10:24:23.980,LG-H970,1572085463990.75,-0.569,10.61,1.642,41.1038996,16.8791594,False,NONE
2019-10-26 10:24:24.000,LG-H970,1572085464008.6667,-0.167,9.895,0.33,41.1038996,16.8791594,False,NONE
2019-10-26 10:24:24.020,LG-H970,1572085464031.0,0.229,9.755,1.519,41.1038996,16.8791594,False,NONE
2019-10-26 10:24:24.040,LG-H970,1572085464049.5,-0.138,9.976,3.228,41.1038996,16.8791594,False,NONE
2019-10-26 10:24:24.060,LG-H970,1572085464069.75,-0.934,10.313,2.9,41.1038996,16.8791594,False,NONE
2019-10-26 10:24:24.080,LG-H970,1572085464089.5,-2.688,11.562,1.643,41.1038996,16.8791594,False,NONE
2019-10-26 10:24:24.100,LG-H970,1572085464110.0,-2.966,10.272,0.721,41.1038996,16.8791594,False,NONE
2019-10-26 10:24:24.120,LG-H970,1572085464130.0,-0.928,8.712,1.773,41.1038996,16.8791594,False,NONE
2019-10-26 10:24:24.140,LG-H970,1572085464147.75,-0.504,9.46,1.69,41.1038996,16.8791594,False,NONE
2019-10-26 10:24:24.160,LG-H970,1572085464169.5,-2.519,10.878,0.428,41.1038996,16.8791594,False,NONE
2019-10-26 10:24:24.180,LG-H970,1572085464188.0,-3.347,11.458,-0.246,41.1038996,16.8791594,False,NONE
2019-10-26 10:24:24.200,LG-H970,1572085464207.0,-1.347,9.86,-0.13,41.1038996,16.8791594,False,NONE
2019-10-26 10:24:24.220,LG-H970,1572085464229.8,0.172,8.517,-0.19,41.1038996,16.8791594,False,NONE
2019-10-26 10:24:24.240,LG-H970,1572085464252.0,-0.076,9.486,-2.159,41.1038996,16.8791594,False,NONE
2019-10-26 10:24:24.260,LG-H970,1572085464271.75,-0.785,9.996,-2.707,41.1038996,16.8791594,False,NONE
2019-10-26 10:24:24.280,LG-H970,1572085464291.5,-1.684,10.024,-1.255,41.1038996,16.8791594,False,NONE
2019-10-26 10:24:24.300,LG-H970,1572085464311.5,-1.228,12.195,-1.313,41.1038996,16.8791594,False,NONE
2019-10-26 10:24:24.320,LG-H970,1572085464331.5,-0.241,12.502,-2.524,41.1038996,16.8791594,False,NONE
2019-10-26 10:24:24.340,LG-H970,1572085464350.5,0.219,10.349,-3.63,41.1038996,16.8791594,False,NONE
2019-10-26 10:24:24.360,LG-H970,1572085464371.0,0.845,8.162,-4.428,41.1038996,16.8791594,False,NONE
2019-10-26 10:24:24.380,LG-H970,1572085464390.0,2.162,8.406,-2.696,41.1038996,16.8791594,False,NONE
2019-10-26 10:24:24.400,LG-H970,1572085464409.5,2.048,9.256,-2.996,41.1038996,16.8791594,False,NONE
2019-10-26 10:24:24.420,LG-H970,1572085464429.5,0.703,9.324,-2.723,41.1038996,16.8791594,False,NONE
2019-10-26 10:24:24.440,LG-H970,1572085464449.25,1.723,8.369,-2.961,41.1038996,16.8791594,False,NONE
2019-10-26 10:24:24.460,LG-H970,1572085464469.25,0.769,7.352,-0.705,41.1038996,16.8791594,False,NONE
2019-10-26 10:24:24.480,LG-H970,1572085464489.25,-0.648,8.773,-1.804,41.1038996,16.8791594,False,NONE
2019-10-26 10:24:24.500,LG-H970,1572085464508.5,-1.077,10.846,-0.471,41.1038996,16.8791594,False,NONE
2019-10-26 10:24:24.520,LG-H970,1572085464528.25,-0.632,10.625,0.189,41.1038996,16.8791594,False,NONE
2019-10-26 10:24:24.540,LG-H970,1572085464550.2,-0.534,8.798,0.194,41.1038996,16.8791594,False,NONE
2019-10-26 10:24:24.560,LG-H970,1572085464571.75,-1.022,8.042,-0.813,41.1038996,16.8791594,False,NONE
2019-10-26 10:24:24.580,LG-H970,1572085464592.0,-1.438,9.157,-0.868,41.1038996,16.8791594,False,NONE
2019-10-26 10:24:24.600,LG-H970,1572085464612.5,-1.495,9.991,-0.906,41.1038996,16.8791594,False,NONE
2019-10-26 10:24:24.620,LG-H970,1572085464632.0,-2.111,9.68,-0.638,41.1038996,16.8791594,False,NONE
2019-10-26 10:24:24.640,LG-H970,1572085464651.5,-1.681,8.662,-0.709,41.1038996,16.8791594,False,NONE
2019-10-26 10:24:24.660,LG-H970,1572085464671.0,-0.98,8.224,-1.156,41.1038996,16.8791594,False,NONE
2019-10-26 10:24:24.680,LG-H970,1572085464690.75,-1.13,10.434,-1.195,41.1038996,16.8791594,False,NONE
2019-10-26 10:24:24.700,LG-H970,1572085464710.75,-2.089,11.608,-0.353,41.1038996,16.8791594,False,NONE
2019-10-26 10:24:24.720,LG-H970,1572085464730.75,-0.483,12.263,-1.053,41.1038996,16.8791594,False,NONE
2019-10-26 10:24:24.740,LG-H970,1572085464749.75,0.443,10.83,-0.75,41.1038996,16.8791594,False,NONE
2019-10-26 10:24:24.760,LG-H970,1572085464769.5,0.45,9.226,-1.257,41.1038996,16.8791594,False,NONE
2019-10-26 10:24:24.780,LG-H970,1572085464789.75,0.728,10.559,-3.318,41.1038996,16.8791594,False,NONE
2019-10-26 10:24:24.800,LG-H970,1572085464809.75,-1.006,10.502,-2.089,41.1038996,16.8791594,False,NONE
2019-10-26 10:24:24.820,LG-H970,1572085464829.5,-0.257,9.754,-1.445,41.1038996,16.8791594,False,NONE
2019-10-26 10:24:24.840,LG-H970,1572085464848.75,0.14,9.413,-1.722,41.1038996,16.8791594,False,NONE
2019-10-26 10:24:24.860,LG-H970,1572085464867.5,0.651,10.914,-1.909,41.1038996,16.8791594,False,NONE
2019-10-26 10:24:24.880,LG-H970,1572085464888.0,-0.856,9.474,-0.558,41.1038996,16.8791594,False,NONE
2019-10-26 10:24:24.900,LG-H970,1572085464908.25,-0.645,10.732,-0.325,41.1038996,16.8791594,False,NONE
2019-10-26 10:24:24.920,LG-H970,1572085464928.0,-1.637,9.841,-0.48,41.1038996,16.8791594,False,NONE
2019-10-26 10:24:24.940,LG-H970,1572085464947.5,-1.428,10.362,-0.575,41.1038996,16.8791594,False,NONE
2019-10-26 10:24:24.960,LG-H970,1572085464969.8,-1.289,8.924,-0.817,41.1038996,16.8791594,False,NONE
2019-10-26 10:24:24.980,LG-H970,1572085464991.5,0.08,9.06,0.261,41.1038996,16.8791594,False,NONE
2019-10-26 10:24:25.000,LG-H970,1572085465011.25,0.335,9.778,-0.165,41.1038996,16.8791594,False,NONE
2019-10-26 10:24:25.020,LG-H970,1572085465032.0,-1.346,10.717,0.956,41.1038996,16.8791594,False,NONE
2019-10-26 10:24:25.040,LG-H970,1572085465051.25,-1.445,11.586,-1.131,41.1038996,16.8791594,False,NONE
2019-10-26 10:24:25.060,LG-H970,1572085465070.75,-0.233,11.467,0.048,41.1038996,16.8791594,False,NONE
2019-10-26 10:24:25.080,LG-H970,1572085465090.5,1.691,9.208,0.292,41.1038996,16.8791594,False,NONE
2019-10-26 10:24:25.100,LG-H970,1572085465110.25,1.126,8.161,0.435,41.1038996,16.8791594,False,NONE
2019-10-26 10:24:25.120,LG-H970,1572085465129.25,-1.221,9.87,-1.881,41.1038996,16.8791594,False,NONE
2019-10-26 10:24:25.140,LG-H970,1572085465149.0,-1.975,10.058,-1.504,41.1038996,16.8791594,False,NONE
2019-10-26 10:24:25.160,LG-H970,1572085465169.5,0.636,8.264,-0.214,41.1038996,16.8791594,False,NONE
2019-10-26 10:24:25.180,LG-H970,1572085465188.0,1.208,8.064,-1.607,41.1038996,16.8791594,False,NONE
2019-10-26 10:24:25.200,LG-H970,1572085465208.25,-1.171,10.168,-3.307,41.1038996,16.8791594,False,NONE
2019-10-26 10:24:25.220,LG-H970,1572085465227.75,-2.468,10.686,-1.233,41.1038996,16.8791594,False,NONE
2019-10-26 10:24:25.240,LG-H970,1572085465247.75,0.677,9.302,-0.805,41.1038996,16.8791594,False,NONE
2019-10-26 10:24:25.260,LG-H970,1572085465267.75,0.053,7.968,-1.547,41.1038996,16.8791594,False,NONE
2019-10-26 10:24:25.280,LG-H970,1572085465287.75,-2.741,8.537,-2.095,41.1038996,16.8791594,False,NONE
2019-10-26 10:24:25.300,LG-H970,1572085465310.2,-1.983,8.541,-2.065,41.1038996,16.8791594,False,NONE
2019-10-26 10:24:25.320,LG-H970,1572085465331.75,1.381,10.483,1.072,41.1038996,16.8791594,False,NONE
2019-10-26 10:24:25.340,LG-H970,1572085465351.75,2.437,11.515,0.925,41.1038996,16.8791594,False,NONE
2019-10-26 10:24:25.360,LG-H970,1572085465371.25,-0.769,12.515,2.318,41.1038996,16.8791594,False,NONE
2019-10-26 10:24:25.380,LG-H970,1572085465390.75,1.908,15.582,-1.637,41.1038996,16.8791594,False,NONE
2019-10-26 10:24:25.400,LG-H970,1572085465410.5,4.588,11.738,-0.464,41.1038996,16.8791594,False,NONE
2019-10-26 10:24:25.420,LG-H970,1572085465429.5,4.552,6.919,4.434,41.1038996,16.8791594,False,NONE
2019-10-26 10:24:25.440,LG-H970,1572085465448.4,3.111,10.845,-0.982,41.1038996,16.8791594,False,NONE
2019-10-26 10:24:25.460,LG-H970,1572085465469.75,-1.736,16.246,-2.253,41.1039273,16.8792709,False,NONE
2019-10-26 10:24:25.480,LG-H970,1572085465486.3333,-2.542,11.898,0.265,41.103955,16.8793824,False,NONE
2019-10-26 10:24:25.500,LG-H970,1572085465508.5,4.773,8.513,2.211,41.103955,16.8793824,False,NONE
2019-10-26 10:24:25.520,LG-H970,1572085465527.75,3.334,7.016,0.497,41.103955,16.8793824,False,NONE
2019-10-26 10:24:25.540,LG-H970,1572085465547.5,-3.851,9.38,-3.806,41.103955,16.8793824,False,NONE
2019-10-26 10:24:25.560,LG-H970,1572085465567.5,-4.046,12.004,-3.466,41.103955,16.8793824,False,NONE
2019-10-26 10:24:25.580,LG-H970,1572085465587.75,-0.241,8.369,0.026,41.103955,16.8793824,False,NONE
2019-10-26 10:24:25.600,LG-H970,1572085465608.25,1.884,6.826,2.533,41.103955,16.8793824,False,NONE
2019-10-26 10:24:25.620,LG-H970,1572085465630.0,-2.805,8.868,-1.586,41.103955,16.8793824,False,NONE
2019-10-26 10:24:25.640,LG-H970,1572085465651.75,-5.196,10.141,-4.237,41.103955,16.8793824,False,NONE
2019-10-26 10:24:25.660,LG-H970,1572085465671.5,-1.656,9.198,-2.366,41.103955,16.8793824,False,NONE
2019-10-26 10:24:25.680,LG-H970,1572085465691.0,1.137,8.4,0.752,41.103955,16.8793824,False,NONE
2019-10-26 10:24:25.700,LG-H970,1572085465710.75,-0.333,10.881,-0.093,41.103955,16.8793824,False,NONE
2019-10-26 10:24:25.720,LG-H970,1572085465728.3333,-3.1,11.626,-2.821,41.103955,16.8793824,False,NONE
2019-10-26 10:24:25.740,LG-H970,1572085465748.6,-1.435,9.806,-3.232,41.103955,16.8793824,False,NONE
2019-10-26 10:24:25.760,LG-H970,1572085465771.0,1.466,6.177,-1.685,41.103955,16.8793824,False,NONE
2019-10-26 10:24:25.780,LG-H970,1572085465790.25,1.332,7.918,0.092,41.103955,16.8793824,False,NONE
2019-10-26 10:24:25.800,LG-H970,1572085465810.75,-2.524,9.297,-1.057,41.103955,16.8793824,False,NONE
2019-10-26 10:24:25.820,LG-H970,1572085465830.0,-2.49,11.729,-0.741,41.103955,16.8793824,False,NONE
2019-10-26 10:24:25.840,LG-H970,1572085465850.25,-0.578,9.563,-0.653,41.103955,16.8793824,False,NONE
2019-10-26 10:24:25.860,LG-H970,1572085465869.25,0.765,7.754,-0.673,41.103955,16.8793824,False,NONE
2019-10-26 10:24:25.880,LG-H970,1572085465888.75,-1.025,8.172,-1.047,41.103955,16.8793824,False,NONE
2019-10-26 10:24:25.900,LG-H970,1572085465908.75,-2.417,9.778,-1.035,41.103955,16.8793824,False,NONE
2019-10-26 10:24:25.920,LG-H970,1572085465928.75,-0.948,10.912,0.21,41.103955,16.8793824,False,NONE
2019-10-26 10:24:25.940,LG-H970,1572085465948.75,0.431,9.666,0.926,41.103955,16.8793824,False,NONE
2019-10-26 10:24:25.960,LG-H970,1572085465970.2,0.183,9.064,-1.286,41.103955,16.8793824,False,NONE
2019-10-26 10:24:25.980,LG-H970,1572085465989.3333,-2.084,7.901,-1.407,41.103955,16.8793824,False,NONE
2019-10-26 10:24:26.000,LG-H970,1572085466007.5,4.043,13.195,-2.472,41.103955,16.8793824,False,NONE
2019-10-26 10:24:26.020,LG-H970,1572085466029.2,4.132,8.873,-1.687,41.103955,16.8793824,False,NONE
2019-10-26 10:24:26.040,LG-H970,1572085466050.5,2.113,9.773,1.92,41.103955,16.8793824,False,NONE
2019-10-26 10:24:26.060,LG-H970,1572085466070.5,2.192,12.628,-5.403,41.103955,16.8793824,False,NONE
2019-10-26 10:24:26.080,LG-H970,1572085466090.25,2.109,13.732,0.148,41.103955,16.8793824,False,NONE
2019-10-26 10:24:26.100,LG-H970,1572085466111.25,3.759,10.541,0.585,41.103955,16.8793824,False,NONE
2019-10-26 10:24:26.120,LG-H970,1572085466129.75,2.131,10.616,-0.769,41.103955,16.8793824,False,NONE
2019-10-26 10:24:26.140,LG-H970,1572085466150.0,-1.348,11.975,-1.849,41.103955,16.8793824,False,NONE
2019-10-26 10:24:26.160,LG-H970,1572085466169.5,-2.698,10.515,-2.775,41.103955,16.8793824,False,NONE
2019-10-26 10:24:26.180,LG-H970,1572085466188.75,-0.848,10.838,1.63,41.103955,16.8793824,False,NONE
2019-10-26 10:24:26.200,LG-H970,1572085466208.5,-0.225,8.722,1.079,41.103955,16.8793824,False,NONE
2019-10-26 10:24:26.220,LG-H970,1572085466229.0,-2.424,9.14,0.024,41.103955,16.8793824,False,NONE
2019-10-26 10:24:26.240,LG-H970,1572085466248.25,-4.529,9.224,-1.506,41.103955,16.8793824,False,NONE
2019-10-26 10:24:26.260,LG-H970,1572085466268.5,-2.617,9.308,-1.054,41.103955,16.8793824,False,NONE
2019-10-26 10:24:26.280,LG-H970,1572085466287.75,0.12,9.327,1.68,41.103955,16.8793824,False,NONE
2019-10-26 10:24:26.300,LG-H970,1572085466310.6,-0.798,10.401,2.359,41.103955,16.8793824,False,NONE
2019-10-26 10:24:26.320,LG-H970,1572085466333.25,-4.38,11.005,-0.229,41.103955,16.8793824,False,NONE
2019-10-26 10:24:26.340,LG-H970,1572085466351.75,-3.797,10.255,-1.992,41.103955,16.8793824,False,NONE
2019-10-26 10:24:26.360,LG-H970,1572085466371.25,0.36,7.857,-1.607,41.103955,16.8793824,False,NONE
2019-10-26 10:24:26.380,LG-H970,1572085466388.3333,3.172,7.059,0.588,41.103955,16.8793824,False,NONE
2019-10-26 10:24:26.400,LG-H970,1572085466409.6,1.312,8.735,1.19,41.103955,16.8793824,False,NONE
2019-10-26 10:24:26.420,LG-H970,1572085466430.5,-3.071,10.957,-1.328,41.103955,16.8793824,True,NONE
2019-10-26 10:24:26.440,LG-H970,1572085466449.5,-2.418,11.154,-1.071,41.103955,16.8793824,True,NONE
2019-10-26 10:24:26.460,LG-H970,1572085466469.25,0.546,8.33,-1.019,41.103955,16.8793824,False,NONE
2019-10-26 10:24:26.480,LG-H970,1572085466489.0,1.709,7.644,-0.177,41.103955,16.8793824,False,NONE
2019-10-26 10:24:26.500,LG-H970,1572085466509.25,-0.686,9.523,-1.92,41.103955,16.8793824,False,NONE
2019-10-26 10:24:26.520,LG-H970,1572085466527.6667,-2.838,11.99,-1.057,41.103955,16.8793824,False,NONE
2019-10-26 10:24:26.540,LG-H970,1572085466547.6,-2.226,11.882,-0.876,41.103955,16.8793824,False,NONE
2019-10-26 10:24:26.560,LG-H970,1572085466569.0,-0.551,9.475,-1.191,41.103955,16.8793824,False,NONE
2019-10-26 10:24:26.580,LG-H970,1572085466588.5,0.426,9.187,-1.594,41.103955,16.8793824,False,NONE
2019-10-26 10:24:26.600,LG-H970,1572085466608.75,-0.18,9.568,-2.421,41.103955,16.8793824,False,NONE
2019-10-26 10:24:26.620,LG-H970,1572085466627.5,-1.209,10.748,-1.451,41.103955,16.8793824,False,NONE
2019-10-26 10:24:26.640,LG-H970,1572085466650.4,0.402,11.216,-0.533,41.103955,16.8793824,False,NONE
2019-10-26 10:24:26.660,LG-H970,1572085466669.0,2.858,9.984,-1.475,41.103955,16.8793824,False,NONE
2019-10-26 10:24:26.680,LG-H970,1572085466687.0,0.737,8.197,-1.807,41.103955,16.8793824,False,NONE
2019-10-26 10:24:26.700,LG-H970,1572085466709.6,-1.12,9.698,-2.86,41.103955,16.8793824,False,NONE
2019-10-26 10:24:26.720,LG-H970,1572085466730.75,-0.93,9.298,-0.408,41.103955,16.8793824,False,NONE
2019-10-26 10:24:26.740,LG-H970,1572085466750.5,1.305,10.565,0.879,41.103955,16.8793824,False,NONE
2019-10-26 10:24:26.760,LG-H970,1572085466770.75,-0.576,9.171,0.589,41.103955,16.8793824,False,NONE
2019-10-26 10:24:26.780,LG-H970,1572085466791.0,-0.967,9.675,-0.991,41.103955,16.8793824,False,NONE
2019-10-26 10:24:26.800,LG-H970,1572085466810.5,-1.76,8.135,-2.388,41.103955,16.8793824,False,NONE
2019-10-26 10:24:26.820,LG-H970,1572085466830.5,-1.104,9.681,1.558,41.103955,16.8793824,False,NONE
2019-10-26 10:24:26.840,LG-H970,1572085466850.25,0.469,10.224,1.767,41.103955,16.8793824,False,NONE
2019-10-26 10:24:26.860,LG-H970,1572085466870.5,-0.019,11.001,2.511,41.103955,16.8793824,False,NONE
2019-10-26 10:24:26.880,LG-H970,1572085466889.75,-1.747,9.906,0.617,41.103955,16.8793824,False,NONE
2019-10-26 10:24:26.900,LG-H970,1572085466909.75,-1.045,9.218,-0.373,41.103955,16.8793824,False,NONE
2019-10-26 10:24:26.920,LG-H970,1572085466929.5,1.077,7.725,1.473,41.103955,16.8793824,False,NONE
2019-10-26 10:24:26.940,LG-H970,1572085466948.75,2.479,7.449,2.018,41.103955,16.8793824,False,NONE
2019-10-26 10:24:26.960,LG-H970,1572085466968.25,1.6,9.376,2.315,41.103955,16.8793824,False,NONE
2019-10-26 10:24:26.980,LG-H970,1572085466988.0,0.572,9.452,0.935,41.103955,16.8793824,False,NONE
2019-10-26 10:24:27.000,LG-H970,1572085467007.25,1.246,9.954,1.598,41.103955,16.8793824,False,NONE
2019-10-26 10:24:27.020,LG-H970,1572085467027.75,0.557,9.454,1.871,41.103955,16.8793824,False,NONE
2019-10-26 10:24:27.040,LG-H970,1572085467049.0,-0.117,12.104,1.341,41.103955,16.8793824,False,NONE
2019-10-26 10:24:27.060,LG-H970,1572085467071.0,-0.525,12.212,0.719,41.103955,16.8793824,False,NONE
2019-10-26 10:24:27.080,LG-H970,1572085467091.0,-0.527,11.337,1.61,41.103955,16.8793824,False,NONE
2019-10-26 10:24:27.100,LG-H970,1572085467110.8,0.711,10.405,1.271,41.103955,16.8793824,False,NONE
2019-10-26 10:24:27.120,LG-H970,1572085467131.0,-0.499,10.62,-1.219,41.103955,16.8793824,False,NONE
2019-10-26 10:24:27.140,LG-H970,1572085467149.75,-2.032,11.581,-0.068,41.103955,16.8793824,False,NONE
2019-10-26 10:24:27.160,LG-H970,1572085467169.5,-0.617,10.334,0.669,41.103955,16.8793824,False,NONE
2019-10-26 10:24:27.180,LG-H970,1572085467189.5,0.852,8.794,0.881,41.103955,16.8793824,False,NONE
2019-10-26 10:24:27.200,LG-H970,1572085467209.0,-1.506,8.805,-1.685,41.103955,16.8793824,False,NONE
2019-10-26 10:24:27.220,LG-H970,1572085467229.25,-3.682,11.831,-0.94,41.103955,16.8793824,False,NONE
2019-10-26 10:24:27.240,LG-H970,1572085467249.0,-1.656,11.008,-0.145,41.103955,16.8793824,False,NONE
2019-10-26 10:24:27.260,LG-H970,1572085467268.75,1.321,9.982,1.671,41.103955,16.8793824,False,NONE
2019-10-26 10:24:27.280,LG-H970,1572085467287.75,0.169,9.573,0.43,41.103955,16.8793824,False,NONE
2019-10-26 10:24:27.300,LG-H970,1572085467308.25,-2.042,9.528,-1.149,41.103955,16.8793824,False,NONE
2019-10-26 10:24:27.320,LG-H970,1572085467328.25,-2.581,8.557,-1.0,41.103955,16.8793824,False,NONE
2019-10-26 10:24:27.340,LG-H970,1572085467353.0,-0.726,9.35,0.18,41.103955,16.8793824,False,NONE
2019-10-26 10:24:27.360,LG-H970,1572085467371.5,-0.473,10.554,1.858,41.103955,16.8793824,False,NONE
2019-10-26 10:24:27.380,LG-H970,1572085467391.5,-1.274,11.291,1.66,41.103955,16.8793824,False,NONE
2019-10-26 10:24:27.400,LG-H970,1572085467411.25,-0.572,10.39,0.808,41.103955,16.8793824,False,NONE
2019-10-26 10:24:27.420,LG-H970,1572085467431.75,-0.23,9.101,0.711,41.103955,16.8793824,False,NONE
2019-10-26 10:24:27.440,LG-H970,1572085467450.75,-0.137,9.299,0.823,41.103955,16.8793824,False,NONE
2019-10-26 10:24:27.460,LG-H970,1572085467470.25,0.209,10.346,0.848,41.103955,16.8793824,False,NONE
2019-10-26 10:24:27.480,LG-H970,1572085467489.75,-0.389,10.435,0.649,41.103955,16.8793824,False,NONE
2019-10-26 10:24:27.500,LG-H970,1572085467510.25,-0.369,10.089,0.107,41.103955,16.8793824,False,NONE
2019-10-26 10:24:27.520,LG-H970,1572085467531.0,0.521,9.266,0.555,41.103955,16.8793824,False,NONE
2019-10-26 10:24:27.540,LG-H970,1572085467551.75,1.899,9.283,0.527,41.103955,16.8793824,False,NONE
2019-10-26 10:24:27.560,LG-H970,1572085467569.75,1.679,9.648,0.788,41.103955,16.8793824,False,NONE
2019-10-26 10:24:27.580,LG-H970,1572085467589.0,0.661,10.322,1.28,41.103955,16.8793824,False,NONE
2019-10-26 10:24:27.600,LG-H970,1572085467608.75,0.321,9.912,0.74,41.103955,16.8793824,False,NONE
2019-10-26 10:24:27.620,LG-H970,1572085467628.75,0.998,9.151,0.531,41.103955,16.8793824,False,NONE
2019-10-26 10:24:27.640,LG-H970,1572085467648.0,1.928,8.355,0.571,41.103955,16.8793824,False,NONE
2019-10-26 10:24:27.660,LG-H970,1572085467667.5,0.757,9.749,-0.197,41.103955,16.8793824,False,NONE
2019-10-26 10:24:27.680,LG-H970,1572085467687.75,-0.264,11.919,0.529,41.103955,16.8793824,False,NONE
2019-10-26 10:24:27.700,LG-H970,1572085467707.75,0.202,11.361,-0.321,41.103955,16.8793824,False,NONE
2019-10-26 10:24:27.720,LG-H970,1572085467730.2,0.945,8.329,1.424,41.103955,16.8793824,False,NONE
2019-10-26 10:24:27.740,LG-H970,1572085467751.5,-0.666,7.573,-1.576,41.103955,16.8793824,False,NONE
2019-10-26 10:24:27.760,LG-H970,1572085467772.0,-3.724,9.898,-2.025,41.103955,16.8793824,False,NONE
2019-10-26 10:24:27.780,LG-H970,1572085467791.5,-1.966,10.103,-1.43,41.103955,16.8793824,False,NONE
2019-10-26 10:24:27.800,LG-H970,1572085467811.0,0.918,9.161,1.738,41.103955,16.8793824,False,NONE
2019-10-26 10:24:27.820,LG-H970,1572085467831.0,1.141,9.936,1.56,41.103955,16.8793824,False,NONE
2019-10-26 10:24:27.840,LG-H970,1572085467852.0,-1.58,11.054,-0.86,41.103955,16.8793824,False,NONE
2019-10-26 10:24:27.860,LG-H970,1572085467869.75,-2.239,11.271,-1.278,41.103955,16.8793824,False,NONE
2019-10-26 10:24:27.880,LG-H970,1572085467887.0,-0.369,9.524,0.293,41.103955,16.8793824,False,NONE
2019-10-26 10:24:27.900,LG-H970,1572085467907.4,2.26,10.036,1.962,41.103955,16.8793824,False,NONE
2019-10-26 10:24:27.920,LG-H970,1572085467928.5,0.266,11.834,0.414,41.103955,16.8793824,False,NONE
2019-10-26 10:24:27.940,LG-H970,1572085467948.75,-1.572,13.249,-1.431,41.103955,16.8793824,False,NONE
2019-10-26 10:24:27.960,LG-H970,1572085467969.0,-0.48,9.864,-0.004,41.103955,16.8793824,False,NONE
2019-10-26 10:24:27.980,LG-H970,1572085467989.25,3.328,7.945,0.939,41.103955,16.8793824,False,NONE
2019-10-26 10:24:28.000,LG-H970,1572085468007.5,0.837,8.755,-1.158,41.103955,16.8793824,False,NONE
2019-10-26 10:24:28.020,LG-H970,1572085468028.25,-4.276,10.745,-0.627,41.103955,16.8793824,False,NONE
2019-10-26 10:24:28.040,LG-H970,1572085468050.2,-1.752,11.674,-0.812,41.103955,16.8793824,False,NONE
2019-10-26 10:24:28.060,LG-H970,1572085468069.6667,2.276,10.292,2.077,41.103955,16.8793824,False,NONE
2019-10-26 10:24:28.080,LG-H970,1572085468089.2,-0.291,6.262,1.073,41.103955,16.8793824,False,NONE
2019-10-26 10:24:28.100,LG-H970,1572085468111.5,-4.374,8.208,-3.286,41.103955,16.8793824,False,NONE
2019-10-26 10:24:28.120,LG-H970,1572085468131.25,-4.024,11.34,-4.361,41.103955,16.8793824,False,NONE
2019-10-26 10:24:28.140,LG-H970,1572085468150.5,-0.772,8.613,1.71,41.103955,16.8793824,False,NONE
2019-10-26 10:24:28.160,LG-H970,1572085468170.5,3.331,7.095,3.133,41.103955,16.8793824,False,NONE
2019-10-26 10:24:28.180,LG-H970,1572085468190.5,0.412,10.108,1.935,41.103955,16.8793824,False,NONE
2019-10-26 10:24:28.200,LG-H970,1572085468210.5,-3.774,11.701,-2.011,41.103955,16.8793824,False,NONE
2019-10-26 10:24:28.220,LG-H970,1572085468229.75,-2.202,9.818,-1.753,41.103955,16.8793824,False,NONE
2019-10-26 10:24:28.240,LG-H970,1572085468249.25,2.461,7.519,1.736,41.103955,16.8793824,False,NONE
2019-10-26 10:24:28.260,LG-H970,1572085468268.75,2.338,8.518,2.029,41.103955,16.8793824,False,NONE
2019-10-26 10:24:28.280,LG-H970,1572085468289.0,-1.574,12.108,0.294,41.103955,16.8793824,False,NONE
2019-10-26 10:24:28.300,LG-H970,1572085468308.5,-2.314,12.135,-0.971,41.103955,16.8793824,False,NONE
2019-10-26 10:24:28.320,LG-H970,1572085468327.5,1.782,9.243,0.063,41.103955,16.8793824,False,NONE
2019-10-26 10:24:28.340,LG-H970,1572085468347.5,3.181,7.621,1.351,41.103955,16.8793824,False,NONE
2019-10-26 10:24:28.360,LG-H970,1572085468367.0,0.633,9.649,0.086,41.103955,16.8793824,False,NONE
2019-10-26 10:24:28.380,LG-H970,1572085468389.6,-1.387,11.46,-1.192,41.103955,16.8793824,False,NONE
2019-10-26 10:24:28.400,LG-H970,1572085468411.75,0.591,11.25,0.658,41.103955,16.8793824,False,NONE
2019-10-26 10:24:28.420,LG-H970,1572085468431.5,1.717,9.262,1.537,41.103955,16.8793824,False,NONE
2019-10-26 10:24:28.440,LG-H970,1572085468450.5,1.323,10.245,-1.538,41.103955,16.8793824,False,NONE
2019-10-26 10:24:28.460,LG-H970,1572085468470.75,-1.975,9.651,-0.371,41.103955,16.8793824,False,NONE
2019-10-26 10:24:28.480,LG-H970,1572085468490.25,-0.23,11.681,-0.448,41.103955,16.8793824,False,NONE
2019-10-26 10:24:28.500,LG-H970,1572085468510.5,0.934,10.805,0.98,41.103955,16.8793824,False,NONE
2019-10-26 10:24:28.520,LG-H970,1572085468530.5,0.877,10.045,1.199,41.103955,16.8793824,False,NONE
2019-10-26 10:24:28.540,LG-H970,1572085468550.0,-1.798,8.907,-0.201,41.103955,16.8793824,False,NONE
2019-10-26 10:24:28.560,LG-H970,1572085468569.5,-1.675,11.803,-2.066,41.103955,16.8793824,False,NONE
2019-10-26 10:24:28.580,LG-H970,1572085468589.5,-1.712,10.627,-0.451,41.103955,16.8793824,False,NONE
2019-10-26 10:24:28.600,LG-H970,1572085468608.5,0.196,9.685,1.821,41.103955,16.8793824,False,NONE
2019-10-26 10:24:28.620,LG-H970,1572085468628.5,0.506,9.998,0.374,41.103955,16.8793824,False,NONE
2019-10-26 10:24:28.640,LG-H970,1572085468648.5,-1.657,9.766,-1.0,41.103955,16.8793824,False,NONE
2019-10-26 10:24:28.660,LG-H970,1572085468668.25,-1.107,9.664,-2.159,41.103955,16.8793824,False,NONE
2019-10-26 10:24:28.680,LG-H970,1572085468688.0,0.369,8.982,-0.957,41.103955,16.8793824,False,NONE
2019-10-26 10:24:28.700,LG-H970,1572085468707.75,1.15,8.988,0.362,41.103955,16.8793824,False,NONE
2019-10-26 10:24:28.720,LG-H970,1572085468727.5,0.752,9.91,-0.434,41.103955,16.8793824,False,NONE
2019-10-26 10:24:28.740,LG-H970,1572085468747.5,0.248,10.632,-1.063,41.103955,16.8793824,False,NONE
2019-10-26 10:24:28.760,LG-H970,1572085468770.0,0.072,9.568,-0.739,41.103955,16.8793824,False,NONE
2019-10-26 10:24:28.780,LG-H970,1572085468791.75,0.472,9.703,0.678,41.103955,16.8793824,False,NONE
2019-10-26 10:24:28.800,LG-H970,1572085468812.25,0.399,10.017,1.159,41.103955,16.8793824,False,NONE
2019-10-26 10:24:28.820,LG-H970,1572085468830.0,0.663,10.729,-1.566,41.103955,16.8793824,False,NONE
2019-10-26 10:24:28.840,LG-H970,1572085468849.8,-1.034,9.139,-1.414,41.103955,16.8793824,False,NONE
2019-10-26 10:24:28.860,LG-H970,1572085468871.5,-1.951,7.37,-0.192,41.103955,16.8793824,False,NONE
2019-10-26 10:24:28.880,LG-H970,1572085468891.25,-0.791,8.882,0.063,41.103955,16.8793824,False,NONE
2019-10-26 10:24:28.900,LG-H970,1572085468910.75,-2.034,10.699,1.9,41.103955,16.8793824,False,NONE
2019-10-26 10:24:28.920,LG-H970,1572085468930.25,-1.647,12.164,1.346,41.103955,16.8793824,False,NONE
2019-10-26 10:24:28.940,LG-H970,1572085468949.75,-0.307,11.385,-0.116,41.103955,16.8793824,False,NONE
2019-10-26 10:24:28.960,LG-H970,1572085468969.75,-1.016,8.176,0.815,41.103955,16.8793824,False,NONE
2019-10-26 10:24:28.980,LG-H970,1572085468989.5,-0.434,9.177,-1.54,41.103955,16.8793824,False,NONE
2019-10-26 10:24:29.000,LG-H970,1572085469009.5,-1.463,10.923,-0.364,41.103955,16.8793824,False,NONE
2019-10-26 10:24:29.020,LG-H970,1572085469030.25,-0.151,10.898,0.372,41.103955,16.8793824,False,NONE
2019-10-26 10:24:29.040,LG-H970,1572085469048.0,1.249,9.661,1.333,41.103955,16.8793824,False,NONE
2019-10-26 10:24:29.060,LG-H970,1572085469067.75,1.155,9.377,-0.114,41.103955,16.8793824,False,NONE
2019-10-26 10:24:29.080,LG-H970,1572085469088.0,-0.158,10.192,-1.362,41.103955,16.8793824,False,NONE
2019-10-26 10:24:29.100,LG-H970,1572085469107.75,-0.143,10.642,-1.018,41.103955,16.8793824,False,NONE
2019-10-26 10:24:29.120,LG-H970,1572085469129.6,1.477,9.323,0.199,41.103955,16.8793824,False,NONE
2019-10-26 10:24:29.140,LG-H970,1572085469149.3333,2.752,9.404,0.314,41.103955,16.8793824,False,NONE
2019-10-26 10:24:29.160,LG-H970,1572085469169.2,1.258,8.298,-1.239,41.103955,16.8793824,False,NONE
2019-10-26 10:24:29.180,LG-H970,1572085469191.0,0.466,9.618,-1.674,41.103955,16.8793824,False,NONE
2019-10-26 10:24:29.200,LG-H970,1572085469210.75,-0.889,10.063,-0.288,41.103955,16.8793824,False,NONE
2019-10-26 10:24:29.220,LG-H970,1572085469231.0,-0.336,11.114,1.59,41.103955,16.8793824,False,NONE
2019-10-26 10:24:29.240,LG-H970,1572085469250.0,0.203,11.016,0.935,41.103955,16.8793824,False,NONE
2019-10-26 10:24:29.260,LG-H970,1572085469270.75,-1.766,10.453,0.166,41.103955,16.8793824,False,NONE
2019-10-26 10:24:29.280,LG-H970,1572085469290.25,-1.255,10.593,-1.783,41.103955,16.8793824,False,NONE
2019-10-26 10:24:29.300,LG-H970,1572085469310.25,0.05,10.088,-0.347,41.103955,16.8793824,False,NONE
2019-10-26 10:24:29.320,LG-H970,1572085469329.5,-0.278,9.473,0.981,41.103955,16.8793824,False,NONE
2019-10-26 10:24:29.340,LG-H970,1572085469348.75,-1.482,11.209,1.058,41.103955,16.8793824,False,NONE
2019-10-26 10:24:29.360,LG-H970,1572085469369.25,-1.18,12.115,-1.247,41.103955,16.8793824,False,NONE
2019-10-26 10:24:29.380,LG-H970,1572085469389.0,-1.777,9.825,-0.727,41.103955,16.8793824,False,NONE
2019-10-26 10:24:29.400,LG-H970,1572085469408.5,-0.822,9.395,-0.453,41.103955,16.8793824,False,NONE
2019-10-26 10:24:29.420,LG-H970,1572085469428.5,-1.76,9.118,-0.462,41.103955,16.8793824,False,NONE
2019-10-26 10:24:29.440,LG-H970,1572085469450.2,-1.859,10.805,-1.191,41.103955,16.8793824,False,NONE
2019-10-26 10:24:29.460,LG-H970,1572085469468.6667,-1.028,10.229,-0.735,41.103955,16.8793824,False,NONE
2019-10-26 10:24:29.480,LG-H970,1572085469488.6,0.088,9.037,0.507,41.103955,16.8793824,False,NONE
2019-10-26 10:24:29.500,LG-H970,1572085469511.25,0.07,8.78,-0.526,41.103955,16.8793824,False,NONE
2019-10-26 10:24:29.520,LG-H970,1572085469530.5,-1.448,9.158,-0.4,41.103955,16.8793824,False,NONE
2019-10-26 10:24:29.540,LG-H970,1572085469551.0,-0.959,9.638,-1.017,41.103955,16.8793824,False,NONE
2019-10-26 10:24:29.560,LG-H970,1572085469570.5,0.193,9.125,0.288,41.103955,16.8793824,False,NONE
2019-10-26 10:24:29.580,LG-H970,1572085469590.5,0.195,8.571,-0.224,41.103955,16.8793824,False,NONE
2019-10-26 10:24:29.600,LG-H970,1572085469609.75,-0.595,8.916,-1.258,41.103955,16.8793824,False,NONE
2019-10-26 10:24:29.620,LG-H970,1572085469630.25,-0.606,9.204,-0.918,41.103955,16.8793824,False,NONE
2019-10-26 10:24:29.640,LG-H970,1572085469650.0,-0.585,9.028,-0.011,41.103955,16.8793824,False,NONE
2019-10-26 10:24:29.660,LG-H970,1572085469669.5,-0.513,9.247,0.743,41.103955,16.8793824,False,NONE
2019-10-26 10:24:29.680,LG-H970,1572085469687.75,-0.542,10.097,0.005,41.103955,16.8793824,False,NONE
2019-10-26 10:24:29.700,LG-H970,1572085469707.5,-0.934,9.962,-0.668,41.103955,16.8793824,False,NONE
2019-10-26 10:24:29.720,LG-H970,1572085469727.5,-1.322,9.434,0.09,41.103955,16.8793824,False,NONE
2019-10-26 10:24:29.740,LG-H970,1572085469749.6,-0.129,10.231,-0.872,41.103955,16.8793824,False,NONE
2019-10-26 10:24:29.760,LG-H970,1572085469771.75,-1.401,10.251,1.008,41.103955,16.8793824,False,NONE
2019-10-26 10:24:29.780,LG-H970,1572085469791.75,-1.166,10.791,-0.082,41.103955,16.8793824,False,NONE
2019-10-26 10:24:29.800,LG-H970,1572085469810.3333,-0.369,11.003,-0.086,41.103955,16.8793824,False,NONE
2019-10-26 10:24:29.820,LG-H970,1572085469829.6,0.228,10.548,0.864,41.103955,16.8793824,False,NONE
2019-10-26 10:24:29.840,LG-H970,1572085469851.0,0.323,10.857,1.378,41.103955,16.8793824,False,NONE
2019-10-26 10:24:29.860,LG-H970,1572085469871.5,-0.281,12.22,0.658,41.103955,16.8793824,False,NONE
2019-10-26 10:24:29.880,LG-H970,1572085469890.75,-0.146,11.629,0.899,41.103955,16.8793824,False,NONE
2019-10-26 10:24:29.900,LG-H970,1572085469911.5,0.362,10.125,0.746,41.103955,16.8793824,False,NONE
2019-10-26 10:24:29.920,LG-H970,1572085469930.5,-0.165,10.872,0.88,41.103955,16.8793824,False,NONE
2019-10-26 10:24:29.940,LG-H970,1572085469950.5,-1.71,11.265,0.154,41.103955,16.8793824,False,NONE
2019-10-26 10:24:29.960,LG-H970,1572085469970.0,-1.553,10.856,0.922,41.103955,16.8793824,False,NONE
2019-10-26 10:24:29.980,LG-H970,1572085469990.0,-0.845,8.599,1.382,41.103955,16.8793824,False,NONE
2019-10-26 10:24:30.000,LG-H970,1572085470009.5,0.349,9.21,0.846,41.103955,16.8793824,False,NONE
2019-10-26 10:24:30.020,LG-H970,1572085470030.0,-2.116,7.978,-0.669,41.103955,16.8793824,False,NONE
2019-10-26 10:24:30.040,LG-H970,1572085470049.75,-2.528,9.089,-0.354,41.103955,16.8793824,False,NONE
2019-10-26 10:24:30.060,LG-H970,1572085470068.5,-1.638,8.765,-0.012,41.103955,16.8793824,False,NONE
2019-10-26 10:24:30.080,LG-H970,1572085470088.25,-0.759,8.671,1.269,41.103955,16.8793824,False,NONE
2019-10-26 10:24:30.100,LG-H970,1572085470107.25,-2.343,7.708,-0.777,41.103955,16.8793824,False,NONE
2019-10-26 10:24:30.120,LG-H970,1572085470127.25,-3.155,9.249,-1.028,41.103955,16.8793824,False,NONE
2019-10-26 10:24:30.140,LG-H970,1572085470150.0,-2.392,8.972,0.606,41.103955,16.8793824,False,NONE
2019-10-26 10:24:30.160,LG-H970,1572085470171.75,-2.249,9.889,1.855,41.103955,16.8793824,False,NONE
2019-10-26 10:24:30.180,LG-H970,1572085470191.0,-2.751,10.064,0.21,41.103955,16.8793824,False,NONE
2019-10-26 10:24:30.200,LG-H970,1572085470211.25,-2.222,9.718,0.498,41.103955,16.8793824,False,NONE
2019-10-26 10:24:30.220,LG-H970,1572085470230.75,-1.914,9.222,0.345,41.103955,16.8793824,False,NONE
2019-10-26 10:24:30.240,LG-H970,1572085470250.75,-1.772,9.617,0.54,41.103955,16.8793824,False,NONE
2019-10-26 10:24:30.260,LG-H970,1572085470271.5,-1.607,11.221,0.737,41.103955,16.8793824,False,NONE
2019-10-26 10:24:30.280,LG-H970,1572085470289.0,-2.418,10.661,1.287,41.103955,16.8793824,False,NONE
2019-10-26 10:24:30.300,LG-H970,1572085470309.2,-0.713,11.146,1.792,41.103955,16.8793824,False,NONE
2019-10-26 10:24:30.320,LG-H970,1572085470329.75,-0.153,10.016,0.68,41.103955,16.8793824,False,NONE
2019-10-26 10:24:30.340,LG-H970,1572085470349.75,-0.313,11.777,0.98,41.103955,16.8793824,False,NONE
2019-10-26 10:24:30.360,LG-H970,1572085470370.0,-1.629,10.756,0.477,41.103955,16.8793824,False,NONE
2019-10-26 10:24:30.380,LG-H970,1572085470389.75,0.153,11.988,1.633,41.103955,16.8793824,False,NONE
2019-10-26 10:24:30.400,LG-H970,1572085470409.0,-0.035,9.976,1.004,41.103955,16.8793824,False,NONE
2019-10-26 10:24:30.420,LG-H970,1572085470428.5,0.053,10.662,0.547,41.103955,16.8793824,False,NONE
2019-10-26 10:24:30.440,LG-H970,1572085470448.25,-0.641,10.022,-0.187,41.103955,16.8793824,False,NONE
2019-10-26 10:24:30.460,LG-H970,1572085470468.75,-1.196,10.042,0.171,41.103955,16.8793824,False,NONE
2019-10-26 10:24:30.480,LG-H970,1572085470487.5,-0.564,10.301,0.391,41.103955,16.8793824,False,NONE
2019-10-26 10:24:30.500,LG-H970,1572085470509.6,-0.416,9.884,0.774,41.103955,16.8793824,False,NONE
2019-10-26 10:24:30.520,LG-H970,1572085470531.75,-0.241,9.615,0.074,41.103955,16.8793824,False,NONE
2019-10-26 10:24:30.540,LG-H970,1572085470550.6667,-0.421,9.438,-0.42,41.103955,16.8793824,False,NONE
2019-10-26 10:24:30.560,LG-H970,1572085470568.4,-1.023,9.49,-0.19,41.103955,16.8793824,False,NONE
2019-10-26 10:24:30.580,LG-H970,1572085470590.75,-1.257,9.709,-0.153,41.103955,16.8793824,False,NONE
2019-10-26 10:24:30.600,LG-H970,1572085470610.5,-0.72,9.693,0.447,41.103955,16.8793824,False,NONE
2019-10-26 10:24:30.620,LG-H970,1572085470630.25,-0.771,9.46,0.137,41.103955,16.8793824,False,NONE
2019-10-26 10:24:30.640,LG-H970,1572085470650.25,-1.577,9.296,0.522,41.103955,16.8793824,False,NONE
2019-10-26 10:24:30.660,LG-H970,1572085470670.75,-1.821,8.977,-0.471,41.103955,16.8793824,False,NONE
2019-10-26 10:24:30.680,LG-H970,1572085470689.5,-1.632,9.777,-0.181,41.103955,16.8793824,False,NONE
2019-10-26 10:24:30.700,LG-H970,1572085470708.5,-1.397,9.477,-0.009,41.103955,16.8793824,False,NONE
2019-10-26 10:24:30.720,LG-H970,1572085470729.0,-1.396,9.178,0.139,41.103955,16.8793824,False,NONE
2019-10-26 10:24:30.740,LG-H970,1572085470749.25,-1.899,9.43,-0.213,41.103955,16.8793824,False,NONE
2019-10-26 10:24:30.760,LG-H970,1572085470769.5,-1.826,9.985,-0.459,41.103955,16.8793824,False,NONE
2019-10-26 10:24:30.780,LG-H970,1572085470788.75,-2.012,9.797,0.197,41.103955,16.8793824,False,NONE
2019-10-26 10:24:30.800,LG-H970,1572085470809.75,-1.107,9.916,0.025,41.103955,16.8793824,False,NONE
2019-10-26 10:24:30.820,LG-H970,1572085470828.0,-1.7,9.632,-0.281,41.103955,16.8793824,False,NONE
2019-10-26 10:24:30.840,LG-H970,1572085470847.5,-1.603,10.868,-0.276,41.103955,16.8793824,False,NONE
2019-10-26 10:24:30.860,LG-H970,1572085470869.6,-0.838,9.821,-0.075,41.103955,16.8793824,False,NONE
2019-10-26 10:24:30.880,LG-H970,1572085470889.6667,0.443,9.729,1.319,41.103955,16.8793824,False,NONE
2019-10-26 10:24:30.900,LG-H970,1572085470909.2,-0.284,9.869,0.004,41.103955,16.8793824,False,NONE
2019-10-26 10:24:30.920,LG-H970,1572085470931.0,-1.158,11.51,0.088,41.103955,16.8793824,False,NONE
2019-10-26 10:24:30.940,LG-H970,1572085470950.75,-0.552,10.393,-0.054,41.103955,16.8793824,False,NONE
2019-10-26 10:24:30.960,LG-H970,1572085470970.5,0.759,9.736,1.374,41.103955,16.8793824,False,NONE
2019-10-26 10:24:30.980,LG-H970,1572085470990.5,0.183,9.9,0.407,41.103955,16.8793824,False,NONE
2019-10-26 10:24:31.000,LG-H970,1572085471010.0,-1.642,10.5,0.477,41.103955,16.8793824,False,NONE
2019-10-26 10:24:31.020,LG-H970,1572085471030.5,-1.325,10.094,0.261,41.103955,16.8793824,False,NONE
2019-10-26 10:24:31.040,LG-H970,1572085471044.5,-0.841,9.609,0.729,41.103955,16.8793824,False,NONE
2019-10-26 10:24:31.060,LG-H970,1572085471066.8333,-0.563,9.213,1.064,41.103955,16.8793824,False,NONE
2019-10-26 10:24:31.080,LG-H970,1572085471088.25,-1.906,9.597,-0.305,41.103955,16.8793824,False,NONE
2019-10-26 10:24:31.100,LG-H970,1572085471108.0,-2.5,10.091,-0.437,41.103955,16.8793824,False,NONE
2019-10-26 10:24:31.120,LG-H970,1572085471127.5,-1.21,9.165,0.512,41.103955,16.8793824,False,NONE
2019-10-26 10:24:31.140,LG-H970,1572085471147.5,-0.05,9.145,1.386,41.103955,16.8793824,False,NONE
2019-10-26 10:24:31.160,LG-H970,1572085471167.75,-1.328,9.566,0.789,41.103955,16.8793824,False,NONE
2019-10-26 10:24:31.180,LG-H970,1572085471187.75,-3.381,9.887,-0.122,41.103955,16.8793824,False,NONE
2019-10-26 10:24:31.200,LG-H970,1572085471209.2,-2.595,9.936,0.046,41.103955,16.8793824,False,NONE
2019-10-26 10:24:31.220,LG-H970,1572085471231.5,-0.313,9.945,0.251,41.103955,16.8793824,False,NONE
2019-10-26 10:24:31.240,LG-H970,1572085471251.5,-1.379,8.705,1.172,41.103955,16.8793824,False,NONE
2019-10-26 10:24:31.260,LG-H970,1572085471271.25,-2.033,10.39,-0.476,41.103955,16.8793824,False,NONE
2019-10-26 10:24:31.280,LG-H970,1572085471291.0,-2.509,10.267,-0.735,41.103955,16.8793824,False,NONE
2019-10-26 10:24:31.300,LG-H970,1572085471310.75,0.086,10.502,0.364,41.103955,16.8793824,False,NONE
2019-10-26 10:24:31.320,LG-H970,1572085471329.75,-0.127,9.62,0.16,41.103955,16.8793824,False,NONE
2019-10-26 10:24:31.340,LG-H970,1572085471349.5,-2.273,10.266,-0.066,41.103955,16.8793824,False,NONE
2019-10-26 10:24:31.360,LG-H970,1572085471369.75,-1.664,10.417,-1.081,41.103955,16.8793824,False,NONE
2019-10-26 10:24:31.380,LG-H970,1572085471389.5,-0.612,9.733,1.143,41.103955,16.8793824,False,NONE
2019-10-26 10:24:31.400,LG-H970,1572085471410.0,-0.595,10.329,0.494,41.103955,16.8793824,False,NONE
