UTC_timestamp,device_name,timestamp,x,y,z,lat,long,event,speed
2019-10-26 09:51:41.040,LG-H970,1572083501050.75,-1.095,10.565,0.831,41.1071439,16.8747851,False,NONE
2019-10-26 09:51:41.060,LG-H970,1572083501071.25,-1.323,10.552,-0.136,41.1071439,16.8747851,False,NONE
2019-10-26 09:51:41.080,LG-H970,1572083501091.25,-1.01,10.878,1.318,41.1071439,16.8747851,False,NONE
2019-10-26 09:51:41.100,LG-H970,1572083501108.3333,-0.853,10.3,0.174,41.1071439,16.8747851,False,NONE
2019-10-26 09:51:41.120,LG-H970,1572083501129.0,-1.077,10.08,0.537,41.1071439,16.8747851,False,NONE
2019-10-26 09:51:41.140,LG-H970,1572083501151.75,-1.44,9.418,-0.491,41.1071439,16.8747851,False,NONE
2019-10-26 09:51:41.160,LG-H970,1572083501170.25,-1.343,9.857,0.23,41.1071439,16.8747851,False,NONE
2019-10-26 09:51:41.180,LG-H970,1572083501190.25,-1.335,9.414,-0.138,41.1071439,16.8747851,False,NONE
2019-10-26 09:51:41.200,LG-H970,1572083501210.0,-1.123,9.985,0.664,41.1071439,16.8747851,False,NONE
2019-10-26 09:51:41.220,LG-H970,1572083501230.25,-1.311,9.422,-0.192,41.1071439,16.8747851,False,NONE
2019-10-26 09:51:41.240,LG-H970,1572083501249.5,-1.326,9.57,0.278,41.1071439,16.8747851,False,NONE
2019-10-26 09:51:41.260,LG-H970,1572083501269.75,-1.397,9.004,-0.615,41.1071439,16.8747851,False,NONE
2019-10-26 09:51:41.280,LG-H970,1572083501289.25,-1.421,9.453,0.061,41.1071439,16.8747851,False,NONE
2019-10-26 09:51:41.300,LG-H970,1572083501309.0,-1.159,9.518,-0.246,41.1071439,16.8747851,False,NONE
2019-10-26 09:51:41.320,LG-H970,1572083501329.0,-0.719,9.719,0.367,41.1071439,16.8747851,False,NONE
2019-10-26 09:51:41.340,LG-H970,1572083501350.6,-0.64,9.539,-0.029,41.1071439,16.8747851,False,NONE
2019-10-26 09:51:41.360,LG-H970,1572083501371.0,-0.99,9.951,-0.072,41.1071439,16.8747851,False,NONE
2019-10-26 09:51:41.380,LG-H970,1572083501388.25,-1.209,9.928,-0.181,41.1071439,16.8747851,False,NONE
2019-10-26 09:51:41.400,LG-H970,1572083501408.0,-1.0,9.908,0.17,41.1071439,16.8747851,False,NONE
2019-10-26 09:51:41.420,LG-H970,1572083501429.5,-0.569,9.982,0.416,41.1071439,16.8747851,False,NONE
2019-10-26 09:51:41.440,LG-H970,1572083501449.8,-0.793,9.91,0.205,41.1071439,16.8747851,False,NONE
2019-10-26 09:51:41.460,LG-H970,1572083501471.5,-0.991,10.042,-0.101,41.1071439,16.8747851,False,NONE
2019-10-26 09:51:41.480,LG-H970,1572083501491.5,-0.903,9.972,-0.019,41.1071439,16.8747851,False,NONE
2019-10-26 09:51:41.500,LG-H970,1572083501511.5,-0.605,9.994,0.228,41.1071439,16.8747851,False,NONE
2019-10-26 09:51:41.520,LG-H970,1572083501529.0,-0.918,9.668,0.451,41.1071439,16.8747851,False,NONE
2019-10-26 09:51:41.540,LG-H970,1572083501549.0,-1.325,9.914,0.297,41.1071439,16.8747851,False,NONE
2019-10-26 09:51:41.560,LG-H970,1572083501570.0,-1.626,9.547,-0.013,41.1071439,16.8747851,False,NONE
2019-10-26 09:51:41.580,LG-H970,1572083501590.5,-1.223,9.427,0.06,41.1071439,16.8747851,False,NONE
2019-10-26 09:51:41.600,LG-H970,1572083501610.0,-1.079,9.588,0.124,41.1071439,16.8747851,False,NONE
2019-10-26 09:51:41.620,LG-H970,1572083501630.25,-1.292,10.165,0.582,41.1071439,16.8747851,False,NONE
2019-10-26 09:51:41.640,LG-H970,1572083501650.25,-1.52,10.197,0.371,41.1071439,16.8747851,False,NONE
2019-10-26 09:51:41.660,LG-H970,1572083501670.0,-1.299,10.417,0.749,41.1071439,16.8747851,False,NONE
2019-10-26 09:51:41.680,LG-H970,1572083501690.25,-1.18,9.857,0.07,41.1071439,16.8747851,False,NONE
2019-10-26 09:51:41.700,LG-H970,1572083501708.5,-1.216,9.98,0.646,41.1071439,16.8747851,False,NONE
2019-10-26 09:51:41.720,LG-H970,1572083501729.25,-1.456,9.876,-0.073,41.1071439,16.8747851,False,NONE
2019-10-26 09:51:41.740,LG-H970,1572083501748.5,-1.525,10.259,0.567,41.1071439,16.8747851,False,NONE
2019-10-26 09:51:41.760,LG-H970,1572083501768.25,-1.523,9.719,0.075,41.1071439,16.8747851,False,NONE
2019-10-26 09:51:41.780,LG-H970,1572083501790.6,-1.276,10.007,0.224,41.1071439,16.8747851,False,NONE
2019-10-26 09:51:41.800,LG-H970,1572083501810.6667,-1.155,9.856,0.065,41.1071439,16.8747851,False,NONE
2019-10-26 09:51:41.820,LG-H970,1572083501827.25,-1.002,10.175,0.532,41.1071439,16.8747851,False,NONE
2019-10-26 09:51:41.840,LG-H970,1572083501847.5,-1.238,10.12,0.369,41.1071439,16.8747851,False,NONE
2019-10-26 09:51:41.860,LG-H970,1572083501869.6,-1.552,10.2,0.563,41.1071439,16.8747851,False,NONE
2019-10-26 09:51:41.880,LG-H970,1572083501892.25,-1.769,9.631,0.29,41.1071439,16.8747851,False,NONE
2019-10-26 09:51:41.900,LG-H970,1572083501905.0,-1.674,9.56,0.804,41.1071439,16.8747851,False,NONE
2019-10-26 09:51:41.920,LG-H970,1572083501930.4,-1.358,9.264,0.395,41.1071439,16.8747851,False,NONE
2019-10-26 09:51:41.940,LG-H970,1572083501950.5,-1.234,9.592,0.525,41.1071439,16.8747851,False,NONE
2019-10-26 09:51:41.960,LG-H970,1572083501970.75,-1.362,9.697,0.257,41.1071439,16.8747851,False,NONE
2019-10-26 09:51:41.980,LG-H970,1572083501989.75,-1.044,9.827,0.581,41.1071439,16.8747851,False,NONE
2019-10-26 09:51:42.000,LG-H970,1572083502009.75,-1.01,9.146,0.537,41.1071439,16.8747851,False,NONE
2019-10-26 09:51:42.020,LG-H970,1572083502030.75,-1.073,9.812,0.473,41.1071439,16.8747851,False,NONE
2019-10-26 09:51:42.040,LG-H970,1572083502049.0,-1.376,9.842,0.25,41.1071439,16.8747851,False,NONE
2019-10-26 09:51:42.060,LG-H970,1572083502068.5,-0.798,10.17,0.713,41.1071439,16.8747851,False,NONE
2019-10-26 09:51:42.080,LG-H970,1572083502088.75,-0.538,9.711,0.611,41.1071439,16.8747851,False,NONE
2019-10-26 09:51:42.100,LG-H970,1572083502108.0,-0.708,10.243,0.605,41.1071439,16.8747851,False,NONE
2019-10-26 09:51:42.120,LG-H970,1572083502129.25,-1.331,9.906,0.236,41.1071439,16.8747851,False,NONE
2019-10-26 09:51:42.140,LG-H970,1572083502148.5,-1.099,10.106,0.504,41.1071439,16.8747851,False,NONE
2019-10-26 09:51:42.160,LG-H970,1572083502168.5,-0.986,9.504,0.388,41.1071439,16.8747851,False,NONE
2019-10-26 09:51:42.180,LG-H970,1572083502188.5,-1.074,9.725,0.59,41.1071439,16.8747851,False,NONE
2019-10-26 09:51:42.200,LG-H970,1572083502208.0,-1.392,9.629,0.048,41.1071439,16.8747851,False,NONE
2019-10-26 09:51:42.220,LG-H970,1572083502228.5,-1.196,9.963,0.551,41.1071439,16.8747851,False,NONE
2019-10-26 09:51:42.240,LG-H970,1572083502247.0,-0.903,9.709,0.387,41.1071439,16.8747851,False,NONE
2019-10-26 09:51:42.260,LG-H970,1572083502267.5,-0.933,10.298,0.939,41.1071439,16.8747851,False,NONE
2019-10-26 09:51:42.280,LG-H970,1572083502289.8,-0.998,10.16,0.615,41.1071439,16.8747851,False,NONE
2019-10-26 09:51:42.300,LG-H970,1572083502311.75,-0.945,9.96,0.801,41.1071439,16.8747851,False,NONE
2019-10-26 09:51:42.320,LG-H970,1572083502331.75,-1.256,9.575,0.459,41.1071439,16.8747851,False,NONE
2019-10-26 09:51:42.340,LG-H970,1572083502349.6667,-1.467,9.951,0.811,41.1071439,16.8747851,False,NONE
2019-10-26 09:51:42.360,LG-H970,1572083502368.4,-1.464,9.906,0.399,41.1071439,16.8747851,False,NONE
2019-10-26 09:51:42.380,LG-H970,1572083502389.25,-0.906,10.236,1.059,41.1071439,16.8747851,False,NONE
2019-10-26 09:51:42.400,LG-H970,1572083502409.25,-0.688,10.043,0.637,41.1071439,16.8747851,False,NONE
2019-10-26 09:51:42.420,LG-H970,1572083502429.75,-0.84,10.242,0.835,41.1071439,16.8747851,False,NONE
2019-10-26 09:51:42.440,LG-H970,1572083502450.5,-0.944,9.816,0.16,41.1071439,16.8747851,False,NONE
2019-10-26 09:51:42.460,LG-H970,1572083502468.5,-0.655,9.76,0.804,41.1071439,16.8747851,False,NONE
2019-10-26 09:51:42.480,LG-H970,1572083502488.75,-0.64,9.418,0.345,41.1071439,16.8747851,False,NONE
2019-10-26 09:51:42.500,LG-H970,1572083502507.5,-1.171,9.829,0.944,41.1071439,16.8747851,False,NONE
2019-10-26 09:51:42.520,LG-H970,1572083502528.5,-1.439,9.935,0.32,41.1071439,16.8747851,False,NONE
2019-10-26 09:51:42.540,LG-H970,1572083502548.5,-1.082,10.086,1.099,41.1071439,16.8747851,False,NONE
2019-10-26 09:51:42.560,LG-H970,1572083502566.3333,-0.754,9.787,0.58,41.1071439,16.8747851,False,NONE
2019-10-26 09:51:42.580,LG-H970,1572083502588.5,-0.829,10.115,0.987,41.1071439,16.8747851,False,NONE
2019-10-26 09:51:42.600,LG-H970,1572083502607.25,-0.898,10.027,0.45,41.1071439,16.8747851,False,NONE
2019-10-26 09:51:42.620,LG-H970,1572083502627.5,-0.791,10.083,1.081,41.1071439,16.8747851,False,NONE
2019-10-26 09:51:42.640,LG-H970,1572083502647.5,-0.763,9.694,0.525,41.1071439,16.8747851,False,NONE
2019-10-26 09:51:42.660,LG-H970,1572083502669.8,-1.038,9.647,0.934,41.1071439,16.8747851,False,NONE
2019-10-26 09:51:42.680,LG-H970,1572083502692.25,-1.166,9.379,0.367,41.1071439,16.8747851,False,NONE
2019-10-26 09:51:42.700,LG-H970,1572083502708.6667,-0.819,9.816,0.96,41.1071439,16.8747851,False,NONE
2019-10-26 09:51:42.720,LG-H970,1572083502726.75,-0.737,9.437,0.548,41.1071439,16.8747851,False,NONE
2019-10-26 09:51:42.740,LG-H970,1572083502749.0,-0.946,9.983,1.152,41.1071439,16.8747851,False,NONE
2019-10-26 09:51:42.760,LG-H970,1572083502771.5,-0.909,9.94,0.585,41.1071439,16.8747851,False,NONE
2019-10-26 09:51:42.780,LG-H970,1572083502791.0,-0.532,10.031,1.291,41.1071439,16.8747851,False,NONE
2019-10-26 09:51:42.800,LG-H970,1572083502810.75,-0.492,9.761,0.707,41.1071439,16.8747851,False,NONE
2019-10-26 09:51:42.820,LG-H970,1572083502830.5,-0.763,10.187,1.211,41.1071439,16.8747851,False,NONE
2019-10-26 09:51:42.840,LG-H970,1572083502847.3333,-0.849,10.024,0.437,41.1071439,16.8747851,False,NONE
2019-10-26 09:51:42.860,LG-H970,1572083502868.0,-0.736,9.925,1.178,41.1071439,16.8747851,False,NONE
2019-10-26 09:51:42.880,LG-H970,1572083502890.25,-0.489,9.65,0.62,41.1071439,16.8747851,False,NONE
2019-10-26 09:51:42.900,LG-H970,1572083502908.5,-0.764,9.703,1.2,41.1071439,16.8747851,False,NONE
2019-10-26 09:51:42.920,LG-H970,1572083502928.75,-0.924,9.708,0.44,41.1071439,16.8747851,False,NONE
2019-10-26 09:51:42.940,LG-H970,1572083502951.75,-0.69,9.939,1.223,41.1071439,16.8747851,False,NONE
2019-10-26 09:51:42.960,LG-H970,1572083502966.3333,-0.357,9.501,0.819,41.1071439,16.8747851,False,NONE
2019-10-26 09:51:42.980,LG-H970,1572083502989.0,-0.498,9.687,1.317,41.1071439,16.8747851,False,NONE
2019-10-26 09:51:43.000,LG-H970,1572083503007.75,-0.745,9.942,0.659,41.1071439,16.8747851,False,NONE
2019-10-26 09:51:43.020,LG-H970,1572083503027.5,-0.781,10.024,1.317,41.1071439,16.8747851,False,NONE
2019-10-26 09:51:43.040,LG-H970,1572083503047.0,-0.48,9.918,0.98,41.1071439,16.8747851,False,NONE
2019-10-26 09:51:43.060,LG-H970,1572083503067.25,-0.597,10.27,1.594,41.1071439,16.8747851,False,NONE
2019-10-26 09:51:43.080,LG-H970,1572083503090.0,-0.692,10.237,0.989,41.1071439,16.8747851,False,NONE
2019-10-26 09:51:43.100,LG-H970,1572083503110.75,-0.572,10.379,1.688,41.1071439,16.8747851,False,NONE
2019-10-26 09:51:43.120,LG-H970,1572083503131.5,-0.47,9.898,0.993,41.1071439,16.8747851,False,NONE
2019-10-26 09:51:43.140,LG-H970,1572083503151.0,-0.507,10.287,1.728,41.1071439,16.8747851,False,NONE
2019-10-26 09:51:43.160,LG-H970,1572083503169.0,-0.713,10.033,0.759,41.1071439,16.8747851,False,NONE
2019-10-26 09:51:43.180,LG-H970,1572083503188.8,-0.602,10.334,1.687,41.1071439,16.8747851,False,NONE
2019-10-26 09:51:43.200,LG-H970,1572083503210.75,-0.463,9.873,1.075,41.1071439,16.8747851,False,NONE
2019-10-26 09:51:43.220,LG-H970,1572083503230.75,-0.436,10.346,1.695,41.1071439,16.8747851,False,NONE
2019-10-26 09:51:43.240,LG-H970,1572083503249.75,-0.477,9.746,0.802,41.1071439,16.8747851,False,NONE
2019-10-26 09:51:43.260,LG-H970,1572083503270.0,-0.131,9.943,1.742,41.1071439,16.8747851,False,NONE
2019-10-26 09:51:43.280,LG-H970,1572083503290.0,-0.06,9.61,0.857,41.1071439,16.8747851,False,NONE
2019-10-26 09:51:43.300,LG-H970,1572083503308.75,-0.247,10.089,1.684,41.1071439,16.8747851,False,NONE
2019-10-26 09:51:43.320,LG-H970,1572083503329.75,-0.615,9.558,0.808,41.1071439,16.8747851,False,NONE
2019-10-26 09:51:43.340,LG-H970,1572083503349.0,-0.482,10.131,1.535,41.1071439,16.8747851,False,NONE
2019-10-26 09:51:43.360,LG-H970,1572083503368.5,-0.556,9.505,0.798,41.1071439,16.8747851,False,NONE
2019-10-26 09:51:43.380,LG-H970,1572083503388.5,-0.527,10.104,1.543,41.1071439,16.8747851,False,NONE
2019-10-26 09:51:43.400,LG-H970,1572083503408.0,-0.825,9.824,0.717,41.1071439,16.8747851,False,NONE
2019-10-26 09:51:43.420,LG-H970,1572083503430.4,-0.743,10.283,1.337,41.1071439,16.8747851,False,NONE
2019-10-26 09:51:43.440,LG-H970,1572083503453.5,-0.823,9.731,0.848,41.1071439,16.8747851,False,NONE
2019-10-26 09:51:43.460,LG-H970,1572083503468.0,-0.679,10.194,1.327,41.1071439,16.8747851,False,NONE
2019-10-26 09:51:43.480,LG-H970,1572083503489.6,-0.844,9.636,0.584,41.1071439,16.8747851,False,NONE
2019-10-26 09:51:43.500,LG-H970,1572083503509.0,-0.733,9.843,1.142,41.1071439,16.8747851,False,NONE
2019-10-26 09:51:43.520,LG-H970,1572083503526.75,-0.868,9.42,0.333,41.1071439,16.8747851,False,NONE
2019-10-26 09:51:43.540,LG-H970,1572083503548.0,-0.736,9.939,1.151,41.1071439,16.8747851,False,NONE
2019-10-26 09:51:43.560,LG-H970,1572083503569.4,-0.631,9.536,0.565,41.1071439,16.8747851,False,NONE
2019-10-26 09:51:43.580,LG-H970,1572083503588.0,-0.459,10.095,1.024,41.1071439,16.8747851,False,NONE
2019-10-26 09:51:43.600,LG-H970,1572083503608.0,-0.532,9.875,0.58,41.1071439,16.8747851,False,NONE
2019-10-26 09:51:43.620,LG-H970,1572083503629.25,-0.432,10.122,1.014,41.1071439,16.8747851,False,NONE
2019-10-26 09:51:43.640,LG-H970,1572083503650.5,-0.518,9.976,0.753,41.1071439,16.8747851,False,NONE
2019-10-26 09:51:43.660,LG-H970,1572083503669.5,-0.57,10.33,1.031,41.1071439,16.8747851,False,NONE
2019-10-26 09:51:43.680,LG-H970,1572083503689.25,-0.705,10.133,0.81,41.1071439,16.8747851,False,NONE
2019-10-26 09:51:43.700,LG-H970,1572083503708.5,-0.685,10.268,1.026,41.1071439,16.8747851,False,NONE
2019-10-26 09:51:43.720,LG-H970,1572083503729.0,-0.658,9.941,0.689,41.1071439,16.8747851,False,NONE
2019-10-26 09:51:43.740,LG-H970,1572083503749.0,-0.588,9.954,0.968,41.1071439,16.8747851,False,NONE
2019-10-26 09:51:43.760,LG-H970,1572083503769.75,-0.66,9.727,0.405,41.1071439,16.8747851,False,NONE
2019-10-26 09:51:43.780,LG-H970,1572083503787.3333,-0.722,10.019,1.014,41.1071439,16.8747851,False,NONE
2019-10-26 09:51:43.800,LG-H970,1572083503806.2,-0.74,9.768,0.601,41.1071439,16.8747851,False,NONE
2019-10-26 09:51:43.820,LG-H970,1572083503826.75,-0.822,9.812,1.06,41.1071439,16.8747851,False,NONE
2019-10-26 09:51:43.840,LG-H970,1572083503850.2,-0.761,9.806,0.567,41.1071439,16.8747851,False,NONE
2019-10-26 09:51:43.860,LG-H970,1572083503870.25,-0.609,9.776,0.948,41.1071439,16.8747851,False,NONE
2019-10-26 09:51:43.880,LG-H970,1572083503889.5,-0.466,9.742,0.586,41.1071439,16.8747851,False,NONE
2019-10-26 09:51:43.900,LG-H970,1572083503910.5,-0.57,10.054,0.952,41.1071439,16.8747851,False,NONE
2019-10-26 09:51:43.920,LG-H970,1572083503930.75,-0.578,9.895,0.554,41.1071439,16.8747851,False,NONE
2019-10-26 09:51:43.940,LG-H970,1572083503950.5,-0.495,10.028,0.996,41.1071439,16.8747851,False,NONE
2019-10-26 09:51:43.960,LG-H970,1572083503971.0,-0.347,9.896,0.371,41.1071439,16.8747851,False,NONE
2019-10-26 09:51:43.980,LG-H970,1572083503988.75,-0.442,9.873,0.899,41.1071439,16.8747851,False,NONE
2019-10-26 09:51:44.000,LG-H970,1572083504008.75,-0.446,9.782,0.355,41.1071439,16.8747851,False,NONE
2019-10-26 09:51:44.020,LG-H970,1572083504028.75,-0.564,10.045,0.92,41.1071439,16.8747851,False,NONE
2019-10-26 09:51:44.040,LG-H970,1572083504048.5,-0.522,9.849,0.386,41.1071439,16.8747851,False,NONE
2019-10-26 09:51:44.060,LG-H970,1572083504069.6667,-0.593,9.864,0.882,41.1071439,16.8747851,False,NONE
2019-10-26 09:51:44.080,LG-H970,1572083504089.0,-0.526,9.936,0.374,41.1071439,16.8747851,False,NONE
2019-10-26 09:51:44.100,LG-H970,1572083504109.0,-0.738,9.903,0.992,41.1071439,16.8747851,False,NONE
2019-10-26 09:51:44.120,LG-H970,1572083504128.5,-0.666,9.885,0.459,41.1071439,16.8747851,False,NONE
2019-10-26 09:51:44.140,LG-H970,1572083504149.8,-0.748,10.111,1.035,41.1071439,16.8747851,False,NONE
2019-10-26 09:51:44.160,LG-H970,1572083504171.75,-0.796,9.758,0.285,41.1071439,16.8747851,False,NONE
2019-10-26 09:51:44.180,LG-H970,1572083504191.25,-0.724,10.134,1.156,41.1071439,16.8747851,False,NONE
2019-10-26 09:51:44.200,LG-H970,1572083504211.5,-0.667,9.733,0.206,41.1071439,16.8747851,False,NONE
2019-10-26 09:51:44.220,LG-H970,1572083504231.25,-0.603,10.064,1.172,41.1071439,16.8747851,False,NONE
2019-10-26 09:51:44.240,LG-H970,1572083504249.3333,-0.651,9.731,0.183,41.1071439,16.8747851,False,NONE
2019-10-26 09:51:44.260,LG-H970,1572083504268.6,-0.63,10.012,0.976,41.1071439,16.8747851,False,NONE
2019-10-26 09:51:44.280,LG-H970,1572083504290.5,-0.448,9.732,0.157,41.1071439,16.8747851,False,NONE
2019-10-26 09:51:44.300,LG-H970,1572083504310.5,-0.503,10.031,1.106,41.1071439,16.8747851,False,NONE
2019-10-26 09:51:44.320,LG-H970,1572083504329.75,-0.527,9.86,0.213,41.1071439,16.8747851,False,NONE
2019-10-26 09:51:44.340,LG-H970,1572083504349.75,-0.522,10.037,1.096,41.1071439,16.8747851,False,NONE
2019-10-26 09:51:44.360,LG-H970,1572083504368.75,-0.36,9.841,0.332,41.1071439,16.8747851,False,NONE
2019-10-26 09:51:44.380,LG-H970,1572083504389.0,-0.477,10.03,0.947,41.1071439,16.8747851,False,NONE
2019-10-26 09:51:44.400,LG-H970,1572083504407.75,-0.46,9.86,0.349,41.1071439,16.8747851,False,NONE
2019-10-26 09:51:44.420,LG-H970,1572083504428.0,-0.478,9.939,0.949,41.1071439,16.8747851,False,NONE
2019-10-26 09:51:44.440,LG-H970,1572083504450.0,-0.435,9.86,0.386,41.1071439,16.8747851,False,NONE
2019-10-26 09:51:44.460,LG-H970,1572083504469.6,-0.561,9.861,0.888,41.1071439,16.8747851,False,NONE
2019-10-26 09:51:44.480,LG-H970,1572083504492.25,-0.575,9.76,0.204,41.1071439,16.8747851,False,NONE
2019-10-26 09:51:44.500,LG-H970,1572083504510.75,-0.627,9.965,0.877,41.1071439,16.8747851,False,NONE
2019-10-26 09:51:44.520,LG-H970,1572083504531.0,-0.557,9.672,0.339,41.1071439,16.8747851,False,NONE
2019-10-26 09:51:44.540,LG-H970,1572083504551.0,-0.699,9.927,0.892,41.1071439,16.8747851,False,NONE
2019-10-26 09:51:44.560,LG-H970,1572083504570.0,-0.704,9.941,0.345,41.1071439,16.8747851,False,NONE
2019-10-26 09:51:44.580,LG-H970,1572083504589.75,-0.665,9.985,0.88,41.1071439,16.8747851,False,NONE
2019-10-26 09:51:44.600,LG-H970,1572083504609.75,-0.526,9.839,0.468,41.1071439,16.8747851,False,NONE
2019-10-26 09:51:44.620,LG-H970,1572083504630.0,-0.668,10.086,0.787,41.1071439,16.8747851,False,NONE
2019-10-26 09:51:44.640,LG-H970,1572083504649.75,-0.688,9.996,0.484,41.1071439,16.8747851,False,NONE
2019-10-26 09:51:44.660,LG-H970,1572083504670.5,-0.66,9.953,0.816,41.1071439,16.8747851,False,NONE
2019-10-26 09:51:44.680,LG-H970,1572083504688.75,-0.549,9.943,0.492,41.1071439,16.8747851,False,NONE
2019-10-26 09:51:44.700,LG-H970,1572083504708.5,-0.691,9.857,0.7,41.1071439,16.8747851,False,NONE
2019-10-26 09:51:44.720,LG-H970,1572083504728.5,-0.582,9.924,0.553,41.1071439,16.8747851,False,NONE
2019-10-26 09:51:44.740,LG-H970,1572083504748.25,-0.632,9.823,0.611,41.1071439,16.8747851,False,NONE
2019-10-26 09:51:44.760,LG-H970,1572083504768.25,-0.509,9.96,0.704,41.1071439,16.8747851,False,NONE
2019-10-26 09:51:44.780,LG-H970,1572083504787.75,-0.641,9.763,0.68,41.1071439,16.8747851,False,NONE
2019-10-26 09:51:44.800,LG-H970,1572083504807.5,-0.573,10.067,0.699,41.1071439,16.8747851,False,NONE
2019-10-26 09:51:44.820,LG-H970,1572083504829.6,-0.621,9.856,0.699,41.1071439,16.8747851,False,NONE
2019-10-26 09:51:44.840,LG-H970,1572083504849.6667,-0.48,9.982,0.679,41.1071439,16.8747851,False,NONE
2019-10-26 09:51:44.860,LG-H970,1572083504869.4,-0.608,9.961,0.665,41.1071439,16.8747851,False,NONE
2019-10-26 09:51:44.880,LG-H970,1572083504891.0,-0.553,9.995,0.594,41.1071439,16.8747851,False,NONE
2019-10-26 09:51:44.900,LG-H970,1572083504910.75,-0.556,9.846,0.738,41.1071439,16.8747851,False,NONE
2019-10-26 09:51:44.920,LG-H970,1572083504930.5,-0.472,9.974,0.604,41.1071439,16.8747851,False,NONE
2019-10-26 09:51:44.940,LG-H970,1572083504950.0,-0.625,9.836,0.629,41.1071439,16.8747851,False,NONE
2019-10-26 09:51:44.960,LG-H970,1572083504969.75,-0.532,9.995,0.729,41.1071439,16.8747851,False,NONE
2019-10-26 09:51:44.980,LG-H970,1572083504989.5,-0.587,9.813,0.622,41.1071439,16.8747851,False,NONE
2019-10-26 09:51:45.000,LG-H970,1572083505009.0,-0.484,9.977,0.808,41.1071439,16.8747851,False,NONE
2019-10-26 09:51:45.020,LG-H970,1572083505028.75,-0.574,9.742,0.589,41.1071439,16.8747851,False,NONE
2019-10-26 09:51:45.040,LG-H970,1572083505049.25,-0.587,10.107,0.824,41.1071439,16.8747851,False,NONE
2019-10-26 09:51:45.060,LG-H970,1572083505068.5,-0.677,9.814,0.503,41.1071439,16.8747851,False,NONE
2019-10-26 09:51:45.080,LG-H970,1572083505088.5,-0.498,10.024,1.077,41.1071439,16.8747851,False,NONE
2019-10-26 09:51:45.100,LG-H970,1572083505107.75,-0.531,9.757,0.616,41.1071439,16.8747851,False,NONE
2019-10-26 09:51:45.120,LG-H970,1572083505127.25,-0.675,10.201,0.746,41.1071439,16.8747851,False,NONE
2019-10-26 09:51:45.140,LG-H970,1572083505147.75,-0.8,9.958,0.021,41.1071439,16.8747851,False,NONE
2019-10-26 09:51:45.160,LG-H970,1572083505169.6,-0.585,10.135,0.212,41.1071439,16.8747851,False,NONE
2019-10-26 09:51:45.180,LG-H970,1572083505190.0,-0.674,9.443,-0.444,41.1071439,16.8747851,False,NONE
2019-10-26 09:51:45.200,LG-H970,1572083505209.4,-0.744,10.12,-0.022,41.1071439,16.8747851,False,NONE
2019-10-26 09:51:45.220,LG-H970,1572083505231.5,-1.022,9.878,-0.701,41.1071439,16.8747851,False,NONE
2019-10-26 09:51:45.240,LG-H970,1572083505251.25,-0.686,10.101,-0.056,41.1071439,16.8747851,False,NONE
2019-10-26 09:51:45.260,LG-H970,1572083505270.75,-0.662,9.558,-0.543,41.1071439,16.8747851,False,NONE
2019-10-26 09:51:45.280,LG-H970,1572083505290.5,-0.682,10.322,-0.264,41.1071439,16.8747851,False,NONE
2019-10-26 09:51:45.300,LG-H970,1572083505310.5,-0.977,9.744,-0.908,41.1071439,16.8747851,False,NONE
2019-10-26 09:51:45.320,LG-H970,1572083505330.25,-0.613,10.05,-0.221,41.1071439,16.8747851,False,NONE
2019-10-26 09:51:45.340,LG-H970,1572083505349.75,-0.66,9.428,-0.774,41.1071439,16.8747851,False,NONE
2019-10-26 09:51:45.360,LG-H970,1572083505369.5,-0.628,10.137,-0.25,41.1071439,16.8747851,False,NONE
2019-10-26 09:51:45.380,LG-H970,1572083505389.25,-0.934,9.51,-0.875,41.1071439,16.8747851,False,NONE
2019-10-26 09:51:45.400,LG-H970,1572083505409.0,-0.629,9.995,-0.106,41.1071439,16.8747851,False,NONE
2019-10-26 09:51:45.420,LG-H970,1572083505429.0,-0.536,9.321,-0.619,41.1071439,16.8747851,False,NONE
2019-10-26 09:51:45.440,LG-H970,1572083505449.25,-0.516,9.935,0.109,41.1071439,16.8747851,False,NONE
2019-10-26 09:51:45.460,LG-H970,1572083505468.0,-0.798,9.625,-0.809,41.1071439,16.8747851,False,NONE
2019-10-26 09:51:45.480,LG-H970,1572083505489.6,-0.563,10.034,-0.026,41.1071439,16.8747851,False,NONE
2019-10-26 09:51:45.500,LG-H970,1572083505512.5,-0.439,9.661,-0.247,41.1071439,16.8747851,False,NONE
2019-10-26 09:51:45.520,LG-H970,1572083505531.5,-0.552,10.314,0.028,41.1071439,16.8747851,False,NONE
2019-10-26 09:51:45.540,LG-H970,1572083505552.0,-0.942,9.995,-0.446,41.1071439,16.8747851,False,NONE
2019-10-26 09:51:45.560,LG-H970,1572083505570.75,-0.705,10.155,0.092,41.1071439,16.8747851,False,NONE
2019-10-26 09:51:45.580,LG-H970,1572083505590.75,-0.547,9.591,-0.256,41.1071439,16.8747851,False,NONE
2019-10-26 09:51:45.600,LG-H970,1572083505610.25,-0.503,10.045,0.086,41.1071439,16.8747851,False,NONE
2019-10-26 09:51:45.620,LG-H970,1572083505630.25,-0.862,9.594,-0.519,41.1071439,16.8747851,False,NONE
2019-10-26 09:51:45.640,LG-H970,1572083505650.25,-0.758,9.975,-0.001,41.1071439,16.8747851,False,NONE
2019-10-26 09:51:45.660,LG-H970,1572083505670.0,-0.551,9.54,-0.478,41.1071439,16.8747851,False,NONE
2019-10-26 09:51:45.680,LG-H970,1572083505689.5,-0.578,9.887,0.089,41.1071439,16.8747851,False,NONE
2019-10-26 09:51:45.700,LG-H970,1572083505709.25,-0.878,9.735,-0.7,41.1071439,16.8747851,False,NONE
2019-10-26 09:51:45.720,LG-H970,1572083505729.0,-0.843,10.252,0.018,41.1071439,16.8747851,False,NONE
2019-10-26 09:51:45.740,LG-H970,1572083505748.75,-0.629,9.724,-0.54,41.1071439,16.8747851,False,NONE
2019-10-26 09:51:45.760,LG-H970,1572083505768.75,-0.618,10.067,0.263,41.1071439,16.8747851,False,NONE
2019-10-26 09:51:45.780,LG-H970,1572083505788.25,-0.746,9.865,-0.681,41.1071439,16.8747851,False,NONE
2019-10-26 09:51:45.800,LG-H970,1572083505808.0,-0.763,10.097,0.192,41.1071439,16.8747851,False,NONE
2019-10-26 09:51:45.820,LG-H970,1572083505827.5,-0.597,9.647,-0.605,41.1071439,16.8747851,False,NONE
2019-10-26 09:51:45.840,LG-H970,1572083505847.75,-0.612,10.012,0.255,41.1071439,16.8747851,False,NONE
2019-10-26 09:51:45.860,LG-H970,1572083505869.4,-0.739,9.716,-0.54,41.1071439,16.8747851,False,NONE
2019-10-26 09:51:45.880,LG-H970,1572083505889.6667,-0.772,10.065,0.313,41.1071439,16.8747851,False,NONE
2019-10-26 09:51:45.900,LG-H970,1572083505906.5,-0.596,9.788,-0.563,41.1071439,16.8747851,False,NONE
2019-10-26 09:51:45.920,LG-H970,1572083505929.2,-0.604,9.955,0.142,41.1071439,16.8747851,False,NONE
2019-10-26 09:51:45.940,LG-H970,1572083505951.25,-0.755,9.653,-0.724,41.1071439,16.8747851,False,NONE
2019-10-26 09:51:45.960,LG-H970,1572083505972.75,-0.716,10.192,0.157,41.1071439,16.8747851,False,NONE
2019-10-26 09:51:45.980,LG-H970,1572083505989.5,-0.648,9.602,-0.64,41.1071439,16.8747851,False,NONE
2019-10-26 09:51:46.000,LG-H970,1572083506009.5,-0.639,10.083,0.23,41.1071439,16.8747851,False,NONE
2019-10-26 09:51:46.020,LG-H970,1572083506029.25,-0.704,9.752,-0.731,41.1071439,16.8747851,False,NONE
2019-10-26 09:51:46.040,LG-H970,1572083506047.75,-0.721,10.04,0.209,41.1071439,16.8747851,True,NONE
2019-10-26 09:51:46.060,LG-H970,1572083506067.5,-0.656,9.668,-0.651,41.1071439,16.8747851,True,NONE
2019-10-26 09:51:46.080,LG-H970,1572083506087.5,-0.66,10.08,0.267,41.1071439,16.8747851,False,NONE
2019-10-26 09:51:46.100,LG-H970,1572083506107.75,-0.697,9.7,-0.598,41.1071439,16.8747851,False,NONE
2019-10-26 09:51:46.120,LG-H970,1572083506127.75,-0.752,10.031,0.194,41.1071439,16.8747851,False,NONE
2019-10-26 09:51:46.140,LG-H970,1572083506147.75,-0.645,9.797,-0.613,41.1071439,16.8747851,False,NONE
2019-10-26 09:51:46.160,LG-H970,1572083506168.75,-0.695,9.898,0.212,41.1071439,16.8747851,False,NONE
2019-10-26 09:51:46.180,LG-H970,1572083506187.5,-0.683,9.804,-0.561,41.1071439,16.8747851,False,NONE
2019-10-26 09:51:46.200,LG-H970,1572083506209.6,-0.692,10.106,0.1,41.1071439,16.8747851,False,NONE
2019-10-26 09:51:46.220,LG-H970,1572083506231.75,-0.67,9.536,-0.723,41.1071439,16.8747851,False,NONE
2019-10-26 09:51:46.240,LG-H970,1572083506251.75,-0.626,10.105,0.28,41.1071439,16.8747851,False,NONE
2019-10-26 09:51:46.260,LG-H970,1572083506270.75,-0.685,9.739,-0.796,41.1071439,16.8747851,False,NONE
2019-10-26 09:51:46.280,LG-H970,1572083506291.0,-0.72,10.098,0.271,41.1071439,16.8747851,False,NONE
2019-10-26 09:51:46.300,LG-H970,1572083506311.25,-0.642,9.643,-0.729,41.1071439,16.8747851,False,NONE
2019-10-26 09:51:46.320,LG-H970,1572083506331.0,-0.611,10.08,0.261,41.1071439,16.8747851,False,NONE
2019-10-26 09:51:46.340,LG-H970,1572083506350.5,-0.69,9.625,-0.696,41.1071439,16.8747851,False,NONE
2019-10-26 09:51:46.360,LG-H970,1572083506370.75,-0.765,10.064,0.215,41.1071439,16.8747851,False,NONE
2019-10-26 09:51:46.380,LG-H970,1572083506389.75,-0.654,9.815,-0.656,41.1071439,16.8747851,False,NONE
2019-10-26 09:51:46.400,LG-H970,1572083506409.0,-0.638,9.955,0.267,41.1071439,16.8747851,False,NONE
2019-10-26 09:51:46.420,LG-H970,1572083506428.75,-0.638,9.755,-0.571,41.1071439,16.8747851,False,NONE
2019-10-26 09:51:46.440,LG-H970,1572083506450.0,-0.776,10.047,0.104,41.1071439,16.8747851,False,NONE
2019-10-26 09:51:46.460,LG-H970,1572083506469.0,-0.682,9.802,-0.535,41.1071439,16.8747851,False,NONE
2019-10-26 09:51:46.480,LG-H970,1572083506489.8,-0.678,9.97,0.171,41.1071439,16.8747851,False,NONE
2019-10-26 09:51:46.500,LG-H970,1572083506512.25,-0.651,9.694,-0.742,41.1071439,16.8747851,False,NONE
2019-10-26 09:51:46.520,LG-H970,1572083506532.25,-0.705,10.075,0.256,41.1071439,16.8747851,False,NONE
2019-10-26 09:51:46.540,LG-H970,1572083506551.5,-0.699,9.628,-0.741,41.1071439,16.8747851,False,NONE
2019-10-26 09:51:46.560,LG-H970,1572083506570.75,-0.678,10.119,0.219,41.1071439,16.8747851,False,NONE
2019-10-26 09:51:46.580,LG-H970,1572083506590.75,-0.653,9.659,-0.674,41.1071439,16.8747851,False,NONE
2019-10-26 09:51:46.600,LG-H970,1572083506610.5,-0.692,10.066,0.205,41.1071439,16.8747851,False,NONE
2019-10-26 09:51:46.620,LG-H970,1572083506630.5,-0.663,9.822,-0.678,41.1071439,16.8747851,False,NONE
2019-10-26 09:51:46.640,LG-H970,1572083506650.5,-0.692,9.935,0.183,41.1071439,16.8747851,False,NONE
2019-10-26 09:51:46.660,LG-H970,1572083506670.5,-0.62,9.746,-0.555,41.1071439,16.8747851,False,NONE
2019-10-26 09:51:46.680,LG-H970,1572083506690.75,-0.745,10.042,0.099,41.1071439,16.8747851,False,NONE
2019-10-26 09:51:46.700,LG-H970,1572083506709.75,-0.678,9.816,-0.482,41.1071439,16.8747851,False,NONE
2019-10-26 09:51:46.720,LG-H970,1572083506730.25,-0.681,9.873,0.094,41.1071439,16.8747851,False,NONE
2019-10-26 09:51:46.740,LG-H970,1572083506749.25,-0.56,9.945,-0.439,41.1071439,16.8747851,False,NONE
2019-10-26 09:51:46.760,LG-H970,1572083506768.75,-0.797,9.865,-0.031,41.1071439,16.8747851,False,NONE
2019-10-26 09:51:46.780,LG-H970,1572083506788.5,-0.682,9.913,-0.382,41.1071439,16.8747851,False,NONE
2019-10-26 09:51:46.800,LG-H970,1572083506808.75,-0.656,9.846,-0.084,41.1071439,16.8747851,False,NONE
2019-10-26 09:51:46.820,LG-H970,1572083506828.75,-0.569,9.928,-0.304,41.1071439,16.8747851,False,NONE
2019-10-26 09:51:46.840,LG-H970,1572083506848.75,-0.845,9.782,-0.176,41.1071439,16.8747851,False,NONE
2019-10-26 09:51:46.860,LG-H970,1572083506867.75,-0.681,10.086,-0.319,41.1071439,16.8747851,False,NONE
2019-10-26 09:51:46.880,LG-H970,1572083506889.8,-0.654,9.774,-0.041,41.1071439,16.8747851,False,NONE
2019-10-26 09:51:46.900,LG-H970,1572083506911.75,-0.592,9.735,-0.529,41.1071439,16.8747851,False,NONE
2019-10-26 09:51:46.920,LG-H970,1572083506932.0,-0.799,10.006,0.055,41.1071439,16.8747851,False,NONE
2019-10-26 09:51:46.940,LG-H970,1572083506952.6667,-0.65,10.045,-0.341,41.1071439,16.8747851,False,NONE
2019-10-26 09:51:46.960,LG-H970,1572083506966.5,-0.683,9.625,-0.386,41.1071439,16.8747851,False,NONE
2019-10-26 09:51:46.980,LG-H970,1572083506989.2,-0.581,9.974,-0.148,41.1071439,16.8747851,False,NONE
2019-10-26 09:51:47.000,LG-H970,1572083507010.25,-0.779,9.813,-0.123,41.1071439,16.8747851,False,NONE
2019-10-26 09:51:47.020,LG-H970,1572083507030.0,-0.672,9.98,-0.268,41.1071439,16.8747851,False,NONE
2019-10-26 09:51:47.040,LG-H970,1572083507049.75,-0.718,9.833,-0.185,41.1071439,16.8747851,False,NONE
2019-10-26 09:51:47.060,LG-H970,1572083507069.75,-0.587,9.989,-0.189,41.1071439,16.8747851,False,NONE
2019-10-26 09:51:47.080,LG-H970,1572083507089.0,-0.681,9.713,-0.256,41.1071439,16.8747851,False,NONE
2019-10-26 09:51:47.100,LG-H970,1572083507108.5,-0.666,10.086,-0.176,41.1071439,16.8747851,False,NONE
2019-10-26 09:51:47.120,LG-H970,1572083507128.5,-0.787,9.719,-0.382,41.1071439,16.8747851,False,NONE
2019-10-26 09:51:47.140,LG-H970,1572083507148.5,-0.608,9.994,0.03,41.1071439,16.8747851,False,NONE
2019-10-26 09:51:47.160,LG-H970,1572083507168.5,-0.669,9.674,-0.484,41.1071439,16.8747851,False,NONE
2019-10-26 09:51:47.180,LG-H970,1572083507188.25,-0.673,10.126,0.04,41.1071439,16.8747851,False,NONE
2019-10-26 09:51:47.200,LG-H970,1572083507207.5,-0.728,9.677,-0.552,41.1071439,16.8747851,False,NONE
2019-10-26 09:51:47.220,LG-H970,1572083507227.5,-0.655,10.071,0.16,41.1071439,16.8747851,False,NONE
2019-10-26 09:51:47.240,LG-H970,1572083507249.8,-0.66,9.789,-0.423,41.1071439,16.8747851,False,NONE
2019-10-26 09:51:47.260,LG-H970,1572083507271.5,-0.656,10.037,-0.009,41.1071439,16.8747851,False,NONE
2019-10-26 09:51:47.280,LG-H970,1572083507291.75,-0.741,9.725,-0.451,41.1071439,16.8747851,False,NONE
2019-10-26 09:51:47.300,LG-H970,1572083507311.5,-0.607,10.068,0.028,41.1071439,16.8747851,False,NONE
2019-10-26 09:51:47.320,LG-H970,1572083507331.5,-0.681,9.638,-0.523,41.1071439,16.8747851,False,NONE
2019-10-26 09:51:47.340,LG-H970,1572083507350.75,-0.704,10.073,0.145,41.1071439,16.8747851,False,NONE
2019-10-26 09:51:47.360,LG-H970,1572083507370.5,-0.736,9.74,-0.602,41.1071439,16.8747851,False,NONE
2019-10-26 09:51:47.380,LG-H970,1572083507390.0,-0.654,10.054,0.207,41.1071439,16.8747851,False,NONE
2019-10-26 09:51:47.400,LG-H970,1572083507409.75,-0.727,9.621,-0.66,41.1071439,16.8747851,False,NONE
2019-10-26 09:51:47.420,LG-H970,1572083507430.25,-0.678,10.141,0.181,41.1071439,16.8747851,False,NONE
2019-10-26 09:51:47.440,LG-H970,1572083507449.5,-0.708,9.604,-0.662,41.1071439,16.8747851,False,NONE
2019-10-26 09:51:47.460,LG-H970,1572083507469.5,-0.684,10.082,0.249,41.1071439,16.8747851,False,NONE
2019-10-26 09:51:47.480,LG-H970,1572083507487.5,-0.667,9.739,-0.723,41.1071439,16.8747851,False,NONE
2019-10-26 09:51:47.500,LG-H970,1572083507507.5,-0.678,10.074,0.27,41.1071439,16.8747851,False,NONE
2019-10-26 09:51:47.520,LG-H970,1572083507527.5,-0.706,9.629,-0.72,41.1071439,16.8747851,False,NONE
2019-10-26 09:51:47.540,LG-H970,1572083507547.75,-0.619,10.15,0.247,41.1071439,16.8747851,False,NONE
2019-10-26 09:51:47.560,LG-H970,1572083507568.25,-0.649,9.642,-0.641,41.1071439,16.8747851,False,NONE
2019-10-26 09:51:47.580,LG-H970,1572083507589.8,-0.66,10.121,0.143,41.1071439,16.8747851,False,NONE
2019-10-26 09:51:47.600,LG-H970,1572083507610.3333,-0.68,9.587,-0.853,41.1071439,16.8747851,False,NONE
2019-10-26 09:51:47.620,LG-H970,1572083507631.4,-0.62,10.019,0.175,41.1071439,16.8747851,False,NONE
2019-10-26 09:51:47.640,LG-H970,1572083507650.75,-0.743,9.578,-0.765,41.1071439,16.8747851,False,NONE
2019-10-26 09:51:47.660,LG-H970,1572083507670.25,-0.702,10.243,0.268,41.1071439,16.8747851,False,NONE
2019-10-26 09:51:47.680,LG-H970,1572083507689.5,-0.7,9.619,-0.707,41.1071439,16.8747851,False,NONE
2019-10-26 09:51:47.700,LG-H970,1572083507709.5,-0.631,10.15,0.349,41.1071439,16.8747851,False,NONE
2019-10-26 09:51:47.720,LG-H970,1572083507729.0,-0.663,9.664,-0.754,41.1071439,16.8747851,False,NONE
2019-10-26 09:51:47.740,LG-H970,1572083507749.25,-0.673,10.075,0.319,41.1071439,16.8747851,False,NONE
2019-10-26 09:51:47.760,LG-H970,1572083507768.75,-0.73,9.588,-0.744,41.1071439,16.8747851,False,NONE
2019-10-26 09:51:47.780,LG-H970,1572083507789.25,-0.72,10.148,0.288,41.1071439,16.8747851,False,NONE
2019-10-26 09:51:47.800,LG-H970,1572083507808.75,-0.733,9.632,-0.664,41.1071439,16.8747851,False,NONE
2019-10-26 09:51:47.820,LG-H970,1572083507828.25,-0.727,10.084,0.236,41.1071439,16.8747851,False,NONE
2019-10-26 09:51:47.840,LG-H970,1572083507848.25,-0.623,9.778,-0.732,41.1071439,16.8747851,False,NONE
2019-10-26 09:51:47.860,LG-H970,1572083507867.75,-0.597,9.98,0.222,41.1071439,16.8747851,False,NONE
2019-10-26 09:51:47.880,LG-H970,1572083507887.5,-0.598,9.716,-0.618,41.1071439,16.8747851,False,NONE
2019-10-26 09:51:47.900,LG-H970,1572083507907.5,-0.72,10.088,0.102,41.1071439,16.8747851,False,NONE
2019-10-26 09:51:47.920,LG-H970,1572083507929.6,-0.677,9.729,-0.525,41.1071439,16.8747851,False,NONE
2019-10-26 09:51:47.940,LG-H970,1572083507952.25,-0.623,10.065,0.269,41.1071439,16.8747851,False,NONE
2019-10-26 09:51:47.960,LG-H970,1572083507971.3333,-0.567,9.844,-0.743,41.1071439,16.8747851,False,NONE
2019-10-26 09:51:47.980,LG-H970,1572083507988.6,-0.742,9.913,0.054,41.1071439,16.8747851,False,NONE
2019-10-26 09:51:48.000,LG-H970,1572083508010.25,-0.681,9.685,-0.624,41.1071439,16.8747851,False,NONE
2019-10-26 09:51:48.020,LG-H970,1572083508030.5,-0.655,10.08,0.173,41.1071439,16.8747851,False,NONE
2019-10-26 09:51:48.040,LG-H970,1572083508050.5,-0.66,9.726,-0.544,41.1071439,16.8747851,False,NONE
2019-10-26 09:51:48.060,LG-H970,1572083508070.75,-0.791,9.982,0.112,41.1071439,16.8747851,False,NONE
2019-10-26 09:51:48.080,LG-H970,1572083508089.75,-0.667,9.919,-0.578,41.1071439,16.8747851,False,NONE
2019-10-26 09:51:48.100,LG-H970,1572083508109.5,-0.681,9.861,0.058,41.1071439,16.8747851,False,NONE
2019-10-26 09:51:48.120,LG-H970,1572083508129.5,-0.598,9.828,-0.364,41.1071439,16.8747851,False,NONE
2019-10-26 09:51:48.140,LG-H970,1572083508149.0,-0.739,9.92,-0.074,41.1071439,16.8747851,False,NONE
2019-10-26 09:51:48.160,LG-H970,1572083508168.5,-0.632,9.951,-0.359,41.1071439,16.8747851,False,NONE
2019-10-26 09:51:48.180,LG-H970,1572083508188.5,-0.688,9.788,-0.098,41.1071439,16.8747851,False,NONE
2019-10-26 09:51:48.200,LG-H970,1572083508208.0,-0.62,10.028,-0.314,41.1071439,16.8747851,False,NONE
2019-10-26 09:51:48.220,LG-H970,1572083508228.0,-0.764,9.749,-0.226,41.1071439,16.8747851,False,NONE
2019-10-26 09:51:48.240,LG-H970,1572083508247.75,-0.626,10.044,-0.168,41.1071439,16.8747851,False,NONE
2019-10-26 09:51:48.260,LG-H970,1572083508268.0,-0.755,9.781,-0.334,41.1071439,16.8747851,False,NONE
2019-10-26 09:51:48.280,LG-H970,1572083508287.25,-0.637,10.059,-0.104,41.1071439,16.8747851,False,NONE
2019-10-26 09:51:48.300,LG-H970,1572083508309.4,-0.703,9.702,-0.211,41.1071439,16.8747851,False,NONE
2019-10-26 09:51:48.320,LG-H970,1572083508332.0,-0.634,9.995,-0.361,41.1071439,16.8747851,False,NONE
2019-10-26 09:51:48.340,LG-H970,1572083508351.5,-0.773,9.769,-0.209,41.1071439,16.8747851,False,NONE
2019-10-26 09:51:48.360,LG-H970,1572083508371.0,-0.618,9.952,-0.182,41.1071439,16.8747851,False,NONE
2019-10-26 09:51:48.380,LG-H970,1572083508391.0,-0.702,9.782,-0.264,41.1071439,16.8747851,False,NONE
2019-10-26 09:51:48.400,LG-H970,1572083508410.75,-0.606,10.053,-0.153,41.1071439,16.8747851,False,NONE
2019-10-26 09:51:48.420,LG-H970,1572083508430.25,-0.737,9.735,-0.303,41.1071439,16.8747851,False,NONE
2019-10-26 09:51:48.440,LG-H970,1572083508449.75,-0.631,10.09,-0.075,41.1071439,16.8747851,False,NONE
2019-10-26 09:51:48.460,LG-H970,1572083508470.5,-0.711,9.712,-0.429,41.1071439,16.8747851,False,NONE
2019-10-26 09:51:48.480,LG-H970,1572083508489.25,-0.621,10.031,0.071,41.1071439,16.8747851,False,NONE
2019-10-26 09:51:48.500,LG-H970,1572083508507.75,-0.759,9.667,-0.541,41.1071439,16.8747851,False,NONE
2019-10-26 09:51:48.520,LG-H970,1572083508528.5,-0.654,10.101,0.074,41.1071439,16.8747851,False,NONE
2019-10-26 09:51:48.540,LG-H970,1572083508548.25,-0.716,9.614,-0.562,41.1071439,16.8747851,False,NONE
2019-10-26 09:51:48.560,LG-H970,1572083508569.25,-0.691,10.112,0.191,41.1071439,16.8747851,False,NONE
2019-10-26 09:51:48.580,LG-H970,1572083508589.6,-0.685,9.806,-0.49,41.1071439,16.8747851,False,NONE
2019-10-26 09:51:48.600,LG-H970,1572083508612.0,-0.596,10.047,-0.009,41.1071439,16.8747851,False,NONE
2019-10-26 09:51:48.620,LG-H970,1572083508632.5,-0.746,9.7,-0.531,41.1071439,16.8747851,False,NONE
2019-10-26 09:51:48.640,LG-H970,1572083508651.75,-0.655,10.127,0.035,41.1071439,16.8747851,False,NONE
2019-10-26 09:51:48.660,LG-H970,1572083508671.5,-0.705,9.603,-0.512,41.1071439,16.8747851,False,NONE
2019-10-26 09:51:48.680,LG-H970,1572083508691.0,-0.602,10.117,0.191,41.1071439,16.8747851,False,NONE
2019-10-26 09:51:48.700,LG-H970,1572083508710.75,-0.662,9.649,-0.617,41.1071439,16.8747851,False,NONE
2019-10-26 09:51:48.720,LG-H970,1572083508730.5,-0.602,10.085,0.225,41.1071439,16.8747851,False,NONE
2019-10-26 09:51:48.740,LG-H970,1572083508749.75,-0.71,9.678,-0.717,41.1071439,16.8747851,False,NONE
2019-10-26 09:51:48.760,LG-H970,1572083508769.5,-0.646,10.119,0.274,41.1071439,16.8747851,False,NONE
2019-10-26 09:51:48.780,LG-H970,1572083508789.75,-0.668,9.581,-0.634,41.1071439,16.8747851,False,NONE
2019-10-26 09:51:48.800,LG-H970,1572083508809.5,-0.705,10.142,0.253,41.1071439,16.8747851,False,NONE
2019-10-26 09:51:48.820,LG-H970,1572083508828.75,-0.767,9.66,-0.742,41.1071439,16.8747851,False,NONE
2019-10-26 09:51:48.840,LG-H970,1572083508848.5,-0.696,10.093,0.253,41.1071439,16.8747851,False,NONE
2019-10-26 09:51:48.860,LG-H970,1572083508868.5,-0.701,9.567,-0.693,41.1071439,16.8747851,False,NONE
2019-10-26 09:51:48.880,LG-H970,1572083508888.5,-0.68,10.179,0.251,41.1071439,16.8747851,False,NONE
2019-10-26 09:51:48.900,LG-H970,1572083508907.75,-0.788,9.607,-0.711,41.1071439,16.8747851,False,NONE
2019-10-26 09:51:48.920,LG-H970,1572083508927.5,-0.687,10.092,0.281,41.1071439,16.8747851,False,NONE
2019-10-26 09:51:48.940,LG-H970,1572083508947.75,-0.639,9.722,-0.729,41.1071439,16.8747851,False,NONE
2019-10-26 09:51:48.960,LG-H970,1572083508969.75,-0.644,10.056,0.318,41.1071439,16.8747851,False,NONE
2019-10-26 09:51:48.980,LG-H970,1572083508989.2,-0.67,9.714,-0.605,41.1071439,16.8747851,False,NONE
2019-10-26 09:51:49.000,LG-H970,1572083509012.75,-0.555,10.219,0.249,41.1071439,16.8747851,False,NONE
2019-10-26 09:51:49.020,LG-H970,1572083509030.75,-0.649,9.524,-0.68,41.1071439,16.8747851,False,NONE
2019-10-26 09:51:49.040,LG-H970,1572083509050.75,-0.632,10.171,0.285,41.1071439,16.8747851,False,NONE
2019-10-26 09:51:49.060,LG-H970,1572083509071.0,-0.678,9.619,-0.806,41.1071439,16.8747851,False,NONE
2019-10-26 09:51:49.080,LG-H970,1572083509090.0,-0.592,10.158,0.315,41.1071439,16.8747851,False,NONE
2019-10-26 09:51:49.100,LG-H970,1572083509110.25,-0.717,9.569,-0.736,41.1071439,16.8747851,False,NONE
2019-10-26 09:51:49.120,LG-H970,1572083509128.75,-0.703,10.215,0.292,41.1071439,16.8747851,False,NONE
2019-10-26 09:51:49.140,LG-H970,1572083509148.75,-0.754,9.621,-0.732,41.1071439,16.8747851,False,NONE
2019-10-26 09:51:49.160,LG-H970,1572083509169.0,-0.74,10.116,0.301,41.1071439,16.8747851,False,NONE
2019-10-26 09:51:49.180,LG-H970,1572083509189.5,-0.718,9.683,-0.737,41.1071439,16.8747851,False,NONE
2019-10-26 09:51:49.200,LG-H970,1572083509209.0,-0.708,10.049,0.307,41.1071439,16.8747851,False,NONE
2019-10-26 09:51:49.220,LG-H970,1572083509228.25,-0.734,9.643,-0.679,41.1071439,16.8747851,False,NONE
2019-10-26 09:51:49.240,LG-H970,1572083509248.25,-0.744,10.128,0.221,41.1071439,16.8747851,False,NONE
2019-10-26 09:51:49.260,LG-H970,1572083509268.0,-0.665,9.716,-0.607,41.1071439,16.8747851,False,NONE
2019-10-26 09:51:49.280,LG-H970,1572083509287.75,-0.654,9.999,0.187,41.1071439,16.8747851,False,NONE
2019-10-26 09:51:49.300,LG-H970,1572083509307.5,-0.598,9.831,-0.611,41.1071439,16.8747851,False,NONE
2019-10-26 09:51:49.320,LG-H970,1572083509329.6,-0.655,9.994,0.133,41.1071439,16.8747851,False,NONE
2019-10-26 09:51:49.340,LG-H970,1572083509351.75,-0.646,9.621,-0.741,41.1071439,16.8747851,False,NONE
2019-10-26 09:51:49.360,LG-H970,1572083509371.5,-0.627,10.13,0.242,41.1071439,16.8747851,False,NONE
2019-10-26 09:51:49.380,LG-H970,1572083509388.6667,-0.562,9.787,-0.679,41.1071439,16.8747851,False,NONE
2019-10-26 09:51:49.400,LG-H970,1572083509409.4,-0.713,9.887,0.064,41.1071439,16.8747851,False,NONE
2019-10-26 09:51:49.420,LG-H970,1572083509431.5,-0.631,9.775,-0.723,41.1071439,16.8747851,False,NONE
2019-10-26 09:51:49.440,LG-H970,1572083509451.0,-0.665,10.013,0.211,41.1071439,16.8747851,False,NONE
2019-10-26 09:51:49.460,LG-H970,1572083509467.6667,-0.594,9.875,-0.517,41.1071439,16.8747851,False,NONE
2019-10-26 09:51:49.480,LG-H970,1572083509488.0,-0.736,9.89,-0.059,41.1071439,16.8747851,False,NONE
2019-10-26 09:51:49.500,LG-H970,1572083509508.5,-0.687,9.773,-0.519,41.1071439,16.8747851,False,NONE
2019-10-26 09:51:49.520,LG-H970,1572083509528.5,-0.739,9.954,0.101,41.1071439,16.8747851,False,NONE
2019-10-26 09:51:49.540,LG-H970,1572083509548.75,-0.667,9.925,-0.478,41.1071439,16.8747851,False,NONE
2019-10-26 09:51:49.560,LG-H970,1572083509567.3333,-0.757,9.826,-0.2,41.1071439,16.8747851,False,NONE
2019-10-26 09:51:49.580,LG-H970,1572083509588.25,-0.631,9.831,-0.416,41.1071439,16.8747851,False,NONE
2019-10-26 09:51:49.600,LG-H970,1572083509607.25,-0.699,9.882,-0.067,41.1071439,16.8747851,False,NONE
2019-10-26 09:51:49.620,LG-H970,1572083509629.8,-0.665,9.728,-0.462,41.1071439,16.8747851,False,NONE
2019-10-26 09:51:49.640,LG-H970,1572083509652.25,-0.696,10.103,0.248,41.1071439,16.8747851,False,NONE
2019-10-26 09:51:49.660,LG-H970,1572083509670.0,-0.598,9.963,-0.68,41.1071439,16.8747851,False,NONE
2019-10-26 09:51:49.680,LG-H970,1572083509689.8,-0.678,9.839,0.045,41.1071439,16.8747851,False,NONE
2019-10-26 09:51:49.700,LG-H970,1572083509712.25,-0.654,9.727,-0.671,41.1071439,16.8747851,False,NONE
2019-10-26 09:51:49.720,LG-H970,1572083509731.5,-0.729,10.126,0.192,41.1071439,16.8747851,False,NONE
2019-10-26 09:51:49.740,LG-H970,1572083509751.0,-0.614,9.73,-0.623,41.1071439,16.8747851,False,NONE
2019-10-26 09:51:49.760,LG-H970,1572083509770.25,-0.651,9.96,0.195,41.1071439,16.8747851,False,NONE
2019-10-26 09:51:49.780,LG-H970,1572083509790.75,-0.646,9.834,-0.608,41.1071439,16.8747851,False,NONE
2019-10-26 09:51:49.800,LG-H970,1572083509810.25,-0.763,9.912,0.162,41.1071439,16.8747851,False,NONE
2019-10-26 09:51:49.820,LG-H970,1572083509830.5,-0.63,9.793,-0.547,41.1071439,16.8747851,False,NONE
2019-10-26 09:51:49.840,LG-H970,1572083509850.25,-0.654,10.02,0.075,41.1071439,16.8747851,False,NONE
2019-10-26 09:51:49.860,LG-H970,1572083509870.25,-0.621,9.822,-0.5,41.1071439,16.8747851,False,NONE
2019-10-26 09:51:49.880,LG-H970,1572083509889.5,-0.735,9.875,0.048,41.1071439,16.8747851,False,NONE
2019-10-26 09:51:49.900,LG-H970,1572083509909.25,-0.618,9.991,-0.509,41.1071439,16.8747851,False,NONE
2019-10-26 09:51:49.920,LG-H970,1572083509928.75,-0.771,9.839,-0.028,41.1071439,16.8747851,False,NONE
2019-10-26 09:51:49.940,LG-H970,1572083509948.25,-0.656,9.846,-0.312,41.1071439,16.8747851,False,NONE
2019-10-26 09:51:49.960,LG-H970,1572083509970.5,-0.699,9.868,-0.137,41.1071439,16.8747851,False,NONE
2019-10-26 09:51:49.980,LG-H970,1572083509989.6,-0.675,9.778,-0.419,41.1071439,16.8747851,False,NONE
2019-10-26 09:51:50.000,LG-H970,1572083510012.3333,-0.738,10.02,0.088,41.1071439,16.8747851,False,NONE
2019-10-26 09:51:50.020,LG-H970,1572083510032.0,-0.634,9.83,-0.653,41.1071439,16.8747851,False,NONE
2019-10-26 09:51:50.040,LG-H970,1572083510051.75,-0.647,9.956,0.225,41.1071439,16.8747851,False,NONE
2019-10-26 09:51:50.060,LG-H970,1572083510071.5,-0.644,9.784,-0.558,41.1071439,16.8747851,False,NONE
2019-10-26 09:51:50.080,LG-H970,1572083510091.75,-0.772,10.052,0.081,41.1071439,16.8747851,False,NONE
2019-10-26 09:51:50.100,LG-H970,1572083510110.75,-0.612,9.836,-0.549,41.1071439,16.8747851,False,NONE
2019-10-26 09:51:50.120,LG-H970,1572083510130.75,-0.646,9.851,0.107,41.1071439,16.8747851,False,NONE
2019-10-26 09:51:50.140,LG-H970,1572083510150.75,-0.568,9.942,-0.467,41.1071439,16.8747851,False,NONE
2019-10-26 09:51:50.160,LG-H970,1572083510170.0,-0.779,9.834,-0.048,41.1071439,16.8747851,False,NONE
2019-10-26 09:51:50.180,LG-H970,1572083510189.25,-0.636,9.898,-0.365,41.1071439,16.8747851,False,NONE
2019-10-26 09:51:50.200,LG-H970,1572083510209.25,-0.684,9.893,-0.113,41.1071439,16.8747851,False,NONE
2019-10-26 09:51:50.220,LG-H970,1572083510228.75,-0.585,9.942,-0.322,41.1071439,16.8747851,False,NONE
2019-10-26 09:51:50.240,LG-H970,1572083510248.5,-0.804,9.751,-0.15,41.1071439,16.8747851,False,NONE
2019-10-26 09:51:50.260,LG-H970,1572083510268.5,-0.649,10.045,-0.258,41.1071439,16.8747851,False,NONE
2019-10-26 09:51:50.280,LG-H970,1572083510288.5,-0.738,9.724,-0.228,41.1071439,16.8747851,False,NONE
2019-10-26 09:51:50.300,LG-H970,1572083510307.5,-0.575,10.021,-0.126,41.1071439,16.8747851,False,NONE
2019-10-26 09:51:50.320,LG-H970,1572083510329.8,-0.78,9.866,-0.139,41.1071439,16.8747851,False,NONE
2019-10-26 09:51:50.340,LG-H970,1572083510352.0,-0.663,9.784,-0.51,41.1071439,16.8747851,False,NONE
2019-10-26 09:51:50.360,LG-H970,1572083510369.6667,-0.68,9.8,-0.126,41.1071439,16.8747851,False,NONE
2019-10-26 09:51:50.380,LG-H970,1572083510389.8,-0.633,9.978,-0.261,41.1071439,16.8747851,False,NONE
2019-10-26 09:51:50.400,LG-H970,1572083510411.5,-0.787,9.875,-0.013,41.1071439,16.8747851,False,NONE
2019-10-26 09:51:50.420,LG-H970,1572083510431.0,-0.606,9.902,-0.402,41.1071439,16.8747851,False,NONE
2019-10-26 09:51:50.440,LG-H970,1572083510449.0,-0.67,9.76,-0.363,41.1071439,16.8747851,False,NONE
2019-10-26 09:51:50.460,LG-H970,1572083510466.75,-0.584,10.1,0.096,41.1071439,16.8747851,False,NONE
2019-10-26 09:51:50.480,LG-H970,1572083510489.4,-0.763,9.698,-0.315,41.1071439,16.8747851,False,NONE
2019-10-26 09:51:50.500,LG-H970,1572083510510.0,-0.608,10.067,-0.306,41.1071439,16.8747851,False,NONE
2019-10-26 09:51:50.520,LG-H970,1572083510528.5,-0.711,9.735,-0.206,41.1071439,16.8747851,False,NONE
2019-10-26 09:51:50.540,LG-H970,1572083510548.5,-0.605,9.968,-0.137,41.1071439,16.8747851,False,NONE
2019-10-26 09:51:50.560,LG-H970,1572083510568.5,-0.751,9.779,-0.317,41.1071439,16.8747851,False,NONE
2019-10-26 09:51:50.580,LG-H970,1572083510590.0,-0.626,10.067,-0.13,41.1071439,16.8747851,False,NONE
2019-10-26 09:51:50.600,LG-H970,1572083510608.5,-0.721,9.698,-0.327,41.1071439,16.8747851,False,NONE
2019-10-26 09:51:50.620,LG-H970,1572083510627.5,-0.611,10.107,-0.028,41.1071439,16.8747851,False,NONE
2019-10-26 09:51:50.640,LG-H970,1572083510647.5,-0.749,9.671,-0.448,41.1071439,16.8747851,False,NONE
2019-10-26 09:51:50.660,LG-H970,1572083510667.5,-0.62,10.077,0.066,41.1071439,16.8747851,False,NONE
2019-10-26 09:51:50.680,LG-H970,1572083510689.8,-0.735,9.765,-0.332,41.1071439,16.8747851,False,NONE
2019-10-26 09:51:50.700,LG-H970,1572083510711.75,-0.636,9.947,-0.27,41.1071439,16.8747851,False,NONE
2019-10-26 09:51:50.720,LG-H970,1572083510731.75,-0.717,9.713,-0.161,41.1071439,16.8747851,False,NONE
2019-10-26 09:51:50.740,LG-H970,1572083510751.25,-0.633,10.035,-0.204,41.1071439,16.8747851,False,NONE
2019-10-26 09:51:50.760,LG-H970,1572083510771.25,-0.787,9.768,-0.314,41.1071439,16.8747851,False,NONE
2019-10-26 09:51:50.780,LG-H970,1572083510791.5,-0.642,10.014,-0.074,41.1071439,16.8747851,False,NONE
2019-10-26 09:51:50.800,LG-H970,1572083510811.5,-0.69,9.702,-0.398,41.1071439,16.8747851,False,NONE
2019-10-26 09:51:50.820,LG-H970,1572083510830.75,-0.575,10.079,-0.015,41.1071439,16.8747851,False,NONE
2019-10-26 09:51:50.840,LG-H970,1572083510850.75,-0.725,9.687,-0.467,41.1071439,16.8747851,False,NONE
2019-10-26 09:51:50.860,LG-H970,1572083510870.5,-0.684,10.122,0.055,41.1071439,16.8747851,False,NONE
2019-10-26 09:51:50.880,LG-H970,1572083510887.3333,-0.731,9.621,-0.732,41.1071439,16.8747851,False,NONE
2019-10-26 09:51:50.900,LG-H970,1572083510907.4,-0.645,10.035,0.116,41.1071439,16.8747851,False,NONE
2019-10-26 09:51:50.920,LG-H970,1572083510929.5,-0.745,9.648,-0.618,41.1071439,16.8747851,False,NONE
2019-10-26 09:51:50.940,LG-H970,1572083510948.75,-0.675,10.128,0.175,41.1071439,16.8747851,False,NONE
2019-10-26 09:51:50.960,LG-H970,1572083510968.75,-0.671,9.594,-0.628,41.1071439,16.8747851,False,NONE
2019-10-26 09:51:50.980,LG-H970,1572083510990.0,-0.622,10.079,0.049,41.1071439,16.8747851,False,NONE
2019-10-26 09:51:51.000,LG-H970,1572083511012.0,-0.746,9.672,-0.468,41.1071439,16.8747851,False,NONE
2019-10-26 09:51:51.020,LG-H970,1572083511032.25,-0.648,10.092,0.039,41.1071439,16.8747851,False,NONE
