UTC_timestamp,device_name,timestamp,x,y,z,lat,long,event,speed
2019-10-27 16:08:54.160,LG-H970,1572192534167.25,2.171,8.756,-4.21,41.1071741,16.8743663,False,4.561
2019-10-27 16:08:54.180,LG-H970,1572192534187.0,3.014,9.562,-2.775,41.1071741,16.8743663,False,4.561
2019-10-27 16:08:54.200,LG-H970,1572192534209.2,2.178,9.537,-1.218,41.1071741,16.8743663,False,4.561
2019-10-27 16:08:54.220,LG-H970,1572192534231.0,1.467,9.124,-2.691,41.1071741,16.8743663,False,4.561
2019-10-27 16:08:54.240,LG-H970,1572192534250.75,1.337,8.718,-2.42,41.1071741,16.8743663,False,4.561
2019-10-27 16:08:54.260,LG-H970,1572192534271.5,0.517,8.816,-1.501,41.1071741,16.8743663,False,4.561
2019-10-27 16:08:54.280,LG-H970,1572192534290.75,-0.525,10.434,-0.741,41.1071741,16.8743663,False,4.561
2019-10-27 16:08:54.300,LG-H970,1572192534311.0,-0.687,10.317,-1.04,41.1071741,16.8743663,False,4.561
2019-10-27 16:08:54.320,LG-H970,1572192534329.5,0.152,9.867,-1.358,41.1071741,16.8743663,False,4.561
2019-10-27 16:08:54.340,LG-H970,1572192534349.5,-0.486,8.935,-2.26,41.1071741,16.8743663,False,4.561
2019-10-27 16:08:54.360,LG-H970,1572192534369.25,-2.02,8.843,-2.476,41.1071741,16.8743663,False,4.561
2019-10-27 16:08:54.380,LG-H970,1572192534390.25,-0.558,9.696,-2.602,41.1071741,16.8743663,False,4.561
2019-10-27 16:08:54.400,LG-H970,1572192534409.25,1.503,9.389,-0.727,41.1071741,16.8743663,False,4.561
2019-10-27 16:08:54.420,LG-H970,1572192534428.0,0.98,9.72,-1.406,41.1071741,16.8743663,False,4.561
2019-10-27 16:08:54.440,LG-H970,1572192534450.8,0.267,9.768,-3.501,41.1071741,16.8743663,False,4.561
2019-10-27 16:08:54.460,LG-H970,1572192534469.6667,2.379,8.616,-2.529,41.1071741,16.8743663,False,4.561
2019-10-27 16:08:54.480,LG-H970,1572192534488.5,3.578,8.764,-1.471,41.1071741,16.8743663,False,4.561
2019-10-27 16:08:54.500,LG-H970,1572192534507.0,2.066,9.764,-2.713,41.1071741,16.8743663,False,4.561
2019-10-27 16:08:54.520,LG-H970,1572192534527.0,1.386,10.144,-4.119,41.1071741,16.8743663,False,4.561
2019-10-27 16:08:54.540,LG-H970,1572192534548.4,3.523,9.019,-2.61,41.1071741,16.8743663,False,4.561
2019-10-27 16:08:54.560,LG-H970,1572192534571.5,2.679,8.689,-2.101,41.1071741,16.8743663,False,4.561
2019-10-27 16:08:54.580,LG-H970,1572192534591.0,-0.127,9.471,-2.976,41.1071741,16.8743663,False,4.561
2019-10-27 16:08:54.600,LG-H970,1572192534611.75,1.216,9.637,-2.269,41.1071741,16.8743663,False,4.561
2019-10-27 16:08:54.620,LG-H970,1572192534627.6667,3.327,8.661,-0.434,41.1071741,16.8743663,False,4.561
2019-10-27 16:08:54.640,LG-H970,1572192534648.4,1.809,9.978,-1.912,41.1071741,16.8743663,False,4.561
2019-10-27 16:08:54.660,LG-H970,1572192534667.6667,-0.481,10.052,-2.754,41.1071741,16.8743663,False,4.561
2019-10-27 16:08:54.680,LG-H970,1572192534689.6,1.648,9.921,-2.355,41.1071741,16.8743663,False,4.561
2019-10-27 16:08:54.700,LG-H970,1572192534707.5,2.001,9.269,-1.676,41.1071741,16.8743663,False,4.561
2019-10-27 16:08:54.720,LG-H970,1572192534728.5,0.037,9.968,-3.369,41.1071741,16.8743663,False,4.561
2019-10-27 16:08:54.740,LG-H970,1572192534748.5,0.277,9.128,-2.809,41.1071741,16.8743663,False,4.561
2019-10-27 16:08:54.760,LG-H970,1572192534769.0,1.96,8.899,-1.318,41.1071741,16.8743663,False,4.561
2019-10-27 16:08:54.780,LG-H970,1572192534788.75,0.829,9.557,-1.799,41.1071741,16.8743663,False,4.561
2019-10-27 16:08:54.800,LG-H970,1572192534809.5,-0.299,9.803,-3.036,41.1071741,16.8743663,False,4.561
2019-10-27 16:08:54.820,LG-H970,1572192534829.2,1.702,8.777,-1.894,41.1071741,16.8743663,False,4.561
2019-10-27 16:08:54.840,LG-H970,1572192534852.25,1.872,8.93,-1.873,41.1071741,16.8743663,False,4.561
2019-10-27 16:08:54.860,LG-H970,1572192534870.75,-0.368,9.523,-2.598,41.1071741,16.8743663,False,4.561
2019-10-27 16:08:54.880,LG-H970,1572192534890.5,0.39,9.366,-2.498,41.1071741,16.8743663,False,4.561
2019-10-27 16:08:54.900,LG-H970,1572192534911.5,1.876,8.578,-1.18,41.1071741,16.8743663,False,4.561
2019-10-27 16:08:54.920,LG-H970,1572192534931.0,0.969,9.388,-2.202,41.1071741,16.8743663,False,4.561
2019-10-27 16:08:54.940,LG-H970,1572192534950.75,0.262,9.605,-2.89,41.1071741,16.8743663,False,4.561
2019-10-27 16:08:54.960,LG-H970,1572192534970.25,2.072,9.659,-2.026,41.1071741,16.8743663,False,4.561
2019-10-27 16:08:54.980,LG-H970,1572192534990.5,1.665,9.229,-1.24,41.1071741,16.8743663,False,4.561
2019-10-27 16:08:55.000,LG-H970,1572192535009.5,-0.172,9.894,-2.877,41.1071741,16.8743663,False,4.561
2019-10-27 16:08:55.020,LG-H970,1572192535030.75,1.099,9.733,-2.933,41.1071741,16.8743663,False,4.561
2019-10-27 16:08:55.040,LG-H970,1572192535047.75,3.11,8.993,-1.241,41.1071741,16.8743663,False,4.561
2019-10-27 16:08:55.060,LG-H970,1572192535068.5,1.808,9.221,-2.046,41.1071741,16.8743663,False,4.561
2019-10-27 16:08:55.080,LG-H970,1572192535088.5,-0.231,9.639,-3.581,41.1071741,16.8743663,False,4.561
2019-10-27 16:08:55.100,LG-H970,1572192535109.0,0.721,9.36,-2.555,41.1071741,16.8743663,False,4.561
2019-10-27 16:08:55.120,LG-H970,1572192535128.5,2.063,9.5,-1.391,41.1071741,16.8743663,False,4.561
2019-10-27 16:08:55.140,LG-H970,1572192535148.25,1.337,9.228,-1.989,41.1071741,16.8743663,False,4.561
2019-10-27 16:08:55.160,LG-H970,1572192535168.0,1.645,9.21,-2.789,41.1071741,16.8743663,False,4.561
2019-10-27 16:08:55.180,LG-H970,1572192535188.75,2.044,8.806,-2.016,41.1071741,16.8743663,False,4.561
2019-10-27 16:08:55.200,LG-H970,1572192535208.5,1.022,9.585,-1.734,41.1071741,16.8743663,False,4.561
2019-10-27 16:08:55.220,LG-H970,1572192535227.0,0.927,9.875,-2.388,41.1071741,16.8743663,False,4.561
2019-10-27 16:08:55.240,LG-H970,1572192535247.25,2.652,9.329,-1.567,41.1071741,16.8743663,False,4.561
2019-10-27 16:08:55.260,LG-H970,1572192535269.0,1.803,8.955,-1.46,41.1071741,16.8743663,False,4.561
2019-10-27 16:08:55.280,LG-H970,1572192535291.0,0.173,10.231,-3.033,41.1071741,16.8743663,False,4.561
2019-10-27 16:08:55.300,LG-H970,1572192535309.6667,1.324,9.787,-1.907,41.1071741,16.8743663,False,4.561
2019-10-27 16:08:55.320,LG-H970,1572192535328.4,3.377,9.929,-1.715,41.1071741,16.8743663,False,4.561
2019-10-27 16:08:55.340,LG-H970,1572192535352.25,1.514,9.802,-2.138,41.1071741,16.8743663,False,4.561
2019-10-27 16:08:55.360,LG-H970,1572192535369.0,-0.287,9.482,-3.073,41.1071741,16.8743663,False,4.561
2019-10-27 16:08:55.380,LG-H970,1572192535389.75,1.253,8.797,-2.209,41.1071741,16.8743663,False,4.561
2019-10-27 16:08:55.400,LG-H970,1572192535409.5,2.567,8.83,-1.231,41.1071741,16.8743663,False,4.561
2019-10-27 16:08:55.420,LG-H970,1572192535429.25,1.493,9.442,-2.035,41.1071741,16.8743663,False,4.561
2019-10-27 16:08:55.440,LG-H970,1572192535448.25,0.414,8.917,-2.387,41.1071741,16.8743663,False,4.561
2019-10-27 16:08:55.460,LG-H970,1572192535468.75,1.125,9.095,-2.31,41.1071741,16.8743663,False,4.561
2019-10-27 16:08:55.480,LG-H970,1572192535487.75,2.027,9.5,-1.857,41.1071741,16.8743663,False,4.561
2019-10-27 16:08:55.500,LG-H970,1572192535510.2,1.71,9.687,-2.29,41.1071741,16.8743663,False,4.561
2019-10-27 16:08:55.520,LG-H970,1572192535531.0,0.906,9.349,-2.915,41.1071741,16.8743663,False,4.561
2019-10-27 16:08:55.540,LG-H970,1572192535549.8,0.916,8.803,-1.58,41.1071741,16.8743663,False,4.561
2019-10-27 16:08:55.560,LG-H970,1572192535571.25,1.827,9.213,-2.092,41.1071741,16.8743663,False,4.561
2019-10-27 16:08:55.580,LG-H970,1572192535592.75,2.03,9.832,-1.8,41.1071741,16.8743663,False,4.561
2019-10-27 16:08:55.600,LG-H970,1572192535611.0,1.753,8.938,-2.168,41.1071741,16.8743663,False,4.561
2019-10-27 16:08:55.620,LG-H970,1572192535628.8,1.321,9.419,-2.361,41.1071741,16.8743663,False,4.561
2019-10-27 16:08:55.640,LG-H970,1572192535649.75,0.931,10.206,-2.743,41.1071741,16.8743663,False,4.561
2019-10-27 16:08:55.660,LG-H970,1572192535670.0,1.088,9.295,-0.389,41.1072188,16.874337,False,5.2335
2019-10-27 16:08:55.680,LG-H970,1572192535689.5,2.619,9.362,-1.226,41.1072634,16.8743077,False,5.906000000000001
2019-10-27 16:08:55.700,LG-H970,1572192535709.5,1.587,8.57,-2.02,41.1072634,16.8743077,False,5.906000000000001
2019-10-27 16:08:55.720,LG-H970,1572192535730.0,1.063,9.126,-3.059,41.1072634,16.8743077,False,5.906000000000001
2019-10-27 16:08:55.740,LG-H970,1572192535750.0,2.411,9.742,-2.177,41.1072634,16.8743077,False,5.906000000000001
2019-10-27 16:08:55.760,LG-H970,1572192535769.75,2.908,9.808,-1.12,41.1072634,16.8743077,False,5.906000000000001
2019-10-27 16:08:55.780,LG-H970,1572192535788.75,1.627,9.6,-2.643,41.1072634,16.8743077,False,5.906000000000001
2019-10-27 16:08:55.800,LG-H970,1572192535811.0,0.631,8.888,-2.937,41.1072634,16.8743077,False,5.906000000000001
2019-10-27 16:08:55.820,LG-H970,1572192535828.0,1.906,8.293,-2.344,41.1072634,16.8743077,False,5.906000000000001
2019-10-27 16:08:55.840,LG-H970,1572192535847.75,2.376,9.086,-1.325,41.1072634,16.8743077,False,5.906000000000001
2019-10-27 16:08:55.860,LG-H970,1572192535869.2,0.581,10.389,-2.312,41.1072634,16.8743077,False,5.906000000000001
2019-10-27 16:08:55.880,LG-H970,1572192535889.6667,-0.203,9.418,-1.695,41.1072634,16.8743077,False,5.9060000000000015
2019-10-27 16:08:55.900,LG-H970,1572192535909.4,1.76,8.303,-2.201,41.1072634,16.8743077,False,5.906000000000001
2019-10-27 16:08:55.920,LG-H970,1572192535929.3333,2.611,8.273,-2.459,41.1072634,16.8743077,False,5.9060000000000015
2019-10-27 16:08:55.940,LG-H970,1572192535949.4,0.973,8.531,-1.892,41.1072634,16.8743077,False,5.906000000000001
2019-10-27 16:08:55.960,LG-H970,1572192535970.75,0.502,9.989,-2.036,41.1072634,16.8743077,False,5.906000000000001
2019-10-27 16:08:55.980,LG-H970,1572192535990.0,1.56,9.571,-1.907,41.1072634,16.8743077,False,5.906000000000001
2019-10-27 16:08:56.000,LG-H970,1572192536010.5,2.529,9.424,-1.635,41.1072634,16.8743077,False,5.906000000000001
2019-10-27 16:08:56.020,LG-H970,1572192536030.0,1.701,9.309,-2.023,41.1072634,16.8743077,False,5.906000000000001
2019-10-27 16:08:56.040,LG-H970,1572192536049.75,1.203,9.495,-2.623,41.1072634,16.8743077,False,5.906000000000001
2019-10-27 16:08:56.060,LG-H970,1572192536070.25,2.306,10.061,-2.206,41.1072634,16.8743077,False,5.906000000000001
2019-10-27 16:08:56.080,LG-H970,1572192536090.0,3.09,9.265,-1.42,41.1072634,16.8743077,False,5.906000000000001
2019-10-27 16:08:56.100,LG-H970,1572192536108.5,2.646,9.903,-1.829,41.1072634,16.8743077,False,5.906000000000001
2019-10-27 16:08:56.120,LG-H970,1572192536127.5,1.534,9.398,-3.012,41.1072634,16.8743077,False,5.906000000000001
2019-10-27 16:08:56.140,LG-H970,1572192536148.5,1.754,9.321,-1.72,41.1072634,16.8743077,False,5.906000000000001
2019-10-27 16:08:56.160,LG-H970,1572192536168.5,2.573,9.399,-1.527,41.1072634,16.8743077,False,5.906000000000001
2019-10-27 16:08:56.180,LG-H970,1572192536188.5,2.151,9.469,-1.407,41.1072634,16.8743077,False,5.906000000000001
2019-10-27 16:08:56.200,LG-H970,1572192536207.75,1.0,10.01,-1.863,41.1072634,16.8743077,False,5.906000000000001
2019-10-27 16:08:56.220,LG-H970,1572192536227.0,0.876,9.873,-2.348,41.1072634,16.8743077,False,5.906000000000001
2019-10-27 16:08:56.240,LG-H970,1572192536249.2,1.836,10.372,-1.749,41.1072634,16.8743077,False,5.906000000000001
2019-10-27 16:08:56.260,LG-H970,1572192536270.3333,2.181,9.308,-1.182,41.1072634,16.8743077,False,5.9060000000000015
2019-10-27 16:08:56.280,LG-H970,1572192536286.25,1.577,9.478,-1.296,41.1072634,16.8743077,False,5.906000000000001
2019-10-27 16:08:56.300,LG-H970,1572192536309.4,0.415,9.498,-2.496,41.1072634,16.8743077,False,5.906000000000001
2019-10-27 16:08:56.320,LG-H970,1572192536330.0,1.811,9.503,-1.93,41.1072634,16.8743077,False,5.906000000000001
2019-10-27 16:08:56.340,LG-H970,1572192536350.0,2.59,8.821,-1.285,41.1072634,16.8743077,False,5.906000000000001
2019-10-27 16:08:56.360,LG-H970,1572192536371.0,0.898,9.403,-2.493,41.1072634,16.8743077,False,5.906000000000001
2019-10-27 16:08:56.380,LG-H970,1572192536389.25,-0.018,9.47,-2.713,41.1072634,16.8743077,False,5.906000000000001
2019-10-27 16:08:56.400,LG-H970,1572192536409.0,2.53,9.366,-2.166,41.1072634,16.8743077,False,5.906000000000001
2019-10-27 16:08:56.420,LG-H970,1572192536428.6667,2.963,8.214,-0.952,41.1072634,16.8743077,False,5.9060000000000015
2019-10-27 16:08:56.440,LG-H970,1572192536448.0,0.587,10.197,-2.886,41.1072634,16.8743077,False,5.906000000000001
2019-10-27 16:08:56.460,LG-H970,1572192536468.5,0.533,9.936,-2.238,41.1072634,16.8743077,False,5.906000000000001
2019-10-27 16:08:56.480,LG-H970,1572192536489.5,3.132,9.511,-1.495,41.1072634,16.8743077,False,5.906000000000001
2019-10-27 16:08:56.500,LG-H970,1572192536508.5,2.762,9.882,-1.638,41.1072634,16.8743077,False,5.906000000000001
2019-10-27 16:08:56.520,LG-H970,1572192536527.25,0.558,9.59,-2.727,41.1072634,16.8743077,False,5.906000000000001
2019-10-27 16:08:56.540,LG-H970,1572192536547.5,1.299,9.483,-2.278,41.1072634,16.8743077,False,5.906000000000001
2019-10-27 16:08:56.560,LG-H970,1572192536568.25,2.718,9.191,-1.928,41.1072634,16.8743077,False,5.906000000000001
2019-10-27 16:08:56.580,LG-H970,1572192536590.2,1.435,9.462,-1.558,41.1072634,16.8743077,False,5.906000000000001
2019-10-27 16:08:56.600,LG-H970,1572192536609.3333,0.015,10.089,-3.111,41.1072634,16.8743077,False,5.9060000000000015
2019-10-27 16:08:56.620,LG-H970,1572192536629.2,1.488,9.582,-2.223,41.1072634,16.8743077,False,5.906000000000001
2019-10-27 16:08:56.640,LG-H970,1572192536648.6667,2.946,8.82,-1.135,41.1072634,16.8743077,False,5.9060000000000015
2019-10-27 16:08:56.660,LG-H970,1572192536667.25,1.208,9.225,-1.621,41.1072634,16.8743077,False,5.906000000000001
2019-10-27 16:08:56.680,LG-H970,1572192536688.2,0.019,10.192,-2.729,41.1072634,16.8743077,False,5.906000000000001
2019-10-27 16:08:56.700,LG-H970,1572192536708.75,2.036,9.629,-1.513,41.1072634,16.8743077,False,5.906000000000001
2019-10-27 16:08:56.720,LG-H970,1572192536730.0,2.025,9.219,-1.243,41.1072634,16.8743077,False,5.906000000000001
2019-10-27 16:08:56.740,LG-H970,1572192536749.75,0.154,9.649,-2.442,41.1072634,16.8743077,False,5.906000000000001
2019-10-27 16:08:56.760,LG-H970,1572192536769.25,0.633,9.643,-2.518,41.1072634,16.8743077,False,5.906000000000001
2019-10-27 16:08:56.780,LG-H970,1572192536788.5,2.043,9.239,-1.479,41.1072634,16.8743077,False,5.906000000000001
2019-10-27 16:08:56.800,LG-H970,1572192536808.75,1.068,9.402,-1.516,41.1072634,16.8743077,False,5.906000000000001
2019-10-27 16:08:56.820,LG-H970,1572192536829.0,-0.298,9.923,-2.542,41.1072634,16.8743077,False,5.906000000000001
2019-10-27 16:08:56.840,LG-H970,1572192536847.3333,0.72,9.421,-2.277,41.1072634,16.8743077,False,5.9060000000000015
2019-10-27 16:08:56.860,LG-H970,1572192536867.0,2.08,8.938,-1.323,41.1072634,16.8743077,False,5.906000000000001
2019-10-27 16:08:56.880,LG-H970,1572192536887.5,0.484,9.317,-2.072,41.1072634,16.8743077,False,5.906000000000001
2019-10-27 16:08:56.900,LG-H970,1572192536907.5,0.143,10.438,-2.778,41.1072634,16.8743077,False,5.906000000000001
2019-10-27 16:08:56.920,LG-H970,1572192536929.6,1.773,9.281,-1.192,41.1072634,16.8743077,False,5.906000000000001
2019-10-27 16:08:56.940,LG-H970,1572192536949.6667,1.889,9.356,-1.625,41.1072634,16.8743077,False,5.9060000000000015
2019-10-27 16:08:56.960,LG-H970,1572192536968.8,0.493,10.158,-2.859,41.1072634,16.8743077,False,5.906000000000001
2019-10-27 16:08:56.980,LG-H970,1572192536991.0,1.185,9.19,-1.713,41.1072634,16.8743077,False,5.906000000000001
2019-10-27 16:08:57.000,LG-H970,1572192537011.25,2.647,9.192,-1.36,41.1072634,16.8743077,False,5.906000000000001
2019-10-27 16:08:57.020,LG-H970,1572192537030.5,1.315,9.318,-2.484,41.1072634,16.8743077,False,5.906000000000001
2019-10-27 16:08:57.040,LG-H970,1572192537049.0,0.234,9.498,-2.528,41.1072634,16.8743077,False,5.906000000000001
2019-10-27 16:08:57.060,LG-H970,1572192537070.25,1.357,8.967,-1.676,41.1072634,16.8743077,False,5.906000000000001
2019-10-27 16:08:57.080,LG-H970,1572192537090.5,2.121,9.345,-1.843,41.1072634,16.8743077,False,5.906000000000001
2019-10-27 16:08:57.100,LG-H970,1572192537109.5,0.489,9.559,-2.333,41.1072634,16.8743077,False,5.906000000000001
2019-10-27 16:08:57.120,LG-H970,1572192537128.75,0.446,9.999,-2.297,41.1072634,16.8743077,False,5.906000000000001
2019-10-27 16:08:57.140,LG-H970,1572192537149.5,2.1,9.621,-1.27,41.1072634,16.8743077,False,5.906000000000001
2019-10-27 16:08:57.160,LG-H970,1572192537169.5,1.451,9.352,-1.622,41.1072634,16.8743077,False,5.906000000000001
2019-10-27 16:08:57.180,LG-H970,1572192537191.0,-0.274,9.804,-2.356,41.1072634,16.8743077,False,5.906000000000001
2019-10-27 16:08:57.200,LG-H970,1572192537210.3333,0.975,9.216,-2.013,41.1072634,16.8743077,False,5.9060000000000015
2019-10-27 16:08:57.220,LG-H970,1572192537227.25,2.153,9.153,-1.381,41.1072634,16.8743077,False,5.906000000000001
2019-10-27 16:08:57.240,LG-H970,1572192537247.0,0.816,9.536,-2.396,41.1072634,16.8743077,False,5.906000000000001
2019-10-27 16:08:57.260,LG-H970,1572192537269.8,0.651,10.566,-2.279,41.1072634,16.8743077,False,5.906000000000001
2019-10-27 16:08:57.280,LG-H970,1572192537291.5,2.142,9.186,-0.823,41.1072634,16.8743077,False,5.906000000000001
2019-10-27 16:08:57.300,LG-H970,1572192537312.5,1.088,9.322,-2.138,41.1072634,16.8743077,False,5.906000000000001
2019-10-27 16:08:57.320,LG-H970,1572192537330.75,-0.222,10.002,-3.111,41.1072634,16.8743077,False,5.906000000000001
2019-10-27 16:08:57.340,LG-H970,1572192537351.0,1.474,9.87,-1.332,41.1072634,16.8743077,False,5.906000000000001
2019-10-27 16:08:57.360,LG-H970,1572192537370.0,2.293,9.602,-0.805,41.1072634,16.8743077,False,5.906000000000001
2019-10-27 16:08:57.380,LG-H970,1572192537390.25,0.344,9.718,-2.562,41.1072634,16.8743077,False,5.906000000000001
2019-10-27 16:08:57.400,LG-H970,1572192537405.0,-0.509,9.922,-3.455,41.1072634,16.8743077,False,5.906000000000001
2019-10-27 16:08:57.420,LG-H970,1572192537405.0,-0.509,9.922,-3.455,41.1072634,16.8743077,False,5.906000000000001
2019-10-27 16:08:57.440,LG-H970,1572192537447.0,0.943,9.813,-2.397,41.1072634,16.8743077,False,5.906000000000001
2019-10-27 16:08:57.460,LG-H970,1572192537468.5,-0.229,10.088,-2.808,41.1072634,16.8743077,False,5.906000000000001
2019-10-27 16:08:57.480,LG-H970,1572192537488.5,0.728,10.152,-1.346,41.1072634,16.8743077,False,5.906000000000001
2019-10-27 16:08:57.500,LG-H970,1572192537508.25,1.356,8.726,-0.896,41.1072634,16.8743077,False,5.906000000000001
2019-10-27 16:08:57.520,LG-H970,1572192537528.0,-0.351,9.156,-2.619,41.1072634,16.8743077,False,5.906000000000001
2019-10-27 16:08:57.540,LG-H970,1572192537547.25,-1.131,9.383,-3.025,41.1072634,16.8743077,False,5.906000000000001
2019-10-27 16:08:57.560,LG-H970,1572192537567.75,0.915,9.347,-0.942,41.1072634,16.8743077,False,5.906000000000001
2019-10-27 16:08:57.580,LG-H970,1572192537591.0,0.94,9.627,-1.329,41.1072634,16.8743077,False,5.906000000000001
2019-10-27 16:08:57.600,LG-H970,1572192537608.0,-1.132,9.34,-1.706,41.1072634,16.8743077,False,5.906000000000001
2019-10-27 16:08:57.620,LG-H970,1572192537627.5,-0.363,9.39,-1.68,41.1072634,16.8743077,False,5.906000000000001
2019-10-27 16:08:57.640,LG-H970,1572192537651.0,1.724,8.783,-0.505,41.1072634,16.8743077,False,5.906000000000001
2019-10-27 16:08:57.660,LG-H970,1572192537672.0,-0.189,8.54,-1.567,41.1073455,16.8742804,False,6.6706666666666665
2019-10-27 16:08:57.680,LG-H970,1572192537690.75,-2.5,8.045,-2.394,41.1073866,16.8742667,False,7.053
2019-10-27 16:08:57.700,LG-H970,1572192537709.5,0.124,8.828,-2.334,41.1073866,16.8742667,False,7.053
2019-10-27 16:08:57.720,LG-H970,1572192537730.0,2.35,8.688,0.314,41.1073866,16.8742667,False,7.053
2019-10-27 16:08:57.740,LG-H970,1572192537749.75,0.92,10.282,-0.439,41.1073866,16.8742667,False,7.053
2019-10-27 16:08:57.760,LG-H970,1572192537769.25,-0.29,10.018,-1.29,41.1073866,16.8742667,False,7.053
2019-10-27 16:08:57.780,LG-H970,1572192537789.0,2.425,10.657,-2.014,41.1073866,16.8742667,False,7.053
2019-10-27 16:08:57.800,LG-H970,1572192537806.6667,3.075,10.056,-0.031,41.1073866,16.8742667,False,7.053
2019-10-27 16:08:57.820,LG-H970,1572192537828.5,-0.496,9.152,-1.849,41.1073866,16.8742667,False,7.053
2019-10-27 16:08:57.840,LG-H970,1572192537848.0,-1.237,10.224,-2.603,41.1073866,16.8742667,False,7.053
2019-10-27 16:08:57.860,LG-H970,1572192537868.0,1.929,9.983,-0.236,41.1073866,16.8742667,False,7.053
2019-10-27 16:08:57.880,LG-H970,1572192537887.25,3.075,10.254,1.575,41.1073866,16.8742667,False,7.053
2019-10-27 16:08:57.900,LG-H970,1572192537910.0,1.28,12.108,-2.684,41.1073866,16.8742667,False,7.053
2019-10-27 16:08:57.920,LG-H970,1572192537930.0,0.592,9.975,0.311,41.1073866,16.8742667,False,7.053
2019-10-27 16:08:57.940,LG-H970,1572192537950.0,1.578,9.894,-1.014,41.1073866,16.8742667,False,7.053
2019-10-27 16:08:57.960,LG-H970,1572192537970.75,0.531,10.596,-2.445,41.1073866,16.8742667,False,7.053
2019-10-27 16:08:57.980,LG-H970,1572192537988.6667,0.927,11.971,-0.655,41.1073866,16.8742667,False,7.053
2019-10-27 16:08:58.000,LG-H970,1572192538008.8,2.076,11.093,1.105,41.1073866,16.8742667,False,7.053
2019-10-27 16:08:58.020,LG-H970,1572192538030.5,1.365,11.531,-1.347,41.1073866,16.8742667,False,7.053
2019-10-27 16:08:58.040,LG-H970,1572192538049.5,0.112,11.07,-3.514,41.1073866,16.8742667,False,7.053
2019-10-27 16:08:58.060,LG-H970,1572192538070.25,1.56,8.764,0.657,41.1073866,16.8742667,False,7.053
2019-10-27 16:08:58.080,LG-H970,1572192538089.75,3.689,11.342,-1.55,41.1073866,16.8742667,False,7.053
2019-10-27 16:08:58.100,LG-H970,1572192538109.25,1.69,10.187,-1.987,41.1073866,16.8742667,False,7.053
2019-10-27 16:08:58.120,LG-H970,1572192538129.0,-1.131,9.258,-0.517,41.1073866,16.8742667,False,7.053
2019-10-27 16:08:58.140,LG-H970,1572192538149.25,-1.143,8.488,-1.905,41.1073866,16.8742667,False,7.053
2019-10-27 16:08:58.160,LG-H970,1572192538168.5,0.475,8.574,-1.752,41.1073866,16.8742667,False,7.053
2019-10-27 16:08:58.180,LG-H970,1572192538188.5,0.98,8.419,-2.365,41.1073866,16.8742667,False,7.053
2019-10-27 16:08:58.200,LG-H970,1572192538208.0,0.353,8.898,-1.419,41.1073866,16.8742667,False,7.053
2019-10-27 16:08:58.220,LG-H970,1572192538227.25,0.754,9.403,-2.276,41.1073866,16.8742667,False,7.053
2019-10-27 16:08:58.240,LG-H970,1572192538246.5,-0.193,7.163,-0.284,41.1073866,16.8742667,False,7.053
2019-10-27 16:08:58.260,LG-H970,1572192538268.25,-0.313,9.976,-1.703,41.1073866,16.8742667,False,7.053
2019-10-27 16:08:58.280,LG-H970,1572192538286.75,0.627,9.177,-0.596,41.1073866,16.8742667,False,7.053
2019-10-27 16:08:58.300,LG-H970,1572192538304.0,2.747,11.314,-2.379,41.1073866,16.8742667,False,7.053
2019-10-27 16:08:58.320,LG-H970,1572192538329.8,-0.201,8.277,-0.506,41.1073866,16.8742667,False,7.053
2019-10-27 16:08:58.340,LG-H970,1572192538350.75,0.264,11.072,-1.996,41.1073866,16.8742667,False,7.053
2019-10-27 16:08:58.360,LG-H970,1572192538370.5,1.747,10.294,-0.362,41.1073866,16.8742667,False,7.053
2019-10-27 16:08:58.380,LG-H970,1572192538390.5,2.862,10.074,-1.054,41.1073866,16.8742667,False,7.053
2019-10-27 16:08:58.400,LG-H970,1572192538409.5,1.38,9.76,-1.926,41.1073866,16.8742667,False,7.053
2019-10-27 16:08:58.420,LG-H970,1572192538430.0,0.358,9.779,-1.927,41.1073866,16.8742667,False,7.053
2019-10-27 16:08:58.440,LG-H970,1572192538449.75,0.853,10.289,-1.517,41.1073866,16.8742667,False,7.053
2019-10-27 16:08:58.460,LG-H970,1572192538469.25,0.61,10.176,-1.71,41.1073866,16.8742667,False,7.053
2019-10-27 16:08:58.480,LG-H970,1572192538489.25,0.976,11.158,-1.087,41.1073866,16.8742667,False,7.053
2019-10-27 16:08:58.500,LG-H970,1572192538505.6667,0.63,8.998,-0.378,41.1073866,16.8742667,False,7.053
2019-10-27 16:08:58.520,LG-H970,1572192538526.8,0.886,8.845,-1.851,41.1073866,16.8742667,False,7.053
2019-10-27 16:08:58.540,LG-H970,1572192538548.25,-0.304,8.688,-1.913,41.1073866,16.8742667,False,7.053
2019-10-27 16:08:58.560,LG-H970,1572192538567.75,-0.966,9.333,-0.768,41.1073866,16.8742667,False,7.053
2019-10-27 16:08:58.580,LG-H970,1572192538590.4,-0.526,8.568,-1.278,41.1073866,16.8742667,False,7.053
2019-10-27 16:08:58.600,LG-H970,1572192538608.0,-0.058,8.212,-3.325,41.1073866,16.8742667,False,7.053
2019-10-27 16:08:58.620,LG-H970,1572192538626.0,0.569,8.955,-2.807,41.1073866,16.8742667,False,7.053
2019-10-27 16:08:58.640,LG-H970,1572192538646.75,0.171,8.938,0.328,41.1073866,16.8742667,False,7.053
2019-10-27 16:08:58.660,LG-H970,1572192538670.2,-1.753,10.835,-3.341,41.1073866,16.8742667,False,7.053
2019-10-27 16:08:58.680,LG-H970,1572192538689.75,-0.603,10.375,-3.576,41.1073866,16.8742667,False,7.053
2019-10-27 16:08:58.700,LG-H970,1572192538709.75,2.304,7.89,0.055,41.1073866,16.8742667,False,7.053
2019-10-27 16:08:58.720,LG-H970,1572192538730.5,1.514,8.731,-1.688,41.1073866,16.8742667,False,7.053
2019-10-27 16:08:58.740,LG-H970,1572192538750.5,-0.998,10.645,-4.027,41.1073866,16.8742667,False,7.053
2019-10-27 16:08:58.760,LG-H970,1572192538769.5,0.177,9.592,-1.604,41.1073866,16.8742667,False,7.053
2019-10-27 16:08:58.780,LG-H970,1572192538789.5,2.786,9.817,-0.538,41.1073866,16.8742667,False,7.053
2019-10-27 16:08:58.800,LG-H970,1572192538808.3333,0.929,8.734,-1.863,41.1073866,16.8742667,False,7.053
2019-10-27 16:08:58.820,LG-H970,1572192538830.25,-0.784,9.923,-4.509,41.1073866,16.8742667,False,7.053
2019-10-27 16:08:58.840,LG-H970,1572192538848.5,1.033,9.704,-1.859,41.1073866,16.8742667,False,7.053
2019-10-27 16:08:58.860,LG-H970,1572192538867.75,2.29,9.891,-0.265,41.1073866,16.8742667,False,7.053
2019-10-27 16:08:58.880,LG-H970,1572192538887.5,-0.228,10.683,-2.068,41.1073866,16.8742667,False,7.053
2019-10-27 16:08:58.900,LG-H970,1572192538907.5,-1.373,8.958,-2.557,41.1073866,16.8742667,False,7.053
2019-10-27 16:08:58.920,LG-H970,1572192538929.8,2.394,9.104,-1.729,41.1073866,16.8742667,False,7.053
2019-10-27 16:08:58.940,LG-H970,1572192538949.0,1.99,9.437,-1.316,41.1073866,16.8742667,False,7.053
2019-10-27 16:08:58.960,LG-H970,1572192538966.5,-0.693,10.327,-2.359,41.1073866,16.8742667,False,7.053
2019-10-27 16:08:58.980,LG-H970,1572192538989.2,-0.208,9.914,-2.775,41.1073866,16.8742667,False,7.053
2019-10-27 16:08:59.000,LG-H970,1572192539011.5,2.339,8.674,-1.075,41.1073866,16.8742667,False,7.053
2019-10-27 16:08:59.020,LG-H970,1572192539030.5,0.543,8.942,-2.719,41.1073866,16.8742667,False,7.053
2019-10-27 16:08:59.040,LG-H970,1572192539049.25,-0.781,10.45,-4.113,41.1073866,16.8742667,False,7.053
2019-10-27 16:08:59.060,LG-H970,1572192539069.75,1.68,9.205,-1.41,41.1073866,16.8742667,False,7.053
2019-10-27 16:08:59.080,LG-H970,1572192539089.5,2.465,9.193,-0.777,41.1073866,16.8742667,False,7.053
2019-10-27 16:08:59.100,LG-H970,1572192539109.5,-0.651,9.951,-3.616,41.1073866,16.8742667,False,7.053
2019-10-27 16:08:59.120,LG-H970,1572192539129.0,0.159,9.697,-3.381,41.1073866,16.8742667,False,7.053
2019-10-27 16:08:59.140,LG-H970,1572192539145.5,2.783,8.841,-1.043,41.1073866,16.8742667,False,7.053
2019-10-27 16:08:59.160,LG-H970,1572192539170.0,2.178,9.207,-1.491,41.1073866,16.8742667,True,7.053
2019-10-27 16:08:59.180,LG-H970,1572192539170.0,2.178,9.207,-1.491,41.1073866,16.8742667,True,7.053
2019-10-27 16:08:59.200,LG-H970,1572192539203.5,-0.112,9.165,-2.555,41.1073866,16.8742667,False,7.053
2019-10-27 16:08:59.220,LG-H970,1572192539228.25,2.647,9.213,-2.007,41.1073866,16.8742667,False,7.053
2019-10-27 16:08:59.240,LG-H970,1572192539247.0,-0.052,9.936,-3.497,41.1073866,16.8742667,False,7.053
2019-10-27 16:08:59.260,LG-H970,1572192539269.4,-0.051,9.942,-3.002,41.1073866,16.8742667,False,7.053
2019-10-27 16:08:59.280,LG-H970,1572192539289.6667,2.922,8.912,-1.09,41.1073866,16.8742667,False,7.053
2019-10-27 16:08:59.300,LG-H970,1572192539307.75,1.829,9.28,-1.358,41.1073866,16.8742667,False,7.053
2019-10-27 16:08:59.320,LG-H970,1572192539326.5,-0.824,9.684,-3.394,41.1073866,16.8742667,False,7.053
2019-10-27 16:08:59.340,LG-H970,1572192539348.4,1.279,9.459,-2.342,41.1073866,16.8742667,False,7.053
2019-10-27 16:08:59.360,LG-H970,1572192539370.75,2.245,8.661,-1.129,41.1073866,16.8742667,False,7.053
2019-10-27 16:08:59.380,LG-H970,1572192539390.5,-0.149,9.558,-3.003,41.1073866,16.8742667,False,7.053
2019-10-27 16:08:59.400,LG-H970,1572192539410.0,0.145,10.007,-2.717,41.1073866,16.8742667,False,7.053
2019-10-27 16:08:59.420,LG-H970,1572192539428.0,2.057,8.622,-1.434,41.1073866,16.8742667,False,7.053
2019-10-27 16:08:59.440,LG-H970,1572192539448.75,1.186,8.911,-2.331,41.1073866,16.8742667,False,7.053
2019-10-27 16:08:59.460,LG-H970,1572192539469.25,-0.218,9.991,-3.209,41.1073866,16.8742667,False,7.053
2019-10-27 16:08:59.480,LG-H970,1572192539489.5,1.221,9.573,-1.85,41.1073866,16.8742667,False,7.053
2019-10-27 16:08:59.500,LG-H970,1572192539509.0,2.034,9.345,-1.604,41.1073866,16.8742667,False,7.053
2019-10-27 16:08:59.520,LG-H970,1572192539528.5,0.782,9.755,-2.572,41.1073866,16.8742667,False,7.053
2019-10-27 16:08:59.540,LG-H970,1572192539548.5,0.576,9.005,-2.348,41.1073866,16.8742667,False,7.053
2019-10-27 16:08:59.560,LG-H970,1572192539567.75,1.704,9.095,-2.074,41.1073866,16.8742667,False,7.053
2019-10-27 16:08:59.580,LG-H970,1572192539587.75,1.187,9.178,-2.403,41.1073866,16.8742667,False,7.053
2019-10-27 16:08:59.600,LG-H970,1572192539608.0,0.711,9.6,-2.786,41.1073866,16.8742667,False,7.053
2019-10-27 16:08:59.620,LG-H970,1572192539628.0,0.915,9.642,-2.09,41.1073866,16.8742667,False,7.053
2019-10-27 16:08:59.640,LG-H970,1572192539647.5,1.32,9.423,-2.725,41.1073866,16.8742667,False,7.053
2019-10-27 16:08:59.660,LG-H970,1572192539666.0,1.108,8.965,-1.519,41.1074335,16.8742624,False,7.290666666666667
2019-10-27 16:08:59.680,LG-H970,1572192539688.4,0.59,9.928,-2.526,41.1075274,16.8742537,False,7.766
2019-10-27 16:08:59.700,LG-H970,1572192539711.0,0.521,9.993,-1.88,41.1075274,16.8742537,False,7.766
2019-10-27 16:08:59.720,LG-H970,1572192539727.6667,1.568,9.136,-1.514,41.1075274,16.8742537,False,7.766000000000001
2019-10-27 16:08:59.740,LG-H970,1572192539747.5,1.509,9.217,-2.05,41.1075274,16.8742537,False,7.766
2019-10-27 16:08:59.760,LG-H970,1572192539767.6,-0.228,8.955,-2.735,41.1075274,16.8742537,False,7.766
2019-10-27 16:08:59.780,LG-H970,1572192539790.25,-0.0,8.223,-2.466,41.1075274,16.8742537,False,7.766
2019-10-27 16:08:59.800,LG-H970,1572192539810.0,1.143,8.875,-3.004,41.1075274,16.8742537,False,7.766
2019-10-27 16:08:59.820,LG-H970,1572192539826.6667,0.569,9.034,-1.765,41.1075274,16.8742537,False,7.766000000000001
2019-10-27 16:08:59.840,LG-H970,1572192539847.4,1.376,10.423,-2.424,41.1075274,16.8742537,False,7.766
2019-10-27 16:08:59.860,LG-H970,1572192539868.75,2.056,9.76,-1.613,41.1075274,16.8742537,False,7.766
2019-10-27 16:08:59.880,LG-H970,1572192539888.25,0.612,9.691,-2.274,41.1075274,16.8742537,False,7.766
2019-10-27 16:08:59.900,LG-H970,1572192539908.5,0.159,9.505,-2.352,41.1075274,16.8742537,False,7.766
2019-10-27 16:08:59.920,LG-H970,1572192539928.0,2.072,9.967,-1.873,41.1075274,16.8742537,False,7.766
2019-10-27 16:08:59.940,LG-H970,1572192539948.0,1.363,9.028,-1.816,41.1075274,16.8742537,False,7.766
2019-10-27 16:08:59.960,LG-H970,1572192539967.25,-0.119,10.153,-3.061,41.1075274,16.8742537,False,7.766
2019-10-27 16:08:59.980,LG-H970,1572192539987.0,0.712,9.638,-2.416,41.1075274,16.8742537,False,7.766
2019-10-27 16:09:00.000,LG-H970,1572192540009.2,1.217,8.785,-1.683,41.1075274,16.8742537,False,7.766
2019-10-27 16:09:00.020,LG-H970,1572192540032.0,0.026,9.455,-3.006,41.1075274,16.8742537,False,7.766
2019-10-27 16:09:00.040,LG-H970,1572192540050.0,0.663,9.606,-2.465,41.1075274,16.8742537,False,7.766
2019-10-27 16:09:00.060,LG-H970,1572192540073.6667,0.441,8.756,-0.487,41.1075274,16.8742537,False,7.766000000000001
2019-10-27 16:09:00.080,LG-H970,1572192540090.25,-0.485,9.567,-2.127,41.1075274,16.8742537,False,7.766
2019-10-27 16:09:00.100,LG-H970,1572192540105.0,0.867,11.118,-4.492,41.1075274,16.8742537,False,7.766
2019-10-27 16:09:00.120,LG-H970,1572192540129.75,1.703,9.081,-2.648,41.1075274,16.8742537,False,7.766
2019-10-27 16:09:00.140,LG-H970,1572192540148.5,0.494,8.843,-2.737,41.1075274,16.8742537,False,7.766
2019-10-27 16:09:00.160,LG-H970,1572192540168.5,0.252,9.452,-2.275,41.1075274,16.8742537,False,7.766
2019-10-27 16:09:00.180,LG-H970,1572192540188.25,1.249,9.093,-2.187,41.1075274,16.8742537,False,7.766
2019-10-27 16:09:00.200,LG-H970,1572192540207.75,1.074,9.502,-1.875,41.1075274,16.8742537,False,7.766
2019-10-27 16:09:00.220,LG-H970,1572192540230.6,0.93,9.109,-2.675,41.1075274,16.8742537,False,7.766
2019-10-27 16:09:00.240,LG-H970,1572192540250.6667,1.207,9.742,-2.299,41.1075274,16.8742537,False,7.766000000000001
2019-10-27 16:09:00.260,LG-H970,1572192540268.25,0.353,9.575,-1.99,41.1075274,16.8742537,False,7.766
2019-10-27 16:09:00.280,LG-H970,1572192540287.5,0.861,10.371,-1.697,41.1075274,16.8742537,False,7.766
2019-10-27 16:09:00.300,LG-H970,1572192540307.0,1.153,9.365,-1.786,41.1075274,16.8742537,False,7.766
2019-10-27 16:09:00.320,LG-H970,1572192540325.0,0.599,8.783,-2.226,41.1075274,16.8742537,False,7.766000000000001
2019-10-27 16:09:00.340,LG-H970,1572192540348.1667,0.509,8.694,-2.718,41.1075274,16.8742537,False,7.765999999999999
2019-10-27 16:09:00.360,LG-H970,1572192540370.75,0.756,9.273,-1.991,41.1075274,16.8742537,False,7.766
2019-10-27 16:09:00.380,LG-H970,1572192540391.0,0.633,10.434,-1.657,41.1075274,16.8742537,False,7.766
2019-10-27 16:09:00.400,LG-H970,1572192540411.25,0.751,9.608,-2.011,41.1075274,16.8742537,False,7.766
2019-10-27 16:09:00.420,LG-H970,1572192540430.75,0.96,9.211,-1.622,41.1075274,16.8742537,False,7.766
2019-10-27 16:09:00.440,LG-H970,1572192540449.75,-0.162,9.376,-2.925,41.1075274,16.8742537,False,7.766
2019-10-27 16:09:00.460,LG-H970,1572192540469.5,-0.635,9.488,-1.802,41.1075274,16.8742537,False,7.766
2019-10-27 16:09:00.480,LG-H970,1572192540489.75,0.49,9.108,-1.708,41.1075274,16.8742537,False,7.766
2019-10-27 16:09:00.500,LG-H970,1572192540509.25,0.861,9.783,-1.534,41.1075274,16.8742537,False,7.766
2019-10-27 16:09:00.520,LG-H970,1572192540529.0,0.055,9.583,-2.193,41.1075274,16.8742537,False,7.766
2019-10-27 16:09:00.540,LG-H970,1572192540549.0,0.18,9.575,-1.777,41.1075274,16.8742537,False,7.766
2019-10-27 16:09:00.560,LG-H970,1572192540568.5,0.796,9.753,-2.054,41.1075274,16.8742537,False,7.766
2019-10-27 16:09:00.580,LG-H970,1572192540588.5,0.742,10.114,-2.037,41.1075274,16.8742537,False,7.766
2019-10-27 16:09:00.600,LG-H970,1572192540608.0,0.097,9.638,-1.521,41.1075274,16.8742537,False,7.766
2019-10-27 16:09:00.620,LG-H970,1572192540629.25,0.581,9.917,-2.196,41.1075274,16.8742537,False,7.766
2019-10-27 16:09:00.640,LG-H970,1572192540650.2,0.866,10.192,-2.327,41.1075274,16.8742537,False,7.766
2019-10-27 16:09:00.660,LG-H970,1572192540671.75,0.719,9.609,-2.648,41.1075274,16.8742537,False,7.766
2019-10-27 16:09:00.680,LG-H970,1572192540691.0,0.824,9.529,-1.972,41.1075274,16.8742537,False,7.766
2019-10-27 16:09:00.700,LG-H970,1572192540710.75,0.37,8.82,-1.832,41.1075274,16.8742537,False,7.766
2019-10-27 16:09:00.720,LG-H970,1572192540731.25,-0.161,10.208,-2.105,41.1075274,16.8742537,False,7.766
2019-10-27 16:09:00.740,LG-H970,1572192540750.5,-0.195,10.07,-2.29,41.1075274,16.8742537,False,7.766
2019-10-27 16:09:00.760,LG-H970,1572192540771.0,0.823,9.678,-1.451,41.1075274,16.8742537,False,7.766
2019-10-27 16:09:00.780,LG-H970,1572192540790.25,0.725,9.523,-2.055,41.1075274,16.8742537,False,7.766
2019-10-27 16:09:00.800,LG-H970,1572192540810.0,-0.141,9.353,-2.469,41.1075274,16.8742537,False,7.766
2019-10-27 16:09:00.820,LG-H970,1572192540832.3333,0.021,9.188,-1.563,41.1075274,16.8742537,False,7.766000000000001
2019-10-27 16:09:00.840,LG-H970,1572192540849.0,0.042,9.756,-1.756,41.1075274,16.8742537,False,7.766
2019-10-27 16:09:00.860,LG-H970,1572192540869.25,0.222,10.295,-1.667,41.1075274,16.8742537,False,7.766
2019-10-27 16:09:00.880,LG-H970,1572192540888.25,0.025,9.484,-2.43,41.1075274,16.8742537,False,7.766
2019-10-27 16:09:00.900,LG-H970,1572192540908.5,0.032,9.758,-2.333,41.1075274,16.8742537,False,7.766
2019-10-27 16:09:00.920,LG-H970,1572192540928.25,0.758,10.198,-2.289,41.1075274,16.8742537,False,7.766
2019-10-27 16:09:00.940,LG-H970,1572192540948.0,0.872,9.749,-1.324,41.1075274,16.8742537,False,7.766
2019-10-27 16:09:00.960,LG-H970,1572192540969.6,-0.286,9.584,-2.235,41.1075274,16.8742537,False,7.766
2019-10-27 16:09:00.980,LG-H970,1572192540992.0,-0.38,9.599,-2.281,41.1075274,16.8742537,False,7.766
2019-10-27 16:09:01.000,LG-H970,1572192541009.6667,0.862,10.233,-1.488,41.1075274,16.8742537,False,7.766000000000001
2019-10-27 16:09:01.020,LG-H970,1572192541026.5,0.723,10.249,-1.734,41.1075274,16.8742537,False,7.766
2019-10-27 16:09:01.040,LG-H970,1572192541045.25,0.469,10.159,-2.131,41.1075274,16.8742537,False,7.766
2019-10-27 16:09:01.060,LG-H970,1572192541068.8,0.256,9.896,-1.81,41.1075274,16.8742537,False,7.766
2019-10-27 16:09:01.080,LG-H970,1572192541090.5,0.311,9.788,-2.014,41.1075274,16.8742537,False,7.766
2019-10-27 16:09:01.100,LG-H970,1572192541110.75,0.584,10.002,-2.019,41.1075274,16.8742537,False,7.766
2019-10-27 16:09:01.120,LG-H970,1572192541130.5,0.527,9.348,-2.329,41.1075274,16.8742537,False,7.766
2019-10-27 16:09:01.140,LG-H970,1572192541149.5,0.677,9.603,-1.034,41.1075274,16.8742537,False,7.766
2019-10-27 16:09:01.160,LG-H970,1572192541172.0,0.4,9.505,-2.695,41.1075274,16.8742537,False,7.766
2019-10-27 16:09:01.180,LG-H970,1572192541189.0,0.37,9.862,-3.126,41.1075274,16.8742537,False,7.766
2019-10-27 16:09:01.200,LG-H970,1572192541209.25,0.701,8.929,-1.458,41.1075274,16.8742537,False,7.766
2019-10-27 16:09:01.220,LG-H970,1572192541228.0,0.722,8.821,-1.121,41.1075274,16.8742537,False,7.766
2019-10-27 16:09:01.240,LG-H970,1572192541248.25,-0.636,9.801,-3.008,41.1075274,16.8742537,False,7.766
2019-10-27 16:09:01.260,LG-H970,1572192541268.75,-0.184,9.994,-2.864,41.1075274,16.8742537,False,7.766
2019-10-27 16:09:01.280,LG-H970,1572192541287.25,1.067,9.251,-0.49,41.1075274,16.8742537,False,7.766
2019-10-27 16:09:01.300,LG-H970,1572192541308.0,0.57,9.69,-2.007,41.1075274,16.8742537,False,7.766
2019-10-27 16:09:01.320,LG-H970,1572192541329.0,-0.278,10.067,-2.31,41.1075274,16.8742537,False,7.766
2019-10-27 16:09:01.340,LG-H970,1572192541347.5,0.701,9.271,-2.445,41.1075274,16.8742537,False,7.766
2019-10-27 16:09:01.360,LG-H970,1572192541366.25,1.524,9.778,-1.386,41.1075274,16.8742537,False,7.766
2019-10-27 16:09:01.380,LG-H970,1572192541389.2,0.274,9.502,-2.317,41.1075274,16.8742537,False,7.766
2019-10-27 16:09:01.400,LG-H970,1572192541411.25,-0.29,9.926,-1.847,41.1075274,16.8742537,False,7.766
2019-10-27 16:09:01.420,LG-H970,1572192541431.25,1.294,9.853,-1.611,41.1075274,16.8742537,False,7.766
2019-10-27 16:09:01.440,LG-H970,1572192541450.5,1.319,9.388,-0.936,41.1075274,16.8742537,False,7.766
2019-10-27 16:09:01.460,LG-H970,1572192541470.75,-0.238,9.236,-2.618,41.1075274,16.8742537,False,7.766
2019-10-27 16:09:01.480,LG-H970,1572192541489.5,0.147,8.964,-2.424,41.1075274,16.8742537,False,7.766
2019-10-27 16:09:01.500,LG-H970,1572192541509.0,0.836,9.151,-1.58,41.1075274,16.8742537,False,7.766
2019-10-27 16:09:01.520,LG-H970,1572192541529.75,-0.564,10.11,-1.578,41.1075274,16.8742537,False,7.766
2019-10-27 16:09:01.540,LG-H970,1572192541548.5,-0.774,10.277,-2.178,41.1075274,16.8742537,False,7.766
2019-10-27 16:09:01.560,LG-H970,1572192541567.75,0.769,8.975,-1.225,41.1075274,16.8742537,False,7.766
2019-10-27 16:09:01.580,LG-H970,1572192541589.0,1.24,9.825,-1.715,41.1075274,16.8742537,False,7.766
2019-10-27 16:09:01.600,LG-H970,1572192541608.75,-0.336,9.679,-2.043,41.1075274,16.8742537,False,7.766
2019-10-27 16:09:01.620,LG-H970,1572192541630.2,0.281,9.598,-2.392,41.1075274,16.8742537,False,7.766
2019-10-27 16:09:01.640,LG-H970,1572192541653.0,1.016,9.101,-1.239,41.1076361,16.8742431,False,8.914
2019-10-27 16:09:01.660,LG-H970,1572192541669.2,0.348,9.877,-1.527,41.1076904,16.8742378,False,9.488
2019-10-27 16:09:01.680,LG-H970,1572192541688.3333,-0.696,10.92,-2.339,41.1076904,16.8742378,False,9.488
2019-10-27 16:09:01.700,LG-H970,1572192541707.5,0.639,10.371,-1.703,41.1076904,16.8742378,False,9.488
2019-10-27 16:09:01.720,LG-H970,1572192541729.2,2.287,9.715,-0.406,41.1076904,16.8742378,False,9.488
2019-10-27 16:09:01.740,LG-H970,1572192541751.0,-0.051,10.463,-2.246,41.1076904,16.8742378,False,9.488
2019-10-27 16:09:01.760,LG-H970,1572192541770.75,-0.79,10.72,-3.294,41.1076904,16.8742378,False,9.488
2019-10-27 16:09:01.780,LG-H970,1572192541790.25,1.35,10.145,-0.887,41.1076904,16.8742378,False,9.488
2019-10-27 16:09:01.800,LG-H970,1572192541810.0,1.869,9.793,-0.477,41.1076904,16.8742378,False,9.488
2019-10-27 16:09:01.820,LG-H970,1572192541831.75,-0.578,9.798,-2.04,41.1076904,16.8742378,False,9.488
2019-10-27 16:09:01.840,LG-H970,1572192541849.0,-0.612,9.511,-3.199,41.1076904,16.8742378,False,9.488
2019-10-27 16:09:01.860,LG-H970,1572192541869.0,2.11,8.624,-0.836,41.1076904,16.8742378,False,9.488
2019-10-27 16:09:01.880,LG-H970,1572192541889.75,1.213,8.775,-1.692,41.1076904,16.8742378,False,9.488
2019-10-27 16:09:01.900,LG-H970,1572192541908.25,-1.423,10.58,-2.908,41.1076904,16.8742378,False,9.488
2019-10-27 16:09:01.920,LG-H970,1572192541930.6,0.722,9.409,-2.089,41.1076904,16.8742378,False,9.488
2019-10-27 16:09:01.940,LG-H970,1572192541952.0,3.063,9.26,-0.782,41.1076904,16.8742378,False,9.488
2019-10-27 16:09:01.960,LG-H970,1572192541967.5,0.769,9.291,-2.02,41.1076904,16.8742378,False,9.488
2019-10-27 16:09:01.980,LG-H970,1572192541987.25,-0.482,10.096,-2.914,41.1076904,16.8742378,False,9.488
2019-10-27 16:09:02.000,LG-H970,1572192542007.5,1.117,8.964,-1.814,41.1076904,16.8742378,False,9.488
2019-10-27 16:09:02.020,LG-H970,1572192542029.0,1.476,9.219,-0.889,41.1076904,16.8742378,False,9.488
2019-10-27 16:09:02.040,LG-H970,1572192542048.0,-0.015,9.99,-3.045,41.1076904,16.8742378,False,9.488
2019-10-27 16:09:02.060,LG-H970,1572192542069.2,0.063,9.471,-1.884,41.1076904,16.8742378,False,9.488
2019-10-27 16:09:02.080,LG-H970,1572192542091.25,1.532,9.285,-1.351,41.1076904,16.8742378,False,9.488
2019-10-27 16:09:02.100,LG-H970,1572192542110.75,0.624,9.022,-1.435,41.1076904,16.8742378,False,9.488
2019-10-27 16:09:02.120,LG-H970,1572192542130.75,-0.521,9.402,-1.972,41.1076904,16.8742378,False,9.488
2019-10-27 16:09:02.140,LG-H970,1572192542150.5,0.428,9.385,-1.585,41.1076904,16.8742378,False,9.488
2019-10-27 16:09:02.160,LG-H970,1572192542169.5,1.234,9.293,-0.577,41.1076904,16.8742378,False,9.488
2019-10-27 16:09:02.180,LG-H970,1572192542189.5,-0.035,9.423,-1.792,41.1076904,16.8742378,False,9.488
2019-10-27 16:09:02.200,LG-H970,1572192542209.0,-1.064,8.779,-2.438,41.1076904,16.8742378,False,9.488
2019-10-27 16:09:02.220,LG-H970,1572192542228.75,0.894,9.791,-2.044,41.1076904,16.8742378,False,9.488
2019-10-27 16:09:02.240,LG-H970,1572192542248.75,1.784,9.742,-0.128,41.1076904,16.8742378,False,9.488
2019-10-27 16:09:02.260,LG-H970,1572192542269.0,0.506,9.977,-1.055,41.1076904,16.8742378,False,9.488
2019-10-27 16:09:02.280,LG-H970,1572192542288.0,-0.35,10.135,-2.224,41.1076904,16.8742378,False,9.488
2019-10-27 16:09:02.300,LG-H970,1572192542307.5,1.167,9.767,-1.676,41.1076904,16.8742378,False,9.488
2019-10-27 16:09:02.320,LG-H970,1572192542327.5,2.386,9.875,-0.511,41.1076904,16.8742378,False,9.488
2019-10-27 16:09:02.340,LG-H970,1572192542347.25,0.29,10.155,-1.625,41.1076904,16.8742378,False,9.488
2019-10-27 16:09:02.360,LG-H970,1572192542369.8,-0.932,9.934,-1.999,41.1076904,16.8742378,False,9.488
2019-10-27 16:09:02.380,LG-H970,1572192542389.0,1.373,9.733,-1.633,41.1076904,16.8742378,False,9.488
2019-10-27 16:09:02.400,LG-H970,1572192542409.2,1.92,10.065,-1.086,41.1076904,16.8742378,False,9.488
2019-10-27 16:09:02.420,LG-H970,1572192542429.75,-0.931,9.718,-1.321,41.1076904,16.8742378,False,9.488
2019-10-27 16:09:02.440,LG-H970,1572192542450.75,-0.875,10.39,-2.541,41.1076904,16.8742378,False,9.488
2019-10-27 16:09:02.460,LG-H970,1572192542470.0,1.284,9.519,-1.674,41.1076904,16.8742378,False,9.488
2019-10-27 16:09:02.480,LG-H970,1572192542491.0,1.151,9.083,-0.652,41.1076904,16.8742378,False,9.488
2019-10-27 16:09:02.500,LG-H970,1572192542509.5,-0.719,9.696,-2.74,41.1076904,16.8742378,False,9.488
2019-10-27 16:09:02.520,LG-H970,1572192542529.75,0.526,10.119,-1.897,41.1076904,16.8742378,False,9.488
2019-10-27 16:09:02.540,LG-H970,1572192542549.0,2.586,10.14,-1.503,41.1076904,16.8742378,False,9.488
2019-10-27 16:09:02.560,LG-H970,1572192542569.0,1.034,9.351,-0.668,41.1076904,16.8742378,False,9.488
2019-10-27 16:09:02.580,LG-H970,1572192542588.75,-1.009,9.119,-3.45,41.1076904,16.8742378,False,9.488
2019-10-27 16:09:02.600,LG-H970,1572192542608.75,0.544,9.019,-1.707,41.1076904,16.8742378,False,9.488
2019-10-27 16:09:02.620,LG-H970,1572192542628.5,2.932,9.833,-0.938,41.1076904,16.8742378,False,9.488
2019-10-27 16:09:02.640,LG-H970,1572192542648.25,1.69,11.173,-0.979,41.1076904,16.8742378,False,9.488
2019-10-27 16:09:02.660,LG-H970,1572192542674.0,-0.234,10.416,-1.319,41.107785,16.8742285,False,10.046
2019-10-27 16:09:02.680,LG-H970,1572192542689.0,0.493,8.664,-1.07,41.107785,16.8742285,False,10.046
2019-10-27 16:09:02.700,LG-H970,1572192542708.8,1.234,9.397,-1.499,41.107785,16.8742285,False,10.046
2019-10-27 16:09:02.720,LG-H970,1572192542729.6667,0.358,10.175,-2.497,41.107785,16.8742285,False,10.046
2019-10-27 16:09:02.740,LG-H970,1572192542746.75,0.497,10.116,-0.921,41.107785,16.8742285,False,10.046
2019-10-27 16:09:02.760,LG-H970,1572192542769.0,1.736,9.665,-1.188,41.107785,16.8742285,False,10.046
2019-10-27 16:09:02.780,LG-H970,1572192542790.5,0.438,8.141,-1.561,41.107785,16.8742285,False,10.046
2019-10-27 16:09:02.800,LG-H970,1572192542810.5,-0.841,9.248,-2.258,41.107785,16.8742285,False,10.046
2019-10-27 16:09:02.820,LG-H970,1572192542831.25,0.468,9.457,-1.547,41.107785,16.8742285,False,10.046
2019-10-27 16:09:02.840,LG-H970,1572192542850.5,2.308,9.341,-0.481,41.107785,16.8742285,False,10.046
2019-10-27 16:09:02.860,LG-H970,1572192542870.0,0.964,9.071,-1.993,41.107785,16.8742285,False,10.046
2019-10-27 16:09:02.880,LG-H970,1572192542889.0,0.177,9.356,-2.399,41.107785,16.8742285,False,10.046
2019-10-27 16:09:02.900,LG-H970,1572192542909.75,1.572,8.764,-2.004,41.107785,16.8742285,False,10.046
2019-10-27 16:09:02.920,LG-H970,1572192542929.25,1.35,9.353,-0.142,41.107785,16.8742285,False,10.046
2019-10-27 16:09:02.940,LG-H970,1572192542948.5,0.165,10.538,-2.204,41.107785,16.8742285,False,10.046
2019-10-27 16:09:02.960,LG-H970,1572192542968.0,0.381,9.031,-1.487,41.107785,16.8742285,False,10.046
2019-10-27 16:09:02.980,LG-H970,1572192542988.0,1.443,8.805,-1.006,41.107785,16.8742285,False,10.046
2019-10-27 16:09:03.000,LG-H970,1572192543007.5,0.59,9.611,-1.105,41.107785,16.8742285,False,10.046
2019-10-27 16:09:03.020,LG-H970,1572192543030.2,-0.028,11.124,-1.158,41.107785,16.8742285,False,10.046
2019-10-27 16:09:03.040,LG-H970,1572192543048.6667,1.026,10.302,-1.334,41.107785,16.8742285,False,10.046
2019-10-27 16:09:03.060,LG-H970,1572192543067.0,1.505,9.728,-0.871,41.107785,16.8742285,False,10.046
2019-10-27 16:09:03.080,LG-H970,1572192543089.2,0.108,9.692,-1.853,41.107785,16.8742285,False,10.046
2019-10-27 16:09:03.100,LG-H970,1572192543111.25,0.39,9.487,-1.622,41.107785,16.8742285,False,10.046
2019-10-27 16:09:03.120,LG-H970,1572192543131.0,1.443,9.936,-0.351,41.107785,16.8742285,False,10.046
2019-10-27 16:09:03.140,LG-H970,1572192543150.75,0.044,9.177,-1.773,41.107785,16.8742285,False,10.046
2019-10-27 16:09:03.160,LG-H970,1572192543170.0,-0.035,9.852,-2.584,41.107785,16.8742285,False,10.046
2019-10-27 16:09:03.180,LG-H970,1572192543189.75,1.267,8.319,-0.853,41.107785,16.8742285,False,10.046
2019-10-27 16:09:03.200,LG-H970,1572192543209.5,1.615,9.544,-0.526,41.107785,16.8742285,False,10.046
2019-10-27 16:09:03.220,LG-H970,1572192543228.75,-0.5,10.69,-2.554,41.107785,16.8742285,False,10.046
2019-10-27 16:09:03.240,LG-H970,1572192543249.5,-0.567,10.261,-2.745,41.107785,16.8742285,False,10.046
2019-10-27 16:09:03.260,LG-H970,1572192543268.75,1.134,8.728,-0.126,41.107785,16.8742285,False,10.046
2019-10-27 16:09:03.280,LG-H970,1572192543288.5,1.083,8.995,-1.56,41.107785,16.8742285,False,10.046
2019-10-27 16:09:03.300,LG-H970,1572192543308.5,-0.006,10.754,-2.194,41.107785,16.8742285,False,10.046
2019-10-27 16:09:03.320,LG-H970,1572192543330.0,0.707,10.372,-1.592,41.107785,16.8742285,False,10.046
2019-10-27 16:09:03.340,LG-H970,1572192543348.25,1.934,9.963,-0.493,41.107785,16.8742285,False,10.046
2019-10-27 16:09:03.360,LG-H970,1572192543368.0,0.7,9.374,-2.401,41.107785,16.8742285,False,10.046
2019-10-27 16:09:03.380,LG-H970,1572192543387.0,-0.293,9.308,-1.604,41.107785,16.8742285,False,10.046
2019-10-27 16:09:03.400,LG-H970,1572192543409.0,1.143,9.057,-1.592,41.107785,16.8742285,False,10.046
2019-10-27 16:09:03.420,LG-H970,1572192543431.0,0.963,10.235,-1.625,41.107785,16.8742285,False,10.046
2019-10-27 16:09:03.440,LG-H970,1572192543448.3333,-0.963,9.105,-1.644,41.107785,16.8742285,False,10.046
2019-10-27 16:09:03.460,LG-H970,1572192543468.6,-0.001,9.726,-1.663,41.107785,16.8742285,False,10.046
2019-10-27 16:09:03.480,LG-H970,1572192543490.5,0.616,8.429,-1.484,41.107785,16.8742285,False,10.046
2019-10-27 16:09:03.500,LG-H970,1572192543510.75,0.569,9.223,-2.751,41.107785,16.8742285,False,10.046
2019-10-27 16:09:03.520,LG-H970,1572192543529.75,0.472,9.446,-1.673,41.107785,16.8742285,False,10.046
2019-10-27 16:09:03.540,LG-H970,1572192543549.25,0.575,10.516,-1.67,41.107785,16.8742285,False,10.046
2019-10-27 16:09:03.560,LG-H970,1572192543569.0,-0.12,10.522,-1.246,41.107785,16.8742285,False,10.046
2019-10-27 16:09:03.580,LG-H970,1572192543589.5,-0.733,10.006,-1.352,41.107785,16.8742285,False,10.046
2019-10-27 16:09:03.600,LG-H970,1572192543609.0,-0.008,9.437,-1.41,41.107785,16.8742285,False,10.046
2019-10-27 16:09:03.620,LG-H970,1572192543627.75,0.932,9.105,-2.009,41.107785,16.8742285,False,10.046
2019-10-27 16:09:03.640,LG-H970,1572192543648.0,0.29,9.411,-1.084,41.107785,16.8742285,False,10.046
2019-10-27 16:09:03.660,LG-H970,1572192543668.0,0.485,10.935,-2.748,41.1078817,16.8742156,False,10.149
2019-10-27 16:09:03.680,LG-H970,1572192543687.25,0.473,9.816,-0.196,41.1078817,16.8742156,False,10.149
2019-10-27 16:09:03.700,LG-H970,1572192543708.0,0.02,9.43,-1.884,41.1078817,16.8742156,False,10.149
2019-10-27 16:09:03.720,LG-H970,1572192543727.0,-0.921,8.658,-1.445,41.1078817,16.8742156,False,10.149
2019-10-27 16:09:03.740,LG-H970,1572192543747.0,0.412,8.851,-1.355,41.1078817,16.8742156,False,10.149
2019-10-27 16:09:03.760,LG-H970,1572192543766.75,1.366,9.754,-0.522,41.1078817,16.8742156,False,10.149
2019-10-27 16:09:03.780,LG-H970,1572192543788.8,-0.036,10.948,-1.045,41.1078817,16.8742156,False,10.149
2019-10-27 16:09:03.800,LG-H970,1572192543810.5,-0.906,10.265,-2.008,41.1078817,16.8742156,False,10.149
2019-10-27 16:09:03.820,LG-H970,1572192543830.0,0.661,9.606,-1.248,41.1078817,16.8742156,False,10.149
2019-10-27 16:09:03.840,LG-H970,1572192543850.25,1.428,9.512,-1.099,41.1078817,16.8742156,False,10.149
2019-10-27 16:09:03.860,LG-H970,1572192543870.0,0.202,10.592,-0.842,41.1078817,16.8742156,False,10.149
2019-10-27 16:09:03.880,LG-H970,1572192543889.25,0.275,11.049,-0.779,41.1078817,16.8742156,False,10.149
2019-10-27 16:09:03.900,LG-H970,1572192543909.25,0.695,9.096,-0.51,41.1078817,16.8742156,False,10.149
2019-10-27 16:09:03.920,LG-H970,1572192543926.6667,0.786,8.704,-2.125,41.1078817,16.8742156,False,10.149
2019-10-27 16:09:03.940,LG-H970,1572192543949.0,-0.33,8.456,-2.294,41.1078817,16.8742156,False,10.149
2019-10-27 16:09:03.960,LG-H970,1572192543968.0,0.445,9.639,-0.786,41.1078817,16.8742156,False,10.149
2019-10-27 16:09:03.980,LG-H970,1572192543988.0,2.172,10.571,-0.253,41.1078817,16.8742156,False,10.149
2019-10-27 16:09:04.000,LG-H970,1572192544010.2,0.704,9.356,-1.506,41.1078817,16.8742156,False,10.149
2019-10-27 16:09:04.020,LG-H970,1572192544029.6667,-1.114,10.604,-3.347,41.1078817,16.8742156,False,10.149
2019-10-27 16:09:04.040,LG-H970,1572192544046.5,-0.623,9.335,-1.465,41.1078817,16.8742156,False,10.149
2019-10-27 16:09:04.060,LG-H970,1572192544067.75,2.19,9.826,0.205,41.1078817,16.8742156,False,10.149
2019-10-27 16:09:04.080,LG-H970,1572192544087.25,1.068,10.269,-0.249,41.1078817,16.8742156,False,10.149
2019-10-27 16:09:04.100,LG-H970,1572192544109.6,-1.126,11.093,-2.469,41.1078817,16.8742156,False,10.149
2019-10-27 16:09:04.120,LG-H970,1572192544131.75,0.326,9.59,-1.384,41.1078817,16.8742156,False,10.149
2019-10-27 16:09:04.140,LG-H970,1572192544151.0,1.916,9.23,-0.009,41.1078817,16.8742156,False,10.149
