UTC_timestamp,device_name,timestamp,x,y,z,lat,long,event,speed
2019-10-26 09:57:52.760,LG-H970,1572083872770.0,-0.499,10.027,-1.096,41.1040708,16.8802219,False,NONE
2019-10-26 09:57:52.780,LG-H970,1572083872790.75,-0.128,10.242,-1.167,41.1040708,16.8802219,False,NONE
2019-10-26 09:57:52.800,LG-H970,1572083872810.0,1.663,8.63,-0.923,41.1040708,16.8802219,False,NONE
2019-10-26 09:57:52.820,LG-H970,1572083872828.75,1.648,8.707,-0.06,41.1040708,16.8802219,False,NONE
2019-10-26 09:57:52.840,LG-H970,1572083872849.0,-0.263,9.576,-1.061,41.1040708,16.8802219,False,NONE
2019-10-26 09:57:52.860,LG-H970,1572083872869.25,-0.905,10.842,-0.838,41.1040708,16.8802219,False,NONE
2019-10-26 09:57:52.880,LG-H970,1572083872888.75,0.863,10.427,0.321,41.1040708,16.8802219,False,NONE
2019-10-26 09:57:52.900,LG-H970,1572083872913.3333,1.876,8.525,0.193,41.1040708,16.8802219,False,NONE
2019-10-26 09:57:52.920,LG-H970,1572083872928.0,0.66,9.798,-1.042,41.1040708,16.8802219,False,NONE
2019-10-26 09:57:52.940,LG-H970,1572083872948.5,-1.905,9.405,-2.196,41.1040708,16.8802219,False,NONE
2019-10-26 09:57:52.960,LG-H970,1572083872967.5,-1.152,9.751,-0.319,41.1040708,16.8802219,False,NONE
2019-10-26 09:57:52.980,LG-H970,1572083872989.8,0.545,9.515,0.575,41.1040708,16.8802219,False,NONE
2019-10-26 09:57:53.000,LG-H970,1572083873011.75,-0.205,9.181,0.326,41.1040708,16.8802219,False,NONE
2019-10-26 09:57:53.020,LG-H970,1572083873031.75,-0.936,9.95,-1.431,41.1040708,16.8802219,False,NONE
2019-10-26 09:57:53.040,LG-H970,1572083873051.25,-1.434,8.622,-1.558,41.1040708,16.8802219,False,NONE
2019-10-26 09:57:53.060,LG-H970,1572083873071.0,0.006,9.032,-0.184,41.1040708,16.8802219,False,NONE
2019-10-26 09:57:53.080,LG-H970,1572083873091.0,0.041,8.946,-0.612,41.1040708,16.8802219,False,NONE
2019-10-26 09:57:53.100,LG-H970,1572083873110.75,-1.471,10.42,0.298,41.1040708,16.8802219,False,NONE
2019-10-26 09:57:53.120,LG-H970,1572083873130.25,-2.134,10.335,-0.652,41.1040708,16.8802219,False,NONE
2019-10-26 09:57:53.140,LG-H970,1572083873150.5,-0.687,9.488,0.318,41.1040708,16.8802219,False,NONE
2019-10-26 09:57:53.160,LG-H970,1572083873169.75,-0.339,9.437,0.175,41.1040708,16.8802219,False,NONE
2019-10-26 09:57:53.180,LG-H970,1572083873189.25,-0.608,10.79,-1.115,41.1040708,16.8802219,False,NONE
2019-10-26 09:57:53.200,LG-H970,1572083873209.25,-0.046,9.97,-0.578,41.1040708,16.8802219,False,NONE
2019-10-26 09:57:53.220,LG-H970,1572083873228.75,1.165,9.415,1.063,41.1040708,16.8802219,False,NONE
2019-10-26 09:57:53.240,LG-H970,1572083873247.75,0.579,9.025,1.433,41.1040708,16.8802219,False,NONE
2019-10-26 09:57:53.260,LG-H970,1572083873267.75,-0.72,10.695,-0.274,41.1040708,16.8802219,False,NONE
2019-10-26 09:57:53.280,LG-H970,1572083873287.75,-1.525,10.72,-1.269,41.1040708,16.8802219,False,NONE
2019-10-26 09:57:53.300,LG-H970,1572083873307.5,-0.363,9.65,-0.167,41.1040708,16.8802219,False,NONE
2019-10-26 09:57:53.320,LG-H970,1572083873329.8,-0.834,8.741,1.16,41.1040708,16.8802219,False,NONE
2019-10-26 09:57:53.340,LG-H970,1572083873352.0,-4.389,10.708,-2.749,41.1040708,16.8802219,False,NONE
2019-10-26 09:57:53.360,LG-H970,1572083873372.25,-6.633,12.311,-4.057,41.1040708,16.8802219,False,NONE
2019-10-26 09:57:53.380,LG-H970,1572083873389.6667,-5.335,8.062,0.192,41.1040708,16.8802219,False,NONE
2019-10-26 09:57:53.400,LG-H970,1572083873411.0,0.187,7.949,-0.428,41.1040708,16.8802219,False,NONE
2019-10-26 09:57:53.420,LG-H970,1572083873430.75,-4.162,10.039,0.107,41.1040708,16.8802219,False,NONE
2019-10-26 09:57:53.440,LG-H970,1572083873450.5,-7.111,13.76,-2.192,41.1040708,16.8802219,False,NONE
2019-10-26 09:57:53.460,LG-H970,1572083873470.5,-3.591,10.684,-0.86,41.1040708,16.8802219,False,NONE
2019-10-26 09:57:53.480,LG-H970,1572083873490.0,1.693,8.625,1.326,41.1040708,16.8802219,False,NONE
2019-10-26 09:57:53.500,LG-H970,1572083873510.25,-0.108,9.132,-0.595,41.1040708,16.8802219,False,NONE
2019-10-26 09:57:53.520,LG-H970,1572083873530.25,-4.198,11.683,-0.169,41.1040708,16.8802219,False,NONE
2019-10-26 09:57:53.540,LG-H970,1572083873549.0,-2.169,12.684,-1.245,41.1040708,16.8802219,False,NONE
2019-10-26 09:57:53.560,LG-H970,1572083873568.5,2.176,10.103,1.244,41.1040708,16.8802219,False,NONE
2019-10-26 09:57:53.580,LG-H970,1572083873588.5,3.339,7.045,0.622,41.1040708,16.8802219,False,NONE
2019-10-26 09:57:53.600,LG-H970,1572083873608.25,2.525,8.84,-1.468,41.1040708,16.8802219,False,NONE
2019-10-26 09:57:53.620,LG-H970,1572083873627.5,-0.037,9.328,-0.323,41.1040708,16.8802219,False,NONE
2019-10-26 09:57:53.640,LG-H970,1572083873647.5,-0.336,10.791,0.188,41.1040708,16.8802219,False,NONE
2019-10-26 09:57:53.660,LG-H970,1572083873669.8,0.512,10.018,1.673,41.1040708,16.8802219,False,NONE
2019-10-26 09:57:53.680,LG-H970,1572083873692.0,1.84,9.472,-0.513,41.1040708,16.8802219,False,NONE
2019-10-26 09:57:53.700,LG-H970,1572083873711.75,0.057,7.972,-0.899,41.1040708,16.8802219,False,NONE
2019-10-26 09:57:53.720,LG-H970,1572083873731.25,-0.253,9.318,-1.533,41.1040708,16.8802219,False,NONE
2019-10-26 09:57:53.740,LG-H970,1572083873751.25,-0.547,9.257,0.292,41.1040708,16.8802219,False,NONE
2019-10-26 09:57:53.760,LG-H970,1572083873771.0,-0.094,10.884,1.565,41.1040708,16.8802219,False,NONE
2019-10-26 09:57:53.780,LG-H970,1572083873789.3333,-0.691,9.921,0.964,41.1040708,16.8802219,False,NONE
2019-10-26 09:57:53.800,LG-H970,1572083873808.4,-0.847,10.271,-0.444,41.1040708,16.8802219,False,NONE
2019-10-26 09:57:53.820,LG-H970,1572083873829.5,-1.133,8.112,-1.372,41.1040708,16.8802219,False,NONE
2019-10-26 09:57:53.840,LG-H970,1572083873849.25,0.162,9.834,-1.058,41.1040708,16.8802219,False,NONE
2019-10-26 09:57:53.860,LG-H970,1572083873868.75,-0.508,9.469,-0.32,41.1040708,16.8802219,False,NONE
2019-10-26 09:57:53.880,LG-H970,1572083873888.5,-0.834,11.417,0.602,41.1040708,16.8802219,False,NONE
2019-10-26 09:57:53.900,LG-H970,1572083873907.6667,-0.858,11.385,-0.737,41.1040708,16.8802219,False,NONE
2019-10-26 09:57:53.920,LG-H970,1572083873928.75,-0.208,10.663,-0.894,41.1040708,16.8802219,False,NONE
2019-10-26 09:57:53.940,LG-H970,1572083873947.75,-0.06,9.615,-1.196,41.1040708,16.8802219,False,NONE
2019-10-26 09:57:53.960,LG-H970,1572083873968.0,-0.918,10.19,-1.043,41.1040708,16.8802219,False,NONE
2019-10-26 09:57:53.980,LG-H970,1572083873987.25,-2.33,10.477,-1.476,41.1040708,16.8802219,False,NONE
2019-10-26 09:57:54.000,LG-H970,1572083874009.4,-1.483,10.796,-0.184,41.1040708,16.8802219,False,NONE
2019-10-26 09:57:54.020,LG-H970,1572083874031.5,0.699,8.728,-0.009,41.1040708,16.8802219,False,NONE
2019-10-26 09:57:54.040,LG-H970,1572083874051.5,0.104,9.017,-0.279,41.1040708,16.8802219,False,NONE
2019-10-26 09:57:54.060,LG-H970,1572083874071.5,-2.296,10.157,-2.304,41.1040708,16.8802219,False,NONE
2019-10-26 09:57:54.080,LG-H970,1572083874091.25,-2.333,10.341,-0.572,41.1040708,16.8802219,False,NONE
2019-10-26 09:57:54.100,LG-H970,1572083874111.25,0.326,9.66,1.47,41.1040708,16.8802219,False,NONE
2019-10-26 09:57:54.120,LG-H970,1572083874130.5,0.293,9.304,0.852,41.1040708,16.8802219,False,NONE
2019-10-26 09:57:54.140,LG-H970,1572083874149.5,-2.303,10.205,-1.721,41.1040708,16.8802219,False,NONE
2019-10-26 09:57:54.160,LG-H970,1572083874170.5,-2.049,9.697,-1.833,41.1040708,16.8802219,False,NONE
2019-10-26 09:57:54.180,LG-H970,1572083874189.5,0.639,8.257,0.466,41.1040708,16.8802219,False,NONE
2019-10-26 09:57:54.200,LG-H970,1572083874209.25,0.383,9.484,1.877,41.1040708,16.8802219,False,NONE
2019-10-26 09:57:54.220,LG-H970,1572083874228.75,-3.09,12.039,-0.678,41.1040708,16.8802219,False,NONE
2019-10-26 09:57:54.240,LG-H970,1572083874248.5,-2.873,11.298,-0.429,41.1040708,16.8802219,False,NONE
2019-10-26 09:57:54.260,LG-H970,1572083874267.75,0.983,7.675,-0.23,41.1040708,16.8802219,True,NONE
2019-10-26 09:57:54.280,LG-H970,1572083874287.5,1.638,8.524,1.288,41.1040708,16.8802219,True,NONE
2019-10-26 09:57:54.300,LG-H970,1572083874309.6,-1.908,10.596,-1.422,41.1040708,16.8802219,False,NONE
2019-10-26 09:57:54.320,LG-H970,1572083874329.3333,-2.311,12.093,-0.762,41.1040708,16.8802219,False,NONE
2019-10-26 09:57:54.340,LG-H970,1572083874349.6,-0.015,9.975,0.929,41.1040708,16.8802219,False,NONE
2019-10-26 09:57:54.360,LG-H970,1572083874372.25,0.531,9.892,-0.623,41.1040708,16.8802219,False,NONE
2019-10-26 09:57:54.380,LG-H970,1572083874391.5,-1.955,8.622,-1.816,41.1040708,16.8802219,False,NONE
2019-10-26 09:57:54.400,LG-H970,1572083874411.75,0.024,9.675,-1.653,41.1040708,16.8802219,False,NONE
2019-10-26 09:57:54.420,LG-H970,1572083874431.5,1.657,9.755,1.248,41.1040708,16.8802219,False,NONE
2019-10-26 09:57:54.440,LG-H970,1572083874451.25,0.39,10.955,0.66,41.1040708,16.8802219,False,NONE
2019-10-26 09:57:54.460,LG-H970,1572083874470.5,-1.614,11.382,-1.23,41.1040708,16.8802219,False,NONE
2019-10-26 09:57:54.480,LG-H970,1572083874489.75,-0.53,9.634,-1.014,41.1040708,16.8802219,False,NONE
2019-10-26 09:57:54.500,LG-H970,1572083874509.25,2.036,8.157,-0.895,41.1040708,16.8802219,False,NONE
2019-10-26 09:57:54.520,LG-H970,1572083874528.5,2.037,10.402,0.202,41.1040708,16.8802219,False,NONE
2019-10-26 09:57:54.540,LG-H970,1572083874549.25,-1.241,10.543,-0.534,41.1040708,16.8802219,False,NONE
2019-10-26 09:57:54.560,LG-H970,1572083874569.25,-1.11,11.433,0.306,41.1040708,16.8802219,False,NONE
2019-10-26 09:57:54.580,LG-H970,1572083874589.5,0.805,8.618,-0.091,41.1040708,16.8802219,False,NONE
2019-10-26 09:57:54.600,LG-H970,1572083874609.0,0.87,8.78,-0.71,41.1040708,16.8802219,False,NONE
2019-10-26 09:57:54.620,LG-H970,1572083874628.75,-1.516,9.084,-2.841,41.1040708,16.8802219,False,NONE
2019-10-26 09:57:54.640,LG-H970,1572083874648.75,-1.789,9.916,-0.548,41.1040708,16.8802219,False,NONE
2019-10-26 09:57:54.660,LG-H970,1572083874667.75,1.07,10.571,0.419,41.1040708,16.8802219,False,NONE
2019-10-26 09:57:54.680,LG-H970,1572083874687.75,0.475,9.984,2.436,41.1040708,16.8802219,False,NONE
2019-10-26 09:57:54.700,LG-H970,1572083874707.75,-1.776,10.208,-1.576,41.1040708,16.8802219,False,NONE
2019-10-26 09:57:54.720,LG-H970,1572083874729.6,-2.437,10.186,-1.616,41.1040708,16.8802219,False,NONE
2019-10-26 09:57:54.740,LG-H970,1572083874751.5,-0.296,8.619,-1.003,41.1040708,16.8802219,False,NONE
2019-10-26 09:57:54.760,LG-H970,1572083874769.0,0.689,9.789,1.186,41.1040708,16.8802219,False,NONE
2019-10-26 09:57:54.780,LG-H970,1572083874791.25,-0.997,11.122,0.001,41.1040708,16.8802219,False,NONE
2019-10-26 09:57:54.800,LG-H970,1572083874810.75,-2.194,10.857,-0.919,41.1040708,16.8802219,False,NONE
2019-10-26 09:57:54.820,LG-H970,1572083874829.5,-0.857,8.624,-0.41,41.1040708,16.8802219,False,NONE
2019-10-26 09:57:54.840,LG-H970,1572083874849.5,0.493,8.643,-0.674,41.1040708,16.8802219,False,NONE
2019-10-26 09:57:54.860,LG-H970,1572083874869.0,-1.228,9.051,-0.753,41.1040708,16.8802219,False,NONE
2019-10-26 09:57:54.880,LG-H970,1572083874886.3333,-2.723,10.261,-0.873,41.1040708,16.8802219,False,NONE
2019-10-26 09:57:54.900,LG-H970,1572083874907.2,-2.079,9.509,-0.12,41.1040708,16.8802219,False,NONE
2019-10-26 09:57:54.920,LG-H970,1572083874928.75,-0.136,9.208,-0.611,41.1040708,16.8802219,False,NONE
2019-10-26 09:57:54.940,LG-H970,1572083874948.5,-0.48,9.615,-0.037,41.1040708,16.8802219,False,NONE
2019-10-26 09:57:54.960,LG-H970,1572083874968.5,-0.475,10.241,-0.249,41.1040708,16.8802219,False,NONE
2019-10-26 09:57:54.980,LG-H970,1572083874988.5,-0.276,10.232,-0.311,41.1040708,16.8802219,False,NONE
2019-10-26 09:57:55.000,LG-H970,1572083875007.75,-0.482,10.42,0.529,41.1040708,16.8802219,False,NONE
2019-10-26 09:57:55.020,LG-H970,1572083875027.75,-0.571,9.46,-0.903,41.1040708,16.8802219,False,NONE
2019-10-26 09:57:55.040,LG-H970,1572083875049.8,0.519,9.892,-0.184,41.1040708,16.8802219,False,NONE
2019-10-26 09:57:55.060,LG-H970,1572083875072.0,0.134,9.649,-0.714,41.1040708,16.8802219,False,NONE
2019-10-26 09:57:55.080,LG-H970,1572083875091.75,-0.474,10.958,0.699,41.1040708,16.8802219,False,NONE
2019-10-26 09:57:55.100,LG-H970,1572083875111.5,-0.301,10.583,-0.452,41.1040708,16.8802219,False,NONE
2019-10-26 09:57:55.120,LG-H970,1572083875131.5,-0.344,10.462,0.986,41.1040708,16.8802219,False,NONE
2019-10-26 09:57:55.140,LG-H970,1572083875151.0,0.167,10.186,-0.796,41.1040708,16.8802219,False,NONE
2019-10-26 09:57:55.160,LG-H970,1572083875171.25,0.499,10.806,0.158,41.1040708,16.8802219,False,NONE
2019-10-26 09:57:55.180,LG-H970,1572083875191.0,0.433,10.23,-0.667,41.1040708,16.8802219,False,NONE
2019-10-26 09:57:55.200,LG-H970,1572083875210.25,1.138,10.597,-0.388,41.1040708,16.8802219,False,NONE
2019-10-26 09:57:55.220,LG-H970,1572083875230.0,0.507,9.492,-0.522,41.1040708,16.8802219,False,NONE
2019-10-26 09:57:55.240,LG-H970,1572083875249.75,-0.411,9.534,-1.454,41.1040708,16.8802219,False,NONE
2019-10-26 09:57:55.260,LG-H970,1572083875269.75,-0.471,9.37,-0.477,41.1040708,16.8802219,False,NONE
2019-10-26 09:57:55.280,LG-H970,1572083875286.0,1.534,10.864,-1.055,41.1040708,16.8802219,False,NONE
2019-10-26 09:57:55.300,LG-H970,1572083875314.25,0.919,9.289,-0.049,41.1040708,16.8802219,False,NONE
2019-10-26 09:57:55.320,LG-H970,1572083875328.25,-1.041,10.637,-0.376,41.1040708,16.8802219,False,NONE
2019-10-26 09:57:55.340,LG-H970,1572083875347.5,-1.437,10.343,-1.274,41.1040708,16.8802219,False,NONE
2019-10-26 09:57:55.360,LG-H970,1572083875368.25,-0.599,9.183,0.66,41.1040708,16.8802219,False,NONE
2019-10-26 09:57:55.380,LG-H970,1572083875388.0,0.069,9.463,-0.513,41.1040708,16.8802219,False,NONE
2019-10-26 09:57:55.400,LG-H970,1572083875407.75,-0.809,10.151,-0.168,41.1040708,16.8802219,False,NONE
2019-10-26 09:57:55.420,LG-H970,1572083875427.0,-1.043,9.785,-0.474,41.1040708,16.8802219,False,NONE
2019-10-26 09:57:55.440,LG-H970,1572083875449.4,-1.043,9.737,0.247,41.1040708,16.8802219,False,NONE
2019-10-26 09:57:55.460,LG-H970,1572083875471.5,-1.444,9.368,-0.444,41.1040708,16.8802219,False,NONE
2019-10-26 09:57:55.480,LG-H970,1572083875491.25,-1.397,9.375,0.034,41.1040708,16.8802219,False,NONE
2019-10-26 09:57:55.500,LG-H970,1572083875511.25,-1.575,8.692,-0.461,41.1040708,16.8802219,False,NONE
2019-10-26 09:57:55.520,LG-H970,1572083875530.5,-2.245,9.25,-0.082,41.1040708,16.8802219,False,NONE
2019-10-26 09:57:55.540,LG-H970,1572083875550.5,-2.117,9.879,-0.406,41.1040708,16.8802219,False,NONE
2019-10-26 09:57:55.560,LG-H970,1572083875570.25,-0.965,9.728,0.24,41.1040708,16.8802219,False,NONE
2019-10-26 09:57:55.580,LG-H970,1572083875589.75,-0.442,9.712,0.477,41.1040708,16.8802219,False,NONE
2019-10-26 09:57:55.600,LG-H970,1572083875609.5,-1.157,10.284,0.392,41.1040708,16.8802219,False,NONE
2019-10-26 09:57:55.620,LG-H970,1572083875629.0,-1.811,10.422,-0.534,41.1040708,16.8802219,False,NONE
2019-10-26 09:57:55.640,LG-H970,1572083875648.5,-0.733,10.235,-0.352,41.1040708,16.8802219,False,NONE
2019-10-26 09:57:55.660,LG-H970,1572083875668.5,0.527,9.639,-0.313,41.1040708,16.8802219,False,NONE
2019-10-26 09:57:55.680,LG-H970,1572083875687.75,0.047,9.7,0.223,41.1040708,16.8802219,False,NONE
2019-10-26 09:57:55.700,LG-H970,1572083875708.0,-0.13,10.839,-1.182,41.1040708,16.8802219,False,NONE
2019-10-26 09:57:55.720,LG-H970,1572083875727.5,-0.178,10.335,0.218,41.1040708,16.8802219,False,NONE
2019-10-26 09:57:55.740,LG-H970,1572083875749.8,0.629,10.093,-0.783,41.1040708,16.8802219,False,NONE
