UTC_timestamp,device_name,timestamp,x,y,z,lat,long,event,speed
2019-10-26 10:40:57.260,LG-H970,1572086457270.5,-1.405,10.945,-1.132,41.1039864,16.8795265,False,NONE
2019-10-26 10:40:57.280,LG-H970,1572086457289.75,0.95,9.255,-1.387,41.1039864,16.8795265,False,NONE
2019-10-26 10:40:57.300,LG-H970,1572086457308.5,2.473,9.983,0.796,41.1039864,16.8795265,False,NONE
2019-10-26 10:40:57.320,LG-H970,1572086457328.75,0.787,10.791,1.416,41.1039864,16.8795265,False,NONE
2019-10-26 10:40:57.340,LG-H970,1572086457349.0,-0.742,10.892,-1.126,41.1039864,16.8795265,False,NONE
2019-10-26 10:40:57.360,LG-H970,1572086457369.0,-0.313,9.541,-0.642,41.1039864,16.8795265,False,NONE
2019-10-26 10:40:57.380,LG-H970,1572086457389.75,2.063,8.051,-2.138,41.1039864,16.8795265,False,NONE
2019-10-26 10:40:57.400,LG-H970,1572086457409.75,0.822,9.448,0.751,41.1039864,16.8795265,False,NONE
2019-10-26 10:40:57.420,LG-H970,1572086457429.0,-0.497,12.23,-2.065,41.1039864,16.8795265,False,NONE
2019-10-26 10:40:57.440,LG-H970,1572086457450.0,-1.894,11.907,1.625,41.1039864,16.8795265,False,NONE
2019-10-26 10:40:57.460,LG-H970,1572086457471.75,0.585,8.161,-0.485,41.1039864,16.8795265,False,NONE
2019-10-26 10:40:57.480,LG-H970,1572086457491.5,-0.713,9.402,0.491,41.1039864,16.8795265,False,NONE
2019-10-26 10:40:57.500,LG-H970,1572086457511.25,-2.416,9.536,-2.641,41.1039864,16.8795265,False,NONE
2019-10-26 10:40:57.520,LG-H970,1572086457530.25,-0.293,9.324,-0.032,41.1039864,16.8795265,False,NONE
2019-10-26 10:40:57.540,LG-H970,1572086457549.5,1.023,7.089,1.365,41.1039864,16.8795265,False,NONE
2019-10-26 10:40:57.560,LG-H970,1572086457571.0,0.761,7.884,1.208,41.1039864,16.8795265,False,NONE
2019-10-26 10:40:57.580,LG-H970,1572086457590.5,0.36,8.079,-2.15,41.1039864,16.8795265,False,NONE
2019-10-26 10:40:57.600,LG-H970,1572086457610.5,0.839,7.321,-3.124,41.1039864,16.8795265,False,NONE
2019-10-26 10:40:57.620,LG-H970,1572086457630.25,2.12,5.3,-0.85,41.1039864,16.8795265,False,NONE
2019-10-26 10:40:57.640,LG-H970,1572086457650.25,3.867,5.919,0.708,41.1039864,16.8795265,False,NONE
2019-10-26 10:40:57.660,LG-H970,1572086457670.5,-1.645,9.58,-0.851,41.1039864,16.8795265,False,NONE
2019-10-26 10:40:57.680,LG-H970,1572086457689.5,-3.854,12.918,-0.494,41.1039864,16.8795265,False,NONE
2019-10-26 10:40:57.700,LG-H970,1572086457708.75,-1.246,10.28,0.351,41.1039864,16.8795265,False,NONE
2019-10-26 10:40:57.720,LG-H970,1572086457729.75,-0.177,9.399,2.21,41.1039864,16.8795265,False,NONE
2019-10-26 10:40:57.740,LG-H970,1572086457749.0,-2.635,10.528,-1.191,41.1039864,16.8795265,False,NONE
2019-10-26 10:40:57.760,LG-H970,1572086457768.75,-4.618,11.453,0.075,41.1039864,16.8795265,False,NONE
2019-10-26 10:40:57.780,LG-H970,1572086457788.75,-0.454,12.79,0.736,41.1039864,16.8795265,False,NONE
2019-10-26 10:40:57.800,LG-H970,1572086457808.25,-3.189,12.849,2.433,41.1039864,16.8795265,False,NONE
2019-10-26 10:40:57.820,LG-H970,1572086457828.25,-4.453,13.683,-0.177,41.1039864,16.8795265,False,NONE
2019-10-26 10:40:57.840,LG-H970,1572086457848.25,-0.896,10.065,-1.615,41.1039864,16.8795265,False,NONE
2019-10-26 10:40:57.860,LG-H970,1572086457869.8,-0.574,8.374,-0.147,41.1039864,16.8795265,False,NONE
2019-10-26 10:40:57.880,LG-H970,1572086457889.3333,-4.1,9.639,-1.524,41.1039864,16.8795265,False,NONE
2019-10-26 10:40:57.900,LG-H970,1572086457906.0,-4.713,12.705,1.622,41.1039864,16.8795265,False,NONE
2019-10-26 10:40:57.920,LG-H970,1572086457929.0,-1.966,14.088,0.723,41.1039864,16.8795265,False,NONE
2019-10-26 10:40:57.940,LG-H970,1572086457950.25,-1.065,12.936,2.593,41.1039864,16.8795265,False,NONE
2019-10-26 10:40:57.960,LG-H970,1572086457970.25,0.843,8.185,-0.295,41.1039864,16.8795265,False,NONE
2019-10-26 10:40:57.980,LG-H970,1572086457990.5,1.285,8.44,-1.36,41.1039864,16.8795265,False,NONE
2019-10-26 10:40:58.000,LG-H970,1572086458010.5,-1.583,9.441,-2.332,41.1039864,16.8795265,False,NONE
2019-10-26 10:40:58.020,LG-H970,1572086458031.75,-1.998,10.116,0.368,41.1039864,16.8795265,False,NONE
2019-10-26 10:40:58.040,LG-H970,1572086458049.75,0.772,11.537,2.564,41.1039864,16.8795265,False,NONE
2019-10-26 10:40:58.060,LG-H970,1572086458069.5,1.603,11.267,3.009,41.1039864,16.8795265,False,NONE
2019-10-26 10:40:58.080,LG-H970,1572086458089.0,0.196,10.616,0.605,41.1039864,16.8795265,False,NONE
2019-10-26 10:40:58.100,LG-H970,1572086458109.25,1.565,10.56,-0.696,41.1039864,16.8795265,False,NONE
2019-10-26 10:40:58.120,LG-H970,1572086458129.0,2.592,7.933,-0.72,41.1039864,16.8795265,False,NONE
2019-10-26 10:40:58.140,LG-H970,1572086458149.0,4.036,8.415,2.599,41.1039864,16.8795265,False,NONE
2019-10-26 10:40:58.160,LG-H970,1572086458168.25,0.487,8.24,1.514,41.1039864,16.8795265,False,NONE
2019-10-26 10:40:58.180,LG-H970,1572086458188.75,-1.023,11.01,-0.078,41.1039864,16.8795265,False,NONE
2019-10-26 10:40:58.200,LG-H970,1572086458208.75,0.314,11.805,-3.037,41.1039864,16.8795265,False,NONE
2019-10-26 10:40:58.220,LG-H970,1572086458228.0,-0.356,8.799,0.352,41.1039864,16.8795265,False,NONE
2019-10-26 10:40:58.240,LG-H970,1572086458247.5,-0.794,6.263,-0.332,41.1039864,16.8795265,False,NONE
2019-10-26 10:40:58.260,LG-H970,1572086458266.5,-2.308,8.45,-1.943,41.1039864,16.8795265,False,NONE
2019-10-26 10:40:58.280,LG-H970,1572086458289.0,-1.439,9.931,-3.486,41.1039864,16.8795265,False,NONE
2019-10-26 10:40:58.300,LG-H970,1572086458310.75,-2.579,8.974,-2.423,41.1039864,16.8795265,False,NONE
2019-10-26 10:40:58.320,LG-H970,1572086458331.5,-1.72,8.428,0.482,41.1039864,16.8795265,False,NONE
2019-10-26 10:40:58.340,LG-H970,1572086458351.25,0.646,8.739,-2.554,41.1039864,16.8795265,False,NONE
2019-10-26 10:40:58.360,LG-H970,1572086458371.0,-1.874,10.529,1.576,41.1039864,16.8795265,False,NONE
2019-10-26 10:40:58.380,LG-H970,1572086458390.75,-1.248,10.843,-1.792,41.1039864,16.8795265,False,NONE
2019-10-26 10:40:58.400,LG-H970,1572086458411.6667,-1.723,8.299,1.406,41.1039864,16.8795265,False,NONE
2019-10-26 10:40:58.420,LG-H970,1572086458429.5,0.836,10.617,-2.782,41.1039864,16.8795265,False,NONE
2019-10-26 10:40:58.440,LG-H970,1572086458451.25,-2.121,11.474,-0.292,41.1039864,16.8795265,False,NONE
2019-10-26 10:40:58.460,LG-H970,1572086458468.5,-1.139,10.665,1.271,41.1039864,16.8795265,False,NONE
2019-10-26 10:40:58.480,LG-H970,1572086458488.0,0.397,9.397,0.96,41.1039864,16.8795265,False,NONE
2019-10-26 10:40:58.500,LG-H970,1572086458508.75,-0.576,10.585,1.336,41.1039864,16.8795265,False,NONE
2019-10-26 10:40:58.520,LG-H970,1572086458531.2,-1.927,9.533,-1.417,41.1039864,16.8795265,False,NONE
2019-10-26 10:40:58.540,LG-H970,1572086458551.0,0.632,8.805,-0.143,41.1039864,16.8795265,False,NONE
2019-10-26 10:40:58.560,LG-H970,1572086458567.75,2.833,6.711,-0.055,41.1039864,16.8795265,False,NONE
2019-10-26 10:40:58.580,LG-H970,1572086458587.0,1.392,9.249,0.229,41.1039864,16.8795265,False,NONE
2019-10-26 10:40:58.600,LG-H970,1572086458607.0,-1.518,10.687,-1.855,41.1039864,16.8795265,False,NONE
2019-10-26 10:40:58.620,LG-H970,1572086458629.6,-0.482,10.142,-0.369,41.1039864,16.8795265,False,NONE
2019-10-26 10:40:58.640,LG-H970,1572086458651.5,2.608,6.928,1.203,41.1039864,16.8795265,False,NONE
2019-10-26 10:40:58.660,LG-H970,1572086458671.5,1.553,9.883,0.549,41.1039864,16.8795265,False,NONE
2019-10-26 10:40:58.680,LG-H970,1572086458691.0,-1.86,12.096,-1.249,41.1039864,16.8795265,False,NONE
2019-10-26 10:40:58.700,LG-H970,1572086458710.75,-0.133,11.742,-0.509,41.1039864,16.8795265,False,NONE
2019-10-26 10:40:58.720,LG-H970,1572086458730.5,2.231,8.185,2.149,41.1039864,16.8795265,False,NONE
2019-10-26 10:40:58.740,LG-H970,1572086458751.25,2.25,9.722,3.011,41.1039864,16.8795265,False,NONE
2019-10-26 10:40:58.760,LG-H970,1572086458769.5,-3.767,12.654,-3.283,41.1039864,16.8795265,True,NONE
2019-10-26 10:40:58.780,LG-H970,1572086458789.0,-4.695,13.174,1.005,41.1039864,16.8795265,True,NONE
2019-10-26 10:40:58.800,LG-H970,1572086458809.0,2.758,9.068,1.742,41.1039864,16.8795265,False,NONE
2019-10-26 10:40:58.820,LG-H970,1572086458828.75,2.919,9.451,3.446,41.1039864,16.8795265,False,NONE
2019-10-26 10:40:58.840,LG-H970,1572086458849.5,-4.199,12.6,-0.761,41.1039864,16.8795265,False,NONE
2019-10-26 10:40:58.860,LG-H970,1572086458869.0,-2.246,12.152,-2.514,41.1039864,16.8795265,False,NONE
2019-10-26 10:40:58.880,LG-H970,1572086458886.6667,1.924,6.934,1.407,41.1039864,16.8795265,False,NONE
2019-10-26 10:40:58.900,LG-H970,1572086458907.6667,3.628,7.81,2.773,41.1039864,16.8795265,False,NONE
2019-10-26 10:40:58.920,LG-H970,1572086458930.5,-3.376,9.98,0.153,41.1039864,16.8795265,False,NONE
2019-10-26 10:40:58.940,LG-H970,1572086458949.0,-4.726,13.736,-0.669,41.1039864,16.8795265,False,NONE
2019-10-26 10:40:58.960,LG-H970,1572086458968.75,-0.129,10.905,1.152,41.1039864,16.8795265,False,NONE
2019-10-26 10:40:58.980,LG-H970,1572086458988.5,3.269,8.597,4.368,41.1039864,16.8795265,False,NONE
2019-10-26 10:40:59.000,LG-H970,1572086459008.5,0.482,7.907,0.336,41.1039864,16.8795265,False,NONE
2019-10-26 10:40:59.020,LG-H970,1572086459028.5,-3.465,10.791,-1.943,41.1039864,16.8795265,False,NONE
2019-10-26 10:40:59.040,LG-H970,1572086459048.5,-4.719,10.456,-0.851,41.1039864,16.8795265,False,NONE
2019-10-26 10:40:59.060,LG-H970,1572086459069.4,-0.875,10.162,3.451,41.1039864,16.8795265,False,NONE
2019-10-26 10:40:59.080,LG-H970,1572086459091.25,0.283,8.801,3.251,41.1039864,16.8795265,False,NONE
2019-10-26 10:40:59.100,LG-H970,1572086459111.0,-1.386,11.318,0.373,41.1039864,16.8795265,False,NONE
2019-10-26 10:40:59.120,LG-H970,1572086459130.25,-2.912,10.463,-0.348,41.1039864,16.8795265,False,NONE
2019-10-26 10:40:59.140,LG-H970,1572086459150.5,-0.368,8.628,2.456,41.1039864,16.8795265,False,NONE
2019-10-26 10:40:59.160,LG-H970,1572086459170.5,1.65,9.281,1.101,41.1039864,16.8795265,False,NONE
2019-10-26 10:40:59.180,LG-H970,1572086459190.5,-1.855,10.999,0.717,41.1039864,16.8795265,False,NONE
2019-10-26 10:40:59.200,LG-H970,1572086459210.0,-0.98,10.865,0.611,41.1039864,16.8795265,False,NONE
2019-10-26 10:40:59.220,LG-H970,1572086459229.25,3.686,8.133,0.992,41.1039864,16.8795265,False,NONE
2019-10-26 10:40:59.240,LG-H970,1572086459249.75,4.383,7.807,2.072,41.1039864,16.8795265,False,NONE
2019-10-26 10:40:59.260,LG-H970,1572086459269.6667,0.371,9.535,-0.806,41.1039864,16.8795265,False,NONE
2019-10-26 10:40:59.280,LG-H970,1572086459289.8,-1.464,10.778,0.375,41.1039864,16.8795265,False,NONE
2019-10-26 10:40:59.300,LG-H970,1572086459311.25,2.911,8.803,1.053,41.1039864,16.8795265,False,NONE
2019-10-26 10:40:59.320,LG-H970,1572086459329.0,4.397,9.346,2.135,41.1039864,16.8795265,False,NONE
2019-10-26 10:40:59.340,LG-H970,1572086459350.0,-1.596,9.365,0.872,41.1039864,16.8795265,False,NONE
2019-10-26 10:40:59.360,LG-H970,1572086459370.0,-4.325,10.647,-0.514,41.1039864,16.8795265,False,NONE
2019-10-26 10:40:59.380,LG-H970,1572086459387.25,-0.667,10.348,1.581,41.1039864,16.8795265,False,NONE
2019-10-26 10:40:59.400,LG-H970,1572086459412.5,0.604,9.18,2.292,41.1039864,16.8795265,False,NONE
2019-10-26 10:40:59.420,LG-H970,1572086459431.25,-1.414,10.875,2.037,41.1039864,16.8795265,False,NONE
2019-10-26 10:40:59.440,LG-H970,1572086459450.25,-3.447,9.499,0.517,41.1039864,16.8795265,False,NONE
2019-10-26 10:40:59.460,LG-H970,1572086459471.5,-0.81,11.001,2.945,41.1039864,16.8795265,False,NONE
2019-10-26 10:40:59.480,LG-H970,1572086459491.0,-0.852,10.257,3.873,41.1039864,16.8795265,False,NONE
2019-10-26 10:40:59.500,LG-H970,1572086459510.25,-2.345,12.598,3.571,41.1039864,16.8795265,False,NONE
2019-10-26 10:40:59.520,LG-H970,1572086459530.75,-2.678,11.115,0.831,41.1039864,16.8795265,False,NONE
2019-10-26 10:40:59.540,LG-H970,1572086459550.25,-1.766,9.614,1.557,41.1039864,16.8795265,False,NONE
2019-10-26 10:40:59.560,LG-H970,1572086459569.5,0.242,9.43,0.856,41.1039864,16.8795265,False,NONE
2019-10-26 10:40:59.580,LG-H970,1572086459590.5,-1.237,10.28,2.632,41.1039864,16.8795265,False,NONE
2019-10-26 10:40:59.600,LG-H970,1572086459609.75,-2.605,12.287,1.977,41.1039864,16.8795265,False,NONE
2019-10-26 10:40:59.620,LG-H970,1572086459628.75,-2.589,11.074,2.482,41.1039864,16.8795265,False,NONE
2019-10-26 10:40:59.640,LG-H970,1572086459649.75,0.01,9.109,2.681,41.1039864,16.8795265,False,NONE
2019-10-26 10:40:59.660,LG-H970,1572086459668.75,1.18,7.969,1.212,41.1039864,16.8795265,False,NONE
2019-10-26 10:40:59.680,LG-H970,1572086459689.25,-0.152,9.796,0.041,41.1039864,16.8795265,False,NONE
2019-10-26 10:40:59.700,LG-H970,1572086459707.5,-1.665,10.388,0.319,41.1039864,16.8795265,False,NONE
2019-10-26 10:40:59.720,LG-H970,1572086459729.0,-1.094,9.487,2.693,41.1039864,16.8795265,False,NONE
2019-10-26 10:40:59.740,LG-H970,1572086459747.75,0.46,8.719,2.093,41.1039864,16.8795265,False,NONE
2019-10-26 10:40:59.760,LG-H970,1572086459767.75,-0.485,8.885,0.542,41.1039864,16.8795265,False,NONE
2019-10-26 10:40:59.780,LG-H970,1572086459789.8,-1.868,9.525,-0.222,41.1039864,16.8795265,False,NONE
2019-10-26 10:40:59.800,LG-H970,1572086459810.0,-1.4,9.032,1.58,41.1039864,16.8795265,False,NONE
2019-10-26 10:40:59.820,LG-H970,1572086459829.4,0.43,9.66,2.712,41.1039864,16.8795265,False,NONE
2019-10-26 10:40:59.840,LG-H970,1572086459851.25,-0.892,10.209,2.371,41.1039864,16.8795265,False,NONE
2019-10-26 10:40:59.860,LG-H970,1572086459870.75,-1.554,10.948,1.089,41.1039864,16.8795265,False,NONE
2019-10-26 10:40:59.880,LG-H970,1572086459890.0,-0.229,10.024,1.277,41.1039864,16.8795265,False,NONE
2019-10-26 10:40:59.900,LG-H970,1572086459910.6667,0.96,9.483,2.274,41.1039864,16.8795265,False,NONE
2019-10-26 10:40:59.920,LG-H970,1572086459931.0,0.892,10.516,2.031,41.1039864,16.8795265,False,NONE
2019-10-26 10:40:59.940,LG-H970,1572086459949.5,0.048,11.041,1.923,41.1039864,16.8795265,False,NONE
2019-10-26 10:40:59.960,LG-H970,1572086459969.75,0.566,10.414,1.715,41.1039864,16.8795265,False,NONE
2019-10-26 10:40:59.980,LG-H970,1572086459989.5,1.248,9.18,2.509,41.1039864,16.8795265,False,NONE
2019-10-26 10:41:00.000,LG-H970,1572086460009.75,0.51,9.833,1.654,41.1039864,16.8795265,False,NONE
2019-10-26 10:41:00.020,LG-H970,1572086460028.5,-0.802,11.05,1.006,41.1039864,16.8795265,False,NONE
2019-10-26 10:41:00.040,LG-H970,1572086460048.0,0.153,10.441,1.019,41.1039864,16.8795265,False,NONE
2019-10-26 10:41:00.060,LG-H970,1572086460068.0,1.605,8.827,3.064,41.1039864,16.8795265,False,NONE
2019-10-26 10:41:00.080,LG-H970,1572086460089.6,0.904,9.347,2.049,41.1039864,16.8795265,False,NONE
2019-10-26 10:41:00.100,LG-H970,1572086460110.25,-1.808,11.075,0.597,41.1039864,16.8795265,False,NONE
2019-10-26 10:41:00.120,LG-H970,1572086460131.5,-1.62,10.711,0.439,41.1039864,16.8795265,False,NONE
2019-10-26 10:41:00.140,LG-H970,1572086460150.5,0.429,8.807,2.562,41.1039864,16.8795265,False,NONE
2019-10-26 10:41:00.160,LG-H970,1572086460170.5,0.494,9.022,2.413,41.1039864,16.8795265,False,NONE
2019-10-26 10:41:00.180,LG-H970,1572086460190.5,-1.926,10.559,0.817,41.1039864,16.8795265,False,NONE
2019-10-26 10:41:00.200,LG-H970,1572086460210.5,-2.672,11.023,0.891,41.1039864,16.8795265,False,NONE
2019-10-26 10:41:00.220,LG-H970,1572086460230.25,-1.501,9.485,1.769,41.1039864,16.8795265,False,NONE
2019-10-26 10:41:00.240,LG-H970,1572086460250.25,-0.444,8.98,2.482,41.1039864,16.8795265,False,NONE
