UTC_timestamp,device_name,timestamp,x,y,z,lat,long,event,speed
2019-10-26 10:00:52.000,LG-H970,1572084052007.0,-2.609,7.687,2.42,41.1038124,16.8800902,False,NONE
2019-10-26 10:00:52.020,LG-H970,1572084052029.4,-2.418,9.947,4.405,41.1038124,16.8800902,False,NONE
2019-10-26 10:00:52.040,LG-H970,1572084052051.5,-1.887,11.627,3.191,41.1038124,16.8800902,False,NONE
2019-10-26 10:00:52.060,LG-H970,1572084052071.5,-2.02,10.131,5.991,41.1038124,16.8800902,False,NONE
2019-10-26 10:00:52.080,LG-H970,1572084052091.0,0.36,11.925,2.494,41.1038124,16.8800902,False,NONE
2019-10-26 10:00:52.100,LG-H970,1572084052111.0,2.446,13.187,4.431,41.1038124,16.8800902,False,NONE
2019-10-26 10:00:52.120,LG-H970,1572084052130.5,7.494,15.687,1.842,41.1038124,16.8800902,False,NONE
2019-10-26 10:00:52.140,LG-H970,1572084052150.0,2.191,10.447,3.945,41.1038124,16.8800902,False,NONE
2019-10-26 10:00:52.160,LG-H970,1572084052170.25,-0.703,14.14,0.266,41.1038124,16.8800902,False,NONE
2019-10-26 10:00:52.180,LG-H970,1572084052190.0,0.197,11.207,-0.142,41.1038124,16.8800902,False,NONE
2019-10-26 10:00:52.200,LG-H970,1572084052209.25,3.409,10.264,2.19,41.1038124,16.8800902,False,NONE
2019-10-26 10:00:52.220,LG-H970,1572084052226.6667,1.846,8.918,3.752,41.1038124,16.8800902,False,NONE
2019-10-26 10:00:52.240,LG-H970,1572084052246.8,-0.806,11.565,-0.5,41.1038124,16.8800902,True,NONE
2019-10-26 10:00:52.260,LG-H970,1572084052267.5,-1.574,12.445,-0.347,41.1038124,16.8800902,True,NONE
2019-10-26 10:00:52.280,LG-H970,1572084052289.4,0.588,9.771,0.84,41.1038124,16.8800902,False,NONE
2019-10-26 10:00:52.300,LG-H970,1572084052311.75,0.997,9.57,1.438,41.1038124,16.8800902,False,NONE
2019-10-26 10:00:52.320,LG-H970,1572084052330.3333,-0.116,12.32,-2.002,41.1038124,16.8800902,False,NONE
2019-10-26 10:00:52.340,LG-H970,1572084052349.6,-2.523,10.988,-1.17,41.1038124,16.8800902,False,NONE
2019-10-26 10:00:52.360,LG-H970,1572084052369.3333,-2.154,9.367,-0.391,41.1038124,16.8800902,False,NONE
2019-10-26 10:00:52.380,LG-H970,1572084052390.6,-1.513,8.67,0.851,41.1038124,16.8800902,False,NONE
2019-10-26 10:00:52.400,LG-H970,1572084052410.75,-3.32,9.197,-1.082,41.1038124,16.8800902,False,NONE
2019-10-26 10:00:52.420,LG-H970,1572084052431.5,-3.936,10.534,-0.642,41.1038124,16.8800902,False,NONE
2019-10-26 10:00:52.440,LG-H970,1572084052450.75,-1.854,8.514,0.422,41.1038124,16.8800902,False,NONE
2019-10-26 10:00:52.460,LG-H970,1572084052470.0,0.741,8.044,1.266,41.1038124,16.8800902,False,NONE
2019-10-26 10:00:52.480,LG-H970,1572084052494.5,-1.765,7.627,0.225,41.1038124,16.8800902,False,NONE
2019-10-26 10:00:52.500,LG-H970,1572084052509.0,-4.256,9.966,-2.122,41.1038124,16.8800902,False,NONE
2019-10-26 10:00:52.520,LG-H970,1572084052529.0,-2.808,8.561,-1.006,41.1038124,16.8800902,False,NONE
2019-10-26 10:00:52.540,LG-H970,1572084052548.75,0.697,7.071,1.163,41.1038124,16.8800902,False,NONE
2019-10-26 10:00:52.560,LG-H970,1572084052568.5,-0.307,8.097,1.278,41.1038124,16.8800902,False,NONE
2019-10-26 10:00:52.580,LG-H970,1572084052588.5,-3.844,10.63,0.737,41.1038124,16.8800902,False,NONE
2019-10-26 10:00:52.600,LG-H970,1572084052608.5,-3.135,9.854,0.244,41.1038124,16.8800902,False,NONE
2019-10-26 10:00:52.620,LG-H970,1572084052628.0,0.738,7.859,1.36,41.1038124,16.8800902,False,NONE
2019-10-26 10:00:52.640,LG-H970,1572084052648.5,1.268,7.687,2.304,41.1038124,16.8800902,False,NONE
2019-10-26 10:00:52.660,LG-H970,1572084052669.6,-1.953,9.658,0.854,41.1038124,16.8800902,False,NONE
2019-10-26 10:00:52.680,LG-H970,1572084052690.0,-3.417,10.63,0.842,41.1038124,16.8800902,False,NONE
2019-10-26 10:00:52.700,LG-H970,1572084052709.8,-0.654,9.752,2.057,41.1038124,16.8800902,False,NONE
2019-10-26 10:00:52.720,LG-H970,1572084052732.0,0.99,8.446,2.174,41.1038124,16.8800902,False,NONE
2019-10-26 10:00:52.740,LG-H970,1572084052750.75,-1.641,9.567,0.434,41.1038124,16.8800902,False,NONE
2019-10-26 10:00:52.760,LG-H970,1572084052771.25,-3.675,10.982,-0.924,41.1038124,16.8800902,False,NONE
2019-10-26 10:00:52.780,LG-H970,1572084052791.0,-2.184,10.753,0.656,41.1038124,16.8800902,False,NONE
2019-10-26 10:00:52.800,LG-H970,1572084052811.5,0.228,9.955,1.25,41.1038124,16.8800902,False,NONE
2019-10-26 10:00:52.820,LG-H970,1572084052830.75,-1.192,9.965,1.075,41.1038124,16.8800902,False,NONE
2019-10-26 10:00:52.840,LG-H970,1572084052852.0,-2.689,11.243,-1.067,41.1038124,16.8800902,False,NONE
2019-10-26 10:00:52.860,LG-H970,1572084052869.5,-1.83,10.812,-0.538,41.1038124,16.8800902,False,NONE
2019-10-26 10:00:52.880,LG-H970,1572084052888.5,-0.013,10.173,0.106,41.1038124,16.8800902,False,NONE
2019-10-26 10:00:52.900,LG-H970,1572084052909.0,-1.01,10.255,0.172,41.1038124,16.8800902,False,NONE
2019-10-26 10:00:52.920,LG-H970,1572084052928.75,-2.33,10.789,-0.809,41.1038124,16.8800902,False,NONE
2019-10-26 10:00:52.940,LG-H970,1572084052949.0,-2.044,10.171,-0.396,41.1038124,16.8800902,False,NONE
2019-10-26 10:00:52.960,LG-H970,1572084052968.0,-1.127,9.432,-0.7,41.1038124,16.8800902,False,NONE
2019-10-26 10:00:52.980,LG-H970,1572084052988.0,-2.795,8.804,0.544,41.1038124,16.8800902,False,NONE
2019-10-26 10:00:53.000,LG-H970,1572084053007.5,-2.974,10.532,-1.088,41.1038124,16.8800902,False,NONE
2019-10-26 10:00:53.020,LG-H970,1572084053027.25,-2.649,8.953,0.541,41.1038124,16.8800902,False,NONE
2019-10-26 10:00:53.040,LG-H970,1572084053049.2,-0.193,9.035,-1.875,41.1038124,16.8800902,False,NONE
2019-10-26 10:00:53.060,LG-H970,1572084053071.25,-1.253,7.665,1.623,41.1038124,16.8800902,False,NONE
2019-10-26 10:00:53.080,LG-H970,1572084053091.0,-0.369,10.105,-2.117,41.1038124,16.8800902,False,NONE
2019-10-26 10:00:53.100,LG-H970,1572084053111.5,0.121,10.193,-0.848,41.1038124,16.8800902,False,NONE
2019-10-26 10:00:53.120,LG-H970,1572084053131.0,2.957,11.722,-2.643,41.1038124,16.8800902,False,NONE
2019-10-26 10:00:53.140,LG-H970,1572084053150.5,3.468,7.683,-2.419,41.1038124,16.8800902,False,NONE
2019-10-26 10:00:53.160,LG-H970,1572084053170.5,2.932,8.853,-0.14,41.1038124,16.8800902,False,NONE
2019-10-26 10:00:53.180,LG-H970,1572084053190.25,1.256,9.958,-5.38,41.1038124,16.8800902,False,NONE
2019-10-26 10:00:53.200,LG-H970,1572084053210.0,1.337,12.794,1.925,41.1038124,16.8800902,False,NONE
2019-10-26 10:00:53.220,LG-H970,1572084053229.75,3.444,9.713,0.79,41.1038124,16.8800902,False,NONE
2019-10-26 10:00:53.240,LG-H970,1572084053249.0,2.045,10.509,2.561,41.1038124,16.8800902,False,NONE
2019-10-26 10:00:53.260,LG-H970,1572084053268.75,-1.66,11.145,-2.648,41.1038124,16.8800902,False,NONE
2019-10-26 10:00:53.280,LG-H970,1572084053288.0,-2.82,11.629,-0.155,41.1038124,16.8800902,False,NONE
2019-10-26 10:00:53.300,LG-H970,1572084053307.75,-0.532,9.776,2.017,41.1038124,16.8800902,False,NONE
2019-10-26 10:00:53.320,LG-H970,1572084053328.0,-0.4,10.523,4.186,41.1038124,16.8800902,False,NONE
2019-10-26 10:00:53.340,LG-H970,1572084053348.0,-4.242,11.26,0.947,41.1038124,16.8800902,False,NONE
2019-10-26 10:00:53.360,LG-H970,1572084053369.6,-5.086,11.429,1.059,41.1038124,16.8800902,False,NONE
2019-10-26 10:00:53.380,LG-H970,1572084053389.0,-2.305,8.449,0.864,41.1038124,16.8800902,False,NONE
2019-10-26 10:00:53.400,LG-H970,1572084053409.6,-1.543,8.971,2.216,41.1038124,16.8800902,False,NONE
2019-10-26 10:00:53.420,LG-H970,1572084053432.0,-4.314,10.514,0.887,41.1038124,16.8800902,False,NONE
2019-10-26 10:00:53.440,LG-H970,1572084053450.75,-4.554,11.383,0.739,41.1038124,16.8800902,False,NONE
2019-10-26 10:00:53.460,LG-H970,1572084053470.25,-2.002,9.512,1.151,41.1038124,16.8800902,False,NONE
2019-10-26 10:00:53.480,LG-H970,1572084053489.75,-0.515,8.563,0.594,41.1038124,16.8800902,False,NONE
2019-10-26 10:00:53.500,LG-H970,1572084053510.25,-2.961,9.144,-0.263,41.1038124,16.8800902,True,NONE
2019-10-26 10:00:53.520,LG-H970,1572084053528.75,-3.687,11.038,-0.826,41.1038124,16.8800902,True,NONE
2019-10-26 10:00:53.540,LG-H970,1572084053548.75,-1.481,10.158,1.101,41.1038124,16.8800902,False,NONE
2019-10-26 10:00:53.560,LG-H970,1572084053568.75,0.285,9.125,1.43,41.1038124,16.8800902,False,NONE
2019-10-26 10:00:53.580,LG-H970,1572084053588.75,-1.368,9.441,0.368,41.1038124,16.8800902,False,NONE
2019-10-26 10:00:53.600,LG-H970,1572084053608.75,-3.241,10.428,-1.435,41.1038124,16.8800902,False,NONE
2019-10-26 10:00:53.620,LG-H970,1572084053628.5,-2.249,9.722,-0.493,41.1038124,16.8800902,False,NONE
2019-10-26 10:00:53.640,LG-H970,1572084053648.25,0.047,8.956,0.922,41.1038124,16.8800902,False,NONE
2019-10-26 10:00:53.660,LG-H970,1572084053668.0,-0.989,9.822,1.068,41.1038124,16.8800902,False,NONE
2019-10-26 10:00:53.680,LG-H970,1572084053688.0,-2.721,11.069,-0.411,41.1038124,16.8800902,False,NONE
2019-10-26 10:00:53.700,LG-H970,1572084053710.0,-2.001,9.578,-0.526,41.1038124,16.8800902,False,NONE
2019-10-26 10:00:53.720,LG-H970,1572084053732.25,-0.338,8.521,0.049,41.1038124,16.8800902,False,NONE
2019-10-26 10:00:53.740,LG-H970,1572084053751.75,-0.776,9.687,-0.119,41.1038124,16.8800902,False,NONE
2019-10-26 10:00:53.760,LG-H970,1572084053770.75,-1.826,10.589,-0.133,41.1038124,16.8800902,False,NONE
2019-10-26 10:00:53.780,LG-H970,1572084053791.0,-1.768,9.973,-0.027,41.1038124,16.8800902,False,NONE
2019-10-26 10:00:53.800,LG-H970,1572084053808.6667,-0.734,9.271,0.741,41.1038124,16.8800902,False,NONE
2019-10-26 10:00:53.820,LG-H970,1572084053826.75,-0.319,8.768,-0.2,41.1038124,16.8800902,False,NONE
2019-10-26 10:00:53.840,LG-H970,1572084053848.6,-0.902,9.769,0.088,41.1038124,16.8800902,False,NONE
2019-10-26 10:00:53.860,LG-H970,1572084053869.5,-0.965,10.261,-0.215,41.1038124,16.8800902,False,NONE
2019-10-26 10:00:53.880,LG-H970,1572084053889.5,-0.629,10.218,1.107,41.1038124,16.8800902,False,NONE
2019-10-26 10:00:53.900,LG-H970,1572084053909.5,-0.298,9.942,0.325,41.1038124,16.8800902,False,NONE
2019-10-26 10:00:53.920,LG-H970,1572084053929.5,-0.813,10.314,0.057,41.1038124,16.8800902,False,NONE
2019-10-26 10:00:53.940,LG-H970,1572084053948.75,-1.574,9.579,-0.712,41.1038124,16.8800902,False,NONE
2019-10-26 10:00:53.960,LG-H970,1572084053968.75,-1.289,9.739,0.567,41.1038124,16.8800902,False,NONE
2019-10-26 10:00:53.980,LG-H970,1572084053988.25,-1.11,9.76,0.744,41.1038124,16.8800902,False,NONE
2019-10-26 10:00:54.000,LG-H970,1572084054008.75,-1.588,9.702,1.259,41.1038124,16.8800902,False,NONE
2019-10-26 10:00:54.020,LG-H970,1572084054027.5,-1.801,9.771,0.355,41.1038124,16.8800902,False,NONE
2019-10-26 10:00:54.040,LG-H970,1572084054047.75,-1.553,9.824,0.633,41.1038124,16.8800902,False,NONE
2019-10-26 10:00:54.060,LG-H970,1572084054067.25,-1.328,9.512,0.243,41.1038124,16.8800902,False,NONE
2019-10-26 10:00:54.080,LG-H970,1572084054087.5,-1.47,10.242,1.204,41.1038124,16.8800902,False,NONE
2019-10-26 10:00:54.100,LG-H970,1572084054109.4,-1.936,10.377,0.668,41.1038124,16.8800902,False,NONE
2019-10-26 10:00:54.120,LG-H970,1572084054131.5,-1.914,10.186,1.191,41.1038124,16.8800902,False,NONE
2019-10-26 10:00:54.140,LG-H970,1572084054150.75,-1.701,9.662,0.126,41.1038124,16.8800902,False,NONE
2019-10-26 10:00:54.160,LG-H970,1572084054170.5,-1.921,10.146,0.734,41.1038124,16.8800902,False,NONE
2019-10-26 10:00:54.180,LG-H970,1572084054190.5,-2.275,10.211,-0.059,41.1038124,16.8800902,False,NONE
2019-10-26 10:00:54.200,LG-H970,1572084054209.75,-1.997,10.495,0.943,41.1038124,16.8800902,False,NONE
2019-10-26 10:00:54.220,LG-H970,1572084054230.25,-1.224,10.028,0.401,41.1038124,16.8800902,False,NONE
2019-10-26 10:00:54.240,LG-H970,1572084054249.75,-1.491,9.845,0.451,41.1038124,16.8800902,False,NONE
2019-10-26 10:00:54.260,LG-H970,1572084054270.0,-1.789,10.147,-0.199,41.1038124,16.8800902,False,NONE
2019-10-26 10:00:54.280,LG-H970,1572084054289.25,-1.569,10.119,-0.035,41.1038124,16.8800902,False,NONE
2019-10-26 10:00:54.300,LG-H970,1572084054308.75,-1.353,9.488,0.471,41.1038124,16.8800902,False,NONE
2019-10-26 10:00:54.320,LG-H970,1572084054328.0,-1.29,9.838,0.451,41.1038124,16.8800902,False,NONE
2019-10-26 10:00:54.340,LG-H970,1572084054349.0,-2.01,9.852,0.105,41.1038124,16.8800902,False,NONE
2019-10-26 10:00:54.360,LG-H970,1572084054368.25,-1.88,9.342,-0.486,41.1038124,16.8800902,False,NONE
2019-10-26 10:00:54.380,LG-H970,1572084054389.4,-0.914,9.744,0.343,41.1038124,16.8800902,False,NONE
2019-10-26 10:00:54.400,LG-H970,1572084054411.75,-0.897,9.832,0.368,41.1038124,16.8800902,False,NONE
2019-10-26 10:00:54.420,LG-H970,1572084054432.0,-1.722,10.237,0.47,41.1038124,16.8800902,False,NONE
2019-10-26 10:00:54.440,LG-H970,1572084054449.6667,-1.547,10.259,-0.094,41.1038124,16.8800902,False,NONE
2019-10-26 10:00:54.460,LG-H970,1572084054468.8,-0.556,9.839,0.242,41.1038124,16.8800902,False,NONE
2019-10-26 10:00:54.480,LG-H970,1572084054490.5,-0.262,9.426,0.204,41.1038124,16.8800902,False,NONE
2019-10-26 10:00:54.500,LG-H970,1572084054510.75,-0.894,10.2,-0.122,41.1038124,16.8800902,False,NONE
2019-10-26 10:00:54.520,LG-H970,1572084054530.75,-1.213,10.413,-0.083,41.1038124,16.8800902,False,NONE
2019-10-26 10:00:54.540,LG-H970,1572084054550.75,-0.457,10.194,0.491,41.1038124,16.8800902,False,NONE
2019-10-26 10:00:54.560,LG-H970,1572084054569.75,-0.244,9.929,-0.078,41.1038124,16.8800902,False,NONE
2019-10-26 10:00:54.580,LG-H970,1572084054589.75,-0.878,9.707,0.128,41.1038124,16.8800902,False,NONE
2019-10-26 10:00:54.600,LG-H970,1572084054609.5,-1.097,9.807,-0.587,41.1038124,16.8800902,False,NONE
2019-10-26 10:00:54.620,LG-H970,1572084054629.25,-0.629,10.211,0.234,41.1038124,16.8800902,False,NONE
2019-10-26 10:00:54.640,LG-H970,1572084054649.0,-0.682,9.539,0.07,41.1038124,16.8800902,False,NONE
2019-10-26 10:00:54.660,LG-H970,1572084054668.75,-0.916,10.298,0.193,41.1038124,16.8800902,False,NONE
2019-10-26 10:00:54.680,LG-H970,1572084054688.25,-1.068,9.842,-0.172,41.1038124,16.8800902,False,NONE
2019-10-26 10:00:54.700,LG-H970,1572084054707.5,-1.055,9.661,-0.155,41.1038124,16.8800902,False,NONE
2019-10-26 10:00:54.720,LG-H970,1572084054727.5,-0.81,9.649,0.13,41.1038124,16.8800902,False,NONE
2019-10-26 10:00:54.740,LG-H970,1572084054747.5,-0.701,9.735,0.113,41.1038124,16.8800902,False,NONE
2019-10-26 10:00:54.760,LG-H970,1572084054767.5,-0.734,9.96,0.015,41.1038124,16.8800902,False,NONE
2019-10-26 10:00:54.780,LG-H970,1572084054790.75,-0.788,9.927,-0.083,41.1038124,16.8800902,False,NONE
2019-10-26 10:00:54.800,LG-H970,1572084054809.3333,-0.784,9.264,-0.193,41.1038124,16.8800902,False,NONE
2019-10-26 10:00:54.820,LG-H970,1572084054828.0,-0.28,9.893,0.252,41.1038326,16.8800539,False,NONE
2019-10-26 10:00:54.840,LG-H970,1572084054848.4,-0.772,10.012,-0.107,41.1038427,16.8800358,False,NONE
2019-10-26 10:00:54.860,LG-H970,1572084054869.5,-0.861,9.787,0.133,41.1038427,16.8800358,False,NONE
2019-10-26 10:00:54.880,LG-H970,1572084054890.25,-0.331,9.861,-0.28,41.1038427,16.8800358,False,NONE
2019-10-26 10:00:54.900,LG-H970,1572084054910.25,-0.682,9.874,-0.242,41.1038427,16.8800358,False,NONE
2019-10-26 10:00:54.920,LG-H970,1572084054930.25,-1.259,9.661,-0.889,41.1038427,16.8800358,False,NONE
2019-10-26 10:00:54.940,LG-H970,1572084054949.75,-1.183,10.199,-0.614,41.1038427,16.8800358,False,NONE
2019-10-26 10:00:54.960,LG-H970,1572084054969.5,-0.906,10.043,-0.415,41.1038427,16.8800358,False,NONE
2019-10-26 10:00:54.980,LG-H970,1572084054988.5,-1.106,9.588,-0.771,41.1038427,16.8800358,False,NONE
