UTC_timestamp,device_name,timestamp,x,y,z,lat,long,event,speed
2019-10-27 16:27:45.840,LG-H970,1572193665848.25,-1.459,9.919,-1.861,41.1076052,16.8815971,False,3.745
2019-10-27 16:27:45.860,LG-H970,1572193665868.5,-0.818,9.408,-1.139,41.1076052,16.8815971,False,3.745
2019-10-27 16:27:45.880,LG-H970,1572193665891.3333,-0.359,9.258,-0.889,41.1076052,16.8815971,False,3.7449999999999997
2019-10-27 16:27:45.900,LG-H970,1572193665908.5,-2.02,9.226,-1.288,41.1076052,16.8815971,False,3.745
2019-10-27 16:27:45.920,LG-H970,1572193665928.0,-1.462,8.63,-1.533,41.1076052,16.8815971,False,3.745
2019-10-27 16:27:45.940,LG-H970,1572193665949.5,-1.134,8.679,-1.201,41.1076052,16.8815971,False,3.745
2019-10-27 16:27:45.960,LG-H970,1572193665970.6667,-1.645,9.913,-0.838,41.1076052,16.8815971,False,3.7449999999999997
2019-10-27 16:27:45.980,LG-H970,1572193665989.8,-0.737,10.076,-0.956,41.1076052,16.8815971,False,3.745
2019-10-27 16:27:46.000,LG-H970,1572193666011.0,-0.064,9.039,-1.128,41.1076052,16.8815971,False,3.745
2019-10-27 16:27:46.020,LG-H970,1572193666032.5,-0.013,9.236,-1.02,41.1076052,16.8815971,False,3.745
2019-10-27 16:27:46.040,LG-H970,1572193666049.75,-0.1,8.871,-0.948,41.1076052,16.8815971,False,3.745
2019-10-27 16:27:46.060,LG-H970,1572193666069.5,-1.662,9.208,-0.419,41.1076052,16.8815971,False,3.745
2019-10-27 16:27:46.080,LG-H970,1572193666091.0,-1.923,9.793,-0.215,41.1076052,16.8815971,False,3.745
2019-10-27 16:27:46.100,LG-H970,1572193666110.0,0.194,9.081,-0.089,41.1076052,16.8815971,False,3.745
2019-10-27 16:27:46.120,LG-H970,1572193666130.0,1.488,8.777,-1.657,41.1076052,16.8815971,False,3.745
2019-10-27 16:27:46.140,LG-H970,1572193666149.75,0.456,9.175,-2.951,41.1076052,16.8815971,False,3.745
2019-10-27 16:27:46.160,LG-H970,1572193666169.25,0.166,8.411,-1.26,41.1076052,16.8815971,False,3.745
2019-10-27 16:27:46.180,LG-H970,1572193666189.25,2.438,9.62,-0.591,41.1076052,16.8815971,False,3.745
2019-10-27 16:27:46.200,LG-H970,1572193666209.25,2.233,9.729,-2.119,41.1076052,16.8815971,False,3.745
2019-10-27 16:27:46.220,LG-H970,1572193666228.25,1.537,9.913,-3.274,41.1076052,16.8815971,False,3.745
2019-10-27 16:27:46.240,LG-H970,1572193666247.5,3.496,8.331,-1.816,41.1076052,16.8815971,False,3.745
2019-10-27 16:27:46.260,LG-H970,1572193666267.25,4.999,9.443,-1.13,41.1076052,16.8815971,False,3.745
2019-10-27 16:27:46.280,LG-H970,1572193666287.5,3.227,11.411,-3.006,41.1076052,16.8815971,False,3.745
2019-10-27 16:27:46.300,LG-H970,1572193666307.5,3.451,10.374,-1.907,41.1076052,16.8815971,False,3.745
2019-10-27 16:27:46.320,LG-H970,1572193666329.2,5.146,8.579,-0.723,41.1076052,16.8815971,False,3.745
2019-10-27 16:27:46.340,LG-H970,1572193666350.75,3.667,9.592,-3.063,41.1076052,16.8815971,False,3.745
2019-10-27 16:27:46.360,LG-H970,1572193666370.5,2.386,10.245,-0.653,41.1076052,16.8815971,False,3.745
2019-10-27 16:27:46.380,LG-H970,1572193666391.25,2.187,10.453,0.264,41.1076052,16.8815971,False,3.745
2019-10-27 16:27:46.400,LG-H970,1572193666411.0,0.214,10.645,-0.407,41.1076052,16.8815971,False,3.745
2019-10-27 16:27:46.420,LG-H970,1572193666430.0,-0.847,8.977,-1.765,41.1076052,16.8815971,False,3.745
2019-10-27 16:27:46.440,LG-H970,1572193666449.75,-0.464,8.999,-0.413,41.1076052,16.8815971,False,3.745
2019-10-27 16:27:46.460,LG-H970,1572193666469.5,-0.943,11.105,-0.41,41.1076052,16.8815971,False,3.745
2019-10-27 16:27:46.480,LG-H970,1572193666489.0,-2.13,10.989,0.922,41.1076052,16.8815971,False,3.745
2019-10-27 16:27:46.500,LG-H970,1572193666508.5,-1.875,10.722,-1.788,41.1076052,16.8815971,False,3.745
2019-10-27 16:27:46.520,LG-H970,1572193666528.25,-1.784,9.254,-0.358,41.1076052,16.8815971,False,3.745
2019-10-27 16:27:46.540,LG-H970,1572193666548.5,-1.169,8.653,-1.207,41.1076052,16.8815971,False,3.745
2019-10-27 16:27:46.560,LG-H970,1572193666568.0,-2.971,9.688,-0.999,41.1076052,16.8815971,False,3.745
2019-10-27 16:27:46.580,LG-H970,1572193666587.75,-2.622,10.159,-0.821,41.1076052,16.8815971,False,3.745
2019-10-27 16:27:46.600,LG-H970,1572193666607.25,-0.7,9.589,0.46,41.1076052,16.8815971,False,3.745
2019-10-27 16:27:46.620,LG-H970,1572193666627.25,-1.501,8.628,-2.331,41.1076052,16.8815971,False,3.745
2019-10-27 16:27:46.640,LG-H970,1572193666650.0,-1.28,8.175,-2.243,41.1076052,16.8815971,False,3.745
2019-10-27 16:27:46.660,LG-H970,1572193666671.5,0.341,8.821,-1.63,41.1076052,16.8815971,False,3.745
2019-10-27 16:27:46.680,LG-H970,1572193666691.25,-1.188,9.994,-0.205,41.1076052,16.8815971,False,3.745
2019-10-27 16:27:46.700,LG-H970,1572193666710.5,-2.28,11.595,-1.26,41.1076052,16.8815971,False,3.745
2019-10-27 16:27:46.720,LG-H970,1572193666728.3333,0.101,10.468,-1.372,41.1076052,16.8815971,False,3.7449999999999997
2019-10-27 16:27:46.740,LG-H970,1572193666748.2,0.847,8.291,-0.651,41.1076052,16.8815971,False,3.745
2019-10-27 16:27:46.760,LG-H970,1572193666770.0,-0.284,9.037,-4.203,41.1076052,16.8815971,False,3.745
2019-10-27 16:27:46.780,LG-H970,1572193666790.25,-0.209,9.627,-0.744,41.1076052,16.8815971,False,3.745
2019-10-27 16:27:46.800,LG-H970,1572193666809.0,1.506,10.664,1.324,41.1076052,16.8815971,False,3.745
2019-10-27 16:27:46.820,LG-H970,1572193666829.0,-0.903,12.7,-1.077,41.1076052,16.8815971,False,3.745
2019-10-27 16:27:46.840,LG-H970,1572193666848.75,-3.148,10.926,-2.992,41.1076052,16.8815971,False,3.745
2019-10-27 16:27:46.860,LG-H970,1572193666868.5,-0.051,8.962,0.011,41.1076052,16.8815971,False,3.745
2019-10-27 16:27:46.880,LG-H970,1572193666888.5,3.947,11.103,-0.103,41.1076052,16.8815971,False,3.745
2019-10-27 16:27:46.900,LG-H970,1572193666908.5,-0.466,12.086,0.46,41.1076052,16.8815971,False,3.745
2019-10-27 16:27:46.920,LG-H970,1572193666927.5,-3.331,12.175,-2.921,41.1076052,16.8815971,False,3.745
2019-10-27 16:27:46.940,LG-H970,1572193666947.25,0.689,8.827,-2.493,41.1076052,16.8815971,False,3.745
2019-10-27 16:27:46.960,LG-H970,1572193666967.5,6.294,8.831,0.556,41.1076052,16.8815971,False,3.745
2019-10-27 16:27:46.980,LG-H970,1572193666986.75,1.237,8.385,0.732,41.1076052,16.8815971,False,3.745
2019-10-27 16:27:47.000,LG-H970,1572193667007.0,-2.881,12.438,-4.091,41.1076052,16.8815971,False,3.745
2019-10-27 16:27:47.020,LG-H970,1572193667029.0,-0.173,8.756,-1.205,41.1076052,16.8815971,False,3.745
2019-10-27 16:27:47.040,LG-H970,1572193667050.75,4.153,8.719,0.582,41.1076052,16.8815971,False,3.745
2019-10-27 16:27:47.060,LG-H970,1572193667071.0,-0.436,9.215,-1.093,41.1076158,16.8816693,False,3.6670000000000003
2019-10-27 16:27:47.080,LG-H970,1572193667089.75,-2.287,11.54,-1.697,41.1076193,16.8816934,False,3.641
2019-10-27 16:27:47.100,LG-H970,1572193667109.25,0.132,11.502,0.207,41.1076193,16.8816934,False,3.641
2019-10-27 16:27:47.120,LG-H970,1572193667129.0,0.181,10.34,0.953,41.1076193,16.8816934,False,3.641
2019-10-27 16:27:47.140,LG-H970,1572193667148.75,-1.319,8.425,-2.605,41.1076193,16.8816934,False,3.641
2019-10-27 16:27:47.160,LG-H970,1572193667168.75,0.128,8.822,-3.227,41.1076193,16.8816934,False,3.641
2019-10-27 16:27:47.180,LG-H970,1572193667188.25,0.125,8.231,-0.065,41.1076193,16.8816934,False,3.641
2019-10-27 16:27:47.200,LG-H970,1572193667208.25,-0.582,11.455,0.172,41.1076193,16.8816934,False,3.641
2019-10-27 16:27:47.220,LG-H970,1572193667228.5,-1.908,11.109,-2.195,41.1076193,16.8816934,False,3.641
2019-10-27 16:27:47.240,LG-H970,1572193667247.25,0.491,8.104,-0.543,41.1076193,16.8816934,False,3.641
2019-10-27 16:27:47.260,LG-H970,1572193667270.4,2.607,6.915,-0.715,41.1076193,16.8816934,False,3.6409999999999996
2019-10-27 16:27:47.280,LG-H970,1572193667293.3333,-1.019,8.592,-2.457,41.1076193,16.8816934,False,3.641
2019-10-27 16:27:47.300,LG-H970,1572193667311.25,-0.925,9.651,-3.311,41.1076193,16.8816934,False,3.641
2019-10-27 16:27:47.320,LG-H970,1572193667327.5,2.421,7.981,4.051,41.1076193,16.8816934,False,3.641
2019-10-27 16:27:47.340,LG-H970,1572193667353.6667,0.995,9.781,0.514,41.1076193,16.8816934,True,3.641
2019-10-27 16:27:47.360,LG-H970,1572193667353.6667,0.995,9.781,0.514,41.1076193,16.8816934,True,3.641
2019-10-27 16:27:47.380,LG-H970,1572193667394.6667,-1.456,11.802,-2.039,41.1076193,16.8816934,False,3.641
2019-10-27 16:27:47.400,LG-H970,1572193667413.0,1.232,9.276,0.846,41.1076193,16.8816934,False,3.641
2019-10-27 16:27:47.420,LG-H970,1572193667430.25,-0.653,10.602,-0.893,41.1076193,16.8816934,False,3.641
2019-10-27 16:27:47.440,LG-H970,1572193667449.25,-2.723,10.719,-2.548,41.1076193,16.8816934,False,3.641
2019-10-27 16:27:47.460,LG-H970,1572193667469.25,-1.976,9.904,-1.977,41.1076193,16.8816934,False,3.641
2019-10-27 16:27:47.480,LG-H970,1572193667489.5,-1.253,11.113,-0.27,41.1076193,16.8816934,False,3.641
2019-10-27 16:27:47.500,LG-H970,1572193667509.75,-1.095,10.668,-2.731,41.1076193,16.8816934,False,3.641
2019-10-27 16:27:47.520,LG-H970,1572193667529.5,-2.697,10.022,-0.518,41.1076193,16.8816934,False,3.641
2019-10-27 16:27:47.540,LG-H970,1572193667548.0,-3.028,9.412,-3.148,41.1076193,16.8816934,False,3.641
2019-10-27 16:27:47.560,LG-H970,1572193667569.75,-0.783,9.626,0.601,41.1076193,16.8816934,False,3.641
2019-10-27 16:27:47.580,LG-H970,1572193667587.75,0.196,10.446,-0.875,41.1076193,16.8816934,False,3.641
2019-10-27 16:27:47.600,LG-H970,1572193667608.0,-1.88,11.638,-0.131,41.1076193,16.8816934,False,3.641
2019-10-27 16:27:47.620,LG-H970,1572193667630.2,-1.203,10.042,-2.416,41.1076193,16.8816934,False,3.6409999999999996
2019-10-27 16:27:47.640,LG-H970,1572193667652.25,1.327,8.231,-0.569,41.1076193,16.8816934,False,3.641
2019-10-27 16:27:47.660,LG-H970,1572193667669.6667,1.514,8.73,-0.814,41.1076193,16.8816934,False,3.641
2019-10-27 16:27:47.680,LG-H970,1572193667687.25,0.033,9.504,-0.889,41.1076193,16.8816934,False,3.641
2019-10-27 16:27:47.700,LG-H970,1572193667709.8,0.479,9.661,-0.601,41.1076193,16.8816934,False,3.6409999999999996
2019-10-27 16:27:47.720,LG-H970,1572193667731.25,0.733,8.786,-2.062,41.1076193,16.8816934,False,3.641
2019-10-27 16:27:47.740,LG-H970,1572193667751.5,-1.059,8.109,-1.978,41.1076193,16.8816934,False,3.641
2019-10-27 16:27:47.760,LG-H970,1572193667770.75,0.55,8.526,-0.214,41.1076193,16.8816934,False,3.641
2019-10-27 16:27:47.780,LG-H970,1572193667790.75,0.554,9.233,0.025,41.1076193,16.8816934,False,3.641
2019-10-27 16:27:47.800,LG-H970,1572193667810.5,-1.294,11.397,-0.697,41.1076193,16.8816934,False,3.641
2019-10-27 16:27:47.820,LG-H970,1572193667829.25,-0.655,8.704,-2.507,41.1076193,16.8816934,False,3.641
2019-10-27 16:27:47.840,LG-H970,1572193667849.25,1.735,7.696,0.52,41.1076193,16.8816934,False,3.641
2019-10-27 16:27:47.860,LG-H970,1572193667869.25,0.346,8.536,-2.11,41.1076193,16.8816934,False,3.641
2019-10-27 16:27:47.880,LG-H970,1572193667888.25,-0.661,11.756,-1.255,41.1076193,16.8816934,False,3.641
2019-10-27 16:27:47.900,LG-H970,1572193667908.25,0.883,10.674,-0.9,41.1076193,16.8816934,False,3.641
2019-10-27 16:27:47.920,LG-H970,1572193667928.25,1.615,9.327,0.488,41.1076193,16.8816934,False,3.641
2019-10-27 16:27:47.940,LG-H970,1572193667947.5,0.095,9.185,-1.867,41.1076193,16.8816934,False,3.641
2019-10-27 16:27:47.960,LG-H970,1572193667968.0,0.493,10.376,-2.015,41.1076193,16.8816934,False,3.641
2019-10-27 16:27:47.980,LG-H970,1572193667989.8,2.153,10.542,0.972,41.1076193,16.8816934,False,3.6409999999999996
2019-10-27 16:27:48.000,LG-H970,1572193668012.0,0.166,12.27,-0.371,41.1076193,16.8816934,False,3.641
2019-10-27 16:27:48.020,LG-H970,1572193668032.0,-0.985,11.48,-1.145,41.1076193,16.8816934,False,3.641
2019-10-27 16:27:48.040,LG-H970,1572193668051.0,2.404,9.456,-2.019,41.1076193,16.8816934,False,3.641
2019-10-27 16:27:48.060,LG-H970,1572193668073.6667,1.623,8.465,-0.368,41.1076278,16.8817393,False,3.517
2019-10-27 16:27:48.080,LG-H970,1572193668091.0,-1.706,9.801,-2.176,41.1076278,16.8817393,False,3.517
2019-10-27 16:27:48.100,LG-H970,1572193668109.75,-1.153,9.708,-1.26,41.1076278,16.8817393,False,3.517
2019-10-27 16:27:48.120,LG-H970,1572193668129.5,1.826,10.541,-1.337,41.1076278,16.8817393,False,3.517
2019-10-27 16:27:48.140,LG-H970,1572193668149.75,0.326,9.413,-0.042,41.1076278,16.8817393,False,3.517
2019-10-27 16:27:48.160,LG-H970,1572193668169.25,-1.14,9.399,-1.944,41.1076278,16.8817393,False,3.517
2019-10-27 16:27:48.180,LG-H970,1572193668189.25,-0.529,8.612,-1.926,41.1076278,16.8817393,False,3.517
2019-10-27 16:27:48.200,LG-H970,1572193668209.0,0.304,9.327,-1.221,41.1076278,16.8817393,False,3.517
2019-10-27 16:27:48.220,LG-H970,1572193668228.75,0.165,10.283,-0.226,41.1076278,16.8817393,False,3.517
2019-10-27 16:27:48.240,LG-H970,1572193668248.25,-0.499,10.584,-0.846,41.1076278,16.8817393,False,3.517
2019-10-27 16:27:48.260,LG-H970,1572193668268.75,-0.784,9.108,-2.487,41.1076278,16.8817393,False,3.517
2019-10-27 16:27:48.280,LG-H970,1572193668288.5,0.282,9.619,-0.36,41.1076278,16.8817393,False,3.517
2019-10-27 16:27:48.300,LG-H970,1572193668307.6667,0.601,8.897,-0.169,41.1076278,16.8817393,False,3.517
2019-10-27 16:27:48.320,LG-H970,1572193668329.4,-1.886,11.492,-0.589,41.1076278,16.8817393,False,3.5170000000000003
2019-10-27 16:27:48.340,LG-H970,1572193668349.0,-0.511,9.86,-1.304,41.1076278,16.8817393,False,3.517
2019-10-27 16:27:48.360,LG-H970,1572193668368.8,2.732,8.563,-0.084,41.1076278,16.8817393,False,3.5170000000000003
2019-10-27 16:27:48.380,LG-H970,1572193668391.5,-0.138,8.685,-1.822,41.1076278,16.8817393,False,3.517
2019-10-27 16:27:48.400,LG-H970,1572193668410.75,-1.926,10.625,-1.725,41.1076278,16.8817393,False,3.517
2019-10-27 16:27:48.420,LG-H970,1572193668430.5,0.624,9.797,0.043,41.1076278,16.8817393,False,3.517
2019-10-27 16:27:48.440,LG-H970,1572193668450.25,2.576,10.34,0.696,41.1076278,16.8817393,False,3.517
2019-10-27 16:27:48.460,LG-H970,1572193668469.5,0.673,8.769,-0.335,41.1076278,16.8817393,False,3.517
2019-10-27 16:27:48.480,LG-H970,1572193668489.5,0.001,9.406,-2.496,41.1076278,16.8817393,False,3.517
2019-10-27 16:27:48.500,LG-H970,1572193668509.5,-0.849,8.729,-1.002,41.1076278,16.8817393,False,3.517
2019-10-27 16:27:48.520,LG-H970,1572193668529.0,-0.98,9.768,0.447,41.1076278,16.8817393,False,3.517
2019-10-27 16:27:48.540,LG-H970,1572193668549.5,-0.728,10.77,-1.242,41.1076278,16.8817393,False,3.517
2019-10-27 16:27:48.560,LG-H970,1572193668568.75,-1.712,10.429,-1.135,41.1076278,16.8817393,False,3.517
2019-10-27 16:27:48.580,LG-H970,1572193668588.0,-0.658,8.987,-2.283,41.1076278,16.8817393,False,3.517
2019-10-27 16:27:48.600,LG-H970,1572193668608.0,0.536,9.165,0.018,41.1076278,16.8817393,False,3.517
2019-10-27 16:27:48.620,LG-H970,1572193668627.5,-0.858,10.991,-0.902,41.1076278,16.8817393,False,3.517
2019-10-27 16:27:48.640,LG-H970,1572193668649.8,-1.398,11.285,-0.287,41.1076278,16.8817393,False,3.5170000000000003
2019-10-27 16:27:48.660,LG-H970,1572193668672.25,0.111,8.911,-1.615,41.1076278,16.8817393,False,3.517
2019-10-27 16:27:48.680,LG-H970,1572193668691.5,-1.201,9.04,-2.061,41.1076278,16.8817393,False,3.517
2019-10-27 16:27:48.700,LG-H970,1572193668711.5,-1.094,9.781,-1.019,41.1076278,16.8817393,False,3.517
2019-10-27 16:27:48.720,LG-H970,1572193668731.5,0.809,10.393,0.183,41.1076278,16.8817393,False,3.517
2019-10-27 16:27:48.740,LG-H970,1572193668751.25,0.934,11.145,-0.119,41.1076278,16.8817393,False,3.517
2019-10-27 16:27:48.760,LG-H970,1572193668770.75,0.328,10.463,-1.249,41.1076278,16.8817393,False,3.517
2019-10-27 16:27:48.780,LG-H970,1572193668791.6667,0.676,8.986,-0.574,41.1076278,16.8817393,False,3.517
2019-10-27 16:27:48.800,LG-H970,1572193668810.5,1.49,10.208,0.107,41.1076278,16.8817393,False,3.517
2019-10-27 16:27:48.820,LG-H970,1572193668829.75,0.98,11.641,0.552,41.1076278,16.8817393,False,3.517
