UTC_timestamp,device_name,timestamp,x,y,z,lat,long,event,speed
2019-10-27 11:37:36.600,LG-H970,1572176256610.5,-0.831,12.798,0.78,41.11589,16.8686211,False,9.142000000000001
2019-10-27 11:37:36.620,LG-H970,1572176256630.5,0.575,10.948,0.615,41.11589,16.8686211,False,9.142000000000001
2019-10-27 11:37:36.640,LG-H970,1572176256650.75,-2.005,8.281,-0.985,41.11589,16.8686211,False,9.142000000000001
2019-10-27 11:37:36.660,LG-H970,1572176256671.25,-1.556,11.152,0.53,41.11589,16.8686211,False,9.142000000000001
2019-10-27 11:37:36.680,LG-H970,1572176256690.0,0.573,9.927,0.866,41.11589,16.8686211,False,9.142000000000001
2019-10-27 11:37:36.700,LG-H970,1572176256709.5,-0.597,9.131,-1.39,41.11589,16.8686211,False,9.142000000000001
2019-10-27 11:37:36.720,LG-H970,1572176256730.5,-0.396,11.185,0.78,41.11589,16.8686211,False,9.142000000000001
2019-10-27 11:37:36.740,LG-H970,1572176256749.0,0.543,10.645,0.98,41.11589,16.8686211,False,9.142000000000001
2019-10-27 11:37:36.760,LG-H970,1572176256768.75,0.294,9.869,-1.231,41.11589,16.8686211,False,9.142000000000001
2019-10-27 11:37:36.780,LG-H970,1572176256790.0,1.169,11.872,1.701,41.11589,16.8686211,False,9.142000000000001
2019-10-27 11:37:36.800,LG-H970,1572176256811.0,1.95,10.219,-0.359,41.11589,16.8686211,False,9.142000000000001
2019-10-27 11:37:36.820,LG-H970,1572176256829.5,-1.042,9.415,-1.616,41.11589,16.8686211,False,9.142000000000001
2019-10-27 11:37:36.840,LG-H970,1572176256847.75,-0.223,9.256,1.399,41.11589,16.8686211,False,9.142000000000001
2019-10-27 11:37:36.860,LG-H970,1572176256869.8,-0.728,10.406,-0.767,41.11589,16.8686211,False,9.142000000000001
2019-10-27 11:37:36.880,LG-H970,1572176256889.3333,0.507,9.801,-1.916,41.11589,16.8686211,False,9.142000000000001
2019-10-27 11:37:36.900,LG-H970,1572176256907.0,0.083,9.417,0.28,41.11589,16.8686211,False,9.142000000000001
2019-10-27 11:37:36.920,LG-H970,1572176256927.0,0.271,10.227,-0.605,41.11589,16.8686211,False,9.142000000000001
2019-10-27 11:37:36.940,LG-H970,1572176256945.75,0.494,9.459,-0.125,41.11589,16.8686211,False,9.142000000000001
2019-10-27 11:37:36.960,LG-H970,1572176256970.0,-1.087,10.162,-0.468,41.11589,16.8686211,False,9.142000000000001
2019-10-27 11:37:36.980,LG-H970,1572176256991.5,0.372,7.509,-1.287,41.11589,16.8686211,False,9.142000000000001
2019-10-27 11:37:37.000,LG-H970,1572176257011.5,-1.207,9.87,-1.395,41.11589,16.8686211,False,9.142000000000001
2019-10-27 11:37:37.020,LG-H970,1572176257031.5,0.032,11.002,2.524,41.11589,16.8686211,False,9.142000000000001
2019-10-27 11:37:37.040,LG-H970,1572176257050.75,0.045,8.715,-2.504,41.11589,16.8686211,False,9.142000000000001
2019-10-27 11:37:37.060,LG-H970,1572176257070.25,-1.162,9.556,-1.351,41.11589,16.8686211,False,9.142000000000001
2019-10-27 11:37:37.080,LG-H970,1572176257090.5,1.157,12.549,2.332,41.11589,16.8686211,False,9.142000000000001
2019-10-27 11:37:37.100,LG-H970,1572176257110.25,-0.488,6.832,-1.196,41.11589,16.8686211,False,9.142000000000001
2019-10-27 11:37:37.120,LG-H970,1572176257129.75,0.015,10.63,-0.11,41.11589,16.8686211,False,9.142000000000001
2019-10-27 11:37:37.140,LG-H970,1572176257149.0,-1.201,11.0,1.266,41.11589,16.8686211,False,9.142000000000001
2019-10-27 11:37:37.160,LG-H970,1572176257167.75,1.279,8.075,-1.152,41.11589,16.8686211,False,9.142000000000001
2019-10-27 11:37:37.180,LG-H970,1572176257187.25,-1.269,8.655,-1.467,41.11589,16.8686211,False,9.142000000000001
2019-10-27 11:37:37.200,LG-H970,1572176257209.8,0.649,11.044,3.019,41.11589,16.8686211,False,9.142000000000001
2019-10-27 11:37:37.220,LG-H970,1572176257229.3333,-0.41,6.339,-3.381,41.11589,16.8686211,False,9.142000000000001
2019-10-27 11:37:37.240,LG-H970,1572176257249.2,-0.481,8.933,-1.093,41.11589,16.8686211,False,9.142000000000001
2019-10-27 11:37:37.260,LG-H970,1572176257271.25,0.039,12.433,4.245,41.11589,16.8686211,False,9.142000000000001
2019-10-27 11:37:37.280,LG-H970,1572176257290.75,-1.79,6.883,-3.756,41.11589,16.8686211,False,9.142000000000001
2019-10-27 11:37:37.300,LG-H970,1572176257309.0,1.263,9.137,-0.466,41.11589,16.8686211,False,9.142000000000001
2019-10-27 11:37:37.320,LG-H970,1572176257330.2,-0.638,12.975,2.609,41.11589,16.8686211,False,9.142000000000001
2019-10-27 11:37:37.340,LG-H970,1572176257350.5,-0.392,6.936,-2.755,41.11589,16.8686211,False,9.142000000000001
2019-10-27 11:37:37.360,LG-H970,1572176257369.75,1.159,9.135,-0.219,41.11589,16.8686211,False,9.142000000000001
2019-10-27 11:37:37.380,LG-H970,1572176257389.25,-1.538,13.85,2.862,41.11589,16.8686211,False,9.142000000000001
2019-10-27 11:37:37.400,LG-H970,1572176257408.0,-2.006,8.959,-2.019,41.11589,16.8686211,False,9.142000000000001
2019-10-27 11:37:37.420,LG-H970,1572176257430.5,0.807,9.762,0.273,41.11589,16.8686211,False,9.142000000000001
2019-10-27 11:37:37.440,LG-H970,1572176257448.75,-0.918,12.994,2.34,41.11589,16.8686211,False,9.142000000000001
2019-10-27 11:37:37.460,LG-H970,1572176257468.75,-0.262,9.465,-2.134,41.11589,16.8686211,False,9.142000000000001
2019-10-27 11:37:37.480,LG-H970,1572176257487.75,0.087,9.83,-0.399,41.11589,16.8686211,False,9.142000000000001
2019-10-27 11:37:37.500,LG-H970,1572176257509.0,-1.648,11.836,2.845,41.11589,16.8686211,False,9.142000000000001
2019-10-27 11:37:37.520,LG-H970,1572176257527.75,-0.496,8.907,-1.255,41.11589,16.8686211,False,9.142000000000001
2019-10-27 11:37:37.540,LG-H970,1572176257549.25,-0.102,10.156,-1.389,41.11589,16.8686211,False,9.142000000000001
2019-10-27 11:37:37.560,LG-H970,1572176257560.0,-1.418,11.152,0.62,41.11589,16.8686211,False,9.142000000000001
2019-10-27 11:37:37.580,LG-H970,1572176257560.0,-1.418,11.152,0.62,41.11589,16.8686211,False,9.142000000000001
2019-10-27 11:37:37.600,LG-H970,1572176257602.0,-1.653,9.678,1.235,41.11589,16.8686211,False,9.142000000000001
2019-10-27 11:37:37.620,LG-H970,1572176257602.0,-1.653,9.678,1.235,41.11589,16.8686211,False,9.142000000000001
2019-10-27 11:37:37.640,LG-H970,1572176257652.5,-1.47,6.556,-2.739,41.11589,16.8686211,False,9.142000000000001
2019-10-27 11:37:37.660,LG-H970,1572176257675.3333,-0.132,9.068,0.118,41.11589,16.8686211,False,9.142000000000001
2019-10-27 11:37:37.680,LG-H970,1572176257690.25,-1.102,10.667,1.005,41.11589,16.8686211,False,9.142000000000001
2019-10-27 11:37:37.700,LG-H970,1572176257709.5,-0.447,7.887,-2.432,41.11589,16.8686211,False,9.142000000000001
2019-10-27 11:37:37.720,LG-H970,1572176257729.5,0.345,9.198,-0.044,41.11589,16.8686211,False,9.142000000000001
2019-10-27 11:37:37.740,LG-H970,1572176257749.5,-0.795,10.585,1.164,41.11589,16.8686211,False,9.142000000000001
2019-10-27 11:37:37.760,LG-H970,1572176257769.25,-1.458,8.325,-1.636,41.11589,16.8686211,False,9.142000000000001
2019-10-27 11:37:37.780,LG-H970,1572176257788.5,0.189,10.605,0.592,41.11589,16.8686211,False,9.142000000000001
2019-10-27 11:37:37.800,LG-H970,1572176257808.5,-0.733,10.181,1.265,41.11589,16.8686211,False,9.142000000000001
2019-10-27 11:37:37.820,LG-H970,1572176257829.25,-0.374,8.215,-2.356,41.11589,16.8686211,False,9.142000000000001
2019-10-27 11:37:37.840,LG-H970,1572176257850.0,0.66,10.875,2.017,41.11589,16.8686211,False,9.142000000000001
2019-10-27 11:37:37.860,LG-H970,1572176257868.5,-1.259,9.735,0.255,41.11589,16.8686211,False,9.142000000000001
2019-10-27 11:37:37.880,LG-H970,1572176257888.0,-0.672,8.196,-1.348,41.11589,16.8686211,False,9.142000000000001
2019-10-27 11:37:37.900,LG-H970,1572176257910.0,-0.872,10.622,1.316,41.11589,16.8686211,False,9.142000000000001
2019-10-27 11:37:37.920,LG-H970,1572176257929.3333,-0.537,8.86,-1.278,41.11589,16.8686211,False,9.142000000000001
2019-10-27 11:37:37.940,LG-H970,1572176257949.2,-0.288,8.05,-0.127,41.11589,16.8686211,False,9.142000000000001
2019-10-27 11:37:37.960,LG-H970,1572176257972.0,-0.54,8.561,-0.569,41.11589,16.8686211,False,9.142000000000001
2019-10-27 11:37:37.980,LG-H970,1572176257992.25,-0.159,7.668,0.562,41.11589,16.8686211,False,9.142000000000001
2019-10-27 11:37:38.000,LG-H970,1572176258010.5,-2.258,7.428,-2.311,41.11589,16.8686211,False,9.142000000000001
2019-10-27 11:37:38.020,LG-H970,1572176258027.3333,-1.748,7.528,0.624,41.11589,16.8686211,False,9.142000000000001
2019-10-27 11:37:38.040,LG-H970,1572176258058.5,-0.155,11.307,1.558,41.11589,16.8686211,True,9.142000000000001
2019-10-27 11:37:38.060,LG-H970,1572176258068.2,-1.2,9.878,-1.265,41.11589,16.8686211,True,9.142000000000001
2019-10-27 11:37:38.080,LG-H970,1572176258083.0,0.706,8.591,-0.209,41.11589,16.8686211,False,9.142000000000001
2019-10-27 11:37:38.100,LG-H970,1572176258109.0,0.336,12.758,0.545,41.11589,16.8686211,True,9.142000000000001
2019-10-27 11:37:38.120,LG-H970,1572176258128.5,0.394,9.093,-0.125,41.11589,16.8686211,False,9.142000000000001
2019-10-27 11:37:38.140,LG-H970,1572176258148.5,0.784,14.306,1.147,41.11589,16.8686211,False,9.142000000000001
2019-10-27 11:37:38.160,LG-H970,1572176258168.0,0.797,14.659,1.886,41.11589,16.8686211,False,9.142000000000001
2019-10-27 11:37:38.180,LG-H970,1572176258188.75,1.141,11.282,0.388,41.11589,16.8686211,False,9.142000000000001
2019-10-27 11:37:38.200,LG-H970,1572176258207.5,-0.84,12.247,-1.486,41.11589,16.8686211,False,9.142000000000001
2019-10-27 11:37:38.220,LG-H970,1572176258228.0,0.701,13.981,2.672,41.11589,16.8686211,False,9.142000000000001
2019-10-27 11:37:38.240,LG-H970,1572176258248.0,1.82,10.761,0.612,41.11589,16.8686211,False,9.142000000000001
2019-10-27 11:37:38.260,LG-H970,1572176258267.25,-1.218,7.666,-1.48,41.11589,16.8686211,False,9.142000000000001
2019-10-27 11:37:38.280,LG-H970,1572176258290.2,-1.025,12.159,2.605,41.11589,16.8686211,False,9.142000000000001
2019-10-27 11:37:38.300,LG-H970,1572176258310.0,-0.715,10.525,-0.778,41.11589,16.8686211,False,9.142000000000001
2019-10-27 11:37:38.320,LG-H970,1572176258327.75,-1.798,8.894,-3.565,41.11589,16.8686211,False,9.142000000000001
2019-10-27 11:37:38.340,LG-H970,1572176258348.8,-1.169,13.9,2.894,41.11589,16.8686211,False,9.142000000000001
2019-10-27 11:37:38.360,LG-H970,1572176258369.75,-1.253,7.209,-2.615,41.11589,16.8686211,False,9.142000000000001
2019-10-27 11:37:38.380,LG-H970,1572176258390.25,-1.313,7.861,-4.243,41.11589,16.8686211,False,9.142000000000001
2019-10-27 11:37:38.400,LG-H970,1572176258410.25,1.254,15.882,3.729,41.11589,16.8686211,False,9.142000000000001
2019-10-27 11:37:38.420,LG-H970,1572176258430.0,-2.789,5.722,-4.364,41.11589,16.8686211,False,9.142000000000001
2019-10-27 11:37:38.440,LG-H970,1572176258451.0,-0.216,5.704,-5.36,41.11589,16.8686211,False,9.142000000000001
2019-10-27 11:37:38.460,LG-H970,1572176258469.0,1.665,11.336,2.84,41.11589,16.8686211,False,9.142000000000001
2019-10-27 11:37:38.480,LG-H970,1572176258489.75,-2.172,8.749,-0.27,41.11589,16.8686211,False,9.142000000000001
2019-10-27 11:37:38.500,LG-H970,1572176258510.0,1.384,6.708,-4.064,41.11589,16.8686211,False,9.142000000000001
2019-10-27 11:37:38.520,LG-H970,1572176258529.0,0.175,9.456,-0.634,41.11589,16.8686211,False,9.142000000000001
2019-10-27 11:37:38.540,LG-H970,1572176258548.5,-0.774,10.404,1.726,41.11589,16.8686211,False,9.142000000000001
2019-10-27 11:37:38.560,LG-H970,1572176258568.5,-0.431,8.029,-0.52,41.1159285,16.8686153,False,9.049
2019-10-27 11:37:38.580,LG-H970,1572176258587.75,-0.657,7.35,-1.821,41.1160439,16.8685978,False,8.77
2019-10-27 11:37:38.600,LG-H970,1572176258609.8,-0.129,13.156,2.651,41.1160439,16.8685978,False,8.77
2019-10-27 11:37:38.620,LG-H970,1572176258631.25,-4.54,8.581,-2.792,41.1160439,16.8685978,False,8.77
2019-10-27 11:37:38.640,LG-H970,1572176258651.75,1.39,6.126,1.276,41.1160439,16.8685978,False,8.77
2019-10-27 11:37:38.660,LG-H970,1572176258671.5,0.513,11.379,3.192,41.1160439,16.8685978,False,8.77
2019-10-27 11:37:38.680,LG-H970,1572176258688.6667,-3.886,10.851,-3.042,41.1160439,16.8685978,False,8.77
2019-10-27 11:37:38.700,LG-H970,1572176258709.0,1.058,7.627,-0.537,41.1160439,16.8685978,False,8.77
2019-10-27 11:37:38.720,LG-H970,1572176258730.75,-0.842,10.413,2.553,41.1160439,16.8685978,False,8.77
2019-10-27 11:37:38.740,LG-H970,1572176258751.0,-2.241,9.642,-0.403,41.1160439,16.8685978,False,8.77
2019-10-27 11:37:38.760,LG-H970,1572176258770.25,0.937,8.469,-1.014,41.1160439,16.8685978,False,8.77
2019-10-27 11:37:38.780,LG-H970,1572176258790.0,0.304,11.318,0.57,41.1160439,16.8685978,False,8.77
2019-10-27 11:37:38.800,LG-H970,1572176258809.75,-0.617,10.416,-0.037,41.1160439,16.8685978,False,8.77
2019-10-27 11:37:38.820,LG-H970,1572176258830.5,-0.248,7.086,-0.743,41.1160439,16.8685978,False,8.77
2019-10-27 11:37:38.840,LG-H970,1572176258848.75,-0.178,12.223,0.437,41.1160439,16.8685978,False,8.77
2019-10-27 11:37:38.860,LG-H970,1572176258869.0,-0.008,10.452,0.853,41.1160439,16.8685978,False,8.77
2019-10-27 11:37:38.880,LG-H970,1572176258888.0,-0.664,6.999,-3.621,41.1160439,16.8685978,False,8.77
2019-10-27 11:37:38.900,LG-H970,1572176258908.25,-0.822,9.392,-0.714,41.1160439,16.8685978,False,8.77
2019-10-27 11:37:38.920,LG-H970,1572176258927.75,-0.511,12.056,1.329,41.1160439,16.8685978,False,8.77
2019-10-27 11:37:38.940,LG-H970,1572176258947.5,-1.421,8.193,-1.667,41.1160439,16.8685978,False,8.77
2019-10-27 11:37:38.960,LG-H970,1572176258969.8,0.18,9.699,-1.363,41.1160439,16.8685978,False,8.77
2019-10-27 11:37:38.980,LG-H970,1572176258990.3333,2.056,12.009,1.396,41.1160439,16.8685978,False,8.77
2019-10-27 11:37:39.000,LG-H970,1572176259006.0,0.227,8.087,-1.928,41.1160439,16.8685978,False,8.77
2019-10-27 11:37:39.020,LG-H970,1572176259028.0,-0.149,9.47,-2.988,41.1160439,16.8685978,False,8.77
2019-10-27 11:37:39.040,LG-H970,1572176259048.0,0.795,11.848,2.533,41.1160439,16.8685978,False,8.77
2019-10-27 11:37:39.060,LG-H970,1572176259069.8,0.209,9.499,-1.678,41.1160439,16.8685978,False,8.77
2019-10-27 11:37:39.080,LG-H970,1572176259089.3333,-0.732,9.725,-1.963,41.1160439,16.8685978,False,8.77
2019-10-27 11:37:39.100,LG-H970,1572176259106.75,1.085,12.35,2.505,41.1160439,16.8685978,False,8.77
2019-10-27 11:37:39.120,LG-H970,1572176259128.8,-1.324,9.308,-1.814,41.1160439,16.8685978,False,8.77
2019-10-27 11:37:39.140,LG-H970,1572176259150.25,0.15,10.786,-0.596,41.1160439,16.8685978,False,8.77
2019-10-27 11:37:39.160,LG-H970,1572176259169.75,0.29,11.137,2.861,41.1160439,16.8685978,False,8.77
2019-10-27 11:37:39.180,LG-H970,1572176259189.75,-1.186,10.261,-1.511,41.1160439,16.8685978,False,8.77
2019-10-27 11:37:39.200,LG-H970,1572176259209.5,-0.565,10.824,0.285,41.1160439,16.8685978,False,8.77
2019-10-27 11:37:39.220,LG-H970,1572176259228.5,0.306,11.925,1.521,41.1160439,16.8685978,False,8.77
2019-10-27 11:37:39.240,LG-H970,1572176259248.25,-1.465,12.409,0.091,41.1160439,16.8685978,False,8.77
2019-10-27 11:37:39.260,LG-H970,1572176259268.25,-0.897,9.636,0.325,41.1160439,16.8685978,False,8.77
2019-10-27 11:37:39.280,LG-H970,1572176259288.0,0.426,6.308,-2.429,41.1160439,16.8685978,False,8.77
2019-10-27 11:37:39.300,LG-H970,1572176259310.0,0.412,13.639,1.892,41.1160439,16.8685978,False,8.77
2019-10-27 11:37:39.320,LG-H970,1572176259331.0,-1.538,8.812,-0.637,41.1160439,16.8685978,False,8.77
2019-10-27 11:37:39.340,LG-H970,1572176259347.25,-0.427,5.68,-3.63,41.1160439,16.8685978,False,8.77
2019-10-27 11:37:39.360,LG-H970,1572176259367.25,0.744,12.311,0.89,41.1160439,16.8685978,False,8.77
2019-10-27 11:37:39.380,LG-H970,1572176259389.2,-0.806,11.13,0.129,41.1160439,16.8685978,False,8.77
2019-10-27 11:37:39.400,LG-H970,1572176259410.5,0.88,6.481,-1.492,41.1160439,16.8685978,False,8.77
2019-10-27 11:37:39.420,LG-H970,1572176259430.75,-0.73,10.177,-3.258,41.1160439,16.8685978,False,8.77
2019-10-27 11:37:39.440,LG-H970,1572176259450.5,0.505,11.582,2.498,41.1160439,16.8685978,False,8.77
2019-10-27 11:37:39.460,LG-H970,1572176259469.75,-0.645,8.376,-1.228,41.1160439,16.8685978,False,8.77
2019-10-27 11:37:39.480,LG-H970,1572176259489.5,-1.295,7.464,-3.556,41.1160439,16.8685978,False,8.77
2019-10-27 11:37:39.500,LG-H970,1572176259510.25,1.111,11.901,2.146,41.1160439,16.8685978,False,8.77
2019-10-27 11:37:39.520,LG-H970,1572176259530.0,-1.27,10.699,-2.063,41.1160439,16.8685978,False,8.77
2019-10-27 11:37:39.540,LG-H970,1572176259548.5,-1.584,6.153,-4.686,41.1160439,16.8685978,False,8.77
2019-10-27 11:37:39.560,LG-H970,1572176259569.25,1.351,10.274,3.809,41.1160439,16.8685978,False,8.77
2019-10-27 11:37:39.580,LG-H970,1572176259582.0,-0.29,13.606,3.598,41.1160439,16.8685978,False,8.77
