UTC_timestamp,device_name,timestamp,x,y,z,lat,long,event,speed
2019-10-27 16:04:31.560,LG-H970,1572192271568.0,-0.687,9.664,-2.248,41.1069867,16.8801023,False,0.168
2019-10-27 16:04:31.580,LG-H970,1572192271588.0,0.485,9.924,-1.151,41.1069867,16.8801023,False,0.168
2019-10-27 16:04:31.600,LG-H970,1572192271608.0,0.892,9.732,-0.69,41.1069867,16.8801023,False,0.168
2019-10-27 16:04:31.620,LG-H970,1572192271630.2,-0.07,10.432,-1.83,41.1069867,16.8801023,False,0.168
2019-10-27 16:04:31.640,LG-H970,1572192271646.0,-0.136,9.676,-0.723,41.1069867,16.8801023,False,0.168
2019-10-27 16:04:31.660,LG-H970,1572192271668.6,0.814,8.838,-1.003,41.1069896,16.8800667,False,3.049
2019-10-27 16:04:31.680,LG-H970,1572192271690.5,-0.403,9.844,-1.66,41.1069896,16.8800667,False,3.049
2019-10-27 16:04:31.700,LG-H970,1572192271710.5,-0.807,10.216,-1.638,41.1069896,16.8800667,False,3.049
2019-10-27 16:04:31.720,LG-H970,1572192271730.5,1.569,10.371,-1.042,41.1069896,16.8800667,False,3.049
2019-10-27 16:04:31.740,LG-H970,1572192271749.75,1.335,9.782,-0.388,41.1069896,16.8800667,False,3.049
2019-10-27 16:04:31.760,LG-H970,1572192271769.5,-0.547,9.904,-2.357,41.1069896,16.8800667,False,3.049
2019-10-27 16:04:31.780,LG-H970,1572192271789.5,-0.444,9.742,-1.467,41.1069896,16.8800667,False,3.049
2019-10-27 16:04:31.800,LG-H970,1572192271809.75,0.482,8.941,-0.837,41.1069896,16.8800667,False,3.049
2019-10-27 16:04:31.820,LG-H970,1572192271830.25,0.421,10.428,-0.84,41.1069896,16.8800667,False,3.049
2019-10-27 16:04:31.840,LG-H970,1572192271848.5,-1.005,9.89,-0.996,41.1069896,16.8800667,False,3.049
2019-10-27 16:04:31.860,LG-H970,1572192271868.25,-0.058,10.769,-0.767,41.1069896,16.8800667,False,3.049
2019-10-27 16:04:31.880,LG-H970,1572192271887.75,0.385,10.218,-0.562,41.1069896,16.8800667,False,3.049
2019-10-27 16:04:31.900,LG-H970,1572192271908.0,-0.865,10.908,-0.212,41.1069896,16.8800667,False,3.049
2019-10-27 16:04:31.920,LG-H970,1572192271927.75,-1.596,11.602,-0.928,41.1069896,16.8800667,False,3.049
2019-10-27 16:04:31.940,LG-H970,1572192271948.0,-1.44,10.809,0.789,41.1069896,16.8800667,False,3.049
2019-10-27 16:04:31.960,LG-H970,1572192271969.4,-0.343,10.664,-0.126,41.1069896,16.8800667,False,3.049
2019-10-27 16:04:31.980,LG-H970,1572192271991.0,-0.322,10.304,-0.413,41.1069896,16.8800667,False,3.049
2019-10-27 16:04:32.000,LG-H970,1572192272011.25,-0.722,10.75,0.412,41.1069896,16.8800667,False,3.049
2019-10-27 16:04:32.020,LG-H970,1572192272031.5,-0.586,11.398,1.585,41.1069896,16.8800667,False,3.049
2019-10-27 16:04:32.040,LG-H970,1572192272050.75,-1.393,13.507,0.849,41.1069896,16.8800667,False,3.049
2019-10-27 16:04:32.060,LG-H970,1572192272070.5,-3.054,14.005,-0.536,41.1069896,16.8800667,False,3.049
2019-10-27 16:04:32.080,LG-H970,1572192272090.75,-1.707,11.321,-1.689,41.1069896,16.8800667,False,3.049
2019-10-27 16:04:32.100,LG-H970,1572192272110.5,2.176,7.645,-1.085,41.1069896,16.8800667,False,3.049
2019-10-27 16:04:32.120,LG-H970,1572192272130.25,2.655,7.096,-2.041,41.1069896,16.8800667,False,3.049
2019-10-27 16:04:32.140,LG-H970,1572192272149.5,1.271,8.462,-1.735,41.1069896,16.8800667,False,3.049
2019-10-27 16:04:32.160,LG-H970,1572192272169.5,2.089,8.437,-2.775,41.1069896,16.8800667,False,3.049
2019-10-27 16:04:32.180,LG-H970,1572192272189.75,2.324,9.139,-2.04,41.1069896,16.8800667,False,3.049
2019-10-27 16:04:32.200,LG-H970,1572192272209.0,1.272,8.056,-3.648,41.1069896,16.8800667,False,3.049
2019-10-27 16:04:32.220,LG-H970,1572192272229.5,2.293,8.267,-2.621,41.1069896,16.8800667,False,3.049
2019-10-27 16:04:32.240,LG-H970,1572192272248.5,2.848,8.971,-2.774,41.1069896,16.8800667,False,3.049
2019-10-27 16:04:32.260,LG-H970,1572192272268.25,1.238,9.434,-1.249,41.1069896,16.8800667,False,3.049
2019-10-27 16:04:32.280,LG-H970,1572192272288.75,2.616,7.287,-3.835,41.1069896,16.8800667,False,3.049
2019-10-27 16:04:32.300,LG-H970,1572192272305.6667,4.72,3.856,-1.717,41.1069896,16.8800667,False,3.049
2019-10-27 16:04:32.320,LG-H970,1572192272328.0,3.931,4.91,-2.884,41.1069896,16.8800667,False,3.049
2019-10-27 16:04:32.340,LG-H970,1572192272349.2,0.283,9.082,-1.338,41.1069896,16.8800667,False,3.049
2019-10-27 16:04:32.360,LG-H970,1572192272371.0,0.027,11.292,-0.525,41.1069896,16.8800667,False,3.049
2019-10-27 16:04:32.380,LG-H970,1572192272392.25,1.02,9.405,-1.358,41.1069896,16.8800667,False,3.049
2019-10-27 16:04:32.400,LG-H970,1572192272411.0,1.308,7.178,-3.951,41.1069896,16.8800667,False,3.049
2019-10-27 16:04:32.420,LG-H970,1572192272430.25,0.622,7.245,-2.551,41.1069896,16.8800667,False,3.049
2019-10-27 16:04:32.440,LG-H970,1572192272449.75,-0.441,9.533,-2.034,41.1069896,16.8800667,False,3.049
2019-10-27 16:04:32.460,LG-H970,1572192272469.25,-0.973,12.414,-1.958,41.1069896,16.8800667,False,3.049
2019-10-27 16:04:32.480,LG-H970,1572192272490.5,-1.274,12.071,-1.498,41.1069896,16.8800667,False,3.049
2019-10-27 16:04:32.500,LG-H970,1572192272509.0,-1.602,8.583,-3.121,41.1069896,16.8800667,False,3.049
2019-10-27 16:04:32.520,LG-H970,1572192272529.25,-1.79,8.217,-4.521,41.1069896,16.8800667,False,3.049
2019-10-27 16:04:32.540,LG-H970,1572192272548.75,-1.774,9.238,-3.786,41.1069896,16.8800667,False,3.049
2019-10-27 16:04:32.560,LG-H970,1572192272568.0,-2.209,11.384,-1.294,41.1069896,16.8800667,False,3.049
2019-10-27 16:04:32.580,LG-H970,1572192272588.5,-2.997,12.621,0.107,41.1069896,16.8800667,False,3.049
2019-10-27 16:04:32.600,LG-H970,1572192272608.5,-1.246,10.802,-1.318,41.1069896,16.8800667,False,3.049
2019-10-27 16:04:32.620,LG-H970,1572192272630.8,-0.68,7.563,-2.405,41.1069896,16.8800667,False,3.049
2019-10-27 16:04:32.640,LG-H970,1572192272651.75,-2.783,9.007,-4.227,41.1069896,16.8800667,False,3.049
2019-10-27 16:04:32.660,LG-H970,1572192272671.75,0.092,8.557,-3.913,41.1069928,16.8800132,False,3.861
2019-10-27 16:04:32.680,LG-H970,1572192272690.5,3.467,7.981,-0.969,41.1069928,16.8800132,False,3.861
2019-10-27 16:04:32.700,LG-H970,1572192272709.75,0.655,9.64,-0.965,41.1069928,16.8800132,False,3.861
2019-10-27 16:04:32.720,LG-H970,1572192272729.75,-1.051,9.797,-3.342,41.1069928,16.8800132,False,3.861
2019-10-27 16:04:32.740,LG-H970,1572192272749.75,4.293,9.022,-1.333,41.1069928,16.8800132,False,3.861
2019-10-27 16:04:32.760,LG-H970,1572192272769.5,5.516,8.112,-1.089,41.1069928,16.8800132,False,3.861
2019-10-27 16:04:32.780,LG-H970,1572192272789.5,-0.317,11.009,-1.346,41.1069928,16.8800132,False,3.861
2019-10-27 16:04:32.800,LG-H970,1572192272809.0,0.912,11.32,-1.929,41.1069928,16.8800132,False,3.861
2019-10-27 16:04:32.820,LG-H970,1572192272829.25,5.745,10.748,0.911,41.1069928,16.8800132,False,3.861
2019-10-27 16:04:32.840,LG-H970,1572192272844.0,2.888,8.792,2.263,41.1069928,16.8800132,False,3.861
2019-10-27 16:04:32.860,LG-H970,1572192272867.0,0.018,9.321,-4.997,41.1069928,16.8800132,False,3.8609999999999998
2019-10-27 16:04:32.880,LG-H970,1572192272887.75,6.94,4.691,-1.167,41.1069928,16.8800132,False,3.861
2019-10-27 16:04:32.900,LG-H970,1572192272907.5,10.137,5.026,2.049,41.1069928,16.8800132,False,3.861
2019-10-27 16:04:32.920,LG-H970,1572192272927.75,2.138,10.986,-0.897,41.1069928,16.8800132,False,3.861
2019-10-27 16:04:32.940,LG-H970,1572192272947.5,-2.635,14.639,-2.813,41.1069928,16.8800132,False,3.861
2019-10-27 16:04:32.960,LG-H970,1572192272967.0,0.898,11.881,-3.978,41.1069928,16.8800132,False,3.861
2019-10-27 16:04:32.980,LG-H970,1572192272989.2,4.352,7.726,1.337,41.1069928,16.8800132,False,3.8609999999999998
2019-10-27 16:04:33.000,LG-H970,1572192273011.25,0.449,9.564,-3.861,41.1069928,16.8800132,False,3.861
2019-10-27 16:04:33.020,LG-H970,1572192273031.0,-3.584,11.653,-5.74,41.1069928,16.8800132,False,3.861
2019-10-27 16:04:33.040,LG-H970,1572192273045.0,-2.843,12.096,-3.874,41.1069928,16.8800132,False,3.861
2019-10-27 16:04:33.060,LG-H970,1572192273063.0,-0.846,13.307,-3.51,41.1069928,16.8800132,True,3.861
2019-10-27 16:04:33.080,LG-H970,1572192273089.0,1.806,11.07,-3.296,41.1069928,16.8800132,False,3.861
2019-10-27 16:04:33.100,LG-H970,1572192273110.0,-2.938,10.159,-5.385,41.1069928,16.8800132,False,3.861
2019-10-27 16:04:33.120,LG-H970,1572192273129.0,-0.192,9.916,-1.864,41.1069928,16.8800132,False,3.861
2019-10-27 16:04:33.140,LG-H970,1572192273148.75,1.59,11.227,1.11,41.1069928,16.8800132,False,3.861
2019-10-27 16:04:33.160,LG-H970,1572192273168.0,-1.701,12.894,-0.532,41.1069928,16.8800132,False,3.861
2019-10-27 16:04:33.180,LG-H970,1572192273187.75,-3.587,11.886,-4.524,41.1069928,16.8800132,False,3.861
2019-10-27 16:04:33.200,LG-H970,1572192273207.5,-1.944,9.539,-2.748,41.1069928,16.8800132,False,3.861
2019-10-27 16:04:33.220,LG-H970,1572192273227.5,2.488,9.628,1.13,41.1069928,16.8800132,False,3.861
2019-10-27 16:04:33.240,LG-H970,1572192273247.5,1.126,11.207,1.722,41.1069928,16.8800132,False,3.861
2019-10-27 16:04:33.260,LG-H970,1572192273268.5,-3.489,13.602,-3.425,41.1069928,16.8800132,False,3.861
2019-10-27 16:04:33.280,LG-H970,1572192273287.25,-3.083,9.637,-4.504,41.1069928,16.8800132,False,3.861
2019-10-27 16:04:33.300,LG-H970,1572192273308.25,3.782,4.446,-0.628,41.1069928,16.8800132,False,3.861
2019-10-27 16:04:33.320,LG-H970,1572192273330.0,3.68,4.578,-2.246,41.1069928,16.8800132,False,3.8609999999999998
2019-10-27 16:04:33.340,LG-H970,1572192273350.6667,-1.574,6.937,-1.937,41.1069928,16.8800132,False,3.861
2019-10-27 16:04:33.360,LG-H970,1572192273368.4,1.84,9.706,-3.531,41.1069928,16.8800132,False,3.8609999999999998
2019-10-27 16:04:33.380,LG-H970,1572192273391.5,4.378,6.654,-2.385,41.1069928,16.8800132,False,3.861
2019-10-27 16:04:33.400,LG-H970,1572192273410.75,2.82,5.874,-2.005,41.1069928,16.8800132,False,3.861
2019-10-27 16:04:33.420,LG-H970,1572192273430.25,2.169,6.219,-2.675,41.1069928,16.8800132,False,3.861
2019-10-27 16:04:33.440,LG-H970,1572192273449.5,2.558,8.647,-3.502,41.1069928,16.8800132,False,3.861
2019-10-27 16:04:33.460,LG-H970,1572192273467.3333,2.182,10.19,0.038,41.1069928,16.8800132,False,3.861
2019-10-27 16:04:33.480,LG-H970,1572192273487.2,2.17,9.598,-1.104,41.1069928,16.8800132,False,3.8609999999999998
2019-10-27 16:04:33.500,LG-H970,1572192273508.75,0.398,9.407,-2.873,41.1069928,16.8800132,False,3.861
2019-10-27 16:04:33.520,LG-H970,1572192273529.75,-0.533,9.22,-5.246,41.1069928,16.8800132,False,3.861
2019-10-27 16:04:33.540,LG-H970,1572192273548.5,0.634,9.163,-1.4,41.1069928,16.8800132,False,3.861
2019-10-27 16:04:33.560,LG-H970,1572192273569.0,0.67,10.311,-1.488,41.1069928,16.8800132,False,3.861
2019-10-27 16:04:33.580,LG-H970,1572192273588.5,-2.002,12.154,-0.969,41.1069928,16.8800132,False,3.861
2019-10-27 16:04:33.600,LG-H970,1572192273608.25,-2.418,10.641,-2.819,41.1069928,16.8800132,False,3.861
2019-10-27 16:04:33.620,LG-H970,1572192273628.5,0.257,10.638,-1.668,41.1069928,16.8800132,False,3.861
2019-10-27 16:04:33.640,LG-H970,1572192273647.5,-0.64,10.62,-1.228,41.1069928,16.8800132,False,3.861
2019-10-27 16:04:33.660,LG-H970,1572192273670.3333,-2.382,12.984,-1.71,41.1069948,16.8799543,False,4.0969999999999995
2019-10-27 16:04:33.680,LG-H970,1572192273688.4,-1.789,12.373,-1.775,41.1069948,16.8799543,False,4.0969999999999995
2019-10-27 16:04:33.700,LG-H970,1572192273711.75,-0.052,11.238,-1.072,41.1069948,16.8799543,False,4.0969999999999995
2019-10-27 16:04:33.720,LG-H970,1572192273731.5,-0.961,10.888,-0.28,41.1069948,16.8799543,False,4.0969999999999995
2019-10-27 16:04:33.740,LG-H970,1572192273750.75,-1.648,12.404,-1.252,41.1069948,16.8799543,False,4.0969999999999995
2019-10-27 16:04:33.760,LG-H970,1572192273770.75,-2.047,12.936,-0.619,41.1069948,16.8799543,False,4.0969999999999995
2019-10-27 16:04:33.780,LG-H970,1572192273791.0,-2.24,12.763,-1.243,41.1069948,16.8799543,False,4.0969999999999995
2019-10-27 16:04:33.800,LG-H970,1572192273810.5,-0.89,11.427,-0.727,41.1069948,16.8799543,False,4.0969999999999995
2019-10-27 16:04:33.820,LG-H970,1572192273831.0,0.093,8.97,-0.007,41.1069948,16.8799543,False,4.0969999999999995
2019-10-27 16:04:33.840,LG-H970,1572192273849.75,0.062,10.011,-0.459,41.1069948,16.8799543,False,4.0969999999999995
2019-10-27 16:04:33.860,LG-H970,1572192273869.0,-0.479,9.919,-0.58,41.1069948,16.8799543,False,4.0969999999999995
2019-10-27 16:04:33.880,LG-H970,1572192273888.75,0.997,10.45,1.366,41.1069948,16.8799543,False,4.0969999999999995
2019-10-27 16:04:33.900,LG-H970,1572192273908.5,1.36,8.461,0.795,41.1069948,16.8799543,False,4.0969999999999995
2019-10-27 16:04:33.920,LG-H970,1572192273928.5,1.386,9.071,-0.799,41.1069948,16.8799543,False,4.0969999999999995
2019-10-27 16:04:33.940,LG-H970,1572192273948.5,2.51,7.477,-2.54,41.1069948,16.8799543,False,4.0969999999999995
2019-10-27 16:04:33.960,LG-H970,1572192273967.75,4.785,5.657,-0.719,41.1069948,16.8799543,False,4.0969999999999995
2019-10-27 16:04:33.980,LG-H970,1572192273987.25,5.894,4.732,-0.302,41.1069948,16.8799543,False,4.0969999999999995
2019-10-27 16:04:34.000,LG-H970,1572192274009.8,1.825,7.988,-1.917,41.1069948,16.8799543,False,4.0969999999999995
2019-10-27 16:04:34.020,LG-H970,1572192274031.5,0.348,10.132,-1.928,41.1069948,16.8799543,False,4.0969999999999995
2019-10-27 16:04:34.040,LG-H970,1572192274051.5,2.369,8.965,-0.259,41.1069948,16.8799543,False,4.0969999999999995
2019-10-27 16:04:34.060,LG-H970,1572192274069.3333,3.251,6.678,-1.346,41.1069948,16.8799543,False,4.0969999999999995
2019-10-27 16:04:34.080,LG-H970,1572192274089.4,1.68,7.001,-2.34,41.1069948,16.8799543,False,4.0969999999999995
2019-10-27 16:04:34.100,LG-H970,1572192274111.0,-0.672,7.841,-2.882,41.1069948,16.8799543,False,4.0969999999999995
2019-10-27 16:04:34.120,LG-H970,1572192274131.0,-0.048,9.341,-1.987,41.1069948,16.8799543,False,4.0969999999999995
2019-10-27 16:04:34.140,LG-H970,1572192274151.0,0.547,9.003,-0.337,41.1069948,16.8799543,False,4.0969999999999995
2019-10-27 16:04:34.160,LG-H970,1572192274170.0,0.055,9.719,-1.155,41.1069948,16.8799543,False,4.0969999999999995
2019-10-27 16:04:34.180,LG-H970,1572192274190.0,-1.914,8.689,-2.183,41.1069948,16.8799543,False,4.0969999999999995
2019-10-27 16:04:34.200,LG-H970,1572192274209.5,-1.261,8.826,-2.157,41.1069948,16.8799543,False,4.0969999999999995
2019-10-27 16:04:34.220,LG-H970,1572192274229.25,-1.105,9.987,-0.794,41.1069948,16.8799543,False,4.0969999999999995
2019-10-27 16:04:34.240,LG-H970,1572192274249.25,-2.444,11.892,0.564,41.1069948,16.8799543,False,4.0969999999999995
2019-10-27 16:04:34.260,LG-H970,1572192274269.0,-2.551,11.924,-0.644,41.1069948,16.8799543,False,4.0969999999999995
2019-10-27 16:04:34.280,LG-H970,1572192274288.25,-1.519,10.374,-0.376,41.1069948,16.8799543,False,4.0969999999999995
2019-10-27 16:04:34.300,LG-H970,1572192274308.0,-1.963,10.608,-0.794,41.1069948,16.8799543,False,4.0969999999999995
2019-10-27 16:04:34.320,LG-H970,1572192274328.5,-3.187,11.756,0.725,41.1069948,16.8799543,False,4.0969999999999995
2019-10-27 16:04:34.340,LG-H970,1572192274350.0,-1.89,12.629,0.884,41.1069948,16.8799543,False,4.0969999999999995
2019-10-27 16:04:34.360,LG-H970,1572192274371.0,-1.311,12.153,1.988,41.1069948,16.8799543,False,4.0969999999999995
2019-10-27 16:04:34.380,LG-H970,1572192274391.75,-1.116,11.667,0.649,41.1069948,16.8799543,False,4.0969999999999995
2019-10-27 16:04:34.400,LG-H970,1572192274411.5,-0.948,11.708,1.204,41.1069948,16.8799543,False,4.0969999999999995
2019-10-27 16:04:34.420,LG-H970,1572192274432.0,-0.278,11.492,1.629,41.1069948,16.8799543,False,4.0969999999999995
2019-10-27 16:04:34.440,LG-H970,1572192274450.5,0.132,12.345,1.956,41.1069948,16.8799543,False,4.0969999999999995
2019-10-27 16:04:34.460,LG-H970,1572192274470.25,-0.706,10.903,1.175,41.1069948,16.8799543,False,4.0969999999999995
2019-10-27 16:04:34.480,LG-H970,1572192274490.75,-0.755,10.733,-0.647,41.1069948,16.8799543,False,4.0969999999999995
2019-10-27 16:04:34.500,LG-H970,1572192274510.25,0.848,9.055,0.954,41.1069948,16.8799543,False,4.0969999999999995
2019-10-27 16:04:34.520,LG-H970,1572192274529.5,3.321,9.342,2.128,41.1069948,16.8799543,False,4.0969999999999995
2019-10-27 16:04:34.540,LG-H970,1572192274549.75,2.658,9.848,1.946,41.1069948,16.8799543,False,4.0969999999999995
