UTC_timestamp,device_name,timestamp,x,y,z,lat,long,event,speed
2019-10-26 10:40:36.040,LG-H970,1572086436047.5,-0.976,10.673,-2.767,41.1037524,16.8801939,False,NONE
2019-10-26 10:40:36.060,LG-H970,1572086436067.5,0.585,7.501,-0.932,41.1037524,16.8801939,False,NONE
2019-10-26 10:40:36.080,LG-H970,1572086436089.4,0.061,9.209,-2.311,41.1037524,16.8801939,False,NONE
2019-10-26 10:40:36.100,LG-H970,1572086436111.75,-2.211,10.674,-1.752,41.1037524,16.8801939,False,NONE
2019-10-26 10:40:36.120,LG-H970,1572086436131.25,-0.077,11.926,-0.833,41.1037524,16.8801939,False,NONE
2019-10-26 10:40:36.140,LG-H970,1572086436151.0,0.488,10.436,0.453,41.1037524,16.8801939,False,NONE
2019-10-26 10:40:36.160,LG-H970,1572086436170.75,-0.113,9.899,-0.267,41.1037524,16.8801939,False,NONE
2019-10-26 10:40:36.180,LG-H970,1572086436190.25,-0.363,10.301,-2.25,41.1037524,16.8801939,False,NONE
2019-10-26 10:40:36.200,LG-H970,1572086436210.75,-0.221,10.481,-0.298,41.1037524,16.8801939,False,NONE
2019-10-26 10:40:36.220,LG-H970,1572086436230.0,0.63,10.216,0.051,41.1037524,16.8801939,False,NONE
2019-10-26 10:40:36.240,LG-H970,1572086436248.5,0.763,10.504,1.239,41.1037524,16.8801939,False,NONE
2019-10-26 10:40:36.260,LG-H970,1572086436268.75,0.082,11.163,-0.144,41.1037524,16.8801939,False,NONE
2019-10-26 10:40:36.280,LG-H970,1572086436286.0,1.003,11.694,-2.129,41.1037524,16.8801939,False,NONE
2019-10-26 10:40:36.300,LG-H970,1572086436305.0,0.142,7.703,-1.246,41.1037524,16.8801939,False,NONE
2019-10-26 10:40:36.320,LG-H970,1572086436328.0,1.174,8.167,0.05,41.1037524,16.8801939,False,NONE
2019-10-26 10:40:36.340,LG-H970,1572086436346.75,-0.79,10.249,-0.544,41.1037524,16.8801939,False,NONE
2019-10-26 10:40:36.360,LG-H970,1572086436367.25,-1.302,10.612,2.407,41.1037524,16.8801939,False,NONE
2019-10-26 10:40:36.380,LG-H970,1572086436389.2,-0.163,9.515,-1.31,41.1037524,16.8801939,False,NONE
2019-10-26 10:40:36.400,LG-H970,1572086436411.0,-2.216,9.846,-0.563,41.1037524,16.8801939,False,NONE
2019-10-26 10:40:36.420,LG-H970,1572086436431.5,-1.124,9.096,-1.633,41.1037524,16.8801939,False,NONE
2019-10-26 10:40:36.440,LG-H970,1572086436450.5,-0.805,9.963,1.365,41.1037524,16.8801939,False,NONE
2019-10-26 10:40:36.460,LG-H970,1572086436470.25,-1.107,11.953,-0.197,41.1037524,16.8801939,False,NONE
2019-10-26 10:40:36.480,LG-H970,1572086436490.25,-3.39,11.263,-0.323,41.1037524,16.8801939,False,NONE
2019-10-26 10:40:36.500,LG-H970,1572086436509.5,-2.313,8.858,-0.56,41.1037524,16.8801939,False,NONE
2019-10-26 10:40:36.520,LG-H970,1572086436529.75,-0.992,7.235,-1.57,41.1037524,16.8801939,False,NONE
2019-10-26 10:40:36.540,LG-H970,1572086436549.0,-2.209,8.884,-1.424,41.1037524,16.8801939,False,NONE
2019-10-26 10:40:36.560,LG-H970,1572086436569.5,-2.911,10.877,-2.113,41.1037524,16.8801939,False,NONE
2019-10-26 10:40:36.580,LG-H970,1572086436589.25,-1.991,9.8,0.872,41.1037524,16.8801939,False,NONE
2019-10-26 10:40:36.600,LG-H970,1572086436609.25,-0.509,8.334,0.638,41.1037524,16.8801939,False,NONE
2019-10-26 10:40:36.620,LG-H970,1572086436629.5,-1.019,8.456,-0.902,41.1037524,16.8801939,False,NONE
2019-10-26 10:40:36.640,LG-H970,1572086436648.75,-3.204,7.68,-2.916,41.1037524,16.8801939,False,NONE
2019-10-26 10:40:36.660,LG-H970,1572086436668.5,-4.459,6.424,-0.909,41.1037524,16.8801939,False,NONE
2019-10-26 10:40:36.680,LG-H970,1572086436688.75,-1.942,7.079,-3.067,41.1037524,16.8801939,False,NONE
2019-10-26 10:40:36.700,LG-H970,1572086436710.6,-0.104,8.915,-0.177,41.1037524,16.8801939,False,NONE
2019-10-26 10:40:36.720,LG-H970,1572086436731.25,-1.081,9.786,0.76,41.1037524,16.8801939,False,NONE
2019-10-26 10:40:36.740,LG-H970,1572086436750.75,0.461,11.957,0.783,41.1037524,16.8801939,False,NONE
2019-10-26 10:40:36.760,LG-H970,1572086436770.5,0.02,10.338,-0.194,41.1037524,16.8801939,False,NONE
2019-10-26 10:40:36.780,LG-H970,1572086436790.75,0.15,10.085,-0.025,41.1037524,16.8801939,False,NONE
2019-10-26 10:40:36.800,LG-H970,1572086436810.5,-0.038,9.983,-0.078,41.1037524,16.8801939,False,NONE
2019-10-26 10:40:36.820,LG-H970,1572086436830.5,-0.606,12.388,-0.406,41.1037524,16.8801939,False,NONE
2019-10-26 10:40:36.840,LG-H970,1572086436850.25,-0.158,12.501,-0.782,41.1037524,16.8801939,False,NONE
2019-10-26 10:40:36.860,LG-H970,1572086436870.0,2.061,10.698,1.491,41.1037524,16.8801939,False,NONE
2019-10-26 10:40:36.880,LG-H970,1572086436890.25,2.164,9.166,0.051,41.1037524,16.8801939,False,NONE
2019-10-26 10:40:36.900,LG-H970,1572086436910.0,0.412,12.08,-1.617,41.1037524,16.8801939,False,NONE
2019-10-26 10:40:36.920,LG-H970,1572086436929.75,0.114,12.927,-1.495,41.1037524,16.8801939,False,NONE
2019-10-26 10:40:36.940,LG-H970,1572086436950.25,2.407,11.195,1.87,41.1037524,16.8801939,False,NONE
2019-10-26 10:40:36.960,LG-H970,1572086436969.0,2.423,9.885,1.625,41.1037524,16.8801939,False,NONE
2019-10-26 10:40:36.980,LG-H970,1572086436988.5,0.727,11.793,-2.253,41.1037524,16.8801939,False,NONE
2019-10-26 10:40:37.000,LG-H970,1572086437008.5,-1.093,11.107,-1.271,41.1037524,16.8801939,False,NONE
2019-10-26 10:40:37.020,LG-H970,1572086437028.5,0.253,10.023,1.52,41.1037524,16.8801939,False,NONE
2019-10-26 10:40:37.040,LG-H970,1572086437047.75,0.88,11.441,0.682,41.1037524,16.8801939,False,NONE
2019-10-26 10:40:37.060,LG-H970,1572086437069.8,-1.893,10.845,0.326,41.1037524,16.8801939,False,NONE
2019-10-26 10:40:37.080,LG-H970,1572086437089.6667,-1.084,10.283,-1.463,41.1037524,16.8801939,False,NONE
2019-10-26 10:40:37.100,LG-H970,1572086437109.8,-0.703,9.107,-1.49,41.1037524,16.8801939,False,NONE
2019-10-26 10:40:37.120,LG-H970,1572086437131.75,-0.209,10.203,-0.186,41.1037524,16.8801939,False,NONE
2019-10-26 10:40:37.140,LG-H970,1572086437151.0,-0.296,10.093,1.187,41.1037524,16.8801939,False,NONE
2019-10-26 10:40:37.160,LG-H970,1572086437170.5,-0.661,10.637,0.401,41.1037524,16.8801939,False,NONE
2019-10-26 10:40:37.180,LG-H970,1572086437192.0,-2.052,9.832,-0.683,41.1037524,16.8801939,False,NONE
2019-10-26 10:40:37.200,LG-H970,1572086437209.25,-0.7,9.781,-1.961,41.1037524,16.8801939,False,NONE
2019-10-26 10:40:37.220,LG-H970,1572086437229.25,0.131,9.709,0.093,41.1037524,16.8801939,False,NONE
2019-10-26 10:40:37.240,LG-H970,1572086437248.5,-1.474,9.233,1.716,41.1037524,16.8801939,False,NONE
2019-10-26 10:40:37.260,LG-H970,1572086437268.5,-1.486,9.854,-0.255,41.1037524,16.8801939,False,NONE
2019-10-26 10:40:37.280,LG-H970,1572086437288.0,-1.322,9.514,-2.485,41.1037524,16.8801939,False,NONE
2019-10-26 10:40:37.300,LG-H970,1572086437307.75,-2.079,7.824,-1.155,41.1037524,16.8801939,False,NONE
2019-10-26 10:40:37.320,LG-H970,1572086437329.8,-1.702,6.726,0.347,41.1037524,16.8801939,False,NONE
2019-10-26 10:40:37.340,LG-H970,1572086437349.3333,-2.5,8.185,1.202,41.1037524,16.8801939,False,NONE
2019-10-26 10:40:37.360,LG-H970,1572086437365.0,-4.848,8.773,-0.43,41.1037524,16.8801939,False,NONE
2019-10-26 10:40:37.380,LG-H970,1572086437388.0,-3.822,9.201,-0.307,41.1037524,16.8801939,False,NONE
2019-10-26 10:40:37.400,LG-H970,1572086437406.75,-0.509,6.445,-0.853,41.1037524,16.8801939,False,NONE
2019-10-26 10:40:37.420,LG-H970,1572086437432.75,0.598,8.606,-1.167,41.1037524,16.8801939,False,NONE
2019-10-26 10:40:37.440,LG-H970,1572086437451.0,-2.177,11.084,-0.447,41.1037524,16.8801939,False,NONE
2019-10-26 10:40:37.460,LG-H970,1572086437470.5,-1.124,12.549,0.428,41.1037524,16.8801939,False,NONE
2019-10-26 10:40:37.480,LG-H970,1572086437487.3333,1.406,11.412,0.278,41.1037524,16.8801939,False,NONE
2019-10-26 10:40:37.500,LG-H970,1572086437507.8,2.167,9.406,-1.407,41.1037524,16.8801939,False,NONE
2019-10-26 10:40:37.520,LG-H970,1572086437530.0,-0.024,9.582,-2.281,41.1037524,16.8801939,False,NONE
2019-10-26 10:40:37.540,LG-H970,1572086437549.25,0.193,9.893,-1.508,41.1037524,16.8801939,True,NONE
2019-10-26 10:40:37.560,LG-H970,1572086437568.5,2.353,11.513,-0.512,41.1037524,16.8801939,True,NONE
2019-10-26 10:40:37.580,LG-H970,1572086437588.5,0.901,11.556,-0.022,41.1037524,16.8801939,False,NONE
2019-10-26 10:40:37.600,LG-H970,1572086437608.5,0.072,11.78,-1.468,41.1037524,16.8801939,False,NONE
2019-10-26 10:40:37.620,LG-H970,1572086437628.5,2.351,10.225,-1.697,41.1037524,16.8801939,False,NONE
2019-10-26 10:40:37.640,LG-H970,1572086437648.0,1.726,8.674,-2.07,41.1037524,16.8801939,False,NONE
2019-10-26 10:40:37.660,LG-H970,1572086437667.75,-1.668,10.881,-1.525,41.1037524,16.8801939,False,NONE
2019-10-26 10:40:37.680,LG-H970,1572086437687.5,-1.708,12.42,-0.742,41.1037524,16.8801939,False,NONE
2019-10-26 10:40:37.700,LG-H970,1572086437707.5,0.697,10.223,-0.589,41.1037524,16.8801939,False,NONE
2019-10-26 10:40:37.720,LG-H970,1572086437727.5,1.555,8.428,-0.028,41.1037524,16.8801939,False,NONE
2019-10-26 10:40:37.740,LG-H970,1572086437747.75,-0.325,9.208,-1.659,41.1037524,16.8801939,False,NONE
2019-10-26 10:40:37.760,LG-H970,1572086437770.4,-1.914,10.72,-1.472,41.1037524,16.8801939,False,NONE
2019-10-26 10:40:37.780,LG-H970,1572086437791.5,1.561,11.125,0.872,41.1037524,16.8801939,False,NONE
2019-10-26 10:40:37.800,LG-H970,1572086437809.0,2.778,9.555,1.173,41.1037524,16.8801939,False,NONE
2019-10-26 10:40:37.820,LG-H970,1572086437829.4,1.015,10.11,0.984,41.1037524,16.8801939,False,NONE
2019-10-26 10:40:37.840,LG-H970,1572086437853.0,-2.29,8.795,-2.026,41.1037524,16.8801939,False,NONE
2019-10-26 10:40:37.860,LG-H970,1572086437871.0,0.015,10.671,-1.417,41.1037524,16.8801939,False,NONE
2019-10-26 10:40:37.880,LG-H970,1572086437890.5,0.625,8.684,-0.377,41.1037524,16.8801939,False,NONE
2019-10-26 10:40:37.900,LG-H970,1572086437910.25,0.222,8.924,0.672,41.1037524,16.8801939,False,NONE
2019-10-26 10:40:37.920,LG-H970,1572086437930.25,-0.362,9.494,0.246,41.1037524,16.8801939,False,NONE
2019-10-26 10:40:37.940,LG-H970,1572086437950.5,-1.055,9.241,-1.046,41.1037524,16.8801939,False,NONE
2019-10-26 10:40:37.960,LG-H970,1572086437968.75,-1.551,9.674,0.07,41.1037524,16.8801939,False,NONE
2019-10-26 10:40:37.980,LG-H970,1572086437989.0,-1.149,10.222,0.638,41.1037524,16.8801939,False,NONE
2019-10-26 10:40:38.000,LG-H970,1572086438009.25,-1.322,9.937,-0.138,41.1037524,16.8801939,False,NONE
2019-10-26 10:40:38.020,LG-H970,1572086438029.0,-2.943,9.231,0.739,41.1037524,16.8801939,False,NONE
2019-10-26 10:40:38.040,LG-H970,1572086438048.75,-0.944,9.842,-0.317,41.1037524,16.8801939,False,NONE
2019-10-26 10:40:38.060,LG-H970,1572086438069.0,-3.312,7.898,-0.093,41.1037524,16.8801939,False,NONE
2019-10-26 10:40:38.080,LG-H970,1572086438088.5,-1.945,11.826,-1.318,41.1037524,16.8801939,False,NONE
2019-10-26 10:40:38.100,LG-H970,1572086438108.5,-2.786,9.903,-2.001,41.1037524,16.8801939,False,NONE
2019-10-26 10:40:38.120,LG-H970,1572086438128.25,-1.759,8.806,0.588,41.1037524,16.8801939,False,NONE
2019-10-26 10:40:38.140,LG-H970,1572086438147.75,-0.797,8.978,-1.857,41.1037524,16.8801939,False,NONE
2019-10-26 10:40:38.160,LG-H970,1572086438169.8,-1.952,10.451,-0.931,41.1037524,16.8801939,False,NONE
2019-10-26 10:40:38.180,LG-H970,1572086438192.0,-2.275,10.583,-1.683,41.1037524,16.8801939,False,NONE
2019-10-26 10:40:38.200,LG-H970,1572086438211.5,-1.695,9.632,-0.147,41.1037524,16.8801939,False,NONE
2019-10-26 10:40:38.220,LG-H970,1572086438232.0,0.358,8.802,-0.063,41.1037524,16.8801939,False,NONE
2019-10-26 10:40:38.240,LG-H970,1572086438251.25,-0.663,9.47,-1.751,41.1037524,16.8801939,False,NONE
2019-10-26 10:40:38.260,LG-H970,1572086438271.5,-2.665,9.555,-2.626,41.1037524,16.8801939,False,NONE
2019-10-26 10:40:38.280,LG-H970,1572086438290.75,-1.03,9.503,-1.288,41.1037524,16.8801939,False,NONE
2019-10-26 10:40:38.300,LG-H970,1572086438311.0,0.345,8.976,0.762,41.1037524,16.8801939,False,NONE
2019-10-26 10:40:38.320,LG-H970,1572086438329.75,-1.134,10.39,0.278,41.1037524,16.8801939,False,NONE
2019-10-26 10:40:38.340,LG-H970,1572086438349.75,-3.847,10.502,-1.44,41.1037524,16.8801939,False,NONE
2019-10-26 10:40:38.360,LG-H970,1572086438369.5,-1.89,8.834,-1.021,41.1037524,16.8801939,False,NONE
2019-10-26 10:40:38.380,LG-H970,1572086438387.5,0.458,7.252,-0.875,41.1037524,16.8801939,False,NONE
2019-10-26 10:40:38.400,LG-H970,1572086438408.25,-0.556,8.81,0.835,41.1037524,16.8801939,False,NONE
2019-10-26 10:40:38.420,LG-H970,1572086438427.75,0.317,13.548,0.412,41.1037524,16.8801939,False,NONE
2019-10-26 10:40:38.440,LG-H970,1572086438447.75,0.986,12.505,0.673,41.1037524,16.8801939,False,NONE
2019-10-26 10:40:38.460,LG-H970,1572086438470.4,1.633,8.718,0.483,41.1037524,16.8801939,False,NONE
2019-10-26 10:40:38.480,LG-H970,1572086438491.5,0.993,9.398,-1.908,41.1037524,16.8801939,False,NONE
2019-10-26 10:40:38.500,LG-H970,1572086438511.5,-0.287,10.768,-1.857,41.1037524,16.8801939,False,NONE
2019-10-26 10:40:38.520,LG-H970,1572086438531.75,0.016,10.927,1.184,41.1037524,16.8801939,False,NONE
2019-10-26 10:40:38.540,LG-H970,1572086438551.25,1.662,10.39,1.295,41.1037524,16.8801939,False,NONE
2019-10-26 10:40:38.560,LG-H970,1572086438571.5,0.697,9.597,0.112,41.1037524,16.8801939,False,NONE
2019-10-26 10:40:38.580,LG-H970,1572086438591.75,-0.861,10.073,-2.803,41.1037524,16.8801939,False,NONE
2019-10-26 10:40:38.600,LG-H970,1572086438611.0,-0.553,10.153,-1.254,41.1037524,16.8801939,False,NONE
2019-10-26 10:40:38.620,LG-H970,1572086438631.5,2.231,11.225,0.874,41.1037524,16.8801939,False,NONE
2019-10-26 10:40:38.640,LG-H970,1572086438650.0,1.183,11.123,2.497,41.1037524,16.8801939,False,NONE
2019-10-26 10:40:38.660,LG-H970,1572086438669.5,-1.213,10.778,-0.054,41.1037524,16.8801939,False,NONE
2019-10-26 10:40:38.680,LG-H970,1572086438689.5,-2.054,10.189,-2.422,41.1037524,16.8801939,False,NONE
2019-10-26 10:40:38.700,LG-H970,1572086438709.25,-1.593,9.015,-2.197,41.1037524,16.8801939,False,NONE
2019-10-26 10:40:38.720,LG-H970,1572086438730.75,-0.62,9.749,0.357,41.1037524,16.8801939,False,NONE
2019-10-26 10:40:38.740,LG-H970,1572086438749.5,-1.306,9.072,0.795,41.1037524,16.8801939,False,NONE
2019-10-26 10:40:38.760,LG-H970,1572086438769.25,-1.723,8.995,-0.335,41.1037524,16.8801939,False,NONE
2019-10-26 10:40:38.780,LG-H970,1572086438790.8,-1.722,7.681,-2.56,41.1037524,16.8801939,False,NONE
2019-10-26 10:40:38.800,LG-H970,1572086438809.3333,-1.379,6.312,-1.316,41.1037524,16.8801939,False,NONE
2019-10-26 10:40:38.820,LG-H970,1572086438827.0,-1.316,8.458,-1.744,41.1037524,16.8801939,False,NONE
2019-10-26 10:40:38.840,LG-H970,1572086438848.0,-3.022,10.642,-0.248,41.1037524,16.8801939,False,NONE
2019-10-26 10:40:38.860,LG-H970,1572086438871.75,-1.643,10.96,1.392,41.1037524,16.8801939,False,NONE
2019-10-26 10:40:38.880,LG-H970,1572086438890.75,-0.296,7.974,0.55,41.1037524,16.8801939,False,NONE
2019-10-26 10:40:38.900,LG-H970,1572086438910.75,-0.916,8.283,-2.222,41.1037524,16.8801939,False,NONE
2019-10-26 10:40:38.920,LG-H970,1572086438930.75,-3.553,9.007,-3.198,41.1037524,16.8801939,False,NONE
2019-10-26 10:40:38.940,LG-H970,1572086438950.75,-2.017,10.565,0.999,41.1037524,16.8801939,False,NONE
2019-10-26 10:40:38.960,LG-H970,1572086438972.75,-0.01,10.773,1.641,41.1037524,16.8801939,False,NONE
2019-10-26 10:40:38.980,LG-H970,1572086438989.75,-1.31,11.801,2.462,41.1037524,16.8801939,False,NONE
2019-10-26 10:40:39.000,LG-H970,1572086439010.0,-1.067,10.137,-1.182,41.1037524,16.8801939,False,NONE
2019-10-26 10:40:39.020,LG-H970,1572086439030.0,1.398,9.824,-1.586,41.1037524,16.8801939,False,NONE
