UTC_timestamp,device_name,timestamp,x,y,z,lat,long,event,speed
2019-10-26 10:38:08.800,LG-H970,1572086288811.75,1.826,12.575,-2.249,41.1039846,16.8792228,False,NONE
2019-10-26 10:38:08.820,LG-H970,1572086288831.5,7.941,7.42,5.475,41.1039846,16.8792228,False,NONE
2019-10-26 10:38:08.840,LG-H970,1572086288851.0,5.991,9.347,3.224,41.1039846,16.8792228,False,NONE
2019-10-26 10:38:08.860,LG-H970,1572086288870.75,-3.316,12.978,-4.011,41.1039846,16.8792228,False,NONE
2019-10-26 10:38:08.880,LG-H970,1572086288889.75,-3.861,13.943,-3.704,41.1039846,16.8792228,False,NONE
2019-10-26 10:38:08.900,LG-H970,1572086288909.5,1.131,8.455,-0.133,41.1039846,16.8792228,False,NONE
2019-10-26 10:38:08.920,LG-H970,1572086288929.5,5.612,8.595,2.08,41.1039846,16.8792228,False,NONE
2019-10-26 10:38:08.940,LG-H970,1572086288949.75,-0.471,11.301,0.609,41.1039846,16.8792228,False,NONE
2019-10-26 10:38:08.960,LG-H970,1572086288969.5,-5.556,13.044,-2.098,41.1039846,16.8792228,False,NONE
2019-10-26 10:38:08.980,LG-H970,1572086288989.75,-2.724,11.47,-2.13,41.1039846,16.8792228,False,NONE
2019-10-26 10:38:09.000,LG-H970,1572086289010.25,0.896,7.272,-0.765,41.1039846,16.8792228,False,NONE
2019-10-26 10:38:09.020,LG-H970,1572086289030.25,1.227,8.165,1.299,41.1039846,16.8792228,False,NONE
2019-10-26 10:38:09.040,LG-H970,1572086289049.75,-1.989,10.939,-1.144,41.1039846,16.8792228,False,NONE
2019-10-26 10:38:09.060,LG-H970,1572086289069.25,-3.511,12.333,-0.374,41.1039846,16.8792228,False,NONE
2019-10-26 10:38:09.080,LG-H970,1572086289088.5,-0.779,10.142,0.51,41.1039846,16.8792228,False,NONE
2019-10-26 10:38:09.100,LG-H970,1572086289109.0,1.094,7.937,1.195,41.1039846,16.8792228,False,NONE
2019-10-26 10:38:09.120,LG-H970,1572086289128.75,-0.435,7.757,0.102,41.1039846,16.8792228,False,NONE
2019-10-26 10:38:09.140,LG-H970,1572086289146.3333,-2.167,9.354,-1.738,41.1039846,16.8792228,False,NONE
2019-10-26 10:38:09.160,LG-H970,1572086289171.2,-2.506,9.721,-0.149,41.1039846,16.8792228,False,NONE
2019-10-26 10:38:09.180,LG-H970,1572086289191.75,-1.672,8.551,1.575,41.1039846,16.8792228,False,NONE
2019-10-26 10:38:09.200,LG-H970,1572086289210.75,-0.361,8.944,0.944,41.1039846,16.8792228,False,NONE
2019-10-26 10:38:09.220,LG-H970,1572086289230.5,-1.034,8.37,1.245,41.1039846,16.8792228,False,NONE
2019-10-26 10:38:09.240,LG-H970,1572086289250.5,0.077,9.937,1.828,41.1039846,16.8792228,False,NONE
2019-10-26 10:38:09.260,LG-H970,1572086289270.75,-0.682,9.918,0.543,41.1039846,16.8792228,False,NONE
2019-10-26 10:38:09.280,LG-H970,1572086289290.0,3.135,11.953,-2.551,41.1039846,16.8792228,False,NONE
2019-10-26 10:38:09.300,LG-H970,1572086289309.5,2.162,5.841,-1.164,41.1039846,16.8792228,False,NONE
2019-10-26 10:38:09.320,LG-H970,1572086289329.5,4.63,8.983,0.89,41.1039846,16.8792228,False,NONE
2019-10-26 10:38:09.340,LG-H970,1572086289350.75,2.783,8.833,-3.683,41.1039846,16.8792228,False,NONE
2019-10-26 10:38:09.360,LG-H970,1572086289369.5,0.34,13.622,0.465,41.1039846,16.8792228,False,NONE
2019-10-26 10:38:09.380,LG-H970,1572086289389.25,-0.035,11.424,-2.007,41.1039846,16.8792228,False,NONE
2019-10-26 10:38:09.400,LG-H970,1572086289409.75,3.087,11.51,0.063,41.1039846,16.8792228,False,NONE
2019-10-26 10:38:09.420,LG-H970,1572086289429.75,3.435,8.935,-2.452,41.1039846,16.8792228,False,NONE
2019-10-26 10:38:09.440,LG-H970,1572086289448.5,1.24,10.282,-2.099,41.1039846,16.8792228,False,NONE
2019-10-26 10:38:09.460,LG-H970,1572086289468.25,-1.489,11.685,-1.884,41.1039846,16.8792228,False,NONE
2019-10-26 10:38:09.480,LG-H970,1572086289487.5,-3.789,11.039,-0.825,41.1039846,16.8792228,False,NONE
2019-10-26 10:38:09.500,LG-H970,1572086289507.5,-1.093,9.275,0.849,41.1039846,16.8792228,False,NONE
2019-10-26 10:38:09.520,LG-H970,1572086289527.75,0.83,8.75,-0.225,41.1039846,16.8792228,False,NONE
2019-10-26 10:38:09.540,LG-H970,1572086289549.8,-3.851,10.04,-2.07,41.1039846,16.8792228,False,NONE
2019-10-26 10:38:09.560,LG-H970,1572086289571.5,-7.388,10.773,-0.978,41.1039846,16.8792228,False,NONE
2019-10-26 10:38:09.580,LG-H970,1572086289591.0,-2.129,9.739,-0.285,41.1039846,16.8792228,False,NONE
2019-10-26 10:38:09.600,LG-H970,1572086289610.75,1.083,9.186,2.735,41.1039846,16.8792228,False,NONE
2019-10-26 10:38:09.620,LG-H970,1572086289630.5,-2.396,10.077,-0.031,41.1039846,16.8792228,False,NONE
2019-10-26 10:38:09.640,LG-H970,1572086289650.5,-5.579,12.043,-4.246,41.1039846,16.8792228,False,NONE
2019-10-26 10:38:09.660,LG-H970,1572086289670.0,-3.173,10.129,-2.995,41.1039846,16.8792228,False,NONE
2019-10-26 10:38:09.680,LG-H970,1572086289690.0,2.794,8.381,0.076,41.1039846,16.8792228,False,NONE
2019-10-26 10:38:09.700,LG-H970,1572086289709.75,1.214,8.934,2.163,41.1039846,16.8792228,False,NONE
2019-10-26 10:38:09.720,LG-H970,1572086289729.25,-3.201,12.152,-2.11,41.1039846,16.8792228,False,NONE
2019-10-26 10:38:09.740,LG-H970,1572086289750.25,-4.083,9.827,-2.5,41.1039846,16.8792228,False,NONE
2019-10-26 10:38:09.760,LG-H970,1572086289769.5,1.474,7.717,-0.444,41.1039846,16.8792228,False,NONE
2019-10-26 10:38:09.780,LG-H970,1572086289788.3333,2.04,4.354,-0.462,41.1039846,16.8792228,False,NONE
2019-10-26 10:38:09.800,LG-H970,1572086289808.75,-1.35,8.3,-0.641,41.1039846,16.8792228,False,NONE
2019-10-26 10:38:09.820,LG-H970,1572086289829.25,-1.801,12.394,-2.984,41.1039846,16.8792228,False,NONE
2019-10-26 10:38:09.840,LG-H970,1572086289849.5,0.753,11.244,0.506,41.1039846,16.8792228,False,NONE
2019-10-26 10:38:09.860,LG-H970,1572086289867.0,3.326,8.195,1.434,41.1039846,16.8792228,False,NONE
2019-10-26 10:38:09.880,LG-H970,1572086289889.0,1.651,10.382,-1.216,41.1039846,16.8792228,False,NONE
2019-10-26 10:38:09.900,LG-H970,1572086289910.5,-1.739,9.921,-2.556,41.1039846,16.8792228,False,NONE
2019-10-26 10:38:09.920,LG-H970,1572086289931.5,0.267,9.663,-2.14,41.1039846,16.8792228,False,NONE
2019-10-26 10:38:09.940,LG-H970,1572086289950.75,2.51,9.405,-0.886,41.1039846,16.8792228,False,NONE
2019-10-26 10:38:09.960,LG-H970,1572086289970.75,0.494,8.633,-2.118,41.1039846,16.8792228,False,NONE
2019-10-26 10:38:09.980,LG-H970,1572086289989.5,-0.877,10.043,-2.235,41.1039846,16.8792228,False,NONE
2019-10-26 10:38:10.000,LG-H970,1572086290009.75,-1.047,10.462,0.126,41.1039846,16.8792228,False,NONE
2019-10-26 10:38:10.020,LG-H970,1572086290029.75,1.608,9.406,-0.504,41.1039846,16.8792228,False,NONE
2019-10-26 10:38:10.040,LG-H970,1572086290048.75,0.919,10.352,-1.652,41.1039846,16.8792228,False,NONE
2019-10-26 10:38:10.060,LG-H970,1572086290069.0,-2.595,9.413,-0.071,41.1039846,16.8792228,False,NONE
2019-10-26 10:38:10.080,LG-H970,1572086290088.75,-0.284,10.179,-0.263,41.1039846,16.8792228,False,NONE
2019-10-26 10:38:10.100,LG-H970,1572086290109.0,-1.736,10.881,-0.505,41.1039846,16.8792228,False,NONE
2019-10-26 10:38:10.120,LG-H970,1572086290128.75,-2.834,11.43,-0.184,41.1039846,16.8792228,False,NONE
2019-10-26 10:38:10.140,LG-H970,1572086290148.5,-0.172,9.598,1.027,41.1039846,16.8792228,False,NONE
2019-10-26 10:38:10.160,LG-H970,1572086290168.25,1.35,12.255,-0.611,41.1039846,16.8792228,False,NONE
2019-10-26 10:38:10.180,LG-H970,1572086290188.0,-3.119,10.581,-0.298,41.1039846,16.8792228,False,NONE
2019-10-26 10:38:10.200,LG-H970,1572086290209.8,-2.485,8.903,-0.579,41.1039846,16.8792228,False,NONE
2019-10-26 10:38:10.220,LG-H970,1572086290231.75,-0.897,7.872,-2.004,41.1039846,16.8792228,False,NONE
2019-10-26 10:38:10.240,LG-H970,1572086290251.25,-2.264,9.038,-0.71,41.1039846,16.8792228,False,NONE
2019-10-26 10:38:10.260,LG-H970,1572086290271.0,-1.152,10.393,-2.426,41.1039846,16.8792228,False,NONE
2019-10-26 10:38:10.280,LG-H970,1572086290296.0,-0.078,9.905,0.212,41.1039846,16.8792228,False,NONE
2019-10-26 10:38:10.300,LG-H970,1572086290310.3333,0.037,9.111,1.763,41.1039846,16.8792228,True,NONE
2019-10-26 10:38:10.320,LG-H970,1572086290330.0,-1.205,9.307,-0.762,41.1039846,16.8792228,True,NONE
2019-10-26 10:38:10.340,LG-H970,1572086290349.25,-2.312,9.077,-1.102,41.1039846,16.8792228,False,NONE
2019-10-26 10:38:10.360,LG-H970,1572086290369.0,-0.569,9.314,-4.791,41.1039846,16.8792228,False,NONE
2019-10-26 10:38:10.380,LG-H970,1572086290390.0,-0.577,8.947,1.086,41.1039846,16.8792228,False,NONE
2019-10-26 10:38:10.400,LG-H970,1572086290410.25,0.947,10.38,-0.243,41.1039846,16.8792228,False,NONE
2019-10-26 10:38:10.420,LG-H970,1572086290429.5,-1.685,9.702,0.303,41.1039846,16.8792228,False,NONE
2019-10-26 10:38:10.440,LG-H970,1572086290450.0,-2.214,9.629,-2.813,41.1039846,16.8792228,False,NONE
2019-10-26 10:38:10.460,LG-H970,1572086290468.25,-0.967,8.182,-2.949,41.1039846,16.8792228,False,NONE
2019-10-26 10:38:10.480,LG-H970,1572086290488.5,-0.02,7.874,1.269,41.1039846,16.8792228,False,NONE
2019-10-26 10:38:10.500,LG-H970,1572086290507.75,-0.341,11.613,-0.191,41.1039846,16.8792228,False,NONE
2019-10-26 10:38:10.520,LG-H970,1572086290527.75,-4.067,14.03,0.701,41.1039846,16.8792228,False,NONE
2019-10-26 10:38:10.540,LG-H970,1572086290549.4,-2.535,11.781,-1.768,41.1039846,16.8792228,False,NONE
2019-10-26 10:38:10.560,LG-H970,1572086290569.0,1.407,8.895,1.551,41.1039846,16.8792228,False,NONE
2019-10-26 10:38:10.580,LG-H970,1572086290587.75,2.276,8.61,-0.958,41.1039846,16.8792228,False,NONE
2019-10-26 10:38:10.600,LG-H970,1572086290609.0,-2.606,11.653,-1.222,41.1039846,16.8792228,False,NONE
2019-10-26 10:38:10.620,LG-H970,1572086290631.5,-1.306,12.315,-1.789,41.1039846,16.8792228,False,NONE
2019-10-26 10:38:10.640,LG-H970,1572086290651.5,1.903,7.824,1.24,41.1039846,16.8792228,False,NONE
2019-10-26 10:38:10.660,LG-H970,1572086290669.0,3.574,8.025,1.742,41.1039846,16.8792228,False,NONE
2019-10-26 10:38:10.680,LG-H970,1572086290688.8,1.598,11.411,-2.922,41.1039846,16.8792228,False,NONE
2019-10-26 10:38:10.700,LG-H970,1572086290710.0,-3.672,11.984,-1.653,41.1039846,16.8792228,False,NONE
2019-10-26 10:38:10.720,LG-H970,1572086290730.25,0.089,9.968,-0.155,41.1039846,16.8792228,False,NONE
2019-10-26 10:38:10.740,LG-H970,1572086290750.25,3.015,4.959,-1.169,41.1039846,16.8792228,False,NONE
2019-10-26 10:38:10.760,LG-H970,1572086290769.75,2.969,9.418,0.756,41.1039846,16.8792228,False,NONE
2019-10-26 10:38:10.780,LG-H970,1572086290789.75,-3.198,10.019,-3.131,41.1039846,16.8792228,False,NONE
2019-10-26 10:38:10.800,LG-H970,1572086290808.75,-1.783,13.291,1.164,41.1039846,16.8792228,False,NONE
2019-10-26 10:38:10.820,LG-H970,1572086290828.5,1.601,10.532,0.069,41.1039846,16.8792228,False,NONE
2019-10-26 10:38:10.840,LG-H970,1572086290849.75,0.707,10.119,2.303,41.1039846,16.8792228,False,NONE
2019-10-26 10:38:10.860,LG-H970,1572086290868.75,-0.377,8.704,-2.833,41.1039846,16.8792228,False,NONE
2019-10-26 10:38:10.880,LG-H970,1572086290888.5,-1.653,8.181,-1.721,41.1039846,16.8792228,False,NONE
2019-10-26 10:38:10.900,LG-H970,1572086290907.75,-0.356,10.37,0.053,41.1039846,16.8792228,False,NONE
2019-10-26 10:38:10.920,LG-H970,1572086290929.4,-0.427,10.529,0.145,41.1039846,16.8792228,False,NONE
2019-10-26 10:38:10.940,LG-H970,1572086290951.5,0.638,10.525,0.803,41.1039846,16.8792228,False,NONE
2019-10-26 10:38:10.960,LG-H970,1572086290971.5,0.443,7.959,-1.337,41.1039846,16.8792228,False,NONE
2019-10-26 10:38:10.980,LG-H970,1572086290990.5,-1.293,9.672,-1.638,41.1039846,16.8792228,False,NONE
2019-10-26 10:38:11.000,LG-H970,1572086291010.5,-1.206,11.974,-3.054,41.1039846,16.8792228,False,NONE
2019-10-26 10:38:11.020,LG-H970,1572086291030.5,-2.31,10.141,0.34,41.1039846,16.8792228,False,NONE
2019-10-26 10:38:11.040,LG-H970,1572086291050.25,-0.17,10.408,-1.555,41.1039846,16.8792228,False,NONE
2019-10-26 10:38:11.060,LG-H970,1572086291070.5,0.562,8.864,0.231,41.1039846,16.8792228,False,NONE
2019-10-26 10:38:11.080,LG-H970,1572086291091.25,-0.295,10.015,-2.538,41.1039846,16.8792228,False,NONE
2019-10-26 10:38:11.100,LG-H970,1572086291109.25,-3.108,10.607,-2.382,41.1039846,16.8792228,False,NONE
2019-10-26 10:38:11.120,LG-H970,1572086291129.5,-0.336,9.711,-1.132,41.1039846,16.8792228,False,NONE
2019-10-26 10:38:11.140,LG-H970,1572086291149.25,2.273,7.281,0.824,41.1039846,16.8792228,False,NONE
2019-10-26 10:38:11.160,LG-H970,1572086291169.0,0.706,8.715,0.959,41.1039846,16.8792228,False,NONE
2019-10-26 10:38:11.180,LG-H970,1572086291188.0,-2.106,10.629,-3.996,41.1039846,16.8792228,False,NONE
2019-10-26 10:38:11.200,LG-H970,1572086291210.75,-1.877,11.688,-1.524,41.1039846,16.8792228,False,NONE
2019-10-26 10:38:11.220,LG-H970,1572086291227.0,1.708,8.048,-0.338,41.1039846,16.8792228,False,NONE
2019-10-26 10:38:11.240,LG-H970,1572086291249.6,2.164,8.386,2.774,41.1039846,16.8792228,False,NONE
2019-10-26 10:38:11.260,LG-H970,1572086291271.5,0.311,11.473,-0.944,41.1039846,16.8792228,False,NONE
2019-10-26 10:38:11.280,LG-H970,1572086291291.5,-1.294,12.866,-1.632,41.1039846,16.8792228,False,NONE
2019-10-26 10:38:11.300,LG-H970,1572086291311.25,-1.997,9.004,-1.553,41.1039846,16.8792228,False,NONE
2019-10-26 10:38:11.320,LG-H970,1572086291329.6667,1.067,8.658,1.914,41.1039846,16.8792228,False,NONE
2019-10-26 10:38:11.340,LG-H970,1572086291346.5,2.358,9.899,0.987,41.1039846,16.8792228,False,NONE
2019-10-26 10:38:11.360,LG-H970,1572086291367.8,-2.167,11.878,-0.803,41.1039846,16.8792228,False,NONE
2019-10-26 10:38:11.380,LG-H970,1572086291390.0,-2.358,10.965,-1.558,41.1039846,16.8792228,False,NONE
2019-10-26 10:38:11.400,LG-H970,1572086291410.25,-0.773,4.828,-2.233,41.1039846,16.8792228,False,NONE
2019-10-26 10:38:11.420,LG-H970,1572086291429.75,1.104,7.503,0.71,41.1039846,16.8792228,False,NONE
2019-10-26 10:38:11.440,LG-H970,1572086291450.0,1.217,13.135,-3.219,41.1039846,16.8792228,False,NONE
2019-10-26 10:38:11.460,LG-H970,1572086291469.75,-2.157,10.339,1.707,41.1039846,16.8792228,False,NONE
2019-10-26 10:38:11.480,LG-H970,1572086291489.5,0.934,8.038,0.361,41.1039846,16.8792228,False,NONE
2019-10-26 10:38:11.500,LG-H970,1572086291509.25,0.949,9.505,-3.598,41.1039846,16.8792228,False,NONE
2019-10-26 10:38:11.520,LG-H970,1572086291528.75,-3.365,9.651,-1.549,41.1039846,16.8792228,False,NONE
2019-10-26 10:38:11.540,LG-H970,1572086291548.25,0.462,10.729,-0.704,41.1039846,16.8792228,False,NONE
2019-10-26 10:38:11.560,LG-H970,1572086291568.0,1.758,10.045,1.292,41.1039846,16.8792228,False,NONE
2019-10-26 10:38:11.580,LG-H970,1572086291589.8,-0.984,12.363,0.234,41.1039846,16.8792228,False,NONE
2019-10-26 10:38:11.600,LG-H970,1572086291612.0,-1.543,11.688,-0.66,41.1039846,16.8792228,False,NONE
2019-10-26 10:38:11.620,LG-H970,1572086291632.0,0.42,7.107,-0.065,41.1039846,16.8792228,False,NONE
2019-10-26 10:38:11.640,LG-H970,1572086291651.75,1.717,8.825,-0.279,41.1039846,16.8792228,False,NONE
2019-10-26 10:38:11.660,LG-H970,1572086291671.25,-1.529,11.236,-1.026,41.1039846,16.8792228,False,NONE
2019-10-26 10:38:11.680,LG-H970,1572086291690.75,-2.446,12.297,0.739,41.1039846,16.8792228,False,NONE
2019-10-26 10:38:11.700,LG-H970,1572086291711.25,0.449,8.78,0.332,41.1039846,16.8792228,False,NONE
2019-10-26 10:38:11.720,LG-H970,1572086291731.25,2.393,8.606,-0.075,41.1039846,16.8792228,False,NONE
2019-10-26 10:38:11.740,LG-H970,1572086291750.5,-0.184,8.701,-2.14,41.1039846,16.8792228,False,NONE
2019-10-26 10:38:11.760,LG-H970,1572086291770.25,-0.374,10.795,-2.154,41.1039846,16.8792228,False,NONE
2019-10-26 10:38:11.780,LG-H970,1572086291789.75,1.626,9.902,0.389,41.1039846,16.8792228,False,NONE
