UTC_timestamp,device_name,timestamp,x,y,z,lat,long,event,speed
2019-10-26 10:00:50.740,LG-H970,1572084050750.25,-2.02,10.939,1.618,41.1038124,16.8800902,False,NONE
2019-10-26 10:00:50.760,LG-H970,1572084050770.25,-3.415,10.872,0.284,41.1038124,16.8800902,False,NONE
2019-10-26 10:00:50.780,LG-H970,1572084050789.5,-3.709,9.596,0.859,41.1038124,16.8800902,False,NONE
2019-10-26 10:00:50.800,LG-H970,1572084050809.0,-2.695,7.988,-0.425,41.1038124,16.8800902,False,NONE
2019-10-26 10:00:50.820,LG-H970,1572084050829.75,-2.847,6.955,0.31,41.1038124,16.8800902,False,NONE
2019-10-26 10:00:50.840,LG-H970,1572084050849.5,-4.535,5.403,-1.621,41.1038124,16.8800902,False,NONE
2019-10-26 10:00:50.860,LG-H970,1572084050869.25,-3.794,10.245,-1.581,41.1038124,16.8800902,False,NONE
2019-10-26 10:00:50.880,LG-H970,1572084050887.75,-3.784,8.706,0.761,41.1038124,16.8800902,False,NONE
2019-10-26 10:00:50.900,LG-H970,1572084050907.5,-1.064,9.508,3.518,41.1038124,16.8800902,False,NONE
2019-10-26 10:00:50.920,LG-H970,1572084050927.75,-0.916,11.005,1.318,41.1038124,16.8800902,False,NONE
2019-10-26 10:00:50.940,LG-H970,1572084050950.0,-1.458,11.484,0.864,41.1038124,16.8800902,False,NONE
2019-10-26 10:00:50.960,LG-H970,1572084050970.0,0.793,10.809,0.791,41.1038124,16.8800902,False,NONE
2019-10-26 10:00:50.980,LG-H970,1572084050989.2,1.567,9.512,2.636,41.1038124,16.8800902,False,NONE
2019-10-26 10:00:51.000,LG-H970,1572084051011.5,0.18,12.036,0.038,41.1038124,16.8800902,False,NONE
2019-10-26 10:00:51.020,LG-H970,1572084051031.25,-1.779,12.545,1.827,41.1038124,16.8800902,False,NONE
2019-10-26 10:00:51.040,LG-H970,1572084051051.25,0.951,10.86,1.922,41.1038124,16.8800902,False,NONE
2019-10-26 10:00:51.060,LG-H970,1572084051071.5,2.645,10.277,2.523,41.1038124,16.8800902,False,NONE
2019-10-26 10:00:51.080,LG-H970,1572084051091.0,0.266,10.122,0.431,41.1038124,16.8800902,False,NONE
2019-10-26 10:00:51.100,LG-H970,1572084051110.5,-2.38,12.033,0.359,41.1038124,16.8800902,False,NONE
2019-10-26 10:00:51.120,LG-H970,1572084051130.0,-0.869,11.682,0.622,41.1038124,16.8800902,False,NONE
2019-10-26 10:00:51.140,LG-H970,1572084051150.0,1.177,9.575,2.938,41.1038124,16.8800902,False,NONE
2019-10-26 10:00:51.160,LG-H970,1572084051170.0,-1.057,8.941,1.51,41.1038124,16.8800902,False,NONE
2019-10-26 10:00:51.180,LG-H970,1572084051190.0,-4.546,10.116,-0.993,41.1038124,16.8800902,False,NONE
2019-10-26 10:00:51.200,LG-H970,1572084051210.0,-3.657,9.17,-0.236,41.1038124,16.8800902,False,NONE
2019-10-26 10:00:51.220,LG-H970,1572084051228.75,-1.019,8.179,1.2,41.1038124,16.8800902,False,NONE
2019-10-26 10:00:51.240,LG-H970,1572084051248.5,-2.239,9.073,0.614,41.1038124,16.8800902,False,NONE
2019-10-26 10:00:51.260,LG-H970,1572084051268.75,-4.034,10.401,0.672,41.1038124,16.8800902,False,NONE
2019-10-26 10:00:51.280,LG-H970,1572084051287.75,-3.32,9.105,-0.772,41.1038124,16.8800902,False,NONE
2019-10-26 10:00:51.300,LG-H970,1572084051307.75,-0.918,8.826,0.928,41.1038124,16.8800902,False,NONE
2019-10-26 10:00:51.320,LG-H970,1572084051328.25,-0.757,8.931,-0.2,41.1038124,16.8800902,False,NONE
2019-10-26 10:00:51.340,LG-H970,1572084051350.4,-1.75,10.565,0.916,41.1038124,16.8800902,False,NONE
2019-10-26 10:00:51.360,LG-H970,1572084051371.5,-1.757,9.908,0.798,41.1038124,16.8800902,False,NONE
2019-10-26 10:00:51.380,LG-H970,1572084051390.5,-0.712,9.914,1.075,41.1038124,16.8800902,False,NONE
2019-10-26 10:00:51.400,LG-H970,1572084051410.5,-0.666,8.845,0.06,41.1038124,16.8800902,False,NONE
2019-10-26 10:00:51.420,LG-H970,1572084051430.0,-0.694,8.32,-0.155,41.1038124,16.8800902,False,NONE
2019-10-26 10:00:51.440,LG-H970,1572084051450.5,-0.064,8.815,-0.379,41.1038124,16.8800902,False,NONE
2019-10-26 10:00:51.460,LG-H970,1572084051469.5,-0.439,9.104,1.196,41.1038124,16.8800902,False,NONE
2019-10-26 10:00:51.480,LG-H970,1572084051488.75,-1.66,10.271,1.964,41.1038124,16.8800902,False,NONE
2019-10-26 10:00:51.500,LG-H970,1572084051509.25,-1.884,10.946,1.476,41.1038124,16.8800902,False,NONE
2019-10-26 10:00:51.520,LG-H970,1572084051529.0,-1.543,9.964,2.843,41.1038124,16.8800902,False,NONE
2019-10-26 10:00:51.540,LG-H970,1572084051549.25,-1.929,8.57,2.266,41.1038124,16.8800902,False,NONE
2019-10-26 10:00:51.560,LG-H970,1572084051568.5,-2.126,10.597,2.312,41.1038124,16.8800902,False,NONE
2019-10-26 10:00:51.580,LG-H970,1572084051588.5,-2.8,10.625,0.979,41.1038124,16.8800902,False,NONE
2019-10-26 10:00:51.600,LG-H970,1572084051607.75,-2.365,10.595,3.224,41.1038124,16.8800902,False,NONE
2019-10-26 10:00:51.620,LG-H970,1572084051627.5,-0.948,10.089,0.906,41.1038124,16.8800902,False,NONE
2019-10-26 10:00:51.640,LG-H970,1572084051647.5,-1.173,10.046,2.344,41.1038124,16.8800902,False,NONE
2019-10-26 10:00:51.660,LG-H970,1572084051670.2,-1.207,10.975,0.412,41.1038124,16.8800902,False,NONE
2019-10-26 10:00:51.680,LG-H970,1572084051691.75,-1.405,10.95,0.839,41.1038124,16.8800902,False,NONE
2019-10-26 10:00:51.700,LG-H970,1572084051710.6667,-1.097,11.535,1.057,41.1038124,16.8800902,False,NONE
2019-10-26 10:00:51.720,LG-H970,1572084051729.0,0.0,11.193,0.425,41.1038124,16.8800902,False,NONE
2019-10-26 10:00:51.740,LG-H970,1572084051750.75,1.414,10.466,0.174,41.1038124,16.8800902,False,NONE
2019-10-26 10:00:51.760,LG-H970,1572084051770.0,2.001,10.216,-1.954,41.1038124,16.8800902,False,NONE
2019-10-26 10:00:51.780,LG-H970,1572084051790.0,1.363,9.187,-0.893,41.1038124,16.8800902,False,NONE
2019-10-26 10:00:51.800,LG-H970,1572084051809.5,1.621,10.231,-1.953,41.1038124,16.8800902,False,NONE
2019-10-26 10:00:51.820,LG-H970,1572084051830.0,1.389,10.258,-1.19,41.1038124,16.8800902,False,NONE
2019-10-26 10:00:51.840,LG-H970,1572084051849.5,1.028,10.091,-0.798,41.1038124,16.8800902,False,NONE
2019-10-26 10:00:51.860,LG-H970,1572084051869.0,0.476,9.831,-0.192,41.1038124,16.8800902,False,NONE
2019-10-26 10:00:51.880,LG-H970,1572084051888.5,-0.178,9.004,-0.453,41.1038124,16.8800902,False,NONE
2019-10-26 10:00:51.900,LG-H970,1572084051908.25,-0.753,8.827,-0.344,41.1038124,16.8800902,False,NONE
2019-10-26 10:00:51.920,LG-H970,1572084051928.25,-2.642,7.732,0.618,41.1038124,16.8800902,False,NONE
2019-10-26 10:00:51.940,LG-H970,1572084051947.75,-5.313,6.266,0.251,41.1038124,16.8800902,False,NONE
2019-10-26 10:00:51.960,LG-H970,1572084051967.5,-6.513,6.357,0.012,41.1038124,16.8800902,False,NONE
2019-10-26 10:00:51.980,LG-H970,1572084051987.0,-4.311,6.79,-1.152,41.1038124,16.8800902,False,NONE
2019-10-26 10:00:52.000,LG-H970,1572084052007.0,-2.609,7.687,2.42,41.1038124,16.8800902,False,NONE
2019-10-26 10:00:52.020,LG-H970,1572084052029.4,-2.418,9.947,4.405,41.1038124,16.8800902,False,NONE
2019-10-26 10:00:52.040,LG-H970,1572084052051.5,-1.887,11.627,3.191,41.1038124,16.8800902,False,NONE
2019-10-26 10:00:52.060,LG-H970,1572084052071.5,-2.02,10.131,5.991,41.1038124,16.8800902,False,NONE
2019-10-26 10:00:52.080,LG-H970,1572084052091.0,0.36,11.925,2.494,41.1038124,16.8800902,False,NONE
2019-10-26 10:00:52.100,LG-H970,1572084052111.0,2.446,13.187,4.431,41.1038124,16.8800902,False,NONE
2019-10-26 10:00:52.120,LG-H970,1572084052130.5,7.494,15.687,1.842,41.1038124,16.8800902,False,NONE
2019-10-26 10:00:52.140,LG-H970,1572084052150.0,2.191,10.447,3.945,41.1038124,16.8800902,False,NONE
2019-10-26 10:00:52.160,LG-H970,1572084052170.25,-0.703,14.14,0.266,41.1038124,16.8800902,False,NONE
2019-10-26 10:00:52.180,LG-H970,1572084052190.0,0.197,11.207,-0.142,41.1038124,16.8800902,False,NONE
2019-10-26 10:00:52.200,LG-H970,1572084052209.25,3.409,10.264,2.19,41.1038124,16.8800902,False,NONE
2019-10-26 10:00:52.220,LG-H970,1572084052226.6667,1.846,8.918,3.752,41.1038124,16.8800902,False,NONE
2019-10-26 10:00:52.240,LG-H970,1572084052246.8,-0.806,11.565,-0.5,41.1038124,16.8800902,True,NONE
2019-10-26 10:00:52.260,LG-H970,1572084052267.5,-1.574,12.445,-0.347,41.1038124,16.8800902,True,NONE
2019-10-26 10:00:52.280,LG-H970,1572084052289.4,0.588,9.771,0.84,41.1038124,16.8800902,False,NONE
2019-10-26 10:00:52.300,LG-H970,1572084052311.75,0.997,9.57,1.438,41.1038124,16.8800902,False,NONE
2019-10-26 10:00:52.320,LG-H970,1572084052330.3333,-0.116,12.32,-2.002,41.1038124,16.8800902,False,NONE
2019-10-26 10:00:52.340,LG-H970,1572084052349.6,-2.523,10.988,-1.17,41.1038124,16.8800902,False,NONE
2019-10-26 10:00:52.360,LG-H970,1572084052369.3333,-2.154,9.367,-0.391,41.1038124,16.8800902,False,NONE
2019-10-26 10:00:52.380,LG-H970,1572084052390.6,-1.513,8.67,0.851,41.1038124,16.8800902,False,NONE
2019-10-26 10:00:52.400,LG-H970,1572084052410.75,-3.32,9.197,-1.082,41.1038124,16.8800902,False,NONE
2019-10-26 10:00:52.420,LG-H970,1572084052431.5,-3.936,10.534,-0.642,41.1038124,16.8800902,False,NONE
2019-10-26 10:00:52.440,LG-H970,1572084052450.75,-1.854,8.514,0.422,41.1038124,16.8800902,False,NONE
2019-10-26 10:00:52.460,LG-H970,1572084052470.0,0.741,8.044,1.266,41.1038124,16.8800902,False,NONE
2019-10-26 10:00:52.480,LG-H970,1572084052494.5,-1.765,7.627,0.225,41.1038124,16.8800902,False,NONE
2019-10-26 10:00:52.500,LG-H970,1572084052509.0,-4.256,9.966,-2.122,41.1038124,16.8800902,False,NONE
2019-10-26 10:00:52.520,LG-H970,1572084052529.0,-2.808,8.561,-1.006,41.1038124,16.8800902,False,NONE
2019-10-26 10:00:52.540,LG-H970,1572084052548.75,0.697,7.071,1.163,41.1038124,16.8800902,False,NONE
2019-10-26 10:00:52.560,LG-H970,1572084052568.5,-0.307,8.097,1.278,41.1038124,16.8800902,False,NONE
2019-10-26 10:00:52.580,LG-H970,1572084052588.5,-3.844,10.63,0.737,41.1038124,16.8800902,False,NONE
2019-10-26 10:00:52.600,LG-H970,1572084052608.5,-3.135,9.854,0.244,41.1038124,16.8800902,False,NONE
2019-10-26 10:00:52.620,LG-H970,1572084052628.0,0.738,7.859,1.36,41.1038124,16.8800902,False,NONE
2019-10-26 10:00:52.640,LG-H970,1572084052648.5,1.268,7.687,2.304,41.1038124,16.8800902,False,NONE
2019-10-26 10:00:52.660,LG-H970,1572084052669.6,-1.953,9.658,0.854,41.1038124,16.8800902,False,NONE
2019-10-26 10:00:52.680,LG-H970,1572084052690.0,-3.417,10.63,0.842,41.1038124,16.8800902,False,NONE
2019-10-26 10:00:52.700,LG-H970,1572084052709.8,-0.654,9.752,2.057,41.1038124,16.8800902,False,NONE
2019-10-26 10:00:52.720,LG-H970,1572084052732.0,0.99,8.446,2.174,41.1038124,16.8800902,False,NONE
2019-10-26 10:00:52.740,LG-H970,1572084052750.75,-1.641,9.567,0.434,41.1038124,16.8800902,False,NONE
2019-10-26 10:00:52.760,LG-H970,1572084052771.25,-3.675,10.982,-0.924,41.1038124,16.8800902,False,NONE
2019-10-26 10:00:52.780,LG-H970,1572084052791.0,-2.184,10.753,0.656,41.1038124,16.8800902,False,NONE
2019-10-26 10:00:52.800,LG-H970,1572084052811.5,0.228,9.955,1.25,41.1038124,16.8800902,False,NONE
2019-10-26 10:00:52.820,LG-H970,1572084052830.75,-1.192,9.965,1.075,41.1038124,16.8800902,False,NONE
2019-10-26 10:00:52.840,LG-H970,1572084052852.0,-2.689,11.243,-1.067,41.1038124,16.8800902,False,NONE
2019-10-26 10:00:52.860,LG-H970,1572084052869.5,-1.83,10.812,-0.538,41.1038124,16.8800902,False,NONE
2019-10-26 10:00:52.880,LG-H970,1572084052888.5,-0.013,10.173,0.106,41.1038124,16.8800902,False,NONE
2019-10-26 10:00:52.900,LG-H970,1572084052909.0,-1.01,10.255,0.172,41.1038124,16.8800902,False,NONE
2019-10-26 10:00:52.920,LG-H970,1572084052928.75,-2.33,10.789,-0.809,41.1038124,16.8800902,False,NONE
2019-10-26 10:00:52.940,LG-H970,1572084052949.0,-2.044,10.171,-0.396,41.1038124,16.8800902,False,NONE
2019-10-26 10:00:52.960,LG-H970,1572084052968.0,-1.127,9.432,-0.7,41.1038124,16.8800902,False,NONE
2019-10-26 10:00:52.980,LG-H970,1572084052988.0,-2.795,8.804,0.544,41.1038124,16.8800902,False,NONE
2019-10-26 10:00:53.000,LG-H970,1572084053007.5,-2.974,10.532,-1.088,41.1038124,16.8800902,False,NONE
2019-10-26 10:00:53.020,LG-H970,1572084053027.25,-2.649,8.953,0.541,41.1038124,16.8800902,False,NONE
2019-10-26 10:00:53.040,LG-H970,1572084053049.2,-0.193,9.035,-1.875,41.1038124,16.8800902,False,NONE
2019-10-26 10:00:53.060,LG-H970,1572084053071.25,-1.253,7.665,1.623,41.1038124,16.8800902,False,NONE
2019-10-26 10:00:53.080,LG-H970,1572084053091.0,-0.369,10.105,-2.117,41.1038124,16.8800902,False,NONE
2019-10-26 10:00:53.100,LG-H970,1572084053111.5,0.121,10.193,-0.848,41.1038124,16.8800902,False,NONE
2019-10-26 10:00:53.120,LG-H970,1572084053131.0,2.957,11.722,-2.643,41.1038124,16.8800902,False,NONE
2019-10-26 10:00:53.140,LG-H970,1572084053150.5,3.468,7.683,-2.419,41.1038124,16.8800902,False,NONE
2019-10-26 10:00:53.160,LG-H970,1572084053170.5,2.932,8.853,-0.14,41.1038124,16.8800902,False,NONE
2019-10-26 10:00:53.180,LG-H970,1572084053190.25,1.256,9.958,-5.38,41.1038124,16.8800902,False,NONE
2019-10-26 10:00:53.200,LG-H970,1572084053210.0,1.337,12.794,1.925,41.1038124,16.8800902,False,NONE
2019-10-26 10:00:53.220,LG-H970,1572084053229.75,3.444,9.713,0.79,41.1038124,16.8800902,False,NONE
2019-10-26 10:00:53.240,LG-H970,1572084053249.0,2.045,10.509,2.561,41.1038124,16.8800902,False,NONE
2019-10-26 10:00:53.260,LG-H970,1572084053268.75,-1.66,11.145,-2.648,41.1038124,16.8800902,False,NONE
2019-10-26 10:00:53.280,LG-H970,1572084053288.0,-2.82,11.629,-0.155,41.1038124,16.8800902,False,NONE
2019-10-26 10:00:53.300,LG-H970,1572084053307.75,-0.532,9.776,2.017,41.1038124,16.8800902,False,NONE
2019-10-26 10:00:53.320,LG-H970,1572084053328.0,-0.4,10.523,4.186,41.1038124,16.8800902,False,NONE
2019-10-26 10:00:53.340,LG-H970,1572084053348.0,-4.242,11.26,0.947,41.1038124,16.8800902,False,NONE
2019-10-26 10:00:53.360,LG-H970,1572084053369.6,-5.086,11.429,1.059,41.1038124,16.8800902,False,NONE
2019-10-26 10:00:53.380,LG-H970,1572084053389.0,-2.305,8.449,0.864,41.1038124,16.8800902,False,NONE
2019-10-26 10:00:53.400,LG-H970,1572084053409.6,-1.543,8.971,2.216,41.1038124,16.8800902,False,NONE
2019-10-26 10:00:53.420,LG-H970,1572084053432.0,-4.314,10.514,0.887,41.1038124,16.8800902,False,NONE
2019-10-26 10:00:53.440,LG-H970,1572084053450.75,-4.554,11.383,0.739,41.1038124,16.8800902,False,NONE
2019-10-26 10:00:53.460,LG-H970,1572084053470.25,-2.002,9.512,1.151,41.1038124,16.8800902,False,NONE
2019-10-26 10:00:53.480,LG-H970,1572084053489.75,-0.515,8.563,0.594,41.1038124,16.8800902,False,NONE
2019-10-26 10:00:53.500,LG-H970,1572084053510.25,-2.961,9.144,-0.263,41.1038124,16.8800902,True,NONE
2019-10-26 10:00:53.520,LG-H970,1572084053528.75,-3.687,11.038,-0.826,41.1038124,16.8800902,True,NONE
2019-10-26 10:00:53.540,LG-H970,1572084053548.75,-1.481,10.158,1.101,41.1038124,16.8800902,False,NONE
2019-10-26 10:00:53.560,LG-H970,1572084053568.75,0.285,9.125,1.43,41.1038124,16.8800902,False,NONE
2019-10-26 10:00:53.580,LG-H970,1572084053588.75,-1.368,9.441,0.368,41.1038124,16.8800902,False,NONE
2019-10-26 10:00:53.600,LG-H970,1572084053608.75,-3.241,10.428,-1.435,41.1038124,16.8800902,False,NONE
2019-10-26 10:00:53.620,LG-H970,1572084053628.5,-2.249,9.722,-0.493,41.1038124,16.8800902,False,NONE
2019-10-26 10:00:53.640,LG-H970,1572084053648.25,0.047,8.956,0.922,41.1038124,16.8800902,False,NONE
2019-10-26 10:00:53.660,LG-H970,1572084053668.0,-0.989,9.822,1.068,41.1038124,16.8800902,False,NONE
2019-10-26 10:00:53.680,LG-H970,1572084053688.0,-2.721,11.069,-0.411,41.1038124,16.8800902,False,NONE
2019-10-26 10:00:53.700,LG-H970,1572084053710.0,-2.001,9.578,-0.526,41.1038124,16.8800902,False,NONE
2019-10-26 10:00:53.720,LG-H970,1572084053732.25,-0.338,8.521,0.049,41.1038124,16.8800902,False,NONE
