UTC_timestamp,device_name,timestamp,x,y,z,lat,long,event,speed
2019-10-26 10:40:28.080,LG-H970,1572086428088.4,-1.904,9.199,-1.275,41.1037524,16.8801939,False,NONE
2019-10-26 10:40:28.100,LG-H970,1572086428110.5,-1.731,9.516,-0.3,41.1037524,16.8801939,False,NONE
2019-10-26 10:40:28.120,LG-H970,1572086428132.0,-1.544,10.346,-1.587,41.1037524,16.8801939,False,NONE
2019-10-26 10:40:28.140,LG-H970,1572086428150.75,-1.733,11.076,-0.235,41.1037524,16.8801939,False,NONE
2019-10-26 10:40:28.160,LG-H970,1572086428170.25,-1.247,9.712,-1.295,41.1037524,16.8801939,False,NONE
2019-10-26 10:40:28.180,LG-H970,1572086428189.5,-1.247,10.088,-0.461,41.1037524,16.8801939,False,NONE
2019-10-26 10:40:28.200,LG-H970,1572086428209.75,-2.173,9.979,-1.75,41.1037524,16.8801939,False,NONE
2019-10-26 10:40:28.220,LG-H970,1572086428230.25,-1.927,11.31,-0.349,41.1037524,16.8801939,False,NONE
2019-10-26 10:40:28.240,LG-H970,1572086428248.75,-0.988,9.23,-0.207,41.1037524,16.8801939,False,NONE
2019-10-26 10:40:28.260,LG-H970,1572086428268.25,-0.411,9.538,0.183,41.1037524,16.8801939,False,NONE
2019-10-26 10:40:28.280,LG-H970,1572086428287.5,-2.849,10.06,-2.359,41.1037524,16.8801939,False,NONE
2019-10-26 10:40:28.300,LG-H970,1572086428310.4,-1.588,10.318,-1.617,41.1037524,16.8801939,False,NONE
2019-10-26 10:40:28.320,LG-H970,1572086428332.25,1.98,7.452,0.638,41.1037524,16.8801939,False,NONE
2019-10-26 10:40:28.340,LG-H970,1572086428351.5,0.534,10.817,1.897,41.1037524,16.8801939,False,NONE
2019-10-26 10:40:28.360,LG-H970,1572086428371.25,-3.572,12.779,-1.722,41.1037524,16.8801939,False,NONE
2019-10-26 10:40:28.380,LG-H970,1572086428392.25,-2.163,10.733,-1.316,41.1037524,16.8801939,False,NONE
2019-10-26 10:40:28.400,LG-H970,1572086428411.5,2.479,6.763,0.811,41.1037524,16.8801939,False,NONE
2019-10-26 10:40:28.420,LG-H970,1572086428431.25,1.213,7.663,0.441,41.1037524,16.8801939,False,NONE
2019-10-26 10:40:28.440,LG-H970,1572086428450.75,-4.021,11.919,-1.8,41.1037524,16.8801939,False,NONE
2019-10-26 10:40:28.460,LG-H970,1572086428468.0,-5.712,11.041,-3.062,41.1037524,16.8801939,False,NONE
2019-10-26 10:40:28.480,LG-H970,1572086428488.6,0.113,9.406,0.811,41.1037524,16.8801939,False,NONE
2019-10-26 10:40:28.500,LG-H970,1572086428508.0,2.737,6.603,-0.173,41.1037524,16.8801939,False,NONE
2019-10-26 10:40:28.520,LG-H970,1572086428528.4,-1.335,9.238,-1.298,41.1037524,16.8801939,False,NONE
2019-10-26 10:40:28.540,LG-H970,1572086428550.25,-3.727,9.483,-4.378,41.1037524,16.8801939,False,NONE
2019-10-26 10:40:28.560,LG-H970,1572086428570.5,1.156,8.427,-0.113,41.1037524,16.8801939,False,NONE
2019-10-26 10:40:28.580,LG-H970,1572086428589.75,2.684,5.93,0.581,41.1037524,16.8801939,False,NONE
2019-10-26 10:40:28.600,LG-H970,1572086428609.5,-0.541,9.981,-0.388,41.1037524,16.8801939,False,NONE
2019-10-26 10:40:28.620,LG-H970,1572086428629.25,-3.896,11.17,-3.331,41.1037524,16.8801939,False,NONE
2019-10-26 10:40:28.640,LG-H970,1572086428649.25,-2.028,10.847,-0.766,41.1037524,16.8801939,False,NONE
2019-10-26 10:40:28.660,LG-H970,1572086428668.25,-0.014,8.461,0.173,41.1037524,16.8801939,False,NONE
2019-10-26 10:40:28.680,LG-H970,1572086428688.0,-1.35,9.403,-0.088,41.1037524,16.8801939,False,NONE
2019-10-26 10:40:28.700,LG-H970,1572086428708.5,-3.136,10.824,-2.368,41.1037524,16.8801939,False,NONE
2019-10-26 10:40:28.720,LG-H970,1572086428730.8,-2.477,10.147,-0.338,41.1037524,16.8801939,False,NONE
2019-10-26 10:40:28.740,LG-H970,1572086428751.5,-1.483,9.262,0.928,41.1037524,16.8801939,False,NONE
2019-10-26 10:40:28.760,LG-H970,1572086428769.0,-2.166,10.877,0.438,41.1037524,16.8801939,False,NONE
2019-10-26 10:40:28.780,LG-H970,1572086428789.8,-3.325,10.896,-1.195,41.1037524,16.8801939,False,NONE
2019-10-26 10:40:28.800,LG-H970,1572086428812.0,-2.618,10.073,-0.76,41.1037524,16.8801939,False,NONE
2019-10-26 10:40:28.820,LG-H970,1572086428833.5,-2.106,8.938,-0.401,41.1037524,16.8801939,False,NONE
2019-10-26 10:40:28.840,LG-H970,1572086428850.5,-2.573,10.01,0.325,41.1037524,16.8801939,False,NONE
2019-10-26 10:40:28.860,LG-H970,1572086428870.75,-2.567,10.566,-0.461,41.1037524,16.8801939,False,NONE
2019-10-26 10:40:28.880,LG-H970,1572086428890.25,-2.393,11.169,1.205,41.1037524,16.8801939,False,NONE
2019-10-26 10:40:28.900,LG-H970,1572086428910.75,-2.6,10.447,-0.072,41.1037524,16.8801939,False,NONE
2019-10-26 10:40:28.920,LG-H970,1572086428930.5,-2.529,10.36,0.652,41.1037524,16.8801939,False,NONE
2019-10-26 10:40:28.940,LG-H970,1572086428949.75,-1.759,10.487,-0.748,41.1037524,16.8801939,False,NONE
2019-10-26 10:40:28.960,LG-H970,1572086428969.0,-0.714,11.427,4.578,41.1037524,16.8801939,False,NONE
2019-10-26 10:40:28.980,LG-H970,1572086428989.25,-0.084,10.402,3.539,41.1037524,16.8801939,False,NONE
2019-10-26 10:40:29.000,LG-H970,1572086429008.75,-8.236,16.298,2.991,41.1037524,16.8801939,False,NONE
2019-10-26 10:40:29.020,LG-H970,1572086429028.75,-12.227,18.307,-2.052,41.1037524,16.8801939,False,NONE
2019-10-26 10:40:29.040,LG-H970,1572086429048.5,-2.465,12.363,-0.337,41.1037524,16.8801939,False,NONE
2019-10-26 10:40:29.060,LG-H970,1572086429067.75,7.035,5.51,6.924,41.1037524,16.8801939,False,NONE
2019-10-26 10:40:29.080,LG-H970,1572086429087.75,-0.592,5.796,-0.495,41.1037524,16.8801939,False,NONE
2019-10-26 10:40:29.100,LG-H970,1572086429107.25,-9.484,12.761,-2.982,41.1037524,16.8801939,False,NONE
2019-10-26 10:40:29.120,LG-H970,1572086429129.4,-3.732,11.19,-3.517,41.1037524,16.8801939,False,NONE
2019-10-26 10:40:29.140,LG-H970,1572086429151.5,4.84,6.843,4.649,41.1037524,16.8801939,False,NONE
2019-10-26 10:40:29.160,LG-H970,1572086429171.5,3.391,7.448,3.228,41.1037524,16.8801939,False,NONE
2019-10-26 10:40:29.180,LG-H970,1572086429188.3333,-2.545,9.445,-2.924,41.1037524,16.8801939,False,NONE
2019-10-26 10:40:29.200,LG-H970,1572086429206.75,-3.213,10.774,-3.95,41.1037524,16.8801939,False,NONE
2019-10-26 10:40:29.220,LG-H970,1572086429228.8,2.21,8.445,-1.049,41.1037524,16.8801939,False,NONE
2019-10-26 10:40:29.240,LG-H970,1572086429249.5,4.38,7.357,3.52,41.1037524,16.8801939,False,NONE
2019-10-26 10:40:29.260,LG-H970,1572086429269.75,1.479,9.0,-0.21,41.1037524,16.8801939,False,NONE
2019-10-26 10:40:29.280,LG-H970,1572086429289.5,-1.34,10.348,-2.801,41.1037524,16.8801939,False,NONE
2019-10-26 10:40:29.300,LG-H970,1572086429309.75,-0.775,9.078,-1.583,41.1037524,16.8801939,False,NONE
2019-10-26 10:40:29.320,LG-H970,1572086429329.75,0.745,7.671,0.721,41.1037524,16.8801939,False,NONE
2019-10-26 10:40:29.340,LG-H970,1572086429349.0,-0.034,8.976,-0.319,41.1037524,16.8801939,False,NONE
2019-10-26 10:40:29.360,LG-H970,1572086429368.0,-2.906,10.962,-1.145,41.1037524,16.8801939,False,NONE
2019-10-26 10:40:29.380,LG-H970,1572086429388.25,-3.025,10.652,-1.53,41.1037524,16.8801939,False,NONE
2019-10-26 10:40:29.400,LG-H970,1572086429409.25,-0.125,8.485,0.479,41.1037524,16.8801939,False,NONE
2019-10-26 10:40:29.420,LG-H970,1572086429430.6,0.703,7.699,-0.3,41.1037524,16.8801939,False,NONE
2019-10-26 10:40:29.440,LG-H970,1572086429451.75,-2.881,11.148,-0.748,41.1037524,16.8801939,False,NONE
2019-10-26 10:40:29.460,LG-H970,1572086429471.6667,-3.157,11.76,-0.932,41.1037524,16.8801939,False,NONE
2019-10-26 10:40:29.480,LG-H970,1572086429490.75,1.026,9.32,1.683,41.1037524,16.8801939,False,NONE
2019-10-26 10:40:29.500,LG-H970,1572086429510.0,3.149,7.81,2.123,41.1037524,16.8801939,False,NONE
2019-10-26 10:40:29.520,LG-H970,1572086429529.5,0.151,9.47,1.204,41.1037524,16.8801939,False,NONE
2019-10-26 10:40:29.540,LG-H970,1572086429548.75,-2.58,11.422,-1.824,41.1037524,16.8801939,False,NONE
2019-10-26 10:40:29.560,LG-H970,1572086429568.5,-0.343,11.215,0.045,41.1037524,16.8801939,False,NONE
2019-10-26 10:40:29.580,LG-H970,1572086429588.5,0.455,9.142,-0.446,41.1037524,16.8801939,True,NONE
2019-10-26 10:40:29.600,LG-H970,1572086429608.5,-0.873,8.926,0.403,41.1037524,16.8801939,False,NONE
2019-10-26 10:40:29.620,LG-H970,1572086429628.0,-1.904,9.79,-2.679,41.1037524,16.8801939,False,NONE
2019-10-26 10:40:29.640,LG-H970,1572086429647.5,-2.986,9.934,-1.265,41.1037524,16.8801939,False,NONE
2019-10-26 10:40:29.660,LG-H970,1572086429667.75,-2.299,9.689,-0.484,41.1037524,16.8801939,False,NONE
2019-10-26 10:40:29.680,LG-H970,1572086429685.6667,-1.49,9.476,-0.412,41.1037524,16.8801939,False,NONE
2019-10-26 10:40:29.700,LG-H970,1572086429709.6,-2.98,9.845,-1.41,41.1037524,16.8801939,False,NONE
2019-10-26 10:40:29.720,LG-H970,1572086429732.25,-4.35,10.393,-1.953,41.1037524,16.8801939,False,NONE
2019-10-26 10:40:29.740,LG-H970,1572086429751.5,-2.549,9.814,-0.225,41.1037524,16.8801939,False,NONE
2019-10-26 10:40:29.760,LG-H970,1572086429770.75,-2.431,8.886,0.969,41.1037524,16.8801939,False,NONE
2019-10-26 10:40:29.780,LG-H970,1572086429788.3333,-2.862,10.276,3.267,41.1037524,16.8801939,False,NONE
2019-10-26 10:40:29.800,LG-H970,1572086429810.0,-5.428,10.893,-1.133,41.1037524,16.8801939,False,NONE
2019-10-26 10:40:29.820,LG-H970,1572086429832.25,-6.182,13.435,-3.402,41.1037524,16.8801939,False,NONE
2019-10-26 10:40:29.840,LG-H970,1572086429850.5,-5.216,10.106,-4.72,41.1037524,16.8801939,False,NONE
2019-10-26 10:40:29.860,LG-H970,1572086429870.5,-0.766,7.633,1.227,41.1037524,16.8801939,False,NONE
2019-10-26 10:40:29.880,LG-H970,1572086429890.5,0.313,8.574,1.1,41.1037524,16.8801939,False,NONE
2019-10-26 10:40:29.900,LG-H970,1572086429910.5,-3.527,14.324,0.959,41.1037524,16.8801939,False,NONE
2019-10-26 10:40:29.920,LG-H970,1572086429929.5,-4.45,13.813,-2.181,41.1037524,16.8801939,False,NONE
2019-10-26 10:40:29.940,LG-H970,1572086429949.5,0.388,9.462,1.8,41.1037524,16.8801939,False,NONE
2019-10-26 10:40:29.960,LG-H970,1572086429969.75,3.57,5.979,1.742,41.1037524,16.8801939,False,NONE
2019-10-26 10:40:29.980,LG-H970,1572086429989.5,1.341,10.061,0.063,41.1037524,16.8801939,False,NONE
2019-10-26 10:40:30.000,LG-H970,1572086430008.75,-1.67,12.254,-1.607,41.1037524,16.8801939,False,NONE
2019-10-26 10:40:30.020,LG-H970,1572086430027.5,0.177,10.191,1.462,41.1037524,16.8801939,False,NONE
2019-10-26 10:40:30.040,LG-H970,1572086430047.5,3.925,6.769,2.332,41.1037524,16.8801939,False,NONE
2019-10-26 10:40:30.060,LG-H970,1572086430067.5,2.555,7.37,0.178,41.1037524,16.8801939,False,NONE
2019-10-26 10:40:30.080,LG-H970,1572086430087.5,0.117,10.002,-3.447,41.1037524,16.8801939,False,NONE
2019-10-26 10:40:30.100,LG-H970,1572086430109.8,1.547,7.529,-1.52,41.1037524,16.8801939,False,NONE
2019-10-26 10:40:30.120,LG-H970,1572086430131.75,5.008,5.731,2.79,41.1037524,16.8801939,False,NONE
2019-10-26 10:40:30.140,LG-H970,1572086430152.25,1.111,7.886,0.985,41.1037524,16.8801939,False,NONE
2019-10-26 10:40:30.160,LG-H970,1572086430171.75,-3.373,12.212,-1.888,41.1037524,16.8801939,False,NONE
2019-10-26 10:40:30.180,LG-H970,1572086430190.0,-1.669,11.121,-0.864,41.1037524,16.8801939,False,NONE
2019-10-26 10:40:30.200,LG-H970,1572086430210.0,0.721,8.073,1.271,41.1037524,16.8801939,False,NONE
2019-10-26 10:40:30.220,LG-H970,1572086430229.5,-1.02,8.302,0.222,41.1037524,16.8801939,False,NONE
2019-10-26 10:40:30.240,LG-H970,1572086430249.5,-3.979,10.932,-3.289,41.1037524,16.8801939,False,NONE
2019-10-26 10:40:30.260,LG-H970,1572086430269.0,-3.037,11.632,-0.662,41.1037524,16.8801939,False,NONE
2019-10-26 10:40:30.280,LG-H970,1572086430288.5,1.48,10.108,3.398,41.1037524,16.8801939,False,NONE
2019-10-26 10:40:30.300,LG-H970,1572086430308.25,-3.55,9.575,1.999,41.1037524,16.8801939,False,NONE
2019-10-26 10:40:30.320,LG-H970,1572086430327.75,-7.872,16.117,-2.272,41.1037524,16.8801939,False,NONE
2019-10-26 10:40:30.340,LG-H970,1572086430347.75,-5.982,13.575,-3.815,41.1037524,16.8801939,False,NONE
2019-10-26 10:40:30.360,LG-H970,1572086430367.5,0.064,9.588,2.405,41.1037524,16.8801939,False,NONE
2019-10-26 10:40:30.380,LG-H970,1572086430389.8,-2.652,10.017,-0.297,41.1037524,16.8801939,False,NONE
2019-10-26 10:40:30.400,LG-H970,1572086430411.5,-7.348,14.652,-2.982,41.1037524,16.8801939,False,NONE
2019-10-26 10:40:30.420,LG-H970,1572086430431.5,-3.599,11.879,-1.974,41.1037524,16.8801939,False,NONE
2019-10-26 10:40:30.440,LG-H970,1572086430451.5,1.807,8.254,0.755,41.1037524,16.8801939,False,NONE
2019-10-26 10:40:30.460,LG-H970,1572086430471.0,0.258,7.812,-0.439,41.1037524,16.8801939,False,NONE
2019-10-26 10:40:30.480,LG-H970,1572086430489.0,-3.637,10.359,-2.198,41.1037524,16.8801939,False,NONE
2019-10-26 10:40:30.500,LG-H970,1572086430508.4,-2.746,11.635,-2.031,41.1037524,16.8801939,False,NONE
2019-10-26 10:40:30.520,LG-H970,1572086430530.25,0.81,9.599,2.106,41.1037524,16.8801939,False,NONE
2019-10-26 10:40:30.540,LG-H970,1572086430550.0,2.04,8.837,1.648,41.1037524,16.8801939,False,NONE
2019-10-26 10:40:30.560,LG-H970,1572086430569.5,0.184,9.588,-1.596,41.1037524,16.8801939,False,NONE
2019-10-26 10:40:30.580,LG-H970,1572086430589.5,-0.814,9.212,-2.879,41.1037524,16.8801939,False,NONE
2019-10-26 10:40:30.600,LG-H970,1572086430609.25,0.554,8.184,-0.418,41.1037524,16.8801939,False,NONE
2019-10-26 10:40:30.620,LG-H970,1572086430629.5,2.429,8.279,1.109,41.1037524,16.8801939,False,NONE
2019-10-26 10:40:30.640,LG-H970,1572086430648.5,2.148,8.966,0.544,41.1037524,16.8801939,False,NONE
2019-10-26 10:40:30.660,LG-H970,1572086430669.0,0.994,9.958,-1.504,41.1037524,16.8801939,False,NONE
2019-10-26 10:40:30.680,LG-H970,1572086430688.25,0.154,9.143,-1.031,41.1037524,16.8801939,False,NONE
2019-10-26 10:40:30.700,LG-H970,1572086430707.5,1.812,8.417,-0.167,41.1037524,16.8801939,False,NONE
2019-10-26 10:40:30.720,LG-H970,1572086430729.8,1.913,9.312,0.415,41.1037524,16.8801939,False,NONE
2019-10-26 10:40:30.740,LG-H970,1572086430751.5,-0.714,10.598,-0.086,41.1037524,16.8801939,False,NONE
2019-10-26 10:40:30.760,LG-H970,1572086430771.5,-0.652,10.447,-1.093,41.1037524,16.8801939,False,NONE
2019-10-26 10:40:30.780,LG-H970,1572086430793.0,1.098,9.353,-0.161,41.1037524,16.8801939,False,NONE
2019-10-26 10:40:30.800,LG-H970,1572086430811.5,0.718,9.047,-0.662,41.1037524,16.8801939,False,NONE
2019-10-26 10:40:30.820,LG-H970,1572086430831.0,-1.334,11.156,-1.075,41.1037524,16.8801939,False,NONE
2019-10-26 10:40:30.840,LG-H970,1572086430851.0,-2.586,10.943,-2.113,41.1037524,16.8801939,False,NONE
2019-10-26 10:40:30.860,LG-H970,1572086430870.75,-0.02,9.551,-0.723,41.1037524,16.8801939,False,NONE
2019-10-26 10:40:30.880,LG-H970,1572086430890.0,1.636,8.112,-0.724,41.1037524,16.8801939,False,NONE
2019-10-26 10:40:30.900,LG-H970,1572086430907.6667,-0.205,9.066,-1.831,41.1037524,16.8801939,False,NONE
2019-10-26 10:40:30.920,LG-H970,1572086430928.4,-1.689,10.523,-2.106,41.1037524,16.8801939,False,NONE
2019-10-26 10:40:30.940,LG-H970,1572086430949.25,-0.27,10.015,-0.42,41.1037524,16.8801939,False,NONE
2019-10-26 10:40:30.960,LG-H970,1572086430968.75,2.389,9.561,0.836,41.1037524,16.8801939,False,NONE
2019-10-26 10:40:30.980,LG-H970,1572086430989.0,1.173,9.621,-0.376,41.1037524,16.8801939,False,NONE
2019-10-26 10:40:31.000,LG-H970,1572086431008.25,-0.356,9.821,-1.112,41.1037524,16.8801939,False,NONE
2019-10-26 10:40:31.020,LG-H970,1572086431027.5,0.609,8.389,-0.541,41.1037524,16.8801939,False,NONE
2019-10-26 10:40:31.040,LG-H970,1572086431047.5,2.146,9.722,0.437,41.1037524,16.8801939,False,NONE
2019-10-26 10:40:31.060,LG-H970,1572086431068.0,-2.17,9.7,-1.837,41.1037524,16.8801939,False,NONE
