UTC_timestamp,device_name,timestamp,x,y,z,lat,long,event,speed
2019-10-24 16:59:15.000,LG-H970,1571936355008.0,-0.689,9.177,-3.05,41.1078542,16.8810681,False,NONE
2019-10-24 16:59:15.020,LG-H970,1571936355029.2222,-0.082,8.637,0.968,41.1078542,16.8810681,False,NONE
2019-10-24 16:59:15.040,LG-H970,1571936355050.0,-0.075,9.692,-4.645,41.1078542,16.8810681,False,NONE
2019-10-24 16:59:15.060,LG-H970,1571936355070.0,-1.634,5.645,-3.54,41.1078542,16.8810681,False,NONE
2019-10-24 16:59:15.080,LG-H970,1571936355089.625,-2.167,11.521,-1.6,41.1078542,16.8810681,False,NONE
2019-10-24 16:59:15.100,LG-H970,1571936355109.125,1.152,8.529,-2.73,41.1078542,16.8810681,False,NONE
2019-10-24 16:59:15.120,LG-H970,1571936355130.3333,0.737,6.546,-0.344,41.1078542,16.8810681,False,NONE
2019-10-24 16:59:15.140,LG-H970,1571936355151.125,-1.583,12.488,-1.306,41.1078542,16.8810681,False,NONE
2019-10-24 16:59:15.160,LG-H970,1571936355170.75,0.412,9.45,-0.186,41.1078542,16.8810681,False,NONE
2019-10-24 16:59:15.180,LG-H970,1571936355190.5,1.356,9.301,0.097,41.1078542,16.8810681,False,NONE
2019-10-24 16:59:15.200,LG-H970,1571936355210.0,-2.466,9.869,-2.138,41.1078542,16.8810681,False,NONE
2019-10-24 16:59:15.220,LG-H970,1571936355230.125,-1.953,10.884,0.376,41.1078542,16.8810681,False,NONE
2019-10-24 16:59:15.240,LG-H970,1571936355249.875,0.888,8.494,0.791,41.1078542,16.8810681,False,NONE
2019-10-24 16:59:15.260,LG-H970,1571936355269.0,0.186,10.048,1.711,41.1078542,16.8810681,False,NONE
2019-10-24 16:59:15.280,LG-H970,1571936355288.0,-1.614,9.773,-1.843,41.1078542,16.8810681,False,NONE
2019-10-24 16:59:15.300,LG-H970,1571936355308.875,-1.629,9.917,-0.057,41.1078542,16.8810681,False,NONE
2019-10-24 16:59:15.320,LG-H970,1571936355328.375,-2.291,9.483,0.243,41.1078542,16.8810681,False,NONE
2019-10-24 16:59:15.340,LG-H970,1571936355348.25,-0.67,10.079,1.177,41.1078542,16.8810681,False,NONE
2019-10-24 16:59:15.360,LG-H970,1571936355368.0,-0.213,9.691,-0.924,41.1078542,16.8810681,False,NONE
2019-10-24 16:59:15.380,LG-H970,1571936355389.0,-2.271,10.482,0.102,41.1078542,16.8810681,False,NONE
2019-10-24 16:59:15.400,LG-H970,1571936355410.0,-0.993,8.89,-0.006,41.1078542,16.8810681,False,NONE
2019-10-24 16:59:15.420,LG-H970,1571936355429.875,-0.051,9.99,0.506,41.1078542,16.8810681,False,NONE
2019-10-24 16:59:15.440,LG-H970,1571936355449.375,-2.296,10.359,-0.756,41.1078542,16.8810681,False,NONE
2019-10-24 16:59:15.460,LG-H970,1571936355469.125,-0.872,9.35,-0.59,41.1078542,16.8810681,False,NONE
2019-10-24 16:59:15.480,LG-H970,1571936355489.889,0.121,8.798,0.432,41.1078542,16.8810681,False,NONE
2019-10-24 16:59:15.500,LG-H970,1571936355511.0,-1.984,10.279,0.342,41.1078542,16.8810681,False,NONE
2019-10-24 16:59:15.520,LG-H970,1571936355530.875,-0.999,9.558,-0.282,41.1078542,16.8810681,False,NONE
2019-10-24 16:59:15.540,LG-H970,1571936355550.375,0.77,8.685,0.821,41.1078542,16.8810681,False,NONE
2019-10-24 16:59:15.560,LG-H970,1571936355570.125,-0.792,9.779,-0.718,41.1078542,16.8810681,False,NONE
2019-10-24 16:59:15.580,LG-H970,1571936355590.625,-1.136,9.833,0.629,41.1078542,16.8810681,False,NONE
2019-10-24 16:59:15.600,LG-H970,1571936355609.75,0.166,9.629,-0.085,41.1078542,16.8810681,False,NONE
2019-10-24 16:59:15.620,LG-H970,1571936355629.375,-0.43,9.938,0.37,41.1078542,16.8810681,False,NONE
2019-10-24 16:59:15.640,LG-H970,1571936355649.0,-1.433,10.151,-1.312,41.1078542,16.8810681,False,NONE
2019-10-24 16:59:15.660,LG-H970,1571936355668.75,-0.011,9.729,-0.586,41.1078542,16.8810681,False,NONE
2019-10-24 16:59:15.680,LG-H970,1571936355688.25,-0.035,9.807,0.663,41.1078542,16.8810681,False,NONE
2019-10-24 16:59:15.700,LG-H970,1571936355708.125,-1.651,10.39,-0.5,41.1078542,16.8810681,False,NONE
2019-10-24 16:59:15.720,LG-H970,1571936355729.2222,-0.964,9.476,-1.215,41.1078542,16.8810681,False,NONE
2019-10-24 16:59:15.740,LG-H970,1571936355750.125,-0.158,9.391,-0.021,41.1078542,16.8810681,False,NONE
2019-10-24 16:59:15.760,LG-H970,1571936355769.75,-0.846,9.756,0.678,41.1078542,16.8810681,False,NONE
2019-10-24 16:59:15.780,LG-H970,1571936355789.5,-1.593,10.08,-0.115,41.1078542,16.8810681,False,NONE
2019-10-24 16:59:15.800,LG-H970,1571936355809.25,-0.65,9.825,-0.654,41.1078542,16.8810681,False,NONE
2019-10-24 16:59:15.820,LG-H970,1571936355830.111,-0.376,10.161,0.218,41.1078542,16.8810681,False,NONE
2019-10-24 16:59:15.840,LG-H970,1571936355851.125,-0.82,10.328,0.784,41.1078542,16.8810681,False,NONE
2019-10-24 16:59:15.860,LG-H970,1571936355870.875,-1.092,10.362,-0.221,41.1078542,16.8810681,False,NONE
2019-10-24 16:59:15.880,LG-H970,1571936355890.5,-0.536,10.171,-0.322,41.1078542,16.8810681,False,NONE
2019-10-24 16:59:15.900,LG-H970,1571936355910.125,-0.844,10.127,-0.076,41.1078542,16.8810681,False,NONE
2019-10-24 16:59:15.920,LG-H970,1571936355929.875,-0.928,10.552,0.131,41.1078542,16.8810681,False,NONE
2019-10-24 16:59:15.940,LG-H970,1571936355949.625,-0.175,10.103,-0.118,41.1078542,16.8810681,False,NONE
2019-10-24 16:59:15.960,LG-H970,1571936355969.375,-0.442,9.534,-0.144,41.1078542,16.8810681,False,NONE
2019-10-24 16:59:15.980,LG-H970,1571936355989.25,-1.847,9.928,-0.437,41.1078542,16.8810681,False,NONE
2019-10-24 16:59:16.000,LG-H970,1571936356008.875,-0.855,9.515,-0.483,41.1078542,16.8810681,False,NONE
2019-10-24 16:59:16.020,LG-H970,1571936356028.375,0.026,9.703,0.496,41.1078542,16.8810681,False,NONE
2019-10-24 16:59:16.040,LG-H970,1571936356048.25,-1.37,9.807,0.123,41.1078542,16.8810681,False,NONE
2019-10-24 16:59:16.060,LG-H970,1571936356068.0,-2.037,10.075,-0.627,41.1078542,16.8810681,False,NONE
2019-10-24 16:59:16.080,LG-H970,1571936356089.2222,-0.402,9.843,0.159,41.1078542,16.8810681,False,NONE
2019-10-24 16:59:16.100,LG-H970,1571936356109.875,-0.295,9.835,0.35,41.1078542,16.8810681,False,NONE
2019-10-24 16:59:16.120,LG-H970,1571936356129.75,-1.364,10.295,-0.17,41.1078542,16.8810681,False,NONE
2019-10-24 16:59:16.140,LG-H970,1571936356149.375,-1.173,9.969,-0.131,41.1078542,16.8810681,False,NONE
2019-10-24 16:59:16.160,LG-H970,1571936356169.25,-0.575,9.912,-0.039,41.1078542,16.8810681,False,NONE
2019-10-24 16:59:16.180,LG-H970,1571936356189.889,-1.327,10.218,-0.303,41.1078542,16.8810681,False,NONE
2019-10-24 16:59:16.200,LG-H970,1571936356211.125,-0.804,10.115,-0.457,41.1078542,16.8810681,False,NONE
2019-10-24 16:59:16.220,LG-H970,1571936356230.875,-0.043,9.547,-0.395,41.1078542,16.8810681,False,NONE
2019-10-24 16:59:16.240,LG-H970,1571936356250.375,-1.389,9.802,-0.444,41.1078542,16.8810681,False,NONE
2019-10-24 16:59:16.260,LG-H970,1571936356270.0,-1.345,9.438,-0.8,41.1078542,16.8810681,False,NONE
2019-10-24 16:59:16.280,LG-H970,1571936356289.875,-0.284,9.535,0.242,41.1078542,16.8810681,False,NONE
2019-10-24 16:59:16.300,LG-H970,1571936356309.625,-0.651,9.743,-0.025,41.1078542,16.8810681,False,NONE
2019-10-24 16:59:16.320,LG-H970,1571936356329.125,-1.766,9.425,-0.408,41.1078542,16.8810681,False,NONE
2019-10-24 16:59:16.340,LG-H970,1571936356349.0,-1.352,9.851,-0.683,41.1078542,16.8810681,False,NONE
2019-10-24 16:59:16.360,LG-H970,1571936356368.5,-0.485,10.077,0.71,41.1078542,16.8810681,False,NONE
2019-10-24 16:59:16.380,LG-H970,1571936356388.25,-0.593,10.368,0.181,41.1078542,16.8810681,False,NONE
2019-10-24 16:59:16.400,LG-H970,1571936356408.0,-1.546,9.992,-0.249,41.1078542,16.8810681,False,NONE
2019-10-24 16:59:16.420,LG-H970,1571936356429.0,-1.289,9.889,-0.252,41.1078542,16.8810681,False,NONE
2019-10-24 16:59:16.440,LG-H970,1571936356450.0,-0.952,10.301,0.558,41.1078542,16.8810681,False,NONE
2019-10-24 16:59:16.460,LG-H970,1571936356469.5,-1.291,10.51,0.022,41.1078542,16.8810681,False,NONE
2019-10-24 16:59:16.480,LG-H970,1571936356490.0,-1.118,9.949,-0.33,41.1078542,16.8810681,False,NONE
2019-10-24 16:59:16.500,LG-H970,1571936356509.375,-1.217,9.886,-0.21,41.1078542,16.8810681,True,NONE
2019-10-24 16:59:16.520,LG-H970,1571936356530.2222,-1.177,10.154,0.076,41.1078542,16.8810681,False,NONE
2019-10-24 16:59:16.540,LG-H970,1571936356551.0,-1.064,9.955,-0.22,41.1078542,16.8810681,False,NONE
2019-10-24 16:59:16.560,LG-H970,1571936356570.875,-0.828,9.718,-0.3,41.1078542,16.8810681,False,NONE
2019-10-24 16:59:16.580,LG-H970,1571936356590.75,-1.285,9.561,0.188,41.1078542,16.8810681,False,NONE
2019-10-24 16:59:16.600,LG-H970,1571936356610.25,-1.133,10.213,-0.107,41.1078542,16.8810681,False,NONE
2019-10-24 16:59:16.620,LG-H970,1571936356630.0,-0.713,9.898,-0.103,41.1078542,16.8810681,False,NONE
2019-10-24 16:59:16.640,LG-H970,1571936356650.125,-0.413,9.81,0.412,41.1078542,16.8810681,False,NONE
2019-10-24 16:59:16.660,LG-H970,1571936356669.5,-0.719,10.039,-0.127,41.1078542,16.8810681,False,NONE
2019-10-24 16:59:16.680,LG-H970,1571936356689.0,-1.093,10.304,0.298,41.1078542,16.8810681,False,NONE
2019-10-24 16:59:16.700,LG-H970,1571936356708.625,-0.887,10.116,-0.288,41.1078542,16.8810681,False,NONE
2019-10-24 16:59:16.720,LG-H970,1571936356728.75,-0.983,10.029,0.314,41.1078542,16.8810681,False,NONE
2019-10-24 16:59:16.740,LG-H970,1571936356748.25,-0.997,10.335,-0.603,41.1078542,16.8810681,False,NONE
2019-10-24 16:59:16.760,LG-H970,1571936356769.2222,-0.44,9.525,-0.126,41.1078542,16.8810681,False,NONE
2019-10-24 16:59:16.780,LG-H970,1571936356788.8572,-1.106,9.355,-0.388,41.1078542,16.8810681,False,NONE
2019-10-24 16:59:16.800,LG-H970,1571936356808.5557,-1.316,9.718,0.038,41.1078542,16.8810681,False,NONE
2019-10-24 16:59:16.820,LG-H970,1571936356829.75,-0.463,9.697,-0.487,41.1078542,16.8810681,False,NONE
2019-10-24 16:59:16.840,LG-H970,1571936356849.375,-0.957,9.575,0.228,41.1078542,16.8810681,False,NONE
2019-10-24 16:59:16.860,LG-H970,1571936356868.875,-1.924,10.233,-0.104,41.1078542,16.8810681,False,NONE
2019-10-24 16:59:16.880,LG-H970,1571936356891.0,-1.137,10.087,-0.243,41.1078542,16.8810681,False,NONE
2019-10-24 16:59:16.900,LG-H970,1571936356912.375,-0.304,10.03,0.358,41.1078542,16.8810681,False,NONE
2019-10-24 16:59:16.920,LG-H970,1571936356930.375,-1.207,10.119,-0.267,41.1078542,16.8810681,False,NONE
2019-10-24 16:59:16.940,LG-H970,1571936356952.875,-1.336,10.507,0.113,41.1078542,16.8810681,False,NONE
2019-10-24 16:59:16.960,LG-H970,1571936356970.125,-0.695,9.699,-0.098,41.1078542,16.8810681,False,NONE
2019-10-24 16:59:16.980,LG-H970,1571936356989.75,-0.854,10.256,0.413,41.1078542,16.8810681,False,NONE
2019-10-24 16:59:17.000,LG-H970,1571936357012.1428,-1.031,10.304,-1.04,41.1078542,16.8810681,False,NONE
2019-10-24 16:59:17.020,LG-H970,1571936357028.0,-0.199,9.559,0.071,41.1078542,16.8810681,False,NONE
2019-10-24 16:59:17.040,LG-H970,1571936357047.7,-0.673,9.694,-0.18,41.1078542,16.8810681,False,NONE
2019-10-24 16:59:17.060,LG-H970,1571936357068.875,-1.483,10.073,-0.127,41.1078542,16.8810681,False,NONE
2019-10-24 16:59:17.080,LG-H970,1571936357088.625,-0.48,9.631,-0.781,41.1078542,16.8810681,False,NONE
2019-10-24 16:59:17.100,LG-H970,1571936357109.2222,-0.718,9.435,0.543,41.1078542,16.8810681,False,NONE
2019-10-24 16:59:17.120,LG-H970,1571936357130.25,-1.631,10.317,-0.164,41.1078542,16.8810681,False,NONE
2019-10-24 16:59:17.140,LG-H970,1571936357149.75,-1.259,10.235,0.131,41.1078542,16.8810681,False,NONE
2019-10-24 16:59:17.160,LG-H970,1571936357169.625,-0.23,9.809,-0.026,41.1078542,16.8810681,False,NONE
2019-10-24 16:59:17.180,LG-H970,1571936357189.5,-0.858,10.233,0.517,41.1078542,16.8810681,False,NONE
2019-10-24 16:59:17.200,LG-H970,1571936357209.0,-1.52,10.243,-0.52,41.1078542,16.8810681,False,NONE
2019-10-24 16:59:17.220,LG-H970,1571936357230.0,-0.725,10.347,0.523,41.1078542,16.8810681,False,NONE
2019-10-24 16:59:17.240,LG-H970,1571936357251.125,-0.961,9.621,-0.175,41.1078542,16.8810681,False,NONE
2019-10-24 16:59:17.260,LG-H970,1571936357269.5715,-1.134,10.01,-0.78,41.1078542,16.8810681,False,NONE
2019-10-24 16:59:17.280,LG-H970,1571936357289.4443,-0.9,9.657,-0.045,41.1078542,16.8810681,False,NONE
2019-10-24 16:59:17.300,LG-H970,1571936357310.0,-0.945,9.532,0.116,41.1078542,16.8810681,False,NONE
2019-10-24 16:59:17.320,LG-H970,1571936357330.0,-1.147,10.064,-0.649,41.1078542,16.8810681,False,NONE
2019-10-24 16:59:17.340,LG-H970,1571936357349.875,-0.664,9.84,-0.395,41.1078542,16.8810681,False,NONE
2019-10-24 16:59:17.360,LG-H970,1571936357369.375,-0.837,9.859,0.491,41.1078542,16.8810681,False,NONE
2019-10-24 16:59:17.380,LG-H970,1571936357389.125,-1.299,9.768,0.243,41.1078542,16.8810681,False,NONE
2019-10-24 16:59:17.400,LG-H970,1571936357408.625,-1.009,9.779,-0.344,41.1078542,16.8810681,False,NONE
2019-10-24 16:59:17.420,LG-H970,1571936357428.375,-0.618,10.033,0.033,41.1078542,16.8810681,False,NONE
2019-10-24 16:59:17.440,LG-H970,1571936357448.0,-0.51,10.35,0.339,41.1078542,16.8810681,False,NONE
2019-10-24 16:59:17.460,LG-H970,1571936357469.111,-1.085,10.337,0.094,41.1078542,16.8810681,False,NONE
2019-10-24 16:59:17.480,LG-H970,1571936357490.0,-1.006,10.113,-0.197,41.1078542,16.8810681,False,NONE
2019-10-24 16:59:17.500,LG-H970,1571936357508.4285,-0.885,9.901,-0.241,41.1078542,16.8810681,False,NONE
2019-10-24 16:59:17.520,LG-H970,1571936357528.6667,-1.109,9.912,-0.099,41.1078542,16.8810681,False,NONE
2019-10-24 16:59:17.540,LG-H970,1571936357549.25,-0.782,9.418,-0.198,41.1078542,16.8810681,False,NONE
2019-10-24 16:59:17.560,LG-H970,1571936357569.75,-0.976,9.914,-0.188,41.1078542,16.8810681,False,NONE
2019-10-24 16:59:17.580,LG-H970,1571936357588.75,-0.902,10.101,-0.311,41.1078542,16.8810681,False,NONE
2019-10-24 16:59:17.600,LG-H970,1571936357609.7778,-0.439,10.045,-0.086,41.1078542,16.8810681,False,NONE
2019-10-24 16:59:17.620,LG-H970,1571936357630.625,-1.174,9.677,0.18,41.1078542,16.8810681,False,NONE
2019-10-24 16:59:17.640,LG-H970,1571936357650.5,-1.689,10.396,0.097,41.1078542,16.8810681,False,NONE
2019-10-24 16:59:17.660,LG-H970,1571936357670.25,-0.951,9.965,0.073,41.1078542,16.8810681,False,NONE
2019-10-24 16:59:17.680,LG-H970,1571936357689.75,-0.193,9.884,0.328,41.1078542,16.8810681,False,NONE
2019-10-24 16:59:17.700,LG-H970,1571936357709.375,-0.797,9.963,0.045,41.1078542,16.8810681,False,NONE
2019-10-24 16:59:17.720,LG-H970,1571936357729.25,-1.28,9.953,-0.14,41.1078542,16.8810681,False,NONE
2019-10-24 16:59:17.740,LG-H970,1571936357749.0,-0.825,10.286,0.191,41.1078542,16.8810681,False,NONE
2019-10-24 16:59:17.760,LG-H970,1571936357768.875,-1.015,10.249,0.063,41.1078542,16.8810681,False,NONE
2019-10-24 16:59:17.780,LG-H970,1571936357788.375,-0.83,10.156,-0.271,41.1078542,16.8810681,False,NONE
2019-10-24 16:59:17.800,LG-H970,1571936357809.4443,-0.057,9.627,0.077,41.1078542,16.8810681,False,NONE
2019-10-24 16:59:17.820,LG-H970,1571936357828.8572,-1.07,9.783,-0.53,41.1078542,16.8810681,False,NONE
2019-10-24 16:59:17.840,LG-H970,1571936357848.889,-1.243,9.637,-0.561,41.1078542,16.8810681,False,NONE
2019-10-24 16:59:17.860,LG-H970,1571936357869.5,-0.566,9.496,0.107,41.1078542,16.8810681,False,NONE
2019-10-24 16:59:17.880,LG-H970,1571936357889.75,-0.947,9.454,0.31,41.1078542,16.8810681,False,NONE
2019-10-24 16:59:17.900,LG-H970,1571936357910.4443,-1.759,9.91,0.168,41.1078542,16.8810681,False,NONE
2019-10-24 16:59:17.920,LG-H970,1571936357930.1428,-0.859,10.289,-0.396,41.1078542,16.8810681,False,NONE
2019-10-24 16:59:17.940,LG-H970,1571936357949.7778,-0.055,10.102,0.495,41.1078542,16.8810681,False,NONE
2019-10-24 16:59:17.960,LG-H970,1571936357970.75,-1.104,10.305,-0.088,41.1078542,16.8810681,False,NONE
2019-10-24 16:59:17.980,LG-H970,1571936357990.75,-1.612,10.44,0.142,41.1078542,16.8810681,False,NONE
