UTC_timestamp,device_name,timestamp,x,y,z,lat,long,event,speed
2019-10-24 17:06:34.020,LG-H970,1571936794030.875,-0.415,10.107,-0.69,41.1076256,16.8852396,False,NONE
2019-10-24 17:06:34.040,LG-H970,1571936794050.25,-0.153,10.216,0.016,41.1076256,16.8852396,False,NONE
2019-10-24 17:06:34.060,LG-H970,1571936794069.625,-0.204,9.972,-0.07,41.1076256,16.8852396,False,NONE
2019-10-24 17:06:34.080,LG-H970,1571936794088.875,-0.767,10.321,-0.694,41.1076256,16.8852396,False,NONE
2019-10-24 17:06:34.100,LG-H970,1571936794109.125,-0.666,9.589,-0.672,41.1076256,16.8852396,False,NONE
2019-10-24 17:06:34.120,LG-H970,1571936794128.75,-0.265,9.553,-0.271,41.1076256,16.8852396,False,NONE
2019-10-24 17:06:34.140,LG-H970,1571936794148.375,-0.66,10.034,-0.034,41.1076256,16.8852396,False,NONE
2019-10-24 17:06:34.160,LG-H970,1571936794169.889,-1.184,9.886,-0.861,41.1076256,16.8852396,False,NONE
2019-10-24 17:06:34.180,LG-H970,1571936794190.25,-1.222,9.819,-0.661,41.1076256,16.8852396,False,NONE
2019-10-24 17:06:34.200,LG-H970,1571936794210.25,-0.945,10.403,0.113,41.1076256,16.8852396,False,NONE
2019-10-24 17:06:34.220,LG-H970,1571936794229.875,-0.672,9.801,0.037,41.1076256,16.8852396,False,NONE
2019-10-24 17:06:34.240,LG-H970,1571936794249.625,-0.5,9.701,-0.535,41.1076256,16.8852396,False,NONE
2019-10-24 17:06:34.260,LG-H970,1571936794268.1428,-1.686,9.71,-0.504,41.1076256,16.8852396,False,NONE
2019-10-24 17:06:34.280,LG-H970,1571936794288.7778,-2.268,9.006,0.168,41.1076256,16.8852396,False,NONE
2019-10-24 17:06:34.300,LG-H970,1571936794308.75,-2.841,8.158,-1.205,41.1076256,16.8852396,False,NONE
2019-10-24 17:06:34.320,LG-H970,1571936794329.0,-4.374,8.145,-1.22,41.1076256,16.8852396,False,NONE
2019-10-24 17:06:34.340,LG-H970,1571936794348.25,-3.466,7.93,-0.805,41.1076256,16.8852396,False,NONE
2019-10-24 17:06:34.360,LG-H970,1571936794368.625,-0.849,9.03,-0.505,41.1076256,16.8852396,False,NONE
2019-10-24 17:06:34.380,LG-H970,1571936794389.0,-0.926,10.34,0.731,41.1076256,16.8852396,False,NONE
2019-10-24 17:06:34.400,LG-H970,1571936794408.7144,-1.507,10.044,-0.751,41.1076256,16.8852396,False,NONE
2019-10-24 17:06:34.420,LG-H970,1571936794428.6667,-0.692,10.211,-0.385,41.1076256,16.8852396,False,NONE
2019-10-24 17:06:34.440,LG-H970,1571936794449.375,0.719,12.008,1.087,41.1076256,16.8852396,False,NONE
2019-10-24 17:06:34.460,LG-H970,1571936794469.0,1.782,13.232,1.36,41.1076256,16.8852396,False,NONE
2019-10-24 17:06:34.480,LG-H970,1571936794488.875,-0.162,8.983,-0.046,41.1076256,16.8852396,False,NONE
2019-10-24 17:06:34.500,LG-H970,1571936794510.2222,-1.578,10.469,-2.901,41.1076256,16.8852396,False,NONE
2019-10-24 17:06:34.520,LG-H970,1571936794530.75,-0.482,13.135,2.102,41.1076256,16.8852396,False,NONE
2019-10-24 17:06:34.540,LG-H970,1571936794550.25,1.874,9.865,2.029,41.1076256,16.8852396,False,NONE
2019-10-24 17:06:34.560,LG-H970,1571936794570.125,-0.287,10.147,-0.113,41.1076256,16.8852396,False,NONE
2019-10-24 17:06:34.580,LG-H970,1571936794589.75,-3.163,10.483,-2.944,41.1076256,16.8852396,False,NONE
2019-10-24 17:06:34.600,LG-H970,1571936794609.375,-0.466,10.805,1.237,41.1076256,16.8852396,False,NONE
2019-10-24 17:06:34.620,LG-H970,1571936794629.5,0.99,9.651,0.623,41.1076256,16.8852396,False,NONE
2019-10-24 17:06:34.640,LG-H970,1571936794649.1428,-2.132,10.982,-0.703,41.1076256,16.8852396,False,NONE
2019-10-24 17:06:34.660,LG-H970,1571936794668.5,-2.468,10.187,-2.075,41.1076256,16.8852396,False,NONE
2019-10-24 17:06:34.680,LG-H970,1571936794689.375,0.106,10.073,-0.164,41.1076256,16.8852396,False,NONE
2019-10-24 17:06:34.700,LG-H970,1571936794711.0,-0.817,10.049,0.304,41.1076256,16.8852396,False,NONE
2019-10-24 17:06:34.720,LG-H970,1571936794730.375,-2.995,9.061,-1.632,41.1076256,16.8852396,False,NONE
2019-10-24 17:06:34.740,LG-H970,1571936794750.5,-1.862,9.163,0.167,41.1076256,16.8852396,False,NONE
2019-10-24 17:06:34.760,LG-H970,1571936794769.875,-1.414,8.441,2.17,41.1076256,16.8852396,False,NONE
2019-10-24 17:06:34.780,LG-H970,1571936794789.125,-2.443,10.364,-0.11,41.1076256,16.8852396,False,NONE
2019-10-24 17:06:34.800,LG-H970,1571936794810.875,-1.715,8.937,-1.874,41.1076256,16.8852396,False,NONE
2019-10-24 17:06:34.820,LG-H970,1571936794829.125,-1.376,8.457,0.227,41.1076256,16.8852396,False,NONE
2019-10-24 17:06:34.840,LG-H970,1571936794850.625,-1.161,9.396,1.764,41.1076256,16.8852396,False,NONE
2019-10-24 17:06:34.860,LG-H970,1571936794868.375,-0.849,9.022,-0.517,41.1076256,16.8852396,False,NONE
2019-10-24 17:06:34.880,LG-H970,1571936794890.875,1.362,10.926,-5.478,41.1076256,16.8852396,False,NONE
2019-10-24 17:06:34.900,LG-H970,1571936794909.875,-1.235,7.555,1.528,41.1076256,16.8852396,False,NONE
2019-10-24 17:06:34.920,LG-H970,1571936794930.111,0.602,11.72,0.248,41.1076256,16.8852396,False,NONE
2019-10-24 17:06:34.940,LG-H970,1571936794949.875,2.07,10.368,-1.718,41.1076256,16.8852396,False,NONE
2019-10-24 17:06:34.960,LG-H970,1571936794969.375,-0.328,9.583,-2.085,41.1076256,16.8852396,False,NONE
2019-10-24 17:06:34.980,LG-H970,1571936794989.25,-0.641,11.538,-0.101,41.1076256,16.8852396,False,NONE
2019-10-24 17:06:35.000,LG-H970,1571936795008.75,1.911,9.021,-0.942,41.1076256,16.8852396,False,NONE
2019-10-24 17:06:35.020,LG-H970,1571936795029.5557,0.169,9.933,0.233,41.1076256,16.8852396,False,NONE
2019-10-24 17:06:35.040,LG-H970,1571936795050.1428,-2.282,11.79,-1.082,41.1076256,16.8852396,False,NONE
2019-10-24 17:06:35.060,LG-H970,1571936795069.5557,0.116,8.748,0.103,41.1076256,16.8852396,False,NONE
2019-10-24 17:06:35.080,LG-H970,1571936795090.25,0.424,9.044,0.165,41.1076256,16.8852396,False,NONE
2019-10-24 17:06:35.100,LG-H970,1571936795110.125,-1.877,11.325,0.862,41.1076256,16.8852396,False,NONE
2019-10-24 17:06:35.120,LG-H970,1571936795130.0,-1.006,9.765,0.167,41.1076256,16.8852396,False,NONE
2019-10-24 17:06:35.140,LG-H970,1571936795150.0,0.387,8.743,-0.503,41.1076256,16.8852396,False,NONE
2019-10-24 17:06:35.160,LG-H970,1571936795169.25,-2.121,10.958,-0.478,41.1076256,16.8852396,False,NONE
2019-10-24 17:06:35.180,LG-H970,1571936795189.5,-1.07,10.997,0.689,41.1076256,16.8852396,False,NONE
2019-10-24 17:06:35.200,LG-H970,1571936795209.6667,0.669,9.462,0.466,41.1076256,16.8852396,False,NONE
2019-10-24 17:06:35.220,LG-H970,1571936795230.375,-1.601,10.086,-1.419,41.1076256,16.8852396,False,NONE
2019-10-24 17:06:35.240,LG-H970,1571936795250.5,-1.831,10.855,-0.473,41.1076256,16.8852396,False,NONE
2019-10-24 17:06:35.260,LG-H970,1571936795270.25,0.446,9.342,0.46,41.1076256,16.8852396,False,NONE
2019-10-24 17:06:35.280,LG-H970,1571936795290.25,-0.116,9.537,0.323,41.1076256,16.8852396,False,NONE
2019-10-24 17:06:35.300,LG-H970,1571936795310.7144,-1.868,9.823,-1.378,41.1076256,16.8852396,False,NONE
2019-10-24 17:06:35.320,LG-H970,1571936795329.875,-1.067,9.507,-0.485,41.1076256,16.8852396,False,NONE
2019-10-24 17:06:35.340,LG-H970,1571936795349.3333,-0.183,9.447,0.69,41.1076256,16.8852396,False,NONE
2019-10-24 17:06:35.360,LG-H970,1571936795367.4285,-0.881,9.948,0.15,41.1076256,16.8852396,False,NONE
2019-10-24 17:06:35.380,LG-H970,1571936795392.8572,-0.902,9.494,-1.278,41.1076256,16.8852396,False,NONE
2019-10-24 17:06:35.400,LG-H970,1571936795410.25,-1.044,9.536,-0.347,41.1076256,16.8852396,False,NONE
2019-10-24 17:06:35.420,LG-H970,1571936795427.5557,-0.95,10.496,-0.145,41.1076256,16.8852396,False,NONE
2019-10-24 17:06:35.440,LG-H970,1571936795440.0,-0.913,10.46,-0.165,41.1076256,16.8852396,False,NONE
2019-10-24 17:06:35.460,LG-H970,1571936795470.8,-0.653,9.892,-0.416,41.1076256,16.8852396,False,NONE
2019-10-24 17:06:35.480,LG-H970,1571936795490.0908,-0.616,10.195,-0.468,41.1076256,16.8852396,False,NONE
2019-10-24 17:06:35.500,LG-H970,1571936795508.3333,-0.703,10.533,-0.045,41.1076256,16.8852396,False,NONE
2019-10-24 17:06:35.520,LG-H970,1571936795528.111,-0.454,9.916,-0.529,41.1076256,16.8852396,True,NONE
2019-10-24 17:06:35.540,LG-H970,1571936795548.9,-0.632,9.838,-0.884,41.1076256,16.8852396,False,NONE
2019-10-24 17:06:35.560,LG-H970,1571936795568.75,-0.108,9.836,0.16,41.1076256,16.8852396,False,NONE
2019-10-24 17:06:35.580,LG-H970,1571936795589.5715,-0.191,9.414,-0.009,41.1076256,16.8852396,False,NONE
2019-10-24 17:06:35.600,LG-H970,1571936795609.111,-1.355,9.793,-0.53,41.1076256,16.8852396,False,NONE
2019-10-24 17:06:35.620,LG-H970,1571936795630.2222,-0.48,9.964,-0.052,41.1076256,16.8852396,False,NONE
2019-10-24 17:06:35.640,LG-H970,1571936795649.375,0.168,10.094,0.081,41.1076256,16.8852396,False,NONE
2019-10-24 17:06:35.660,LG-H970,1571936795669.5,-1.203,10.433,0.123,41.1076256,16.8852396,False,NONE
2019-10-24 17:06:35.680,LG-H970,1571936795691.125,-1.393,10.277,-0.576,41.1076256,16.8852396,False,NONE
2019-10-24 17:06:35.700,LG-H970,1571936795709.375,-0.223,9.824,0.259,41.1076256,16.8852396,False,NONE
2019-10-24 17:06:35.720,LG-H970,1571936795729.75,-0.372,10.419,-0.069,41.1076256,16.8852396,False,NONE
2019-10-24 17:06:35.740,LG-H970,1571936795749.875,-1.216,10.589,-0.121,41.1076256,16.8852396,False,NONE
2019-10-24 17:06:35.760,LG-H970,1571936795769.5557,-0.315,10.11,-0.299,41.1076256,16.8852396,False,NONE
2019-10-24 17:06:35.780,LG-H970,1571936795788.1667,-0.275,9.31,-0.086,41.1076256,16.8852396,False,NONE
2019-10-24 17:06:35.800,LG-H970,1571936795810.7778,-1.231,10.362,-0.43,41.1076256,16.8852396,False,NONE
2019-10-24 17:06:35.820,LG-H970,1571936795825.0,-0.909,9.366,-0.115,41.1076256,16.8852396,False,NONE
2019-10-24 17:06:35.840,LG-H970,1571936795850.4443,0.215,8.673,-0.497,41.1076256,16.8852396,False,NONE
2019-10-24 17:06:35.860,LG-H970,1571936795868.0908,-1.162,9.373,-0.483,41.1076256,16.8852396,False,NONE
2019-10-24 17:06:35.880,LG-H970,1571936795888.5,0.358,8.285,-1.045,41.1076256,16.8852396,False,NONE
2019-10-24 17:06:35.900,LG-H970,1571936795910.8572,-0.011,9.041,-0.091,41.1076256,16.8852396,False,NONE
2019-10-24 17:06:35.920,LG-H970,1571936795928.5557,-1.619,10.127,0.356,41.1076256,16.8852396,False,NONE
2019-10-24 17:06:35.940,LG-H970,1571936795950.0,-1.486,9.563,-0.51,41.1076256,16.8852396,False,NONE
2019-10-24 17:06:35.960,LG-H970,1571936795967.875,-0.205,9.241,-0.549,41.1076256,16.8852396,False,NONE
2019-10-24 17:06:35.980,LG-H970,1571936795988.3333,-1.001,11.242,-0.47,41.1076256,16.8852396,False,NONE
2019-10-24 17:06:36.000,LG-H970,1571936796009.5715,-0.948,10.73,0.491,41.1076256,16.8852396,False,NONE
2019-10-24 17:06:36.020,LG-H970,1571936796029.5,-0.819,9.913,-0.159,41.1076256,16.8852396,False,NONE
2019-10-24 17:06:36.040,LG-H970,1571936796049.75,-1.068,9.844,-0.615,41.1076256,16.8852396,False,NONE
2019-10-24 17:06:36.060,LG-H970,1571936796071.2,-0.852,10.926,0.844,41.1076256,16.8852396,False,NONE
2019-10-24 17:06:36.080,LG-H970,1571936796090.0,-1.055,10.69,0.2,41.1076256,16.8852396,False,NONE
2019-10-24 17:06:36.100,LG-H970,1571936796110.4443,-1.249,10.393,0.027,41.1076256,16.8852396,False,NONE
2019-10-24 17:06:36.120,LG-H970,1571936796130.4,-1.391,10.549,-0.791,41.1076256,16.8852396,False,NONE
2019-10-24 17:06:36.140,LG-H970,1571936796149.8,-0.697,9.884,0.085,41.1076256,16.8852396,False,NONE
2019-10-24 17:06:36.160,LG-H970,1571936796168.4,-0.695,9.131,1.318,41.1076256,16.8852396,False,NONE
2019-10-24 17:06:36.180,LG-H970,1571936796190.125,-1.797,10.031,-0.416,41.1076256,16.8852396,False,NONE
2019-10-24 17:06:36.200,LG-H970,1571936796207.4,-1.824,10.401,-1.094,41.1076256,16.8852396,False,NONE
2019-10-24 17:06:36.220,LG-H970,1571936796234.2,0.218,9.768,0.857,41.1076256,16.8852396,False,NONE
2019-10-24 17:06:36.240,LG-H970,1571936796249.7778,-0.135,9.862,0.525,41.1076256,16.8852396,False,NONE
2019-10-24 17:06:36.260,LG-H970,1571936796269.889,-1.171,10.23,0.262,41.1076256,16.8852396,False,NONE
2019-10-24 17:06:36.280,LG-H970,1571936796290.875,-1.024,11.12,-0.643,41.1076256,16.8852396,False,NONE
2019-10-24 17:06:36.300,LG-H970,1571936796309.5,-0.487,9.868,-0.582,41.1076256,16.8852396,False,NONE
2019-10-24 17:06:36.320,LG-H970,1571936796329.111,-1.229,9.755,0.126,41.1076256,16.8852396,False,NONE
2019-10-24 17:06:36.340,LG-H970,1571936796350.0,-1.241,9.251,0.127,41.1076256,16.8852396,False,NONE
2019-10-24 17:06:36.360,LG-H970,1571936796371.8572,-0.373,9.767,-0.281,41.1076256,16.8852396,False,NONE
2019-10-24 17:06:36.380,LG-H970,1571936796389.6667,-0.379,9.091,-0.506,41.1076256,16.8852396,False,NONE
2019-10-24 17:06:36.400,LG-H970,1571936796410.2222,-0.953,9.573,-0.201,41.1076256,16.8852396,False,NONE
2019-10-24 17:06:36.420,LG-H970,1571936796429.3333,-1.12,9.204,0.021,41.1076256,16.8852396,False,NONE
2019-10-24 17:06:36.440,LG-H970,1571936796450.111,-1.401,10.122,-0.396,41.1076256,16.8852396,False,NONE
2019-10-24 17:06:36.460,LG-H970,1571936796469.3333,-1.22,10.481,-0.24,41.1076256,16.8852396,False,NONE
2019-10-24 17:06:36.480,LG-H970,1571936796488.3,-0.812,10.217,-0.243,41.1076256,16.8852396,False,NONE
2019-10-24 17:06:36.500,LG-H970,1571936796509.5557,-0.954,9.687,-0.351,41.1076256,16.8852396,False,NONE
2019-10-24 17:06:36.520,LG-H970,1571936796529.6667,-0.907,10.05,-0.256,41.1076256,16.8852396,False,NONE
2019-10-24 17:06:36.540,LG-H970,1571936796550.4443,-1.322,10.201,0.386,41.1076256,16.8852396,False,NONE
2019-10-24 17:06:36.560,LG-H970,1571936796568.1428,-1.655,10.345,-0.37,41.1076256,16.8852396,False,NONE
2019-10-24 17:06:36.580,LG-H970,1571936796591.125,-1.343,9.392,-0.621,41.1076256,16.8852396,False,NONE
2019-10-24 17:06:36.600,LG-H970,1571936796609.25,-1.145,9.823,0.023,41.1076256,16.8852396,False,NONE
2019-10-24 17:06:36.620,LG-H970,1571936796629.2222,-1.316,9.969,0.227,41.1076256,16.8852396,False,NONE
2019-10-24 17:06:36.640,LG-H970,1571936796649.7778,-1.202,9.623,-0.337,41.1076256,16.8852396,False,NONE
2019-10-24 17:06:36.660,LG-H970,1571936796669.25,-1.393,9.6,-0.54,41.1076256,16.8852396,False,NONE
2019-10-24 17:06:36.680,LG-H970,1571936796689.3333,-1.018,10.405,0.438,41.1076256,16.8852396,False,NONE
2019-10-24 17:06:36.700,LG-H970,1571936796710.0,-0.301,9.972,0.646,41.1076256,16.8852396,False,NONE
2019-10-24 17:06:36.720,LG-H970,1571936796729.375,-0.885,9.742,-0.134,41.1076256,16.8852396,False,NONE
2019-10-24 17:06:36.740,LG-H970,1571936796749.25,-1.638,10.172,-0.875,41.1076256,16.8852396,False,NONE
2019-10-24 17:06:36.760,LG-H970,1571936796769.7778,-0.75,9.825,0.286,41.1076256,16.8852396,False,NONE
2019-10-24 17:06:36.780,LG-H970,1571936796790.5,-0.432,9.092,0.681,41.1076256,16.8852396,False,NONE
2019-10-24 17:06:36.800,LG-H970,1571936796809.875,-2.025,10.085,-1.098,41.1076256,16.8852396,False,NONE
2019-10-24 17:06:36.820,LG-H970,1571936796829.875,-1.577,9.81,-0.075,41.1076256,16.8852396,False,NONE
2019-10-24 17:06:36.840,LG-H970,1571936796850.125,0.049,9.803,0.762,41.1076256,16.8852396,False,NONE
2019-10-24 17:06:36.860,LG-H970,1571936796869.2856,-0.809,9.666,0.511,41.1076256,16.8852396,False,NONE
2019-10-24 17:06:36.880,LG-H970,1571936796888.75,-2.197,10.317,-0.39,41.1076256,16.8852396,False,NONE
2019-10-24 17:06:36.900,LG-H970,1571936796908.7778,-1.105,10.023,-0.045,41.1076256,16.8852396,False,NONE
2019-10-24 17:06:36.920,LG-H970,1571936796929.5,-0.296,9.691,1.018,41.1076256,16.8852396,False,NONE
2019-10-24 17:06:36.940,LG-H970,1571936796949.75,-1.09,10.429,0.303,41.1076256,16.8852396,False,NONE
2019-10-24 17:06:36.960,LG-H970,1571936796969.0,-1.144,9.917,0.154,41.1076256,16.8852396,False,NONE
2019-10-24 17:06:36.980,LG-H970,1571936796989.5557,-0.299,9.804,0.49,41.1076256,16.8852396,False,NONE
2019-10-24 17:06:37.000,LG-H970,1571936797009.75,-0.948,10.018,0.7,41.1076256,16.8852396,False,NONE
