UTC_timestamp,device_name,timestamp,x,y,z,lat,long,event,speed
2019-10-26 09:52:20.740,LG-H970,1572083540749.4,-0.69,9.88,-0.288,41.1069811,16.8739477,False,NONE
2019-10-26 09:52:20.760,LG-H970,1572083540771.25,-0.61,9.857,-0.185,41.1069811,16.8739477,False,NONE
2019-10-26 09:52:20.780,LG-H970,1572083540791.5,-0.587,9.788,-0.376,41.1069811,16.8739477,False,NONE
2019-10-26 09:52:20.800,LG-H970,1572083540811.25,-0.663,9.968,-0.156,41.1069811,16.8739477,False,NONE
2019-10-26 09:52:20.820,LG-H970,1572083540831.5,-0.752,9.714,-0.359,41.1069811,16.8739477,False,NONE
2019-10-26 09:52:20.840,LG-H970,1572083540850.75,-0.614,9.94,-0.066,41.1069811,16.8739477,False,NONE
2019-10-26 09:52:20.860,LG-H970,1572083540870.5,-0.585,9.724,-0.477,41.1069811,16.8739477,False,NONE
2019-10-26 09:52:20.880,LG-H970,1572083540890.0,-0.707,10.033,0.079,41.1069811,16.8739477,False,NONE
2019-10-26 09:52:20.900,LG-H970,1572083540910.0,-0.87,9.831,-0.504,41.1069811,16.8739477,False,NONE
2019-10-26 09:52:20.920,LG-H970,1572083540929.75,-0.667,10.281,0.129,41.1069811,16.8739477,False,NONE
2019-10-26 09:52:20.940,LG-H970,1572083540949.25,-0.641,9.518,-0.625,41.1069811,16.8739477,False,NONE
2019-10-26 09:52:20.960,LG-H970,1572083540968.5,-0.562,10.292,0.248,41.1069811,16.8739477,False,NONE
2019-10-26 09:52:20.980,LG-H970,1572083540988.5,-0.933,9.527,-0.804,41.1069811,16.8739477,False,NONE
2019-10-26 09:52:21.000,LG-H970,1572083541008.0,-0.632,10.161,0.318,41.1069811,16.8739477,False,NONE
2019-10-26 09:52:21.020,LG-H970,1572083541027.5,-0.614,9.727,-0.743,41.1069811,16.8739477,False,NONE
2019-10-26 09:52:21.040,LG-H970,1572083541047.5,-0.737,9.742,0.286,41.1069811,16.8739477,False,NONE
2019-10-26 09:52:21.060,LG-H970,1572083541067.5,-0.625,9.946,-0.635,41.1069811,16.8739477,False,NONE
2019-10-26 09:52:21.080,LG-H970,1572083541085.0,-0.882,9.741,0.124,41.1069811,16.8739477,False,NONE
2019-10-26 09:52:21.100,LG-H970,1572083541108.8,-0.689,9.847,-0.369,41.1069811,16.8739477,False,NONE
2019-10-26 09:52:21.120,LG-H970,1572083541131.5,-0.72,9.901,0.11,41.1069811,16.8739477,False,NONE
2019-10-26 09:52:21.140,LG-H970,1572083541150.75,-0.426,10.173,-0.495,41.1069811,16.8739477,False,NONE
2019-10-26 09:52:21.160,LG-H970,1572083541168.0,-0.843,9.429,-0.197,41.1069811,16.8739477,False,NONE
2019-10-26 09:52:21.180,LG-H970,1572083541188.4,-0.659,9.996,-0.187,41.1069811,16.8739477,False,NONE
2019-10-26 09:52:21.200,LG-H970,1572083541210.0,-0.846,9.57,-0.123,41.1069811,16.8739477,False,NONE
2019-10-26 09:52:21.220,LG-H970,1572083541231.25,-0.374,10.407,-0.207,41.1069811,16.8739477,False,NONE
2019-10-26 09:52:21.240,LG-H970,1572083541249.25,-0.702,9.583,-0.584,41.1069811,16.8739477,False,NONE
2019-10-26 09:52:21.260,LG-H970,1572083541268.75,-0.529,10.422,0.054,41.1069811,16.8739477,False,NONE
2019-10-26 09:52:21.280,LG-H970,1572083541289.0,-0.972,9.295,-0.517,41.1069811,16.8739477,False,NONE
2019-10-26 09:52:21.300,LG-H970,1572083541309.0,-0.472,10.183,0.333,41.1069811,16.8739477,False,NONE
2019-10-26 09:52:21.320,LG-H970,1572083541328.5,-0.844,9.445,-0.515,41.1069811,16.8739477,False,NONE
2019-10-26 09:52:21.340,LG-H970,1572083541348.5,-0.537,10.399,0.054,41.1069811,16.8739477,False,NONE
2019-10-26 09:52:21.360,LG-H970,1572083541368.5,-0.767,9.779,-0.458,41.1069811,16.8739477,False,NONE
2019-10-26 09:52:21.380,LG-H970,1572083541387.75,-0.58,10.052,-0.281,41.1069811,16.8739477,False,NONE
2019-10-26 09:52:21.400,LG-H970,1572083541408.0,-0.697,9.792,-0.17,41.1069811,16.8739477,False,NONE
2019-10-26 09:52:21.420,LG-H970,1572083541428.0,-0.695,9.986,-0.156,41.1069811,16.8739477,False,NONE
2019-10-26 09:52:21.440,LG-H970,1572083541449.4,-0.78,9.697,-0.075,41.1069811,16.8739477,False,NONE
2019-10-26 09:52:21.460,LG-H970,1572083541471.75,-0.556,10.001,-0.581,41.1069811,16.8739477,False,NONE
2019-10-26 09:52:21.480,LG-H970,1572083541491.5,-0.715,9.906,0.158,41.1069811,16.8739477,False,NONE
2019-10-26 09:52:21.500,LG-H970,1572083541511.5,-0.678,9.787,-0.64,41.1069811,16.8739477,False,NONE
2019-10-26 09:52:21.520,LG-H970,1572083541530.75,-0.654,10.165,0.251,41.1069811,16.8739477,False,NONE
2019-10-26 09:52:21.540,LG-H970,1572083541550.75,-0.745,9.695,-0.584,41.1069811,16.8739477,False,NONE
2019-10-26 09:52:21.560,LG-H970,1572083541570.75,-0.675,9.909,0.153,41.1069811,16.8739477,False,NONE
2019-10-26 09:52:21.580,LG-H970,1572083541590.25,-0.588,9.897,-0.556,41.1069811,16.8739477,False,NONE
2019-10-26 09:52:21.600,LG-H970,1572083541610.0,-0.733,9.856,0.111,41.1069811,16.8739477,False,NONE
2019-10-26 09:52:21.620,LG-H970,1572083541628.75,-0.673,9.755,-0.534,41.1069811,16.8739477,False,NONE
2019-10-26 09:52:21.640,LG-H970,1572083541648.5,-0.55,10.081,0.133,41.1069811,16.8739477,False,NONE
2019-10-26 09:52:21.660,LG-H970,1572083541668.5,-0.726,9.638,-0.539,41.1069811,16.8739477,False,NONE
2019-10-26 09:52:21.680,LG-H970,1572083541688.5,-0.713,9.925,0.04,41.1069811,16.8739477,False,NONE
2019-10-26 09:52:21.700,LG-H970,1572083541708.25,-0.582,9.982,-0.504,41.1069811,16.8739477,False,NONE
2019-10-26 09:52:21.720,LG-H970,1572083541728.0,-0.663,9.875,0.101,41.1069811,16.8739477,False,NONE
2019-10-26 09:52:21.740,LG-H970,1572083541747.5,-0.723,9.748,-0.476,41.1069811,16.8739477,False,NONE
2019-10-26 09:52:21.760,LG-H970,1572083541767.5,-0.648,10.131,0.09,41.1069811,16.8739477,False,NONE
2019-10-26 09:52:21.780,LG-H970,1572083541789.4,-0.724,9.729,-0.42,41.1069811,16.8739477,False,NONE
2019-10-26 09:52:21.800,LG-H970,1572083541811.75,-0.718,9.886,-0.037,41.1069811,16.8739477,False,NONE
2019-10-26 09:52:21.820,LG-H970,1572083541831.75,-0.709,9.796,-0.447,41.1069811,16.8739477,False,NONE
2019-10-26 09:52:21.840,LG-H970,1572083541851.75,-0.605,10.126,-0.021,41.1069811,16.8739477,False,NONE
2019-10-26 09:52:21.860,LG-H970,1572083541871.5,-0.76,9.707,-0.382,41.1069811,16.8739477,False,NONE
2019-10-26 09:52:21.880,LG-H970,1572083541890.75,-0.69,9.946,-0.07,41.1069811,16.8739477,False,NONE
2019-10-26 09:52:21.900,LG-H970,1572083541910.25,-0.601,9.974,-0.446,41.1069811,16.8739477,False,NONE
2019-10-26 09:52:21.920,LG-H970,1572083541930.0,-0.709,9.946,-0.039,41.1069811,16.8739477,False,NONE
2019-10-26 09:52:21.940,LG-H970,1572083541949.0,-0.742,9.75,-0.309,41.1069811,16.8739477,False,NONE
2019-10-26 09:52:21.960,LG-H970,1572083541968.75,-0.599,10.009,-0.111,41.1069811,16.8739477,False,NONE
2019-10-26 09:52:21.980,LG-H970,1572083541988.5,-0.651,9.895,-0.261,41.1069811,16.8739477,False,NONE
2019-10-26 09:52:22.000,LG-H970,1572083542008.5,-0.702,9.793,-0.188,41.1069811,16.8739477,False,NONE
2019-10-26 09:52:22.020,LG-H970,1572083542028.0,-0.672,9.809,-0.334,41.1069811,16.8739477,False,NONE
2019-10-26 09:52:22.040,LG-H970,1572083542047.75,-0.598,9.987,-0.143,41.1069811,16.8739477,False,NONE
2019-10-26 09:52:22.060,LG-H970,1572083542068.0,-0.751,9.78,-0.287,41.1069811,16.8739477,False,NONE
2019-10-26 09:52:22.080,LG-H970,1572083542088.6667,-0.763,9.863,-0.264,41.1069811,16.8739477,False,NONE
2019-10-26 09:52:22.100,LG-H970,1572083542109.6,-0.676,9.935,-0.288,41.1069811,16.8739477,False,NONE
2019-10-26 09:52:22.120,LG-H970,1572083542130.75,-0.61,10.015,-0.316,41.1069811,16.8739477,False,NONE
2019-10-26 09:52:22.140,LG-H970,1572083542151.25,-0.712,9.898,-0.271,41.1069811,16.8739477,False,NONE
2019-10-26 09:52:22.160,LG-H970,1572083542171.25,-0.735,9.802,-0.343,41.1069811,16.8739477,False,NONE
2019-10-26 09:52:22.180,LG-H970,1572083542191.0,-0.653,9.936,-0.334,41.1069811,16.8739477,False,NONE
2019-10-26 09:52:22.200,LG-H970,1572083542211.0,-0.668,9.843,-0.356,41.1069811,16.8739477,False,NONE
2019-10-26 09:52:22.220,LG-H970,1572083542230.5,-0.711,9.769,-0.373,41.1069811,16.8739477,False,NONE
2019-10-26 09:52:22.240,LG-H970,1572083542248.75,-0.681,9.894,-0.514,41.1069811,16.8739477,True,NONE
2019-10-26 09:52:22.260,LG-H970,1572083542268.5,-0.699,10.001,-0.352,41.1069811,16.8739477,False,NONE
2019-10-26 09:52:22.280,LG-H970,1572083542288.5,-0.755,9.831,-0.467,41.1069811,16.8739477,False,NONE
2019-10-26 09:52:22.300,LG-H970,1572083542308.5,-0.697,9.884,-0.423,41.1069811,16.8739477,False,NONE
2019-10-26 09:52:22.320,LG-H970,1572083542329.0,-0.654,9.957,-0.478,41.1069811,16.8739477,False,NONE
2019-10-26 09:52:22.340,LG-H970,1572083542349.25,-0.723,9.83,-0.458,41.1069811,16.8739477,False,NONE
2019-10-26 09:52:22.360,LG-H970,1572083542368.75,-0.825,9.787,-0.568,41.1069811,16.8739477,False,NONE
2019-10-26 09:52:22.380,LG-H970,1572083542388.5,-0.733,10.04,-0.47,41.1069811,16.8739477,False,NONE
2019-10-26 09:52:22.400,LG-H970,1572083542407.75,-0.729,9.819,-0.405,41.1069811,16.8739477,False,NONE
2019-10-26 09:52:22.420,LG-H970,1572083542427.75,-0.7,9.643,-0.472,41.1069811,16.8739477,False,NONE
2019-10-26 09:52:22.440,LG-H970,1572083542447.75,-0.618,9.923,-0.594,41.1069811,16.8739477,False,NONE
2019-10-26 09:52:22.460,LG-H970,1572083542469.4,-0.716,9.94,-0.492,41.1069811,16.8739477,False,NONE
2019-10-26 09:52:22.480,LG-H970,1572083542491.75,-0.779,9.782,-0.449,41.1069811,16.8739477,False,NONE
2019-10-26 09:52:22.500,LG-H970,1572083542511.75,-0.677,9.903,-0.46,41.1069811,16.8739477,False,NONE
2019-10-26 09:52:22.520,LG-H970,1572083542531.5,-0.566,10.097,-0.367,41.1069811,16.8739477,False,NONE
2019-10-26 09:52:22.540,LG-H970,1572083542550.75,-0.819,9.66,-0.52,41.1069811,16.8739477,False,NONE
2019-10-26 09:52:22.560,LG-H970,1572083542568.0,-0.566,10.162,-0.632,41.1069811,16.8739477,False,NONE
2019-10-26 09:52:22.580,LG-H970,1572083542585.75,-0.678,9.92,-0.433,41.1069811,16.8739477,False,NONE
2019-10-26 09:52:22.600,LG-H970,1572083542610.0,-0.836,9.612,-0.364,41.1069811,16.8739477,False,NONE
2019-10-26 09:52:22.620,LG-H970,1572083542628.75,-0.682,10.036,-0.628,41.1069811,16.8739477,False,NONE
2019-10-26 09:52:22.640,LG-H970,1572083542648.75,-0.651,9.951,-0.468,41.1069811,16.8739477,False,NONE
2019-10-26 09:52:22.660,LG-H970,1572083542668.5,-0.809,9.58,-0.801,41.1069811,16.8739477,False,NONE
2019-10-26 09:52:22.680,LG-H970,1572083542688.0,-0.681,10.101,-0.642,41.1069811,16.8739477,False,NONE
2019-10-26 09:52:22.700,LG-H970,1572083542709.25,-0.803,9.956,-0.586,41.1069811,16.8739477,False,NONE
2019-10-26 09:52:22.720,LG-H970,1572083542729.6,-0.815,9.619,-0.622,41.1069811,16.8739477,False,NONE
2019-10-26 09:52:22.740,LG-H970,1572083542752.25,-0.621,10.009,-0.867,41.1069811,16.8739477,False,NONE
2019-10-26 09:52:22.760,LG-H970,1572083542771.5,-0.812,9.962,-0.761,41.1069811,16.8739477,False,NONE
2019-10-26 09:52:22.780,LG-H970,1572083542791.25,-0.891,9.721,-0.984,41.1069811,16.8739477,False,NONE
2019-10-26 09:52:22.800,LG-H970,1572083542810.75,-0.531,10.152,-0.756,41.1069811,16.8739477,False,NONE
2019-10-26 09:52:22.820,LG-H970,1572083542830.5,-0.684,9.868,-0.934,41.1069811,16.8739477,False,NONE
2019-10-26 09:52:22.840,LG-H970,1572083542850.25,-0.966,9.723,-1.117,41.1069811,16.8739477,False,NONE
2019-10-26 09:52:22.860,LG-H970,1572083542869.75,-0.775,10.233,-1.165,41.1069811,16.8739477,False,NONE
2019-10-26 09:52:22.880,LG-H970,1572083542889.5,-0.754,9.795,-1.134,41.1069811,16.8739477,False,NONE
2019-10-26 09:52:22.900,LG-H970,1572083542909.25,-0.668,9.79,-1.182,41.1069811,16.8739477,False,NONE
2019-10-26 09:52:22.920,LG-H970,1572083542929.0,-0.698,10.44,-1.199,41.1069811,16.8739477,False,NONE
2019-10-26 09:52:22.940,LG-H970,1572083542948.75,-1.046,9.902,-1.542,41.1069811,16.8739477,False,NONE
2019-10-26 09:52:22.960,LG-H970,1572083542968.5,-0.79,9.982,-1.432,41.1069811,16.8739477,False,NONE
2019-10-26 09:52:22.980,LG-H970,1572083542988.0,-0.645,10.234,-1.476,41.1069811,16.8739477,False,NONE
2019-10-26 09:52:23.000,LG-H970,1572083543007.5,-1.046,9.749,-1.684,41.1069811,16.8739477,False,NONE
2019-10-26 09:52:23.020,LG-H970,1572083543027.5,-0.876,10.171,-1.792,41.1069811,16.8739477,False,NONE
2019-10-26 09:52:23.040,LG-H970,1572083543049.6,-0.776,10.228,-1.859,41.1069811,16.8739477,False,NONE
2019-10-26 09:52:23.060,LG-H970,1572083543071.5,-0.976,9.582,-2.042,41.1069811,16.8739477,False,NONE
2019-10-26 09:52:23.080,LG-H970,1572083543091.5,-0.936,9.946,-2.047,41.1069811,16.8739477,False,NONE
2019-10-26 09:52:23.100,LG-H970,1572083543111.25,-1.216,9.679,-1.886,41.1069811,16.8739477,False,NONE
2019-10-26 09:52:23.120,LG-H970,1572083543130.75,-1.109,9.432,-2.347,41.1069811,16.8739477,False,NONE
2019-10-26 09:52:23.140,LG-H970,1572083543151.5,-0.547,10.283,-1.98,41.1069811,16.8739477,False,NONE
2019-10-26 09:52:23.160,LG-H970,1572083543171.0,-0.969,9.718,-3.085,41.1069811,16.8739477,False,NONE
2019-10-26 09:52:23.180,LG-H970,1572083543189.75,-0.758,10.641,-2.169,41.1069811,16.8739477,False,NONE
2019-10-26 09:52:23.200,LG-H970,1572083543210.5,-1.17,9.043,-2.825,41.1069811,16.8739477,False,NONE
2019-10-26 09:52:23.220,LG-H970,1572083543229.75,-0.864,9.465,-1.726,41.1069811,16.8739477,False,NONE
2019-10-26 09:52:23.240,LG-H970,1572083543250.25,-0.958,9.42,-2.901,41.1069811,16.8739477,False,NONE
2019-10-26 09:52:23.260,LG-H970,1572083543269.25,-0.569,10.49,-2.453,41.1069811,16.8739477,False,NONE
2019-10-26 09:52:23.280,LG-H970,1572083543288.75,-1.089,8.78,-2.832,41.1069811,16.8739477,False,NONE
2019-10-26 09:52:23.300,LG-H970,1572083543308.5,-0.639,9.948,-2.332,41.1069811,16.8739477,False,NONE
2019-10-26 09:52:23.320,LG-H970,1572083543327.5,-1.047,9.847,-2.719,41.1069811,16.8739477,False,NONE
2019-10-26 09:52:23.340,LG-H970,1572083543348.0,-1.057,9.567,-1.88,41.1069811,16.8739477,False,NONE
2019-10-26 09:52:23.360,LG-H970,1572083543370.0,-0.526,9.239,-2.716,41.1069811,16.8739477,False,NONE
2019-10-26 09:52:23.380,LG-H970,1572083543391.5,-0.437,10.37,-2.585,41.1069811,16.8739477,False,NONE
2019-10-26 09:52:23.400,LG-H970,1572083543412.0,-1.807,8.875,-2.914,41.1069811,16.8739477,False,NONE
2019-10-26 09:52:23.420,LG-H970,1572083543431.5,-0.608,10.524,-2.225,41.1069811,16.8739477,False,NONE
2019-10-26 09:52:23.440,LG-H970,1572083543451.75,-0.365,9.302,-1.662,41.1069811,16.8739477,False,NONE
2019-10-26 09:52:23.460,LG-H970,1572083543472.0,-0.36,9.687,-3.091,41.1069811,16.8739477,False,NONE
2019-10-26 09:52:23.480,LG-H970,1572083543491.5,-1.494,9.554,-2.424,41.1069811,16.8739477,False,NONE
2019-10-26 09:52:23.500,LG-H970,1572083543512.0,-1.291,9.378,-3.109,41.1069811,16.8739477,False,NONE
2019-10-26 09:52:23.520,LG-H970,1572083543531.75,-0.183,10.833,-0.969,41.1069811,16.8739477,False,NONE
2019-10-26 09:52:23.540,LG-H970,1572083543551.5,-0.621,8.774,-2.94,41.1069811,16.8739477,False,NONE
2019-10-26 09:52:23.560,LG-H970,1572083543570.75,-0.68,10.642,-1.332,41.1069811,16.8739477,False,NONE
2019-10-26 09:52:23.580,LG-H970,1572083543590.75,-1.652,8.667,-3.528,41.1069811,16.8739477,False,NONE
2019-10-26 09:52:23.600,LG-H970,1572083543610.25,-0.238,10.865,-0.696,41.1069811,16.8739477,False,NONE
2019-10-26 09:52:23.620,LG-H970,1572083543630.0,-0.393,9.038,-2.315,41.1069811,16.8739477,False,NONE
2019-10-26 09:52:23.640,LG-H970,1572083543649.5,-0.466,10.882,-0.467,41.1069811,16.8739477,False,NONE
2019-10-26 09:52:23.660,LG-H970,1572083543670.0,-1.227,9.227,-2.819,41.1069811,16.8739477,False,NONE
2019-10-26 09:52:23.680,LG-H970,1572083543688.5,-0.629,10.259,-0.833,41.1069811,16.8739477,False,NONE
2019-10-26 09:52:23.700,LG-H970,1572083543707.5,-0.158,9.462,-2.178,41.1069811,16.8739477,False,NONE
2019-10-26 09:52:23.720,LG-H970,1572083543729.6,-0.597,10.24,-0.605,41.1069811,16.8739477,False,NONE
