UTC_timestamp,device_name,timestamp,x,y,z,lat,long,event,speed
2019-10-27 16:21:53.280,LG-H970,1572193313290.25,1.345,9.015,-0.429,41.1086678,16.8875975,False,5.307
2019-10-27 16:21:53.300,LG-H970,1572193313310.0,0.109,9.291,0.399,41.1086678,16.8875975,False,5.307
2019-10-27 16:21:53.320,LG-H970,1572193313329.75,0.73,8.926,0.435,41.1086678,16.8875975,False,5.307
2019-10-27 16:21:53.340,LG-H970,1572193313348.75,2.407,9.876,0.968,41.1086678,16.8875975,False,5.307
2019-10-27 16:21:53.360,LG-H970,1572193313368.5,1.147,9.547,0.802,41.1086678,16.8875975,False,5.307
2019-10-27 16:21:53.380,LG-H970,1572193313389.6667,0.151,11.196,-0.81,41.1086011,16.8874741,False,7.148
2019-10-27 16:21:53.400,LG-H970,1572193313407.75,0.776,9.892,-1.361,41.1085677,16.8874124,False,8.069
2019-10-27 16:21:53.420,LG-H970,1572193313427.75,1.819,9.113,-0.613,41.1085677,16.8874124,False,8.069
2019-10-27 16:21:53.440,LG-H970,1572193313447.5,0.913,10.06,-0.353,41.1085677,16.8874124,False,8.069
2019-10-27 16:21:53.460,LG-H970,1572193313468.25,0.417,10.708,-2.005,41.1085677,16.8874124,False,8.069
2019-10-27 16:21:53.480,LG-H970,1572193313489.0,1.495,9.098,-1.544,41.1085677,16.8874124,False,8.069
2019-10-27 16:21:53.500,LG-H970,1572193313508.6667,1.569,8.022,-0.973,41.1085677,16.8874124,False,8.069
2019-10-27 16:21:53.520,LG-H970,1572193313529.2,0.919,9.186,-1.567,41.1085677,16.8874124,False,8.069
2019-10-27 16:21:53.540,LG-H970,1572193313551.25,0.862,9.485,-1.782,41.1085677,16.8874124,False,8.069
2019-10-27 16:21:53.560,LG-H970,1572193313570.75,1.002,9.223,-1.2,41.1085677,16.8874124,False,8.069
2019-10-27 16:21:53.580,LG-H970,1572193313590.25,0.161,9.09,-1.334,41.1085677,16.8874124,False,8.069
2019-10-27 16:21:53.600,LG-H970,1572193313610.75,0.042,9.712,-1.569,41.1085677,16.8874124,False,8.069
2019-10-27 16:21:53.620,LG-H970,1572193313630.5,1.107,8.198,-1.056,41.1085677,16.8874124,False,8.069
2019-10-27 16:21:53.640,LG-H970,1572193313650.0,2.492,6.888,-2.56,41.1085677,16.8874124,False,8.069
2019-10-27 16:21:53.660,LG-H970,1572193313670.5,1.695,6.423,-2.453,41.1085677,16.8874124,False,8.069
2019-10-27 16:21:53.680,LG-H970,1572193313689.5,1.456,5.036,-1.132,41.1085677,16.8874124,False,8.069
2019-10-27 16:21:53.700,LG-H970,1572193313708.5,1.6,5.219,-2.359,41.1085677,16.8874124,False,8.069
2019-10-27 16:21:53.720,LG-H970,1572193313729.25,-1.738,7.973,-2.545,41.1085677,16.8874124,False,8.069
2019-10-27 16:21:53.740,LG-H970,1572193313746.75,-5.715,7.151,-2.685,41.1085677,16.8874124,False,8.069
2019-10-27 16:21:53.760,LG-H970,1572193313769.5,-0.954,10.499,-1.377,41.1085677,16.8874124,False,8.069
2019-10-27 16:21:53.780,LG-H970,1572193313787.75,5.34,14.237,1.545,41.1085677,16.8874124,False,8.069
2019-10-27 16:21:53.800,LG-H970,1572193313808.25,4.959,14.583,4.809,41.1085677,16.8874124,False,8.069
2019-10-27 16:21:53.820,LG-H970,1572193313826.75,-5.459,11.663,0.602,41.1085677,16.8874124,False,8.069
2019-10-27 16:21:53.840,LG-H970,1572193313845.3333,-4.337,14.762,-10.126,41.1085677,16.8874124,False,8.069
2019-10-27 16:21:53.860,LG-H970,1572193313869.6667,7.239,14.776,-0.692,41.1085677,16.8874124,False,8.069
2019-10-27 16:21:53.880,LG-H970,1572193313889.6,7.889,8.513,7.39,41.1085677,16.8874124,False,8.069
2019-10-27 16:21:53.900,LG-H970,1572193313910.75,-1.305,18.077,-6.241,41.1085677,16.8874124,False,8.069
2019-10-27 16:21:53.920,LG-H970,1572193313931.25,-2.01,16.968,-3.961,41.1085677,16.8874124,False,8.069
2019-10-27 16:21:53.940,LG-H970,1572193313950.0,6.284,10.802,6.107,41.1085677,16.8874124,False,8.069
2019-10-27 16:21:53.960,LG-H970,1572193313970.5,7.054,9.494,0.082,41.1085677,16.8874124,False,8.069
2019-10-27 16:21:53.980,LG-H970,1572193313989.5,-0.09,10.443,-5.618,41.1085677,16.8874124,False,8.069
2019-10-27 16:21:54.000,LG-H970,1572193314008.0,-0.516,10.648,-0.559,41.1085677,16.8874124,False,8.069
2019-10-27 16:21:54.020,LG-H970,1572193314029.0,1.79,8.717,-0.957,41.1085677,16.8874124,False,8.069
2019-10-27 16:21:54.040,LG-H970,1572193314049.5,-0.857,10.466,0.653,41.1085677,16.8874124,False,8.069
2019-10-27 16:21:54.060,LG-H970,1572193314069.25,-1.898,7.286,-1.905,41.1085677,16.8874124,False,8.069
2019-10-27 16:21:54.080,LG-H970,1572193314089.0,4.633,10.589,-7.237,41.1085677,16.8874124,False,8.069
2019-10-27 16:21:54.100,LG-H970,1572193314108.75,-3.263,4.809,-8.26,41.1085677,16.8874124,False,8.069
2019-10-27 16:21:54.120,LG-H970,1572193314127.25,-4.615,6.772,-0.795,41.1085677,16.8874124,False,8.069
2019-10-27 16:21:54.140,LG-H970,1572193314147.25,5.941,7.675,-5.98,41.1085677,16.8874124,False,8.069
2019-10-27 16:21:54.160,LG-H970,1572193314170.2,4.244,6.436,-1.859,41.1085677,16.8874124,False,8.069
2019-10-27 16:21:54.180,LG-H970,1572193314189.6667,-2.506,10.381,-4.317,41.1085677,16.8874124,False,8.069
2019-10-27 16:21:54.200,LG-H970,1572193314209.4,0.509,7.678,-4.979,41.1085677,16.8874124,False,8.069
2019-10-27 16:21:54.220,LG-H970,1572193314231.5,7.311,7.385,0.564,41.1085677,16.8874124,False,8.069
2019-10-27 16:21:54.240,LG-H970,1572193314250.75,2.304,8.753,-2.054,41.1085677,16.8874124,False,8.069
2019-10-27 16:21:54.260,LG-H970,1572193314269.75,-1.074,9.511,-1.854,41.1085677,16.8874124,False,8.069
2019-10-27 16:21:54.280,LG-H970,1572193314290.25,3.136,8.931,-0.917,41.1085677,16.8874124,False,8.069
2019-10-27 16:21:54.300,LG-H970,1572193314311.0,3.882,7.908,1.296,41.1085677,16.8874124,False,8.069
2019-10-27 16:21:54.320,LG-H970,1572193314329.5,0.803,9.633,-0.544,41.1085677,16.8874124,False,8.069
2019-10-27 16:21:54.340,LG-H970,1572193314350.3333,-0.004,10.008,-2.451,41.1085677,16.8874124,False,8.069
2019-10-27 16:21:54.360,LG-H970,1572193314367.0,2.379,8.541,-0.55,41.1085677,16.8874124,False,8.069
2019-10-27 16:21:54.380,LG-H970,1572193314389.25,1.617,9.277,-0.382,41.108544,16.8873658,False,8.146
2019-10-27 16:21:54.400,LG-H970,1572193314409.6,-0.791,10.327,-0.764,41.1085204,16.8873192,False,8.224
2019-10-27 16:21:54.420,LG-H970,1572193314429.0,1.249,9.667,-1.373,41.1085204,16.8873192,False,8.224
2019-10-27 16:21:54.440,LG-H970,1572193314449.2,1.958,8.078,-0.314,41.1085204,16.8873192,False,8.224
2019-10-27 16:21:54.460,LG-H970,1572193314471.5,-0.056,8.69,-1.419,41.1085204,16.8873192,False,8.224
2019-10-27 16:21:54.480,LG-H970,1572193314491.75,0.023,9.729,-0.74,41.1085204,16.8873192,False,8.224
2019-10-27 16:21:54.500,LG-H970,1572193314511.0,1.505,9.175,-0.262,41.1085204,16.8873192,False,8.224
2019-10-27 16:21:54.520,LG-H970,1572193314531.0,1.302,9.28,-1.814,41.1085204,16.8873192,False,8.224
2019-10-27 16:21:54.540,LG-H970,1572193314550.25,0.406,9.453,-3.351,41.1085204,16.8873192,False,8.224
2019-10-27 16:21:54.560,LG-H970,1572193314570.25,1.284,9.135,-2.428,41.1085204,16.8873192,False,8.224
2019-10-27 16:21:54.580,LG-H970,1572193314589.5,1.376,9.744,-2.059,41.1085204,16.8873192,False,8.224
2019-10-27 16:21:54.600,LG-H970,1572193314609.5,0.569,10.555,-3.087,41.1085204,16.8873192,False,8.224
2019-10-27 16:21:54.620,LG-H970,1572193314629.25,1.143,9.723,-2.526,41.1085204,16.8873192,False,8.224
2019-10-27 16:21:54.640,LG-H970,1572193314649.25,2.079,8.435,-2.37,41.1085204,16.8873192,False,8.224
2019-10-27 16:21:54.660,LG-H970,1572193314669.0,1.593,9.804,-2.622,41.1085204,16.8873192,False,8.224
2019-10-27 16:21:54.680,LG-H970,1572193314686.0,0.281,9.291,-1.801,41.1085204,16.8873192,False,8.224
2019-10-27 16:21:54.700,LG-H970,1572193314708.6,1.506,10.334,-1.904,41.1085204,16.8873192,False,8.224
2019-10-27 16:21:54.720,LG-H970,1572193314729.0,1.884,9.536,-2.029,41.1085204,16.8873192,False,8.224
2019-10-27 16:21:54.740,LG-H970,1572193314748.25,1.437,9.623,-3.037,41.1085204,16.8873192,False,8.224
2019-10-27 16:21:54.760,LG-H970,1572193314765.3333,1.494,9.478,-2.22,41.1085204,16.8873192,False,8.224
2019-10-27 16:21:54.780,LG-H970,1572193314799.0,1.975,10.554,-2.564,41.1085204,16.8873192,True,8.224
2019-10-27 16:21:54.800,LG-H970,1572193314800.0,1.517,11.356,-3.153,41.1085204,16.8873192,False,8.224
2019-10-27 16:21:54.820,LG-H970,1572193314800.0,1.517,11.356,-3.153,41.1085204,16.8873192,False,8.224
2019-10-27 16:21:54.840,LG-H970,1572193314853.3333,1.588,9.896,-1.734,41.1085204,16.8873192,False,8.224
2019-10-27 16:21:54.860,LG-H970,1572193314873.0,0.61,9.373,-1.108,41.1085204,16.8873192,False,8.224
2019-10-27 16:21:54.880,LG-H970,1572193314889.0,0.401,10.415,-1.442,41.1085204,16.8873192,False,8.224
2019-10-27 16:21:54.900,LG-H970,1572193314908.2,0.917,9.943,-0.698,41.1085204,16.8873192,False,8.224
2019-10-27 16:21:54.920,LG-H970,1572193314930.5,1.218,9.662,-1.761,41.1085204,16.8873192,False,8.224
2019-10-27 16:21:54.940,LG-H970,1572193314950.0,0.862,9.881,-2.182,41.1085204,16.8873192,False,8.224
2019-10-27 16:21:54.960,LG-H970,1572193314969.5,0.76,9.6,-1.833,41.1085204,16.8873192,False,8.224
2019-10-27 16:21:54.980,LG-H970,1572193314989.75,0.876,9.913,-1.532,41.1085204,16.8873192,False,8.224
2019-10-27 16:21:55.000,LG-H970,1572193315009.0,0.849,9.858,-1.847,41.1085204,16.8873192,False,8.224
2019-10-27 16:21:55.020,LG-H970,1572193315028.3333,1.142,8.746,-1.186,41.1085204,16.8873192,False,8.224
2019-10-27 16:21:55.040,LG-H970,1572193315050.5,1.547,8.568,-1.732,41.1085204,16.8873192,False,8.224
2019-10-27 16:21:55.060,LG-H970,1572193315068.5,0.891,9.504,-1.668,41.1085204,16.8873192,False,8.224
2019-10-27 16:21:55.080,LG-H970,1572193315089.5,0.364,9.695,-0.955,41.1085204,16.8873192,False,8.224
2019-10-27 16:21:55.100,LG-H970,1572193315108.75,1.029,9.915,-1.455,41.1085204,16.8873192,False,8.224
2019-10-27 16:21:55.120,LG-H970,1572193315127.6667,1.386,9.63,-1.729,41.1085204,16.8873192,False,8.224
2019-10-27 16:21:55.140,LG-H970,1572193315148.0,1.205,9.466,-1.977,41.1085204,16.8873192,False,8.224
2019-10-27 16:21:55.160,LG-H970,1572193315168.75,0.87,10.037,-1.939,41.1085204,16.8873192,False,8.224
2019-10-27 16:21:55.180,LG-H970,1572193315187.75,0.761,10.393,-1.865,41.1085204,16.8873192,False,8.224
2019-10-27 16:21:55.200,LG-H970,1572193315206.25,0.958,10.013,-1.351,41.1085204,16.8873192,False,8.224
2019-10-27 16:21:55.220,LG-H970,1572193315229.0,1.194,9.227,-1.685,41.1085204,16.8873192,False,8.224
2019-10-27 16:21:55.240,LG-H970,1572193315251.0,1.395,9.347,-1.807,41.1085204,16.8873192,False,8.224
2019-10-27 16:21:55.260,LG-H970,1572193315271.75,1.354,9.585,-1.042,41.1085204,16.8873192,False,8.224
2019-10-27 16:21:55.280,LG-H970,1572193315291.0,0.922,9.891,-1.116,41.1085204,16.8873192,False,8.224
2019-10-27 16:21:55.300,LG-H970,1572193315309.25,0.947,9.851,-1.447,41.1085204,16.8873192,False,8.224
2019-10-27 16:21:55.320,LG-H970,1572193315330.25,1.391,9.436,-1.565,41.1085204,16.8873192,False,8.224
2019-10-27 16:21:55.340,LG-H970,1572193315348.75,1.172,9.48,-1.376,41.1085204,16.8873192,False,8.224
2019-10-27 16:21:55.360,LG-H970,1572193315367.3333,1.018,10.412,-1.63,41.1085204,16.8873192,False,8.224
2019-10-27 16:21:55.380,LG-H970,1572193315388.2,0.775,10.107,-1.177,41.1085204,16.8873192,False,8.224
2019-10-27 16:21:55.400,LG-H970,1572193315407.75,1.175,9.381,-1.202,41.1085204,16.8873192,False,8.224
2019-10-27 16:21:55.420,LG-H970,1572193315428.75,1.477,9.29,-1.753,41.1085204,16.8873192,False,8.224
2019-10-27 16:21:55.440,LG-H970,1572193315448.0,1.131,9.08,-1.433,41.1085204,16.8873192,False,8.224
2019-10-27 16:21:55.460,LG-H970,1572193315468.5,0.95,9.469,-1.115,41.1085204,16.8873192,False,8.224
2019-10-27 16:21:55.480,LG-H970,1572193315488.5,1.033,9.937,-1.098,41.1085204,16.8873192,False,8.224
2019-10-27 16:21:55.500,LG-H970,1572193315510.6,1.21,9.877,-1.518,41.1085204,16.8873192,False,8.224
2019-10-27 16:21:55.520,LG-H970,1572193315530.3333,1.012,9.295,-0.829,41.1085204,16.8873192,False,8.224
2019-10-27 16:21:55.540,LG-H970,1572193315550.4,1.287,9.761,-1.372,41.1085204,16.8873192,False,8.224
2019-10-27 16:21:55.560,LG-H970,1572193315571.75,1.042,9.994,-1.115,41.1085204,16.8873192,False,8.224
2019-10-27 16:21:55.580,LG-H970,1572193315590.5,0.715,9.511,-0.913,41.1085204,16.8873192,False,8.224
2019-10-27 16:21:55.600,LG-H970,1572193315612.25,1.339,9.283,-1.379,41.1085204,16.8873192,False,8.224
2019-10-27 16:21:55.620,LG-H970,1572193315630.75,1.552,8.824,-1.164,41.1085204,16.8873192,False,8.224
2019-10-27 16:21:55.640,LG-H970,1572193315651.0,1.291,9.225,-1.46,41.1085204,16.8873192,False,8.224
2019-10-27 16:21:55.660,LG-H970,1572193315670.5,0.756,9.591,-1.288,41.1085204,16.8873192,False,8.224
2019-10-27 16:21:55.680,LG-H970,1572193315690.25,1.082,10.0,-1.358,41.1085204,16.8873192,False,8.224
2019-10-27 16:21:55.700,LG-H970,1572193315709.5,1.389,9.702,-1.012,41.1085204,16.8873192,False,8.224
2019-10-27 16:21:55.720,LG-H970,1572193315730.0,1.183,9.806,-1.542,41.1085204,16.8873192,False,8.224
2019-10-27 16:21:55.740,LG-H970,1572193315749.25,0.552,9.703,-1.581,41.1085204,16.8873192,False,8.224
2019-10-27 16:21:55.760,LG-H970,1572193315768.75,0.534,9.433,-1.163,41.1085204,16.8873192,False,8.224
2019-10-27 16:21:55.780,LG-H970,1572193315788.5,0.877,9.526,-0.816,41.1085204,16.8873192,False,8.224
2019-10-27 16:21:55.800,LG-H970,1572193315810.6,0.84,9.532,-1.738,41.1085204,16.8873192,False,8.224
2019-10-27 16:21:55.820,LG-H970,1572193315830.6667,0.628,9.225,-1.031,41.1085204,16.8873192,False,8.224
2019-10-27 16:21:55.840,LG-H970,1572193315847.75,0.849,9.545,-1.442,41.1085204,16.8873192,False,8.224
2019-10-27 16:21:55.860,LG-H970,1572193315867.5,0.532,9.775,-0.921,41.1085204,16.8873192,False,8.224
2019-10-27 16:21:55.880,LG-H970,1572193315889.4,0.799,9.789,-1.537,41.1085204,16.8873192,False,8.224
2019-10-27 16:21:55.900,LG-H970,1572193315911.25,1.39,9.94,-0.902,41.1085204,16.8873192,False,8.224
2019-10-27 16:21:55.920,LG-H970,1572193315931.75,1.111,9.78,-1.04,41.1085204,16.8873192,False,8.224
2019-10-27 16:21:55.940,LG-H970,1572193315949.0,0.778,9.945,-0.941,41.1085204,16.8873192,False,8.224
2019-10-27 16:21:55.960,LG-H970,1572193315968.4,0.786,9.768,-1.06,41.1085204,16.8873192,False,8.224
2019-10-27 16:21:55.980,LG-H970,1572193315989.5,1.019,9.32,-1.488,41.1085204,16.8873192,False,8.224
2019-10-27 16:21:56.000,LG-H970,1572193316010.0,1.252,9.317,-1.794,41.1085204,16.8873192,False,8.224
2019-10-27 16:21:56.020,LG-H970,1572193316029.5,1.175,9.051,-1.432,41.1085204,16.8873192,False,8.224
2019-10-27 16:21:56.040,LG-H970,1572193316049.75,0.247,9.037,-0.938,41.1085204,16.8873192,False,8.224
2019-10-27 16:21:56.060,LG-H970,1572193316069.75,0.084,9.442,-1.827,41.1085204,16.8873192,False,8.224
2019-10-27 16:21:56.080,LG-H970,1572193316090.5,1.303,10.074,-1.089,41.1085204,16.8873192,False,8.224
2019-10-27 16:21:56.100,LG-H970,1572193316107.75,1.311,9.56,-0.376,41.1085204,16.8873192,False,8.224
2019-10-27 16:21:56.120,LG-H970,1572193316131.4,-0.039,9.54,-1.535,41.1085204,16.8873192,False,8.224
2019-10-27 16:21:56.140,LG-H970,1572193316152.25,0.06,9.979,-1.913,41.1085204,16.8873192,False,8.224
2019-10-27 16:21:56.160,LG-H970,1572193316171.75,0.927,9.412,-0.891,41.1085204,16.8873192,False,8.224
2019-10-27 16:21:56.180,LG-H970,1572193316190.75,1.096,9.576,-0.759,41.1085204,16.8873192,False,8.224
2019-10-27 16:21:56.200,LG-H970,1572193316211.25,0.241,9.808,-1.635,41.1085204,16.8873192,False,8.224
2019-10-27 16:21:56.220,LG-H970,1572193316231.25,-0.114,9.057,-1.909,41.1085204,16.8873192,False,8.224
2019-10-27 16:21:56.240,LG-H970,1572193316251.5,0.533,9.046,-0.895,41.1085204,16.8873192,False,8.224
2019-10-27 16:21:56.260,LG-H970,1572193316269.0,0.797,9.645,-1.739,41.1085204,16.8873192,False,8.224
