UTC_timestamp,device_name,timestamp,x,y,z,lat,long,event,speed
2019-10-26 10:38:29.360,LG-H970,1572086309368.75,-0.594,10.332,2.509,41.1039623,16.8796758,False,NONE
2019-10-26 10:38:29.380,LG-H970,1572086309390.8,-2.038,12.225,0.352,41.1039623,16.8796758,False,NONE
2019-10-26 10:38:29.400,LG-H970,1572086309412.25,-2.793,11.334,-2.366,41.1039623,16.8796758,False,NONE
2019-10-26 10:38:29.420,LG-H970,1572086309431.75,-1.374,9.288,-1.682,41.1039623,16.8796758,False,NONE
2019-10-26 10:38:29.440,LG-H970,1572086309451.5,0.601,7.489,-0.478,41.1039623,16.8796758,False,NONE
2019-10-26 10:38:29.460,LG-H970,1572086309469.0,-1.338,9.046,1.661,41.1039623,16.8796758,False,NONE
2019-10-26 10:38:29.480,LG-H970,1572086309489.0,-3.578,11.865,0.484,41.1039623,16.8796758,False,NONE
2019-10-26 10:38:29.500,LG-H970,1572086309510.5,-1.643,11.905,-0.711,41.1039623,16.8796758,False,NONE
2019-10-26 10:38:29.520,LG-H970,1572086309530.5,-1.643,9.186,-1.404,41.1039623,16.8796758,False,NONE
2019-10-26 10:38:29.540,LG-H970,1572086309550.25,-0.686,7.458,-0.784,41.1039623,16.8796758,False,NONE
2019-10-26 10:38:29.560,LG-H970,1572086309570.25,0.6,8.779,-0.17,41.1039623,16.8796758,False,NONE
2019-10-26 10:38:29.580,LG-H970,1572086309589.5,-1.797,11.949,-0.128,41.1039623,16.8796758,False,NONE
2019-10-26 10:38:29.600,LG-H970,1572086309609.75,-2.702,11.931,1.608,41.1039623,16.8796758,False,NONE
2019-10-26 10:38:29.620,LG-H970,1572086309629.75,0.417,10.171,0.415,41.1039623,16.8796758,False,NONE
2019-10-26 10:38:29.640,LG-H970,1572086309649.25,0.44,8.719,0.104,41.1039623,16.8796758,False,NONE
2019-10-26 10:38:29.660,LG-H970,1572086309669.0,-0.217,9.295,-0.939,41.1039623,16.8796758,False,NONE
2019-10-26 10:38:29.680,LG-H970,1572086309689.0,-0.457,10.245,-0.545,41.1039623,16.8796758,False,NONE
2019-10-26 10:38:29.700,LG-H970,1572086309708.5,1.043,10.54,1.918,41.1039623,16.8796758,False,NONE
2019-10-26 10:38:29.720,LG-H970,1572086309728.0,1.969,8.567,1.161,41.1039623,16.8796758,False,NONE
2019-10-26 10:38:29.740,LG-H970,1572086309747.75,2.228,8.71,-1.382,41.1039623,16.8796758,False,NONE
2019-10-26 10:38:29.760,LG-H970,1572086309767.5,0.862,7.493,-2.26,41.1039623,16.8796758,False,NONE
2019-10-26 10:38:29.780,LG-H970,1572086309789.4,0.624,9.078,-0.096,41.1039623,16.8796758,False,NONE
2019-10-26 10:38:29.800,LG-H970,1572086309809.6667,-0.78,8.789,1.461,41.1039623,16.8796758,False,NONE
2019-10-26 10:38:29.820,LG-H970,1572086309829.4,0.285,10.769,0.09,41.1039623,16.8796758,False,NONE
2019-10-26 10:38:29.840,LG-H970,1572086309850.5,0.801,10.145,0.051,41.1039623,16.8796758,False,NONE
2019-10-26 10:38:29.860,LG-H970,1572086309870.75,2.438,8.753,-0.403,41.1039623,16.8796758,False,NONE
2019-10-26 10:38:29.880,LG-H970,1572086309888.6667,2.352,8.852,0.663,41.1039623,16.8796758,False,NONE
2019-10-26 10:38:29.900,LG-H970,1572086309908.25,0.473,11.144,-0.645,41.1039623,16.8796758,False,NONE
2019-10-26 10:38:29.920,LG-H970,1572086309929.25,-0.733,11.992,-0.797,41.1039623,16.8796758,False,NONE
2019-10-26 10:38:29.940,LG-H970,1572086309949.25,1.824,10.474,-0.51,41.1039623,16.8796758,False,NONE
2019-10-26 10:38:29.960,LG-H970,1572086309969.25,2.37,9.087,-1.14,41.1039623,16.8796758,False,NONE
2019-10-26 10:38:29.980,LG-H970,1572086309989.0,0.442,10.514,-1.613,41.1039623,16.8796758,False,NONE
2019-10-26 10:38:30.000,LG-H970,1572086310009.0,-1.423,10.7,-2.841,41.1039623,16.8796758,False,NONE
2019-10-26 10:38:30.020,LG-H970,1572086310028.75,-0.003,10.104,-0.857,41.1039623,16.8796758,False,NONE
2019-10-26 10:38:30.040,LG-H970,1572086310048.5,1.129,8.172,-0.93,41.1039623,16.8796758,False,NONE
2019-10-26 10:38:30.060,LG-H970,1572086310068.0,0.991,9.482,-0.018,41.1039623,16.8796758,False,NONE
2019-10-26 10:38:30.080,LG-H970,1572086310088.25,0.207,10.404,-2.003,41.1039623,16.8796758,False,NONE
2019-10-26 10:38:30.100,LG-H970,1572086310107.75,-0.813,9.876,-0.73,41.1039623,16.8796758,False,NONE
2019-10-26 10:38:30.120,LG-H970,1572086310129.4,0.976,9.63,-1.559,41.1039623,16.8796758,False,NONE
2019-10-26 10:38:30.140,LG-H970,1572086310151.5,0.964,9.547,0.139,41.1039623,16.8796758,False,NONE
2019-10-26 10:38:30.160,LG-H970,1572086310171.5,0.065,10.465,-0.853,41.1039623,16.8796758,False,NONE
2019-10-26 10:38:30.180,LG-H970,1572086310191.5,-0.701,11.24,-0.55,41.1039623,16.8796758,False,NONE
2019-10-26 10:38:30.200,LG-H970,1572086310210.75,-1.11,10.051,-0.742,41.1039623,16.8796758,False,NONE
2019-10-26 10:38:30.220,LG-H970,1572086310230.75,0.253,10.127,-1.95,41.1039623,16.8796758,False,NONE
2019-10-26 10:38:30.240,LG-H970,1572086310250.25,0.445,8.747,-2.106,41.1039623,16.8796758,False,NONE
2019-10-26 10:38:30.260,LG-H970,1572086310270.0,0.766,6.525,-2.428,41.1039623,16.8796758,False,NONE
2019-10-26 10:38:30.280,LG-H970,1572086310289.75,3.311,6.505,-1.233,41.1039623,16.8796758,False,NONE
2019-10-26 10:38:30.300,LG-H970,1572086310309.5,1.283,6.462,-1.375,41.1039623,16.8796758,False,NONE
2019-10-26 10:38:30.320,LG-H970,1572086310329.5,-2.282,11.073,-1.723,41.1039623,16.8796758,False,NONE
2019-10-26 10:38:30.340,LG-H970,1572086310349.25,-2.866,11.948,-0.941,41.1039623,16.8796758,False,NONE
2019-10-26 10:38:30.360,LG-H970,1572086310369.0,-0.43,7.233,0.976,41.1039623,16.8796758,False,NONE
2019-10-26 10:38:30.380,LG-H970,1572086310388.5,-0.142,9.35,0.477,41.1039623,16.8796758,False,NONE
2019-10-26 10:38:30.400,LG-H970,1572086310408.75,-3.803,10.955,-1.833,41.1039623,16.8796758,False,NONE
2019-10-26 10:38:30.420,LG-H970,1572086310427.5,-4.526,12.317,-0.873,41.1039623,16.8796758,False,NONE
2019-10-26 10:38:30.440,LG-H970,1572086310447.5,-4.042,11.895,-0.806,41.1039623,16.8796758,False,NONE
2019-10-26 10:38:30.460,LG-H970,1572086310467.5,1.691,12.497,6.248,41.1039623,16.8796758,False,NONE
2019-10-26 10:38:30.480,LG-H970,1572086310489.4,-5.164,12.411,1.748,41.1039623,16.8796758,False,NONE
2019-10-26 10:38:30.500,LG-H970,1572086310509.0,-10.756,13.63,-5.151,41.1039623,16.8796758,False,NONE
2019-10-26 10:38:30.520,LG-H970,1572086310529.0,-0.339,12.248,-3.47,41.1039623,16.8796758,False,NONE
2019-10-26 10:38:30.540,LG-H970,1572086310550.75,5.144,5.876,5.248,41.1039623,16.8796758,False,NONE
2019-10-26 10:38:30.560,LG-H970,1572086310571.0,-0.002,12.546,-0.544,41.1039623,16.8796758,False,NONE
2019-10-26 10:38:30.580,LG-H970,1572086310590.75,-6.536,14.815,-4.192,41.1039623,16.8796758,False,NONE
2019-10-26 10:38:30.600,LG-H970,1572086310610.25,-1.268,10.377,-4.494,41.1039623,16.8796758,False,NONE
2019-10-26 10:38:30.620,LG-H970,1572086310629.75,4.855,5.294,3.395,41.1039623,16.8796758,False,NONE
2019-10-26 10:38:30.640,LG-H970,1572086310649.5,3.585,8.234,1.33,41.1039623,16.8796758,False,NONE
2019-10-26 10:38:30.660,LG-H970,1572086310669.25,-1.549,11.883,-6.082,41.1039623,16.8796758,False,NONE
2019-10-26 10:38:30.680,LG-H970,1572086310689.25,-1.673,11.585,-4.181,41.1039623,16.8796758,False,NONE
2019-10-26 10:38:30.700,LG-H970,1572086310710.25,2.566,8.027,1.601,41.1039623,16.8796758,False,NONE
2019-10-26 10:38:30.720,LG-H970,1572086310730.2,5.049,6.803,1.694,41.1039623,16.8796758,False,NONE
2019-10-26 10:38:30.740,LG-H970,1572086310750.0,1.337,9.259,-2.921,41.1039623,16.8796758,False,NONE
2019-10-26 10:38:30.760,LG-H970,1572086310767.75,-2.169,10.711,-3.637,41.1039623,16.8796758,False,NONE
2019-10-26 10:38:30.780,LG-H970,1572086310787.75,-0.406,9.357,-1.262,41.1039623,16.8796758,False,NONE
2019-10-26 10:38:30.800,LG-H970,1572086310807.0,4.201,7.935,2.738,41.1039623,16.8796758,False,NONE
2019-10-26 10:38:30.820,LG-H970,1572086310829.6,2.498,9.041,0.717,41.1039623,16.8796758,False,NONE
2019-10-26 10:38:30.840,LG-H970,1572086310851.5,-2.451,11.772,-1.864,41.1039623,16.8796758,False,NONE
2019-10-26 10:38:30.860,LG-H970,1572086310871.75,-1.362,9.954,-1.421,41.1039623,16.8796758,True,NONE
2019-10-26 10:38:30.880,LG-H970,1572086310890.0,3.329,7.417,1.126,41.1039623,16.8796758,True,NONE
2019-10-26 10:38:30.900,LG-H970,1572086310909.5,2.411,8.063,0.565,41.1039623,16.8796758,False,NONE
2019-10-26 10:38:30.920,LG-H970,1572086310929.5,-1.972,11.172,-1.868,41.1039623,16.8796758,False,NONE
2019-10-26 10:38:30.940,LG-H970,1572086310949.5,-1.619,10.624,0.55,41.1039623,16.8796758,False,NONE
2019-10-26 10:38:30.960,LG-H970,1572086310970.25,4.134,8.084,2.786,41.1039623,16.8796758,False,NONE
2019-10-26 10:38:30.980,LG-H970,1572086310989.75,4.353,7.792,2.637,41.1039623,16.8796758,False,NONE
2019-10-26 10:38:31.000,LG-H970,1572086311009.5,-1.0,9.846,-3.079,41.1039623,16.8796758,False,NONE
2019-10-26 10:38:31.020,LG-H970,1572086311029.5,-4.392,9.948,-5.481,41.1039623,16.8796758,False,NONE
2019-10-26 10:38:31.040,LG-H970,1572086311049.5,-1.346,8.533,1.122,41.1039623,16.8796758,False,NONE
2019-10-26 10:38:31.060,LG-H970,1572086311068.75,3.139,6.934,1.98,41.1039623,16.8796758,False,NONE
2019-10-26 10:38:31.080,LG-H970,1572086311088.75,-1.671,11.297,1.02,41.1039623,16.8796758,False,NONE
2019-10-26 10:38:31.100,LG-H970,1572086311107.5,-9.421,11.084,-1.534,41.1039623,16.8796758,False,NONE
2019-10-26 10:38:31.120,LG-H970,1572086311128.25,-4.635,11.188,-3.642,41.1039623,16.8796758,False,NONE
2019-10-26 10:38:31.140,LG-H970,1572086311147.75,-4.905,8.213,-2.372,41.1039623,16.8796758,False,NONE
2019-10-26 10:38:31.160,LG-H970,1572086311167.25,-7.069,8.969,-3.214,41.1039623,16.8796758,False,NONE
2019-10-26 10:38:31.180,LG-H970,1572086311189.4,-3.744,9.34,-0.383,41.1039623,16.8796758,False,NONE
2019-10-26 10:38:31.200,LG-H970,1572086311211.5,-2.595,10.975,1.466,41.1039623,16.8796758,False,NONE
2019-10-26 10:38:31.220,LG-H970,1572086311231.0,-5.626,13.034,0.525,41.1039623,16.8796758,False,NONE
2019-10-26 10:38:31.240,LG-H970,1572086311251.0,-4.239,12.313,-0.201,41.1039623,16.8796758,False,NONE
2019-10-26 10:38:31.260,LG-H970,1572086311271.0,-0.133,10.116,1.03,41.1039623,16.8796758,False,NONE
2019-10-26 10:38:31.280,LG-H970,1572086311290.5,1.033,10.323,1.273,41.1039623,16.8796758,False,NONE
2019-10-26 10:38:31.300,LG-H970,1572086311310.25,-1.262,11.741,0.166,41.1039623,16.8796758,False,NONE
2019-10-26 10:38:31.320,LG-H970,1572086311330.0,-1.622,12.208,0.544,41.1039623,16.8796758,False,NONE
2019-10-26 10:38:31.340,LG-H970,1572086311349.5,0.968,10.695,1.445,41.1039623,16.8796758,False,NONE
2019-10-26 10:38:31.360,LG-H970,1572086311369.75,2.468,9.564,2.05,41.1039623,16.8796758,False,NONE
2019-10-26 10:38:31.380,LG-H970,1572086311389.25,1.457,9.984,-0.669,41.1039623,16.8796758,False,NONE
2019-10-26 10:38:31.400,LG-H970,1572086311409.75,0.066,10.466,0.52,41.1039623,16.8796758,False,NONE
2019-10-26 10:38:31.420,LG-H970,1572086311428.0,1.388,10.487,0.67,41.1039623,16.8796758,False,NONE
2019-10-26 10:38:31.440,LG-H970,1572086311447.5,2.318,9.299,1.914,41.1039623,16.8796758,False,NONE
2019-10-26 10:38:31.460,LG-H970,1572086311467.5,1.993,8.059,0.487,41.1039623,16.8796758,False,NONE
2019-10-26 10:38:31.480,LG-H970,1572086311487.5,1.057,9.523,-1.637,41.1039623,16.8796758,False,NONE
2019-10-26 10:38:31.500,LG-H970,1572086311508.0,0.487,9.474,-0.827,41.1039623,16.8796758,False,NONE
2019-10-26 10:38:31.520,LG-H970,1572086311531.5,2.465,9.351,0.577,41.1039623,16.8796758,False,NONE
2019-10-26 10:38:31.540,LG-H970,1572086311551.0,1.916,9.28,1.134,41.1039623,16.8796758,False,NONE
2019-10-26 10:38:31.560,LG-H970,1572086311571.25,0.198,10.468,-1.451,41.1039623,16.8796758,False,NONE
2019-10-26 10:38:31.580,LG-H970,1572086311590.75,-0.816,9.388,-1.561,41.1039623,16.8796758,False,NONE
2019-10-26 10:38:31.600,LG-H970,1572086311611.5,1.583,8.968,-0.085,41.1039623,16.8796758,False,NONE
2019-10-26 10:38:31.620,LG-H970,1572086311631.0,1.072,8.904,0.203,41.1039623,16.8796758,False,NONE
2019-10-26 10:38:31.640,LG-H970,1572086311650.25,-1.035,11.012,0.102,41.1039623,16.8796758,False,NONE
2019-10-26 10:38:31.660,LG-H970,1572086311670.0,-1.125,10.97,-0.83,41.1039623,16.8796758,False,NONE
2019-10-26 10:38:31.680,LG-H970,1572086311689.75,0.776,9.089,1.08,41.1039623,16.8796758,False,NONE
2019-10-26 10:38:31.700,LG-H970,1572086311709.75,1.336,7.285,0.625,41.1039623,16.8796758,False,NONE
2019-10-26 10:38:31.720,LG-H970,1572086311729.75,-0.843,9.524,-1.346,41.1039623,16.8796758,False,NONE
2019-10-26 10:38:31.740,LG-H970,1572086311749.5,-2.385,11.334,-1.112,41.1039623,16.8796758,False,NONE
2019-10-26 10:38:31.760,LG-H970,1572086311768.75,-1.717,9.813,-0.553,41.1039623,16.8796758,False,NONE
2019-10-26 10:38:31.780,LG-H970,1572086311788.25,0.213,9.165,0.912,41.1039623,16.8796758,False,NONE
2019-10-26 10:38:31.800,LG-H970,1572086311807.75,-1.866,8.527,-0.234,41.1039623,16.8796758,False,NONE
2019-10-26 10:38:31.820,LG-H970,1572086311830.0,-2.56,10.751,-0.98,41.1039623,16.8796758,False,NONE
2019-10-26 10:38:31.840,LG-H970,1572086311853.0,-2.646,9.855,0.699,41.1039623,16.8796758,False,NONE
2019-10-26 10:38:31.860,LG-H970,1572086311872.0,-1.521,10.109,0.817,41.1039623,16.8796758,False,NONE
2019-10-26 10:38:31.880,LG-H970,1572086311889.6667,-2.485,9.445,0.273,41.1039623,16.8796758,False,NONE
2019-10-26 10:38:31.900,LG-H970,1572086311908.8,-2.129,11.233,-0.164,41.1039623,16.8796758,False,NONE
2019-10-26 10:38:31.920,LG-H970,1572086311931.0,-1.036,10.292,-1.387,41.1039623,16.8796758,False,NONE
2019-10-26 10:38:31.940,LG-H970,1572086311950.5,0.233,9.801,0.303,41.1039623,16.8796758,False,NONE
2019-10-26 10:38:31.960,LG-H970,1572086311971.0,-0.135,9.048,-0.991,41.1039623,16.8796758,False,NONE
2019-10-26 10:38:31.980,LG-H970,1572086311990.0,-0.753,10.608,0.275,41.1039623,16.8796758,False,NONE
2019-10-26 10:38:32.000,LG-H970,1572086312010.25,-0.071,10.596,-1.114,41.1039623,16.8796758,False,NONE
2019-10-26 10:38:32.020,LG-H970,1572086312029.75,1.592,9.584,0.314,41.1039623,16.8796758,False,NONE
2019-10-26 10:38:32.040,LG-H970,1572086312049.25,1.789,8.843,0.009,41.1039623,16.8796758,False,NONE
2019-10-26 10:38:32.060,LG-H970,1572086312069.25,1.167,10.687,-0.437,41.1039623,16.8796758,False,NONE
2019-10-26 10:38:32.080,LG-H970,1572086312089.25,0.377,10.757,-0.523,41.1039623,16.8796758,False,NONE
2019-10-26 10:38:32.100,LG-H970,1572086312108.75,1.142,9.774,-0.153,41.1039623,16.8796758,False,NONE
2019-10-26 10:38:32.120,LG-H970,1572086312128.5,1.93,8.639,-0.335,41.1039623,16.8796758,False,NONE
2019-10-26 10:38:32.140,LG-H970,1572086312148.75,1.567,8.825,0.124,41.1039623,16.8796758,False,NONE
2019-10-26 10:38:32.160,LG-H970,1572086312168.0,-0.862,9.362,-0.836,41.1039623,16.8796758,False,NONE
2019-10-26 10:38:32.180,LG-H970,1572086312189.8,-1.503,11.084,0.068,41.1039623,16.8796758,False,NONE
2019-10-26 10:38:32.200,LG-H970,1572086312211.75,-0.569,10.483,0.839,41.1039623,16.8796758,False,NONE
2019-10-26 10:38:32.220,LG-H970,1572086312231.75,-1.282,9.582,0.602,41.1039623,16.8796758,False,NONE
2019-10-26 10:38:32.240,LG-H970,1572086312251.5,-1.757,10.28,-0.847,41.1039623,16.8796758,False,NONE
2019-10-26 10:38:32.260,LG-H970,1572086312271.5,-1.313,9.925,-0.718,41.1039623,16.8796758,False,NONE
2019-10-26 10:38:32.280,LG-H970,1572086312291.25,-0.856,9.487,0.355,41.1039623,16.8796758,False,NONE
2019-10-26 10:38:32.300,LG-H970,1572086312310.75,-1.168,9.991,-0.137,41.1039623,16.8796758,False,NONE
2019-10-26 10:38:32.320,LG-H970,1572086312331.0,-0.432,8.24,-1.328,41.1039623,16.8796758,False,NONE
2019-10-26 10:38:32.340,LG-H970,1572086312350.25,1.805,6.62,-1.93,41.1039623,16.8796758,False,NONE
