UTC_timestamp,device_name,timestamp,x,y,z,lat,long,event,speed
2019-10-26 10:38:13.680,LG-H970,1572086293687.25,-0.594,9.048,-2.758,41.1039846,16.8792228,False,NONE
2019-10-26 10:38:13.700,LG-H970,1572086293709.8,-1.046,12.205,-1.042,41.1039846,16.8792228,False,NONE
2019-10-26 10:38:13.720,LG-H970,1572086293731.75,-3.184,10.577,-0.597,41.1039846,16.8792228,False,NONE
2019-10-26 10:38:13.740,LG-H970,1572086293752.0,0.508,12.297,0.348,41.1039846,16.8792228,False,NONE
2019-10-26 10:38:13.760,LG-H970,1572086293771.5,2.009,9.919,0.741,41.1039846,16.8792228,False,NONE
2019-10-26 10:38:13.780,LG-H970,1572086293791.25,-0.532,9.371,-0.786,41.1039846,16.8792228,False,NONE
2019-10-26 10:38:13.800,LG-H970,1572086293810.5,-2.583,10.119,-2.215,41.1039846,16.8792228,False,NONE
2019-10-26 10:38:13.820,LG-H970,1572086293831.0,-1.247,8.913,-3.343,41.1039846,16.8792228,False,NONE
2019-10-26 10:38:13.840,LG-H970,1572086293849.75,0.209,9.568,-0.644,41.1039846,16.8792228,False,NONE
2019-10-26 10:38:13.860,LG-H970,1572086293870.0,-0.018,10.245,-0.021,41.1039846,16.8792228,False,NONE
2019-10-26 10:38:13.880,LG-H970,1572086293889.25,-0.943,9.554,0.525,41.1039846,16.8792228,False,NONE
2019-10-26 10:38:13.900,LG-H970,1572086293909.5,0.23,9.538,-2.7,41.1039846,16.8792228,False,NONE
2019-10-26 10:38:13.920,LG-H970,1572086293928.25,1.232,9.587,-0.683,41.1039846,16.8792228,False,NONE
2019-10-26 10:38:13.940,LG-H970,1572086293950.0,-0.142,6.909,2.027,41.1039846,16.8792228,False,NONE
2019-10-26 10:38:13.960,LG-H970,1572086293967.5,-0.599,6.517,2.915,41.1039846,16.8792228,False,NONE
2019-10-26 10:38:13.980,LG-H970,1572086293987.5,0.345,11.352,-3.545,41.1039846,16.8792228,False,NONE
2019-10-26 10:38:14.000,LG-H970,1572086294007.5,-1.404,12.414,-1.321,41.1039846,16.8792228,False,NONE
2019-10-26 10:38:14.020,LG-H970,1572086294027.75,-1.702,8.169,-0.001,41.1039846,16.8792228,False,NONE
2019-10-26 10:38:14.040,LG-H970,1572086294047.75,2.086,7.278,2.133,41.1039846,16.8792228,False,NONE
2019-10-26 10:38:14.060,LG-H970,1572086294069.2,-0.893,11.041,-2.235,41.1039846,16.8792228,False,NONE
2019-10-26 10:38:14.080,LG-H970,1572086294091.5,-5.25,13.088,-2.776,41.1039846,16.8792228,False,NONE
2019-10-26 10:38:14.100,LG-H970,1572086294111.5,-2.297,8.231,-0.704,41.1039846,16.8792228,False,NONE
2019-10-26 10:38:14.120,LG-H970,1572086294131.0,0.441,6.596,-2.056,41.1039846,16.8792228,False,NONE
2019-10-26 10:38:14.140,LG-H970,1572086294150.75,-0.718,9.093,-1.673,41.1039846,16.8792228,False,NONE
2019-10-26 10:38:14.160,LG-H970,1572086294170.5,0.884,10.611,-0.684,41.1039846,16.8792228,False,NONE
2019-10-26 10:38:14.180,LG-H970,1572086294190.5,-0.967,10.173,-1.87,41.1039846,16.8792228,False,NONE
2019-10-26 10:38:14.200,LG-H970,1572086294209.5,-3.413,10.635,0.076,41.1039846,16.8792228,False,NONE
2019-10-26 10:38:14.220,LG-H970,1572086294229.5,-0.906,9.584,-1.353,41.1039846,16.8792228,False,NONE
2019-10-26 10:38:14.240,LG-H970,1572086294249.25,0.245,11.855,1.32,41.1039846,16.8792228,False,NONE
2019-10-26 10:38:14.260,LG-H970,1572086294269.75,-1.43,10.657,-0.96,41.1039846,16.8792228,False,NONE
2019-10-26 10:38:14.280,LG-H970,1572086294288.75,-0.68,10.074,-0.55,41.1039846,16.8792228,False,NONE
2019-10-26 10:38:14.300,LG-H970,1572086294309.0,-0.335,9.502,1.378,41.1039846,16.8792228,False,NONE
2019-10-26 10:38:14.320,LG-H970,1572086294328.25,-1.732,10.905,0.755,41.1039846,16.8792228,False,NONE
2019-10-26 10:38:14.340,LG-H970,1572086294348.25,-2.088,11.833,-0.059,41.1039846,16.8792228,False,NONE
2019-10-26 10:38:14.360,LG-H970,1572086294368.3333,-1.274,10.879,-1.147,41.1039846,16.8792228,False,NONE
2019-10-26 10:38:14.380,LG-H970,1572086294389.8,-0.548,9.775,1.14,41.1039846,16.8792228,False,NONE
2019-10-26 10:38:14.400,LG-H970,1572086294411.25,-1.821,9.004,-0.846,41.1039846,16.8792228,False,NONE
2019-10-26 10:38:14.420,LG-H970,1572086294431.5,-3.321,10.653,-1.617,41.1039846,16.8792228,False,NONE
2019-10-26 10:38:14.440,LG-H970,1572086294452.0,-1.316,11.17,-1.029,41.1039846,16.8792228,False,NONE
2019-10-26 10:38:14.460,LG-H970,1572086294471.25,2.051,9.975,3.441,41.1039846,16.8792228,False,NONE
2019-10-26 10:38:14.480,LG-H970,1572086294491.0,-0.654,9.286,-0.31,41.1039846,16.8792228,False,NONE
2019-10-26 10:38:14.500,LG-H970,1572086294510.5,-3.992,9.804,-3.428,41.1039846,16.8792228,False,NONE
2019-10-26 10:38:14.520,LG-H970,1572086294530.5,-1.612,8.87,-3.153,41.1039846,16.8792228,False,NONE
2019-10-26 10:38:14.540,LG-H970,1572086294550.5,1.861,8.185,-0.537,41.1039846,16.8792228,False,NONE
2019-10-26 10:38:14.560,LG-H970,1572086294570.25,0.905,9.934,1.578,41.1039846,16.8792228,False,NONE
2019-10-26 10:38:14.580,LG-H970,1572086294588.75,-1.895,11.638,0.406,41.1039846,16.8792228,False,NONE
2019-10-26 10:38:14.600,LG-H970,1572086294609.75,-1.514,10.027,-1.243,41.1039846,16.8792228,False,NONE
2019-10-26 10:38:14.620,LG-H970,1572086294628.25,0.379,6.811,-0.997,41.1039846,16.8792228,False,NONE
2019-10-26 10:38:14.640,LG-H970,1572086294647.5,1.514,7.25,-2.138,41.1039846,16.8792228,False,NONE
2019-10-26 10:38:14.660,LG-H970,1572086294668.25,-2.132,9.64,-1.62,41.1039846,16.8792228,False,NONE
2019-10-26 10:38:14.680,LG-H970,1572086294687.75,-2.222,10.853,-1.755,41.1039846,16.8792228,False,NONE
2019-10-26 10:38:14.700,LG-H970,1572086294710.25,0.507,10.68,0.017,41.1039846,16.8792228,False,NONE
2019-10-26 10:38:14.720,LG-H970,1572086294727.5,0.065,7.802,-0.961,41.1039846,16.8792228,False,NONE
2019-10-26 10:38:14.740,LG-H970,1572086294746.75,1.204,9.195,-1.832,41.1039846,16.8792228,False,NONE
2019-10-26 10:38:14.760,LG-H970,1572086294769.2,-1.451,10.275,-0.742,41.1039846,16.8792228,False,NONE
2019-10-26 10:38:14.780,LG-H970,1572086294791.5,-3.436,11.83,-0.113,41.1039846,16.8792228,False,NONE
2019-10-26 10:38:14.800,LG-H970,1572086294811.5,-1.318,11.073,0.661,41.1039846,16.8792228,False,NONE
2019-10-26 10:38:14.820,LG-H970,1572086294831.5,1.553,10.184,0.81,41.1039846,16.8792228,False,NONE
2019-10-26 10:38:14.840,LG-H970,1572086294850.75,-0.453,9.312,-0.862,41.1039846,16.8792228,False,NONE
2019-10-26 10:38:14.860,LG-H970,1572086294871.5,-3.8,10.119,-1.311,41.1039846,16.8792228,False,NONE
2019-10-26 10:38:14.880,LG-H970,1572086294889.75,-2.868,10.709,-0.461,41.1039846,16.8792228,False,NONE
2019-10-26 10:38:14.900,LG-H970,1572086294909.25,-0.743,10.01,1.326,41.1039846,16.8792228,False,NONE
2019-10-26 10:38:14.920,LG-H970,1572086294929.25,-0.226,8.8,-0.485,41.1039846,16.8792228,False,NONE
2019-10-26 10:38:14.940,LG-H970,1572086294948.5,-0.859,8.253,-3.103,41.1039846,16.8792228,True,NONE
2019-10-26 10:38:14.960,LG-H970,1572086294967.5,-2.407,8.229,-1.263,41.1039846,16.8792228,True,NONE
2019-10-26 10:38:14.980,LG-H970,1572086294988.0,-1.025,10.658,0.271,41.1039846,16.8792228,False,NONE
2019-10-26 10:38:15.000,LG-H970,1572086295007.5,-1.903,11.143,1.71,41.1039846,16.8792228,False,NONE
2019-10-26 10:38:15.020,LG-H970,1572086295026.75,-2.851,12.806,0.093,41.1039846,16.8792228,False,NONE
2019-10-26 10:38:15.040,LG-H970,1572086295047.5,-1.86,10.726,-2.508,41.1039846,16.8792228,False,NONE
2019-10-26 10:38:15.060,LG-H970,1572086295069.8,1.493,7.801,-0.809,41.1039846,16.8792228,False,NONE
2019-10-26 10:38:15.080,LG-H970,1572086295091.75,-0.919,7.391,0.589,41.1039846,16.8792228,False,NONE
2019-10-26 10:38:15.100,LG-H970,1572086295111.5,-3.738,12.141,-0.089,41.1039846,16.8792228,False,NONE
2019-10-26 10:38:15.120,LG-H970,1572086295131.5,-4.215,13.261,-1.082,41.1039846,16.8792228,False,NONE
2019-10-26 10:38:15.140,LG-H970,1572086295151.0,-0.208,9.701,1.621,41.1039846,16.8792228,False,NONE
2019-10-26 10:38:15.160,LG-H970,1572086295170.75,2.101,5.494,0.301,41.1039846,16.8792228,False,NONE
2019-10-26 10:38:15.180,LG-H970,1572086295191.0,0.012,10.127,-0.505,41.1039846,16.8792228,True,NONE
2019-10-26 10:38:15.200,LG-H970,1572086295209.5,-3.823,12.321,-2.77,41.1039846,16.8792228,True,NONE
2019-10-26 10:38:15.220,LG-H970,1572086295229.5,-2.291,12.02,-0.154,41.1039846,16.8792228,False,NONE
2019-10-26 10:38:15.240,LG-H970,1572086295248.75,1.182,8.944,1.16,41.1039846,16.8792228,False,NONE
2019-10-26 10:38:15.260,LG-H970,1572086295268.75,1.916,8.255,0.107,41.1039846,16.8792228,False,NONE
2019-10-26 10:38:15.280,LG-H970,1572086295289.5,0.25,10.083,-2.086,41.1039846,16.8792228,False,NONE
2019-10-26 10:38:15.300,LG-H970,1572086295309.25,-1.38,10.961,-3.809,41.1039846,16.8792228,False,NONE
2019-10-26 10:38:15.320,LG-H970,1572086295328.75,-1.504,9.301,-0.382,41.1039846,16.8792228,False,NONE
2019-10-26 10:38:15.340,LG-H970,1572086295348.5,0.587,9.274,0.775,41.1039846,16.8792228,False,NONE
2019-10-26 10:38:15.360,LG-H970,1572086295369.0,1.62,11.145,1.089,41.1039846,16.8792228,False,NONE
2019-10-26 10:38:15.380,LG-H970,1572086295388.0,-0.579,9.454,-0.063,41.1039846,16.8792228,False,NONE
2019-10-26 10:38:15.400,LG-H970,1572086295405.3333,-1.856,8.35,-2.311,41.1039846,16.8792228,False,NONE
2019-10-26 10:38:15.420,LG-H970,1572086295428.5,-0.365,8.287,0.591,41.1039846,16.8792228,False,NONE
2019-10-26 10:38:15.440,LG-H970,1572086295451.5,0.931,10.886,1.414,41.1039846,16.8792228,False,NONE
2019-10-26 10:38:15.460,LG-H970,1572086295471.5,-6.146,11.84,-3.059,41.1039846,16.8792228,False,NONE
2019-10-26 10:38:15.480,LG-H970,1572086295491.5,-4.556,9.603,-0.787,41.1039846,16.8792228,False,NONE
2019-10-26 10:38:15.500,LG-H970,1572086295511.5,4.414,5.858,0.64,41.1039846,16.8792228,False,NONE
2019-10-26 10:38:15.520,LG-H970,1572086295531.0,1.189,6.516,-0.749,41.1039846,16.8792228,False,NONE
2019-10-26 10:38:15.540,LG-H970,1572086295551.25,-6.252,12.29,-0.731,41.1039846,16.8792228,False,NONE
2019-10-26 10:38:15.560,LG-H970,1572086295571.0,-3.873,14.069,-0.894,41.1039846,16.8792228,False,NONE
2019-10-26 10:38:15.580,LG-H970,1572086295590.25,1.518,9.242,1.983,41.1039846,16.8792228,False,NONE
2019-10-26 10:38:15.600,LG-H970,1572086295609.75,2.155,6.336,2.326,41.1039846,16.8792228,False,NONE
2019-10-26 10:38:15.620,LG-H970,1572086295630.0,-1.303,9.92,-4.014,41.1039846,16.8792228,False,NONE
2019-10-26 10:38:15.640,LG-H970,1572086295649.0,-5.036,12.482,-5.223,41.1039846,16.8792228,False,NONE
2019-10-26 10:38:15.660,LG-H970,1572086295669.5,-1.005,11.057,2.201,41.1039846,16.8792228,False,NONE
2019-10-26 10:38:15.680,LG-H970,1572086295688.5,4.608,8.704,3.659,41.1039846,16.8792228,False,NONE
2019-10-26 10:38:15.700,LG-H970,1572086295708.5,1.043,11.817,1.661,41.1039846,16.8792228,False,NONE
2019-10-26 10:38:15.720,LG-H970,1572086295729.25,-3.508,13.669,-3.982,41.1039846,16.8792228,False,NONE
2019-10-26 10:38:15.740,LG-H970,1572086295747.0,-1.66,10.545,-0.975,41.1039846,16.8792228,False,NONE
2019-10-26 10:38:15.760,LG-H970,1572086295766.75,4.521,7.71,2.484,41.1039846,16.8792228,False,NONE
2019-10-26 10:38:15.780,LG-H970,1572086295789.4,0.761,10.875,2.172,41.1039846,16.8792228,False,NONE
2019-10-26 10:38:15.800,LG-H970,1572086295811.5,-4.46,13.598,-3.259,41.1039846,16.8792228,False,NONE
2019-10-26 10:38:15.820,LG-H970,1572086295831.5,-0.717,9.976,-2.421,41.1039846,16.8792228,False,NONE
2019-10-26 10:38:15.840,LG-H970,1572086295850.0,3.932,5.244,2.096,41.1039846,16.8792228,False,NONE
2019-10-26 10:38:15.860,LG-H970,1572086295869.6,2.832,8.422,2.27,41.1039846,16.8792228,False,NONE
2019-10-26 10:38:15.880,LG-H970,1572086295889.75,-3.684,13.013,-0.533,41.1039846,16.8792228,False,NONE
2019-10-26 10:38:15.900,LG-H970,1572086295910.5,-1.7,13.199,-2.057,41.1039846,16.8792228,False,NONE
2019-10-26 10:38:15.920,LG-H970,1572086295930.5,-1.175,6.701,0.149,41.1039846,16.8792228,False,NONE
2019-10-26 10:38:15.940,LG-H970,1572086295949.75,2.493,8.226,2.937,41.1039846,16.8792228,False,NONE
2019-10-26 10:38:15.960,LG-H970,1572086295970.25,0.693,5.573,-2.942,41.1039846,16.8792228,False,NONE
2019-10-26 10:38:15.980,LG-H970,1572086295989.5,-2.04,13.279,-0.452,41.1039846,16.8792228,False,NONE
2019-10-26 10:38:16.000,LG-H970,1572086296009.75,-2.822,13.405,-2.27,41.1039846,16.8792228,False,NONE
2019-10-26 10:38:16.020,LG-H970,1572086296029.0,1.04,10.173,4.377,41.1039846,16.8792228,False,NONE
2019-10-26 10:38:16.040,LG-H970,1572086296048.75,2.951,7.707,0.744,41.1039846,16.8792228,False,NONE
2019-10-26 10:38:16.060,LG-H970,1572086296068.5,-2.194,10.113,-3.268,41.1039846,16.8792228,False,NONE
2019-10-26 10:38:16.080,LG-H970,1572086296088.25,-3.662,11.026,-3.234,41.1039846,16.8792228,False,NONE
2019-10-26 10:38:16.100,LG-H970,1572086296106.75,0.961,8.397,-0.975,41.1039846,16.8792228,False,NONE
2019-10-26 10:38:16.120,LG-H970,1572086296129.6,3.375,6.956,2.752,41.1039846,16.8792228,False,NONE
2019-10-26 10:38:16.140,LG-H970,1572086296149.3333,0.666,9.015,-1.079,41.1039846,16.8792228,False,NONE
2019-10-26 10:38:16.160,LG-H970,1572086296169.6,-3.888,11.83,-2.775,41.1039846,16.8792228,False,NONE
2019-10-26 10:38:16.180,LG-H970,1572086296192.0,-3.689,9.996,-3.147,41.1039846,16.8792228,False,NONE
2019-10-26 10:38:16.200,LG-H970,1572086296211.25,1.098,7.103,2.612,41.1039846,16.8792228,False,NONE
2019-10-26 10:38:16.220,LG-H970,1572086296230.75,2.269,9.471,0.858,41.1039846,16.8792228,False,NONE
2019-10-26 10:38:16.240,LG-H970,1572086296251.75,-2.914,12.311,1.035,41.1039846,16.8792228,False,NONE
2019-10-26 10:38:16.260,LG-H970,1572086296269.3333,-3.654,12.499,-1.69,41.1039846,16.8792228,False,NONE
2019-10-26 10:38:16.280,LG-H970,1572086296269.3333,-3.654,12.499,-1.69,41.1039846,16.8792228,False,NONE
2019-10-26 10:38:16.300,LG-H970,1572086296309.5,0.655,8.665,-0.352,41.1039846,16.8792228,False,NONE
2019-10-26 10:38:16.320,LG-H970,1572086296329.75,-1.301,10.325,-0.124,41.1039846,16.8792228,False,NONE
2019-10-26 10:38:16.340,LG-H970,1572086296349.25,-2.614,11.992,1.13,41.1039846,16.8792228,False,NONE
2019-10-26 10:38:16.360,LG-H970,1572086296370.5,-0.554,10.575,1.571,41.1039846,16.8792228,False,NONE
2019-10-26 10:38:16.380,LG-H970,1572086296390.25,0.393,7.896,2.099,41.1039846,16.8792228,False,NONE
2019-10-26 10:38:16.400,LG-H970,1572086296407.75,-0.439,10.35,-1.966,41.1039846,16.8792228,False,NONE
2019-10-26 10:38:16.420,LG-H970,1572086296428.25,-3.793,10.37,0.011,41.1039846,16.8792228,False,NONE
2019-10-26 10:38:16.440,LG-H970,1572086296447.5,1.104,10.969,2.264,41.1039846,16.8792228,False,NONE
2019-10-26 10:38:16.460,LG-H970,1572086296467.75,0.349,8.521,2.217,41.1039846,16.8792228,False,NONE
2019-10-26 10:38:16.480,LG-H970,1572086296488.75,-2.981,10.464,-1.488,41.103979,16.879336,False,NONE
2019-10-26 10:38:16.500,LG-H970,1572086296509.2,-2.665,9.206,-3.412,41.1039623,16.8796758,False,NONE
2019-10-26 10:38:16.520,LG-H970,1572086296532.0,0.676,8.064,0.068,41.1039623,16.8796758,False,NONE
2019-10-26 10:38:16.540,LG-H970,1572086296550.25,1.342,8.381,1.548,41.1039623,16.8796758,False,NONE
2019-10-26 10:38:16.560,LG-H970,1572086296569.6667,-0.146,11.563,1.538,41.1039623,16.8796758,False,NONE
2019-10-26 10:38:16.580,LG-H970,1572086296589.2,-2.218,11.958,-0.065,41.1039623,16.8796758,False,NONE
2019-10-26 10:38:16.600,LG-H970,1572086296608.6667,-0.162,9.618,-0.522,41.1039623,16.8796758,False,NONE
2019-10-26 10:38:16.620,LG-H970,1572086296627.25,3.045,8.342,0.018,41.1039623,16.8796758,False,NONE
2019-10-26 10:38:16.640,LG-H970,1572086296646.75,-0.117,8.724,0.25,41.1039623,16.8796758,False,NONE
2019-10-26 10:38:16.660,LG-H970,1572086296669.4,-3.038,11.705,-1.776,41.1039623,16.8796758,False,NONE
