UTC_timestamp,device_name,timestamp,x,y,z,lat,long,event,speed
2019-10-27 16:13:04.780,LG-H970,1572192784788.75,0.263,9.26,-0.372,41.1056652,16.881062,False,6.336
2019-10-27 16:13:04.800,LG-H970,1572192784809.5,0.359,9.785,-0.156,41.1056652,16.881062,False,6.336
2019-10-27 16:13:04.820,LG-H970,1572192784828.0,0.376,9.806,-0.069,41.1056652,16.881062,False,6.336
2019-10-27 16:13:04.840,LG-H970,1572192784848.5,0.691,9.833,-0.24,41.1056652,16.881062,False,6.336
2019-10-27 16:13:04.860,LG-H970,1572192784865.6667,0.396,9.665,-0.126,41.1056652,16.881062,False,6.336000000000001
2019-10-27 16:13:04.880,LG-H970,1572192784888.3333,0.506,9.999,-0.395,41.1056652,16.881062,False,6.335999999999999
2019-10-27 16:13:04.900,LG-H970,1572192784911.5,0.624,10.276,-0.039,41.1056652,16.881062,False,6.336
2019-10-27 16:13:04.920,LG-H970,1572192784930.75,0.115,10.114,-0.347,41.1056652,16.881062,False,6.336
2019-10-27 16:13:04.940,LG-H970,1572192784950.75,0.46,9.948,-0.47,41.1056652,16.881062,False,6.336
2019-10-27 16:13:04.960,LG-H970,1572192784971.25,0.689,9.414,-0.304,41.1056652,16.881062,False,6.336
2019-10-27 16:13:04.980,LG-H970,1572192784989.5,0.889,9.752,-0.597,41.1056652,16.881062,False,6.336
2019-10-27 16:13:05.000,LG-H970,1572192785010.0,0.739,9.877,-0.276,41.1056652,16.881062,False,6.336
2019-10-27 16:13:05.020,LG-H970,1572192785029.5,0.654,9.975,-0.626,41.1056652,16.881062,False,6.336
2019-10-27 16:13:05.040,LG-H970,1572192785048.75,0.809,9.908,-0.396,41.1056652,16.881062,False,6.336
2019-10-27 16:13:05.060,LG-H970,1572192785069.5,0.745,9.458,-0.848,41.1056652,16.881062,False,6.336
2019-10-27 16:13:05.080,LG-H970,1572192785089.0,0.508,9.871,-0.517,41.1056652,16.881062,False,6.336
2019-10-27 16:13:05.100,LG-H970,1572192785108.5,0.493,9.788,-0.617,41.1056652,16.881062,False,6.336
2019-10-27 16:13:05.120,LG-H970,1572192785128.25,0.8,10.046,-0.127,41.1056652,16.881062,False,6.336
2019-10-27 16:13:05.140,LG-H970,1572192785148.25,0.472,9.676,-0.628,41.1056652,16.881062,False,6.336
2019-10-27 16:13:05.160,LG-H970,1572192785169.6,0.607,9.62,-0.853,41.1056652,16.881062,False,6.336
2019-10-27 16:13:05.180,LG-H970,1572192785191.75,0.613,9.406,-0.379,41.1056652,16.881062,False,6.336
2019-10-27 16:13:05.200,LG-H970,1572192785211.0,0.527,9.669,-0.883,41.1056652,16.881062,False,6.336
2019-10-27 16:13:05.220,LG-H970,1572192785231.25,0.396,9.809,-0.452,41.1056652,16.881062,False,6.336
2019-10-27 16:13:05.240,LG-H970,1572192785251.5,0.428,9.551,-0.966,41.1056652,16.881062,False,6.336
2019-10-27 16:13:05.260,LG-H970,1572192785270.25,0.619,9.677,-0.441,41.1056652,16.881062,False,6.336
2019-10-27 16:13:05.280,LG-H970,1572192785291.5,0.589,9.532,-0.867,41.1056652,16.881062,False,6.336
2019-10-27 16:13:05.300,LG-H970,1572192785307.0,0.428,10.083,-0.199,41.1056652,16.881062,False,6.336
2019-10-27 16:13:05.320,LG-H970,1572192785328.2,0.697,10.168,-0.692,41.1056652,16.881062,False,6.336
2019-10-27 16:13:05.340,LG-H970,1572192785349.0,0.924,9.879,-0.391,41.1056652,16.881062,False,6.336
2019-10-27 16:13:05.360,LG-H970,1572192785369.75,0.475,9.665,-0.88,41.1056652,16.881062,False,6.336
2019-10-27 16:13:05.380,LG-H970,1572192785391.25,0.551,9.934,-0.687,41.1056954,16.8811585,False,3.375
2019-10-27 16:13:05.400,LG-H970,1572192785409.3333,0.821,9.778,-0.589,41.1056954,16.8811585,False,3.375
2019-10-27 16:13:05.420,LG-H970,1572192785427.75,0.815,9.955,-0.591,41.1056954,16.8811585,False,3.375
2019-10-27 16:13:05.440,LG-H970,1572192785448.8,0.551,9.755,-0.59,41.1056954,16.8811585,False,3.375
2019-10-27 16:13:05.460,LG-H970,1572192785471.25,0.63,9.573,-0.715,41.1056954,16.8811585,False,3.375
2019-10-27 16:13:05.480,LG-H970,1572192785491.25,0.548,9.79,-0.457,41.1056954,16.8811585,False,3.375
2019-10-27 16:13:05.500,LG-H970,1572192785510.75,0.339,9.735,-0.695,41.1056954,16.8811585,False,3.375
2019-10-27 16:13:05.520,LG-H970,1572192785530.75,0.269,9.779,-0.574,41.1056954,16.8811585,False,3.375
2019-10-27 16:13:05.540,LG-H970,1572192785550.75,0.53,9.717,-0.845,41.1056954,16.8811585,False,3.375
2019-10-27 16:13:05.560,LG-H970,1572192785570.0,0.636,9.685,-0.57,41.1056954,16.8811585,False,3.375
2019-10-27 16:13:05.580,LG-H970,1572192785589.25,0.484,9.792,-0.755,41.1056954,16.8811585,False,3.375
2019-10-27 16:13:05.600,LG-H970,1572192785610.5,0.434,10.027,-0.55,41.1056954,16.8811585,False,3.375
2019-10-27 16:13:05.620,LG-H970,1572192785629.75,0.615,9.927,-0.613,41.1056954,16.8811585,False,3.375
2019-10-27 16:13:05.640,LG-H970,1572192785649.0,0.459,9.797,-0.449,41.1056954,16.8811585,False,3.375
2019-10-27 16:13:05.660,LG-H970,1572192785668.75,0.425,9.963,-0.844,41.1056954,16.8811585,False,3.375
2019-10-27 16:13:05.680,LG-H970,1572192785688.0,0.473,9.667,-0.524,41.1056954,16.8811585,False,3.375
2019-10-27 16:13:05.700,LG-H970,1572192785707.75,0.667,9.776,-0.711,41.1056954,16.8811585,False,3.375
2019-10-27 16:13:05.720,LG-H970,1572192785727.5,0.55,9.898,-0.693,41.1056954,16.8811585,False,3.375
2019-10-27 16:13:05.740,LG-H970,1572192785747.5,0.646,9.826,-0.638,41.1056954,16.8811585,False,3.375
2019-10-27 16:13:05.760,LG-H970,1572192785766.75,0.586,9.862,-0.523,41.1056954,16.8811585,False,3.375
2019-10-27 16:13:05.780,LG-H970,1572192785787.0,0.773,10.059,-0.787,41.1056954,16.8811585,False,3.375
2019-10-27 16:13:05.800,LG-H970,1572192785809.6,0.767,9.813,-0.445,41.1056954,16.8811585,False,3.375
2019-10-27 16:13:05.820,LG-H970,1572192785830.75,0.515,9.626,-0.95,41.1056954,16.8811585,False,3.375
2019-10-27 16:13:05.840,LG-H970,1572192785852.25,0.642,9.787,-0.482,41.1056954,16.8811585,False,3.375
2019-10-27 16:13:05.860,LG-H970,1572192785871.25,0.637,9.533,-0.793,41.1056954,16.8811585,False,3.375
2019-10-27 16:13:05.880,LG-H970,1572192785889.75,0.502,9.874,-0.684,41.1056954,16.8811585,False,3.375
2019-10-27 16:13:05.900,LG-H970,1572192785909.5,0.464,9.487,-0.927,41.1056954,16.8811585,False,3.375
2019-10-27 16:13:05.920,LG-H970,1572192785928.5,0.579,9.648,-0.625,41.1056954,16.8811585,False,3.375
2019-10-27 16:13:05.940,LG-H970,1572192785949.5,0.408,9.62,-0.853,41.1056954,16.8811585,False,3.375
2019-10-27 16:13:05.960,LG-H970,1572192785968.75,0.55,9.919,-0.638,41.1056954,16.8811585,False,3.375
2019-10-27 16:13:05.980,LG-H970,1572192785987.75,0.609,9.61,-0.696,41.1056954,16.8811585,False,3.375
2019-10-27 16:13:06.000,LG-H970,1572192786007.5,0.533,9.819,-0.729,41.1056954,16.8811585,False,3.375
2019-10-27 16:13:06.020,LG-H970,1572192786027.5,0.455,9.6,-0.659,41.1056954,16.8811585,False,3.375
2019-10-27 16:13:06.040,LG-H970,1572192786049.6,0.643,9.864,-0.656,41.1056954,16.8811585,False,3.375
2019-10-27 16:13:06.060,LG-H970,1572192786071.5,0.624,9.946,-0.62,41.1056954,16.8811585,False,3.375
2019-10-27 16:13:06.080,LG-H970,1572192786091.5,0.66,9.857,-0.681,41.1056954,16.8811585,False,3.375
2019-10-27 16:13:06.100,LG-H970,1572192786111.25,0.665,9.826,-0.508,41.1056954,16.8811585,False,3.375
2019-10-27 16:13:06.120,LG-H970,1572192786130.75,0.801,9.992,-0.742,41.1056954,16.8811585,False,3.375
2019-10-27 16:13:06.140,LG-H970,1572192786150.25,0.804,9.928,-0.408,41.1056954,16.8811585,False,3.375
2019-10-27 16:13:06.160,LG-H970,1572192786170.0,0.661,9.813,-0.753,41.1056954,16.8811585,False,3.375
2019-10-27 16:13:06.180,LG-H970,1572192786189.5,0.618,9.763,-0.617,41.1056954,16.8811585,False,3.375
2019-10-27 16:13:06.200,LG-H970,1572192786209.25,0.704,9.466,-0.833,41.1056954,16.8811585,False,3.375
2019-10-27 16:13:06.220,LG-H970,1572192786229.0,0.47,9.617,-0.631,41.1056954,16.8811585,False,3.375
2019-10-27 16:13:06.240,LG-H970,1572192786249.25,0.499,9.708,-0.865,41.1056954,16.8811585,False,3.375
2019-10-27 16:13:06.260,LG-H970,1572192786249.25,0.499,9.708,-0.865,41.1056954,16.8811585,False,3.375
2019-10-27 16:13:06.280,LG-H970,1572192786283.0,0.74,9.67,-0.68,41.1056954,16.8811585,True,3.375
2019-10-27 16:13:06.300,LG-H970,1572192786319.0,0.957,9.912,-1.157,41.1056954,16.8811585,False,3.375
2019-10-27 16:13:06.320,LG-H970,1572192786319.0,0.957,9.912,-1.157,41.1056954,16.8811585,False,3.375
2019-10-27 16:13:06.340,LG-H970,1572192786349.3333,0.667,9.947,-0.532,41.1056954,16.8811585,False,3.375
2019-10-27 16:13:06.360,LG-H970,1572192786369.6,0.644,9.785,-0.804,41.1056954,16.8811585,False,3.375
2019-10-27 16:13:06.380,LG-H970,1572192786391.0,0.582,9.8,-0.678,41.1056954,16.8811585,False,3.375
2019-10-27 16:13:06.400,LG-H970,1572192786410.5,0.466,9.694,-0.851,41.1056954,16.8811585,False,3.375
2019-10-27 16:13:06.420,LG-H970,1572192786431.25,0.588,10.011,-0.486,41.1056954,16.8811585,False,3.375
2019-10-27 16:13:06.440,LG-H970,1572192786449.0,0.547,9.954,-0.813,41.1056954,16.8811585,False,3.375
2019-10-27 16:13:06.460,LG-H970,1572192786468.2,0.403,10.064,-0.566,41.1056954,16.8811585,False,3.375
2019-10-27 16:13:06.480,LG-H970,1572192786489.5,0.612,9.854,-0.748,41.1056954,16.8811585,False,3.375
2019-10-27 16:13:06.500,LG-H970,1572192786509.5,0.618,9.824,-0.516,41.1056954,16.8811585,False,3.375
2019-10-27 16:13:06.520,LG-H970,1572192786529.5,0.433,9.837,-0.812,41.1056954,16.8811585,False,3.375
2019-10-27 16:13:06.540,LG-H970,1572192786549.25,0.469,9.837,-0.598,41.1056954,16.8811585,False,3.375
2019-10-27 16:13:06.560,LG-H970,1572192786569.5,0.584,9.498,-0.697,41.1056954,16.8811585,False,3.375
2019-10-27 16:13:06.580,LG-H970,1572192786589.75,0.383,9.716,-0.69,41.1056954,16.8811585,False,3.375
2019-10-27 16:13:06.600,LG-H970,1572192786609.5,0.315,9.722,-0.826,41.1056954,16.8811585,False,3.375
2019-10-27 16:13:06.620,LG-H970,1572192786628.5,0.481,9.919,-0.472,41.1056954,16.8811585,False,3.375
2019-10-27 16:13:06.640,LG-H970,1572192786649.75,0.402,9.594,-0.709,41.1056954,16.8811585,False,3.375
2019-10-27 16:13:06.660,LG-H970,1572192786668.5,0.515,9.725,-0.684,41.1056954,16.8811585,False,3.375
2019-10-27 16:13:06.680,LG-H970,1572192786689.5,0.588,9.363,-0.783,41.1056954,16.8811585,False,3.375
2019-10-27 16:13:06.700,LG-H970,1572192786708.5,0.622,9.73,-0.768,41.1056954,16.8811585,False,3.375
2019-10-27 16:13:06.720,LG-H970,1572192786729.6,0.57,9.634,-0.763,41.1056954,16.8811585,False,3.375
2019-10-27 16:13:06.740,LG-H970,1572192786750.3333,0.666,9.743,-0.81,41.1056954,16.8811585,False,3.375
2019-10-27 16:13:06.760,LG-H970,1572192786769.4,0.575,9.63,-0.74,41.1056954,16.8811585,False,3.375
2019-10-27 16:13:06.780,LG-H970,1572192786791.5,0.665,9.829,-0.849,41.1056954,16.8811585,False,3.375
2019-10-27 16:13:06.800,LG-H970,1572192786811.25,0.567,9.989,-0.671,41.1056954,16.8811585,False,3.375
2019-10-27 16:13:06.820,LG-H970,1572192786830.75,0.671,10.181,-0.777,41.1056954,16.8811585,False,3.375
2019-10-27 16:13:06.840,LG-H970,1572192786851.0,0.786,9.989,-0.444,41.1056954,16.8811585,False,3.375
2019-10-27 16:13:06.860,LG-H970,1572192786871.5,0.891,10.043,-0.774,41.1056954,16.8811585,False,3.375
2019-10-27 16:13:06.880,LG-H970,1572192786890.0,0.884,10.068,-0.479,41.1056954,16.8811585,False,3.375
2019-10-27 16:13:06.900,LG-H970,1572192786909.25,1.075,9.904,-0.659,41.1056954,16.8811585,False,3.375
2019-10-27 16:13:06.920,LG-H970,1572192786929.0,0.876,9.818,-0.526,41.1056954,16.8811585,False,3.375
2019-10-27 16:13:06.940,LG-H970,1572192786949.0,0.729,9.797,-0.856,41.1056954,16.8811585,False,3.375
2019-10-27 16:13:06.960,LG-H970,1572192786968.75,0.751,9.646,-0.513,41.1056954,16.8811585,False,3.375
2019-10-27 16:13:06.980,LG-H970,1572192786989.25,0.677,9.505,-0.726,41.1056954,16.8811585,False,3.375
2019-10-27 16:13:07.000,LG-H970,1572192787008.0,0.487,9.639,-0.622,41.1056954,16.8811585,False,3.375
2019-10-27 16:13:07.020,LG-H970,1572192787027.5,0.548,9.502,-0.878,41.1056954,16.8811585,False,3.375
2019-10-27 16:13:07.040,LG-H970,1572192787048.0,0.463,9.487,-0.563,41.1056954,16.8811585,False,3.375
2019-10-27 16:13:07.060,LG-H970,1572192787068.0,0.444,9.663,-0.85,41.1056954,16.8811585,False,3.375
2019-10-27 16:13:07.080,LG-H970,1572192787089.8,0.34,9.775,-0.521,41.1056954,16.8811585,False,3.375
2019-10-27 16:13:07.100,LG-H970,1572192787111.5,0.166,9.891,-0.74,41.1056954,16.8811585,False,3.375
2019-10-27 16:13:07.120,LG-H970,1572192787131.5,0.101,9.992,-0.529,41.1056954,16.8811585,False,3.375
2019-10-27 16:13:07.140,LG-H970,1572192787151.25,0.151,9.863,-0.683,41.1056954,16.8811585,False,3.375
2019-10-27 16:13:07.160,LG-H970,1572192787171.0,0.139,10.058,-0.674,41.1056954,16.8811585,False,3.375
2019-10-27 16:13:07.180,LG-H970,1572192787190.75,0.338,9.927,-0.739,41.1056954,16.8811585,False,3.375
2019-10-27 16:13:07.200,LG-H970,1572192787211.0,0.522,9.945,-0.543,41.1056954,16.8811585,False,3.375
2019-10-27 16:13:07.220,LG-H970,1572192787230.5,0.433,9.818,-0.85,41.1056954,16.8811585,False,3.375
2019-10-27 16:13:07.240,LG-H970,1572192787249.75,0.493,9.861,-0.598,41.1056954,16.8811585,False,3.375
2019-10-27 16:13:07.260,LG-H970,1572192787270.25,0.597,9.542,-0.753,41.1056954,16.8811585,False,3.375
2019-10-27 16:13:07.280,LG-H970,1572192787289.0,0.538,9.764,-0.752,41.1056954,16.8811585,False,3.375
2019-10-27 16:13:07.300,LG-H970,1572192787310.5,0.504,9.545,-0.875,41.1056954,16.8811585,False,3.375
2019-10-27 16:13:07.320,LG-H970,1572192787328.25,0.648,9.685,-0.583,41.1056954,16.8811585,False,3.375
2019-10-27 16:13:07.340,LG-H970,1572192787348.75,0.596,9.591,-0.729,41.1056954,16.8811585,False,3.375
2019-10-27 16:13:07.360,LG-H970,1572192787367.5,0.697,9.917,-0.551,41.1056985,16.8811695,False,3.011
2019-10-27 16:13:07.380,LG-H970,1572192787389.4,0.696,9.803,-0.599,41.1057078,16.8812026,False,1.919
2019-10-27 16:13:07.400,LG-H970,1572192787411.75,0.629,9.988,-0.642,41.1057078,16.8812026,False,1.919
2019-10-27 16:13:07.420,LG-H970,1572192787432.0,0.532,9.936,-0.405,41.1057078,16.8812026,False,1.919
2019-10-27 16:13:07.440,LG-H970,1572192787449.6667,0.534,10.058,-0.491,41.1057078,16.8812026,False,1.9189999999999998
2019-10-27 16:13:07.460,LG-H970,1572192787467.5,0.467,9.929,-0.606,41.1057078,16.8812026,False,1.919
2019-10-27 16:13:07.480,LG-H970,1572192787488.25,0.509,9.927,-0.374,41.1057078,16.8812026,False,1.919
2019-10-27 16:13:07.500,LG-H970,1572192787508.6,0.507,9.702,-0.528,41.1057078,16.8812026,False,1.919
2019-10-27 16:13:07.520,LG-H970,1572192787530.75,0.458,9.874,-0.724,41.1057078,16.8812026,False,1.919
2019-10-27 16:13:07.540,LG-H970,1572192787550.25,0.421,9.586,-0.589,41.1057078,16.8812026,False,1.919
2019-10-27 16:13:07.560,LG-H970,1572192787570.0,0.472,9.639,-0.636,41.1057078,16.8812026,False,1.919
2019-10-27 16:13:07.580,LG-H970,1572192787589.5,0.312,9.602,-0.577,41.1057078,16.8812026,False,1.919
2019-10-27 16:13:07.600,LG-H970,1572192787609.5,0.478,9.747,-0.523,41.1057078,16.8812026,False,1.919
2019-10-27 16:13:07.620,LG-H970,1572192787629.25,0.428,9.778,-0.466,41.1057078,16.8812026,False,1.919
2019-10-27 16:13:07.640,LG-H970,1572192787649.25,0.452,10.016,-0.639,41.1057078,16.8812026,False,1.919
2019-10-27 16:13:07.660,LG-H970,1572192787668.5,0.512,9.844,-0.38,41.1057078,16.8812026,False,1.919
2019-10-27 16:13:07.680,LG-H970,1572192787689.25,0.615,9.876,-0.565,41.1057078,16.8812026,False,1.919
2019-10-27 16:13:07.700,LG-H970,1572192787708.5,0.548,10.031,-0.493,41.1057078,16.8812026,False,1.919
2019-10-27 16:13:07.720,LG-H970,1572192787727.5,0.669,9.83,-0.666,41.1057078,16.8812026,False,1.919
2019-10-27 16:13:07.740,LG-H970,1572192787747.75,0.591,9.733,-0.477,41.1057078,16.8812026,False,1.919
2019-10-27 16:13:07.760,LG-H970,1572192787769.8,0.626,9.708,-0.821,41.1057078,16.8812026,False,1.919
