UTC_timestamp,device_name,timestamp,x,y,z,lat,long,event,speed
2019-10-27 16:06:51.340,LG-H970,1572192411347.5,0.514,9.258,-3.803,41.1074836,16.8777654,False,0.129
2019-10-27 16:06:51.360,LG-H970,1572192411367.25,0.648,9.289,-3.802,41.1074836,16.8777654,False,0.129
2019-10-27 16:06:51.380,LG-H970,1572192411389.2,1.341,9.188,-4.343,41.1074836,16.8777654,False,0.129
2019-10-27 16:06:51.400,LG-H970,1572192411409.3333,0.871,8.423,-3.266,41.1074836,16.8777654,False,0.129
2019-10-27 16:06:51.420,LG-H970,1572192411429.0,1.071,10.139,-4.438,41.1074836,16.8777654,False,0.129
2019-10-27 16:06:51.440,LG-H970,1572192411452.0,0.861,9.069,-3.015,41.1074836,16.8777654,False,0.129
2019-10-27 16:06:51.460,LG-H970,1572192411468.6,1.706,10.011,-4.819,41.1074836,16.8777654,False,0.129
2019-10-27 16:06:51.480,LG-H970,1572192411490.25,1.383,9.187,-4.513,41.1074836,16.8777654,False,0.129
2019-10-27 16:06:51.500,LG-H970,1572192411510.5,0.71,8.629,-3.957,41.1074836,16.8777654,False,0.129
2019-10-27 16:06:51.520,LG-H970,1572192411530.0,0.804,9.472,-4.454,41.1074836,16.8777654,False,0.129
2019-10-27 16:06:51.540,LG-H970,1572192411549.5,1.47,9.666,-4.393,41.1074836,16.8777654,False,0.129
2019-10-27 16:06:51.560,LG-H970,1572192411569.5,1.178,8.292,-4.275,41.1074836,16.8777654,False,0.129
2019-10-27 16:06:51.580,LG-H970,1572192411588.75,1.177,8.959,-5.613,41.1074836,16.8777654,False,0.129
2019-10-27 16:06:51.600,LG-H970,1572192411608.75,1.028,9.284,-4.529,41.1074836,16.8777654,False,0.129
2019-10-27 16:06:51.620,LG-H970,1572192411628.5,1.214,9.397,-4.386,41.1074836,16.8777654,False,0.129
2019-10-27 16:06:51.640,LG-H970,1572192411647.5,1.624,10.026,-5.42,41.1074836,16.8777654,False,0.129
2019-10-27 16:06:51.660,LG-H970,1572192411671.0,1.052,8.525,-4.835,41.1074846,16.8777521,False,1.1640000000000001
2019-10-27 16:06:51.680,LG-H970,1572192411692.0,0.875,8.297,-4.916,41.1074846,16.8777521,False,1.1640000000000001
2019-10-27 16:06:51.700,LG-H970,1572192411711.75,0.941,9.303,-3.774,41.1074846,16.8777521,False,1.1640000000000001
2019-10-27 16:06:51.720,LG-H970,1572192411729.0,-0.054,8.217,-2.887,41.1074846,16.8777521,False,1.1640000000000001
2019-10-27 16:06:51.740,LG-H970,1572192411749.6,0.577,9.14,-3.671,41.1074846,16.8777521,False,1.1640000000000001
2019-10-27 16:06:51.760,LG-H970,1572192411771.5,0.879,8.574,-3.132,41.1074846,16.8777521,False,1.1640000000000001
2019-10-27 16:06:51.780,LG-H970,1572192411791.5,1.195,9.162,-3.275,41.1074846,16.8777521,False,1.1640000000000001
2019-10-27 16:06:51.800,LG-H970,1572192411810.5,0.54,9.396,-2.075,41.1074846,16.8777521,False,1.1640000000000001
2019-10-27 16:06:51.820,LG-H970,1572192411831.25,0.319,9.204,-2.888,41.1074846,16.8777521,False,1.1640000000000001
2019-10-27 16:06:51.840,LG-H970,1572192411845.5,1.141,10.354,-3.485,41.1074846,16.8777521,False,1.1640000000000001
2019-10-27 16:06:51.860,LG-H970,1572192411868.0,0.576,8.96,-2.173,41.1074846,16.8777521,False,1.1640000000000001
2019-10-27 16:06:51.880,LG-H970,1572192411889.5,0.378,9.955,-2.893,41.1074846,16.8777521,False,1.1640000000000001
2019-10-27 16:06:51.900,LG-H970,1572192411909.25,0.677,10.118,-3.516,41.1074846,16.8777521,False,1.1640000000000001
2019-10-27 16:06:51.920,LG-H970,1572192411926.6667,0.714,9.552,-2.826,41.1074846,16.8777521,False,1.1640000000000001
2019-10-27 16:06:51.940,LG-H970,1572192411946.8,0.933,10.132,-4.259,41.1074846,16.8777521,False,1.1640000000000001
2019-10-27 16:06:51.960,LG-H970,1572192411968.5,0.883,9.709,-4.184,41.1074846,16.8777521,False,1.1640000000000001
2019-10-27 16:06:51.980,LG-H970,1572192411988.25,0.9,9.323,-4.07,41.1074846,16.8777521,False,1.1640000000000001
2019-10-27 16:06:52.000,LG-H970,1572192412007.5,0.952,9.008,-3.93,41.1074846,16.8777521,False,1.1640000000000001
2019-10-27 16:06:52.020,LG-H970,1572192412028.0,0.963,8.725,-4.373,41.1074846,16.8777521,False,1.1640000000000001
2019-10-27 16:06:52.040,LG-H970,1572192412047.75,0.892,9.126,-5.084,41.1074846,16.8777521,False,1.1640000000000001
2019-10-27 16:06:52.060,LG-H970,1572192412069.4,1.176,8.609,-4.456,41.1074846,16.8777521,False,1.1640000000000001
2019-10-27 16:06:52.080,LG-H970,1572192412091.5,1.785,8.214,-3.981,41.1074846,16.8777521,False,1.1640000000000001
2019-10-27 16:06:52.100,LG-H970,1572192412111.5,1.739,8.768,-4.729,41.1074846,16.8777521,False,1.1640000000000001
2019-10-27 16:06:52.120,LG-H970,1572192412131.5,1.602,9.216,-4.784,41.1074846,16.8777521,False,1.1640000000000001
2019-10-27 16:06:52.140,LG-H970,1572192412150.75,1.912,9.147,-4.044,41.1074846,16.8777521,False,1.1640000000000001
2019-10-27 16:06:52.160,LG-H970,1572192412170.75,1.973,9.175,-3.365,41.1074846,16.8777521,False,1.1640000000000001
2019-10-27 16:06:52.180,LG-H970,1572192412190.25,1.287,9.039,-3.611,41.1074846,16.8777521,False,1.1640000000000001
2019-10-27 16:06:52.200,LG-H970,1572192412209.75,0.928,9.484,-4.733,41.1074846,16.8777521,False,1.1640000000000001
2019-10-27 16:06:52.220,LG-H970,1572192412230.25,1.348,9.269,-3.902,41.1074846,16.8777521,False,1.1640000000000001
2019-10-27 16:06:52.240,LG-H970,1572192412250.0,1.483,9.277,-2.833,41.1074846,16.8777521,False,1.1640000000000001
2019-10-27 16:06:52.260,LG-H970,1572192412269.25,0.883,10.21,-3.381,41.1074846,16.8777521,False,1.1640000000000001
2019-10-27 16:06:52.280,LG-H970,1572192412289.0,0.233,9.921,-3.96,41.1074846,16.8777521,False,1.1640000000000001
2019-10-27 16:06:52.300,LG-H970,1572192412308.75,0.004,9.155,-3.31,41.1074846,16.8777521,False,1.1640000000000001
2019-10-27 16:06:52.320,LG-H970,1572192412329.0,0.135,9.658,-3.862,41.1074846,16.8777521,False,1.1640000000000001
2019-10-27 16:06:52.340,LG-H970,1572192412348.5,0.51,9.762,-3.737,41.1074846,16.8777521,False,1.1640000000000001
2019-10-27 16:06:52.360,LG-H970,1572192412369.75,0.838,9.451,-3.651,41.1074846,16.8777521,False,1.1640000000000001
2019-10-27 16:06:52.380,LG-H970,1572192412392.25,0.318,8.747,-3.55,41.1074846,16.8777521,False,1.1640000000000001
2019-10-27 16:06:52.400,LG-H970,1572192412412.0,0.557,9.181,-4.074,41.1074846,16.8777521,False,1.1640000000000001
2019-10-27 16:06:52.420,LG-H970,1572192412431.5,0.624,9.046,-3.759,41.1074846,16.8777521,False,1.1640000000000001
2019-10-27 16:06:52.440,LG-H970,1572192412451.5,0.294,9.311,-3.655,41.1074846,16.8777521,False,1.1640000000000001
2019-10-27 16:06:52.460,LG-H970,1572192412470.75,0.813,9.185,-4.009,41.1074846,16.8777521,False,1.1640000000000001
2019-10-27 16:06:52.480,LG-H970,1572192412490.75,1.381,8.615,-3.606,41.1074846,16.8777521,False,1.1640000000000001
2019-10-27 16:06:52.500,LG-H970,1572192412510.25,0.537,8.968,-4.067,41.1074846,16.8777521,False,1.1640000000000001
2019-10-27 16:06:52.520,LG-H970,1572192412530.25,-0.472,9.106,-3.994,41.1074846,16.8777521,False,1.1640000000000001
2019-10-27 16:06:52.540,LG-H970,1572192412549.75,0.31,9.086,-3.956,41.1074846,16.8777521,False,1.1640000000000001
2019-10-27 16:06:52.560,LG-H970,1572192412569.75,0.854,8.755,-3.444,41.1074846,16.8777521,False,1.1640000000000001
2019-10-27 16:06:52.580,LG-H970,1572192412588.75,0.004,8.92,-3.659,41.1074846,16.8777521,False,1.1640000000000001
2019-10-27 16:06:52.600,LG-H970,1572192412604.0,-0.072,10.243,-5.139,41.1074846,16.8777521,False,1.1640000000000001
2019-10-27 16:06:52.620,LG-H970,1572192412628.2,-0.292,8.94,-3.074,41.1074846,16.8777521,False,1.1640000000000001
2019-10-27 16:06:52.640,LG-H970,1572192412648.75,0.046,9.419,-3.075,41.1074846,16.8777521,False,1.1640000000000001
2019-10-27 16:06:52.660,LG-H970,1572192412668.25,0.227,10.176,-4.172,41.1074883,16.877729,False,3.016
2019-10-27 16:06:52.680,LG-H970,1572192412686.75,0.819,9.7,-4.247,41.1074883,16.877729,False,3.016
2019-10-27 16:06:52.700,LG-H970,1572192412707.25,1.21,9.098,-3.612,41.1074883,16.877729,False,3.016
2019-10-27 16:06:52.720,LG-H970,1572192412727.0,0.384,9.461,-3.635,41.1074883,16.877729,False,3.016
2019-10-27 16:06:52.740,LG-H970,1572192412749.2,-0.235,9.533,-4.171,41.1074883,16.877729,False,3.016
2019-10-27 16:06:52.760,LG-H970,1572192412771.5,0.625,9.401,-4.212,41.1074883,16.877729,False,3.016
2019-10-27 16:06:52.780,LG-H970,1572192412791.0,1.496,8.701,-4.11,41.1074883,16.877729,False,3.016
2019-10-27 16:06:52.800,LG-H970,1572192412810.5,1.041,9.312,-4.466,41.1074883,16.877729,False,3.016
2019-10-27 16:06:52.820,LG-H970,1572192412827.6667,-0.29,9.704,-4.916,41.1074883,16.877729,False,3.016
2019-10-27 16:06:52.840,LG-H970,1572192412844.0,-0.513,10.156,-4.377,41.1074883,16.877729,True,3.016
2019-10-27 16:06:52.860,LG-H970,1572192412861.5,0.673,9.776,-3.821,41.1074883,16.877729,False,3.016
2019-10-27 16:06:52.880,LG-H970,1572192412889.0,1.558,9.053,-3.569,41.1074883,16.877729,False,3.016
2019-10-27 16:06:52.900,LG-H970,1572192412909.6,0.462,9.488,-4.605,41.1074883,16.877729,False,3.016
2019-10-27 16:06:52.920,LG-H970,1572192412929.0,-0.377,8.735,-4.175,41.1074883,16.877729,False,3.016
2019-10-27 16:06:52.940,LG-H970,1572192412948.25,-0.327,8.091,-4.316,41.1074883,16.877729,False,3.016
2019-10-27 16:06:52.960,LG-H970,1572192412969.25,-0.177,8.054,-4.339,41.1074883,16.877729,False,3.016
2019-10-27 16:06:52.980,LG-H970,1572192412988.5,1.191,8.603,-3.762,41.1074883,16.877729,False,3.016
2019-10-27 16:06:53.000,LG-H970,1572192413007.75,1.064,8.463,-3.304,41.1074883,16.877729,False,3.016
2019-10-27 16:06:53.020,LG-H970,1572192413028.0,-1.013,9.384,-4.116,41.1074883,16.877729,False,3.016
2019-10-27 16:06:53.040,LG-H970,1572192413046.75,-1.648,8.733,-2.977,41.1074883,16.877729,False,3.016
2019-10-27 16:06:53.060,LG-H970,1572192413067.25,0.518,7.889,-0.957,41.1074883,16.877729,False,3.016
2019-10-27 16:06:53.080,LG-H970,1572192413089.4,1.438,7.928,-1.834,41.1074883,16.877729,False,3.016
2019-10-27 16:06:53.100,LG-H970,1572192413111.75,-0.989,8.749,-2.356,41.1074883,16.877729,False,3.016
2019-10-27 16:06:53.120,LG-H970,1572192413131.25,-2.068,8.97,-1.02,41.1074883,16.877729,False,3.016
2019-10-27 16:06:53.140,LG-H970,1572192413151.0,-0.758,9.062,0.291,41.1074883,16.877729,False,3.016
2019-10-27 16:06:53.160,LG-H970,1572192413172.5,0.846,9.065,-2.065,41.1074883,16.877729,False,3.016
2019-10-27 16:06:53.180,LG-H970,1572192413188.0,0.221,8.603,-2.228,41.1074883,16.877729,False,3.016
2019-10-27 16:06:53.200,LG-H970,1572192413208.2,-1.446,9.584,-1.517,41.1074883,16.877729,False,3.016
2019-10-27 16:06:53.220,LG-H970,1572192413229.5,-1.283,10.09,0.049,41.1074883,16.877729,False,3.016
2019-10-27 16:06:53.240,LG-H970,1572192413250.0,0.186,10.534,-0.702,41.1074883,16.877729,False,3.016
2019-10-27 16:06:53.260,LG-H970,1572192413269.25,-0.388,9.903,-1.943,41.1074883,16.877729,False,3.016
2019-10-27 16:06:53.280,LG-H970,1572192413287.3333,-0.967,9.513,-1.944,41.1074883,16.877729,False,3.016
2019-10-27 16:06:53.300,LG-H970,1572192413309.0,-0.536,9.451,-0.337,41.1074883,16.877729,False,3.016
2019-10-27 16:06:53.320,LG-H970,1572192413327.5,-1.098,10.271,-0.017,41.1074883,16.877729,False,3.016
2019-10-27 16:06:53.340,LG-H970,1572192413348.5,-1.85,11.313,-1.224,41.1074883,16.877729,False,3.016
2019-10-27 16:06:53.360,LG-H970,1572192413368.0,-0.795,10.396,-1.487,41.1074883,16.877729,False,3.016
2019-10-27 16:06:53.380,LG-H970,1572192413387.75,0.332,9.353,-0.748,41.1074883,16.877729,False,3.016
2019-10-27 16:06:53.400,LG-H970,1572192413407.75,-0.186,10.053,-1.304,41.1074883,16.877729,False,3.016
2019-10-27 16:06:53.420,LG-H970,1572192413427.0,-1.191,10.644,-1.118,41.1074883,16.877729,False,3.016
2019-10-27 16:06:53.440,LG-H970,1572192413449.4,-0.27,10.864,-1.197,41.1074883,16.877729,False,3.016
2019-10-27 16:06:53.460,LG-H970,1572192413471.75,0.169,9.57,-1.369,41.1074883,16.877729,False,3.016
2019-10-27 16:06:53.480,LG-H970,1572192413491.5,-0.41,9.168,-1.562,41.1074883,16.877729,False,3.016
2019-10-27 16:06:53.500,LG-H970,1572192413510.75,0.096,9.922,-1.367,41.1074883,16.877729,False,3.016
2019-10-27 16:06:53.520,LG-H970,1572192413530.25,0.675,10.082,-0.289,41.1074883,16.877729,False,3.016
2019-10-27 16:06:53.540,LG-H970,1572192413550.0,0.5,10.821,-0.644,41.1074883,16.877729,False,3.016
2019-10-27 16:06:53.560,LG-H970,1572192413570.25,0.619,10.379,-1.67,41.1074883,16.877729,False,3.016
2019-10-27 16:06:53.580,LG-H970,1572192413590.75,0.731,8.469,-1.117,41.1074883,16.877729,False,3.016
2019-10-27 16:06:53.600,LG-H970,1572192413604.0,0.879,9.372,-2.117,41.1074883,16.877729,False,3.016
2019-10-27 16:06:53.620,LG-H970,1572192413626.8,0.535,10.057,-2.564,41.1074883,16.877729,False,3.016
2019-10-27 16:06:53.640,LG-H970,1572192413649.25,0.506,11.239,-1.834,41.1074883,16.877729,False,3.016
2019-10-27 16:06:53.660,LG-H970,1572192413666.6667,0.463,9.555,-2.525,41.1074883,16.877729,False,3.016
2019-10-27 16:06:53.680,LG-H970,1572192413687.8,0.553,9.282,-2.646,41.1074883,16.877729,False,3.016
2019-10-27 16:06:53.700,LG-H970,1572192413708.25,-1.402,9.194,-3.128,41.1074883,16.877729,False,3.016
2019-10-27 16:06:53.720,LG-H970,1572192413728.75,-1.705,10.505,-1.979,41.1074883,16.877729,False,3.016
2019-10-27 16:06:53.740,LG-H970,1572192413749.25,-0.517,10.705,-0.696,41.1074883,16.877729,False,3.016
2019-10-27 16:06:53.760,LG-H970,1572192413769.0,-0.193,10.247,-1.151,41.1074883,16.877729,False,3.016
2019-10-27 16:06:53.780,LG-H970,1572192413788.0,-0.451,9.963,-1.941,41.1074883,16.877729,False,3.016
2019-10-27 16:06:53.800,LG-H970,1572192413807.75,-0.034,9.971,-1.309,41.1074883,16.877729,False,3.016
2019-10-27 16:06:53.820,LG-H970,1572192413828.5,-1.105,9.553,0.185,41.1074883,16.877729,False,3.016
2019-10-27 16:06:53.840,LG-H970,1572192413851.4,-1.218,9.971,-1.058,41.1074883,16.877729,False,3.016
2019-10-27 16:06:53.860,LG-H970,1572192413871.3333,1.153,10.009,-1.767,41.1074883,16.877729,False,3.016
2019-10-27 16:06:53.880,LG-H970,1572192413889.0,0.231,8.407,0.037,41.1074883,16.877729,False,3.016
2019-10-27 16:06:53.900,LG-H970,1572192413911.5,-1.95,10.878,-1.497,41.1074883,16.877729,False,3.016
2019-10-27 16:06:53.920,LG-H970,1572192413928.6667,-1.691,11.338,-1.938,41.1074883,16.877729,False,3.016
2019-10-27 16:06:53.940,LG-H970,1572192413948.8,0.046,10.417,-1.206,41.1074883,16.877729,False,3.016
2019-10-27 16:06:53.960,LG-H970,1572192413971.0,-0.742,9.169,-1.644,41.1074883,16.877729,False,3.016
2019-10-27 16:06:53.980,LG-H970,1572192413991.5,-1.746,9.998,-3.668,41.1074883,16.877729,False,3.016
2019-10-27 16:06:54.000,LG-H970,1572192414010.75,-2.311,10.0,-2.687,41.1074883,16.877729,False,3.016
2019-10-27 16:06:54.020,LG-H970,1572192414030.25,-1.684,11.647,-2.62,41.1074883,16.877729,False,3.016
2019-10-27 16:06:54.040,LG-H970,1572192414049.25,-0.749,10.405,-3.005,41.1074883,16.877729,False,3.016
2019-10-27 16:06:54.060,LG-H970,1572192414069.5,-1.501,7.859,-3.35,41.1074883,16.877729,False,3.016
2019-10-27 16:06:54.080,LG-H970,1572192414089.75,-2.98,7.991,-3.814,41.1074883,16.877729,False,3.016
2019-10-27 16:06:54.100,LG-H970,1572192414110.5,-2.67,9.033,-3.226,41.1074883,16.877729,False,3.016
2019-10-27 16:06:54.120,LG-H970,1572192414129.25,-0.251,10.72,-0.638,41.1074883,16.877729,False,3.016
2019-10-27 16:06:54.140,LG-H970,1572192414148.0,0.786,11.036,-0.618,41.1074883,16.877729,False,3.016
2019-10-27 16:06:54.160,LG-H970,1572192414168.0,-1.238,9.697,-3.276,41.1074883,16.877729,False,3.016
2019-10-27 16:06:54.180,LG-H970,1572192414190.0,-2.065,7.712,-3.159,41.1074883,16.877729,False,3.016
2019-10-27 16:06:54.200,LG-H970,1572192414211.0,-0.883,7.706,-2.103,41.1074883,16.877729,False,3.016
2019-10-27 16:06:54.220,LG-H970,1572192414228.0,-0.113,10.074,-2.575,41.1074883,16.877729,False,3.016
2019-10-27 16:06:54.240,LG-H970,1572192414247.25,-0.815,11.723,-2.35,41.1074883,16.877729,False,3.016
2019-10-27 16:06:54.260,LG-H970,1572192414267.5,-1.25,11.238,-3.482,41.1074883,16.877729,False,3.016
2019-10-27 16:06:54.280,LG-H970,1572192414288.8,-0.286,10.188,-3.299,41.1074883,16.877729,False,3.016
2019-10-27 16:06:54.300,LG-H970,1572192414311.75,0.562,10.398,-2.812,41.1074883,16.877729,False,3.016
2019-10-27 16:06:54.320,LG-H970,1572192414326.6667,-1.231,10.849,-1.791,41.1074883,16.877729,False,3.016
