UTC_timestamp,device_name,x,y,z,lat,long,speed,event
2019-10-27 20:32:38.480,SmartbBox,-0.146,-0.024,-0.791,0,0,0.0,False
2019-10-27 20:32:38.500,SmartbBox,-0.106,-0.001,-0.742,0,0,0.0,False
2019-10-27 20:32:38.520,SmartbBox,-0.096,-0.034,-0.636,0,0,0.0,False
2019-10-27 20:32:38.540,SmartbBox,-0.096,-0.064,-0.61,0,0,0.0,False
2019-10-27 20:32:38.560,SmartbBox,-0.147,-0.083,-0.739,0,0,0.0,False
2019-10-27 20:32:38.580,SmartbBox,-0.107,-0.002,-0.742,0,0,0.0,False
2019-10-27 20:32:38.600,SmartbBox,-0.102,0.027,-0.741,0,0,0.0,False
2019-10-27 20:32:38.620,SmartbBox,-0.129,-0.025,-0.874,0,0,0.0,False
2019-10-27 20:32:38.640,SmartbBox,-0.147,-0.02,-1.007,0,0,0.0,False
2019-10-27 20:32:38.660,SmartbBox,-0.132,0.006,-0.927,0,0,0.0,False
2019-10-27 20:32:38.680,SmartbBox,-0.136,-0.053,-0.902,0,0,0.0,False
2019-10-27 20:32:38.700,SmartbBox,-0.14,0.007,-0.98,0,0,0.0,False
2019-10-27 20:32:38.720,SmartbBox,-0.14,-0.052,-0.928,0,0,0.0,False
2019-10-27 20:32:38.740,SmartbBox,-0.144,-0.022,-0.98,0,0,0.0,False
2019-10-27 20:32:38.760,SmartbBox,-0.108,-0.027,-0.932,0,0,0.0,False
2019-10-27 20:32:38.780,SmartbBox,-0.168,0.011,-0.976,0,0,0.0,False
2019-10-27 20:32:38.800,SmartbBox,-0.146,0.009,-1.033,0,0,0.0,False
2019-10-27 20:32:38.820,SmartbBox,-0.122,0.006,-1.064,0,0,0.0,False
2019-10-27 20:32:38.840,SmartbBox,-0.146,0.009,-1.033,0,0,0.0,False
2019-10-27 20:32:38.860,SmartbBox,-0.198,-0.011,-1.162,0,0,0.0,False
2019-10-27 20:32:38.880,SmartbBox,-0.118,0.035,-1.063,0,0,0.0,False
2019-10-27 20:32:38.900,SmartbBox,-0.125,0.066,-1.142,0,0,0.0,False
2019-10-27 20:32:38.920,SmartbBox,-0.16,0.043,-1.165,0,0,0.0,False
2019-10-27 20:32:38.940,SmartbBox,-0.132,0.035,-0.953,0,0,0.0,False
2019-10-27 20:32:38.960,SmartbBox,-0.11,0.062,-1.036,0,0,0.0,False
2019-10-27 20:32:38.980,SmartbBox,-0.118,-0.025,-1.011,0,0,0.0,False
2019-10-27 20:32:39.000,SmartbBox,-0.208,-0.012,-1.026,0,0,0.0,False
2019-10-27 20:32:39.020,SmartbBox,-0.132,0.039,-1.169,0,0,0.0,False
2019-10-27 20:32:39.040,SmartbBox,-0.091,-0.025,-1.231,0,0,0.0,False
2019-10-27 20:32:39.060,SmartbBox,-0.134,0.095,-1.031,0,0,0.0,False
2019-10-27 20:32:39.080,SmartbBox,-0.183,-0.015,-1.056,0,0,0.0,False
2019-10-27 20:32:39.100,SmartbBox,-0.097,0.003,-1.094,0,0,0.0,False
2019-10-27 20:32:39.120,SmartbBox,-0.086,-0.003,-0.798,0,0,0.0,False
2019-10-27 20:32:39.140,SmartbBox,-0.153,0.037,-0.896,0,0,0.0,False
2019-10-27 20:32:39.160,SmartbBox,-0.118,0.005,-1.037,0,0,0.0,False
2019-10-27 20:32:39.180,SmartbBox,-0.096,0.029,-0.904,0,0,0.0,False
2019-10-27 20:32:39.200,SmartbBox,-0.164,0.01,-0.95,0,0,0.0,False
2019-10-27 20:32:39.220,SmartbBox,-0.14,0.008,-0.98,0,0,0.0,False
2019-10-27 20:32:39.240,SmartbBox,-0.104,-0.028,-0.905,0,0,0.0,False
2019-10-27 20:32:39.260,SmartbBox,-0.172,-0.018,-0.976,0,0,0.0,False
2019-10-27 20:32:39.280,SmartbBox,-0.136,-0.023,-0.928,0,0,0.0,False
2019-10-27 20:32:39.300,SmartbBox,-0.14,-0.022,-0.954,0,0,0.0,False
2019-10-27 20:32:39.320,SmartbBox,-0.144,-0.051,-0.954,0,0,0.0,False
2019-10-27 20:32:39.340,SmartbBox,-0.132,0.006,-0.927,0,0,0.0,False
2019-10-27 20:32:39.360,SmartbBox,-0.165,-0.049,-0.898,0,0,0.0,False
2019-10-27 20:32:39.380,SmartbBox,-0.14,-0.022,-0.954,0,0,0.0,False
2019-10-27 20:32:39.400,SmartbBox,-0.148,-0.05,-0.981,0,0,0.0,False
2019-10-27 20:32:39.420,SmartbBox,-0.14,-0.022,-0.954,0,0,0.0,False
2019-10-27 20:32:39.440,SmartbBox,-0.147,-0.021,-1.007,0,0,0.0,False
2019-10-27 20:32:39.460,SmartbBox,-0.14,-0.022,-0.954,0,0,0.0,False
2019-10-27 20:32:39.480,SmartbBox,-0.111,0.004,-0.984,0,0,0.0,False
2019-10-27 20:32:39.500,SmartbBox,-0.15,-0.02,-1.034,0,0,0.0,False
2019-10-27 20:32:39.520,SmartbBox,-0.122,-0.024,-1.038,0,0,0.0,False
2019-10-27 20:32:39.540,SmartbBox,-0.122,-0.024,-1.038,0,0,0.0,False
2019-10-27 20:32:39.560,SmartbBox,-0.147,0.009,-1.033,0,0,0.0,False
2019-10-27 20:32:39.580,SmartbBox,-0.154,0.011,-1.086,0,0,0.0,False
2019-10-27 20:32:39.600,SmartbBox,-0.154,0.011,-1.086,0,0,0.0,False
2019-10-27 20:32:39.620,SmartbBox,-0.146,0.039,-1.059,0,0,0.0,False
2019-10-27 20:32:39.640,SmartbBox,-0.121,0.036,-1.09,0,0,0.0,False
2019-10-27 20:32:39.660,SmartbBox,-0.146,0.039,-1.059,0,0,0.0,False
2019-10-27 20:32:39.680,SmartbBox,-0.113,0.064,-1.062,0,0,0.0,False
2019-10-27 20:32:39.700,SmartbBox,-0.113,0.093,-1.088,0,0,0.0,False
2019-10-27 20:32:39.720,SmartbBox,-0.161,-0.017,-1.113,0,0,0.0,False
2019-10-27 20:32:39.740,SmartbBox,-0.19,-0.012,-1.109,0,0,0.0,False
2019-10-27 20:32:39.760,SmartbBox,-0.122,-0.024,-1.038,0,0,0.0,False
2019-10-27 20:32:39.780,SmartbBox,-0.15,0.01,-1.06,0,0,0.0,False
2019-10-27 20:32:39.800,SmartbBox,-0.172,-0.018,-0.976,0,0,0.0,False
2019-10-27 20:32:39.820,SmartbBox,-0.14,-0.022,-0.954,0,0,0.0,False
2019-10-27 20:32:39.840,SmartbBox,-0.133,-0.054,-0.875,0,0,0.0,False
2019-10-27 20:32:39.860,SmartbBox,-0.122,-0.027,-0.822,0,0,0.0,False
2019-10-27 20:32:39.880,SmartbBox,-0.124,0.003,-0.874,0,0,0.0,False
2019-10-27 20:32:39.900,SmartbBox,-0.12,0.032,-0.874,0,0,0.0,False
2019-10-27 20:32:39.920,SmartbBox,-0.136,-0.023,-0.928,0,0,0.0,False
2019-10-27 20:32:39.940,SmartbBox,-0.093,-0.031,-0.826,0,0,0.0,False
2019-10-27 20:32:39.960,SmartbBox,-0.147,-0.054,-0.765,0,0,0.0,False
2019-10-27 20:32:39.980,SmartbBox,-0.085,-0.004,-0.798,0,0,0.0,True
2019-10-27 20:32:40.000,SmartbBox,-0.126,-0.056,-0.822,0,0,0.0,False
2019-10-27 20:32:40.020,SmartbBox,-0.125,-0.026,-0.848,0,0,0.0,False
2019-10-27 20:32:40.040,SmartbBox,-0.124,0.003,-0.874,0,0,0.0,False
2019-10-27 20:32:40.060,SmartbBox,-0.153,0.008,-0.87,0,0,0.0,False
2019-10-27 20:32:40.080,SmartbBox,-0.128,0.005,-0.9,0,0,0.0,False
2019-10-27 20:32:40.100,SmartbBox,-0.125,-0.026,-0.848,0,0,0.0,False
2019-10-27 20:32:40.120,SmartbBox,-0.16,-0.02,-0.897,0,0,0.0,False
2019-10-27 20:32:40.140,SmartbBox,-0.136,-0.023,-0.928,0,0,0.0,False
2019-10-27 20:32:40.160,SmartbBox,-0.14,-0.022,-0.954,0,0,0.0,False
2019-10-27 20:32:40.180,SmartbBox,-0.147,-0.021,-1.007,0,0,0.0,False
2019-10-27 20:32:40.200,SmartbBox,-0.094,-0.028,-1.042,0,0,0.0,False
2019-10-27 20:32:40.220,SmartbBox,-0.105,0.005,-1.147,0,0,0.0,False
2019-10-27 20:32:40.240,SmartbBox,-0.1,0.004,-1.12,0,0,0.0,False
2019-10-27 20:32:40.260,SmartbBox,-0.115,-0.022,-1.201,0,0,0.0,False
2019-10-27 20:32:40.280,SmartbBox,-0.104,0.064,-1.199,0,0,0.0,False
2019-10-27 20:32:40.300,SmartbBox,-0.107,0.066,-1.226,0,0,0.0,False
2019-10-27 20:32:40.320,SmartbBox,-0.136,0.07,-1.222,0,0,0.0,False
2019-10-27 20:32:40.340,SmartbBox,-0.188,-0.01,-1.298,0,0,0.0,False
2019-10-27 20:32:40.360,SmartbBox,-0.191,-0.039,-1.298,0,0,0.0,False
2019-10-27 20:32:40.380,SmartbBox,-0.109,-0.054,-1.122,0,0,0.0,False
2019-10-27 20:32:40.400,SmartbBox,-0.102,-0.026,-1.094,0,0,0.0,False
2019-10-27 20:32:40.420,SmartbBox,-0.176,-0.013,-1.219,0,0,0.0,False
2019-10-27 20:32:40.440,SmartbBox,-0.175,0.043,-1.055,0,0,0.0,False
2019-10-27 20:32:40.460,SmartbBox,-0.071,-0.003,-0.908,0,0,0.0,False
2019-10-27 20:32:40.480,SmartbBox,-0.089,-0.003,-0.825,0,0,0.0,False
2019-10-27 20:32:40.500,SmartbBox,-0.122,-0.027,-0.822,0,0,0.0,False
2019-10-27 20:32:40.520,SmartbBox,-0.086,-0.033,-0.772,0,0,0.0,False
2019-10-27 20:32:40.540,SmartbBox,-0.105,-0.118,-0.827,0,0,0.0,False
2019-10-27 20:32:40.560,SmartbBox,-0.039,-0.042,-0.644,0,0,0.0,False
2019-10-27 20:32:40.580,SmartbBox,-0.064,-0.039,-0.613,0,0,0.0,False
2019-10-27 20:32:40.600,SmartbBox,-0.088,-0.006,-0.609,0,0,0.0,False
2019-10-27 20:32:40.620,SmartbBox,-0.061,-0.036,-0.803,0,0,0.0,False
2019-10-27 20:32:40.640,SmartbBox,-0.011,-0.076,-0.622,0,0,0.0,False
2019-10-27 20:32:40.660,SmartbBox,-0.035,-0.014,-0.644,0,0,0.0,False
2019-10-27 20:32:40.680,SmartbBox,-0.139,-0.026,-0.738,0,0,0.0,False
2019-10-27 20:32:40.700,SmartbBox,-0.056,0.022,-0.828,0,0,0.0,False
2019-10-27 20:32:40.720,SmartbBox,-0.092,0.028,-0.878,0,0,0.0,False
2019-10-27 20:32:40.740,SmartbBox,-0.132,-0.024,-0.901,0,0,0.0,False
2019-10-27 20:32:40.760,SmartbBox,-0.1,0.001,-0.905,0,0,0.0,False
2019-10-27 20:32:40.780,SmartbBox,-0.093,0.002,-1.068,0,0,0.0,False
2019-10-27 20:32:40.800,SmartbBox,-0.101,-0.026,-1.094,0,0,0.0,False
2019-10-27 20:32:40.820,SmartbBox,-0.162,-0.017,-1.113,0,0,0.0,False
2019-10-27 20:32:40.840,SmartbBox,-0.083,0.003,-1.204,0,0,0.0,False
2019-10-27 20:32:40.860,SmartbBox,-0.126,0.01,-1.306,0,0,0.0,False
2019-10-27 20:32:40.880,SmartbBox,-0.155,-0.045,-1.25,0,0,0.0,False
2019-10-27 20:32:40.900,SmartbBox,-0.162,0.046,-1.38,0,0,0.0,False
2019-10-27 20:32:40.920,SmartbBox,-0.084,-0.023,-1.394,0,0,0.0,False
2019-10-27 20:32:40.940,SmartbBox,-0.142,-0.075,-1.334,0,0,0.0,False
2019-10-27 20:32:40.960,SmartbBox,-0.114,0.038,-1.252,0,0,0.0,False
2019-10-27 20:32:40.980,SmartbBox,-0.09,-0.025,-1.231,0,0,0.0,False
2019-10-27 20:32:41.000,SmartbBox,-0.112,-0.052,-1.148,0,0,0.0,False
2019-10-27 20:32:41.020,SmartbBox,-0.161,0.013,-1.139,0,0,0.0,False
2019-10-27 20:32:41.040,SmartbBox,-0.126,-0.023,-1.064,0,0,0.0,False
2019-10-27 20:32:41.060,SmartbBox,-0.122,-0.024,-1.038,0,0,0.0,False
2019-10-27 20:32:41.080,SmartbBox,-0.132,0.006,-0.927,0,0,0.0,False
2019-10-27 20:32:41.100,SmartbBox,-0.141,-0.082,-0.902,0,0,0.0,False
2019-10-27 20:32:41.120,SmartbBox,-0.145,-0.11,-0.903,0,0,0.0,False
2019-10-27 20:32:41.140,SmartbBox,-0.156,-0.137,-0.956,0,0,0.0,False
2019-10-27 20:32:41.160,SmartbBox,-0.126,-0.086,-0.796,0,0,0.0,False
2019-10-27 20:32:41.180,SmartbBox,-0.09,-0.032,-0.799,0,0,0.0,False
2019-10-27 20:32:41.200,SmartbBox,-0.137,-0.083,-0.876,0,0,0.0,False
2019-10-27 20:32:41.220,SmartbBox,-0.165,-0.079,-0.871,0,0,0.0,False
2019-10-27 20:32:41.240,SmartbBox,-0.074,0.023,-0.745,0,0,0.0,False
2019-10-27 20:32:41.260,SmartbBox,-0.068,-0.038,-0.64,0,0,0.0,False
2019-10-27 20:32:41.280,SmartbBox,-0.052,0.017,-0.586,0,0,0.0,False
2019-10-27 20:32:41.300,SmartbBox,-0.06,-0.01,-0.613,0,0,0.0,False
2019-10-27 20:32:41.320,SmartbBox,-0.111,-0.06,-0.716,0,0,0.0,False
2019-10-27 20:32:41.340,SmartbBox,-0.089,-0.003,-0.825,0,0,0.0,False
2019-10-27 20:32:41.360,SmartbBox,-0.136,-0.024,-0.928,0,0,0.0,False
2019-10-27 20:32:41.380,SmartbBox,-0.208,-0.071,-0.974,0,0,0.0,False
2019-10-27 20:32:41.400,SmartbBox,-0.173,-0.044,-1.166,0,0,0.0,False
2019-10-27 20:32:41.420,SmartbBox,-0.156,-0.015,-1.276,0,0,0.0,False
2019-10-27 20:32:41.440,SmartbBox,-0.168,0.044,-1.218,0,0,0.0,False
2019-10-27 20:32:41.460,SmartbBox,-0.157,0.042,-1.138,0,0,0.0,False
