UTC_timestamp,device_name,x,y,z,lat,long,speed,event
2019-11-09 09:04:32.480,SmartbBox,-0.322,0.005,-1.008,0,0,0.0,False
2019-11-09 09:04:32.500,SmartbBox,-0.277,0.056,-0.959,0,0,0.0,False
2019-11-09 09:04:32.520,SmartbBox,-0.321,0.034,-1.034,0,0,0.0,False
2019-11-09 09:04:32.540,SmartbBox,-0.31,0.032,-0.955,0,0,0.0,False
2019-11-09 09:04:32.560,SmartbBox,-0.293,0.0,-1.013,0,0,0.0,False
2019-11-09 09:04:32.580,SmartbBox,-0.258,-0.005,-0.964,0,0,0.0,False
2019-11-09 09:04:32.600,SmartbBox,-0.232,-0.008,-0.994,0,0,0.0,False
2019-11-09 09:04:32.620,SmartbBox,-0.204,-0.012,-0.999,0,0,0.0,False
2019-11-09 09:04:32.640,SmartbBox,-0.144,-0.022,-0.981,0,0,0.0,False
2019-11-09 09:04:32.660,SmartbBox,-0.118,-0.025,-1.011,0,0,0.0,False
2019-11-09 09:04:32.680,SmartbBox,-0.115,-0.026,-0.985,0,0,0.0,False
2019-11-09 09:04:32.700,SmartbBox,-0.09,0.001,-1.041,0,0,0.0,False
2019-11-09 09:04:32.720,SmartbBox,-0.114,0.004,-1.01,0,0,0.0,False
2019-11-09 09:04:32.740,SmartbBox,-0.086,-0.03,-0.988,0,0,0.0,False
2019-11-09 09:04:32.760,SmartbBox,-0.118,0.005,-1.037,0,0,0.0,False
2019-11-09 09:04:32.780,SmartbBox,-0.122,-0.024,-1.038,0,0,0.0,False
2019-11-09 09:04:32.800,SmartbBox,-0.09,-0.028,-1.015,0,0,0.0,False
2019-11-09 09:04:32.820,SmartbBox,-0.134,-0.05,-1.091,0,0,0.0,False
2019-11-09 09:04:32.840,SmartbBox,-0.065,-0.032,-1.046,0,0,0.0,False
2019-11-09 09:04:32.860,SmartbBox,-0.098,-0.027,-1.068,0,0,0.0,False
2019-11-09 09:04:32.880,SmartbBox,-0.126,-0.052,-1.038,0,0,0.0,False
2019-11-09 09:04:32.900,SmartbBox,-0.062,-0.033,-1.019,0,0,0.0,False
2019-11-09 09:04:32.920,SmartbBox,-0.094,-0.028,-1.042,0,0,0.0,False
2019-11-09 09:04:32.940,SmartbBox,-0.094,-0.057,-1.015,0,0,0.0,False
2019-11-09 09:04:32.960,SmartbBox,-0.118,-0.025,-1.011,0,0,0.0,False
2019-11-09 09:04:32.980,SmartbBox,-0.094,-0.028,-1.042,0,0,0.0,False
2019-11-09 09:04:33.000,SmartbBox,-0.09,-0.029,-1.015,0,0,0.0,False
2019-11-09 09:04:33.020,SmartbBox,-0.122,-0.024,-1.038,0,0,0.0,False
2019-11-09 09:04:33.040,SmartbBox,-0.079,-0.001,-0.962,0,0,0.0,False
2019-11-09 09:04:33.060,SmartbBox,-0.057,-0.004,-1.018,0,0,0.0,False
2019-11-09 09:04:33.080,SmartbBox,-0.094,-0.057,-1.015,0,0,0.0,False
2019-11-09 09:04:33.100,SmartbBox,-0.062,-0.032,-1.019,0,0,0.0,False
2019-11-09 09:04:33.120,SmartbBox,-0.118,-0.025,-1.011,0,0,0.0,False
2019-11-09 09:04:33.140,SmartbBox,-0.086,-0.03,-0.988,0,0,0.0,False
2019-11-09 09:04:33.160,SmartbBox,-0.09,0.001,-1.041,0,0,0.0,False
2019-11-09 09:04:33.180,SmartbBox,-0.094,-0.028,-1.042,0,0,0.0,False
2019-11-09 09:04:33.200,SmartbBox,-0.086,0.0,-1.014,0,0,0.0,False
2019-11-09 09:04:33.220,SmartbBox,-0.062,-0.033,-1.019,0,0,0.0,False
2019-11-09 09:04:33.240,SmartbBox,-0.055,-0.034,-0.966,0,0,0.0,False
2019-11-09 09:04:33.260,SmartbBox,-0.09,-0.058,-0.989,0,0,0.0,False
2019-11-09 09:04:33.280,SmartbBox,-0.102,-0.055,-1.068,0,0,0.0,False
2019-11-09 09:04:33.300,SmartbBox,-0.25,0.026,-1.153,0,0,0.0,False
2019-11-09 09:04:33.320,SmartbBox,-0.27,-0.029,-1.234,0,0,0.0,False
2019-11-09 09:04:33.340,SmartbBox,-0.018,-0.007,-1.159,0,0,0.0,False
2019-11-09 09:04:33.360,SmartbBox,0.049,-0.018,-1.088,0,0,0.0,False
2019-11-09 09:04:33.380,SmartbBox,-0.172,0.016,-1.218,0,0,0.0,False
2019-11-09 09:04:33.400,SmartbBox,-0.086,0.0,-1.014,0,0,0.0,False
2019-11-09 09:04:33.420,SmartbBox,-0.012,-0.009,-1.106,0,0,0.0,False
2019-11-09 09:04:33.440,SmartbBox,-0.04,-0.035,-1.076,0,0,0.0,False
2019-11-09 09:04:33.460,SmartbBox,-0.082,-0.03,-0.962,0,0,0.0,False
2019-11-09 09:04:33.480,SmartbBox,-0.111,-0.026,-0.958,0,0,0.0,False
2019-11-09 09:04:33.500,SmartbBox,-0.058,-0.063,-0.966,0,0,0.0,False
2019-11-09 09:04:33.520,SmartbBox,-0.086,-0.03,-0.988,0,0,0.0,False
2019-11-09 09:04:33.540,SmartbBox,-0.092,0.028,-0.878,0,0,0.0,False
2019-11-09 09:04:33.560,SmartbBox,-0.068,-0.005,-0.882,0,0,0.0,False
2019-11-09 09:04:33.580,SmartbBox,-0.075,0.027,-0.961,0,0,0.0,False
2019-11-09 09:04:33.600,SmartbBox,-0.104,0.031,-0.957,0,0,0.0,False
2019-11-09 09:04:33.620,SmartbBox,-0.292,0.093,-1.307,0,0,0.0,False
2019-11-09 09:04:33.640,SmartbBox,0.022,-0.008,-1.489,0,0,0.0,False
2019-11-09 09:04:33.660,SmartbBox,-0.198,-0.01,-1.162,0,0,0.0,False
2019-11-09 09:04:33.680,SmartbBox,-0.153,0.1,-1.164,0,0,0.0,False
2019-11-09 09:04:33.700,SmartbBox,-0.059,-0.06,-1.182,0,0,0.0,False
2019-11-09 09:04:33.720,SmartbBox,0.01,-0.015,-0.947,0,0,0.0,False
2019-11-09 09:04:33.740,SmartbBox,-0.182,-0.048,-0.814,0,0,0.0,False
2019-11-09 09:04:33.760,SmartbBox,-0.042,-0.011,-0.696,0,0,0.0,False
2019-11-09 09:04:33.780,SmartbBox,0.04,0.007,-0.762,0,0,0.0,False
2019-11-09 09:04:33.800,SmartbBox,-0.034,0.012,-0.454,0,0,0.0,False
2019-11-09 09:04:33.820,SmartbBox,-0.05,0.103,-0.448,0,0,0.0,False
2019-11-09 09:04:33.840,SmartbBox,-0.077,0.083,-0.824,0,0,0.0,False
2019-11-09 09:04:33.860,SmartbBox,-0.095,0.025,-0.688,0,0,0.0,False
2019-11-09 09:04:33.880,SmartbBox,-0.048,0.016,-0.56,0,0,0.0,False
2019-11-09 09:04:33.900,SmartbBox,-0.068,-0.034,-0.856,0,0,0.0,False
2019-11-09 09:04:33.920,SmartbBox,-0.057,0.056,-1.07,0,0,0.0,False
2019-11-09 09:04:33.940,SmartbBox,-0.218,0.017,-0.915,0,0,0.0,False
2019-11-09 09:04:33.960,SmartbBox,-0.096,-0.001,-0.878,0,0,0.0,False
2019-11-09 09:04:33.980,SmartbBox,-0.087,0.004,-1.231,0,0,0.0,True
2019-11-09 09:04:34.000,SmartbBox,-0.112,0.037,-1.226,0,0,0.0,False
2019-11-09 09:04:34.020,SmartbBox,-0.16,0.039,-0.949,0,0,0.0,False
2019-11-09 09:04:34.040,SmartbBox,-0.116,0.012,-1.442,0,0,0.0,False
2019-11-09 09:04:34.060,SmartbBox,-0.072,0.033,-1.366,0,0,0.0,False
2019-11-09 09:04:34.080,SmartbBox,-0.107,0.032,-0.984,0,0,0.0,False
2019-11-09 09:04:34.100,SmartbBox,-0.128,0.067,-1.168,0,0,0.0,False
2019-11-09 09:04:34.120,SmartbBox,-0.003,0.044,-0.889,0,0,0.0,False
2019-11-09 09:04:34.140,SmartbBox,-0.05,-0.043,-0.508,0,0,0.0,False
2019-11-09 09:04:34.160,SmartbBox,0.024,0.126,-0.782,0,0,0.0,False
2019-11-09 09:04:34.180,SmartbBox,-0.206,-0.038,-1.189,0,0,0.0,False
2019-11-09 09:04:34.200,SmartbBox,-0.062,0.03,-1.287,0,0,0.0,False
2019-11-09 09:04:34.220,SmartbBox,-0.041,0.111,-1.016,0,0,0.0,False
2019-11-09 09:04:34.240,SmartbBox,-0.223,-0.004,-1.346,0,0,0.0,False
2019-11-09 09:04:34.260,SmartbBox,-0.075,0.094,-1.445,0,0,0.0,False
2019-11-09 09:04:34.280,SmartbBox,-0.082,0.062,-1.256,0,0,0.0,False
2019-11-09 09:04:34.300,SmartbBox,-0.222,0.026,-1.373,0,0,0.0,False
2019-11-09 09:04:34.320,SmartbBox,-0.098,0.007,-1.31,0,0,0.0,False
2019-11-09 09:04:34.340,SmartbBox,-0.079,0.032,-1.204,0,0,0.0,False
2019-11-09 09:04:34.360,SmartbBox,-0.136,0.01,-1.17,0,0,0.0,False
2019-11-09 09:04:34.380,SmartbBox,-0.121,0.036,-1.09,0,0,0.0,False
2019-11-09 09:04:34.400,SmartbBox,-0.085,0.03,-1.04,0,0,0.0,False
2019-11-09 09:04:34.420,SmartbBox,-0.05,0.024,-0.992,0,0,0.0,False
2019-11-09 09:04:34.440,SmartbBox,-0.07,0.056,-0.96,0,0,0.0,False
2019-11-09 09:04:34.460,SmartbBox,-0.067,0.025,-0.908,0,0,0.0,False
2019-11-09 09:04:34.480,SmartbBox,-0.064,0.024,-0.882,0,0,0.0,False
2019-11-09 09:04:34.500,SmartbBox,-0.064,0.024,-0.882,0,0,0.0,False
2019-11-09 09:04:34.520,SmartbBox,-0.028,0.018,-0.832,0,0,0.0,False
2019-11-09 09:04:34.540,SmartbBox,-0.064,-0.006,-0.855,0,0,0.0,False
2019-11-09 09:04:34.560,SmartbBox,-0.064,-0.006,-0.856,0,0,0.0,False
2019-11-09 09:04:34.580,SmartbBox,-0.035,0.02,-0.886,0,0,0.0,False
2019-11-09 09:04:34.600,SmartbBox,-0.071,0.026,-0.934,0,0,0.0,False
2019-11-09 09:04:34.620,SmartbBox,-0.046,0.023,-0.965,0,0,0.0,False
2019-11-09 09:04:34.640,SmartbBox,-0.075,0.056,-0.987,0,0,0.0,False
2019-11-09 09:04:34.660,SmartbBox,-0.078,0.028,-0.988,0,0,0.0,False
2019-11-09 09:04:34.680,SmartbBox,-0.05,0.024,-0.992,0,0,0.0,False
2019-11-09 09:04:34.700,SmartbBox,-0.085,0.03,-1.04,0,0,0.0,False
2019-11-09 09:04:34.720,SmartbBox,-0.097,-0.027,-1.068,0,0,0.0,False
2019-11-09 09:04:34.740,SmartbBox,-0.089,0.031,-1.067,0,0,0.0,False
2019-11-09 09:04:34.760,SmartbBox,-0.09,0.031,-1.067,0,0,0.0,False
2019-11-09 09:04:34.780,SmartbBox,-0.064,0.028,-1.098,0,0,0.0,False
2019-11-09 09:04:34.800,SmartbBox,-0.097,0.003,-1.094,0,0,0.0,False
2019-11-09 09:04:34.820,SmartbBox,-0.068,-0.001,-1.098,0,0,0.0,False
2019-11-09 09:04:34.840,SmartbBox,-0.093,0.032,-1.094,0,0,0.0,False
2019-11-09 09:04:34.860,SmartbBox,-0.064,0.028,-1.098,0,0,0.0,False
2019-11-09 09:04:34.880,SmartbBox,-0.064,-0.002,-1.072,0,0,0.0,False
2019-11-09 09:04:34.900,SmartbBox,-0.089,0.031,-1.067,0,0,0.0,False
2019-11-09 09:04:34.920,SmartbBox,-0.046,0.023,-0.965,0,0,0.0,False
2019-11-09 09:04:34.940,SmartbBox,-0.038,0.05,-0.938,0,0,0.0,False
2019-11-09 09:04:34.960,SmartbBox,-0.054,-0.005,-0.992,0,0,0.0,False
2019-11-09 09:04:34.980,SmartbBox,-0.086,0.001,-1.014,0,0,0.0,False
2019-11-09 09:04:35.000,SmartbBox,-0.132,0.006,-0.927,0,0,0.0,False
2019-11-09 09:04:35.020,SmartbBox,-0.014,0.018,-0.942,0,0,0.0,False
2019-11-09 09:04:35.040,SmartbBox,-0.124,0.066,-1.142,0,0,0.0,False
2019-11-09 09:04:35.060,SmartbBox,-0.178,0.014,-1.055,0,0,0.0,False
2019-11-09 09:04:35.080,SmartbBox,-0.027,0.077,-0.885,0,0,0.0,False
2019-11-09 09:04:35.100,SmartbBox,-0.003,0.048,-1.105,0,0,0.0,False
2019-11-09 09:04:35.120,SmartbBox,-0.093,0.032,-1.094,0,0,0.0,False
2019-11-09 09:04:35.140,SmartbBox,-0.172,0.012,-1.002,0,0,0.0,False
2019-11-09 09:04:35.160,SmartbBox,-0.086,0.03,-1.04,0,0,0.0,False
2019-11-09 09:04:35.180,SmartbBox,-0.036,0.024,-1.102,0,0,0.0,False
2019-11-09 09:04:35.200,SmartbBox,-0.143,0.038,-1.033,0,0,0.0,False
2019-11-09 09:04:35.220,SmartbBox,-0.188,0.073,-0.971,0,0,0.0,False
2019-11-09 09:04:35.240,SmartbBox,-0.118,0.035,-1.063,0,0,0.0,False
2019-11-09 09:04:35.260,SmartbBox,-0.114,0.034,-1.037,0,0,0.0,False
2019-11-09 09:04:35.280,SmartbBox,-0.111,-0.03,-0.742,0,0,0.0,False
2019-11-09 09:04:35.300,SmartbBox,-0.218,-0.012,-0.889,0,0,0.0,False
2019-11-09 09:04:35.320,SmartbBox,-0.186,0.016,-1.108,0,0,0.0,False
2019-11-09 09:04:35.340,SmartbBox,-0.114,0.034,-1.036,0,0,0.0,False
2019-11-09 09:04:35.360,SmartbBox,-0.148,0.095,-0.922,0,0,0.0,False
2019-11-09 09:04:35.380,SmartbBox,-0.263,0.115,-1.121,0,0,0.0,False
2019-11-09 09:04:35.400,SmartbBox,-0.132,0.098,-1.221,0,0,0.0,False
2019-11-09 09:04:35.420,SmartbBox,-0.178,0.044,-1.082,0,0,0.0,False
2019-11-09 09:04:35.440,SmartbBox,-0.128,0.034,-0.926,0,0,0.0,False
2019-11-09 09:04:35.460,SmartbBox,-0.122,0.006,-1.064,0,0,0.0,False
