UTC_timestamp,device_name,x,y,z,lat,long,speed,event
2019-10-27 16:02:50.480,SmartbBox,0.012,-0.008,-0.899,0,0,0.0,False
2019-10-27 16:02:50.500,SmartbBox,0.009,-0.008,-0.872,0,0,0.0,False
2019-10-27 16:02:50.520,SmartbBox,-0.008,0.017,-0.847,0,0,0.0,False
2019-10-27 16:02:50.540,SmartbBox,-0.082,0.035,-0.907,0,0,0.0,False
2019-10-27 16:02:50.560,SmartbBox,-0.044,0.154,-0.984,0,0,0.0,False
2019-10-27 16:02:50.580,SmartbBox,-0.076,0.202,-0.96,0,0,0.0,False
2019-10-27 16:02:50.600,SmartbBox,-0.12,0.172,-1.042,0,0,0.0,False
2019-10-27 16:02:50.620,SmartbBox,-0.15,0.197,-0.86,0,0,0.0,False
2019-10-27 16:02:50.640,SmartbBox,0.021,0.136,-0.818,0,0,0.0,False
2019-10-27 16:02:50.660,SmartbBox,-0.027,0.169,-0.902,0,0,0.0,False
2019-10-27 16:02:50.680,SmartbBox,0.102,0.038,-1.076,0,0,0.0,False
2019-10-27 16:02:50.700,SmartbBox,-0.012,0.065,-1.139,0,0,0.0,False
2019-10-27 16:02:50.720,SmartbBox,0.046,0.008,-1.002,0,0,0.0,False
2019-10-27 16:02:50.740,SmartbBox,-0.065,0.138,-1.038,0,0,0.0,False
2019-10-27 16:02:50.760,SmartbBox,-0.146,0.26,-0.966,0,0,0.0,False
2019-10-27 16:02:50.780,SmartbBox,-0.118,0.212,-0.936,0,0,0.0,False
2019-10-27 16:02:50.800,SmartbBox,-0.102,0.188,-0.962,0,0,0.0,False
2019-10-27 16:02:50.820,SmartbBox,-0.022,0.105,-0.902,0,0,0.0,False
2019-10-27 16:02:50.840,SmartbBox,-0.013,0.041,-0.954,0,0,0.0,False
2019-10-27 16:02:50.860,SmartbBox,0.007,-0.008,-0.846,0,0,0.0,False
2019-10-27 16:02:50.880,SmartbBox,0.038,-0.056,-0.87,0,0,0.0,False
2019-10-27 16:02:50.900,SmartbBox,0.04,-0.12,-0.843,0,0,0.0,False
2019-10-27 16:02:50.920,SmartbBox,0.042,-0.017,-0.79,0,0,0.0,False
2019-10-27 16:02:50.940,SmartbBox,-0.04,0.002,-0.77,0,0,0.0,False
2019-10-27 16:02:50.960,SmartbBox,-0.11,0.06,-0.75,0,0,0.0,False
2019-10-27 16:02:50.980,SmartbBox,-0.068,0.05,-0.774,0,0,0.0,False
2019-10-27 16:02:51.000,SmartbBox,-0.044,0.13,-0.824,0,0,0.0,False
2019-10-27 16:02:51.020,SmartbBox,-0.024,0.042,-0.822,0,0,0.0,False
2019-10-27 16:02:51.040,SmartbBox,-0.028,0.065,-0.955,0,0,0.0,False
2019-10-27 16:02:51.060,SmartbBox,-0.057,-0.014,-0.852,0,0,0.0,False
2019-10-27 16:02:51.080,SmartbBox,0.001,-0.008,-0.768,0,0,0.0,False
2019-10-27 16:02:51.100,SmartbBox,-0.069,-0.013,-0.72,0,0,0.0,False
2019-10-27 16:02:51.120,SmartbBox,-0.073,0.051,-0.72,0,0,0.0,False
2019-10-27 16:02:51.140,SmartbBox,-0.068,0.051,-0.773,0,0,0.0,False
2019-10-27 16:02:51.160,SmartbBox,-0.084,0.012,-0.722,0,0,0.0,False
2019-10-27 16:02:51.180,SmartbBox,-0.056,0.027,-0.746,0,0,0.0,False
2019-10-27 16:02:51.200,SmartbBox,-0.084,0.075,-0.774,0,0,0.0,False
2019-10-27 16:02:51.220,SmartbBox,0.008,0.12,-0.952,0,0,0.0,False
2019-10-27 16:02:51.240,SmartbBox,-0.078,0.099,-1.012,0,0,0.0,False
2019-10-27 16:02:51.260,SmartbBox,-0.006,0.105,-1.086,0,0,0.0,False
2019-10-27 16:02:51.280,SmartbBox,-0.007,0.04,-1.032,0,0,0.0,False
2019-10-27 16:02:51.300,SmartbBox,-0.092,0.06,-0.961,0,0,0.0,False
2019-10-27 16:02:51.320,SmartbBox,0.068,0.15,-1.08,0,0,0.0,False
2019-10-27 16:02:51.340,SmartbBox,-0.068,0.162,-1.17,0,0,0.0,False
2019-10-27 16:02:51.360,SmartbBox,-0.057,0.266,-1.248,0,0,0.0,False
2019-10-27 16:02:51.380,SmartbBox,-0.075,0.29,-1.198,0,0,0.0,False
2019-10-27 16:02:51.400,SmartbBox,0.061,0.198,-1.345,0,0,0.0,False
2019-10-27 16:02:51.420,SmartbBox,-0.043,0.074,-1.247,0,0,0.0,False
2019-10-27 16:02:51.440,SmartbBox,-0.09,0.02,-1.119,0,0,0.0,False
2019-10-27 16:02:51.460,SmartbBox,-0.04,0.09,-0.982,0,0,0.0,False
2019-10-27 16:02:51.480,SmartbBox,-0.02,0.042,-0.875,0,0,0.0,False
2019-10-27 16:02:51.500,SmartbBox,0.015,0.096,-0.872,0,0,0.0,False
2019-10-27 16:02:51.520,SmartbBox,-0.091,0.035,-0.802,0,0,0.0,False
2019-10-27 16:02:51.540,SmartbBox,-0.044,0.13,-0.824,0,0,0.0,False
2019-10-27 16:02:51.560,SmartbBox,0.021,0.136,-0.819,0,0,0.0,False
2019-10-27 16:02:51.580,SmartbBox,-0.048,0.026,-0.85,0,0,0.0,False
2019-10-27 16:02:51.600,SmartbBox,-0.05,0.026,-0.824,0,0,0.0,False
2019-10-27 16:02:51.620,SmartbBox,-0.09,0.076,-0.696,0,0,0.0,False
2019-10-27 16:02:51.640,SmartbBox,-0.046,0.002,-0.692,0,0,0.0,False
2019-10-27 16:02:51.660,SmartbBox,-0.064,-0.038,-0.613,0,0,0.0,False
2019-10-27 16:02:51.680,SmartbBox,-0.038,-0.086,-0.558,0,0,0.0,False
2019-10-27 16:02:51.700,SmartbBox,0.016,-0.056,-0.607,0,0,0.0,False
2019-10-27 16:02:51.720,SmartbBox,0.01,-0.032,-0.714,0,0,0.0,False
2019-10-27 16:02:51.740,SmartbBox,0.001,-0.008,-0.768,0,0,0.0,False
2019-10-27 16:02:51.760,SmartbBox,-0.022,-0.022,-0.796,0,0,0.0,False
2019-10-27 16:02:51.780,SmartbBox,-0.03,-0.022,-0.716,0,0,0.0,False
2019-10-27 16:02:51.800,SmartbBox,0.032,0.008,-0.844,0,0,0.0,False
2019-10-27 16:02:51.820,SmartbBox,-0.032,0.066,-0.902,0,0,0.0,False
2019-10-27 16:02:51.840,SmartbBox,-0.067,0.011,-0.906,0,0,0.0,False
2019-10-27 16:02:51.860,SmartbBox,-0.041,0.026,-0.93,0,0,0.0,False
2019-10-27 16:02:51.880,SmartbBox,-0.041,0.026,-0.93,0,0,0.0,False
2019-10-27 16:02:51.900,SmartbBox,-0.062,0.011,-0.984,0,0,0.0,False
2019-10-27 16:02:51.920,SmartbBox,-0.054,0.05,-0.957,0,0,0.0,False
2019-10-27 16:02:51.940,SmartbBox,-0.02,0.065,-1.06,0,0,0.0,False
2019-10-27 16:02:51.960,SmartbBox,-0.015,0.065,-1.113,0,0,0.0,False
2019-10-27 16:02:51.980,SmartbBox,-0.094,0.084,-1.119,0,0,0.0,True
2019-10-27 16:02:52.000,SmartbBox,-0.02,0.065,-1.06,0,0,0.0,False
2019-10-27 16:02:52.020,SmartbBox,-0.036,0.09,-1.035,0,0,0.0,False
2019-10-27 16:02:52.040,SmartbBox,-0.1,0.084,-1.04,0,0,0.0,False
2019-10-27 16:02:52.060,SmartbBox,-0.109,0.084,-0.936,0,0,0.0,False
2019-10-27 16:02:52.080,SmartbBox,-0.095,0.124,-0.987,0,0,0.0,False
2019-10-27 16:02:52.100,SmartbBox,-0.084,0.163,-0.986,0,0,0.0,False
2019-10-27 16:02:52.120,SmartbBox,-0.139,0.133,-0.938,0,0,0.0,False
2019-10-27 16:02:52.140,SmartbBox,-0.102,0.06,-0.856,0,0,0.0,False
2019-10-27 16:02:52.160,SmartbBox,-0.037,0.066,-0.85,0,0,0.0,False
2019-10-27 16:02:52.180,SmartbBox,-0.03,0.002,-0.876,0,0,0.0,False
2019-10-27 16:02:52.200,SmartbBox,-0.006,0.017,-0.874,0,0,0.0,False
2019-10-27 16:02:52.220,SmartbBox,0.015,0.16,-0.925,0,0,0.0,False
2019-10-27 16:02:52.240,SmartbBox,0.014,0.184,-1.084,0,0,0.0,False
2019-10-27 16:02:52.260,SmartbBox,-0.107,0.148,-1.014,0,0,0.0,False
2019-10-27 16:02:52.280,SmartbBox,-0.108,0.188,-0.883,0,0,0.0,False
2019-10-27 16:02:52.300,SmartbBox,-0.037,0.13,-0.903,0,0,0.0,False
2019-10-27 16:02:52.320,SmartbBox,0.001,-0.047,-0.899,0,0,0.0,False
2019-10-27 16:02:52.340,SmartbBox,0.012,-0.008,-0.899,0,0,0.0,False
2019-10-27 16:02:52.360,SmartbBox,0.009,-0.008,-0.872,0,0,0.0,False
2019-10-27 16:02:52.380,SmartbBox,-0.03,-0.062,-0.822,0,0,0.0,False
2019-10-27 16:02:52.400,SmartbBox,0.028,-0.056,-0.738,0,0,0.0,False
2019-10-27 16:02:52.420,SmartbBox,-0.004,-0.071,-0.662,0,0,0.0,False
2019-10-27 16:02:52.440,SmartbBox,-0.036,0.042,-0.691,0,0,0.0,False
2019-10-27 16:02:52.460,SmartbBox,-0.044,0.066,-0.771,0,0,0.0,False
2019-10-27 16:02:52.480,SmartbBox,-0.026,0.042,-0.796,0,0,0.0,False
2019-10-27 16:02:52.500,SmartbBox,-0.066,-0.013,-0.746,0,0,0.0,False
2019-10-27 16:02:52.520,SmartbBox,-0.074,-0.013,-0.668,0,0,0.0,False
2019-10-27 16:02:52.540,SmartbBox,0.034,0.111,-0.792,0,0,0.0,False
2019-10-27 16:02:52.560,SmartbBox,-0.03,0.002,-0.876,0,0,0.0,False
2019-10-27 16:02:52.580,SmartbBox,-0.033,0.002,-0.849,0,0,0.0,False
2019-10-27 16:02:52.600,SmartbBox,0.0,-0.008,-0.767,0,0,0.0,False
2019-10-27 16:02:52.620,SmartbBox,0.042,0.047,-0.843,0,0,0.0,False
2019-10-27 16:02:52.640,SmartbBox,-0.026,0.065,-0.981,0,0,0.0,False
2019-10-27 16:02:52.660,SmartbBox,-0.049,0.05,-1.01,0,0,0.0,False
2019-10-27 16:02:52.680,SmartbBox,0.031,0.096,-1.056,0,0,0.0,False
2019-10-27 16:02:52.700,SmartbBox,0.056,0.11,-1.054,0,0,0.0,False
2019-10-27 16:02:52.720,SmartbBox,-0.014,0.129,-1.166,0,0,0.0,False
2019-10-27 16:02:52.740,SmartbBox,-0.033,0.154,-1.114,0,0,0.0,False
2019-10-27 16:02:52.760,SmartbBox,-0.006,0.04,-1.032,0,0,0.0,False
2019-10-27 16:02:52.780,SmartbBox,-0.04,0.09,-0.983,0,0,0.0,False
2019-10-27 16:02:52.800,SmartbBox,-0.052,0.09,-0.851,0,0,0.0,False
2019-10-27 16:02:52.820,SmartbBox,-0.045,0.09,-0.93,0,0,0.0,False
2019-10-27 16:02:52.840,SmartbBox,-0.107,0.084,-0.962,0,0,0.0,False
2019-10-27 16:02:52.860,SmartbBox,-0.052,0.09,-0.851,0,0,0.0,False
2019-10-27 16:02:52.880,SmartbBox,-0.089,0.035,-0.828,0,0,0.0,False
2019-10-27 16:02:52.900,SmartbBox,-0.033,0.002,-0.849,0,0,0.0,False
2019-10-27 16:02:52.920,SmartbBox,-0.048,0.026,-0.85,0,0,0.0,False
2019-10-27 16:02:52.940,SmartbBox,-0.079,0.012,-0.774,0,0,0.0,False
2019-10-27 16:02:52.960,SmartbBox,0.026,0.072,-0.818,0,0,0.0,False
2019-10-27 16:02:52.980,SmartbBox,-0.006,0.08,-0.926,0,0,0.0,False
2019-10-27 16:02:53.000,SmartbBox,-0.038,0.026,-0.956,0,0,0.0,False
2019-10-27 16:02:53.020,SmartbBox,0.02,0.032,-0.871,0,0,0.0,False
2019-10-27 16:02:53.040,SmartbBox,-0.022,0.042,-0.848,0,0,0.0,False
2019-10-27 16:02:53.060,SmartbBox,0.005,0.056,-0.873,0,0,0.0,False
2019-10-27 16:02:53.080,SmartbBox,0.028,0.032,-0.976,0,0,0.0,False
2019-10-27 16:02:53.100,SmartbBox,-0.051,-0.014,-0.931,0,0,0.0,False
2019-10-27 16:02:53.120,SmartbBox,0.012,-0.008,-0.899,0,0,0.0,False
2019-10-27 16:02:53.140,SmartbBox,0.014,-0.008,-0.925,0,0,0.0,False
2019-10-27 16:02:53.160,SmartbBox,0.006,0.016,-1.005,0,0,0.0,False
2019-10-27 16:02:53.180,SmartbBox,-0.047,0.05,-1.036,0,0,0.0,False
2019-10-27 16:02:53.200,SmartbBox,-0.028,0.065,-0.955,0,0,0.0,False
2019-10-27 16:02:53.220,SmartbBox,0.022,0.032,-0.898,0,0,0.0,False
2019-10-27 16:02:53.240,SmartbBox,-0.04,0.026,-0.93,0,0,0.0,False
2019-10-27 16:02:53.260,SmartbBox,-0.076,0.011,-0.8,0,0,0.0,False
2019-10-27 16:02:53.280,SmartbBox,-0.014,0.017,-0.768,0,0,0.0,False
2019-10-27 16:02:53.300,SmartbBox,-0.027,-0.022,-0.743,0,0,0.0,False
2019-10-27 16:02:53.320,SmartbBox,-0.044,0.002,-0.718,0,0,0.0,False
2019-10-27 16:02:53.340,SmartbBox,-0.028,0.066,-0.955,0,0,0.0,False
2019-10-27 16:02:53.360,SmartbBox,-0.116,0.084,-0.856,0,0,0.0,False
2019-10-27 16:02:53.380,SmartbBox,-0.056,0.05,-0.931,0,0,0.0,False
2019-10-27 16:02:53.400,SmartbBox,-0.052,0.09,-0.851,0,0,0.0,False
2019-10-27 16:02:53.420,SmartbBox,-0.064,0.05,-0.826,0,0,0.0,False
2019-10-27 16:02:53.440,SmartbBox,-0.042,0.026,-0.904,0,0,0.0,False
2019-10-27 16:02:53.460,SmartbBox,-0.02,0.105,-0.928,0,0,0.0,False
