UTC_timestamp,device_name,x,y,z,lat,long,speed,event
2019-10-24 16:58:52.480,SmartbBox,-0.322,0.052,-1.033,0,0,0.0,False
2019-10-24 16:58:52.500,SmartbBox,-0.275,0.122,-0.87,0,0,0.0,False
2019-10-24 16:58:52.520,SmartbBox,-0.198,0.103,-0.837,0,0,0.0,False
2019-10-24 16:58:52.540,SmartbBox,-0.13,0.172,-0.911,0,0,0.0,False
2019-10-24 16:58:52.560,SmartbBox,-0.256,0.033,-0.868,0,0,0.0,False
2019-10-24 16:58:52.580,SmartbBox,-0.24,0.048,-0.762,0,0,0.0,False
2019-10-24 16:58:52.600,SmartbBox,0.018,0.032,-0.845,0,0,0.0,False
2019-10-24 16:58:52.620,SmartbBox,-0.011,0.041,-0.98,0,0,0.0,False
2019-10-24 16:58:52.640,SmartbBox,-0.114,-0.044,-0.777,0,0,0.0,False
2019-10-24 16:58:52.660,SmartbBox,-0.073,0.051,-0.721,0,0,0.0,False
2019-10-24 16:58:52.680,SmartbBox,0.028,0.136,-0.898,0,0,0.0,False
2019-10-24 16:58:52.700,SmartbBox,0.049,0.111,-0.975,0,0,0.0,False
2019-10-24 16:58:52.720,SmartbBox,-0.006,0.056,-0.742,0,0,0.0,False
2019-10-24 16:58:52.740,SmartbBox,0.108,0.22,-0.837,0,0,0.0,False
2019-10-24 16:58:52.760,SmartbBox,0.182,0.226,-0.938,0,0,0.0,False
2019-10-24 16:58:52.780,SmartbBox,0.207,0.305,-0.988,0,0,0.0,False
2019-10-24 16:58:52.800,SmartbBox,0.099,0.141,-0.971,0,0,0.0,False
2019-10-24 16:58:52.820,SmartbBox,0.183,0.122,-1.016,0,0,0.0,False
2019-10-24 16:58:52.840,SmartbBox,0.114,0.116,-0.97,0,0,0.0,False
2019-10-24 16:58:52.860,SmartbBox,0.028,0.135,-0.898,0,0,0.0,False
2019-10-24 16:58:52.880,SmartbBox,0.014,0.12,-1.031,0,0,0.0,False
2019-10-24 16:58:52.900,SmartbBox,0.007,0.056,-0.899,0,0,0.0,False
2019-10-24 16:58:52.920,SmartbBox,-0.032,-0.038,-0.982,0,0,0.0,False
2019-10-24 16:58:52.940,SmartbBox,-0.024,0.042,-0.822,0,0,0.0,False
2019-10-24 16:58:52.960,SmartbBox,0.031,-0.032,-0.95,0,0,0.0,False
2019-10-24 16:58:52.980,SmartbBox,-0.02,-0.062,-0.954,0,0,0.0,False
2019-10-24 16:58:53.000,SmartbBox,-0.091,-0.005,-0.934,0,0,0.0,False
2019-10-24 16:58:53.020,SmartbBox,-0.05,0.027,-0.824,0,0,0.0,False
2019-10-24 16:58:53.040,SmartbBox,-0.012,0.041,-0.98,0,0,0.0,False
2019-10-24 16:58:53.060,SmartbBox,-0.024,0.066,-1.008,0,0,0.0,False
2019-10-24 16:58:53.080,SmartbBox,-0.066,0.011,-0.932,0,0,0.0,False
2019-10-24 16:58:53.100,SmartbBox,-0.053,0.05,-0.957,0,0,0.0,False
2019-10-24 16:58:53.120,SmartbBox,-0.043,0.09,-0.956,0,0,0.0,False
2019-10-24 16:58:53.140,SmartbBox,-0.018,0.105,-0.954,0,0,0.0,False
2019-10-24 16:58:53.160,SmartbBox,0.014,0.056,-0.978,0,0,0.0,False
2019-10-24 16:58:53.180,SmartbBox,0.029,0.096,-1.029,0,0,0.0,False
2019-10-24 16:58:53.200,SmartbBox,-0.032,0.129,-0.956,0,0,0.0,False
2019-10-24 16:58:53.220,SmartbBox,0.04,0.174,-0.923,0,0,0.0,False
2019-10-24 16:58:53.240,SmartbBox,-0.012,0.145,-0.901,0,0,0.0,False
2019-10-24 16:58:53.260,SmartbBox,-0.056,0.154,-0.852,0,0,0.0,False
2019-10-24 16:58:53.280,SmartbBox,0.017,0.199,-0.82,0,0,0.0,False
2019-10-24 16:58:53.300,SmartbBox,0.214,0.074,-1.04,0,0,0.0,False
2019-10-24 16:58:53.320,SmartbBox,0.094,-0.066,-1.05,0,0,0.0,False
2019-10-24 16:58:53.340,SmartbBox,0.082,-0.002,-0.972,0,0,0.0,False
2019-10-24 16:58:53.360,SmartbBox,0.003,0.12,-0.9,0,0,0.0,False
2019-10-24 16:58:53.380,SmartbBox,0.068,0.022,-0.974,0,0,0.0,False
2019-10-24 16:58:53.400,SmartbBox,0.043,0.071,-1.029,0,0,0.0,False
2019-10-24 16:58:53.420,SmartbBox,-0.058,-0.013,-0.852,0,0,0.0,False
2019-10-24 16:58:53.440,SmartbBox,-0.003,0.017,-0.9,0,0,0.0,False
2019-10-24 16:58:53.460,SmartbBox,-0.003,0.016,-0.9,0,0,0.0,False
2019-10-24 16:58:53.480,SmartbBox,-0.038,-0.038,-0.902,0,0,0.0,False
2019-10-24 16:58:53.500,SmartbBox,-0.003,0.016,-0.9,0,0,0.0,False
2019-10-24 16:58:53.520,SmartbBox,0.016,0.056,-1.004,0,0,0.0,False
2019-10-24 16:58:53.540,SmartbBox,-0.006,-0.023,-0.98,0,0,0.0,False
2019-10-24 16:58:53.560,SmartbBox,-0.03,0.065,-0.928,0,0,0.0,False
2019-10-24 16:58:53.580,SmartbBox,0.032,0.072,-0.897,0,0,0.0,False
2019-10-24 16:58:53.600,SmartbBox,-0.001,0.08,-0.98,0,0,0.0,False
2019-10-24 16:58:53.620,SmartbBox,0.022,0.096,-0.951,0,0,0.0,False
2019-10-24 16:58:53.640,SmartbBox,0.074,0.126,-0.973,0,0,0.0,False
2019-10-24 16:58:53.660,SmartbBox,-0.01,0.145,-0.927,0,0,0.0,False
2019-10-24 16:58:53.680,SmartbBox,-0.024,0.105,-0.875,0,0,0.0,False
2019-10-24 16:58:53.700,SmartbBox,-0.05,0.09,-0.878,0,0,0.0,False
2019-10-24 16:58:53.720,SmartbBox,-0.015,0.081,-0.821,0,0,0.0,False
2019-10-24 16:58:53.740,SmartbBox,0.002,0.056,-0.846,0,0,0.0,False
2019-10-24 16:58:53.760,SmartbBox,0.099,0.14,-0.97,0,0,0.0,False
2019-10-24 16:58:53.780,SmartbBox,-0.012,0.041,-0.98,0,0,0.0,False
2019-10-24 16:58:53.800,SmartbBox,-0.013,0.041,-0.954,0,0,0.0,False
2019-10-24 16:58:53.820,SmartbBox,0.005,0.12,-0.926,0,0,0.0,False
2019-10-24 16:58:53.840,SmartbBox,-0.022,0.105,-0.902,0,0,0.0,False
2019-10-24 16:58:53.860,SmartbBox,-0.085,0.099,-0.933,0,0,0.0,False
2019-10-24 16:58:53.880,SmartbBox,0.005,0.056,-0.873,0,0,0.0,False
2019-10-24 16:58:53.900,SmartbBox,0.091,0.102,-0.998,0,0,0.0,False
2019-10-24 16:58:53.920,SmartbBox,-0.037,0.026,-0.982,0,0,0.0,False
2019-10-24 16:58:53.940,SmartbBox,0.008,0.016,-1.031,0,0,0.0,False
2019-10-24 16:58:53.960,SmartbBox,0.02,-0.008,-1.003,0,0,0.0,False
2019-10-24 16:58:53.980,SmartbBox,0.018,0.056,-1.03,0,0,0.0,True
2019-10-24 16:58:54.000,SmartbBox,0.014,-0.008,-0.925,0,0,0.0,False
2019-10-24 16:58:54.020,SmartbBox,0.028,0.096,-1.03,0,0,0.0,False
2019-10-24 16:58:54.040,SmartbBox,-0.014,0.041,-0.954,0,0,0.0,False
2019-10-24 16:58:54.060,SmartbBox,0.053,0.047,-0.974,0,0,0.0,False
2019-10-24 16:58:54.080,SmartbBox,-0.001,0.08,-0.979,0,0,0.0,False
2019-10-24 16:58:54.100,SmartbBox,0.031,0.032,-1.003,0,0,0.0,False
2019-10-24 16:58:54.120,SmartbBox,0.001,0.017,-0.952,0,0,0.0,False
2019-10-24 16:58:54.140,SmartbBox,-0.001,0.017,-0.926,0,0,0.0,False
2019-10-24 16:58:54.160,SmartbBox,0.066,0.022,-0.947,0,0,0.0,False
2019-10-24 16:58:54.180,SmartbBox,0.001,0.017,-0.952,0,0,0.0,False
2019-10-24 16:58:54.200,SmartbBox,0.051,0.047,-0.948,0,0,0.0,False
2019-10-24 16:58:54.220,SmartbBox,-0.039,0.066,-0.824,0,0,0.0,False
2019-10-24 16:58:54.240,SmartbBox,0.042,0.111,-0.896,0,0,0.0,False
2019-10-24 16:58:54.260,SmartbBox,0.001,0.056,-0.82,0,0,0.0,False
2019-10-24 16:58:54.280,SmartbBox,-0.089,0.036,-0.828,0,0,0.0,False
2019-10-24 16:58:54.300,SmartbBox,-0.056,0.09,-0.798,0,0,0.0,False
2019-10-24 16:58:54.320,SmartbBox,0.053,0.047,-0.974,0,0,0.0,False
2019-10-24 16:58:54.340,SmartbBox,-0.043,0.026,-0.904,0,0,0.0,False
2019-10-24 16:58:54.360,SmartbBox,-0.015,0.041,-0.928,0,0,0.0,False
2019-10-24 16:58:54.380,SmartbBox,0.011,0.056,-0.952,0,0,0.0,False
2019-10-24 16:58:54.400,SmartbBox,-0.003,0.08,-0.953,0,0,0.0,False
2019-10-24 16:58:54.420,SmartbBox,0.084,0.165,-0.972,0,0,0.0,False
2019-10-24 16:58:54.440,SmartbBox,-0.026,0.065,-0.982,0,0,0.0,False
2019-10-24 16:58:54.460,SmartbBox,-0.008,0.105,-1.06,0,0,0.0,False
2019-10-24 16:58:54.480,SmartbBox,-0.003,0.08,-0.953,0,0,0.0,False
2019-10-24 16:58:54.500,SmartbBox,0.027,0.032,-0.95,0,0,0.0,False
2019-10-24 16:58:54.520,SmartbBox,0.062,-0.017,-1.026,0,0,0.0,False
2019-10-24 16:58:54.540,SmartbBox,0.018,-0.008,-0.977,0,0,0.0,False
2019-10-24 16:58:54.560,SmartbBox,0.052,0.047,-0.948,0,0,0.0,False
2019-10-24 16:58:54.580,SmartbBox,0.053,0.047,-0.974,0,0,0.0,False
2019-10-24 16:58:54.600,SmartbBox,-0.004,0.04,-1.058,0,0,0.0,False
2019-10-24 16:58:54.620,SmartbBox,0.01,0.056,-0.926,0,0,0.0,False
2019-10-24 16:58:54.640,SmartbBox,-0.013,0.041,-0.954,0,0,0.0,False
2019-10-24 16:58:54.660,SmartbBox,-0.03,0.002,-0.876,0,0,0.0,False
2019-10-24 16:58:54.680,SmartbBox,-0.043,0.026,-0.903,0,0,0.0,False
2019-10-24 16:58:54.700,SmartbBox,-0.026,0.002,-0.929,0,0,0.0,False
2019-10-24 16:58:54.720,SmartbBox,-0.03,0.002,-0.876,0,0,0.0,False
2019-10-24 16:58:54.740,SmartbBox,0.028,0.032,-0.976,0,0,0.0,False
2019-10-24 16:58:54.760,SmartbBox,0.039,0.072,-0.976,0,0,0.0,False
2019-10-24 16:58:54.780,SmartbBox,-0.024,0.002,-0.955,0,0,0.0,False
2019-10-24 16:58:54.800,SmartbBox,0.012,0.056,-0.952,0,0,0.0,False
2019-10-24 16:58:54.820,SmartbBox,-0.02,0.042,-0.875,0,0,0.0,False
2019-10-24 16:58:54.840,SmartbBox,-0.035,0.066,-0.876,0,0,0.0,False
2019-10-24 16:58:54.860,SmartbBox,-0.037,0.066,-0.85,0,0,0.0,False
2019-10-24 16:58:54.880,SmartbBox,-0.006,0.017,-0.874,0,0,0.0,False
2019-10-24 16:58:54.900,SmartbBox,0.01,0.056,-0.926,0,0,0.0,False
2019-10-24 16:58:54.920,SmartbBox,0.024,0.032,-0.924,0,0,0.0,False
2019-10-24 16:58:54.940,SmartbBox,-0.006,0.017,-0.874,0,0,0.0,False
2019-10-24 16:58:54.960,SmartbBox,-0.01,0.017,-0.821,0,0,0.0,False
2019-10-24 16:58:54.980,SmartbBox,-0.068,0.051,-0.773,0,0,0.0,False
2019-10-24 16:58:55.000,SmartbBox,0.063,0.126,-0.842,0,0,0.0,False
2019-10-24 16:58:55.020,SmartbBox,0.057,0.15,-0.948,0,0,0.0,False
2019-10-24 16:58:55.040,SmartbBox,-0.151,0.158,-0.966,0,0,0.0,False
2019-10-24 16:58:55.060,SmartbBox,-0.03,0.066,-0.929,0,0,0.0,False
2019-10-24 16:58:55.080,SmartbBox,0.089,0.038,-0.919,0,0,0.0,False
2019-10-24 16:58:55.100,SmartbBox,-0.062,0.011,-0.984,0,0,0.0,False
2019-10-24 16:58:55.120,SmartbBox,-0.038,0.026,-0.956,0,0,0.0,False
2019-10-24 16:58:55.140,SmartbBox,0.028,0.032,-0.976,0,0,0.0,False
2019-10-24 16:58:55.160,SmartbBox,-0.012,0.041,-0.98,0,0,0.0,False
2019-10-24 16:58:55.180,SmartbBox,-0.026,0.065,-0.982,0,0,0.0,False
2019-10-24 16:58:55.200,SmartbBox,0.018,0.056,-1.03,0,0,0.0,False
2019-10-24 16:58:55.220,SmartbBox,0.006,0.08,-1.058,0,0,0.0,False
2019-10-24 16:58:55.240,SmartbBox,0.036,0.031,-1.055,0,0,0.0,False
2019-10-24 16:58:55.260,SmartbBox,0.01,0.016,-1.057,0,0,0.0,False
2019-10-24 16:58:55.280,SmartbBox,0.041,0.071,-1.002,0,0,0.0,False
2019-10-24 16:58:55.300,SmartbBox,-0.026,0.065,-0.982,0,0,0.0,False
2019-10-24 16:58:55.320,SmartbBox,-0.001,0.08,-0.98,0,0,0.0,False
2019-10-24 16:58:55.340,SmartbBox,-0.035,0.066,-0.876,0,0,0.0,False
2019-10-24 16:58:55.360,SmartbBox,-0.018,0.041,-0.901,0,0,0.0,False
2019-10-24 16:58:55.380,SmartbBox,-0.033,0.065,-0.902,0,0,0.0,False
2019-10-24 16:58:55.400,SmartbBox,0.022,0.032,-0.898,0,0,0.0,False
2019-10-24 16:58:55.420,SmartbBox,0.022,0.032,-0.898,0,0,0.0,False
2019-10-24 16:58:55.440,SmartbBox,0.003,0.016,-0.979,0,0,0.0,False
2019-10-24 16:58:55.460,SmartbBox,-0.006,0.017,-0.874,0,0,0.0,False
