UTC_timestamp,device_name,timestamp,x,y,z,lat,long,event,speed
2019-10-26 10:38:20.880,LG-H970,1572086300890.25,5.877,6.232,3.635,41.1039623,16.8796758,False,NONE
2019-10-26 10:38:20.900,LG-H970,1572086300910.5,0.624,9.922,-1.293,41.1039623,16.8796758,False,NONE
2019-10-26 10:38:20.920,LG-H970,1572086300930.25,-5.057,11.956,-4.631,41.1039623,16.8796758,False,NONE
2019-10-26 10:38:20.940,LG-H970,1572086300950.25,0.268,13.206,1.545,41.1039623,16.8796758,False,NONE
2019-10-26 10:38:20.960,LG-H970,1572086300971.5,5.944,8.709,5.87,41.1039623,16.8796758,False,NONE
2019-10-26 10:38:20.980,LG-H970,1572086300990.25,2.772,11.245,3.828,41.1039623,16.8796758,False,NONE
2019-10-26 10:38:21.000,LG-H970,1572086301009.75,-2.885,11.88,-3.948,41.1039623,16.8796758,False,NONE
2019-10-26 10:38:21.020,LG-H970,1572086301029.5,0.424,10.121,-1.35,41.1039623,16.8796758,False,NONE
2019-10-26 10:38:21.040,LG-H970,1572086301049.0,5.627,5.752,2.308,41.1039623,16.8796758,False,NONE
2019-10-26 10:38:21.060,LG-H970,1572086301069.25,4.086,9.169,3.072,41.1039623,16.8796758,False,NONE
2019-10-26 10:38:21.080,LG-H970,1572086301088.75,-2.083,12.456,-1.031,41.1039623,16.8796758,False,NONE
2019-10-26 10:38:21.100,LG-H970,1572086301109.0,-2.302,12.215,-0.924,41.1039623,16.8796758,False,NONE
2019-10-26 10:38:21.120,LG-H970,1572086301127.75,2.729,7.695,0.7,41.1039623,16.8796758,False,NONE
2019-10-26 10:38:21.140,LG-H970,1572086301147.75,3.598,6.348,1.045,41.1039623,16.8796758,False,NONE
2019-10-26 10:38:21.160,LG-H970,1572086301168.0,-0.672,10.799,-0.281,41.1039623,16.8796758,False,NONE
2019-10-26 10:38:21.180,LG-H970,1572086301187.25,-3.243,12.581,-2.075,41.1039623,16.8796758,False,NONE
2019-10-26 10:38:21.200,LG-H970,1572086301209.6,1.315,10.511,1.175,41.1039623,16.8796758,False,NONE
2019-10-26 10:38:21.220,LG-H970,1572086301232.25,3.13,6.849,0.971,41.1039623,16.8796758,False,NONE
2019-10-26 10:38:21.240,LG-H970,1572086301251.25,0.285,10.107,-0.898,41.1039623,16.8796758,False,NONE
2019-10-26 10:38:21.260,LG-H970,1572086301271.25,-3.108,10.27,-4.3,41.1039623,16.8796758,False,NONE
2019-10-26 10:38:21.280,LG-H970,1572086301291.0,0.173,11.006,0.269,41.1039623,16.8796758,False,NONE
2019-10-26 10:38:21.300,LG-H970,1572086301310.75,2.748,7.361,0.234,41.1039623,16.8796758,False,NONE
2019-10-26 10:38:21.320,LG-H970,1572086301330.75,0.915,9.636,2.375,41.1039623,16.8796758,False,NONE
2019-10-26 10:38:21.340,LG-H970,1572086301349.5,-1.273,11.268,-3.277,41.1039623,16.8796758,False,NONE
2019-10-26 10:38:21.360,LG-H970,1572086301368.3333,-3.164,10.593,-3.291,41.1039623,16.8796758,False,NONE
2019-10-26 10:38:21.380,LG-H970,1572086301389.5,0.595,8.241,0.482,41.1039623,16.8796758,False,NONE
2019-10-26 10:38:21.400,LG-H970,1572086301409.0,3.822,7.495,1.806,41.1039623,16.8796758,False,NONE
2019-10-26 10:38:21.420,LG-H970,1572086301429.0,0.979,10.446,0.649,41.1039623,16.8796758,False,NONE
2019-10-26 10:38:21.440,LG-H970,1572086301448.25,-2.832,12.098,-1.743,41.1039623,16.8796758,False,NONE
2019-10-26 10:38:21.460,LG-H970,1572086301468.0,-1.511,10.788,0.729,41.1039623,16.8796758,False,NONE
2019-10-26 10:38:21.480,LG-H970,1572086301488.5,1.618,8.158,1.664,41.1039623,16.8796758,False,NONE
2019-10-26 10:38:21.500,LG-H970,1572086301508.0,2.186,9.685,0.734,41.1039623,16.8796758,False,NONE
2019-10-26 10:38:21.520,LG-H970,1572086301529.8,0.341,11.186,-0.118,41.1039623,16.8796758,False,NONE
2019-10-26 10:38:21.540,LG-H970,1572086301550.0,0.469,10.416,0.708,41.1039623,16.8796758,False,NONE
2019-10-26 10:38:21.560,LG-H970,1572086301568.8,1.976,9.685,1.759,41.1039623,16.8796758,False,NONE
2019-10-26 10:38:21.580,LG-H970,1572086301592.25,3.733,8.759,0.97,41.1039623,16.8796758,False,NONE
2019-10-26 10:38:21.600,LG-H970,1572086301611.5,2.632,8.805,-0.904,41.1039623,16.8796758,False,NONE
2019-10-26 10:38:21.620,LG-H970,1572086301631.75,1.796,9.445,-0.453,41.1039623,16.8796758,False,NONE
2019-10-26 10:38:21.640,LG-H970,1572086301651.5,3.621,9.266,0.614,41.1039623,16.8796758,False,NONE
2019-10-26 10:38:21.660,LG-H970,1572086301670.75,2.975,8.583,1.364,41.1039623,16.8796758,False,NONE
2019-10-26 10:38:21.680,LG-H970,1572086301690.5,2.181,10.092,0.48,41.1039623,16.8796758,False,NONE
2019-10-26 10:38:21.700,LG-H970,1572086301709.5,1.726,9.795,-0.626,41.1039623,16.8796758,False,NONE
2019-10-26 10:38:21.720,LG-H970,1572086301729.25,2.706,9.069,0.456,41.1039623,16.8796758,False,NONE
2019-10-26 10:38:21.740,LG-H970,1572086301749.25,2.612,8.292,0.399,41.1039623,16.8796758,False,NONE
2019-10-26 10:38:21.760,LG-H970,1572086301769.5,0.991,10.038,0.965,41.1039623,16.8796758,False,NONE
2019-10-26 10:38:21.780,LG-H970,1572086301789.5,0.341,11.072,-0.218,41.1039623,16.8796758,False,NONE
2019-10-26 10:38:21.800,LG-H970,1572086301809.25,1.314,10.231,0.99,41.1039623,16.8796758,False,NONE
2019-10-26 10:38:21.820,LG-H970,1572086301829.25,2.644,9.188,1.259,41.1039623,16.8796758,False,NONE
2019-10-26 10:38:21.840,LG-H970,1572086301849.5,1.032,8.606,-0.112,41.1039623,16.8796758,False,NONE
2019-10-26 10:38:21.860,LG-H970,1572086301869.5,0.988,9.438,-1.659,41.1039623,16.8796758,False,NONE
2019-10-26 10:38:21.880,LG-H970,1572086301887.75,2.544,7.014,-0.607,41.1039623,16.8796758,False,NONE
2019-10-26 10:38:21.900,LG-H970,1572086301909.0,1.239,6.93,1.62,41.1039623,16.8796758,False,NONE
2019-10-26 10:38:21.920,LG-H970,1572086301931.0,0.446,14.921,1.909,41.1039623,16.8796758,False,NONE
2019-10-26 10:38:21.940,LG-H970,1572086301949.0,-4.751,12.287,4.978,41.1039623,16.8796758,False,NONE
2019-10-26 10:38:21.960,LG-H970,1572086301969.6,-6.088,13.867,2.602,41.1039623,16.8796758,False,NONE
2019-10-26 10:38:21.980,LG-H970,1572086301991.75,-0.678,10.547,-1.953,41.1039623,16.8796758,False,NONE
2019-10-26 10:38:22.000,LG-H970,1572086302011.25,4.702,8.368,2.624,41.1039623,16.8796758,False,NONE
2019-10-26 10:38:22.020,LG-H970,1572086302031.0,-0.763,9.66,1.057,41.1039623,16.8796758,False,NONE
2019-10-26 10:38:22.040,LG-H970,1572086302052.6667,-2.152,14.381,-1.116,41.1039623,16.8796758,False,NONE
2019-10-26 10:38:22.060,LG-H970,1572086302070.5,1.849,13.711,2.341,41.1039623,16.8796758,False,NONE
2019-10-26 10:38:22.080,LG-H970,1572086302090.25,2.663,11.215,3.282,41.1039623,16.8796758,False,NONE
2019-10-26 10:38:22.100,LG-H970,1572086302110.5,-0.316,10.702,0.261,41.1039623,16.8796758,False,NONE
2019-10-26 10:38:22.120,LG-H970,1572086302129.75,-0.527,9.283,-2.467,41.1039623,16.8796758,False,NONE
2019-10-26 10:38:22.140,LG-H970,1572086302149.25,1.103,9.639,-1.314,41.1039623,16.8796758,False,NONE
2019-10-26 10:38:22.160,LG-H970,1572086302169.0,0.967,9.67,2.167,41.1039623,16.8796758,False,NONE
2019-10-26 10:38:22.180,LG-H970,1572086302189.0,0.706,9.633,2.096,41.1039623,16.8796758,False,NONE
2019-10-26 10:38:22.200,LG-H970,1572086302208.5,0.366,8.922,-0.917,41.1039623,16.8796758,False,NONE
2019-10-26 10:38:22.220,LG-H970,1572086302228.5,-0.282,8.375,-2.925,41.1039623,16.8796758,False,NONE
2019-10-26 10:38:22.240,LG-H970,1572086302248.25,1.474,8.348,-1.184,41.1039623,16.8796758,False,NONE
2019-10-26 10:38:22.260,LG-H970,1572086302269.8,3.534,8.191,1.297,41.1039623,16.8796758,False,NONE
2019-10-26 10:38:22.280,LG-H970,1572086302292.25,2.824,11.05,1.038,41.1039623,16.8796758,False,NONE
2019-10-26 10:38:22.300,LG-H970,1572086302310.0,-0.134,10.454,0.372,41.1039623,16.8796758,False,NONE
2019-10-26 10:38:22.320,LG-H970,1572086302329.2,1.229,9.652,-0.437,41.1039623,16.8796758,False,NONE
2019-10-26 10:38:22.340,LG-H970,1572086302348.6667,2.35,6.722,-0.875,41.1039623,16.8796758,False,NONE
2019-10-26 10:38:22.360,LG-H970,1572086302369.4,3.497,9.668,0.718,41.1039623,16.8796758,False,NONE
2019-10-26 10:38:22.380,LG-H970,1572086302391.0,1.746,9.189,-0.104,41.1039623,16.8796758,True,NONE
2019-10-26 10:38:22.400,LG-H970,1572086302410.0,2.18,9.436,0.915,41.1039623,16.8796758,True,NONE
2019-10-26 10:38:22.420,LG-H970,1572086302429.5,2.592,8.328,-0.209,41.1039623,16.8796758,False,NONE
2019-10-26 10:38:22.440,LG-H970,1572086302449.5,1.856,9.266,0.14,41.1039623,16.8796758,False,NONE
2019-10-26 10:38:22.460,LG-H970,1572086302469.75,0.86,10.589,-0.988,41.1039623,16.8796758,False,NONE
2019-10-26 10:38:22.480,LG-H970,1572086302490.5,2.58,11.179,1.461,41.1039623,16.8796758,False,NONE
2019-10-26 10:38:22.500,LG-H970,1572086302509.5,2.53,8.113,2.125,41.1039623,16.8796758,False,NONE
2019-10-26 10:38:22.520,LG-H970,1572086302530.0,1.738,10.104,-0.419,41.1039623,16.8796758,False,NONE
2019-10-26 10:38:22.540,LG-H970,1572086302548.3333,-0.074,9.951,-2.574,41.1039623,16.8796758,False,NONE
2019-10-26 10:38:22.560,LG-H970,1572086302568.25,1.334,9.752,0.376,41.1039623,16.8796758,False,NONE
2019-10-26 10:38:22.580,LG-H970,1572086302589.75,2.584,10.035,0.86,41.1039623,16.8796758,False,NONE
2019-10-26 10:38:22.600,LG-H970,1572086302609.25,1.481,10.796,2.597,41.1039623,16.8796758,False,NONE
2019-10-26 10:38:22.620,LG-H970,1572086302628.5,0.126,11.083,0.701,41.1039623,16.8796758,False,NONE
2019-10-26 10:38:22.640,LG-H970,1572086302648.25,0.126,11.83,-0.004,41.1039623,16.8796758,False,NONE
2019-10-26 10:38:22.660,LG-H970,1572086302667.75,0.442,10.095,0.143,41.1039623,16.8796758,False,NONE
2019-10-26 10:38:22.680,LG-H970,1572086302689.0,1.098,10.279,0.736,41.1039623,16.8796758,False,NONE
2019-10-26 10:38:22.700,LG-H970,1572086302710.2,-1.291,11.245,-0.537,41.1039623,16.8796758,False,NONE
2019-10-26 10:38:22.720,LG-H970,1572086302732.0,-2.304,12.051,-0.177,41.1039623,16.8796758,False,NONE
2019-10-26 10:38:22.740,LG-H970,1572086302751.5,0.356,9.734,0.491,41.1039623,16.8796758,False,NONE
2019-10-26 10:38:22.760,LG-H970,1572086302771.25,1.25,8.881,1.169,41.1039623,16.8796758,False,NONE
2019-10-26 10:38:22.780,LG-H970,1572086302791.5,-0.482,10.74,-0.528,41.1039623,16.8796758,False,NONE
2019-10-26 10:38:22.800,LG-H970,1572086302810.75,-1.279,10.403,-1.351,41.1039623,16.8796758,False,NONE
2019-10-26 10:38:22.820,LG-H970,1572086302831.0,0.38,8.791,0.534,41.1039623,16.8796758,False,NONE
2019-10-26 10:38:22.840,LG-H970,1572086302850.5,1.596,8.911,0.118,41.1039623,16.8796758,False,NONE
2019-10-26 10:38:22.860,LG-H970,1572086302869.0,0.847,9.706,0.541,41.1039623,16.8796758,False,NONE
2019-10-26 10:38:22.880,LG-H970,1572086302890.5,-0.452,8.685,0.018,41.1039623,16.8796758,False,NONE
2019-10-26 10:38:22.900,LG-H970,1572086302911.25,0.937,9.132,0.384,41.1039623,16.8796758,False,NONE
2019-10-26 10:38:22.920,LG-H970,1572086302932.6667,1.772,8.973,1.05,41.1039623,16.8796758,False,NONE
2019-10-26 10:38:22.940,LG-H970,1572086302949.75,0.494,9.466,1.223,41.1039623,16.8796758,False,NONE
2019-10-26 10:38:22.960,LG-H970,1572086302970.25,-0.293,10.246,-0.229,41.1039623,16.8796758,False,NONE
2019-10-26 10:38:22.980,LG-H970,1572086302990.25,1.013,8.796,-0.822,41.1039623,16.8796758,False,NONE
2019-10-26 10:38:23.000,LG-H970,1572086303009.5,3.12,8.541,0.3,41.1039623,16.8796758,False,NONE
2019-10-26 10:38:23.020,LG-H970,1572086303029.25,2.768,7.393,0.608,41.1039623,16.8796758,False,NONE
2019-10-26 10:38:23.040,LG-H970,1572086303048.5,2.479,8.477,0.154,41.1039623,16.8796758,False,NONE
2019-10-26 10:38:23.060,LG-H970,1572086303068.75,0.531,10.04,-2.189,41.1039623,16.8796758,False,NONE
2019-10-26 10:38:23.080,LG-H970,1572086303088.0,-0.612,10.842,-1.255,41.1039623,16.8796758,False,NONE
2019-10-26 10:38:23.100,LG-H970,1572086303109.8,-0.006,10.986,-0.228,41.1039623,16.8796758,False,NONE
2019-10-26 10:38:23.120,LG-H970,1572086303131.25,-1.978,11.778,-1.378,41.1039623,16.8796758,False,NONE
2019-10-26 10:38:23.140,LG-H970,1572086303151.25,-3.042,12.827,-1.401,41.1039623,16.8796758,False,NONE
2019-10-26 10:38:23.160,LG-H970,1572086303171.5,-2.293,11.653,-1.287,41.1039623,16.8796758,False,NONE
2019-10-26 10:38:23.180,LG-H970,1572086303190.75,-2.549,11.188,1.645,41.1039623,16.8796758,False,NONE
2019-10-26 10:38:23.200,LG-H970,1572086303210.75,-4.204,10.405,-1.047,41.1039623,16.8796758,False,NONE
2019-10-26 10:38:23.220,LG-H970,1572086303230.75,-3.196,11.471,-2.415,41.1039623,16.8796758,False,NONE
2019-10-26 10:38:23.240,LG-H970,1572086303250.25,-1.267,9.257,-1.771,41.1039623,16.8796758,False,NONE
2019-10-26 10:38:23.260,LG-H970,1572086303270.25,-1.497,9.126,0.277,41.1039623,16.8796758,False,NONE
2019-10-26 10:38:23.280,LG-H970,1572086303289.25,-2.546,10.669,-0.556,41.1039623,16.8796758,False,NONE
2019-10-26 10:38:23.300,LG-H970,1572086303309.25,-1.459,11.406,-0.742,41.1039623,16.8796758,False,NONE
2019-10-26 10:38:23.320,LG-H970,1572086303330.4,0.648,9.368,-1.119,41.1039623,16.8796758,False,NONE
2019-10-26 10:38:23.340,LG-H970,1572086303350.0,1.555,9.034,-2.012,41.1039623,16.8796758,False,NONE
2019-10-26 10:38:23.360,LG-H970,1572086303369.25,0.078,8.653,-2.611,41.1039623,16.8796758,False,NONE
2019-10-26 10:38:23.380,LG-H970,1572086303389.5,0.263,9.473,-2.821,41.1039623,16.8796758,False,NONE
2019-10-26 10:38:23.400,LG-H970,1572086303406.75,1.682,10.048,-1.619,41.1039623,16.8796758,False,NONE
2019-10-26 10:38:23.420,LG-H970,1572086303426.75,2.209,8.92,-1.416,41.1039623,16.8796758,False,NONE
2019-10-26 10:38:23.440,LG-H970,1572086303446.75,0.971,7.931,-2.882,41.1039623,16.8796758,False,NONE
2019-10-26 10:38:23.460,LG-H970,1572086303469.2,0.606,9.072,-1.784,41.1039623,16.8796758,False,NONE
2019-10-26 10:38:23.480,LG-H970,1572086303487.0,1.345,9.108,-1.154,41.1039623,16.8796758,False,NONE
2019-10-26 10:38:23.500,LG-H970,1572086303508.8,1.487,9.446,1.074,41.1039623,16.8796758,False,NONE
2019-10-26 10:38:23.520,LG-H970,1572086303530.5,-0.064,9.326,-0.639,41.1039623,16.8796758,False,NONE
2019-10-26 10:38:23.540,LG-H970,1572086303550.5,-1.166,10.092,-0.277,41.1039623,16.8796758,False,NONE
2019-10-26 10:38:23.560,LG-H970,1572086303570.5,-0.876,8.245,-1.105,41.1039623,16.8796758,False,NONE
2019-10-26 10:38:23.580,LG-H970,1572086303590.5,1.926,9.875,1.546,41.1039623,16.8796758,False,NONE
2019-10-26 10:38:23.600,LG-H970,1572086303609.25,1.959,9.891,-0.169,41.1039623,16.8796758,False,NONE
2019-10-26 10:38:23.620,LG-H970,1572086303629.25,0.148,11.807,-0.289,41.1039623,16.8796758,False,NONE
2019-10-26 10:38:23.640,LG-H970,1572086303649.25,0.97,9.973,-2.038,41.1039623,16.8796758,False,NONE
2019-10-26 10:38:23.660,LG-H970,1572086303668.25,4.771,10.039,-0.334,41.1039623,16.8796758,False,NONE
2019-10-26 10:38:23.680,LG-H970,1572086303690.6,4.334,8.769,0.094,41.1039623,16.8796758,False,NONE
2019-10-26 10:38:23.700,LG-H970,1572086303712.0,1.535,10.8,-2.075,41.1039623,16.8796758,False,NONE
2019-10-26 10:38:23.720,LG-H970,1572086303730.2,0.546,10.981,-1.879,41.1039623,16.8796758,False,NONE
2019-10-26 10:38:23.740,LG-H970,1572086303749.6667,-0.251,7.623,-3.202,41.1039623,16.8796758,False,NONE
2019-10-26 10:38:23.760,LG-H970,1572086303767.25,1.573,9.211,0.54,41.1039623,16.8796758,False,NONE
2019-10-26 10:38:23.780,LG-H970,1572086303787.5,1.026,8.648,-1.29,41.1039623,16.8796758,True,NONE
2019-10-26 10:38:23.800,LG-H970,1572086303809.2,-1.122,11.619,-2.083,41.1039623,16.8796758,True,NONE
2019-10-26 10:38:23.820,LG-H970,1572086303831.5,-3.294,9.716,-0.83,41.1039623,16.8796758,False,NONE
2019-10-26 10:38:23.840,LG-H970,1572086303850.75,0.086,7.356,0.305,41.1039623,16.8796758,False,NONE
2019-10-26 10:38:23.860,LG-H970,1572086303872.0,1.436,9.308,0.193,41.1039623,16.8796758,False,NONE
