time,train_acc,train_loss,val_acc,val_loss,epoch
1574709099.769,0.49,1.4008,0.65, 1.151,0 
1574709099.803,0.48,3.5514,0.35, 2.3535,1 
1574709099.836,0.52,1.2424,0.72, 0.5636,2 
1574709099.871,0.52,0.8837,0.65, 0.6665,3 
1574709099.904,0.48,0.7536,0.35, 0.8474,4 
1574709099.937,0.48,0.6942,0.77, 0.6116,5 
1574709099.97,0.57,0.6737,0.77, 0.5588,6 
1574709100.002,0.61,0.6295,0.67, 0.6099,7 
1574709100.037,0.57,0.6207,0.88, 0.5781,8 
1574709100.069,0.68,0.5852,0.86, 0.5405,9 
1574709100.1,0.72,0.5575,0.88, 0.5178,10 
1574709100.134,0.68,0.5487,0.86, 0.4843,11 
1574709100.164,0.72,0.5216,0.88, 0.4518,12 
1574709100.194,0.72,0.511,0.88, 0.4707,13 
1574709100.229,0.72,0.5009,0.88, 0.484,14 
1574709100.262,0.72,0.4931,0.88, 0.4456,15 
1574709100.296,0.72,0.4918,0.88, 0.4461,16 
1574709100.33,0.72,0.4841,0.88, 0.4549,17 
1574709100.364,0.72,0.4844,0.88, 0.4431,18 
1574709100.396,0.73,0.4789,0.88, 0.456,19 
1574709100.433,0.73,0.4732,0.88, 0.4359,20 
1574709100.467,0.73,0.4735,0.88, 0.4441,21 
1574709100.501,0.75,0.4675,0.91, 0.4527,22 
1574709100.535,0.73,0.4654,0.88, 0.4249,23 
1574709100.567,0.73,0.4633,0.91, 0.4468,24 
1574709100.598,0.75,0.4588,0.88, 0.4325,25 
1574709100.63,0.74,0.4571,0.91, 0.4302,26 
1574709100.663,0.74,0.4503,0.91, 0.4358,27 
1574709100.697,0.74,0.4493,0.91, 0.4287,28 
1574709100.729,0.74,0.4424,0.93, 0.4306,29 
1574709100.761,0.74,0.4407,0.88, 0.4279,30 
1574709100.796,0.76,0.4338,0.91, 0.4262,31 
1574709100.828,0.74,0.4303,0.88, 0.4338,32 
1574709100.862,0.78,0.4231,0.91, 0.421,33 
1574709100.895,0.77,0.4186,0.88, 0.4321,34 
1574709100.926,0.78,0.4133,0.88, 0.4224,35 
1574709100.959,0.8,0.4079,0.88, 0.4234,36 
1574709100.991,0.78,0.4029,0.81, 0.4381,37 
1574709101.025,0.78,0.3994,0.81, 0.4377,38 
1574709101.059,0.81,0.391,0.88, 0.4091,39 
1574709101.095,0.81,0.3871,0.88, 0.3989,40 
1574709101.127,0.83,0.3807,0.84, 0.4286,41 
1574709101.16,0.78,0.3809,0.74, 0.4758,42 
1574709101.192,0.76,0.39,0.72, 0.4703,43 
1574709101.223,0.88,0.3681,0.88, 0.3493,44 
1574709101.258,0.89,0.3615,0.84, 0.4221,45 
1574709101.295,0.8,0.3676,0.72, 0.4718,46 
1574709101.327,0.82,0.3525,0.88, 0.3847,47 
1574709101.359,0.89,0.3511,0.86, 0.3677,48 
1574709101.39,0.83,0.3423,0.81, 0.4332,49 
1574709101.42,0.81,0.3483,0.72, 0.5078,50 
1574709101.454,0.81,0.3514,0.81, 0.4408,51 
1574709101.488,0.9,0.332,0.88, 0.3318,52 
1574709101.518,0.88,0.3329,0.88, 0.375,53 
1574709101.552,0.82,0.3216,0.74, 0.4829,54 
1574709101.586,0.8,0.3422,0.72, 0.5064,55 
1574709101.617,0.84,0.3158,0.81, 0.3762,56 
1574709101.65,0.89,0.3153,0.86, 0.3387,57 
1574709101.688,0.9,0.3066,0.79, 0.3976,58 
1574709101.725,0.85,0.306,0.72, 0.5131,59 
1574709101.763,0.82,0.3401,0.72, 0.5499,60 
1574709101.8,0.84,0.2972,0.84, 0.36,61 
1574709101.834,0.85,0.308,0.86, 0.3265,62 
1574709101.867,0.91,0.2873,0.74, 0.4806,63 
1574709101.899,0.82,0.3214,0.72, 0.5627,64 
1574709101.933,0.84,0.2848,0.81, 0.3671,65 
1574709101.968,0.85,0.2944,0.86, 0.3367,66 
1574709102.001,0.91,0.2742,0.72, 0.5024,67 
1574709102.036,0.83,0.3094,0.74, 0.5398,68 
1574709102.07,0.86,0.27,0.81, 0.3698,69 
1574709102.104,0.88,0.2795,0.84, 0.3534,70 
1574709102.137,0.91,0.2631,0.74, 0.4851,71 
1574709102.171,0.84,0.2862,0.72, 0.5638,72 
1574709102.204,0.85,0.2769,0.79, 0.4739,73 
1574709102.235,0.91,0.2579,0.84, 0.3491,74 
1574709102.269,0.91,0.2611,0.79, 0.4074,75 
1574709102.304,0.88,0.2518,0.72, 0.5167,76 
1574709102.338,0.84,0.2822,0.74, 0.5915,77 
1574709102.372,0.86,0.2653,0.79, 0.4696,78 
1574709102.407,0.9,0.2502,0.86, 0.3548,79 
1574709102.447,0.9,0.2454,0.79, 0.4422,80 
1574709102.481,0.86,0.2479,0.74, 0.5904,81 
1574709102.515,0.84,0.2805,0.74, 0.6194,82 
1574709102.553,0.88,0.2471,0.81, 0.448,83 
1574709102.59,0.91,0.238,0.79, 0.3844,84 
1574709102.623,0.91,0.2324,0.77, 0.5147,85 
1574709102.656,0.86,0.2496,0.74, 0.625,86 
1574709102.691,0.86,0.2555,0.72, 0.5471,87 
1574709102.728,0.91,0.2267,0.79, 0.4083,88 
1574709102.762,0.91,0.2271,0.79, 0.442,89 
1574709102.796,0.89,0.2263,0.72, 0.5858,90 
1574709102.832,0.85,0.2542,0.72, 0.6539,91 
1574709102.864,0.88,0.2407,0.77, 0.54,92 
1574709102.896,0.91,0.2174,0.79, 0.4272,93 
1574709102.929,0.91,0.2183,0.79, 0.5127,94 
1574709102.963,0.88,0.2207,0.72, 0.63,95 
1574709102.996,0.85,0.2691,0.72, 0.6764,96 
1574709103.031,0.88,0.2157,0.79, 0.4599,97 
1574709103.068,0.9,0.2175,0.79, 0.4413,98 
1574709103.1,0.93,0.2077,0.72, 0.6028,99 
1574709103.135,0.88,0.2414,0.74, 0.6681,100 
1574709103.167,0.89,0.2155,0.81, 0.5137,101 
1574709103.2,0.91,0.2114,0.79, 0.4428,102 
1574709103.233,0.92,0.202,0.81, 0.5049,103 
1574709103.266,0.89,0.222,0.74, 0.6902,104 
1574709103.3,0.88,0.2722,0.74, 0.7014,105 
1574709103.333,0.92,0.21,0.79, 0.4331,106 
1574709103.368,0.92,0.2022,0.79, 0.4984,107 
1574709103.406,0.91,0.2038,0.72, 0.6494,108 
1574709103.438,0.88,0.2108,0.77, 0.5958,109 
1574709103.476,0.93,0.1923,0.79, 0.4709,110 
1574709103.51,0.91,0.1929,0.81, 0.4937,111 
1574709103.545,0.93,0.1901,0.74, 0.6036,112 
1574709103.579,0.88,0.2353,0.72, 0.7968,113 
1574709103.613,0.88,0.2515,0.81, 0.5259,114 
1574709103.646,0.89,0.2169,0.88, 0.3502,115 
1574709103.679,0.89,0.1985,0.67, 1.0527,116 
1574709103.709,0.86,0.2945,0.86, 0.4056,117 
1574709103.742,0.82,0.3119,0.88, 0.3766,118 
1574709103.775,0.86,0.2965,0.74, 0.7676,119 
1574709103.812,0.9,0.2529,0.88, 0.3384,120 
1574709103.845,0.84,0.3706,0.6, 1.1557,121 
1574709103.878,0.83,0.3568,0.88, 0.3698,122 
1574709103.91,0.88,0.2645,0.67, 0.8614,123 
1574709103.941,0.88,0.2593,0.86, 0.4289,124 
1574709103.975,0.85,0.3395,0.74, 0.6781,125 
1574709104.012,0.85,0.306,0.88, 0.3622,126 
1574709104.046,0.82,0.4517,0.67, 0.7949,127 
1574709104.079,0.84,0.2914,0.86, 0.6092,128 
1574709104.112,0.83,0.4009,0.84, 0.4507,129 
1574709104.146,0.76,0.4293,0.81, 0.4329,130 
1574709104.18,0.85,0.3631,0.81, 0.4368,131 
1574709104.213,0.82,0.3107,0.81, 0.6904,132 
1574709104.245,0.86,0.2783,0.84, 0.4557,133 
1574709104.279,0.85,0.2694,0.79, 0.4699,134 
1574709104.312,0.85,0.2608,0.81, 0.3728,135 
1574709104.344,0.9,0.2302,0.79, 0.4891,136 
1574709104.377,0.92,0.2095,0.84, 0.4811,137 
1574709104.409,0.91,0.2045,0.84, 0.4632,138 
1574709104.441,0.92,0.2034,0.84, 0.3931,139 
1574709104.476,0.92,0.2054,0.84, 0.4206,140 
1574709104.512,0.92,0.1947,0.84, 0.5144,141 
1574709104.543,0.92,0.1896,0.81, 0.4902,142 
1574709104.576,0.94,0.1875,0.79, 0.561,143 
1574709104.611,0.91,0.1869,0.81, 0.428,144 
1574709104.644,0.93,0.187,0.79, 0.6107,145 
1574709104.676,0.93,0.1796,0.81, 0.4728,146 
1574709104.708,0.94,0.179,0.79, 0.6328,147 
1574709104.741,0.94,0.1803,0.84, 0.4701,148 
1574709104.773,0.91,0.1792,0.81, 0.5461,149 
