UTC_timestamp,device_name,timestamp,x,y,z,lat,long,event,speed
2019-10-26 10:38:22.920,LG-H970,1572086302932.6667,1.772,8.973,1.05,41.1039623,16.8796758,False,NONE
2019-10-26 10:38:22.940,LG-H970,1572086302949.75,0.494,9.466,1.223,41.1039623,16.8796758,False,NONE
2019-10-26 10:38:22.960,LG-H970,1572086302970.25,-0.293,10.246,-0.229,41.1039623,16.8796758,False,NONE
2019-10-26 10:38:22.980,LG-H970,1572086302990.25,1.013,8.796,-0.822,41.1039623,16.8796758,False,NONE
2019-10-26 10:38:23.000,LG-H970,1572086303009.5,3.12,8.541,0.3,41.1039623,16.8796758,False,NONE
2019-10-26 10:38:23.020,LG-H970,1572086303029.25,2.768,7.393,0.608,41.1039623,16.8796758,False,NONE
2019-10-26 10:38:23.040,LG-H970,1572086303048.5,2.479,8.477,0.154,41.1039623,16.8796758,False,NONE
2019-10-26 10:38:23.060,LG-H970,1572086303068.75,0.531,10.04,-2.189,41.1039623,16.8796758,False,NONE
2019-10-26 10:38:23.080,LG-H970,1572086303088.0,-0.612,10.842,-1.255,41.1039623,16.8796758,False,NONE
2019-10-26 10:38:23.100,LG-H970,1572086303109.8,-0.006,10.986,-0.228,41.1039623,16.8796758,False,NONE
2019-10-26 10:38:23.120,LG-H970,1572086303131.25,-1.978,11.778,-1.378,41.1039623,16.8796758,False,NONE
2019-10-26 10:38:23.140,LG-H970,1572086303151.25,-3.042,12.827,-1.401,41.1039623,16.8796758,False,NONE
2019-10-26 10:38:23.160,LG-H970,1572086303171.5,-2.293,11.653,-1.287,41.1039623,16.8796758,False,NONE
2019-10-26 10:38:23.180,LG-H970,1572086303190.75,-2.549,11.188,1.645,41.1039623,16.8796758,False,NONE
2019-10-26 10:38:23.200,LG-H970,1572086303210.75,-4.204,10.405,-1.047,41.1039623,16.8796758,False,NONE
2019-10-26 10:38:23.220,LG-H970,1572086303230.75,-3.196,11.471,-2.415,41.1039623,16.8796758,False,NONE
2019-10-26 10:38:23.240,LG-H970,1572086303250.25,-1.267,9.257,-1.771,41.1039623,16.8796758,False,NONE
2019-10-26 10:38:23.260,LG-H970,1572086303270.25,-1.497,9.126,0.277,41.1039623,16.8796758,False,NONE
2019-10-26 10:38:23.280,LG-H970,1572086303289.25,-2.546,10.669,-0.556,41.1039623,16.8796758,False,NONE
2019-10-26 10:38:23.300,LG-H970,1572086303309.25,-1.459,11.406,-0.742,41.1039623,16.8796758,False,NONE
2019-10-26 10:38:23.320,LG-H970,1572086303330.4,0.648,9.368,-1.119,41.1039623,16.8796758,False,NONE
2019-10-26 10:38:23.340,LG-H970,1572086303350.0,1.555,9.034,-2.012,41.1039623,16.8796758,False,NONE
2019-10-26 10:38:23.360,LG-H970,1572086303369.25,0.078,8.653,-2.611,41.1039623,16.8796758,False,NONE
2019-10-26 10:38:23.380,LG-H970,1572086303389.5,0.263,9.473,-2.821,41.1039623,16.8796758,False,NONE
2019-10-26 10:38:23.400,LG-H970,1572086303406.75,1.682,10.048,-1.619,41.1039623,16.8796758,False,NONE
2019-10-26 10:38:23.420,LG-H970,1572086303426.75,2.209,8.92,-1.416,41.1039623,16.8796758,False,NONE
2019-10-26 10:38:23.440,LG-H970,1572086303446.75,0.971,7.931,-2.882,41.1039623,16.8796758,False,NONE
2019-10-26 10:38:23.460,LG-H970,1572086303469.2,0.606,9.072,-1.784,41.1039623,16.8796758,False,NONE
2019-10-26 10:38:23.480,LG-H970,1572086303487.0,1.345,9.108,-1.154,41.1039623,16.8796758,False,NONE
2019-10-26 10:38:23.500,LG-H970,1572086303508.8,1.487,9.446,1.074,41.1039623,16.8796758,False,NONE
2019-10-26 10:38:23.520,LG-H970,1572086303530.5,-0.064,9.326,-0.639,41.1039623,16.8796758,False,NONE
2019-10-26 10:38:23.540,LG-H970,1572086303550.5,-1.166,10.092,-0.277,41.1039623,16.8796758,False,NONE
2019-10-26 10:38:23.560,LG-H970,1572086303570.5,-0.876,8.245,-1.105,41.1039623,16.8796758,False,NONE
2019-10-26 10:38:23.580,LG-H970,1572086303590.5,1.926,9.875,1.546,41.1039623,16.8796758,False,NONE
2019-10-26 10:38:23.600,LG-H970,1572086303609.25,1.959,9.891,-0.169,41.1039623,16.8796758,False,NONE
2019-10-26 10:38:23.620,LG-H970,1572086303629.25,0.148,11.807,-0.289,41.1039623,16.8796758,False,NONE
2019-10-26 10:38:23.640,LG-H970,1572086303649.25,0.97,9.973,-2.038,41.1039623,16.8796758,False,NONE
2019-10-26 10:38:23.660,LG-H970,1572086303668.25,4.771,10.039,-0.334,41.1039623,16.8796758,False,NONE
2019-10-26 10:38:23.680,LG-H970,1572086303690.6,4.334,8.769,0.094,41.1039623,16.8796758,False,NONE
2019-10-26 10:38:23.700,LG-H970,1572086303712.0,1.535,10.8,-2.075,41.1039623,16.8796758,False,NONE
2019-10-26 10:38:23.720,LG-H970,1572086303730.2,0.546,10.981,-1.879,41.1039623,16.8796758,False,NONE
2019-10-26 10:38:23.740,LG-H970,1572086303749.6667,-0.251,7.623,-3.202,41.1039623,16.8796758,False,NONE
2019-10-26 10:38:23.760,LG-H970,1572086303767.25,1.573,9.211,0.54,41.1039623,16.8796758,False,NONE
2019-10-26 10:38:23.780,LG-H970,1572086303787.5,1.026,8.648,-1.29,41.1039623,16.8796758,True,NONE
2019-10-26 10:38:23.800,LG-H970,1572086303809.2,-1.122,11.619,-2.083,41.1039623,16.8796758,True,NONE
2019-10-26 10:38:23.820,LG-H970,1572086303831.5,-3.294,9.716,-0.83,41.1039623,16.8796758,False,NONE
2019-10-26 10:38:23.840,LG-H970,1572086303850.75,0.086,7.356,0.305,41.1039623,16.8796758,False,NONE
2019-10-26 10:38:23.860,LG-H970,1572086303872.0,1.436,9.308,0.193,41.1039623,16.8796758,False,NONE
2019-10-26 10:38:23.880,LG-H970,1572086303888.6667,-3.127,11.678,-2.783,41.1039623,16.8796758,False,NONE
2019-10-26 10:38:23.900,LG-H970,1572086303908.4,-6.396,12.892,-3.645,41.1039623,16.8796758,False,NONE
2019-10-26 10:38:23.920,LG-H970,1572086303931.0,-3.478,9.702,-0.735,41.1039623,16.8796758,False,NONE
2019-10-26 10:38:23.940,LG-H970,1572086303950.5,-0.956,8.515,-1.08,41.1039623,16.8796758,False,NONE
2019-10-26 10:38:23.960,LG-H970,1572086303970.25,-4.618,11.74,-4.178,41.1039623,16.8796758,False,NONE
2019-10-26 10:38:23.980,LG-H970,1572086303990.25,-4.756,12.295,-2.805,41.1039623,16.8796758,False,NONE
2019-10-26 10:38:24.000,LG-H970,1572086304009.75,-0.67,8.436,0.892,41.1039623,16.8796758,False,NONE
2019-10-26 10:38:24.020,LG-H970,1572086304029.75,1.284,8.828,1.923,41.1039623,16.8796758,False,NONE
2019-10-26 10:38:24.040,LG-H970,1572086304049.25,-1.891,11.115,-0.994,41.1039623,16.8796758,False,NONE
2019-10-26 10:38:24.060,LG-H970,1572086304069.25,-2.746,10.541,-1.205,41.1039623,16.8796758,False,NONE
2019-10-26 10:38:24.080,LG-H970,1572086304089.25,1.162,8.236,0.952,41.1039623,16.8796758,False,NONE
2019-10-26 10:38:24.100,LG-H970,1572086304108.5,3.035,8.248,1.771,41.1039623,16.8796758,False,NONE
2019-10-26 10:38:24.120,LG-H970,1572086304128.75,-0.036,10.446,0.509,41.1039623,16.8796758,False,NONE
2019-10-26 10:38:24.140,LG-H970,1572086304147.25,-1.018,11.217,-0.815,41.1039623,16.8796758,False,NONE
2019-10-26 10:38:24.160,LG-H970,1572086304167.5,2.425,8.797,-0.763,41.1039623,16.8796758,False,NONE
2019-10-26 10:38:24.180,LG-H970,1572086304187.25,4.53,8.049,0.727,41.1039623,16.8796758,False,NONE
2019-10-26 10:38:24.200,LG-H970,1572086304207.25,1.9,9.332,-0.789,41.1039623,16.8796758,False,NONE
2019-10-26 10:38:24.220,LG-H970,1572086304229.8,-0.416,11.378,-2.476,41.1039623,16.8796758,False,NONE
2019-10-26 10:38:24.240,LG-H970,1572086304252.0,2.608,9.011,-0.85,41.1039623,16.8796758,False,NONE
2019-10-26 10:38:24.260,LG-H970,1572086304271.25,5.112,7.416,-0.78,41.1039623,16.8796758,False,NONE
2019-10-26 10:38:24.280,LG-H970,1572086304291.25,2.051,9.267,-0.395,41.1039623,16.8796758,False,NONE
2019-10-26 10:38:24.300,LG-H970,1572086304310.5,-1.153,9.964,-4.134,41.1039623,16.8796758,False,NONE
2019-10-26 10:38:24.320,LG-H970,1572086304330.5,0.112,11.881,0.05,41.1039623,16.8796758,False,NONE
2019-10-26 10:38:24.340,LG-H970,1572086304349.75,0.907,8.778,-0.231,41.1039623,16.8796758,False,NONE
2019-10-26 10:38:24.360,LG-H970,1572086304367.3333,0.931,10.154,0.353,41.1039623,16.8796758,False,NONE
2019-10-26 10:38:24.380,LG-H970,1572086304388.6,-1.248,9.891,-2.495,41.1039623,16.8796758,False,NONE
2019-10-26 10:38:24.400,LG-H970,1572086304408.5,-0.964,9.933,-2.026,41.1039623,16.8796758,False,NONE
2019-10-26 10:38:24.420,LG-H970,1572086304428.25,0.548,8.376,-1.042,41.1039623,16.8796758,False,NONE
2019-10-26 10:38:24.440,LG-H970,1572086304448.5,1.174,9.272,0.48,41.1039623,16.8796758,False,NONE
2019-10-26 10:38:24.460,LG-H970,1572086304469.0,-0.612,11.063,-0.447,41.1039623,16.8796758,False,NONE
2019-10-26 10:38:24.480,LG-H970,1572086304488.5,-2.802,11.176,-1.858,41.1039623,16.8796758,False,NONE
2019-10-26 10:38:24.500,LG-H970,1572086304507.5,-1.927,10.992,-1.137,41.1039623,16.8796758,False,NONE
2019-10-26 10:38:24.520,LG-H970,1572086304527.5,-1.92,8.796,-1.449,41.1039623,16.8796758,False,NONE
2019-10-26 10:38:24.540,LG-H970,1572086304550.0,-0.877,10.342,0.004,41.1039623,16.8796758,False,NONE
2019-10-26 10:38:24.560,LG-H970,1572086304570.0,-2.076,11.006,-0.837,41.1039623,16.8796758,False,NONE
2019-10-26 10:38:24.580,LG-H970,1572086304587.25,-4.076,11.222,0.494,41.1039623,16.8796758,False,NONE
2019-10-26 10:38:24.600,LG-H970,1572086304609.2,-2.153,10.373,-1.722,41.1039623,16.8796758,False,NONE
2019-10-26 10:38:24.620,LG-H970,1572086304631.5,-0.395,9.094,0.257,41.1039623,16.8796758,False,NONE
2019-10-26 10:38:24.640,LG-H970,1572086304651.25,-1.449,9.293,-0.645,41.1039623,16.8796758,False,NONE
2019-10-26 10:38:24.660,LG-H970,1572086304671.5,-2.424,11.27,-0.329,41.1039623,16.8796758,False,NONE
2019-10-26 10:38:24.680,LG-H970,1572086304690.75,-0.884,10.855,-0.599,41.1039623,16.8796758,False,NONE
2019-10-26 10:38:24.700,LG-H970,1572086304710.5,-0.175,9.413,0.856,41.1039623,16.8796758,False,NONE
2019-10-26 10:38:24.720,LG-H970,1572086304730.75,-0.2,8.825,-1.186,41.1039623,16.8796758,False,NONE
2019-10-26 10:38:24.740,LG-H970,1572086304749.25,-0.384,9.65,-1.877,41.1039623,16.8796758,False,NONE
2019-10-26 10:38:24.760,LG-H970,1572086304770.25,0.018,9.81,-0.765,41.1039623,16.8796758,False,NONE
2019-10-26 10:38:24.780,LG-H970,1572086304789.5,0.57,8.767,-0.467,41.1039623,16.8796758,False,NONE
2019-10-26 10:38:24.800,LG-H970,1572086304809.25,1.583,9.852,-0.413,41.1039623,16.8796758,False,NONE
2019-10-26 10:38:24.820,LG-H970,1572086304829.0,0.246,9.509,-1.703,41.1039623,16.8796758,False,NONE
2019-10-26 10:38:24.840,LG-H970,1572086304848.5,0.346,9.997,-2.87,41.1039623,16.8796758,False,NONE
2019-10-26 10:38:24.860,LG-H970,1572086304871.0,0.091,8.822,-1.069,41.1039623,16.8796758,False,NONE
2019-10-26 10:38:24.880,LG-H970,1572086304893.0,0.989,9.574,-0.994,41.1039623,16.8796758,False,NONE
2019-10-26 10:38:24.900,LG-H970,1572086304907.25,0.646,10.438,-0.377,41.1039623,16.8796758,False,NONE
2019-10-26 10:38:24.920,LG-H970,1572086304927.25,-0.526,9.299,-1.16,41.1039623,16.8796758,False,NONE
2019-10-26 10:38:24.940,LG-H970,1572086304946.75,0.791,10.386,-0.917,41.1039623,16.8796758,False,NONE
2019-10-26 10:38:24.960,LG-H970,1572086304969.6,0.386,8.727,-1.18,41.1039623,16.8796758,False,NONE
2019-10-26 10:38:24.980,LG-H970,1572086304992.5,-0.211,10.632,-0.698,41.1039623,16.8796758,False,NONE
2019-10-26 10:38:25.000,LG-H970,1572086305010.5,-2.215,9.72,-1.51,41.1039623,16.8796758,False,NONE
2019-10-26 10:38:25.020,LG-H970,1572086305030.75,0.737,11.018,-0.323,41.1039623,16.8796758,False,NONE
2019-10-26 10:38:25.040,LG-H970,1572086305051.25,0.837,8.06,-1.106,41.1039623,16.8796758,False,NONE
2019-10-26 10:38:25.060,LG-H970,1572086305070.5,0.148,9.248,0.107,41.1039623,16.8796758,False,NONE
2019-10-26 10:38:25.080,LG-H970,1572086305090.5,-1.243,9.665,-3.446,41.1039623,16.8796758,False,NONE
2019-10-26 10:38:25.100,LG-H970,1572086305111.0,-1.862,10.21,0.978,41.1039623,16.8796758,False,NONE
2019-10-26 10:38:25.120,LG-H970,1572086305130.0,0.286,9.02,-1.387,41.1039623,16.8796758,False,NONE
2019-10-26 10:38:25.140,LG-H970,1572086305149.5,-0.533,11.087,0.587,41.1039623,16.8796758,False,NONE
2019-10-26 10:38:25.160,LG-H970,1572086305169.25,-1.587,11.076,-1.132,41.1039623,16.8796758,False,NONE
2019-10-26 10:38:25.180,LG-H970,1572086305189.0,-2.627,9.123,-1.076,41.1039623,16.8796758,False,NONE
2019-10-26 10:38:25.200,LG-H970,1572086305209.25,-0.733,10.481,0.249,41.1039623,16.8796758,False,NONE
2019-10-26 10:38:25.220,LG-H970,1572086305229.25,-0.675,9.462,-1.471,41.1039623,16.8796758,False,NONE
2019-10-26 10:38:25.240,LG-H970,1572086305248.5,-0.365,11.021,0.817,41.1039623,16.8796758,False,NONE
2019-10-26 10:38:25.260,LG-H970,1572086305268.25,-0.316,9.133,-2.39,41.1039623,16.8796758,False,NONE
2019-10-26 10:38:25.280,LG-H970,1572086305288.25,-0.493,10.254,1.238,41.1039623,16.8796758,False,NONE
2019-10-26 10:38:25.300,LG-H970,1572086305310.0,-0.768,10.043,-1.883,41.1039623,16.8796758,False,NONE
2019-10-26 10:38:25.320,LG-H970,1572086305330.3333,0.059,11.678,0.847,41.1039623,16.8796758,False,NONE
2019-10-26 10:38:25.340,LG-H970,1572086305349.0,0.768,9.614,-1.303,41.1039623,16.8796758,False,NONE
2019-10-26 10:38:25.360,LG-H970,1572086305369.6667,1.65,11.211,1.432,41.1039623,16.8796758,False,NONE
2019-10-26 10:38:25.380,LG-H970,1572086305390.4,0.178,9.566,-1.651,41.1039623,16.8796758,False,NONE
2019-10-26 10:38:25.400,LG-H970,1572086305412.25,-0.128,11.178,-0.076,41.1039623,16.8796758,False,NONE
2019-10-26 10:38:25.420,LG-H970,1572086305431.75,0.166,8.722,-1.763,41.1039623,16.8796758,False,NONE
2019-10-26 10:38:25.440,LG-H970,1572086305450.5,1.788,10.53,1.323,41.1039623,16.8796758,False,NONE
2019-10-26 10:38:25.460,LG-H970,1572086305468.0,0.283,9.394,-1.43,41.1039623,16.8796758,False,NONE
2019-10-26 10:38:25.480,LG-H970,1572086305487.6,-0.793,10.647,-0.802,41.1039623,16.8796758,False,NONE
2019-10-26 10:38:25.500,LG-H970,1572086305507.5,-0.614,8.187,-2.148,41.1039623,16.8796758,False,NONE
2019-10-26 10:38:25.520,LG-H970,1572086305527.5,2.666,9.964,0.818,41.1039623,16.8796758,False,NONE
2019-10-26 10:38:25.540,LG-H970,1572086305548.0,1.453,8.501,-1.007,41.1039623,16.8796758,False,NONE
2019-10-26 10:38:25.560,LG-H970,1572086305567.75,-0.852,10.793,-0.158,41.1039623,16.8796758,False,NONE
2019-10-26 10:38:25.580,LG-H970,1572086305587.5,-1.351,9.636,-2.424,41.1039623,16.8796758,False,NONE
2019-10-26 10:38:25.600,LG-H970,1572086305607.5,0.765,9.862,0.378,41.1039623,16.8796758,False,NONE
2019-10-26 10:38:25.620,LG-H970,1572086305628.5,0.943,8.258,-0.648,41.1039623,16.8796758,False,NONE
2019-10-26 10:38:25.640,LG-H970,1572086305649.6,-0.506,10.821,-0.373,41.1039623,16.8796758,False,NONE
2019-10-26 10:38:25.660,LG-H970,1572086305671.25,-1.291,9.148,-1.194,41.1039623,16.8796758,False,NONE
2019-10-26 10:38:25.680,LG-H970,1572086305689.75,1.274,9.768,0.866,41.1039623,16.8796758,False,NONE
2019-10-26 10:38:25.700,LG-H970,1572086305709.5,0.166,7.945,-0.838,41.1039623,16.8796758,False,NONE
2019-10-26 10:38:25.720,LG-H970,1572086305729.5,-1.467,10.365,-0.9,41.1039623,16.8796758,False,NONE
2019-10-26 10:38:25.740,LG-H970,1572086305749.75,-1.661,9.353,-1.973,41.1039623,16.8796758,False,NONE
2019-10-26 10:38:25.760,LG-H970,1572086305769.75,0.136,8.999,0.983,41.1039623,16.8796758,False,NONE
2019-10-26 10:38:25.780,LG-H970,1572086305789.5,0.449,8.822,-0.608,41.1039623,16.8796758,False,NONE
2019-10-26 10:38:25.800,LG-H970,1572086305809.75,-1.815,10.555,-0.265,41.1039623,16.8796758,False,NONE
2019-10-26 10:38:25.820,LG-H970,1572086305829.0,-2.522,10.323,-1.464,41.1039623,16.8796758,False,NONE
2019-10-26 10:38:25.840,LG-H970,1572086305848.5,-0.038,10.221,0.82,41.1039623,16.8796758,False,NONE
2019-10-26 10:38:25.860,LG-H970,1572086305870.0,-0.399,8.725,0.389,41.1039623,16.8796758,False,NONE
2019-10-26 10:38:25.880,LG-H970,1572086305889.5,-1.885,10.313,-0.897,41.1039623,16.8796758,False,NONE
2019-10-26 10:38:25.900,LG-H970,1572086305913.0,-2.258,10.458,-1.492,41.1039623,16.8796758,False,NONE
2019-10-26 10:38:25.920,LG-H970,1572086305929.3333,-0.468,9.831,0.279,41.1039623,16.8796758,False,NONE
2019-10-26 10:38:25.940,LG-H970,1572086305951.75,0.39,9.349,0.957,41.1039623,16.8796758,False,NONE
2019-10-26 10:38:25.960,LG-H970,1572086305971.5,-0.265,11.604,0.238,41.1039623,16.8796758,False,NONE
2019-10-26 10:38:25.980,LG-H970,1572086305991.25,-1.146,11.304,-1.413,41.1039623,16.8796758,False,NONE
2019-10-26 10:38:26.000,LG-H970,1572086306011.0,-0.091,9.45,0.702,41.1039623,16.8796758,False,NONE
2019-10-26 10:38:26.020,LG-H970,1572086306030.75,1.436,9.299,0.037,41.1039623,16.8796758,False,NONE
2019-10-26 10:38:26.040,LG-H970,1572086306048.6667,-0.491,9.631,-0.968,41.1039623,16.8796758,False,NONE
2019-10-26 10:38:26.060,LG-H970,1572086306068.6,-0.991,10.752,0.005,41.1039623,16.8796758,False,NONE
2019-10-26 10:38:26.080,LG-H970,1572086306090.0,-0.203,9.315,0.087,41.1039623,16.8796758,False,NONE
2019-10-26 10:38:26.100,LG-H970,1572086306110.0,0.394,9.946,0.555,41.1039623,16.8796758,False,NONE
2019-10-26 10:38:26.120,LG-H970,1572086306129.5,-0.861,8.92,-0.677,41.1039623,16.8796758,False,NONE
2019-10-26 10:38:26.140,LG-H970,1572086306148.25,0.309,10.244,-1.113,41.1039623,16.8796758,False,NONE
2019-10-26 10:38:26.160,LG-H970,1572086306168.0,0.54,8.432,-0.371,41.1039623,16.8796758,False,NONE
2019-10-26 10:38:26.180,LG-H970,1572086306187.75,1.96,9.496,1.533,41.1039623,16.8796758,False,NONE
2019-10-26 10:38:26.200,LG-H970,1572086306207.5,-0.201,8.625,-0.549,41.1039623,16.8796758,False,NONE
2019-10-26 10:38:26.220,LG-H970,1572086306227.75,-2.054,10.665,-1.05,41.1039623,16.8796758,False,NONE
2019-10-26 10:38:26.240,LG-H970,1572086306249.8,-2.039,9.235,-1.178,41.1039623,16.8796758,False,NONE
2019-10-26 10:38:26.260,LG-H970,1572086306272.75,0.837,10.103,1.453,41.1039623,16.8796758,False,NONE
2019-10-26 10:38:26.280,LG-H970,1572086306291.75,1.31,10.97,1.036,41.1039623,16.8796758,False,NONE
2019-10-26 10:38:26.300,LG-H970,1572086306311.75,-0.189,11.327,1.513,41.1039623,16.8796758,False,NONE
2019-10-26 10:38:26.320,LG-H970,1572086306331.5,-0.705,9.659,-2.199,41.1039623,16.8796758,False,NONE
2019-10-26 10:38:26.340,LG-H970,1572086306348.6667,0.306,9.385,0.763,41.1039623,16.8796758,False,NONE
2019-10-26 10:38:26.360,LG-H970,1572086306369.2,1.472,8.289,-1.077,41.1039623,16.8796758,False,NONE
2019-10-26 10:38:26.380,LG-H970,1572086306392.25,0.154,10.63,1.573,41.1039623,16.8796758,False,NONE
2019-10-26 10:38:26.400,LG-H970,1572086306410.75,-1.76,11.073,0.219,41.1039623,16.8796758,False,NONE
2019-10-26 10:38:26.420,LG-H970,1572086306431.25,-1.197,13.355,0.154,41.1039623,16.8796758,False,NONE
2019-10-26 10:38:26.440,LG-H970,1572086306453.0,-1.359,9.622,-0.849,41.1039623,16.8796758,False,NONE
2019-10-26 10:38:26.460,LG-H970,1572086306470.0,0.392,8.68,0.434,41.1039623,16.8796758,False,NONE
2019-10-26 10:38:26.480,LG-H970,1572086306488.5,-0.582,8.191,-0.679,41.1039623,16.8796758,False,NONE
2019-10-26 10:38:26.500,LG-H970,1572086306507.75,-0.357,13.133,0.693,41.1039623,16.8796758,False,NONE
2019-10-26 10:38:26.520,LG-H970,1572086306528.75,-1.262,11.066,-0.793,41.1039623,16.8796758,False,NONE
2019-10-26 10:38:26.540,LG-H970,1572086306548.25,-0.84,10.214,1.134,41.1039623,16.8796758,False,NONE
2019-10-26 10:38:26.560,LG-H970,1572086306568.0,-0.434,8.525,-1.38,41.1039623,16.8796758,False,NONE
2019-10-26 10:38:26.580,LG-H970,1572086306588.0,-1.057,9.482,-0.049,41.1039623,16.8796758,False,NONE
2019-10-26 10:38:26.600,LG-H970,1572086306607.5,-2.263,9.691,-1.567,41.1039623,16.8796758,False,NONE
2019-10-26 10:38:26.620,LG-H970,1572086306629.4,-0.147,11.102,0.831,41.1039623,16.8796758,False,NONE
2019-10-26 10:38:26.640,LG-H970,1572086306650.0,1.624,8.813,0.651,41.1039623,16.8796758,False,NONE
2019-10-26 10:38:26.660,LG-H970,1572086306670.0,1.367,7.759,-0.452,41.1039623,16.8796758,False,NONE
2019-10-26 10:38:26.680,LG-H970,1572086306690.75,-1.116,7.579,-2.651,41.1039623,16.8796758,False,NONE
2019-10-26 10:38:26.700,LG-H970,1572086306710.75,-1.338,11.2,-1.46,41.1039623,16.8796758,False,NONE
2019-10-26 10:38:26.720,LG-H970,1572086306730.25,-0.452,10.516,3.033,41.1039623,16.8796758,False,NONE
2019-10-26 10:38:26.740,LG-H970,1572086306750.25,0.74,11.244,2.435,41.1039623,16.8796758,False,NONE
2019-10-26 10:38:26.760,LG-H970,1572086306771.25,-1.459,11.45,-0.183,41.1039623,16.8796758,False,NONE
2019-10-26 10:38:26.780,LG-H970,1572086306789.25,-1.461,10.322,-1.535,41.1039623,16.8796758,False,NONE
2019-10-26 10:38:26.800,LG-H970,1572086306809.5,0.361,8.184,0.553,41.1039623,16.8796758,False,NONE
2019-10-26 10:38:26.820,LG-H970,1572086306828.75,-0.362,9.047,0.31,41.1039623,16.8796758,False,NONE
2019-10-26 10:38:26.840,LG-H970,1572086306848.25,-1.939,12.601,0.425,41.1039623,16.8796758,False,NONE
2019-10-26 10:38:26.860,LG-H970,1572086306868.5,-0.628,11.624,-0.821,41.1039623,16.8796758,False,NONE
2019-10-26 10:38:26.880,LG-H970,1572086306889.75,2.229,8.558,0.489,41.1039623,16.8796758,False,NONE
2019-10-26 10:38:26.900,LG-H970,1572086306908.0,1.838,5.651,-2.117,41.1039623,16.8796758,False,NONE
2019-10-26 10:38:26.920,LG-H970,1572086306927.25,0.964,8.888,-1.865,41.1039623,16.8796758,False,NONE
2019-10-26 10:38:26.940,LG-H970,1572086306947.5,-0.079,10.192,-2.54,41.1039623,16.8796758,False,NONE
2019-10-26 10:38:26.960,LG-H970,1572086306968.0,1.369,10.922,3.247,41.1039623,16.8796758,False,NONE
2019-10-26 10:38:26.980,LG-H970,1572086306989.8,2.192,8.219,1.51,41.1039623,16.8796758,False,NONE
2019-10-26 10:38:27.000,LG-H970,1572086307011.5,-1.212,10.441,-2.39,41.1039623,16.8796758,False,NONE
2019-10-26 10:38:27.020,LG-H970,1572086307031.5,-3.436,10.475,-4.089,41.1039623,16.8796758,False,NONE
2019-10-26 10:38:27.040,LG-H970,1572086307051.0,0.42,8.738,1.329,41.1039623,16.8796758,False,NONE
2019-10-26 10:38:27.060,LG-H970,1572086307070.75,1.886,6.115,1.892,41.1039623,16.8796758,False,NONE
2019-10-26 10:38:27.080,LG-H970,1572086307090.5,-1.472,10.937,0.217,41.1039623,16.8796758,False,NONE
2019-10-26 10:38:27.100,LG-H970,1572086307110.5,-4.288,12.634,-1.963,41.1039623,16.8796758,False,NONE
2019-10-26 10:38:27.120,LG-H970,1572086307130.5,-1.416,10.037,0.528,41.1039623,16.8796758,False,NONE
2019-10-26 10:38:27.140,LG-H970,1572086307150.0,0.758,7.9,1.765,41.1039623,16.8796758,False,NONE
2019-10-26 10:38:27.160,LG-H970,1572086307170.0,-2.471,10.775,0.389,41.1039623,16.8796758,False,NONE
2019-10-26 10:38:27.180,LG-H970,1572086307190.25,-5.433,13.091,-0.843,41.1039623,16.8796758,False,NONE
2019-10-26 10:38:27.200,LG-H970,1572086307209.5,-2.37,10.869,0.358,41.1039623,16.8796758,False,NONE
2019-10-26 10:38:27.220,LG-H970,1572086307229.25,2.584,10.292,1.91,41.1039623,16.8796758,False,NONE
2019-10-26 10:38:27.240,LG-H970,1572086307248.5,-1.224,9.422,0.078,41.1039623,16.8796758,False,NONE
2019-10-26 10:38:27.260,LG-H970,1572086307268.5,-4.218,12.575,-0.592,41.1039623,16.8796758,False,NONE
2019-10-26 10:38:27.280,LG-H970,1572086307288.5,-1.799,10.551,0.559,41.1039623,16.8796758,False,NONE
2019-10-26 10:38:27.300,LG-H970,1572086307308.0,2.964,9.957,2.663,41.1039623,16.8796758,False,NONE
2019-10-26 10:38:27.320,LG-H970,1572086307327.5,0.561,9.314,-0.467,41.1039623,16.8796758,False,NONE
2019-10-26 10:38:27.340,LG-H970,1572086307349.4,-3.22,11.21,-2.31,41.1039623,16.8796758,False,NONE
2019-10-26 10:38:27.360,LG-H970,1572086307372.0,-1.297,9.6,-1.26,41.1039623,16.8796758,False,NONE
2019-10-26 10:38:27.380,LG-H970,1572086307393.0,2.833,10.972,6.65,41.1039623,16.8796758,False,NONE
2019-10-26 10:38:27.400,LG-H970,1572086307410.5,-2.49,13.246,1.52,41.1039623,16.8796758,False,NONE
2019-10-26 10:38:27.420,LG-H970,1572086307430.5,-12.044,16.029,-2.266,41.1039623,16.8796758,False,NONE
2019-10-26 10:38:27.440,LG-H970,1572086307450.0,-1.994,13.31,-3.295,41.1039623,16.8796758,False,NONE
2019-10-26 10:38:27.460,LG-H970,1572086307470.5,8.911,5.691,2.279,41.1039623,16.8796758,False,NONE
2019-10-26 10:38:27.480,LG-H970,1572086307490.0,2.845,5.075,3.331,41.1039623,16.8796758,False,NONE
2019-10-26 10:38:27.500,LG-H970,1572086307511.5,-6.058,12.237,-4.706,41.1039623,16.8796758,False,NONE
2019-10-26 10:38:27.520,LG-H970,1572086307529.5,-4.021,15.226,-2.882,41.1039623,16.8796758,False,NONE
2019-10-26 10:38:27.540,LG-H970,1572086307549.75,3.977,7.498,1.894,41.1039623,16.8796758,False,NONE
2019-10-26 10:38:27.560,LG-H970,1572086307569.25,8.522,5.478,5.584,41.1039623,16.8796758,False,NONE
2019-10-26 10:38:27.580,LG-H970,1572086307589.0,0.929,7.015,-3.245,41.1039623,16.8796758,False,NONE
2019-10-26 10:38:27.600,LG-H970,1572086307609.0,-4.07,12.22,-4.77,41.1039623,16.8796758,False,NONE
2019-10-26 10:38:27.620,LG-H970,1572086307628.5,-0.444,9.803,-1.504,41.1039623,16.8796758,False,NONE
2019-10-26 10:38:27.640,LG-H970,1572086307648.5,6.7,5.387,6.218,41.1039623,16.8796758,False,NONE
2019-10-26 10:38:27.660,LG-H970,1572086307670.0,5.041,8.042,0.405,41.1039623,16.8796758,False,NONE
2019-10-26 10:38:27.680,LG-H970,1572086307691.5,-5.138,10.791,-4.575,41.1039623,16.8796758,False,NONE
2019-10-26 10:38:27.700,LG-H970,1572086307711.75,-1.388,10.627,-2.136,41.1039623,16.8796758,False,NONE
2019-10-26 10:38:27.720,LG-H970,1572086307731.5,4.976,5.363,2.793,41.1039623,16.8796758,False,NONE
2019-10-26 10:38:27.740,LG-H970,1572086307750.75,3.884,8.91,3.301,41.1039623,16.8796758,False,NONE
2019-10-26 10:38:27.760,LG-H970,1572086307771.25,-3.996,11.616,-3.659,41.1039623,16.8796758,False,NONE
2019-10-26 10:38:27.780,LG-H970,1572086307790.75,-4.592,11.74,-3.091,41.1039623,16.8796758,False,NONE
2019-10-26 10:38:27.800,LG-H970,1572086307809.75,-0.176,5.499,-0.637,41.1039623,16.8796758,False,NONE
2019-10-26 10:38:27.820,LG-H970,1572086307829.75,4.402,7.625,1.242,41.1039623,16.8796758,False,NONE
2019-10-26 10:38:27.840,LG-H970,1572086307848.5,-1.425,10.481,-0.902,41.1039623,16.8796758,False,NONE
2019-10-26 10:38:27.860,LG-H970,1572086307868.75,-5.933,12.815,-2.042,41.1039623,16.8796758,False,NONE
2019-10-26 10:38:27.880,LG-H970,1572086307886.3333,-1.903,12.089,0.112,41.1039623,16.8796758,False,NONE
2019-10-26 10:38:27.900,LG-H970,1572086307908.8,1.403,6.851,0.599,41.1039623,16.8796758,False,NONE
2019-10-26 10:38:27.920,LG-H970,1572086307927.5,-1.003,9.849,0.179,41.1039623,16.8796758,True,NONE
2019-10-26 10:38:27.940,LG-H970,1572086307946.75,-5.535,13.295,-3.733,41.1039623,16.8796758,True,NONE
2019-10-26 10:38:27.960,LG-H970,1572086307969.2,-2.774,12.802,1.37,41.1039623,16.8796758,False,NONE
2019-10-26 10:38:27.980,LG-H970,1572086307991.5,0.938,7.975,2.702,41.1039623,16.8796758,False,NONE
2019-10-26 10:38:28.000,LG-H970,1572086308011.25,-1.211,10.976,1.257,41.1039623,16.8796758,False,NONE
2019-10-26 10:38:28.020,LG-H970,1572086308029.6667,-5.266,10.761,-1.667,41.1039623,16.8796758,False,NONE
2019-10-26 10:38:28.040,LG-H970,1572086308049.6,-5.526,10.767,-2.842,41.1039623,16.8796758,False,NONE
2019-10-26 10:38:28.060,LG-H970,1572086308071.75,-2.748,11.197,-3.307,41.1039623,16.8796758,False,NONE
2019-10-26 10:38:28.080,LG-H970,1572086308091.75,-1.522,8.712,1.145,41.1039623,16.8796758,False,NONE
2019-10-26 10:38:28.100,LG-H970,1572086308109.3333,2.268,8.392,3.125,41.1039623,16.8796758,False,NONE
2019-10-26 10:38:28.120,LG-H970,1572086308129.2,-0.136,10.795,1.2,41.1039623,16.8796758,False,NONE
2019-10-26 10:38:28.140,LG-H970,1572086308150.5,-5.647,13.614,-2.722,41.1039623,16.8796758,False,NONE
2019-10-26 10:38:28.160,LG-H970,1572086308170.5,-1.088,11.085,-0.233,41.1039623,16.8796758,False,NONE
2019-10-26 10:38:28.180,LG-H970,1572086308189.5,6.1,6.278,2.196,41.1039623,16.8796758,False,NONE
2019-10-26 10:38:28.200,LG-H970,1572086308209.25,5.016,9.439,3.228,41.1039623,16.8796758,False,NONE
2019-10-26 10:38:28.220,LG-H970,1572086308229.75,-1.878,12.368,-2.312,41.1039623,16.8796758,False,NONE
2019-10-26 10:38:28.240,LG-H970,1572086308249.75,-1.721,12.27,0.559,41.1039623,16.8796758,False,NONE
2019-10-26 10:38:28.260,LG-H970,1572086308269.5,4.797,8.809,2.082,41.1039623,16.8796758,False,NONE
2019-10-26 10:38:28.280,LG-H970,1572086308288.75,4.915,7.934,2.934,41.1039623,16.8796758,False,NONE
2019-10-26 10:38:28.300,LG-H970,1572086308309.5,0.24,10.497,-2.056,41.1039623,16.8796758,False,NONE
2019-10-26 10:38:28.320,LG-H970,1572086308330.0,0.198,9.683,-2.681,41.1039623,16.8796758,False,NONE
2019-10-26 10:38:28.340,LG-H970,1572086308351.5,4.798,7.091,2.546,41.1039623,16.8796758,False,NONE
2019-10-26 10:38:28.360,LG-H970,1572086308369.0,5.493,7.394,0.804,41.1039623,16.8796758,False,NONE
2019-10-26 10:38:28.380,LG-H970,1572086308389.4,0.653,9.147,-0.873,41.1039623,16.8796758,False,NONE
2019-10-26 10:38:28.400,LG-H970,1572086308410.5,-1.307,8.142,-3.157,41.1039623,16.8796758,False,NONE
2019-10-26 10:38:28.420,LG-H970,1572086308430.75,1.889,6.837,-1.987,41.1039623,16.8796758,False,NONE
2019-10-26 10:38:28.440,LG-H970,1572086308450.75,2.54,7.159,1.345,41.1039623,16.8796758,False,NONE
2019-10-26 10:38:28.460,LG-H970,1572086308470.75,-0.665,9.403,1.06,41.1039623,16.8796758,False,NONE
2019-10-26 10:38:28.480,LG-H970,1572086308491.25,-1.405,13.948,-0.18,41.1039623,16.8796758,False,NONE
2019-10-26 10:38:28.500,LG-H970,1572086308509.5,-2.493,12.367,-0.26,41.1039623,16.8796758,False,NONE
2019-10-26 10:38:28.520,LG-H970,1572086308529.5,-0.958,7.863,0.137,41.1039623,16.8796758,False,NONE
2019-10-26 10:38:28.540,LG-H970,1572086308549.5,1.54,7.967,-0.642,41.1039623,16.8796758,False,NONE
2019-10-26 10:38:28.560,LG-H970,1572086308569.75,-2.276,10.256,-0.452,41.1039623,16.8796758,False,NONE
2019-10-26 10:38:28.580,LG-H970,1572086308589.5,-3.698,13.76,0.817,41.1039623,16.8796758,False,NONE
2019-10-26 10:38:28.600,LG-H970,1572086308609.75,-2.98,13.047,1.225,41.1039623,16.8796758,False,NONE
2019-10-26 10:38:28.620,LG-H970,1572086308629.25,-1.9,10.7,0.725,41.1039623,16.8796758,False,NONE
2019-10-26 10:38:28.640,LG-H970,1572086308649.25,-2.24,8.832,-0.85,41.1039623,16.8796758,False,NONE
2019-10-26 10:38:28.660,LG-H970,1572086308668.75,-2.254,9.872,-1.237,41.1039623,16.8796758,False,NONE
2019-10-26 10:38:28.680,LG-H970,1572086308687.75,-3.097,12.643,-0.543,41.1039623,16.8796758,False,NONE
2019-10-26 10:38:28.700,LG-H970,1572086308707.5,-4.448,12.871,1.43,41.1039623,16.8796758,False,NONE
2019-10-26 10:38:28.720,LG-H970,1572086308727.0,-0.42,11.111,2.099,41.1039623,16.8796758,False,NONE
2019-10-26 10:38:28.740,LG-H970,1572086308747.5,3.029,8.484,0.61,41.1039623,16.8796758,False,NONE
2019-10-26 10:38:28.760,LG-H970,1572086308767.0,-0.604,10.274,-1.78,41.1039623,16.8796758,False,NONE
2019-10-26 10:38:28.780,LG-H970,1572086308789.6,-3.537,13.125,-0.594,41.1039623,16.8796758,False,NONE
2019-10-26 10:38:28.800,LG-H970,1572086308810.75,-1.802,12.83,0.498,41.1039623,16.8796758,False,NONE
2019-10-26 10:38:28.820,LG-H970,1572086308831.0,-0.247,11.552,4.211,41.1039623,16.8796758,False,NONE
2019-10-26 10:38:28.840,LG-H970,1572086308850.25,1.82,7.741,-0.178,41.1039623,16.8796758,False,NONE
2019-10-26 10:38:28.860,LG-H970,1572086308871.25,0.565,8.215,-1.554,41.1039623,16.8796758,False,NONE
2019-10-26 10:38:28.880,LG-H970,1572086308888.0,-1.27,9.607,-3.153,41.1039623,16.8796758,False,NONE
2019-10-26 10:38:28.900,LG-H970,1572086308908.8,-1.052,9.412,0.025,41.1039623,16.8796758,False,NONE
2019-10-26 10:38:28.920,LG-H970,1572086308928.5,1.805,9.986,2.4,41.1039623,16.8796758,False,NONE
2019-10-26 10:38:28.940,LG-H970,1572086308948.75,1.337,8.686,0.497,41.1039623,16.8796758,False,NONE
2019-10-26 10:38:28.960,LG-H970,1572086308968.5,-0.424,7.631,-2.472,41.1039623,16.8796758,False,NONE
2019-10-26 10:38:28.980,LG-H970,1572086308988.25,-0.532,7.55,-4.36,41.1039623,16.8796758,False,NONE
2019-10-26 10:38:29.000,LG-H970,1572086309008.0,-0.153,7.267,-0.282,41.1039623,16.8796758,False,NONE
2019-10-26 10:38:29.020,LG-H970,1572086309028.0,2.335,9.797,1.897,41.1039623,16.8796758,False,NONE
2019-10-26 10:38:29.040,LG-H970,1572086309048.25,2.974,11.311,0.956,41.1039623,16.8796758,False,NONE
2019-10-26 10:38:29.060,LG-H970,1572086309067.5,-0.321,9.3,0.613,41.1039623,16.8796758,False,NONE
2019-10-26 10:38:29.080,LG-H970,1572086309088.0,0.748,9.13,-2.352,41.1039623,16.8796758,False,NONE
2019-10-26 10:38:29.100,LG-H970,1572086309109.4,1.81,8.082,-1.353,41.1039623,16.8796758,False,NONE
2019-10-26 10:38:29.120,LG-H970,1572086309130.75,2.465,8.784,2.049,41.1039623,16.8796758,False,NONE
2019-10-26 10:38:29.140,LG-H970,1572086309150.75,1.179,10.571,0.801,41.1039623,16.8796758,False,NONE
2019-10-26 10:38:29.160,LG-H970,1572086309170.75,1.105,11.986,0.327,41.1039623,16.8796758,False,NONE
2019-10-26 10:38:29.180,LG-H970,1572086309190.5,0.877,7.797,-3.408,41.1039623,16.8796758,False,NONE
2019-10-26 10:38:29.200,LG-H970,1572086309210.75,-0.744,7.281,-1.057,41.1039623,16.8796758,False,NONE
2019-10-26 10:38:29.220,LG-H970,1572086309230.75,-0.491,9.49,-2.634,41.1039623,16.8796758,False,NONE
2019-10-26 10:38:29.240,LG-H970,1572086309250.0,0.369,10.812,0.392,41.1039623,16.8796758,False,NONE
2019-10-26 10:38:29.260,LG-H970,1572086309270.0,0.17,10.711,1.704,41.1039623,16.8796758,False,NONE
2019-10-26 10:38:29.280,LG-H970,1572086309289.25,-0.42,10.064,0.208,41.1039623,16.8796758,False,NONE
2019-10-26 10:38:29.300,LG-H970,1572086309308.75,-2.741,9.617,-2.75,41.1039623,16.8796758,False,NONE
2019-10-26 10:38:29.320,LG-H970,1572086309328.5,-2.622,10.265,-2.166,41.1039623,16.8796758,False,NONE
2019-10-26 10:38:29.340,LG-H970,1572086309348.5,0.04,9.973,-0.369,41.1039623,16.8796758,False,NONE
2019-10-26 10:38:29.360,LG-H970,1572086309368.75,-0.594,10.332,2.509,41.1039623,16.8796758,False,NONE
2019-10-26 10:38:29.380,LG-H970,1572086309390.8,-2.038,12.225,0.352,41.1039623,16.8796758,False,NONE
2019-10-26 10:38:29.400,LG-H970,1572086309412.25,-2.793,11.334,-2.366,41.1039623,16.8796758,False,NONE
2019-10-26 10:38:29.420,LG-H970,1572086309431.75,-1.374,9.288,-1.682,41.1039623,16.8796758,False,NONE
2019-10-26 10:38:29.440,LG-H970,1572086309451.5,0.601,7.489,-0.478,41.1039623,16.8796758,False,NONE
2019-10-26 10:38:29.460,LG-H970,1572086309469.0,-1.338,9.046,1.661,41.1039623,16.8796758,False,NONE
2019-10-26 10:38:29.480,LG-H970,1572086309489.0,-3.578,11.865,0.484,41.1039623,16.8796758,False,NONE
2019-10-26 10:38:29.500,LG-H970,1572086309510.5,-1.643,11.905,-0.711,41.1039623,16.8796758,False,NONE
2019-10-26 10:38:29.520,LG-H970,1572086309530.5,-1.643,9.186,-1.404,41.1039623,16.8796758,False,NONE
2019-10-26 10:38:29.540,LG-H970,1572086309550.25,-0.686,7.458,-0.784,41.1039623,16.8796758,False,NONE
2019-10-26 10:38:29.560,LG-H970,1572086309570.25,0.6,8.779,-0.17,41.1039623,16.8796758,False,NONE
2019-10-26 10:38:29.580,LG-H970,1572086309589.5,-1.797,11.949,-0.128,41.1039623,16.8796758,False,NONE
2019-10-26 10:38:29.600,LG-H970,1572086309609.75,-2.702,11.931,1.608,41.1039623,16.8796758,False,NONE
2019-10-26 10:38:29.620,LG-H970,1572086309629.75,0.417,10.171,0.415,41.1039623,16.8796758,False,NONE
2019-10-26 10:38:29.640,LG-H970,1572086309649.25,0.44,8.719,0.104,41.1039623,16.8796758,False,NONE
2019-10-26 10:38:29.660,LG-H970,1572086309669.0,-0.217,9.295,-0.939,41.1039623,16.8796758,False,NONE
2019-10-26 10:38:29.680,LG-H970,1572086309689.0,-0.457,10.245,-0.545,41.1039623,16.8796758,False,NONE
2019-10-26 10:38:29.700,LG-H970,1572086309708.5,1.043,10.54,1.918,41.1039623,16.8796758,False,NONE
2019-10-26 10:38:29.720,LG-H970,1572086309728.0,1.969,8.567,1.161,41.1039623,16.8796758,False,NONE
2019-10-26 10:38:29.740,LG-H970,1572086309747.75,2.228,8.71,-1.382,41.1039623,16.8796758,False,NONE
2019-10-26 10:38:29.760,LG-H970,1572086309767.5,0.862,7.493,-2.26,41.1039623,16.8796758,False,NONE
2019-10-26 10:38:29.780,LG-H970,1572086309789.4,0.624,9.078,-0.096,41.1039623,16.8796758,False,NONE
2019-10-26 10:38:29.800,LG-H970,1572086309809.6667,-0.78,8.789,1.461,41.1039623,16.8796758,False,NONE
2019-10-26 10:38:29.820,LG-H970,1572086309829.4,0.285,10.769,0.09,41.1039623,16.8796758,False,NONE
2019-10-26 10:38:29.840,LG-H970,1572086309850.5,0.801,10.145,0.051,41.1039623,16.8796758,False,NONE
2019-10-26 10:38:29.860,LG-H970,1572086309870.75,2.438,8.753,-0.403,41.1039623,16.8796758,False,NONE
2019-10-26 10:38:29.880,LG-H970,1572086309888.6667,2.352,8.852,0.663,41.1039623,16.8796758,False,NONE
2019-10-26 10:38:29.900,LG-H970,1572086309908.25,0.473,11.144,-0.645,41.1039623,16.8796758,False,NONE
2019-10-26 10:38:29.920,LG-H970,1572086309929.25,-0.733,11.992,-0.797,41.1039623,16.8796758,False,NONE
2019-10-26 10:38:29.940,LG-H970,1572086309949.25,1.824,10.474,-0.51,41.1039623,16.8796758,False,NONE
2019-10-26 10:38:29.960,LG-H970,1572086309969.25,2.37,9.087,-1.14,41.1039623,16.8796758,False,NONE
2019-10-26 10:38:29.980,LG-H970,1572086309989.0,0.442,10.514,-1.613,41.1039623,16.8796758,False,NONE
2019-10-26 10:38:30.000,LG-H970,1572086310009.0,-1.423,10.7,-2.841,41.1039623,16.8796758,False,NONE
2019-10-26 10:38:30.020,LG-H970,1572086310028.75,-0.003,10.104,-0.857,41.1039623,16.8796758,False,NONE
2019-10-26 10:38:30.040,LG-H970,1572086310048.5,1.129,8.172,-0.93,41.1039623,16.8796758,False,NONE
2019-10-26 10:38:30.060,LG-H970,1572086310068.0,0.991,9.482,-0.018,41.1039623,16.8796758,False,NONE
2019-10-26 10:38:30.080,LG-H970,1572086310088.25,0.207,10.404,-2.003,41.1039623,16.8796758,False,NONE
2019-10-26 10:38:30.100,LG-H970,1572086310107.75,-0.813,9.876,-0.73,41.1039623,16.8796758,False,NONE
2019-10-26 10:38:30.120,LG-H970,1572086310129.4,0.976,9.63,-1.559,41.1039623,16.8796758,False,NONE
2019-10-26 10:38:30.140,LG-H970,1572086310151.5,0.964,9.547,0.139,41.1039623,16.8796758,False,NONE
2019-10-26 10:38:30.160,LG-H970,1572086310171.5,0.065,10.465,-0.853,41.1039623,16.8796758,False,NONE
2019-10-26 10:38:30.180,LG-H970,1572086310191.5,-0.701,11.24,-0.55,41.1039623,16.8796758,False,NONE
2019-10-26 10:38:30.200,LG-H970,1572086310210.75,-1.11,10.051,-0.742,41.1039623,16.8796758,False,NONE
2019-10-26 10:38:30.220,LG-H970,1572086310230.75,0.253,10.127,-1.95,41.1039623,16.8796758,False,NONE
2019-10-26 10:38:30.240,LG-H970,1572086310250.25,0.445,8.747,-2.106,41.1039623,16.8796758,False,NONE
2019-10-26 10:38:30.260,LG-H970,1572086310270.0,0.766,6.525,-2.428,41.1039623,16.8796758,False,NONE
2019-10-26 10:38:30.280,LG-H970,1572086310289.75,3.311,6.505,-1.233,41.1039623,16.8796758,False,NONE
2019-10-26 10:38:30.300,LG-H970,1572086310309.5,1.283,6.462,-1.375,41.1039623,16.8796758,False,NONE
2019-10-26 10:38:30.320,LG-H970,1572086310329.5,-2.282,11.073,-1.723,41.1039623,16.8796758,False,NONE
2019-10-26 10:38:30.340,LG-H970,1572086310349.25,-2.866,11.948,-0.941,41.1039623,16.8796758,False,NONE
2019-10-26 10:38:30.360,LG-H970,1572086310369.0,-0.43,7.233,0.976,41.1039623,16.8796758,False,NONE
2019-10-26 10:38:30.380,LG-H970,1572086310388.5,-0.142,9.35,0.477,41.1039623,16.8796758,False,NONE
2019-10-26 10:38:30.400,LG-H970,1572086310408.75,-3.803,10.955,-1.833,41.1039623,16.8796758,False,NONE
2019-10-26 10:38:30.420,LG-H970,1572086310427.5,-4.526,12.317,-0.873,41.1039623,16.8796758,False,NONE
2019-10-26 10:38:30.440,LG-H970,1572086310447.5,-4.042,11.895,-0.806,41.1039623,16.8796758,False,NONE
2019-10-26 10:38:30.460,LG-H970,1572086310467.5,1.691,12.497,6.248,41.1039623,16.8796758,False,NONE
2019-10-26 10:38:30.480,LG-H970,1572086310489.4,-5.164,12.411,1.748,41.1039623,16.8796758,False,NONE
2019-10-26 10:38:30.500,LG-H970,1572086310509.0,-10.756,13.63,-5.151,41.1039623,16.8796758,False,NONE
2019-10-26 10:38:30.520,LG-H970,1572086310529.0,-0.339,12.248,-3.47,41.1039623,16.8796758,False,NONE
2019-10-26 10:38:30.540,LG-H970,1572086310550.75,5.144,5.876,5.248,41.1039623,16.8796758,False,NONE
2019-10-26 10:38:30.560,LG-H970,1572086310571.0,-0.002,12.546,-0.544,41.1039623,16.8796758,False,NONE
2019-10-26 10:38:30.580,LG-H970,1572086310590.75,-6.536,14.815,-4.192,41.1039623,16.8796758,False,NONE
2019-10-26 10:38:30.600,LG-H970,1572086310610.25,-1.268,10.377,-4.494,41.1039623,16.8796758,False,NONE
2019-10-26 10:38:30.620,LG-H970,1572086310629.75,4.855,5.294,3.395,41.1039623,16.8796758,False,NONE
2019-10-26 10:38:30.640,LG-H970,1572086310649.5,3.585,8.234,1.33,41.1039623,16.8796758,False,NONE
2019-10-26 10:38:30.660,LG-H970,1572086310669.25,-1.549,11.883,-6.082,41.1039623,16.8796758,False,NONE
2019-10-26 10:38:30.680,LG-H970,1572086310689.25,-1.673,11.585,-4.181,41.1039623,16.8796758,False,NONE
2019-10-26 10:38:30.700,LG-H970,1572086310710.25,2.566,8.027,1.601,41.1039623,16.8796758,False,NONE
2019-10-26 10:38:30.720,LG-H970,1572086310730.2,5.049,6.803,1.694,41.1039623,16.8796758,False,NONE
2019-10-26 10:38:30.740,LG-H970,1572086310750.0,1.337,9.259,-2.921,41.1039623,16.8796758,False,NONE
2019-10-26 10:38:30.760,LG-H970,1572086310767.75,-2.169,10.711,-3.637,41.1039623,16.8796758,False,NONE
2019-10-26 10:38:30.780,LG-H970,1572086310787.75,-0.406,9.357,-1.262,41.1039623,16.8796758,False,NONE
2019-10-26 10:38:30.800,LG-H970,1572086310807.0,4.201,7.935,2.738,41.1039623,16.8796758,False,NONE
2019-10-26 10:38:30.820,LG-H970,1572086310829.6,2.498,9.041,0.717,41.1039623,16.8796758,False,NONE
2019-10-26 10:38:30.840,LG-H970,1572086310851.5,-2.451,11.772,-1.864,41.1039623,16.8796758,False,NONE
2019-10-26 10:38:30.860,LG-H970,1572086310871.75,-1.362,9.954,-1.421,41.1039623,16.8796758,True,NONE
2019-10-26 10:38:30.880,LG-H970,1572086310890.0,3.329,7.417,1.126,41.1039623,16.8796758,True,NONE
2019-10-26 10:38:30.900,LG-H970,1572086310909.5,2.411,8.063,0.565,41.1039623,16.8796758,False,NONE
2019-10-26 10:38:30.920,LG-H970,1572086310929.5,-1.972,11.172,-1.868,41.1039623,16.8796758,False,NONE
2019-10-26 10:38:30.940,LG-H970,1572086310949.5,-1.619,10.624,0.55,41.1039623,16.8796758,False,NONE
2019-10-26 10:38:30.960,LG-H970,1572086310970.25,4.134,8.084,2.786,41.1039623,16.8796758,False,NONE
2019-10-26 10:38:30.980,LG-H970,1572086310989.75,4.353,7.792,2.637,41.1039623,16.8796758,False,NONE
2019-10-26 10:38:31.000,LG-H970,1572086311009.5,-1.0,9.846,-3.079,41.1039623,16.8796758,False,NONE
2019-10-26 10:38:31.020,LG-H970,1572086311029.5,-4.392,9.948,-5.481,41.1039623,16.8796758,False,NONE
2019-10-26 10:38:31.040,LG-H970,1572086311049.5,-1.346,8.533,1.122,41.1039623,16.8796758,False,NONE
2019-10-26 10:38:31.060,LG-H970,1572086311068.75,3.139,6.934,1.98,41.1039623,16.8796758,False,NONE
2019-10-26 10:38:31.080,LG-H970,1572086311088.75,-1.671,11.297,1.02,41.1039623,16.8796758,False,NONE
2019-10-26 10:38:31.100,LG-H970,1572086311107.5,-9.421,11.084,-1.534,41.1039623,16.8796758,False,NONE
2019-10-26 10:38:31.120,LG-H970,1572086311128.25,-4.635,11.188,-3.642,41.1039623,16.8796758,False,NONE
2019-10-26 10:38:31.140,LG-H970,1572086311147.75,-4.905,8.213,-2.372,41.1039623,16.8796758,False,NONE
2019-10-26 10:38:31.160,LG-H970,1572086311167.25,-7.069,8.969,-3.214,41.1039623,16.8796758,False,NONE
2019-10-26 10:38:31.180,LG-H970,1572086311189.4,-3.744,9.34,-0.383,41.1039623,16.8796758,False,NONE
2019-10-26 10:38:31.200,LG-H970,1572086311211.5,-2.595,10.975,1.466,41.1039623,16.8796758,False,NONE
2019-10-26 10:38:31.220,LG-H970,1572086311231.0,-5.626,13.034,0.525,41.1039623,16.8796758,False,NONE
2019-10-26 10:38:31.240,LG-H970,1572086311251.0,-4.239,12.313,-0.201,41.1039623,16.8796758,False,NONE
2019-10-26 10:38:31.260,LG-H970,1572086311271.0,-0.133,10.116,1.03,41.1039623,16.8796758,False,NONE
2019-10-26 10:38:31.280,LG-H970,1572086311290.5,1.033,10.323,1.273,41.1039623,16.8796758,False,NONE
2019-10-26 10:38:31.300,LG-H970,1572086311310.25,-1.262,11.741,0.166,41.1039623,16.8796758,False,NONE
2019-10-26 10:38:31.320,LG-H970,1572086311330.0,-1.622,12.208,0.544,41.1039623,16.8796758,False,NONE
2019-10-26 10:38:31.340,LG-H970,1572086311349.5,0.968,10.695,1.445,41.1039623,16.8796758,False,NONE
2019-10-26 10:38:31.360,LG-H970,1572086311369.75,2.468,9.564,2.05,41.1039623,16.8796758,False,NONE
2019-10-26 10:38:31.380,LG-H970,1572086311389.25,1.457,9.984,-0.669,41.1039623,16.8796758,False,NONE
2019-10-26 10:38:31.400,LG-H970,1572086311409.75,0.066,10.466,0.52,41.1039623,16.8796758,False,NONE
2019-10-26 10:38:31.420,LG-H970,1572086311428.0,1.388,10.487,0.67,41.1039623,16.8796758,False,NONE
2019-10-26 10:38:31.440,LG-H970,1572086311447.5,2.318,9.299,1.914,41.1039623,16.8796758,False,NONE
2019-10-26 10:38:31.460,LG-H970,1572086311467.5,1.993,8.059,0.487,41.1039623,16.8796758,False,NONE
2019-10-26 10:38:31.480,LG-H970,1572086311487.5,1.057,9.523,-1.637,41.1039623,16.8796758,False,NONE
2019-10-26 10:38:31.500,LG-H970,1572086311508.0,0.487,9.474,-0.827,41.1039623,16.8796758,False,NONE
2019-10-26 10:38:31.520,LG-H970,1572086311531.5,2.465,9.351,0.577,41.1039623,16.8796758,False,NONE
2019-10-26 10:38:31.540,LG-H970,1572086311551.0,1.916,9.28,1.134,41.1039623,16.8796758,False,NONE
2019-10-26 10:38:31.560,LG-H970,1572086311571.25,0.198,10.468,-1.451,41.1039623,16.8796758,False,NONE
2019-10-26 10:38:31.580,LG-H970,1572086311590.75,-0.816,9.388,-1.561,41.1039623,16.8796758,False,NONE
2019-10-26 10:38:31.600,LG-H970,1572086311611.5,1.583,8.968,-0.085,41.1039623,16.8796758,False,NONE
2019-10-26 10:38:31.620,LG-H970,1572086311631.0,1.072,8.904,0.203,41.1039623,16.8796758,False,NONE
2019-10-26 10:38:31.640,LG-H970,1572086311650.25,-1.035,11.012,0.102,41.1039623,16.8796758,False,NONE
2019-10-26 10:38:31.660,LG-H970,1572086311670.0,-1.125,10.97,-0.83,41.1039623,16.8796758,False,NONE
2019-10-26 10:38:31.680,LG-H970,1572086311689.75,0.776,9.089,1.08,41.1039623,16.8796758,False,NONE
2019-10-26 10:38:31.700,LG-H970,1572086311709.75,1.336,7.285,0.625,41.1039623,16.8796758,False,NONE
2019-10-26 10:38:31.720,LG-H970,1572086311729.75,-0.843,9.524,-1.346,41.1039623,16.8796758,False,NONE
2019-10-26 10:38:31.740,LG-H970,1572086311749.5,-2.385,11.334,-1.112,41.1039623,16.8796758,False,NONE
2019-10-26 10:38:31.760,LG-H970,1572086311768.75,-1.717,9.813,-0.553,41.1039623,16.8796758,False,NONE
2019-10-26 10:38:31.780,LG-H970,1572086311788.25,0.213,9.165,0.912,41.1039623,16.8796758,False,NONE
2019-10-26 10:38:31.800,LG-H970,1572086311807.75,-1.866,8.527,-0.234,41.1039623,16.8796758,False,NONE
2019-10-26 10:38:31.820,LG-H970,1572086311830.0,-2.56,10.751,-0.98,41.1039623,16.8796758,False,NONE
2019-10-26 10:38:31.840,LG-H970,1572086311853.0,-2.646,9.855,0.699,41.1039623,16.8796758,False,NONE
2019-10-26 10:38:31.860,LG-H970,1572086311872.0,-1.521,10.109,0.817,41.1039623,16.8796758,False,NONE
2019-10-26 10:38:31.880,LG-H970,1572086311889.6667,-2.485,9.445,0.273,41.1039623,16.8796758,False,NONE
2019-10-26 10:38:31.900,LG-H970,1572086311908.8,-2.129,11.233,-0.164,41.1039623,16.8796758,False,NONE
2019-10-26 10:38:31.920,LG-H970,1572086311931.0,-1.036,10.292,-1.387,41.1039623,16.8796758,False,NONE
2019-10-26 10:38:31.940,LG-H970,1572086311950.5,0.233,9.801,0.303,41.1039623,16.8796758,False,NONE
2019-10-26 10:38:31.960,LG-H970,1572086311971.0,-0.135,9.048,-0.991,41.1039623,16.8796758,False,NONE
2019-10-26 10:38:31.980,LG-H970,1572086311990.0,-0.753,10.608,0.275,41.1039623,16.8796758,False,NONE
2019-10-26 10:38:32.000,LG-H970,1572086312010.25,-0.071,10.596,-1.114,41.1039623,16.8796758,False,NONE
2019-10-26 10:38:32.020,LG-H970,1572086312029.75,1.592,9.584,0.314,41.1039623,16.8796758,False,NONE
2019-10-26 10:38:32.040,LG-H970,1572086312049.25,1.789,8.843,0.009,41.1039623,16.8796758,False,NONE
2019-10-26 10:38:32.060,LG-H970,1572086312069.25,1.167,10.687,-0.437,41.1039623,16.8796758,False,NONE
2019-10-26 10:38:32.080,LG-H970,1572086312089.25,0.377,10.757,-0.523,41.1039623,16.8796758,False,NONE
2019-10-26 10:38:32.100,LG-H970,1572086312108.75,1.142,9.774,-0.153,41.1039623,16.8796758,False,NONE
2019-10-26 10:38:32.120,LG-H970,1572086312128.5,1.93,8.639,-0.335,41.1039623,16.8796758,False,NONE
2019-10-26 10:38:32.140,LG-H970,1572086312148.75,1.567,8.825,0.124,41.1039623,16.8796758,False,NONE
2019-10-26 10:38:32.160,LG-H970,1572086312168.0,-0.862,9.362,-0.836,41.1039623,16.8796758,False,NONE
2019-10-26 10:38:32.180,LG-H970,1572086312189.8,-1.503,11.084,0.068,41.1039623,16.8796758,False,NONE
2019-10-26 10:38:32.200,LG-H970,1572086312211.75,-0.569,10.483,0.839,41.1039623,16.8796758,False,NONE
2019-10-26 10:38:32.220,LG-H970,1572086312231.75,-1.282,9.582,0.602,41.1039623,16.8796758,False,NONE
2019-10-26 10:38:32.240,LG-H970,1572086312251.5,-1.757,10.28,-0.847,41.1039623,16.8796758,False,NONE
2019-10-26 10:38:32.260,LG-H970,1572086312271.5,-1.313,9.925,-0.718,41.1039623,16.8796758,False,NONE
2019-10-26 10:38:32.280,LG-H970,1572086312291.25,-0.856,9.487,0.355,41.1039623,16.8796758,False,NONE
2019-10-26 10:38:32.300,LG-H970,1572086312310.75,-1.168,9.991,-0.137,41.1039623,16.8796758,False,NONE
2019-10-26 10:38:32.320,LG-H970,1572086312331.0,-0.432,8.24,-1.328,41.1039623,16.8796758,False,NONE
2019-10-26 10:38:32.340,LG-H970,1572086312350.25,1.805,6.62,-1.93,41.1039623,16.8796758,False,NONE
2019-10-26 10:38:32.360,LG-H970,1572086312370.0,2.338,4.887,-0.538,41.1039623,16.8796758,False,NONE
2019-10-26 10:38:32.380,LG-H970,1572086312390.25,0.388,7.822,-1.209,41.1039623,16.8796758,False,NONE
2019-10-26 10:38:32.400,LG-H970,1572086312409.5,-2.952,12.32,-1.067,41.1039623,16.8796758,False,NONE
2019-10-26 10:38:32.420,LG-H970,1572086312429.5,-3.884,11.2,1.314,41.1039623,16.8796758,False,NONE
2019-10-26 10:38:32.440,LG-H970,1572086312447.5,0.417,9.241,2.126,41.1039623,16.8796758,False,NONE
2019-10-26 10:38:32.460,LG-H970,1572086312467.75,-0.397,9.186,-0.499,41.1039623,16.8796758,False,NONE
2019-10-26 10:38:32.480,LG-H970,1572086312488.0,-2.744,11.009,-0.192,41.1039623,16.8796758,False,NONE
2019-10-26 10:38:32.500,LG-H970,1572086312505.6667,-2.384,11.128,-0.916,41.1039623,16.8796758,False,NONE
2019-10-26 10:38:32.520,LG-H970,1572086312534.3333,-1.921,11.325,1.665,41.1039623,16.8796758,False,NONE
2019-10-26 10:38:32.540,LG-H970,1572086312549.0,-1.188,12.67,1.367,41.1039623,16.8796758,False,NONE
2019-10-26 10:38:32.560,LG-H970,1572086312569.0,-0.452,11.482,1.807,41.1039623,16.8796758,False,NONE
2019-10-26 10:38:32.580,LG-H970,1572086312590.5,-2.442,12.473,0.832,41.1039623,16.8796758,False,NONE
2019-10-26 10:38:32.600,LG-H970,1572086312611.0,-3.891,12.903,-1.753,41.1039623,16.8796758,False,NONE
2019-10-26 10:38:32.620,LG-H970,1572086312630.5,-2.725,11.185,-0.063,41.1039623,16.8796758,False,NONE
2019-10-26 10:38:32.640,LG-H970,1572086312650.75,1.225,9.279,1.244,41.1039623,16.8796758,False,NONE
2019-10-26 10:38:32.660,LG-H970,1572086312670.5,2.367,9.798,-0.181,41.1039623,16.8796758,False,NONE
2019-10-26 10:38:32.680,LG-H970,1572086312690.25,-1.507,10.829,-0.389,41.1039623,16.8796758,False,NONE
2019-10-26 10:38:32.700,LG-H970,1572086312709.75,-2.474,11.138,-1.762,41.1039623,16.8796758,False,NONE
2019-10-26 10:38:32.720,LG-H970,1572086312729.75,0.507,9.988,0.709,41.1039623,16.8796758,False,NONE
2019-10-26 10:38:32.740,LG-H970,1572086312748.5,2.546,8.594,0.972,41.1039623,16.8796758,False,NONE
2019-10-26 10:38:32.760,LG-H970,1572086312770.0,1.158,9.655,-0.251,41.1039623,16.8796758,False,NONE
2019-10-26 10:38:32.780,LG-H970,1572086312788.25,0.273,9.485,-2.392,41.1039623,16.8796758,False,NONE
2019-10-26 10:38:32.800,LG-H970,1572086312808.5,0.629,7.957,-1.765,41.1039623,16.8796758,False,NONE
2019-10-26 10:38:32.820,LG-H970,1572086312828.25,1.766,9.054,0.324,41.1039623,16.8796758,False,NONE
2019-10-26 10:38:32.840,LG-H970,1572086312848.0,0.916,9.82,1.77,41.1039623,16.8796758,False,NONE
2019-10-26 10:38:32.860,LG-H970,1572086312871.0,-0.5,11.24,-0.217,41.1039623,16.8796758,False,NONE
2019-10-26 10:38:32.880,LG-H970,1572086312891.75,-0.979,10.155,-0.541,41.1039623,16.8796758,False,NONE
2019-10-26 10:38:32.900,LG-H970,1572086312911.3333,0.339,7.927,0.487,41.1039623,16.8796758,False,NONE
