UTC_timestamp,device_name,timestamp,x,y,z,lat,long,event,speed
2019-10-26 10:40:29.180,LG-H970,1572086429188.3333,-2.545,9.445,-2.924,41.1037524,16.8801939,False,NONE
2019-10-26 10:40:29.200,LG-H970,1572086429206.75,-3.213,10.774,-3.95,41.1037524,16.8801939,False,NONE
2019-10-26 10:40:29.220,LG-H970,1572086429228.8,2.21,8.445,-1.049,41.1037524,16.8801939,False,NONE
2019-10-26 10:40:29.240,LG-H970,1572086429249.5,4.38,7.357,3.52,41.1037524,16.8801939,False,NONE
2019-10-26 10:40:29.260,LG-H970,1572086429269.75,1.479,9.0,-0.21,41.1037524,16.8801939,False,NONE
2019-10-26 10:40:29.280,LG-H970,1572086429289.5,-1.34,10.348,-2.801,41.1037524,16.8801939,False,NONE
2019-10-26 10:40:29.300,LG-H970,1572086429309.75,-0.775,9.078,-1.583,41.1037524,16.8801939,False,NONE
2019-10-26 10:40:29.320,LG-H970,1572086429329.75,0.745,7.671,0.721,41.1037524,16.8801939,False,NONE
2019-10-26 10:40:29.340,LG-H970,1572086429349.0,-0.034,8.976,-0.319,41.1037524,16.8801939,False,NONE
2019-10-26 10:40:29.360,LG-H970,1572086429368.0,-2.906,10.962,-1.145,41.1037524,16.8801939,False,NONE
2019-10-26 10:40:29.380,LG-H970,1572086429388.25,-3.025,10.652,-1.53,41.1037524,16.8801939,False,NONE
2019-10-26 10:40:29.400,LG-H970,1572086429409.25,-0.125,8.485,0.479,41.1037524,16.8801939,False,NONE
2019-10-26 10:40:29.420,LG-H970,1572086429430.6,0.703,7.699,-0.3,41.1037524,16.8801939,False,NONE
2019-10-26 10:40:29.440,LG-H970,1572086429451.75,-2.881,11.148,-0.748,41.1037524,16.8801939,False,NONE
2019-10-26 10:40:29.460,LG-H970,1572086429471.6667,-3.157,11.76,-0.932,41.1037524,16.8801939,False,NONE
2019-10-26 10:40:29.480,LG-H970,1572086429490.75,1.026,9.32,1.683,41.1037524,16.8801939,False,NONE
2019-10-26 10:40:29.500,LG-H970,1572086429510.0,3.149,7.81,2.123,41.1037524,16.8801939,False,NONE
2019-10-26 10:40:29.520,LG-H970,1572086429529.5,0.151,9.47,1.204,41.1037524,16.8801939,False,NONE
2019-10-26 10:40:29.540,LG-H970,1572086429548.75,-2.58,11.422,-1.824,41.1037524,16.8801939,False,NONE
2019-10-26 10:40:29.560,LG-H970,1572086429568.5,-0.343,11.215,0.045,41.1037524,16.8801939,False,NONE
2019-10-26 10:40:29.580,LG-H970,1572086429588.5,0.455,9.142,-0.446,41.1037524,16.8801939,True,NONE
2019-10-26 10:40:29.600,LG-H970,1572086429608.5,-0.873,8.926,0.403,41.1037524,16.8801939,False,NONE
2019-10-26 10:40:29.620,LG-H970,1572086429628.0,-1.904,9.79,-2.679,41.1037524,16.8801939,False,NONE
2019-10-26 10:40:29.640,LG-H970,1572086429647.5,-2.986,9.934,-1.265,41.1037524,16.8801939,False,NONE
2019-10-26 10:40:29.660,LG-H970,1572086429667.75,-2.299,9.689,-0.484,41.1037524,16.8801939,False,NONE
2019-10-26 10:40:29.680,LG-H970,1572086429685.6667,-1.49,9.476,-0.412,41.1037524,16.8801939,False,NONE
2019-10-26 10:40:29.700,LG-H970,1572086429709.6,-2.98,9.845,-1.41,41.1037524,16.8801939,False,NONE
2019-10-26 10:40:29.720,LG-H970,1572086429732.25,-4.35,10.393,-1.953,41.1037524,16.8801939,False,NONE
2019-10-26 10:40:29.740,LG-H970,1572086429751.5,-2.549,9.814,-0.225,41.1037524,16.8801939,False,NONE
2019-10-26 10:40:29.760,LG-H970,1572086429770.75,-2.431,8.886,0.969,41.1037524,16.8801939,False,NONE
2019-10-26 10:40:29.780,LG-H970,1572086429788.3333,-2.862,10.276,3.267,41.1037524,16.8801939,False,NONE
2019-10-26 10:40:29.800,LG-H970,1572086429810.0,-5.428,10.893,-1.133,41.1037524,16.8801939,False,NONE
2019-10-26 10:40:29.820,LG-H970,1572086429832.25,-6.182,13.435,-3.402,41.1037524,16.8801939,False,NONE
2019-10-26 10:40:29.840,LG-H970,1572086429850.5,-5.216,10.106,-4.72,41.1037524,16.8801939,False,NONE
2019-10-26 10:40:29.860,LG-H970,1572086429870.5,-0.766,7.633,1.227,41.1037524,16.8801939,False,NONE
2019-10-26 10:40:29.880,LG-H970,1572086429890.5,0.313,8.574,1.1,41.1037524,16.8801939,False,NONE
2019-10-26 10:40:29.900,LG-H970,1572086429910.5,-3.527,14.324,0.959,41.1037524,16.8801939,False,NONE
2019-10-26 10:40:29.920,LG-H970,1572086429929.5,-4.45,13.813,-2.181,41.1037524,16.8801939,False,NONE
2019-10-26 10:40:29.940,LG-H970,1572086429949.5,0.388,9.462,1.8,41.1037524,16.8801939,False,NONE
2019-10-26 10:40:29.960,LG-H970,1572086429969.75,3.57,5.979,1.742,41.1037524,16.8801939,False,NONE
2019-10-26 10:40:29.980,LG-H970,1572086429989.5,1.341,10.061,0.063,41.1037524,16.8801939,False,NONE
2019-10-26 10:40:30.000,LG-H970,1572086430008.75,-1.67,12.254,-1.607,41.1037524,16.8801939,False,NONE
2019-10-26 10:40:30.020,LG-H970,1572086430027.5,0.177,10.191,1.462,41.1037524,16.8801939,False,NONE
2019-10-26 10:40:30.040,LG-H970,1572086430047.5,3.925,6.769,2.332,41.1037524,16.8801939,False,NONE
2019-10-26 10:40:30.060,LG-H970,1572086430067.5,2.555,7.37,0.178,41.1037524,16.8801939,False,NONE
2019-10-26 10:40:30.080,LG-H970,1572086430087.5,0.117,10.002,-3.447,41.1037524,16.8801939,False,NONE
2019-10-26 10:40:30.100,LG-H970,1572086430109.8,1.547,7.529,-1.52,41.1037524,16.8801939,False,NONE
2019-10-26 10:40:30.120,LG-H970,1572086430131.75,5.008,5.731,2.79,41.1037524,16.8801939,False,NONE
2019-10-26 10:40:30.140,LG-H970,1572086430152.25,1.111,7.886,0.985,41.1037524,16.8801939,False,NONE
2019-10-26 10:40:30.160,LG-H970,1572086430171.75,-3.373,12.212,-1.888,41.1037524,16.8801939,False,NONE
2019-10-26 10:40:30.180,LG-H970,1572086430190.0,-1.669,11.121,-0.864,41.1037524,16.8801939,False,NONE
2019-10-26 10:40:30.200,LG-H970,1572086430210.0,0.721,8.073,1.271,41.1037524,16.8801939,False,NONE
2019-10-26 10:40:30.220,LG-H970,1572086430229.5,-1.02,8.302,0.222,41.1037524,16.8801939,False,NONE
2019-10-26 10:40:30.240,LG-H970,1572086430249.5,-3.979,10.932,-3.289,41.1037524,16.8801939,False,NONE
2019-10-26 10:40:30.260,LG-H970,1572086430269.0,-3.037,11.632,-0.662,41.1037524,16.8801939,False,NONE
2019-10-26 10:40:30.280,LG-H970,1572086430288.5,1.48,10.108,3.398,41.1037524,16.8801939,False,NONE
2019-10-26 10:40:30.300,LG-H970,1572086430308.25,-3.55,9.575,1.999,41.1037524,16.8801939,False,NONE
2019-10-26 10:40:30.320,LG-H970,1572086430327.75,-7.872,16.117,-2.272,41.1037524,16.8801939,False,NONE
2019-10-26 10:40:30.340,LG-H970,1572086430347.75,-5.982,13.575,-3.815,41.1037524,16.8801939,False,NONE
2019-10-26 10:40:30.360,LG-H970,1572086430367.5,0.064,9.588,2.405,41.1037524,16.8801939,False,NONE
2019-10-26 10:40:30.380,LG-H970,1572086430389.8,-2.652,10.017,-0.297,41.1037524,16.8801939,False,NONE
2019-10-26 10:40:30.400,LG-H970,1572086430411.5,-7.348,14.652,-2.982,41.1037524,16.8801939,False,NONE
2019-10-26 10:40:30.420,LG-H970,1572086430431.5,-3.599,11.879,-1.974,41.1037524,16.8801939,False,NONE
2019-10-26 10:40:30.440,LG-H970,1572086430451.5,1.807,8.254,0.755,41.1037524,16.8801939,False,NONE
2019-10-26 10:40:30.460,LG-H970,1572086430471.0,0.258,7.812,-0.439,41.1037524,16.8801939,False,NONE
2019-10-26 10:40:30.480,LG-H970,1572086430489.0,-3.637,10.359,-2.198,41.1037524,16.8801939,False,NONE
2019-10-26 10:40:30.500,LG-H970,1572086430508.4,-2.746,11.635,-2.031,41.1037524,16.8801939,False,NONE
2019-10-26 10:40:30.520,LG-H970,1572086430530.25,0.81,9.599,2.106,41.1037524,16.8801939,False,NONE
2019-10-26 10:40:30.540,LG-H970,1572086430550.0,2.04,8.837,1.648,41.1037524,16.8801939,False,NONE
2019-10-26 10:40:30.560,LG-H970,1572086430569.5,0.184,9.588,-1.596,41.1037524,16.8801939,False,NONE
2019-10-26 10:40:30.580,LG-H970,1572086430589.5,-0.814,9.212,-2.879,41.1037524,16.8801939,False,NONE
2019-10-26 10:40:30.600,LG-H970,1572086430609.25,0.554,8.184,-0.418,41.1037524,16.8801939,False,NONE
2019-10-26 10:40:30.620,LG-H970,1572086430629.5,2.429,8.279,1.109,41.1037524,16.8801939,False,NONE
2019-10-26 10:40:30.640,LG-H970,1572086430648.5,2.148,8.966,0.544,41.1037524,16.8801939,False,NONE
2019-10-26 10:40:30.660,LG-H970,1572086430669.0,0.994,9.958,-1.504,41.1037524,16.8801939,False,NONE
2019-10-26 10:40:30.680,LG-H970,1572086430688.25,0.154,9.143,-1.031,41.1037524,16.8801939,False,NONE
2019-10-26 10:40:30.700,LG-H970,1572086430707.5,1.812,8.417,-0.167,41.1037524,16.8801939,False,NONE
2019-10-26 10:40:30.720,LG-H970,1572086430729.8,1.913,9.312,0.415,41.1037524,16.8801939,False,NONE
2019-10-26 10:40:30.740,LG-H970,1572086430751.5,-0.714,10.598,-0.086,41.1037524,16.8801939,False,NONE
2019-10-26 10:40:30.760,LG-H970,1572086430771.5,-0.652,10.447,-1.093,41.1037524,16.8801939,False,NONE
2019-10-26 10:40:30.780,LG-H970,1572086430793.0,1.098,9.353,-0.161,41.1037524,16.8801939,False,NONE
2019-10-26 10:40:30.800,LG-H970,1572086430811.5,0.718,9.047,-0.662,41.1037524,16.8801939,False,NONE
2019-10-26 10:40:30.820,LG-H970,1572086430831.0,-1.334,11.156,-1.075,41.1037524,16.8801939,False,NONE
2019-10-26 10:40:30.840,LG-H970,1572086430851.0,-2.586,10.943,-2.113,41.1037524,16.8801939,False,NONE
2019-10-26 10:40:30.860,LG-H970,1572086430870.75,-0.02,9.551,-0.723,41.1037524,16.8801939,False,NONE
2019-10-26 10:40:30.880,LG-H970,1572086430890.0,1.636,8.112,-0.724,41.1037524,16.8801939,False,NONE
2019-10-26 10:40:30.900,LG-H970,1572086430907.6667,-0.205,9.066,-1.831,41.1037524,16.8801939,False,NONE
2019-10-26 10:40:30.920,LG-H970,1572086430928.4,-1.689,10.523,-2.106,41.1037524,16.8801939,False,NONE
2019-10-26 10:40:30.940,LG-H970,1572086430949.25,-0.27,10.015,-0.42,41.1037524,16.8801939,False,NONE
2019-10-26 10:40:30.960,LG-H970,1572086430968.75,2.389,9.561,0.836,41.1037524,16.8801939,False,NONE
2019-10-26 10:40:30.980,LG-H970,1572086430989.0,1.173,9.621,-0.376,41.1037524,16.8801939,False,NONE
2019-10-26 10:40:31.000,LG-H970,1572086431008.25,-0.356,9.821,-1.112,41.1037524,16.8801939,False,NONE
2019-10-26 10:40:31.020,LG-H970,1572086431027.5,0.609,8.389,-0.541,41.1037524,16.8801939,False,NONE
2019-10-26 10:40:31.040,LG-H970,1572086431047.5,2.146,9.722,0.437,41.1037524,16.8801939,False,NONE
2019-10-26 10:40:31.060,LG-H970,1572086431068.0,-2.17,9.7,-1.837,41.1037524,16.8801939,False,NONE
2019-10-26 10:40:31.080,LG-H970,1572086431089.8,-2.777,10.69,-2.579,41.1037524,16.8801939,False,NONE
2019-10-26 10:40:31.100,LG-H970,1572086431109.0,0.536,8.311,-1.031,41.1037524,16.8801939,False,NONE
2019-10-26 10:40:31.120,LG-H970,1572086431129.2,0.968,8.565,0.204,41.1037524,16.8801939,False,NONE
2019-10-26 10:40:31.140,LG-H970,1572086431149.0,-2.507,10.914,-2.364,41.1037524,16.8801939,False,NONE
2019-10-26 10:40:31.160,LG-H970,1572086431169.2,-3.365,11.951,-1.469,41.1037524,16.8801939,False,NONE
2019-10-26 10:40:31.180,LG-H970,1572086431191.0,0.051,8.674,-0.35,41.1037524,16.8801939,False,NONE
2019-10-26 10:40:31.200,LG-H970,1572086431210.5,1.101,7.965,0.209,41.1037524,16.8801939,False,NONE
2019-10-26 10:40:31.220,LG-H970,1572086431230.25,-1.372,10.874,-1.625,41.1037524,16.8801939,False,NONE
2019-10-26 10:40:31.240,LG-H970,1572086431249.5,-3.189,12.867,-1.787,41.1037524,16.8801939,False,NONE
2019-10-26 10:40:31.260,LG-H970,1572086431269.5,-1.066,10.838,-0.21,41.1037524,16.8801939,False,NONE
2019-10-26 10:40:31.280,LG-H970,1572086431289.75,2.075,8.91,0.705,41.1037524,16.8801939,False,NONE
2019-10-26 10:40:31.300,LG-H970,1572086431309.5,0.231,8.913,-0.697,41.1037524,16.8801939,False,NONE
2019-10-26 10:40:31.320,LG-H970,1572086431329.5,-1.78,11.766,-2.087,41.1037524,16.8801939,False,NONE
2019-10-26 10:40:31.340,LG-H970,1572086431349.5,-0.429,11.304,-0.941,41.1037524,16.8801939,False,NONE
2019-10-26 10:40:31.360,LG-H970,1572086431369.0,1.845,8.58,1.554,41.1037524,16.8801939,False,NONE
2019-10-26 10:40:31.380,LG-H970,1572086431389.0,1.275,8.548,0.306,41.1037524,16.8801939,False,NONE
2019-10-26 10:40:31.400,LG-H970,1572086431408.5,-1.174,10.583,-2.125,41.1037524,16.8801939,False,NONE
2019-10-26 10:40:31.420,LG-H970,1572086431429.5,-1.069,10.012,-1.399,41.1037524,16.8801939,False,NONE
2019-10-26 10:40:31.440,LG-H970,1572086431447.5,1.061,8.466,0.999,41.1037524,16.8801939,False,NONE
2019-10-26 10:40:31.460,LG-H970,1572086431467.75,1.39,8.869,1.918,41.1037524,16.8801939,False,NONE
2019-10-26 10:40:31.480,LG-H970,1572086431487.25,-1.489,10.36,-0.544,41.1037524,16.8801939,False,NONE
2019-10-26 10:40:31.500,LG-H970,1572086431507.5,-2.616,11.404,-2.426,41.1037524,16.8801939,False,NONE
2019-10-26 10:40:31.520,LG-H970,1572086431527.5,0.527,8.905,-0.42,41.1037524,16.8801939,False,NONE
2019-10-26 10:40:31.540,LG-H970,1572086431550.0,3.858,8.889,1.412,41.1037524,16.8801939,False,NONE
2019-10-26 10:40:31.560,LG-H970,1572086431571.5,1.331,12.311,0.194,41.1037524,16.8801939,False,NONE
2019-10-26 10:40:31.580,LG-H970,1572086431591.5,0.167,12.385,-0.686,41.1037524,16.8801939,False,NONE
2019-10-26 10:40:31.600,LG-H970,1572086431611.0,2.587,9.094,-0.295,41.1037524,16.8801939,False,NONE
2019-10-26 10:40:31.620,LG-H970,1572086431630.5,2.745,8.667,-1.389,41.1037524,16.8801939,False,NONE
2019-10-26 10:40:31.640,LG-H970,1572086431650.75,0.134,10.747,-1.964,41.1037524,16.8801939,False,NONE
2019-10-26 10:40:31.660,LG-H970,1572086431671.0,-0.303,11.005,-0.897,41.1037524,16.8801939,False,NONE
2019-10-26 10:40:31.680,LG-H970,1572086431690.75,0.733,10.809,0.72,41.1037524,16.8801939,False,NONE
2019-10-26 10:40:31.700,LG-H970,1572086431709.25,0.259,10.125,-0.93,41.1037524,16.8801939,False,NONE
2019-10-26 10:40:31.720,LG-H970,1572086431726.6667,-0.808,10.069,-0.792,41.1037524,16.8801939,False,NONE
2019-10-26 10:40:31.740,LG-H970,1572086431747.6,0.029,8.979,-1.958,41.1037524,16.8801939,False,NONE
2019-10-26 10:40:31.760,LG-H970,1572086431768.75,0.955,9.398,-0.795,41.1037524,16.8801939,False,NONE
2019-10-26 10:40:31.780,LG-H970,1572086431787.75,-0.351,9.395,-0.956,41.1037524,16.8801939,False,NONE
2019-10-26 10:40:31.800,LG-H970,1572086431808.0,-0.349,9.938,-0.387,41.1037524,16.8801939,False,NONE
2019-10-26 10:40:31.820,LG-H970,1572086431828.0,1.067,8.733,-1.094,41.1037524,16.8801939,False,NONE
2019-10-26 10:40:31.840,LG-H970,1572086431849.8,1.914,8.1,-0.241,41.1037524,16.8801939,False,NONE
2019-10-26 10:40:31.860,LG-H970,1572086431871.5,-0.145,8.031,-1.026,41.1037524,16.8801939,False,NONE
2019-10-26 10:40:31.880,LG-H970,1572086431891.75,-0.459,10.812,-0.156,41.1037524,16.8801939,False,NONE
2019-10-26 10:40:31.900,LG-H970,1572086431911.75,-0.159,9.505,-0.322,41.1037524,16.8801939,False,NONE
2019-10-26 10:40:31.920,LG-H970,1572086431929.3333,1.533,10.307,0.602,41.1037524,16.8801939,False,NONE
2019-10-26 10:40:31.940,LG-H970,1572086431947.0,0.866,9.605,-1.151,41.1037524,16.8801939,False,NONE
2019-10-26 10:40:31.960,LG-H970,1572086431968.8,0.045,9.698,-0.137,41.1037524,16.8801939,False,NONE
2019-10-26 10:40:31.980,LG-H970,1572086431990.75,-0.067,9.029,-0.106,41.1037524,16.8801939,False,NONE
2019-10-26 10:40:32.000,LG-H970,1572086432011.0,0.233,10.718,0.439,41.1037524,16.8801939,False,NONE
2019-10-26 10:40:32.020,LG-H970,1572086432030.5,-1.464,10.404,-0.776,41.1037524,16.8801939,False,NONE
2019-10-26 10:40:32.040,LG-H970,1572086432050.5,-1.875,10.185,-0.787,41.1037524,16.8801939,False,NONE
2019-10-26 10:40:32.060,LG-H970,1572086432070.5,-0.999,8.557,-0.552,41.1037524,16.8801939,False,NONE
2019-10-26 10:40:32.080,LG-H970,1572086432088.6667,-0.29,9.875,-1.178,41.1037524,16.8801939,False,NONE
2019-10-26 10:40:32.100,LG-H970,1572086432110.0,-2.488,10.733,-1.105,41.1037524,16.8801939,False,NONE
2019-10-26 10:40:32.120,LG-H970,1572086432129.75,-1.955,10.964,-0.54,41.1037524,16.8801939,False,NONE
2019-10-26 10:40:32.140,LG-H970,1572086432149.5,-0.594,9.672,-0.167,41.1037524,16.8801939,False,NONE
2019-10-26 10:40:32.160,LG-H970,1572086432168.75,0.311,10.218,-0.221,41.1037524,16.8801939,False,NONE
2019-10-26 10:40:32.180,LG-H970,1572086432188.25,-1.47,10.292,-1.795,41.1037524,16.8801939,False,NONE
2019-10-26 10:40:32.200,LG-H970,1572086432208.0,-2.168,11.093,-1.132,41.1037524,16.8801939,False,NONE
2019-10-26 10:40:32.220,LG-H970,1572086432230.2,-0.086,9.817,0.145,41.1037524,16.8801939,False,NONE
2019-10-26 10:40:32.240,LG-H970,1572086432252.5,0.089,10.098,0.036,41.1037524,16.8801939,False,NONE
2019-10-26 10:40:32.260,LG-H970,1572086432271.5,-2.218,10.437,-1.904,41.1037524,16.8801939,False,NONE
2019-10-26 10:40:32.280,LG-H970,1572086432291.75,-1.289,9.317,-1.882,41.1037524,16.8801939,False,NONE
2019-10-26 10:40:32.300,LG-H970,1572086432311.0,0.058,8.034,-1.042,41.1037524,16.8801939,False,NONE
2019-10-26 10:40:32.320,LG-H970,1572086432334.6667,-0.08,10.397,-0.259,41.1037524,16.8801939,False,NONE
2019-10-26 10:40:32.340,LG-H970,1572086432351.0,-0.796,10.556,-0.286,41.1037524,16.8801939,False,NONE
2019-10-26 10:40:32.360,LG-H970,1572086432371.0,0.597,10.411,0.728,41.1037524,16.8801939,False,NONE
2019-10-26 10:40:32.380,LG-H970,1572086432389.5,0.801,8.891,-0.379,41.1037524,16.8801939,False,NONE
2019-10-26 10:40:32.400,LG-H970,1572086432409.75,-0.575,10.147,-0.612,41.1037524,16.8801939,False,NONE
2019-10-26 10:40:32.420,LG-H970,1572086432429.75,-1.506,10.002,-1.451,41.1037524,16.8801939,False,NONE
2019-10-26 10:40:32.440,LG-H970,1572086432450.25,0.552,10.393,0.47,41.1037524,16.8801939,False,NONE
2019-10-26 10:40:32.460,LG-H970,1572086432470.5,0.524,8.616,0.359,41.1037524,16.8801939,False,NONE
2019-10-26 10:40:32.480,LG-H970,1572086432489.0,0.319,10.502,-0.353,41.1037524,16.8801939,False,NONE
2019-10-26 10:40:32.500,LG-H970,1572086432508.5,-0.627,9.654,-0.899,41.1037524,16.8801939,False,NONE
2019-10-26 10:40:32.520,LG-H970,1572086432528.25,1.214,10.458,-0.255,41.1037524,16.8801939,False,NONE
2019-10-26 10:40:32.540,LG-H970,1572086432547.5,1.293,9.794,-0.621,41.1037524,16.8801939,False,NONE
2019-10-26 10:40:32.560,LG-H970,1572086432568.0,0.368,9.542,0.392,41.1037524,16.8801939,False,NONE
2019-10-26 10:40:32.580,LG-H970,1572086432590.2,0.537,9.471,-0.647,41.1037524,16.8801939,False,NONE
2019-10-26 10:40:32.600,LG-H970,1572086432612.0,-0.2,9.446,0.019,41.1037524,16.8801939,False,NONE
2019-10-26 10:40:32.620,LG-H970,1572086432632.0,0.249,10.627,-0.599,41.1037524,16.8801939,False,NONE
2019-10-26 10:40:32.640,LG-H970,1572086432650.75,-0.486,10.203,0.419,41.1037524,16.8801939,False,NONE
2019-10-26 10:40:32.660,LG-H970,1572086432671.25,0.786,9.274,-0.982,41.1037524,16.8801939,False,NONE
2019-10-26 10:40:32.680,LG-H970,1572086432691.0,0.265,9.008,-0.301,41.1037524,16.8801939,False,NONE
2019-10-26 10:40:32.700,LG-H970,1572086432710.25,-0.194,9.988,-1.772,41.1037524,16.8801939,False,NONE
2019-10-26 10:40:32.720,LG-H970,1572086432730.25,-0.81,9.562,-0.851,41.1037524,16.8801939,False,NONE
2019-10-26 10:40:32.740,LG-H970,1572086432749.0,-0.354,9.418,-0.517,41.1037524,16.8801939,False,NONE
2019-10-26 10:40:32.760,LG-H970,1572086432769.25,-1.122,9.475,-0.034,41.1037524,16.8801939,False,NONE
2019-10-26 10:40:32.780,LG-H970,1572086432788.75,-1.504,10.24,0.161,41.1037524,16.8801939,False,NONE
2019-10-26 10:40:32.800,LG-H970,1572086432807.75,-1.441,10.582,-1.391,41.1037524,16.8801939,False,NONE
2019-10-26 10:40:32.820,LG-H970,1572086432828.25,-2.336,10.285,-0.772,41.1037524,16.8801939,False,NONE
2019-10-26 10:40:32.840,LG-H970,1572086432847.5,-1.568,10.349,-0.778,41.1037524,16.8801939,False,NONE
2019-10-26 10:40:32.860,LG-H970,1572086432867.75,-1.149,9.714,0.51,41.1037524,16.8801939,False,NONE
2019-10-26 10:40:32.880,LG-H970,1572086432887.5,-0.529,10.835,-0.8,41.1037524,16.8801939,False,NONE
2019-10-26 10:40:32.900,LG-H970,1572086432907.5,-2.451,10.192,-1.137,41.1037524,16.8801939,False,NONE
2019-10-26 10:40:32.920,LG-H970,1572086432927.25,-0.969,10.258,-0.786,41.1037524,16.8801939,False,NONE
2019-10-26 10:40:32.940,LG-H970,1572086432949.8,0.856,9.411,-0.417,41.1037524,16.8801939,False,NONE
2019-10-26 10:40:32.960,LG-H970,1572086432971.75,-0.171,10.68,0.726,41.1037524,16.8801939,False,NONE
2019-10-26 10:40:32.980,LG-H970,1572086432991.5,-0.39,11.229,-0.735,41.1037524,16.8801939,False,NONE
2019-10-26 10:40:33.000,LG-H970,1572086433011.25,-0.236,9.579,0.6,41.1037524,16.8801939,False,NONE
2019-10-26 10:40:33.020,LG-H970,1572086433031.25,0.724,9.274,-0.994,41.1037524,16.8801939,False,NONE
2019-10-26 10:40:33.040,LG-H970,1572086433051.0,-0.259,10.104,-1.297,41.1037524,16.8801939,False,NONE
2019-10-26 10:40:33.060,LG-H970,1572086433070.75,-0.603,10.105,-0.66,41.1037524,16.8801939,False,NONE
2019-10-26 10:40:33.080,LG-H970,1572086433090.75,-0.312,8.873,0.23,41.1037524,16.8801939,False,NONE
2019-10-26 10:40:33.100,LG-H970,1572086433110.5,-0.439,9.186,-0.124,41.1037524,16.8801939,False,NONE
2019-10-26 10:40:33.120,LG-H970,1572086433129.75,-1.644,9.456,-0.491,41.1037524,16.8801939,False,NONE
2019-10-26 10:40:33.140,LG-H970,1572086433150.25,-0.988,9.767,-1.188,41.1037524,16.8801939,False,NONE
2019-10-26 10:40:33.160,LG-H970,1572086433169.75,0.021,9.435,0.066,41.1037524,16.8801939,False,NONE
2019-10-26 10:40:33.180,LG-H970,1572086433189.5,-0.658,9.289,-0.328,41.1037524,16.8801939,False,NONE
2019-10-26 10:40:33.200,LG-H970,1572086433208.25,-1.957,10.639,0.084,41.1037524,16.8801939,False,NONE
2019-10-26 10:40:33.220,LG-H970,1572086433228.5,-2.097,9.839,-1.129,41.1037524,16.8801939,False,NONE
2019-10-26 10:40:33.240,LG-H970,1572086433248.25,-0.863,9.302,-0.074,41.1037524,16.8801939,False,NONE
2019-10-26 10:40:33.260,LG-H970,1572086433267.75,-0.292,9.298,-0.654,41.1037524,16.8801939,False,NONE
2019-10-26 10:40:33.280,LG-H970,1572086433289.2,-1.904,10.2,-0.487,41.1037524,16.8801939,False,NONE
2019-10-26 10:40:33.300,LG-H970,1572086433309.0,-1.438,10.787,-0.789,41.1037524,16.8801939,False,NONE
2019-10-26 10:40:33.320,LG-H970,1572086433327.25,-1.285,9.861,-0.531,41.1037524,16.8801939,False,NONE
2019-10-26 10:40:33.340,LG-H970,1572086433349.6,-0.744,9.951,-0.76,41.1037524,16.8801939,False,NONE
2019-10-26 10:40:33.360,LG-H970,1572086433370.0,-1.07,9.481,-0.535,41.1037524,16.8801939,False,NONE
2019-10-26 10:40:33.380,LG-H970,1572086433390.0,-0.444,9.604,-0.726,41.1037524,16.8801939,False,NONE
2019-10-26 10:40:33.400,LG-H970,1572086433410.25,-0.683,10.197,-0.147,41.1037524,16.8801939,False,NONE
2019-10-26 10:40:33.420,LG-H970,1572086433430.5,-0.818,9.672,0.185,41.1037524,16.8801939,False,NONE
2019-10-26 10:40:33.440,LG-H970,1572086433450.6667,-0.944,9.467,-1.131,41.1037524,16.8801939,False,NONE
2019-10-26 10:40:33.460,LG-H970,1572086433468.5,-1.613,9.378,-0.591,41.1037524,16.8801939,False,NONE
2019-10-26 10:40:33.480,LG-H970,1572086433489.25,-1.395,9.473,-1.865,41.1037524,16.8801939,False,NONE
2019-10-26 10:40:33.500,LG-H970,1572086433508.5,-1.634,8.667,0.132,41.1037524,16.8801939,False,NONE
2019-10-26 10:40:33.520,LG-H970,1572086433529.25,-3.163,6.536,-0.388,41.1037524,16.8801939,False,NONE
2019-10-26 10:40:33.540,LG-H970,1572086433547.5,-5.457,6.017,-0.962,41.1037524,16.8801939,False,NONE
2019-10-26 10:40:33.560,LG-H970,1572086433567.5,-2.653,9.45,-4.078,41.1037524,16.8801939,False,NONE
2019-10-26 10:40:33.580,LG-H970,1572086433587.5,0.745,9.577,-1.235,41.1037524,16.8801939,False,NONE
2019-10-26 10:40:33.600,LG-H970,1572086433607.5,1.174,7.016,4.264,41.1037524,16.8801939,False,NONE
2019-10-26 10:40:33.620,LG-H970,1572086433629.6,0.575,11.536,-0.032,41.1037524,16.8801939,False,NONE
2019-10-26 10:40:33.640,LG-H970,1572086433651.5,-2.331,13.975,-2.943,41.1037524,16.8801939,False,NONE
2019-10-26 10:40:33.660,LG-H970,1572086433671.75,1.401,9.263,-0.812,41.1037524,16.8801939,False,NONE
2019-10-26 10:40:33.680,LG-H970,1572086433691.25,5.856,6.28,4.471,41.1037524,16.8801939,False,NONE
2019-10-26 10:40:33.700,LG-H970,1572086433711.0,5.513,14.793,1.399,41.1037524,16.8801939,False,NONE
2019-10-26 10:40:33.720,LG-H970,1572086433731.75,2.25,20.954,-4.158,41.1037524,16.8801939,False,NONE
2019-10-26 10:40:33.740,LG-H970,1572086433750.5,1.301,12.888,6.548,41.1037524,16.8801939,False,NONE
2019-10-26 10:40:33.760,LG-H970,1572086433770.25,8.756,6.445,-0.205,41.1037524,16.8801939,False,NONE
2019-10-26 10:40:33.780,LG-H970,1572086433790.25,3.932,11.59,-0.774,41.1037524,16.8801939,False,NONE
2019-10-26 10:40:33.800,LG-H970,1572086433809.75,-3.275,11.229,-4.136,41.1037524,16.8801939,False,NONE
2019-10-26 10:40:33.820,LG-H970,1572086433830.0,-0.559,11.661,0.233,41.1037524,16.8801939,False,NONE
2019-10-26 10:40:33.840,LG-H970,1572086433849.25,5.247,9.292,3.989,41.1037524,16.8801939,False,NONE
2019-10-26 10:40:33.860,LG-H970,1572086433869.0,2.486,10.258,1.306,41.1037524,16.8801939,False,NONE
2019-10-26 10:40:33.880,LG-H970,1572086433888.5,-4.489,11.89,-1.503,41.1037524,16.8801939,False,NONE
2019-10-26 10:40:33.900,LG-H970,1572086433908.0,-3.943,8.843,-3.138,41.1037524,16.8801939,False,NONE
2019-10-26 10:40:33.920,LG-H970,1572086433930.2,0.521,8.277,0.039,41.1037524,16.8801939,False,NONE
2019-10-26 10:40:33.940,LG-H970,1572086433951.5,-2.112,10.038,2.183,41.1037524,16.8801939,False,NONE
2019-10-26 10:40:33.960,LG-H970,1572086433971.25,-5.41,11.282,1.102,41.1037524,16.8801939,False,NONE
2019-10-26 10:40:33.980,LG-H970,1572086433991.25,-3.951,8.613,-2.382,41.1037524,16.8801939,False,NONE
2019-10-26 10:40:34.000,LG-H970,1572086434011.25,-2.138,7.231,-1.789,41.1037524,16.8801939,False,NONE
2019-10-26 10:40:34.020,LG-H970,1572086434031.25,-3.323,7.084,-0.704,41.1037524,16.8801939,False,NONE
2019-10-26 10:40:34.040,LG-H970,1572086434050.5,-3.503,8.945,0.43,41.1037524,16.8801939,False,NONE
2019-10-26 10:40:34.060,LG-H970,1572086434070.25,-2.898,10.928,-1.136,41.1037524,16.8801939,False,NONE
2019-10-26 10:40:34.080,LG-H970,1572086434090.5,-2.445,10.4,-0.696,41.1037524,16.8801939,False,NONE
2019-10-26 10:40:34.100,LG-H970,1572086434110.0,-2.269,7.332,0.462,41.1037524,16.8801939,False,NONE
2019-10-26 10:40:34.120,LG-H970,1572086434130.0,-1.577,8.923,-1.118,41.1037524,16.8801939,False,NONE
2019-10-26 10:40:34.140,LG-H970,1572086434149.5,-2.575,11.14,-0.923,41.1037524,16.8801939,False,NONE
2019-10-26 10:40:34.160,LG-H970,1572086434169.0,-1.696,11.856,1.268,41.1037524,16.8801939,False,NONE
2019-10-26 10:40:34.180,LG-H970,1572086434188.25,-1.54,10.788,2.81,41.1037524,16.8801939,True,NONE
2019-10-26 10:40:34.200,LG-H970,1572086434207.5,-3.059,7.733,1.435,41.1037524,16.8801939,True,NONE
2019-10-26 10:40:34.220,LG-H970,1572086434227.5,-2.042,8.702,-2.379,41.1037524,16.8801939,False,NONE
2019-10-26 10:40:34.240,LG-H970,1572086434247.5,-3.454,7.927,-1.94,41.1037524,16.8801939,False,NONE
2019-10-26 10:40:34.260,LG-H970,1572086434267.5,-0.727,11.637,0.989,41.1037524,16.8801939,False,NONE
2019-10-26 10:40:34.280,LG-H970,1572086434287.75,0.226,9.591,-0.492,41.1037524,16.8801939,False,NONE
2019-10-26 10:40:34.300,LG-H970,1572086434307.25,0.909,9.791,-0.083,41.1037524,16.8801939,False,NONE
2019-10-26 10:40:34.320,LG-H970,1572086434327.75,-1.41,6.549,-1.464,41.1037524,16.8801939,False,NONE
2019-10-26 10:40:34.340,LG-H970,1572086434350.0,0.829,10.865,-1.223,41.1037524,16.8801939,False,NONE
2019-10-26 10:40:34.360,LG-H970,1572086434373.0,3.128,10.136,-3.83,41.1037524,16.8801939,False,NONE
2019-10-26 10:40:34.380,LG-H970,1572086434390.0,2.858,10.232,1.08,41.1037524,16.8801939,False,NONE
2019-10-26 10:40:34.400,LG-H970,1572086434410.5,3.443,8.777,-0.496,41.1037524,16.8801939,False,NONE
2019-10-26 10:40:34.420,LG-H970,1572086434430.25,2.441,10.195,-1.0,41.1037524,16.8801939,False,NONE
2019-10-26 10:40:34.440,LG-H970,1572086434451.5,2.078,10.975,-0.812,41.1037524,16.8801939,False,NONE
2019-10-26 10:40:34.460,LG-H970,1572086434469.5,2.197,10.632,0.021,41.1037524,16.8801939,False,NONE
2019-10-26 10:40:34.480,LG-H970,1572086434488.75,3.147,10.458,3.594,41.1037524,16.8801939,False,NONE
2019-10-26 10:40:34.500,LG-H970,1572086434508.5,3.068,8.907,0.593,41.1037524,16.8801939,False,NONE
2019-10-26 10:40:34.520,LG-H970,1572086434529.0,-0.63,11.284,0.003,41.1037524,16.8801939,False,NONE
2019-10-26 10:40:34.540,LG-H970,1572086434549.0,-2.327,10.958,-0.07,41.1037524,16.8801939,False,NONE
2019-10-26 10:40:34.560,LG-H970,1572086434569.0,1.137,10.019,2.606,41.1037524,16.8801939,False,NONE
2019-10-26 10:40:34.580,LG-H970,1572086434588.25,1.412,7.852,4.883,41.1037524,16.8801939,False,NONE
2019-10-26 10:40:34.600,LG-H970,1572086434608.25,-2.813,10.726,1.347,41.1037524,16.8801939,False,NONE
2019-10-26 10:40:34.620,LG-H970,1572086434628.25,-6.809,11.801,-1.331,41.1037524,16.8801939,False,NONE
2019-10-26 10:40:34.640,LG-H970,1572086434647.75,-2.27,9.318,1.217,41.1037524,16.8801939,False,NONE
2019-10-26 10:40:34.660,LG-H970,1572086434669.6,1.226,7.246,4.399,41.1037524,16.8801939,False,NONE
2019-10-26 10:40:34.680,LG-H970,1572086434691.75,-3.307,11.723,2.835,41.1037524,16.8801939,False,NONE
2019-10-26 10:40:34.700,LG-H970,1572086434711.5,-6.591,12.825,-1.536,41.1037524,16.8801939,False,NONE
2019-10-26 10:40:34.720,LG-H970,1572086434730.75,-3.491,10.738,1.114,41.1037524,16.8801939,False,NONE
2019-10-26 10:40:34.740,LG-H970,1572086434751.0,0.322,6.625,2.168,41.1037524,16.8801939,False,NONE
2019-10-26 10:40:34.760,LG-H970,1572086434770.25,-1.614,8.627,2.155,41.1037524,16.8801939,False,NONE
2019-10-26 10:40:34.780,LG-H970,1572086434789.75,-4.694,12.237,-1.929,41.1037524,16.8801939,False,NONE
2019-10-26 10:40:34.800,LG-H970,1572086434809.5,-4.538,11.106,0.765,41.1037524,16.8801939,False,NONE
2019-10-26 10:40:34.820,LG-H970,1572086434830.25,-0.368,7.595,1.126,41.1037524,16.8801939,False,NONE
2019-10-26 10:40:34.840,LG-H970,1572086434850.75,0.231,8.093,0.158,41.1037524,16.8801939,False,NONE
2019-10-26 10:40:34.860,LG-H970,1572086434869.25,-2.079,10.866,-3.308,41.1037524,16.8801939,False,NONE
2019-10-26 10:40:34.880,LG-H970,1572086434890.3333,-4.487,9.781,-1.599,41.1037524,16.8801939,False,NONE
2019-10-26 10:40:34.900,LG-H970,1572086434910.25,-0.497,10.524,0.607,41.1037524,16.8801939,False,NONE
2019-10-26 10:40:34.920,LG-H970,1572086434927.0,0.272,8.394,1.174,41.1037524,16.8801939,False,NONE
2019-10-26 10:40:34.940,LG-H970,1572086434950.8,-1.944,10.24,-0.804,41.1037524,16.8801939,False,NONE
2019-10-26 10:40:34.960,LG-H970,1572086434971.5,-2.921,9.299,-2.315,41.1037524,16.8801939,False,NONE
2019-10-26 10:40:34.980,LG-H970,1572086434990.75,-0.25,8.399,0.642,41.1037524,16.8801939,False,NONE
2019-10-26 10:40:35.000,LG-H970,1572086435010.5,0.633,8.066,0.95,41.1037524,16.8801939,False,NONE
2019-10-26 10:40:35.020,LG-H970,1572086435030.5,-0.973,10.154,1.157,41.1037524,16.8801939,False,NONE
2019-10-26 10:40:35.040,LG-H970,1572086435050.75,-1.006,10.784,-0.485,41.1037524,16.8801939,False,NONE
2019-10-26 10:40:35.060,LG-H970,1572086435070.75,-0.135,8.309,0.806,41.1037524,16.8801939,False,NONE
2019-10-26 10:40:35.080,LG-H970,1572086435090.75,0.007,6.247,0.497,41.1037524,16.8801939,False,NONE
2019-10-26 10:40:35.100,LG-H970,1572086435110.75,-0.503,8.224,-0.669,41.1037524,16.8801939,False,NONE
2019-10-26 10:40:35.120,LG-H970,1572086435131.0,-1.451,9.644,0.362,41.1037524,16.8801939,False,NONE
2019-10-26 10:40:35.140,LG-H970,1572086435150.25,0.528,11.649,1.259,41.1037524,16.8801939,False,NONE
2019-10-26 10:40:35.160,LG-H970,1572086435170.0,1.93,10.361,3.482,41.1037524,16.8801939,False,NONE
2019-10-26 10:40:35.180,LG-H970,1572086435189.75,3.791,9.793,1.344,41.1037524,16.8801939,False,NONE
2019-10-26 10:40:35.200,LG-H970,1572086435209.5,1.908,10.307,-0.568,41.1037524,16.8801939,False,NONE
2019-10-26 10:40:35.220,LG-H970,1572086435230.25,0.323,11.024,0.483,41.1037524,16.8801939,False,NONE
2019-10-26 10:40:35.240,LG-H970,1572086435248.25,1.894,11.024,0.888,41.1037524,16.8801939,False,NONE
2019-10-26 10:40:35.260,LG-H970,1572086435270.0,0.307,12.779,2.292,41.1037524,16.8801939,False,NONE
2019-10-26 10:40:35.280,LG-H970,1572086435292.25,-0.184,12.142,0.533,41.1037524,16.8801939,False,NONE
2019-10-26 10:40:35.300,LG-H970,1572086435311.5,1.42,10.591,0.689,41.1037524,16.8801939,False,NONE
2019-10-26 10:40:35.320,LG-H970,1572086435328.3333,0.681,9.078,-1.131,41.1037524,16.8801939,False,NONE
2019-10-26 10:40:35.340,LG-H970,1572086435349.0,-1.314,10.412,-0.618,41.1037524,16.8801939,False,NONE
2019-10-26 10:40:35.360,LG-H970,1572086435370.5,-0.877,11.834,0.155,41.1037524,16.8801939,False,NONE
2019-10-26 10:40:35.380,LG-H970,1572086435388.0,-0.136,11.572,1.465,41.1037524,16.8801939,False,NONE
2019-10-26 10:40:35.400,LG-H970,1572086435410.25,0.409,10.368,0.759,41.1037524,16.8801939,False,NONE
2019-10-26 10:40:35.420,LG-H970,1572086435429.75,-0.652,9.141,-1.017,41.1037524,16.8801939,False,NONE
2019-10-26 10:40:35.440,LG-H970,1572086435449.5,-1.942,9.027,-1.981,41.1037524,16.8801939,False,NONE
2019-10-26 10:40:35.460,LG-H970,1572086435469.25,-1.72,9.995,-2.001,41.1037524,16.8801939,False,NONE
2019-10-26 10:40:35.480,LG-H970,1572086435488.5,-1.457,11.305,0.377,41.1037524,16.8801939,False,NONE
2019-10-26 10:40:35.500,LG-H970,1572086435508.75,-0.114,11.741,2.049,41.1037524,16.8801939,False,NONE
2019-10-26 10:40:35.520,LG-H970,1572086435529.0,-0.08,12.302,0.8,41.1037524,16.8801939,False,NONE
2019-10-26 10:40:35.540,LG-H970,1572086435548.0,-2.329,10.858,-1.043,41.1037524,16.8801939,False,NONE
2019-10-26 10:40:35.560,LG-H970,1572086435567.75,-1.596,9.405,-3.104,41.1037524,16.8801939,False,NONE
2019-10-26 10:40:35.580,LG-H970,1572086435587.5,0.448,7.751,-1.667,41.1037524,16.8801939,False,NONE
2019-10-26 10:40:35.600,LG-H970,1572086435607.75,0.202,8.266,-0.28,41.1037524,16.8801939,False,NONE
2019-10-26 10:40:35.620,LG-H970,1572086435628.0,-2.792,9.381,-0.306,41.1037524,16.8801939,False,NONE
2019-10-26 10:40:35.640,LG-H970,1572086435645.0,-2.313,11.211,-0.96,41.1037524,16.8801939,False,NONE
2019-10-26 10:40:35.660,LG-H970,1572086435669.6,-1.856,8.568,-0.3,41.1037524,16.8801939,False,NONE
2019-10-26 10:40:35.680,LG-H970,1572086435691.75,-2.999,8.302,-0.625,41.1037524,16.8801939,False,NONE
2019-10-26 10:40:35.700,LG-H970,1572086435711.5,-3.329,10.059,-0.939,41.1037524,16.8801939,False,NONE
2019-10-26 10:40:35.720,LG-H970,1572086435731.25,-1.121,10.538,0.861,41.1037524,16.8801939,False,NONE
2019-10-26 10:40:35.740,LG-H970,1572086435750.5,-1.157,8.783,2.299,41.1037524,16.8801939,False,NONE
2019-10-26 10:40:35.760,LG-H970,1572086435769.75,-2.003,10.253,-0.35,41.1037524,16.8801939,False,NONE
2019-10-26 10:40:35.780,LG-H970,1572086435789.5,-3.446,9.226,-1.866,41.1037524,16.8801939,False,NONE
2019-10-26 10:40:35.800,LG-H970,1572086435809.5,-1.196,8.985,0.027,41.1037524,16.8801939,False,NONE
2019-10-26 10:40:35.820,LG-H970,1572086435829.25,-0.259,8.577,0.855,41.1037524,16.8801939,False,NONE
2019-10-26 10:40:35.840,LG-H970,1572086435850.0,-1.031,10.547,1.125,41.1037524,16.8801939,False,NONE
2019-10-26 10:40:35.860,LG-H970,1572086435869.0,-1.854,9.839,-1.665,41.1037524,16.8801939,False,NONE
2019-10-26 10:40:35.880,LG-H970,1572086435889.75,-1.653,8.103,0.741,41.1037524,16.8801939,False,NONE
2019-10-26 10:40:35.900,LG-H970,1572086435908.75,0.707,8.319,-0.944,41.1037524,16.8801939,False,NONE
2019-10-26 10:40:35.920,LG-H970,1572086435928.75,0.892,10.206,-0.285,41.1037524,16.8801939,False,NONE
2019-10-26 10:40:35.940,LG-H970,1572086435949.0,-0.035,11.1,-1.348,41.1037524,16.8801939,False,NONE
2019-10-26 10:40:35.960,LG-H970,1572086435968.5,0.711,11.446,-0.473,41.1037524,16.8801939,False,NONE
2019-10-26 10:40:35.980,LG-H970,1572086435988.75,1.914,9.244,-0.352,41.1037524,16.8801939,False,NONE
2019-10-26 10:40:36.000,LG-H970,1572086436008.0,1.824,10.203,-1.084,41.1037524,16.8801939,False,NONE
2019-10-26 10:40:36.020,LG-H970,1572086436028.25,-2.081,10.229,-3.251,41.1037524,16.8801939,False,NONE
2019-10-26 10:40:36.040,LG-H970,1572086436047.5,-0.976,10.673,-2.767,41.1037524,16.8801939,False,NONE
2019-10-26 10:40:36.060,LG-H970,1572086436067.5,0.585,7.501,-0.932,41.1037524,16.8801939,False,NONE
2019-10-26 10:40:36.080,LG-H970,1572086436089.4,0.061,9.209,-2.311,41.1037524,16.8801939,False,NONE
2019-10-26 10:40:36.100,LG-H970,1572086436111.75,-2.211,10.674,-1.752,41.1037524,16.8801939,False,NONE
2019-10-26 10:40:36.120,LG-H970,1572086436131.25,-0.077,11.926,-0.833,41.1037524,16.8801939,False,NONE
2019-10-26 10:40:36.140,LG-H970,1572086436151.0,0.488,10.436,0.453,41.1037524,16.8801939,False,NONE
2019-10-26 10:40:36.160,LG-H970,1572086436170.75,-0.113,9.899,-0.267,41.1037524,16.8801939,False,NONE
2019-10-26 10:40:36.180,LG-H970,1572086436190.25,-0.363,10.301,-2.25,41.1037524,16.8801939,False,NONE
2019-10-26 10:40:36.200,LG-H970,1572086436210.75,-0.221,10.481,-0.298,41.1037524,16.8801939,False,NONE
2019-10-26 10:40:36.220,LG-H970,1572086436230.0,0.63,10.216,0.051,41.1037524,16.8801939,False,NONE
2019-10-26 10:40:36.240,LG-H970,1572086436248.5,0.763,10.504,1.239,41.1037524,16.8801939,False,NONE
2019-10-26 10:40:36.260,LG-H970,1572086436268.75,0.082,11.163,-0.144,41.1037524,16.8801939,False,NONE
2019-10-26 10:40:36.280,LG-H970,1572086436286.0,1.003,11.694,-2.129,41.1037524,16.8801939,False,NONE
2019-10-26 10:40:36.300,LG-H970,1572086436305.0,0.142,7.703,-1.246,41.1037524,16.8801939,False,NONE
2019-10-26 10:40:36.320,LG-H970,1572086436328.0,1.174,8.167,0.05,41.1037524,16.8801939,False,NONE
2019-10-26 10:40:36.340,LG-H970,1572086436346.75,-0.79,10.249,-0.544,41.1037524,16.8801939,False,NONE
2019-10-26 10:40:36.360,LG-H970,1572086436367.25,-1.302,10.612,2.407,41.1037524,16.8801939,False,NONE
2019-10-26 10:40:36.380,LG-H970,1572086436389.2,-0.163,9.515,-1.31,41.1037524,16.8801939,False,NONE
2019-10-26 10:40:36.400,LG-H970,1572086436411.0,-2.216,9.846,-0.563,41.1037524,16.8801939,False,NONE
2019-10-26 10:40:36.420,LG-H970,1572086436431.5,-1.124,9.096,-1.633,41.1037524,16.8801939,False,NONE
2019-10-26 10:40:36.440,LG-H970,1572086436450.5,-0.805,9.963,1.365,41.1037524,16.8801939,False,NONE
2019-10-26 10:40:36.460,LG-H970,1572086436470.25,-1.107,11.953,-0.197,41.1037524,16.8801939,False,NONE
2019-10-26 10:40:36.480,LG-H970,1572086436490.25,-3.39,11.263,-0.323,41.1037524,16.8801939,False,NONE
2019-10-26 10:40:36.500,LG-H970,1572086436509.5,-2.313,8.858,-0.56,41.1037524,16.8801939,False,NONE
2019-10-26 10:40:36.520,LG-H970,1572086436529.75,-0.992,7.235,-1.57,41.1037524,16.8801939,False,NONE
2019-10-26 10:40:36.540,LG-H970,1572086436549.0,-2.209,8.884,-1.424,41.1037524,16.8801939,False,NONE
2019-10-26 10:40:36.560,LG-H970,1572086436569.5,-2.911,10.877,-2.113,41.1037524,16.8801939,False,NONE
2019-10-26 10:40:36.580,LG-H970,1572086436589.25,-1.991,9.8,0.872,41.1037524,16.8801939,False,NONE
2019-10-26 10:40:36.600,LG-H970,1572086436609.25,-0.509,8.334,0.638,41.1037524,16.8801939,False,NONE
2019-10-26 10:40:36.620,LG-H970,1572086436629.5,-1.019,8.456,-0.902,41.1037524,16.8801939,False,NONE
2019-10-26 10:40:36.640,LG-H970,1572086436648.75,-3.204,7.68,-2.916,41.1037524,16.8801939,False,NONE
2019-10-26 10:40:36.660,LG-H970,1572086436668.5,-4.459,6.424,-0.909,41.1037524,16.8801939,False,NONE
2019-10-26 10:40:36.680,LG-H970,1572086436688.75,-1.942,7.079,-3.067,41.1037524,16.8801939,False,NONE
2019-10-26 10:40:36.700,LG-H970,1572086436710.6,-0.104,8.915,-0.177,41.1037524,16.8801939,False,NONE
2019-10-26 10:40:36.720,LG-H970,1572086436731.25,-1.081,9.786,0.76,41.1037524,16.8801939,False,NONE
2019-10-26 10:40:36.740,LG-H970,1572086436750.75,0.461,11.957,0.783,41.1037524,16.8801939,False,NONE
2019-10-26 10:40:36.760,LG-H970,1572086436770.5,0.02,10.338,-0.194,41.1037524,16.8801939,False,NONE
2019-10-26 10:40:36.780,LG-H970,1572086436790.75,0.15,10.085,-0.025,41.1037524,16.8801939,False,NONE
2019-10-26 10:40:36.800,LG-H970,1572086436810.5,-0.038,9.983,-0.078,41.1037524,16.8801939,False,NONE
2019-10-26 10:40:36.820,LG-H970,1572086436830.5,-0.606,12.388,-0.406,41.1037524,16.8801939,False,NONE
2019-10-26 10:40:36.840,LG-H970,1572086436850.25,-0.158,12.501,-0.782,41.1037524,16.8801939,False,NONE
2019-10-26 10:40:36.860,LG-H970,1572086436870.0,2.061,10.698,1.491,41.1037524,16.8801939,False,NONE
2019-10-26 10:40:36.880,LG-H970,1572086436890.25,2.164,9.166,0.051,41.1037524,16.8801939,False,NONE
2019-10-26 10:40:36.900,LG-H970,1572086436910.0,0.412,12.08,-1.617,41.1037524,16.8801939,False,NONE
2019-10-26 10:40:36.920,LG-H970,1572086436929.75,0.114,12.927,-1.495,41.1037524,16.8801939,False,NONE
2019-10-26 10:40:36.940,LG-H970,1572086436950.25,2.407,11.195,1.87,41.1037524,16.8801939,False,NONE
2019-10-26 10:40:36.960,LG-H970,1572086436969.0,2.423,9.885,1.625,41.1037524,16.8801939,False,NONE
2019-10-26 10:40:36.980,LG-H970,1572086436988.5,0.727,11.793,-2.253,41.1037524,16.8801939,False,NONE
2019-10-26 10:40:37.000,LG-H970,1572086437008.5,-1.093,11.107,-1.271,41.1037524,16.8801939,False,NONE
2019-10-26 10:40:37.020,LG-H970,1572086437028.5,0.253,10.023,1.52,41.1037524,16.8801939,False,NONE
2019-10-26 10:40:37.040,LG-H970,1572086437047.75,0.88,11.441,0.682,41.1037524,16.8801939,False,NONE
2019-10-26 10:40:37.060,LG-H970,1572086437069.8,-1.893,10.845,0.326,41.1037524,16.8801939,False,NONE
2019-10-26 10:40:37.080,LG-H970,1572086437089.6667,-1.084,10.283,-1.463,41.1037524,16.8801939,False,NONE
2019-10-26 10:40:37.100,LG-H970,1572086437109.8,-0.703,9.107,-1.49,41.1037524,16.8801939,False,NONE
2019-10-26 10:40:37.120,LG-H970,1572086437131.75,-0.209,10.203,-0.186,41.1037524,16.8801939,False,NONE
2019-10-26 10:40:37.140,LG-H970,1572086437151.0,-0.296,10.093,1.187,41.1037524,16.8801939,False,NONE
2019-10-26 10:40:37.160,LG-H970,1572086437170.5,-0.661,10.637,0.401,41.1037524,16.8801939,False,NONE
2019-10-26 10:40:37.180,LG-H970,1572086437192.0,-2.052,9.832,-0.683,41.1037524,16.8801939,False,NONE
2019-10-26 10:40:37.200,LG-H970,1572086437209.25,-0.7,9.781,-1.961,41.1037524,16.8801939,False,NONE
2019-10-26 10:40:37.220,LG-H970,1572086437229.25,0.131,9.709,0.093,41.1037524,16.8801939,False,NONE
2019-10-26 10:40:37.240,LG-H970,1572086437248.5,-1.474,9.233,1.716,41.1037524,16.8801939,False,NONE
2019-10-26 10:40:37.260,LG-H970,1572086437268.5,-1.486,9.854,-0.255,41.1037524,16.8801939,False,NONE
2019-10-26 10:40:37.280,LG-H970,1572086437288.0,-1.322,9.514,-2.485,41.1037524,16.8801939,False,NONE
2019-10-26 10:40:37.300,LG-H970,1572086437307.75,-2.079,7.824,-1.155,41.1037524,16.8801939,False,NONE
2019-10-26 10:40:37.320,LG-H970,1572086437329.8,-1.702,6.726,0.347,41.1037524,16.8801939,False,NONE
2019-10-26 10:40:37.340,LG-H970,1572086437349.3333,-2.5,8.185,1.202,41.1037524,16.8801939,False,NONE
2019-10-26 10:40:37.360,LG-H970,1572086437365.0,-4.848,8.773,-0.43,41.1037524,16.8801939,False,NONE
2019-10-26 10:40:37.380,LG-H970,1572086437388.0,-3.822,9.201,-0.307,41.1037524,16.8801939,False,NONE
2019-10-26 10:40:37.400,LG-H970,1572086437406.75,-0.509,6.445,-0.853,41.1037524,16.8801939,False,NONE
2019-10-26 10:40:37.420,LG-H970,1572086437432.75,0.598,8.606,-1.167,41.1037524,16.8801939,False,NONE
2019-10-26 10:40:37.440,LG-H970,1572086437451.0,-2.177,11.084,-0.447,41.1037524,16.8801939,False,NONE
2019-10-26 10:40:37.460,LG-H970,1572086437470.5,-1.124,12.549,0.428,41.1037524,16.8801939,False,NONE
2019-10-26 10:40:37.480,LG-H970,1572086437487.3333,1.406,11.412,0.278,41.1037524,16.8801939,False,NONE
2019-10-26 10:40:37.500,LG-H970,1572086437507.8,2.167,9.406,-1.407,41.1037524,16.8801939,False,NONE
2019-10-26 10:40:37.520,LG-H970,1572086437530.0,-0.024,9.582,-2.281,41.1037524,16.8801939,False,NONE
2019-10-26 10:40:37.540,LG-H970,1572086437549.25,0.193,9.893,-1.508,41.1037524,16.8801939,True,NONE
2019-10-26 10:40:37.560,LG-H970,1572086437568.5,2.353,11.513,-0.512,41.1037524,16.8801939,True,NONE
2019-10-26 10:40:37.580,LG-H970,1572086437588.5,0.901,11.556,-0.022,41.1037524,16.8801939,False,NONE
2019-10-26 10:40:37.600,LG-H970,1572086437608.5,0.072,11.78,-1.468,41.1037524,16.8801939,False,NONE
2019-10-26 10:40:37.620,LG-H970,1572086437628.5,2.351,10.225,-1.697,41.1037524,16.8801939,False,NONE
2019-10-26 10:40:37.640,LG-H970,1572086437648.0,1.726,8.674,-2.07,41.1037524,16.8801939,False,NONE
2019-10-26 10:40:37.660,LG-H970,1572086437667.75,-1.668,10.881,-1.525,41.1037524,16.8801939,False,NONE
2019-10-26 10:40:37.680,LG-H970,1572086437687.5,-1.708,12.42,-0.742,41.1037524,16.8801939,False,NONE
2019-10-26 10:40:37.700,LG-H970,1572086437707.5,0.697,10.223,-0.589,41.1037524,16.8801939,False,NONE
2019-10-26 10:40:37.720,LG-H970,1572086437727.5,1.555,8.428,-0.028,41.1037524,16.8801939,False,NONE
2019-10-26 10:40:37.740,LG-H970,1572086437747.75,-0.325,9.208,-1.659,41.1037524,16.8801939,False,NONE
2019-10-26 10:40:37.760,LG-H970,1572086437770.4,-1.914,10.72,-1.472,41.1037524,16.8801939,False,NONE
2019-10-26 10:40:37.780,LG-H970,1572086437791.5,1.561,11.125,0.872,41.1037524,16.8801939,False,NONE
2019-10-26 10:40:37.800,LG-H970,1572086437809.0,2.778,9.555,1.173,41.1037524,16.8801939,False,NONE
2019-10-26 10:40:37.820,LG-H970,1572086437829.4,1.015,10.11,0.984,41.1037524,16.8801939,False,NONE
2019-10-26 10:40:37.840,LG-H970,1572086437853.0,-2.29,8.795,-2.026,41.1037524,16.8801939,False,NONE
2019-10-26 10:40:37.860,LG-H970,1572086437871.0,0.015,10.671,-1.417,41.1037524,16.8801939,False,NONE
2019-10-26 10:40:37.880,LG-H970,1572086437890.5,0.625,8.684,-0.377,41.1037524,16.8801939,False,NONE
2019-10-26 10:40:37.900,LG-H970,1572086437910.25,0.222,8.924,0.672,41.1037524,16.8801939,False,NONE
2019-10-26 10:40:37.920,LG-H970,1572086437930.25,-0.362,9.494,0.246,41.1037524,16.8801939,False,NONE
2019-10-26 10:40:37.940,LG-H970,1572086437950.5,-1.055,9.241,-1.046,41.1037524,16.8801939,False,NONE
2019-10-26 10:40:37.960,LG-H970,1572086437968.75,-1.551,9.674,0.07,41.1037524,16.8801939,False,NONE
2019-10-26 10:40:37.980,LG-H970,1572086437989.0,-1.149,10.222,0.638,41.1037524,16.8801939,False,NONE
2019-10-26 10:40:38.000,LG-H970,1572086438009.25,-1.322,9.937,-0.138,41.1037524,16.8801939,False,NONE
2019-10-26 10:40:38.020,LG-H970,1572086438029.0,-2.943,9.231,0.739,41.1037524,16.8801939,False,NONE
2019-10-26 10:40:38.040,LG-H970,1572086438048.75,-0.944,9.842,-0.317,41.1037524,16.8801939,False,NONE
2019-10-26 10:40:38.060,LG-H970,1572086438069.0,-3.312,7.898,-0.093,41.1037524,16.8801939,False,NONE
2019-10-26 10:40:38.080,LG-H970,1572086438088.5,-1.945,11.826,-1.318,41.1037524,16.8801939,False,NONE
2019-10-26 10:40:38.100,LG-H970,1572086438108.5,-2.786,9.903,-2.001,41.1037524,16.8801939,False,NONE
2019-10-26 10:40:38.120,LG-H970,1572086438128.25,-1.759,8.806,0.588,41.1037524,16.8801939,False,NONE
2019-10-26 10:40:38.140,LG-H970,1572086438147.75,-0.797,8.978,-1.857,41.1037524,16.8801939,False,NONE
2019-10-26 10:40:38.160,LG-H970,1572086438169.8,-1.952,10.451,-0.931,41.1037524,16.8801939,False,NONE
2019-10-26 10:40:38.180,LG-H970,1572086438192.0,-2.275,10.583,-1.683,41.1037524,16.8801939,False,NONE
2019-10-26 10:40:38.200,LG-H970,1572086438211.5,-1.695,9.632,-0.147,41.1037524,16.8801939,False,NONE
2019-10-26 10:40:38.220,LG-H970,1572086438232.0,0.358,8.802,-0.063,41.1037524,16.8801939,False,NONE
2019-10-26 10:40:38.240,LG-H970,1572086438251.25,-0.663,9.47,-1.751,41.1037524,16.8801939,False,NONE
2019-10-26 10:40:38.260,LG-H970,1572086438271.5,-2.665,9.555,-2.626,41.1037524,16.8801939,False,NONE
2019-10-26 10:40:38.280,LG-H970,1572086438290.75,-1.03,9.503,-1.288,41.1037524,16.8801939,False,NONE
2019-10-26 10:40:38.300,LG-H970,1572086438311.0,0.345,8.976,0.762,41.1037524,16.8801939,False,NONE
2019-10-26 10:40:38.320,LG-H970,1572086438329.75,-1.134,10.39,0.278,41.1037524,16.8801939,False,NONE
2019-10-26 10:40:38.340,LG-H970,1572086438349.75,-3.847,10.502,-1.44,41.1037524,16.8801939,False,NONE
2019-10-26 10:40:38.360,LG-H970,1572086438369.5,-1.89,8.834,-1.021,41.1037524,16.8801939,False,NONE
2019-10-26 10:40:38.380,LG-H970,1572086438387.5,0.458,7.252,-0.875,41.1037524,16.8801939,False,NONE
2019-10-26 10:40:38.400,LG-H970,1572086438408.25,-0.556,8.81,0.835,41.1037524,16.8801939,False,NONE
2019-10-26 10:40:38.420,LG-H970,1572086438427.75,0.317,13.548,0.412,41.1037524,16.8801939,False,NONE
2019-10-26 10:40:38.440,LG-H970,1572086438447.75,0.986,12.505,0.673,41.1037524,16.8801939,False,NONE
2019-10-26 10:40:38.460,LG-H970,1572086438470.4,1.633,8.718,0.483,41.1037524,16.8801939,False,NONE
2019-10-26 10:40:38.480,LG-H970,1572086438491.5,0.993,9.398,-1.908,41.1037524,16.8801939,False,NONE
2019-10-26 10:40:38.500,LG-H970,1572086438511.5,-0.287,10.768,-1.857,41.1037524,16.8801939,False,NONE
2019-10-26 10:40:38.520,LG-H970,1572086438531.75,0.016,10.927,1.184,41.1037524,16.8801939,False,NONE
2019-10-26 10:40:38.540,LG-H970,1572086438551.25,1.662,10.39,1.295,41.1037524,16.8801939,False,NONE
2019-10-26 10:40:38.560,LG-H970,1572086438571.5,0.697,9.597,0.112,41.1037524,16.8801939,False,NONE
2019-10-26 10:40:38.580,LG-H970,1572086438591.75,-0.861,10.073,-2.803,41.1037524,16.8801939,False,NONE
2019-10-26 10:40:38.600,LG-H970,1572086438611.0,-0.553,10.153,-1.254,41.1037524,16.8801939,False,NONE
2019-10-26 10:40:38.620,LG-H970,1572086438631.5,2.231,11.225,0.874,41.1037524,16.8801939,False,NONE
2019-10-26 10:40:38.640,LG-H970,1572086438650.0,1.183,11.123,2.497,41.1037524,16.8801939,False,NONE
2019-10-26 10:40:38.660,LG-H970,1572086438669.5,-1.213,10.778,-0.054,41.1037524,16.8801939,False,NONE
2019-10-26 10:40:38.680,LG-H970,1572086438689.5,-2.054,10.189,-2.422,41.1037524,16.8801939,False,NONE
2019-10-26 10:40:38.700,LG-H970,1572086438709.25,-1.593,9.015,-2.197,41.1037524,16.8801939,False,NONE
2019-10-26 10:40:38.720,LG-H970,1572086438730.75,-0.62,9.749,0.357,41.1037524,16.8801939,False,NONE
2019-10-26 10:40:38.740,LG-H970,1572086438749.5,-1.306,9.072,0.795,41.1037524,16.8801939,False,NONE
2019-10-26 10:40:38.760,LG-H970,1572086438769.25,-1.723,8.995,-0.335,41.1037524,16.8801939,False,NONE
2019-10-26 10:40:38.780,LG-H970,1572086438790.8,-1.722,7.681,-2.56,41.1037524,16.8801939,False,NONE
2019-10-26 10:40:38.800,LG-H970,1572086438809.3333,-1.379,6.312,-1.316,41.1037524,16.8801939,False,NONE
2019-10-26 10:40:38.820,LG-H970,1572086438827.0,-1.316,8.458,-1.744,41.1037524,16.8801939,False,NONE
2019-10-26 10:40:38.840,LG-H970,1572086438848.0,-3.022,10.642,-0.248,41.1037524,16.8801939,False,NONE
2019-10-26 10:40:38.860,LG-H970,1572086438871.75,-1.643,10.96,1.392,41.1037524,16.8801939,False,NONE
2019-10-26 10:40:38.880,LG-H970,1572086438890.75,-0.296,7.974,0.55,41.1037524,16.8801939,False,NONE
2019-10-26 10:40:38.900,LG-H970,1572086438910.75,-0.916,8.283,-2.222,41.1037524,16.8801939,False,NONE
2019-10-26 10:40:38.920,LG-H970,1572086438930.75,-3.553,9.007,-3.198,41.1037524,16.8801939,False,NONE
2019-10-26 10:40:38.940,LG-H970,1572086438950.75,-2.017,10.565,0.999,41.1037524,16.8801939,False,NONE
2019-10-26 10:40:38.960,LG-H970,1572086438972.75,-0.01,10.773,1.641,41.1037524,16.8801939,False,NONE
2019-10-26 10:40:38.980,LG-H970,1572086438989.75,-1.31,11.801,2.462,41.1037524,16.8801939,False,NONE
2019-10-26 10:40:39.000,LG-H970,1572086439010.0,-1.067,10.137,-1.182,41.1037524,16.8801939,False,NONE
2019-10-26 10:40:39.020,LG-H970,1572086439030.0,1.398,9.824,-1.586,41.1037524,16.8801939,False,NONE
2019-10-26 10:40:39.040,LG-H970,1572086439049.75,1.914,9.679,-2.466,41.1037524,16.8801939,False,NONE
2019-10-26 10:40:39.060,LG-H970,1572086439069.25,-1.161,10.651,0.563,41.1037524,16.8801939,False,NONE
2019-10-26 10:40:39.080,LG-H970,1572086439088.5,-0.571,11.637,1.406,41.1037524,16.8801939,False,NONE
2019-10-26 10:40:39.100,LG-H970,1572086439108.25,0.991,10.24,0.161,41.1037524,16.8801939,False,NONE
2019-10-26 10:40:39.120,LG-H970,1572086439128.25,-0.405,9.381,-1.738,41.1037524,16.8801939,False,NONE
2019-10-26 10:40:39.140,LG-H970,1572086439148.25,-1.175,9.94,-2.888,41.1037524,16.8801939,False,NONE
2019-10-26 10:40:39.160,LG-H970,1572086439168.0,-0.061,9.77,0.091,41.1037524,16.8801939,False,NONE
