UTC_timestamp,device_name,timestamp,x,y,z,lat,long,event,speed
2019-10-26 18:58:12.840,LG-H970,1572116292849.75,-0.825,10.114,-0.268,41.1093884,16.8738948,False,NONE
2019-10-26 18:58:12.860,LG-H970,1572116292869.25,0.595,9.192,0.464,41.1093884,16.8738948,False,NONE
2019-10-26 18:58:12.880,LG-H970,1572116292889.25,-0.172,9.03,0.286,41.1093884,16.8738948,False,NONE
2019-10-26 18:58:12.900,LG-H970,1572116292909.5,-1.477,10.366,-0.957,41.1093884,16.8738948,False,NONE
2019-10-26 18:58:12.920,LG-H970,1572116292928.5,-1.775,10.528,-0.534,41.1093884,16.8738948,False,NONE
2019-10-26 18:58:12.940,LG-H970,1572116292948.0,-0.248,9.672,0.397,41.1093884,16.8738948,False,NONE
2019-10-26 18:58:12.960,LG-H970,1572116292968.0,0.697,9.651,0.812,41.1093884,16.8738948,False,NONE
2019-10-26 18:58:12.980,LG-H970,1572116292988.75,-0.556,10.217,-0.198,41.1093884,16.8738948,False,NONE
2019-10-26 18:58:13.000,LG-H970,1572116293010.2,-2.074,10.606,-0.243,41.1093884,16.8738948,False,NONE
2019-10-26 18:58:13.020,LG-H970,1572116293030.3333,-1.057,10.113,-0.616,41.1093884,16.8738948,False,NONE
2019-10-26 18:58:13.040,LG-H970,1572116293048.0,0.379,9.569,0.486,41.1093884,16.8738948,False,NONE
2019-10-26 18:58:13.060,LG-H970,1572116293070.6,-0.354,8.998,0.438,41.1093884,16.8738948,False,NONE
2019-10-26 18:58:13.080,LG-H970,1572116293091.75,-1.373,10.358,-0.748,41.1093884,16.8738948,False,NONE
2019-10-26 18:58:13.100,LG-H970,1572116293115.0,-1.349,10.563,-0.549,41.1093884,16.8738948,False,NONE
2019-10-26 18:58:13.120,LG-H970,1572116293131.25,-0.008,9.712,0.235,41.1093884,16.8738948,False,NONE
2019-10-26 18:58:13.140,LG-H970,1572116293149.3333,0.663,9.273,0.926,41.1093884,16.8738948,False,NONE
2019-10-26 18:58:13.160,LG-H970,1572116293166.5,-0.329,9.272,0.122,41.1093884,16.8738948,False,NONE
2019-10-26 18:58:13.180,LG-H970,1572116293186.5,-2.015,10.171,-1.034,41.1093884,16.8738948,False,NONE
2019-10-26 18:58:13.200,LG-H970,1572116293208.4,-2.06,10.115,-0.601,41.1093884,16.8738948,False,NONE
2019-10-26 18:58:13.220,LG-H970,1572116293229.0,-0.106,9.461,0.458,41.1093884,16.8738948,False,NONE
2019-10-26 18:58:13.240,LG-H970,1572116293248.6,0.5,8.961,0.296,41.1093884,16.8738948,False,NONE
2019-10-26 18:58:13.260,LG-H970,1572116293269.5,-1.011,9.571,-0.346,41.1093884,16.8738948,False,NONE
2019-10-26 18:58:13.280,LG-H970,1572116293290.0,-2.141,10.267,-0.58,41.1093884,16.8738948,False,NONE
2019-10-26 18:58:13.300,LG-H970,1572116293309.75,-1.586,10.079,-0.738,41.1093884,16.8738948,False,NONE
2019-10-26 18:58:13.320,LG-H970,1572116293330.25,-0.45,9.866,1.281,41.1093884,16.8738948,False,NONE
2019-10-26 18:58:13.340,LG-H970,1572116293349.5,0.045,9.181,-0.271,41.1093884,16.8738948,False,NONE
2019-10-26 18:58:13.360,LG-H970,1572116293369.25,-0.979,9.437,-0.288,41.1093884,16.8738948,False,NONE
2019-10-26 18:58:13.380,LG-H970,1572116293389.75,-1.742,10.285,-0.903,41.1093884,16.8738948,False,NONE
2019-10-26 18:58:13.400,LG-H970,1572116293409.25,-1.03,10.103,-0.372,41.1093884,16.8738948,False,NONE
2019-10-26 18:58:13.420,LG-H970,1572116293431.0,0.495,9.551,0.471,41.1093884,16.8738948,False,NONE
2019-10-26 18:58:13.440,LG-H970,1572116293451.3333,-0.323,9.572,0.757,41.1093884,16.8738948,False,NONE
2019-10-26 18:58:13.460,LG-H970,1572116293468.25,-1.632,10.571,0.009,41.1093884,16.8738948,False,NONE
2019-10-26 18:58:13.480,LG-H970,1572116293489.5,-1.583,11.278,-0.693,41.1093884,16.8738948,False,NONE
2019-10-26 18:58:13.500,LG-H970,1572116293509.8,0.222,10.806,0.502,41.1093884,16.8738948,False,NONE
2019-10-26 18:58:13.520,LG-H970,1572116293531.75,1.039,10.089,1.005,41.1093884,16.8738948,False,NONE
2019-10-26 18:58:13.540,LG-H970,1572116293550.0,0.27,9.925,1.986,41.1093884,16.8738948,False,NONE
2019-10-26 18:58:13.560,LG-H970,1572116293567.5,-1.333,10.291,-0.915,41.1093884,16.8738948,False,NONE
2019-10-26 18:58:13.580,LG-H970,1572116293589.6,-2.544,10.215,-0.966,41.1093884,16.8738948,False,NONE
2019-10-26 18:58:13.600,LG-H970,1572116293608.6667,-1.725,9.345,-0.547,41.1093884,16.8738948,False,NONE
2019-10-26 18:58:13.620,LG-H970,1572116293629.8,0.222,9.371,0.932,41.1093884,16.8738948,False,NONE
2019-10-26 18:58:13.640,LG-H970,1572116293650.0,-0.711,9.206,0.726,41.1093884,16.8738948,False,NONE
2019-10-26 18:58:13.660,LG-H970,1572116293670.25,-2.176,11.449,-0.895,41.1093884,16.8738948,False,NONE
2019-10-26 18:58:13.680,LG-H970,1572116293690.5,-2.157,11.919,-0.158,41.1093884,16.8738948,False,NONE
2019-10-26 18:58:13.700,LG-H970,1572116293710.75,0.06,10.604,0.806,41.1093884,16.8738948,False,NONE
2019-10-26 18:58:13.720,LG-H970,1572116293729.5,0.636,8.567,2.49,41.1093884,16.8738948,False,NONE
2019-10-26 18:58:13.740,LG-H970,1572116293749.0,-1.378,8.391,-0.891,41.1093884,16.8738948,False,NONE
2019-10-26 18:58:13.760,LG-H970,1572116293769.75,-4.994,7.487,-2.009,41.1093884,16.8738948,False,NONE
2019-10-26 18:58:13.780,LG-H970,1572116293789.5,-5.441,5.188,-1.128,41.1093884,16.8738948,False,NONE
2019-10-26 18:58:13.800,LG-H970,1572116293809.5,-1.639,6.377,-5.723,41.1093884,16.8738948,False,NONE
2019-10-26 18:58:13.820,LG-H970,1572116293829.25,-0.093,8.338,0.197,41.1093884,16.8738948,False,NONE
2019-10-26 18:58:13.840,LG-H970,1572116293849.5,1.594,10.295,0.745,41.1093884,16.8738948,False,NONE
2019-10-26 18:58:13.860,LG-H970,1572116293869.25,2.087,12.354,5.348,41.1093884,16.8738948,False,NONE
2019-10-26 18:58:13.880,LG-H970,1572116293888.75,2.046,14.17,-0.916,41.1093884,16.8738948,False,NONE
2019-10-26 18:58:13.900,LG-H970,1572116293910.8,-2.394,10.846,1.381,41.1093884,16.8738948,False,NONE
2019-10-26 18:58:13.920,LG-H970,1572116293930.6667,-2.803,6.541,-1.977,41.1093884,16.8738948,False,NONE
2019-10-26 18:58:13.940,LG-H970,1572116293948.0,-0.413,9.32,-2.773,41.1093884,16.8738948,False,NONE
2019-10-26 18:58:13.960,LG-H970,1572116293969.6,-1.447,10.817,-0.313,41.1093884,16.8738948,False,NONE
2019-10-26 18:58:13.980,LG-H970,1572116293991.3333,-1.345,12.422,4.102,41.1093884,16.8738948,False,NONE
2019-10-26 18:58:14.000,LG-H970,1572116294007.25,-1.315,11.306,1.794,41.1093884,16.8738948,False,NONE
2019-10-26 18:58:14.020,LG-H970,1572116294029.8,-1.554,10.533,-0.92,41.1093884,16.8738948,False,NONE
2019-10-26 18:58:14.040,LG-H970,1572116294051.0,-3.469,9.57,-0.518,41.1093884,16.8738948,False,NONE
2019-10-26 18:58:14.060,LG-H970,1572116294071.5,-2.306,9.347,1.119,41.1093884,16.8738948,False,NONE
2019-10-26 18:58:14.080,LG-H970,1572116294089.0,-1.958,10.544,3.815,41.1093884,16.8738948,False,NONE
2019-10-26 18:58:14.100,LG-H970,1572116294107.75,-1.268,13.275,3.86,41.1093884,16.8738948,False,NONE
2019-10-26 18:58:14.120,LG-H970,1572116294128.6,-2.502,12.179,0.308,41.1093884,16.8738948,False,NONE
2019-10-26 18:58:14.140,LG-H970,1572116294150.75,-1.495,8.282,-3.129,41.1093884,16.8738948,False,NONE
2019-10-26 18:58:14.160,LG-H970,1572116294170.0,2.725,9.134,-3.735,41.1093884,16.8738948,False,NONE
2019-10-26 18:58:14.180,LG-H970,1572116294190.0,0.221,6.17,-1.226,41.1093884,16.8738948,False,NONE
2019-10-26 18:58:14.200,LG-H970,1572116294209.25,-0.951,11.193,1.197,41.1093884,16.8738948,False,NONE
2019-10-26 18:58:14.220,LG-H970,1572116294229.5,-1.323,12.146,0.162,41.1093884,16.8738948,False,NONE
2019-10-26 18:58:14.240,LG-H970,1572116294250.0,-0.972,9.465,0.154,41.1093884,16.8738948,False,NONE
2019-10-26 18:58:14.260,LG-H970,1572116294268.75,0.251,8.95,-1.675,41.1093884,16.8738948,False,NONE
2019-10-26 18:58:14.280,LG-H970,1572116294288.75,-1.055,7.04,-1.257,41.1093884,16.8738948,False,NONE
2019-10-26 18:58:14.300,LG-H970,1572116294308.25,-1.701,10.255,-0.832,41.1093884,16.8738948,False,NONE
2019-10-26 18:58:14.320,LG-H970,1572116294322.0,-3.27,10.14,-1.76,41.1093884,16.8738948,False,NONE
2019-10-26 18:58:14.340,LG-H970,1572116294348.0,-3.451,11.282,0.301,41.1093884,16.8738948,True,NONE
2019-10-26 18:58:14.360,LG-H970,1572116294374.0,-2.859,8.962,0.85,41.1093884,16.8738948,False,NONE
2019-10-26 18:58:14.380,LG-H970,1572116294382.0,0.004,8.06,-0.339,41.1093884,16.8738948,False,NONE
2019-10-26 18:58:14.400,LG-H970,1572116294409.0,-0.901,9.475,-2.282,41.1093884,16.8738948,False,NONE
2019-10-26 18:58:14.420,LG-H970,1572116294429.0,-1.636,10.765,0.862,41.1093884,16.8738948,False,NONE
2019-10-26 18:58:14.440,LG-H970,1572116294447.0,-0.777,11.123,1.381,41.1093884,16.8738948,False,NONE
2019-10-26 18:58:14.460,LG-H970,1572116294467.25,0.033,10.294,1.591,41.1093884,16.8738948,False,NONE
2019-10-26 18:58:14.480,LG-H970,1572116294489.6,-0.272,9.714,-0.595,41.1093884,16.8738948,False,NONE
2019-10-26 18:58:14.500,LG-H970,1572116294512.0,-0.924,9.099,-1.966,41.1093884,16.8738948,False,NONE
2019-10-26 18:58:14.520,LG-H970,1572116294530.0,-0.543,9.584,-0.344,41.1093884,16.8738948,False,NONE
2019-10-26 18:58:14.540,LG-H970,1572116294547.0,-0.303,9.856,0.722,41.1093884,16.8738948,False,NONE
2019-10-26 18:58:14.560,LG-H970,1572116294569.2,-0.6,10.696,1.382,41.1093884,16.8738948,False,NONE
2019-10-26 18:58:14.580,LG-H970,1572116294590.5,-1.108,10.004,-0.69,41.1093884,16.8738948,False,NONE
2019-10-26 18:58:14.600,LG-H970,1572116294609.3333,-1.149,9.072,-1.014,41.1093884,16.8738948,False,NONE
2019-10-26 18:58:14.620,LG-H970,1572116294626.0,-0.903,8.637,-1.211,41.1093884,16.8738948,False,NONE
2019-10-26 18:58:14.640,LG-H970,1572116294650.0,-0.547,9.984,0.217,41.1093884,16.8738948,False,NONE
2019-10-26 18:58:14.660,LG-H970,1572116294670.75,-0.958,10.83,1.317,41.1093884,16.8738948,False,NONE
2019-10-26 18:58:14.680,LG-H970,1572116294690.5,-1.43,10.347,0.301,41.1093884,16.8738948,False,NONE
2019-10-26 18:58:14.700,LG-H970,1572116294709.5,-1.408,9.265,-0.605,41.1093884,16.8738948,False,NONE
2019-10-26 18:58:14.720,LG-H970,1572116294729.0,-0.991,8.474,-1.367,41.1093884,16.8738948,False,NONE
2019-10-26 18:58:14.740,LG-H970,1572116294748.5,-0.882,8.812,-0.61,41.1093884,16.8738948,False,NONE
2019-10-26 18:58:14.760,LG-H970,1572116294768.75,-1.259,9.857,-0.134,41.1093884,16.8738948,False,NONE
2019-10-26 18:58:14.780,LG-H970,1572116294790.25,-1.286,10.468,0.191,41.1093884,16.8738948,False,NONE
2019-10-26 18:58:14.800,LG-H970,1572116294809.0,-0.949,9.608,-0.149,41.1093884,16.8738948,False,NONE
2019-10-26 18:58:14.820,LG-H970,1572116294829.5,-0.715,9.186,-0.607,41.1093884,16.8738948,False,NONE
2019-10-26 18:58:14.840,LG-H970,1572116294848.0,-0.682,9.844,-0.734,41.1093884,16.8738948,False,NONE
2019-10-26 18:58:14.860,LG-H970,1572116294867.25,-1.247,9.835,-0.629,41.1093884,16.8738948,False,NONE
2019-10-26 18:58:14.880,LG-H970,1572116294888.5,-1.048,10.207,0.147,41.1093884,16.8738948,False,NONE
2019-10-26 18:58:14.900,LG-H970,1572116294910.2,-0.71,10.114,0.147,41.1093884,16.8738948,False,NONE
2019-10-26 18:58:14.920,LG-H970,1572116294932.0,-1.156,9.083,-0.738,41.1093884,16.8738948,False,NONE
2019-10-26 18:58:14.940,LG-H970,1572116294948.3333,-1.477,9.318,-0.554,41.1093884,16.8738948,False,NONE
2019-10-26 18:58:14.960,LG-H970,1572116294969.6,-1.198,10.313,-0.958,41.1093884,16.8738948,False,NONE
2019-10-26 18:58:14.980,LG-H970,1572116294992.25,-1.041,9.922,0.251,41.1093884,16.8738948,False,NONE
2019-10-26 18:58:15.000,LG-H970,1572116295011.75,-0.526,9.933,0.946,41.1093884,16.8738948,False,NONE
2019-10-26 18:58:15.020,LG-H970,1572116295029.6667,-0.786,9.837,0.442,41.1093884,16.8738948,False,NONE
2019-10-26 18:58:15.040,LG-H970,1572116295047.0,-1.222,10.026,-0.59,41.1093884,16.8738948,False,NONE
2019-10-26 18:58:15.060,LG-H970,1572116295069.8,-0.789,10.328,-0.907,41.1093884,16.8738948,False,NONE
2019-10-26 18:58:15.080,LG-H970,1572116295091.0,0.911,9.72,-0.629,41.1093884,16.8738948,False,NONE
2019-10-26 18:58:15.100,LG-H970,1572116295110.75,0.832,10.657,1.154,41.1093884,16.8738948,False,NONE
2019-10-26 18:58:15.120,LG-H970,1572116295131.25,-1.181,9.834,1.542,41.1093884,16.8738948,False,NONE
2019-10-26 18:58:15.140,LG-H970,1572116295150.0,-0.884,9.075,-1.442,41.1093884,16.8738948,False,NONE
2019-10-26 18:58:15.160,LG-H970,1572116295169.0,-1.049,7.559,-2.621,41.1093884,16.8738948,False,NONE
2019-10-26 18:58:15.180,LG-H970,1572116295189.5,-0.918,8.38,-0.923,41.1093884,16.8738948,False,NONE
2019-10-26 18:58:15.200,LG-H970,1572116295209.75,-0.429,10.769,0.966,41.1093884,16.8738948,False,NONE
2019-10-26 18:58:15.220,LG-H970,1572116295229.75,-0.802,12.311,1.485,41.1093884,16.8738948,False,NONE
2019-10-26 18:58:15.240,LG-H970,1572116295249.0,-2.153,10.948,1.938,41.1093884,16.8738948,False,NONE
2019-10-26 18:58:15.260,LG-H970,1572116295268.0,-2.491,8.619,-0.659,41.1093884,16.8738948,False,NONE
2019-10-26 18:58:15.280,LG-H970,1572116295288.25,-2.442,7.431,-2.442,41.1093884,16.8738948,False,NONE
2019-10-26 18:58:15.300,LG-H970,1572116295309.25,-2.557,8.17,-1.893,41.1093884,16.8738948,False,NONE
2019-10-26 18:58:15.320,LG-H970,1572116295327.5,-2.524,9.736,0.04,41.1093884,16.8738948,False,NONE
2019-10-26 18:58:15.340,LG-H970,1572116295347.5,-1.19,11.798,1.158,41.1093884,16.8738948,False,NONE
2019-10-26 18:58:15.360,LG-H970,1572116295367.75,0.714,12.921,3.206,41.1093884,16.8738948,False,NONE
2019-10-26 18:58:15.380,LG-H970,1572116295389.0,0.993,9.637,-1.809,41.1093884,16.8738948,False,NONE
2019-10-26 18:58:15.400,LG-H970,1572116295412.0,-1.543,9.782,-0.373,41.1093884,16.8738948,False,NONE
2019-10-26 18:58:15.420,LG-H970,1572116295431.75,-0.469,9.861,-3.922,41.1093884,16.8738948,False,NONE
2019-10-26 18:58:15.440,LG-H970,1572116295451.25,0.376,11.203,4.932,41.1093884,16.8738948,False,NONE
2019-10-26 18:58:15.460,LG-H970,1572116295470.6667,0.535,10.472,-0.343,41.1093884,16.8738948,False,NONE
2019-10-26 18:58:15.480,LG-H970,1572116295491.0,-1.103,11.628,0.389,41.1093884,16.8738948,False,NONE
2019-10-26 18:58:15.500,LG-H970,1572116295510.75,-1.914,9.238,-3.106,41.1093884,16.8738948,False,NONE
2019-10-26 18:58:15.520,LG-H970,1572116295530.5,-1.203,8.375,-1.666,41.1093884,16.8738948,False,NONE
2019-10-26 18:58:15.540,LG-H970,1572116295550.75,-1.067,8.254,-0.38,41.1093884,16.8738948,False,NONE
2019-10-26 18:58:15.560,LG-H970,1572116295570.75,-1.734,11.096,2.471,41.1093884,16.8738948,False,NONE
2019-10-26 18:58:15.580,LG-H970,1572116295590.5,-2.75,11.439,1.646,41.1093884,16.8738948,False,NONE
2019-10-26 18:58:15.600,LG-H970,1572116295609.5,-2.88,10.627,0.735,41.1093884,16.8738948,False,NONE
2019-10-26 18:58:15.620,LG-H970,1572116295629.0,-1.011,8.864,-2.587,41.1093884,16.8738948,False,NONE
2019-10-26 18:58:15.640,LG-H970,1572116295649.0,-1.018,8.486,-1.3,41.1093884,16.8738948,False,NONE
2019-10-26 18:58:15.660,LG-H970,1572116295669.0,-2.176,8.849,-0.414,41.1093884,16.8738948,False,NONE
2019-10-26 18:58:15.680,LG-H970,1572116295689.5,-1.379,11.603,1.394,41.1093884,16.8738948,False,NONE
2019-10-26 18:58:15.700,LG-H970,1572116295709.5,-1.355,10.817,0.771,41.1093884,16.8738948,False,NONE
2019-10-26 18:58:15.720,LG-H970,1572116295728.25,-1.111,8.373,-1.476,41.1093884,16.8738948,False,NONE
2019-10-26 18:58:15.740,LG-H970,1572116295747.75,-0.51,7.539,-1.622,41.1093884,16.8738948,False,NONE
2019-10-26 18:58:15.760,LG-H970,1572116295769.25,-0.12,7.62,-1.555,41.1093884,16.8738948,False,NONE
2019-10-26 18:58:15.780,LG-H970,1572116295791.0,-1.21,9.975,0.166,41.1093884,16.8738948,False,NONE
2019-10-26 18:58:15.800,LG-H970,1572116295812.0,-2.687,11.275,1.24,41.1093884,16.8738948,False,NONE
2019-10-26 18:58:15.820,LG-H970,1572116295828.5,-2.029,11.333,0.589,41.1093884,16.8738948,False,NONE
