UTC_timestamp,device_name,x,y,z,lat,long,speed,event
2019-10-25 09:42:29.700,LG-H970,-2.311,-2.251,7.286,41.1077959,16.8803074,NONE,False
2019-10-25 09:42:29.720,LG-H970,-1.119,-4.314,7.485,41.1077959,16.8803074,NONE,False
2019-10-25 09:42:29.740,LG-H970,-3.52,-5.425,6.669,41.1077959,16.8803074,NONE,False
2019-10-25 09:42:29.760,LG-H970,4.467,-9.109,-1.241,41.1077959,16.8803074,NONE,False
2019-10-25 09:42:29.780,LG-H970,-5.917,-3.101,8.715,41.1077959,16.8803074,NONE,False
2019-10-25 09:42:29.800,LG-H970,-1.828,-0.958,9.606,41.1077959,16.8803074,NONE,False
2019-10-25 09:42:29.820,LG-H970,0.392,2.729,3.661,41.1077959,16.8803074,NONE,False
2019-10-25 09:42:29.840,LG-H970,1.699,2.334,7.54,41.1077959,16.8803074,NONE,False
2019-10-25 09:42:29.860,LG-H970,0.238,1.914,17.81,41.1077959,16.8803074,NONE,False
2019-10-25 09:42:29.880,LG-H970,-2.989,-0.151,11.836,41.1077959,16.8803074,NONE,False
2019-10-25 09:42:29.900,LG-H970,1.209,3.291,10.011,41.1077959,16.8803074,NONE,False
2019-10-25 09:42:29.920,LG-H970,-3.967,6.186,15.002,41.1077959,16.8803074,NONE,False
2019-10-25 09:42:29.940,LG-H970,-1.853,5.028,22.931,41.1077959,16.8803074,NONE,False
2019-10-25 09:42:29.960,LG-H970,6.288,8.584,29.47,41.1077959,16.8803074,NONE,False
2019-10-25 09:42:29.980,LG-H970,3.577,10.71,15.815,41.1077959,16.8803074,NONE,False
2019-10-25 09:42:30.000,LG-H970,-4.535,6.772,9.636,41.1077959,16.8803074,NONE,False
2019-10-25 09:42:30.020,LG-H970,-1.129,3.868,20.541,41.1077959,16.8803074,NONE,False
2019-10-25 09:42:30.040,LG-H970,-3.958,3.17,5.43,41.1077959,16.8803074,NONE,False
2019-10-25 09:42:30.060,LG-H970,-2.672,3.12,4.53,41.1077959,16.8803074,NONE,False
2019-10-25 09:42:30.080,LG-H970,-2.603,-2.23,9.336,41.1077959,16.8803074,NONE,False
2019-10-25 09:42:30.100,LG-H970,-2.122,-7.046,7.832,41.1077959,16.8803074,NONE,False
2019-10-25 09:42:30.120,LG-H970,1.376,-1.832,7.69,41.1077959,16.8803074,NONE,False
2019-10-25 09:42:30.140,LG-H970,-1.083,2.793,4.216,41.1077959,16.8803074,NONE,False
2019-10-25 09:42:30.160,LG-H970,0.606,-1.921,3.973,41.1077959,16.8803074,NONE,False
2019-10-25 09:42:30.180,LG-H970,-1.12,-8.099,5.691,41.1077959,16.8803074,NONE,False
2019-10-25 09:42:30.200,LG-H970,-0.428,-7.002,6.162,41.1077959,16.8803074,NONE,False
2019-10-25 09:42:30.220,LG-H970,0.99,-1.929,5.562,41.1077959,16.8803074,NONE,False
2019-10-25 09:42:30.240,LG-H970,0.403,-1.523,6.484,41.1077959,16.8803074,NONE,False
2019-10-25 09:42:30.260,LG-H970,1.466,-5.028,8.718,41.1077959,16.8803074,NONE,False
2019-10-25 09:42:30.280,LG-H970,-0.326,-4.326,9.061,41.1077959,16.8803074,NONE,False
2019-10-25 09:42:30.300,LG-H970,0.681,-0.764,7.826,41.1077959,16.8803074,NONE,False
2019-10-25 09:42:30.320,LG-H970,0.238,-0.035,9.2,41.1077959,16.8803074,NONE,False
2019-10-25 09:42:30.340,LG-H970,-0.177,-2.415,10.188,41.1077959,16.8803074,NONE,False
2019-10-25 09:42:30.360,LG-H970,-0.444,-1.712,10.895,41.1077959,16.8803074,NONE,False
2019-10-25 09:42:30.380,LG-H970,0.535,0.495,9.823,41.1077959,16.8803074,NONE,False
2019-10-25 09:42:30.400,LG-H970,0.127,0.537,10.715,41.1077959,16.8803074,NONE,False
2019-10-25 09:42:30.420,LG-H970,-0.851,-0.171,11.774,41.1077959,16.8803074,NONE,False
2019-10-25 09:42:30.440,LG-H970,-0.724,0.536,11.297,41.1077959,16.8803074,NONE,False
2019-10-25 09:42:30.460,LG-H970,0.254,1.181,10.551,41.1077959,16.8803074,NONE,False
2019-10-25 09:42:30.480,LG-H970,-0.028,0.007,10.74,41.1077959,16.8803074,NONE,False
2019-10-25 09:42:30.500,LG-H970,-0.836,-0.778,11.252,41.1077959,16.8803074,NONE,False
2019-10-25 09:42:30.520,LG-H970,0.388,-0.312,10.381,41.1077959,16.8803074,NONE,False
2019-10-25 09:42:30.540,LG-H970,0.491,0.596,10.456,41.1077959,16.8803074,NONE,False
2019-10-25 09:42:30.560,LG-H970,-0.232,-0.221,10.675,41.1077959,16.8803074,NONE,False
2019-10-25 09:42:30.580,LG-H970,0.053,-1.552,11.156,41.1077959,16.8803074,NONE,False
2019-10-25 09:42:30.600,LG-H970,-0.052,-1.48,9.96,41.1077959,16.8803074,NONE,False
2019-10-25 09:42:30.620,LG-H970,1.431,-0.675,10.355,41.1077959,16.8803074,NONE,False
2019-10-25 09:42:30.640,LG-H970,1.318,-2.381,9.074,41.1077959,16.8803074,NONE,False
2019-10-25 09:42:30.660,LG-H970,0.934,-2.963,11.881,41.1077959,16.8803074,NONE,False
2019-10-25 09:42:30.680,LG-H970,-0.286,-2.689,9.267,41.1077959,16.8803074,NONE,False
2019-10-25 09:42:30.700,LG-H970,-0.529,-0.455,10.619,41.1077959,16.8803074,NONE,False
2019-10-25 09:42:30.720,LG-H970,-0.962,-1.01,7.866,41.1077959,16.8803074,NONE,False
2019-10-25 09:42:30.740,LG-H970,-0.878,-0.816,10.305,41.1077959,16.8803074,NONE,False
2019-10-25 09:42:30.760,LG-H970,-2.202,-0.423,9.714,41.1077959,16.8803074,NONE,False
2019-10-25 09:42:30.780,LG-H970,-1.319,0.551,10.522,41.1077959,16.8803074,NONE,False
2019-10-25 09:42:30.800,LG-H970,-3.087,0.908,9.361,41.1077959,16.8803074,NONE,False
2019-10-25 09:42:30.820,LG-H970,-2.459,1.797,9.925,41.1077959,16.8803074,NONE,False
2019-10-25 09:42:30.840,LG-H970,-2.156,2.309,9.129,41.1077959,16.8803074,NONE,False
2019-10-25 09:42:30.860,LG-H970,-1.067,2.908,10.056,41.1077959,16.8803074,NONE,False
2019-10-25 09:42:30.880,LG-H970,-1.517,3.378,11.315,41.1077959,16.8803074,NONE,False
2019-10-25 09:42:30.900,LG-H970,-0.607,3.167,9.93,41.1077959,16.8803074,NONE,False
2019-10-25 09:42:30.920,LG-H970,-2.209,4.95,10.787,41.1077959,16.8803074,NONE,False
2019-10-25 09:42:30.940,LG-H970,-2.553,4.513,8.799,41.1077959,16.8803074,NONE,False
2019-10-25 09:42:30.960,LG-H970,-1.776,3.063,9.555,41.1077959,16.8803074,NONE,False
2019-10-25 09:42:30.980,LG-H970,-2.987,1.52,10.558,41.1077959,16.8803074,NONE,False
2019-10-25 09:42:31.000,LG-H970,-0.334,1.231,11.253,41.1077959,16.8803074,NONE,False
2019-10-25 09:42:31.020,LG-H970,0.266,1.858,10.28,41.1077959,16.8803074,NONE,False
2019-10-25 09:42:31.040,LG-H970,0.712,1.198,10.355,41.1077959,16.8803074,NONE,False
2019-10-25 09:42:31.060,LG-H970,-0.045,-0.939,9.428,41.1077959,16.8803074,NONE,False
2019-10-25 09:42:31.080,LG-H970,0.792,-1.77,10.365,41.1077959,16.8803074,NONE,False
2019-10-25 09:42:31.100,LG-H970,0.86,-2.625,9.851,41.1077959,16.8803074,NONE,False
2019-10-25 09:42:31.120,LG-H970,1.211,-3.018,10.413,41.1077959,16.8803074,NONE,False
2019-10-25 09:42:31.140,LG-H970,0.57,-3.492,9.619,41.1077959,16.8803074,NONE,False
2019-10-25 09:42:31.160,LG-H970,-0.323,-3.578,9.049,41.1077959,16.8803074,NONE,False
2019-10-25 09:42:31.180,LG-H970,-0.288,-3.855,8.782,41.1077959,16.8803074,NONE,False
2019-10-25 09:42:31.200,LG-H970,-0.599,-3.477,9.537,41.1077959,16.8803074,NONE,True
2019-10-25 09:42:31.220,LG-H970,-0.172,-3.313,8.148,41.1077959,16.8803074,NONE,True
2019-10-25 09:42:31.240,LG-H970,-1.446,-2.55,9.387,41.1077959,16.8803074,NONE,False
2019-10-25 09:42:31.260,LG-H970,-2.95,-3.069,9.165,41.1077959,16.8803074,NONE,False
2019-10-25 09:42:31.280,LG-H970,-2.386,-2.244,9.379,41.1077959,16.8803074,NONE,False
2019-10-25 09:42:31.300,LG-H970,-3.379,-1.803,7.394,41.1077959,16.8803074,NONE,False
2019-10-25 09:42:31.320,LG-H970,-2.782,-2.043,9.042,41.1077959,16.8803074,NONE,False
2019-10-25 09:42:31.340,LG-H970,-5.027,-3.706,8.035,41.1077959,16.8803074,NONE,False
2019-10-25 09:42:31.360,LG-H970,-4.62,-2.579,9.154,41.1077959,16.8803074,NONE,False
2019-10-25 09:42:31.380,LG-H970,-6.083,-1.836,7.24,41.1077959,16.8803074,NONE,False
2019-10-25 09:42:31.400,LG-H970,-4.135,-0.897,8.682,41.1077959,16.8803074,NONE,False
2019-10-25 09:42:31.420,LG-H970,-4.787,0.158,9.579,41.1077959,16.8803074,NONE,False
2019-10-25 09:42:31.440,LG-H970,-4.595,1.913,12.255,41.1077959,16.8803074,NONE,False
2019-10-25 09:42:31.460,LG-H970,-3.793,1.66,9.824,41.1077959,16.8803074,NONE,False
2019-10-25 09:42:31.480,LG-H970,-3.962,1.765,9.482,41.1077959,16.8803074,NONE,False
2019-10-25 09:42:31.500,LG-H970,-2.874,1.566,9.406,41.1077959,16.8803074,NONE,False
2019-10-25 09:42:31.520,LG-H970,-2.576,2.072,11.31,41.1077959,16.8803074,NONE,False
2019-10-25 09:42:31.540,LG-H970,-1.643,1.638,11.468,41.1077959,16.8803074,NONE,False
2019-10-25 09:42:31.560,LG-H970,-1.221,1.502,11.219,41.1077959,16.8803074,NONE,False
2019-10-25 09:42:31.580,LG-H970,-1.955,1.341,10.627,41.1077959,16.8803074,NONE,False
2019-10-25 09:42:31.600,LG-H970,-1.345,0.809,10.071,41.1077959,16.8803074,NONE,False
2019-10-25 09:42:31.620,LG-H970,-1.146,0.634,9.487,41.1077959,16.8803074,NONE,False
2019-10-25 09:42:31.640,LG-H970,-0.221,1.053,11.067,41.1077959,16.8803074,NONE,False
2019-10-25 09:42:31.660,LG-H970,-0.783,-0.275,9.792,41.1077959,16.8803074,NONE,False
2019-10-25 09:42:31.680,LG-H970,-0.37,-0.725,10.694,41.1077959,16.8803074,NONE,False
2019-10-25 09:42:31.700,LG-H970,-1.474,-0.896,8.744,41.1077959,16.8803074,NONE,False
2019-10-25 09:42:31.720,LG-H970,-0.267,-0.411,9.865,41.1077959,16.8803074,NONE,False
2019-10-25 09:42:31.740,LG-H970,-2.055,-1.49,9.551,41.1077959,16.8803074,NONE,False
2019-10-25 09:42:31.760,LG-H970,-1.421,-1.134,11.041,41.1077959,16.8803074,NONE,False
2019-10-25 09:42:31.780,LG-H970,-1.482,-0.977,8.621,41.1077959,16.8803074,NONE,False
2019-10-25 09:42:31.800,LG-H970,-1.673,-0.389,9.739,41.1077959,16.8803074,NONE,False
2019-10-25 09:42:31.820,LG-H970,-2.543,-1.338,9.361,41.1077959,16.8803074,NONE,False
2019-10-25 09:42:31.840,LG-H970,-2.09,-1.695,9.514,41.1077959,16.8803074,NONE,False
2019-10-25 09:42:31.860,LG-H970,-3.352,-1.431,9.66,41.1077959,16.8803074,NONE,False
2019-10-25 09:42:31.880,LG-H970,-1.277,-1.009,9.842,41.1077959,16.8803074,NONE,False
2019-10-25 09:42:31.900,LG-H970,-2.737,-0.95,8.796,41.1077959,16.8803074,NONE,False
2019-10-25 09:42:31.920,LG-H970,-2.178,-1.332,9.566,41.1077959,16.8803074,NONE,False
2019-10-25 09:42:31.940,LG-H970,-3.322,-2.87,8.191,41.1077959,16.8803074,NONE,False
2019-10-25 09:42:31.960,LG-H970,-3.256,-2.551,8.685,41.1077959,16.8803074,NONE,False
2019-10-25 09:42:31.980,LG-H970,-2.923,-1.442,8.647,41.1077959,16.8803074,NONE,False
2019-10-25 09:42:32.000,LG-H970,-2.452,-0.916,9.147,41.1077959,16.8803074,NONE,False
2019-10-25 09:42:32.020,LG-H970,-1.609,-1.106,9.796,41.1077959,16.8803074,NONE,False
2019-10-25 09:42:32.040,LG-H970,-1.976,-1.25,9.442,41.1077959,16.8803074,NONE,False
2019-10-25 09:42:32.060,LG-H970,-2.472,-0.536,9.297,41.1077959,16.8803074,NONE,False
2019-10-25 09:42:32.080,LG-H970,-2.007,-0.521,8.944,41.1077959,16.8803074,NONE,False
2019-10-25 09:42:32.100,LG-H970,-1.47,-1.24,9.245,41.1077959,16.8803074,NONE,False
2019-10-25 09:42:32.120,LG-H970,-1.282,-0.71,10.567,41.1077959,16.8803074,NONE,False
2019-10-25 09:42:32.140,LG-H970,-1.124,-0.088,10.584,41.1077959,16.8803074,NONE,False
2019-10-25 09:42:32.160,LG-H970,-1.129,0.243,10.144,41.1077959,16.8803074,NONE,False
2019-10-25 09:42:32.180,LG-H970,-1.37,0.094,9.84,41.1077959,16.8803074,NONE,False
2019-10-25 09:42:32.200,LG-H970,-1.844,-0.528,9.862,41.1077959,16.8803074,NONE,False
2019-10-25 09:42:32.220,LG-H970,-0.624,-0.649,9.913,41.1077959,16.8803074,NONE,False
2019-10-25 09:42:32.240,LG-H970,0.228,-0.983,10.381,41.1077959,16.8803074,NONE,False
2019-10-25 09:42:32.260,LG-H970,-0.622,-1.203,11.055,41.1077959,16.8803074,NONE,False
2019-10-25 09:42:32.280,LG-H970,-1.652,-0.33,10.656,41.1077959,16.8803074,NONE,False
2019-10-25 09:42:32.300,LG-H970,-1.421,-0.575,8.436,41.1077959,16.8803074,NONE,False
2019-10-25 09:42:32.320,LG-H970,-2.043,-0.624,9.09,41.1077959,16.8803074,NONE,False
2019-10-25 09:42:32.340,LG-H970,-1.319,-0.438,8.867,41.1077959,16.8803074,NONE,False
2019-10-25 09:42:32.360,LG-H970,-1.319,0.226,10.076,41.1077959,16.8803074,NONE,False
2019-10-25 09:42:32.380,LG-H970,-1.227,-0.235,9.933,41.1077959,16.8803074,NONE,False
2019-10-25 09:42:32.400,LG-H970,-1.44,-0.021,9.846,41.1077959,16.8803074,NONE,False
2019-10-25 09:42:32.420,LG-H970,-2.133,0.454,8.8,41.1077959,16.8803074,NONE,False
2019-10-25 09:42:32.440,LG-H970,-1.975,0.199,9.901,41.1077959,16.8803074,NONE,False
2019-10-25 09:42:32.460,LG-H970,-2.159,-0.477,10.561,41.1077959,16.8803074,NONE,False
2019-10-25 09:42:32.480,LG-H970,-1.227,0.321,10.697,41.1077959,16.8803074,NONE,False
2019-10-25 09:42:32.500,LG-H970,-1.368,1.425,9.915,41.1077959,16.8803074,NONE,False
2019-10-25 09:42:32.520,LG-H970,-1.361,0.643,9.617,41.1077959,16.8803074,NONE,False
2019-10-25 09:42:32.540,LG-H970,-2.835,-1.518,10.225,41.1077959,16.8803074,NONE,False
2019-10-25 09:42:32.560,LG-H970,-1.68,-1.037,10.914,41.1077959,16.8803074,NONE,False
2019-10-25 09:42:32.580,LG-H970,-0.77,0.778,9.785,41.1077959,16.8803074,NONE,False
2019-10-25 09:42:32.600,LG-H970,0.012,0.441,9.458,41.1077959,16.8803074,NONE,False
2019-10-25 09:42:32.620,LG-H970,-1.762,-2.785,9.548,41.1077959,16.8803074,NONE,False
2019-10-25 09:42:32.640,LG-H970,-3.121,-2.585,10.177,41.1077959,16.8803074,NONE,False
2019-10-25 09:42:32.660,LG-H970,-1.225,-0.093,8.873,41.1077959,16.8803074,NONE,False
2019-10-25 09:42:32.680,LG-H970,0.111,0.987,8.826,41.1077959,16.8803074,NONE,False
