UTC_timestamp,device_name,x,y,z,lat,long,speed,event
2019-10-25 09:44:24.240,LG-H970,-0.119,3.138,10.367,41.1077959,16.8803074,NONE,False
2019-10-25 09:44:24.260,LG-H970,0.55,1.938,10.705,41.1077959,16.8803074,NONE,False
2019-10-25 09:44:24.280,LG-H970,-1.496,-2.575,10.822,41.1077959,16.8803074,NONE,False
2019-10-25 09:44:24.300,LG-H970,-1.834,-1.607,10.928,41.1077959,16.8803074,NONE,False
2019-10-25 09:44:24.320,LG-H970,-0.956,1.198,8.435,41.1077959,16.8803074,NONE,False
2019-10-25 09:44:24.340,LG-H970,0.142,0.554,10.253,41.1077959,16.8803074,NONE,False
2019-10-25 09:44:24.360,LG-H970,0.345,-1.986,10.732,41.1077959,16.8803074,NONE,False
2019-10-25 09:44:24.380,LG-H970,0.48,-0.177,10.747,41.1077959,16.8803074,NONE,False
2019-10-25 09:44:24.400,LG-H970,-0.737,0.663,8.192,41.1077959,16.8803074,NONE,False
2019-10-25 09:44:24.420,LG-H970,-1.547,-0.828,9.326,41.1077959,16.8803074,NONE,False
2019-10-25 09:44:24.440,LG-H970,-2.108,-2.947,8.421,41.1077959,16.8803074,NONE,False
2019-10-25 09:44:24.460,LG-H970,0.052,-1.904,9.139,41.1077959,16.8803074,NONE,False
2019-10-25 09:44:24.480,LG-H970,-0.984,-1.031,9.682,41.1077959,16.8803074,NONE,False
2019-10-25 09:44:24.500,LG-H970,-0.897,-1.621,9.915,41.1077959,16.8803074,NONE,False
2019-10-25 09:44:24.520,LG-H970,-0.485,-1.596,8.707,41.1077959,16.8803074,NONE,False
2019-10-25 09:44:24.540,LG-H970,0.036,-2.179,8.35,41.1077959,16.8803074,NONE,False
2019-10-25 09:44:24.560,LG-H970,-1.191,-1.081,12.124,41.1077959,16.8803074,NONE,False
2019-10-25 09:44:24.580,LG-H970,-0.858,-1.423,9.507,41.1077959,16.8803074,NONE,False
2019-10-25 09:44:24.600,LG-H970,-1.133,-1.147,10.096,41.1077959,16.8803074,NONE,False
2019-10-25 09:44:24.620,LG-H970,-2.114,-1.748,8.838,41.1077959,16.8803074,NONE,False
2019-10-25 09:44:24.640,LG-H970,-0.634,-1.177,9.931,41.1077959,16.8803074,NONE,False
2019-10-25 09:44:24.660,LG-H970,-1.115,-0.905,10.506,41.1077959,16.8803074,NONE,False
2019-10-25 09:44:24.680,LG-H970,0.242,-1.008,8.855,41.1077959,16.8803074,NONE,False
2019-10-25 09:44:24.700,LG-H970,-0.33,-1.218,9.812,41.1077959,16.8803074,NONE,False
2019-10-25 09:44:24.720,LG-H970,-3.024,-0.509,11.693,41.1077959,16.8803074,NONE,False
2019-10-25 09:44:24.740,LG-H970,-1.572,-0.067,9.884,41.1077959,16.8803074,NONE,False
2019-10-25 09:44:24.760,LG-H970,0.72,0.509,9.226,41.1077959,16.8803074,NONE,False
2019-10-25 09:44:24.780,LG-H970,-0.659,0.497,9.569,41.1077959,16.8803074,NONE,False
2019-10-25 09:44:24.800,LG-H970,-1.233,0.543,11.462,41.1077959,16.8803074,NONE,False
2019-10-25 09:44:24.820,LG-H970,-1.086,0.177,10.586,41.1077959,16.8803074,NONE,False
2019-10-25 09:44:24.840,LG-H970,-1.125,0.597,9.408,41.1077959,16.8803074,NONE,False
2019-10-25 09:44:24.860,LG-H970,-0.892,0.417,8.852,41.1077959,16.8803074,NONE,False
2019-10-25 09:44:24.880,LG-H970,-0.894,0.102,9.448,41.1077959,16.8803074,NONE,False
2019-10-25 09:44:24.900,LG-H970,-1.154,0.071,10.094,41.1077959,16.8803074,NONE,False
2019-10-25 09:44:24.920,LG-H970,-0.757,-0.092,10.822,41.1077959,16.8803074,NONE,False
2019-10-25 09:44:24.940,LG-H970,-0.964,-0.117,10.344,41.1077959,16.8803074,NONE,False
2019-10-25 09:44:24.960,LG-H970,-0.714,-0.48,9.709,41.1077959,16.8803074,NONE,False
2019-10-25 09:44:24.980,LG-H970,-0.465,-0.82,9.219,41.1077959,16.8803074,NONE,False
2019-10-25 09:44:25.000,LG-H970,-0.695,-0.662,9.955,41.1077959,16.8803074,NONE,False
2019-10-25 09:44:25.020,LG-H970,-0.446,-0.343,10.489,41.1077959,16.8803074,NONE,False
2019-10-25 09:44:25.040,LG-H970,-1.101,0.038,9.834,41.1077959,16.8803074,NONE,False
2019-10-25 09:44:25.060,LG-H970,-0.128,-0.381,9.347,41.1077959,16.8803074,NONE,False
2019-10-25 09:44:25.080,LG-H970,-1.171,-1.68,9.762,41.1077959,16.8803074,NONE,False
2019-10-25 09:44:25.100,LG-H970,-0.703,-1.931,9.204,41.1077959,16.8803074,NONE,False
2019-10-25 09:44:25.120,LG-H970,-0.061,-0.652,9.245,41.1077959,16.8803074,NONE,False
2019-10-25 09:44:25.140,LG-H970,-0.3,-0.907,9.376,41.1077959,16.8803074,NONE,False
2019-10-25 09:44:25.160,LG-H970,-1.168,-1.082,10.206,41.1077959,16.8803074,NONE,False
2019-10-25 09:44:25.180,LG-H970,-0.857,-0.892,9.883,41.1077959,16.8803074,NONE,False
2019-10-25 09:44:25.200,LG-H970,-0.238,-0.571,9.482,41.1077959,16.8803074,NONE,False
2019-10-25 09:44:25.220,LG-H970,-0.238,-0.872,9.097,41.1077959,16.8803074,NONE,False
2019-10-25 09:44:25.240,LG-H970,-1.093,-2.087,9.757,41.1077959,16.8803074,NONE,False
2019-10-25 09:44:25.260,LG-H970,-1.358,-2.571,9.883,41.1077959,16.8803074,NONE,False
2019-10-25 09:44:25.280,LG-H970,-1.079,-1.347,9.372,41.1077959,16.8803074,NONE,False
2019-10-25 09:44:25.300,LG-H970,-0.644,-0.523,9.778,41.1077959,16.8803074,NONE,False
2019-10-25 09:44:25.320,LG-H970,-0.715,-0.778,11.017,41.1077959,16.8803074,NONE,False
2019-10-25 09:44:25.340,LG-H970,0.102,-1.13,11.534,41.1077959,16.8803074,NONE,False
2019-10-25 09:44:25.360,LG-H970,-0.837,-1.04,10.317,41.1077959,16.8803074,NONE,False
2019-10-25 09:44:25.380,LG-H970,-1.218,0.79,10.483,41.1077959,16.8803074,NONE,False
2019-10-25 09:44:25.400,LG-H970,-1.282,0.327,9.949,41.1077959,16.8803074,NONE,False
2019-10-25 09:44:25.420,LG-H970,-0.913,-0.869,10.592,41.1077959,16.8803074,NONE,False
2019-10-25 09:44:25.440,LG-H970,-1.009,-0.191,11.16,41.1077959,16.8803074,NONE,False
2019-10-25 09:44:25.460,LG-H970,0.1,0.01,9.581,41.1077959,16.8803074,NONE,False
2019-10-25 09:44:25.480,LG-H970,-1.0,-0.916,9.609,41.1077959,16.8803074,NONE,False
2019-10-25 09:44:25.500,LG-H970,-1.428,-1.438,10.531,41.1077959,16.8803074,NONE,False
2019-10-25 09:44:25.520,LG-H970,-1.093,-0.657,10.039,41.1077959,16.8803074,NONE,False
2019-10-25 09:44:25.540,LG-H970,-0.051,0.602,9.333,41.1077959,16.8803074,NONE,False
2019-10-25 09:44:25.560,LG-H970,-0.475,0.414,9.852,41.1077959,16.8803074,NONE,False
2019-10-25 09:44:25.580,LG-H970,-1.04,-1.176,9.605,41.1077959,16.8803074,NONE,False
2019-10-25 09:44:25.600,LG-H970,-1.39,-1.322,9.521,41.1077959,16.8803074,NONE,False
2019-10-25 09:44:25.620,LG-H970,-0.751,-1.294,8.364,41.1077959,16.8803074,NONE,False
2019-10-25 09:44:25.640,LG-H970,-1.204,-0.897,8.231,41.1077959,16.8803074,NONE,False
2019-10-25 09:44:25.660,LG-H970,-0.867,-1.311,9.693,41.1077959,16.8803074,NONE,False
2019-10-25 09:44:25.680,LG-H970,-0.691,0.405,10.064,41.1077959,16.8803074,NONE,False
2019-10-25 09:44:25.700,LG-H970,0.108,1.256,10.236,41.1077959,16.8803074,NONE,False
2019-10-25 09:44:25.720,LG-H970,-0.458,-0.785,9.717,41.1077959,16.8803074,NONE,False
2019-10-25 09:44:25.740,LG-H970,-1.791,-1.794,11.125,41.1077959,16.8803074,NONE,True
2019-10-25 09:44:25.760,LG-H970,-1.027,0.318,10.257,41.1077959,16.8803074,NONE,False
2019-10-25 09:44:25.780,LG-H970,0.606,1.204,10.037,41.1077959,16.8803074,NONE,False
2019-10-25 09:44:25.800,LG-H970,-0.901,-1.258,10.879,41.1077959,16.8803074,NONE,False
2019-10-25 09:44:25.820,LG-H970,-1.327,-2.315,11.021,41.1077959,16.8803074,NONE,False
2019-10-25 09:44:25.840,LG-H970,-1.222,-0.788,9.649,41.1077959,16.8803074,NONE,False
2019-10-25 09:44:25.860,LG-H970,-1.544,0.235,7.89,41.1077959,16.8803074,NONE,False
2019-10-25 09:44:25.880,LG-H970,-0.807,-0.392,9.429,41.1077959,16.8803074,NONE,False
2019-10-25 09:44:25.900,LG-H970,-1.631,-2.105,9.396,41.1077959,16.8803074,NONE,False
2019-10-25 09:44:25.920,LG-H970,-0.28,-1.833,9.849,41.1077959,16.8803074,NONE,False
2019-10-25 09:44:25.940,LG-H970,-1.294,-1.054,8.781,41.1077959,16.8803074,NONE,False
2019-10-25 09:44:25.960,LG-H970,-0.932,-0.931,8.803,41.1077959,16.8803074,NONE,False
2019-10-25 09:44:25.980,LG-H970,-1.462,-1.522,8.555,41.1077959,16.8803074,NONE,False
2019-10-25 09:44:26.000,LG-H970,-1.789,-0.524,10.796,41.1077959,16.8803074,NONE,False
2019-10-25 09:44:26.020,LG-H970,-0.394,-0.199,9.277,41.1077959,16.8803074,NONE,False
2019-10-25 09:44:26.040,LG-H970,-0.715,0.56,11.376,41.1077959,16.8803074,NONE,False
2019-10-25 09:44:26.060,LG-H970,-0.994,-0.047,9.771,41.1077959,16.8803074,NONE,False
2019-10-25 09:44:26.080,LG-H970,-0.56,0.059,10.549,41.1077959,16.8803074,NONE,False
2019-10-25 09:44:26.100,LG-H970,-1.919,-0.05,10.395,41.1077959,16.8803074,NONE,False
2019-10-25 09:44:26.120,LG-H970,-0.231,0.239,10.125,41.1077959,16.8803074,NONE,False
2019-10-25 09:44:26.140,LG-H970,-0.75,-0.366,9.677,41.1077959,16.8803074,NONE,False
2019-10-25 09:44:26.160,LG-H970,-1.08,-0.853,10.743,41.1077959,16.8803074,NONE,False
2019-10-25 09:44:26.180,LG-H970,-0.793,-0.518,9.925,41.1077959,16.8803074,NONE,False
2019-10-25 09:44:26.200,LG-H970,-0.48,-0.058,10.311,41.1077959,16.8803074,NONE,False
2019-10-25 09:44:26.220,LG-H970,-0.93,-0.432,10.278,41.1077959,16.8803074,NONE,False
2019-10-25 09:44:26.240,LG-H970,-0.844,-0.432,10.25,41.1077959,16.8803074,NONE,False
2019-10-25 09:44:26.260,LG-H970,-0.908,-0.551,9.144,41.1077959,16.8803074,NONE,False
2019-10-25 09:44:26.280,LG-H970,-1.398,-0.584,9.788,41.1077959,16.8803074,NONE,False
2019-10-25 09:44:26.300,LG-H970,-0.413,-1.534,9.969,41.1077959,16.8803074,NONE,False
2019-10-25 09:44:26.320,LG-H970,-0.307,-0.85,10.716,41.1077959,16.8803074,NONE,False
2019-10-25 09:44:26.340,LG-H970,-0.387,-0.642,10.124,41.1077959,16.8803074,NONE,False
2019-10-25 09:44:26.360,LG-H970,-0.01,-0.462,10.214,41.1077959,16.8803074,NONE,False
2019-10-25 09:44:26.380,LG-H970,-0.832,-0.721,8.447,41.1077959,16.8803074,NONE,False
2019-10-25 09:44:26.400,LG-H970,-2.032,-0.442,9.387,41.1077959,16.8803074,NONE,False
2019-10-25 09:44:26.420,LG-H970,-1.599,-0.638,8.344,41.1077959,16.8803074,NONE,False
2019-10-25 09:44:26.440,LG-H970,-1.041,-0.547,9.478,41.1077959,16.8803074,NONE,False
2019-10-25 09:44:26.460,LG-H970,-0.719,0.061,10.288,41.1077959,16.8803074,NONE,False
2019-10-25 09:44:26.480,LG-H970,-0.114,1.028,10.541,41.1077959,16.8803074,NONE,False
2019-10-25 09:44:26.500,LG-H970,-0.742,0.762,10.841,41.1077959,16.8803074,NONE,False
2019-10-25 09:44:26.520,LG-H970,-1.576,0.327,10.25,41.1077959,16.8803074,NONE,False
2019-10-25 09:44:26.540,LG-H970,-1.038,0.457,8.445,41.1077959,16.8803074,NONE,False
2019-10-25 09:44:26.560,LG-H970,-1.279,0.944,9.22,41.1077959,16.8803074,NONE,False
2019-10-25 09:44:26.580,LG-H970,-1.11,-0.278,10.204,41.1077959,16.8803074,NONE,False
2019-10-25 09:44:26.600,LG-H970,-0.229,-0.59,10.158,41.1077959,16.8803074,NONE,False
2019-10-25 09:44:26.620,LG-H970,-0.919,0.251,9.923,41.1077959,16.8803074,NONE,False
2019-10-25 09:44:26.640,LG-H970,-0.898,-0.285,10.137,41.1077959,16.8803074,NONE,False
2019-10-25 09:44:26.660,LG-H970,-1.343,-0.582,10.942,41.1077959,16.8803074,NONE,False
2019-10-25 09:44:26.680,LG-H970,-0.239,-0.19,10.027,41.1077959,16.8803074,NONE,False
2019-10-25 09:44:26.700,LG-H970,0.112,-0.604,9.38,41.1077959,16.8803074,NONE,False
2019-10-25 09:44:26.720,LG-H970,-0.512,-1.274,10.335,41.1077959,16.8803074,NONE,False
2019-10-25 09:44:26.740,LG-H970,-0.743,-1.404,9.983,41.1077959,16.8803074,NONE,False
2019-10-25 09:44:26.760,LG-H970,-0.977,-0.116,10.086,41.1077959,16.8803074,NONE,False
2019-10-25 09:44:26.780,LG-H970,-0.719,-0.714,9.765,41.1077959,16.8803074,NONE,False
2019-10-25 09:44:26.800,LG-H970,-1.741,-0.969,10.267,41.1077959,16.8803074,NONE,False
2019-10-25 09:44:26.820,LG-H970,-1.086,0.343,9.614,41.1077959,16.8803074,NONE,False
2019-10-25 09:44:26.840,LG-H970,-0.572,1.109,9.052,41.1077959,16.8803074,NONE,False
2019-10-25 09:44:26.860,LG-H970,-1.709,-0.33,10.173,41.1077959,16.8803074,NONE,False
2019-10-25 09:44:26.880,LG-H970,-0.953,-1.001,10.302,41.1077959,16.8803074,NONE,False
2019-10-25 09:44:26.900,LG-H970,-0.454,0.27,9.794,41.1077959,16.8803074,NONE,False
2019-10-25 09:44:26.920,LG-H970,-0.665,0.528,10.731,41.1077959,16.8803074,NONE,False
2019-10-25 09:44:26.940,LG-H970,-1.145,-0.663,9.957,41.1077959,16.8803074,NONE,False
2019-10-25 09:44:26.960,LG-H970,-1.408,-1.008,9.48,41.1077959,16.8803074,NONE,False
2019-10-25 09:44:26.980,LG-H970,-1.612,-0.644,8.941,41.1077959,16.8803074,NONE,False
2019-10-25 09:44:27.000,LG-H970,-0.821,-0.419,10.291,41.1077959,16.8803074,NONE,False
2019-10-25 09:44:27.020,LG-H970,-1.009,-0.546,9.744,41.1077959,16.8803074,NONE,False
2019-10-25 09:44:27.040,LG-H970,0.384,0.053,9.727,41.1077959,16.8803074,NONE,False
2019-10-25 09:44:27.060,LG-H970,-1.493,-0.499,9.786,41.1077959,16.8803074,NONE,False
2019-10-25 09:44:27.080,LG-H970,-0.903,-1.039,10.423,41.1077959,16.8803074,NONE,False
2019-10-25 09:44:27.100,LG-H970,-1.611,-0.892,9.762,41.1077959,16.8803074,NONE,False
2019-10-25 09:44:27.120,LG-H970,-0.168,-0.229,10.653,41.1077959,16.8803074,NONE,False
2019-10-25 09:44:27.140,LG-H970,-0.956,-0.554,10.194,41.1077959,16.8803074,NONE,False
2019-10-25 09:44:27.160,LG-H970,-0.465,-1.396,9.35,41.1077959,16.8803074,NONE,False
2019-10-25 09:44:27.180,LG-H970,-2.15,-0.433,10.253,41.1077959,16.8803074,NONE,False
2019-10-25 09:44:27.200,LG-H970,-0.845,0.375,8.663,41.1077959,16.8803074,NONE,False
2019-10-25 09:44:27.220,LG-H970,-0.247,0.305,10.21,41.1077959,16.8803074,NONE,False
