UTC_timestamp,device_name,x,y,z,lat,long,speed,event
2019-10-27 16:27:45.840,LG-H970,-1.861,-1.459,9.919,41.1076052,16.8815971,3.745,False
2019-10-27 16:27:45.860,LG-H970,-1.139,-0.818,9.408,41.1076052,16.8815971,3.745,False
2019-10-27 16:27:45.880,LG-H970,-0.889,-0.359,9.258,41.1076052,16.8815971,3.745,False
2019-10-27 16:27:45.900,LG-H970,-1.288,-2.02,9.226,41.1076052,16.8815971,3.745,False
2019-10-27 16:27:45.920,LG-H970,-1.533,-1.462,8.63,41.1076052,16.8815971,3.745,False
2019-10-27 16:27:45.940,LG-H970,-1.201,-1.134,8.679,41.1076052,16.8815971,3.745,False
2019-10-27 16:27:45.960,LG-H970,-0.838,-1.645,9.913,41.1076052,16.8815971,3.745,False
2019-10-27 16:27:45.980,LG-H970,-0.956,-0.737,10.076,41.1076052,16.8815971,3.745,False
2019-10-27 16:27:46.000,LG-H970,-1.128,-0.064,9.039,41.1076052,16.8815971,3.745,False
2019-10-27 16:27:46.020,LG-H970,-1.02,-0.013,9.236,41.1076052,16.8815971,3.745,False
2019-10-27 16:27:46.040,LG-H970,-0.948,-0.1,8.871,41.1076052,16.8815971,3.745,False
2019-10-27 16:27:46.060,LG-H970,-0.419,-1.662,9.208,41.1076052,16.8815971,3.745,False
2019-10-27 16:27:46.080,LG-H970,-0.215,-1.923,9.793,41.1076052,16.8815971,3.745,False
2019-10-27 16:27:46.100,LG-H970,-0.089,0.194,9.081,41.1076052,16.8815971,3.745,False
2019-10-27 16:27:46.120,LG-H970,-1.657,1.488,8.777,41.1076052,16.8815971,3.745,False
2019-10-27 16:27:46.140,LG-H970,-2.951,0.456,9.175,41.1076052,16.8815971,3.745,False
2019-10-27 16:27:46.160,LG-H970,-1.26,0.166,8.411,41.1076052,16.8815971,3.745,False
2019-10-27 16:27:46.180,LG-H970,-0.591,2.438,9.62,41.1076052,16.8815971,3.745,False
2019-10-27 16:27:46.200,LG-H970,-2.119,2.233,9.729,41.1076052,16.8815971,3.745,False
2019-10-27 16:27:46.220,LG-H970,-3.274,1.537,9.913,41.1076052,16.8815971,3.745,False
2019-10-27 16:27:46.240,LG-H970,-1.816,3.496,8.331,41.1076052,16.8815971,3.745,False
2019-10-27 16:27:46.260,LG-H970,-1.13,4.999,9.443,41.1076052,16.8815971,3.745,False
2019-10-27 16:27:46.280,LG-H970,-3.006,3.227,11.411,41.1076052,16.8815971,3.745,False
2019-10-27 16:27:46.300,LG-H970,-1.907,3.451,10.374,41.1076052,16.8815971,3.745,False
2019-10-27 16:27:46.320,LG-H970,-0.723,5.146,8.579,41.1076052,16.8815971,3.745,False
2019-10-27 16:27:46.340,LG-H970,-3.063,3.667,9.592,41.1076052,16.8815971,3.745,False
2019-10-27 16:27:46.360,LG-H970,-0.653,2.386,10.245,41.1076052,16.8815971,3.745,False
2019-10-27 16:27:46.380,LG-H970,0.264,2.187,10.453,41.1076052,16.8815971,3.745,False
2019-10-27 16:27:46.400,LG-H970,-0.407,0.214,10.645,41.1076052,16.8815971,3.745,False
2019-10-27 16:27:46.420,LG-H970,-1.765,-0.847,8.977,41.1076052,16.8815971,3.745,False
2019-10-27 16:27:46.440,LG-H970,-0.413,-0.464,8.999,41.1076052,16.8815971,3.745,False
2019-10-27 16:27:46.460,LG-H970,-0.41,-0.943,11.105,41.1076052,16.8815971,3.745,False
2019-10-27 16:27:46.480,LG-H970,0.922,-2.13,10.989,41.1076052,16.8815971,3.745,False
2019-10-27 16:27:46.500,LG-H970,-1.788,-1.875,10.722,41.1076052,16.8815971,3.745,False
2019-10-27 16:27:46.520,LG-H970,-0.358,-1.784,9.254,41.1076052,16.8815971,3.745,False
2019-10-27 16:27:46.540,LG-H970,-1.207,-1.169,8.653,41.1076052,16.8815971,3.745,False
2019-10-27 16:27:46.560,LG-H970,-0.999,-2.971,9.688,41.1076052,16.8815971,3.745,False
2019-10-27 16:27:46.580,LG-H970,-0.821,-2.622,10.159,41.1076052,16.8815971,3.745,False
2019-10-27 16:27:46.600,LG-H970,0.46,-0.7,9.589,41.1076052,16.8815971,3.745,False
2019-10-27 16:27:46.620,LG-H970,-2.331,-1.501,8.628,41.1076052,16.8815971,3.745,False
2019-10-27 16:27:46.640,LG-H970,-2.243,-1.28,8.175,41.1076052,16.8815971,3.745,False
2019-10-27 16:27:46.660,LG-H970,-1.63,0.341,8.821,41.1076052,16.8815971,3.745,False
2019-10-27 16:27:46.680,LG-H970,-0.205,-1.188,9.994,41.1076052,16.8815971,3.745,False
2019-10-27 16:27:46.700,LG-H970,-1.26,-2.28,11.595,41.1076052,16.8815971,3.745,False
2019-10-27 16:27:46.720,LG-H970,-1.372,0.101,10.468,41.1076052,16.8815971,3.745,False
2019-10-27 16:27:46.740,LG-H970,-0.651,0.847,8.291,41.1076052,16.8815971,3.745,False
2019-10-27 16:27:46.760,LG-H970,-4.203,-0.284,9.037,41.1076052,16.8815971,3.745,False
2019-10-27 16:27:46.780,LG-H970,-0.744,-0.209,9.627,41.1076052,16.8815971,3.745,False
2019-10-27 16:27:46.800,LG-H970,1.324,1.506,10.664,41.1076052,16.8815971,3.745,False
2019-10-27 16:27:46.820,LG-H970,-1.077,-0.903,12.7,41.1076052,16.8815971,3.745,False
2019-10-27 16:27:46.840,LG-H970,-2.992,-3.148,10.926,41.1076052,16.8815971,3.745,False
2019-10-27 16:27:46.860,LG-H970,0.011,-0.051,8.962,41.1076052,16.8815971,3.745,False
2019-10-27 16:27:46.880,LG-H970,-0.103,3.947,11.103,41.1076052,16.8815971,3.745,False
2019-10-27 16:27:46.900,LG-H970,0.46,-0.466,12.086,41.1076052,16.8815971,3.745,False
2019-10-27 16:27:46.920,LG-H970,-2.921,-3.331,12.175,41.1076052,16.8815971,3.745,False
2019-10-27 16:27:46.940,LG-H970,-2.493,0.689,8.827,41.1076052,16.8815971,3.745,False
2019-10-27 16:27:46.960,LG-H970,0.556,6.294,8.831,41.1076052,16.8815971,3.745,False
2019-10-27 16:27:46.980,LG-H970,0.732,1.237,8.385,41.1076052,16.8815971,3.745,False
2019-10-27 16:27:47.000,LG-H970,-4.091,-2.881,12.438,41.1076052,16.8815971,3.745,False
2019-10-27 16:27:47.020,LG-H970,-1.205,-0.173,8.756,41.1076052,16.8815971,3.745,False
2019-10-27 16:27:47.040,LG-H970,0.582,4.153,8.719,41.1076052,16.8815971,3.745,False
2019-10-27 16:27:47.060,LG-H970,-1.093,-0.436,9.215,41.1076158,16.8816693,3.667,False
2019-10-27 16:27:47.080,LG-H970,-1.697,-2.287,11.54,41.1076193,16.8816934,3.641,False
2019-10-27 16:27:47.100,LG-H970,0.207,0.132,11.502,41.1076193,16.8816934,3.641,False
2019-10-27 16:27:47.120,LG-H970,0.953,0.181,10.34,41.1076193,16.8816934,3.641,False
2019-10-27 16:27:47.140,LG-H970,-2.605,-1.319,8.425,41.1076193,16.8816934,3.641,False
2019-10-27 16:27:47.160,LG-H970,-3.227,0.128,8.822,41.1076193,16.8816934,3.641,False
2019-10-27 16:27:47.180,LG-H970,-0.065,0.125,8.231,41.1076193,16.8816934,3.641,False
2019-10-27 16:27:47.200,LG-H970,0.172,-0.582,11.455,41.1076193,16.8816934,3.641,False
2019-10-27 16:27:47.220,LG-H970,-2.195,-1.908,11.109,41.1076193,16.8816934,3.641,False
2019-10-27 16:27:47.240,LG-H970,-0.543,0.491,8.104,41.1076193,16.8816934,3.641,False
2019-10-27 16:27:47.260,LG-H970,-0.715,2.607,6.915,41.1076193,16.8816934,3.641,False
2019-10-27 16:27:47.280,LG-H970,-2.457,-1.019,8.592,41.1076193,16.8816934,3.641,False
2019-10-27 16:27:47.300,LG-H970,-3.311,-0.925,9.651,41.1076193,16.8816934,3.641,False
2019-10-27 16:27:47.320,LG-H970,4.051,2.421,7.981,41.1076193,16.8816934,3.641,False
2019-10-27 16:27:47.340,LG-H970,0.514,0.995,9.781,41.1076193,16.8816934,3.641,True
2019-10-27 16:27:47.360,LG-H970,0.514,0.995,9.781,41.1076193,16.8816934,3.641,True
2019-10-27 16:27:47.380,LG-H970,-2.039,-1.456,11.802,41.1076193,16.8816934,3.641,False
2019-10-27 16:27:47.400,LG-H970,0.846,1.232,9.276,41.1076193,16.8816934,3.641,False
2019-10-27 16:27:47.420,LG-H970,-0.893,-0.653,10.602,41.1076193,16.8816934,3.641,False
2019-10-27 16:27:47.440,LG-H970,-2.548,-2.723,10.719,41.1076193,16.8816934,3.641,False
2019-10-27 16:27:47.460,LG-H970,-1.977,-1.976,9.904,41.1076193,16.8816934,3.641,False
2019-10-27 16:27:47.480,LG-H970,-0.27,-1.253,11.113,41.1076193,16.8816934,3.641,False
2019-10-27 16:27:47.500,LG-H970,-2.731,-1.095,10.668,41.1076193,16.8816934,3.641,False
2019-10-27 16:27:47.520,LG-H970,-0.518,-2.697,10.022,41.1076193,16.8816934,3.641,False
2019-10-27 16:27:47.540,LG-H970,-3.148,-3.028,9.412,41.1076193,16.8816934,3.641,False
2019-10-27 16:27:47.560,LG-H970,0.601,-0.783,9.626,41.1076193,16.8816934,3.641,False
2019-10-27 16:27:47.580,LG-H970,-0.875,0.196,10.446,41.1076193,16.8816934,3.641,False
2019-10-27 16:27:47.600,LG-H970,-0.131,-1.88,11.638,41.1076193,16.8816934,3.641,False
2019-10-27 16:27:47.620,LG-H970,-2.416,-1.203,10.042,41.1076193,16.8816934,3.641,False
2019-10-27 16:27:47.640,LG-H970,-0.569,1.327,8.231,41.1076193,16.8816934,3.641,False
2019-10-27 16:27:47.660,LG-H970,-0.814,1.514,8.73,41.1076193,16.8816934,3.641,False
2019-10-27 16:27:47.680,LG-H970,-0.889,0.033,9.504,41.1076193,16.8816934,3.641,False
2019-10-27 16:27:47.700,LG-H970,-0.601,0.479,9.661,41.1076193,16.8816934,3.641,False
2019-10-27 16:27:47.720,LG-H970,-2.062,0.733,8.786,41.1076193,16.8816934,3.641,False
2019-10-27 16:27:47.740,LG-H970,-1.978,-1.059,8.109,41.1076193,16.8816934,3.641,False
2019-10-27 16:27:47.760,LG-H970,-0.214,0.55,8.526,41.1076193,16.8816934,3.641,False
2019-10-27 16:27:47.780,LG-H970,0.025,0.554,9.233,41.1076193,16.8816934,3.641,False
2019-10-27 16:27:47.800,LG-H970,-0.697,-1.294,11.397,41.1076193,16.8816934,3.641,False
2019-10-27 16:27:47.820,LG-H970,-2.507,-0.655,8.704,41.1076193,16.8816934,3.641,False
2019-10-27 16:27:47.840,LG-H970,0.52,1.735,7.696,41.1076193,16.8816934,3.641,False
2019-10-27 16:27:47.860,LG-H970,-2.11,0.346,8.536,41.1076193,16.8816934,3.641,False
2019-10-27 16:27:47.880,LG-H970,-1.255,-0.661,11.756,41.1076193,16.8816934,3.641,False
2019-10-27 16:27:47.900,LG-H970,-0.9,0.883,10.674,41.1076193,16.8816934,3.641,False
2019-10-27 16:27:47.920,LG-H970,0.488,1.615,9.327,41.1076193,16.8816934,3.641,False
2019-10-27 16:27:47.940,LG-H970,-1.867,0.095,9.185,41.1076193,16.8816934,3.641,False
2019-10-27 16:27:47.960,LG-H970,-2.015,0.493,10.376,41.1076193,16.8816934,3.641,False
2019-10-27 16:27:47.980,LG-H970,0.972,2.153,10.542,41.1076193,16.8816934,3.641,False
2019-10-27 16:27:48.000,LG-H970,-0.371,0.166,12.27,41.1076193,16.8816934,3.641,False
2019-10-27 16:27:48.020,LG-H970,-1.145,-0.985,11.48,41.1076193,16.8816934,3.641,False
2019-10-27 16:27:48.040,LG-H970,-2.019,2.404,9.456,41.1076193,16.8816934,3.641,False
2019-10-27 16:27:48.060,LG-H970,-0.368,1.623,8.465,41.1076278,16.8817393,3.517,False
2019-10-27 16:27:48.080,LG-H970,-2.176,-1.706,9.801,41.1076278,16.8817393,3.517,False
2019-10-27 16:27:48.100,LG-H970,-1.26,-1.153,9.708,41.1076278,16.8817393,3.517,False
2019-10-27 16:27:48.120,LG-H970,-1.337,1.826,10.541,41.1076278,16.8817393,3.517,False
2019-10-27 16:27:48.140,LG-H970,-0.042,0.326,9.413,41.1076278,16.8817393,3.517,False
2019-10-27 16:27:48.160,LG-H970,-1.944,-1.14,9.399,41.1076278,16.8817393,3.517,False
2019-10-27 16:27:48.180,LG-H970,-1.926,-0.529,8.612,41.1076278,16.8817393,3.517,False
2019-10-27 16:27:48.200,LG-H970,-1.221,0.304,9.327,41.1076278,16.8817393,3.517,False
2019-10-27 16:27:48.220,LG-H970,-0.226,0.165,10.283,41.1076278,16.8817393,3.517,False
2019-10-27 16:27:48.240,LG-H970,-0.846,-0.499,10.584,41.1076278,16.8817393,3.517,False
2019-10-27 16:27:48.260,LG-H970,-2.487,-0.784,9.108,41.1076278,16.8817393,3.517,False
2019-10-27 16:27:48.280,LG-H970,-0.36,0.282,9.619,41.1076278,16.8817393,3.517,False
2019-10-27 16:27:48.300,LG-H970,-0.169,0.601,8.897,41.1076278,16.8817393,3.517,False
2019-10-27 16:27:48.320,LG-H970,-0.589,-1.886,11.492,41.1076278,16.8817393,3.517,False
2019-10-27 16:27:48.340,LG-H970,-1.304,-0.511,9.86,41.1076278,16.8817393,3.517,False
2019-10-27 16:27:48.360,LG-H970,-0.084,2.732,8.563,41.1076278,16.8817393,3.517,False
2019-10-27 16:27:48.380,LG-H970,-1.822,-0.138,8.685,41.1076278,16.8817393,3.517,False
2019-10-27 16:27:48.400,LG-H970,-1.725,-1.926,10.625,41.1076278,16.8817393,3.517,False
2019-10-27 16:27:48.420,LG-H970,0.043,0.624,9.797,41.1076278,16.8817393,3.517,False
2019-10-27 16:27:48.440,LG-H970,0.696,2.576,10.34,41.1076278,16.8817393,3.517,False
2019-10-27 16:27:48.460,LG-H970,-0.335,0.673,8.769,41.1076278,16.8817393,3.517,False
2019-10-27 16:27:48.480,LG-H970,-2.496,0.001,9.406,41.1076278,16.8817393,3.517,False
2019-10-27 16:27:48.500,LG-H970,-1.002,-0.849,8.729,41.1076278,16.8817393,3.517,False
2019-10-27 16:27:48.520,LG-H970,0.447,-0.98,9.768,41.1076278,16.8817393,3.517,False
2019-10-27 16:27:48.540,LG-H970,-1.242,-0.728,10.77,41.1076278,16.8817393,3.517,False
2019-10-27 16:27:48.560,LG-H970,-1.135,-1.712,10.429,41.1076278,16.8817393,3.517,False
2019-10-27 16:27:48.580,LG-H970,-2.283,-0.658,8.987,41.1076278,16.8817393,3.517,False
2019-10-27 16:27:48.600,LG-H970,0.018,0.536,9.165,41.1076278,16.8817393,3.517,False
2019-10-27 16:27:48.620,LG-H970,-0.902,-0.858,10.991,41.1076278,16.8817393,3.517,False
2019-10-27 16:27:48.640,LG-H970,-0.287,-1.398,11.285,41.1076278,16.8817393,3.517,False
2019-10-27 16:27:48.660,LG-H970,-1.615,0.111,8.911,41.1076278,16.8817393,3.517,False
2019-10-27 16:27:48.680,LG-H970,-2.061,-1.201,9.04,41.1076278,16.8817393,3.517,False
2019-10-27 16:27:48.700,LG-H970,-1.019,-1.094,9.781,41.1076278,16.8817393,3.517,False
2019-10-27 16:27:48.720,LG-H970,0.183,0.809,10.393,41.1076278,16.8817393,3.517,False
2019-10-27 16:27:48.740,LG-H970,-0.119,0.934,11.145,41.1076278,16.8817393,3.517,False
2019-10-27 16:27:48.760,LG-H970,-1.249,0.328,10.463,41.1076278,16.8817393,3.517,False
2019-10-27 16:27:48.780,LG-H970,-0.574,0.676,8.986,41.1076278,16.8817393,3.517,False
2019-10-27 16:27:48.800,LG-H970,0.107,1.49,10.208,41.1076278,16.8817393,3.517,False
2019-10-27 16:27:48.820,LG-H970,0.552,0.98,11.641,41.1076278,16.8817393,3.517,False
