UTC_timestamp,device_name,x,y,z,lat,long,speed,event
2019-10-26 10:40:44.380,LG-H970,-0.393,-1.394,10.24,41.1037524,16.8801939,NONE,False
2019-10-26 10:40:44.400,LG-H970,-0.677,-1.661,9.451,41.1037524,16.8801939,NONE,False
2019-10-26 10:40:44.420,LG-H970,-1.102,-1.363,9.469,41.1037524,16.8801939,NONE,False
2019-10-26 10:40:44.440,LG-H970,-0.478,-1.432,9.801,41.1037524,16.8801939,NONE,False
2019-10-26 10:40:44.460,LG-H970,-0.388,-1.225,9.834,41.1037524,16.8801939,NONE,False
2019-10-26 10:40:44.480,LG-H970,0.334,-0.709,9.963,41.1037524,16.8801939,NONE,False
2019-10-26 10:40:44.500,LG-H970,-0.668,-0.903,9.13,41.1037524,16.8801939,NONE,False
2019-10-26 10:40:44.520,LG-H970,-0.484,-0.474,9.824,41.1037524,16.8801939,NONE,False
2019-10-26 10:40:44.540,LG-H970,-0.743,-0.504,9.298,41.1037524,16.8801939,NONE,False
2019-10-26 10:40:44.560,LG-H970,0.542,-0.08,10.223,41.1037524,16.8801939,NONE,False
2019-10-26 10:40:44.580,LG-H970,-0.452,-0.325,9.78,41.1037524,16.8801939,NONE,False
2019-10-26 10:40:44.600,LG-H970,0.17,0.193,10.111,41.1037524,16.8801939,NONE,False
2019-10-26 10:40:44.620,LG-H970,-0.902,0.575,9.061,41.1037524,16.8801939,NONE,False
2019-10-26 10:40:44.640,LG-H970,-0.647,1.393,10.186,41.1037524,16.8801939,NONE,False
2019-10-26 10:40:44.660,LG-H970,-1.044,0.895,9.327,41.1037524,16.8801939,NONE,False
2019-10-26 10:40:44.680,LG-H970,0.187,0.561,9.503,41.1037524,16.8801939,NONE,False
2019-10-26 10:40:44.700,LG-H970,-0.507,0.364,9.38,41.1037524,16.8801939,NONE,False
2019-10-26 10:40:44.720,LG-H970,-0.075,0.421,10.208,41.1037524,16.8801939,NONE,False
2019-10-26 10:40:44.740,LG-H970,-0.671,0.139,10.001,41.1037524,16.8801939,NONE,False
2019-10-26 10:40:44.760,LG-H970,-0.492,-0.546,9.585,41.1037524,16.8801939,NONE,False
2019-10-26 10:40:44.780,LG-H970,-1.088,-1.304,9.011,41.1037524,16.8801939,NONE,False
2019-10-26 10:40:44.800,LG-H970,-0.979,-1.799,8.738,41.1037524,16.8801939,NONE,False
2019-10-26 10:40:44.820,LG-H970,-1.236,-1.601,9.078,41.1037524,16.8801939,NONE,False
2019-10-26 10:40:44.840,LG-H970,-0.357,-1.177,9.292,41.1037524,16.8801939,NONE,False
2019-10-26 10:40:44.860,LG-H970,-0.498,-1.595,7.538,41.1037524,16.8801939,NONE,False
2019-10-26 10:40:44.880,LG-H970,-0.754,-2.431,7.483,41.1037524,16.8801939,NONE,False
2019-10-26 10:40:44.900,LG-H970,-3.14,-2.7,7.871,41.1037524,16.8801939,NONE,False
2019-10-26 10:40:44.920,LG-H970,-1.387,-0.451,10.103,41.1037524,16.8801939,NONE,False
2019-10-26 10:40:44.940,LG-H970,0.85,-0.248,7.81,41.1037524,16.8801939,NONE,False
2019-10-26 10:40:44.960,LG-H970,1.25,1.137,9.705,41.1037524,16.8801939,NONE,False
2019-10-26 10:40:44.980,LG-H970,0.038,-0.134,11.345,41.1037524,16.8801939,NONE,False
2019-10-26 10:40:45.000,LG-H970,-1.181,-0.635,11.11,41.1037524,16.8801939,NONE,False
2019-10-26 10:40:45.020,LG-H970,-1.152,2.115,10.21,41.1037524,16.8801939,NONE,False
2019-10-26 10:40:45.040,LG-H970,0.859,2.906,9.374,41.1037524,16.8801939,NONE,False
2019-10-26 10:40:45.060,LG-H970,0.355,1.088,12.662,41.1037524,16.8801939,NONE,False
2019-10-26 10:40:45.080,LG-H970,-0.984,0.677,13.395,41.1037524,16.8801939,NONE,False
2019-10-26 10:40:45.100,LG-H970,2.174,3.431,10.07,41.1037524,16.8801939,NONE,False
2019-10-26 10:40:45.120,LG-H970,2.083,4.69,10.876,41.1037524,16.8801939,NONE,False
2019-10-26 10:40:45.140,LG-H970,0.266,1.449,14.168,41.1037524,16.8801939,NONE,False
2019-10-26 10:40:45.160,LG-H970,-0.623,2.566,16.994,41.1037524,16.8801939,NONE,False
2019-10-26 10:40:45.180,LG-H970,3.104,5.99,13.956,41.1037524,16.8801939,NONE,False
2019-10-26 10:40:45.200,LG-H970,2.461,5.189,10.543,41.1037524,16.8801939,NONE,False
2019-10-26 10:40:45.220,LG-H970,-0.514,-0.213,10.835,41.1037524,16.8801939,NONE,False
2019-10-26 10:40:45.240,LG-H970,-3.81,-3.757,12.34,41.1037524,16.8801939,NONE,False
2019-10-26 10:40:45.260,LG-H970,-0.606,-2.637,10.394,41.1037524,16.8801939,NONE,False
2019-10-26 10:40:45.280,LG-H970,1.413,1.601,8.064,41.1037524,16.8801939,NONE,False
2019-10-26 10:40:45.300,LG-H970,1.512,0.026,7.739,41.1037524,16.8801939,NONE,False
2019-10-26 10:40:45.320,LG-H970,-2.495,-4.375,10.73,41.1037524,16.8801939,NONE,False
2019-10-26 10:40:45.340,LG-H970,-2.623,-5.996,9.821,41.1037524,16.8801939,NONE,False
2019-10-26 10:40:45.360,LG-H970,-0.602,-2.237,7.413,41.1037524,16.8801939,NONE,False
2019-10-26 10:40:45.380,LG-H970,-0.702,-0.852,6.728,41.1037524,16.8801939,NONE,False
2019-10-26 10:40:45.400,LG-H970,-0.971,-4.755,8.876,41.1037524,16.8801939,NONE,False
2019-10-26 10:40:45.420,LG-H970,-3.14,-6.605,9.497,41.1037524,16.8801939,NONE,False
2019-10-26 10:40:45.440,LG-H970,-1.228,-4.049,8.656,41.1038422,16.8801284,NONE,False
2019-10-26 10:40:45.460,LG-H970,-1.322,-1.547,6.581,41.1040218,16.8799975,NONE,False
2019-10-26 10:40:45.480,LG-H970,-1.893,-2.968,8.477,41.1040218,16.8799975,NONE,False
2019-10-26 10:40:45.500,LG-H970,-2.07,-3.009,10.161,41.1040218,16.8799975,NONE,False
2019-10-26 10:40:45.520,LG-H970,-0.576,-0.662,9.35,41.1040218,16.8799975,NONE,False
2019-10-26 10:40:45.540,LG-H970,-0.563,0.464,8.005,41.1040218,16.8799975,NONE,False
2019-10-26 10:40:45.560,LG-H970,-1.536,-0.409,8.794,41.1040218,16.8799975,NONE,False
2019-10-26 10:40:45.580,LG-H970,-3.122,-1.357,9.197,41.1040218,16.8799975,NONE,False
2019-10-26 10:40:45.600,LG-H970,-1.686,-0.137,9.691,41.1040218,16.8799975,NONE,False
2019-10-26 10:40:45.620,LG-H970,-0.868,0.393,8.634,41.1040218,16.8799975,NONE,False
2019-10-26 10:40:45.640,LG-H970,-0.21,0.666,8.974,41.1040218,16.8799975,NONE,False
2019-10-26 10:40:45.660,LG-H970,-1.37,-0.057,9.342,41.1040218,16.8799975,NONE,False
2019-10-26 10:40:45.680,LG-H970,-1.109,-0.976,9.82,41.1040218,16.8799975,NONE,False
2019-10-26 10:40:45.700,LG-H970,-0.601,0.502,9.633,41.1040218,16.8799975,NONE,False
2019-10-26 10:40:45.720,LG-H970,-0.785,1.328,9.699,41.1040218,16.8799975,NONE,False
2019-10-26 10:40:45.740,LG-H970,-0.636,-1.827,9.046,41.1040218,16.8799975,NONE,False
2019-10-26 10:40:45.760,LG-H970,-0.939,-1.748,10.926,41.1040218,16.8799975,NONE,False
2019-10-26 10:40:45.780,LG-H970,-0.349,-0.05,9.712,41.1040218,16.8799975,NONE,False
2019-10-26 10:40:45.800,LG-H970,-0.218,1.391,10.484,41.1040218,16.8799975,NONE,False
2019-10-26 10:40:45.820,LG-H970,-1.02,0.05,10.828,41.1040218,16.8799975,NONE,False
2019-10-26 10:40:45.840,LG-H970,-1.855,0.212,10.961,41.1040218,16.8799975,NONE,False
2019-10-26 10:40:45.860,LG-H970,-0.802,2.027,10.635,41.1040218,16.8799975,NONE,False
2019-10-26 10:40:45.880,LG-H970,-2.284,2.927,10.335,41.1040218,16.8799975,NONE,True
2019-10-26 10:40:45.900,LG-H970,-1.259,1.375,10.273,41.1040218,16.8799975,NONE,True
2019-10-26 10:40:45.920,LG-H970,-2.283,2.669,11.951,41.1040218,16.8799975,NONE,False
2019-10-26 10:40:45.940,LG-H970,-1.975,4.594,11.425,41.1040218,16.8799975,NONE,False
2019-10-26 10:40:45.960,LG-H970,-3.039,5.77,10.599,41.1040218,16.8799975,NONE,False
2019-10-26 10:40:45.980,LG-H970,-2.952,3.017,8.503,41.1040218,16.8799975,NONE,False
2019-10-26 10:40:46.000,LG-H970,-2.822,2.045,11.363,41.1040218,16.8799975,NONE,False
2019-10-26 10:40:46.020,LG-H970,-1.76,2.244,11.553,41.1040218,16.8799975,NONE,False
2019-10-26 10:40:46.040,LG-H970,1.771,1.642,10.565,41.1040218,16.8799975,NONE,False
2019-10-26 10:40:46.060,LG-H970,-1.47,0.295,9.727,41.1040218,16.8799975,NONE,False
2019-10-26 10:40:46.080,LG-H970,-1.413,-2.74,9.596,41.1040218,16.8799975,NONE,False
2019-10-26 10:40:46.100,LG-H970,-1.879,-1.584,9.626,41.1040218,16.8799975,NONE,False
2019-10-26 10:40:46.120,LG-H970,0.095,-1.208,9.15,41.1040218,16.8799975,NONE,False
2019-10-26 10:40:46.140,LG-H970,0.583,-2.625,10.124,41.1040218,16.8799975,NONE,False
2019-10-26 10:40:46.160,LG-H970,0.337,-3.716,10.003,41.1040218,16.8799975,NONE,False
2019-10-26 10:40:46.180,LG-H970,-0.264,-3.184,7.83,41.1040218,16.8799975,NONE,False
2019-10-26 10:40:46.200,LG-H970,-0.52,-2.082,7.677,41.1040218,16.8799975,NONE,False
2019-10-26 10:40:46.220,LG-H970,-0.445,-3.08,8.416,41.1040218,16.8799975,NONE,False
2019-10-26 10:40:46.240,LG-H970,0.344,-2.778,9.87,41.1040218,16.8799975,NONE,False
2019-10-26 10:40:46.260,LG-H970,2.066,-2.567,9.168,41.1040218,16.8799975,NONE,False
2019-10-26 10:40:46.280,LG-H970,-0.168,-0.644,9.108,41.1040218,16.8799975,NONE,False
2019-10-26 10:40:46.300,LG-H970,-0.742,-1.236,8.676,41.1040218,16.8799975,NONE,False
2019-10-26 10:40:46.320,LG-H970,-1.43,-0.354,10.61,41.1040218,16.8799975,NONE,False
2019-10-26 10:40:46.340,LG-H970,-0.097,0.581,10.349,41.1040218,16.8799975,NONE,False
2019-10-26 10:40:46.360,LG-H970,0.976,-0.239,8.523,41.1040218,16.8799975,NONE,False
2019-10-26 10:40:46.380,LG-H970,-1.705,0.465,11.027,41.1040218,16.8799975,NONE,False
2019-10-26 10:40:46.400,LG-H970,-3.472,-0.655,9.625,41.1040218,16.8799975,NONE,False
2019-10-26 10:40:46.420,LG-H970,-0.698,0.115,8.483,41.1040218,16.8799975,NONE,False
2019-10-26 10:40:46.440,LG-H970,-2.454,1.195,9.2,41.1040218,16.8799975,NONE,False
2019-10-26 10:40:46.460,LG-H970,-0.261,-0.869,11.103,41.1040218,16.8799975,NONE,False
2019-10-26 10:40:46.480,LG-H970,-2.339,-0.789,10.617,41.1040218,16.8799975,NONE,False
2019-10-26 10:40:46.500,LG-H970,-1.723,1.263,9.456,41.1040218,16.8799975,NONE,False
2019-10-26 10:40:46.520,LG-H970,-2.426,1.672,8.718,41.1040218,16.8799975,NONE,False
2019-10-26 10:40:46.540,LG-H970,-1.873,0.022,10.486,41.1040218,16.8799975,NONE,False
2019-10-26 10:40:46.560,LG-H970,-1.627,0.199,11.398,41.1040218,16.8799975,NONE,False
2019-10-26 10:40:46.580,LG-H970,-0.533,1.144,9.56,41.1040218,16.8799975,NONE,False
2019-10-26 10:40:46.600,LG-H970,-0.859,0.827,8.441,41.1040218,16.8799975,NONE,False
2019-10-26 10:40:46.620,LG-H970,-2.594,-0.977,8.093,41.1040218,16.8799975,NONE,False
2019-10-26 10:40:46.640,LG-H970,-1.765,-0.594,10.131,41.1040218,16.8799975,NONE,False
2019-10-26 10:40:46.660,LG-H970,-1.137,1.355,10.087,41.1040218,16.8799975,NONE,False
2019-10-26 10:40:46.680,LG-H970,1.597,2.177,10.182,41.1040218,16.8799975,NONE,False
2019-10-26 10:40:46.700,LG-H970,-0.345,0.108,9.5,41.1040218,16.8799975,NONE,False
2019-10-26 10:40:46.720,LG-H970,-1.607,-1.34,10.474,41.1040218,16.8799975,NONE,False
2019-10-26 10:40:46.740,LG-H970,-2.309,-0.383,9.228,41.1040218,16.8799975,NONE,False
2019-10-26 10:40:46.760,LG-H970,0.688,1.063,9.437,41.1040218,16.8799975,NONE,False
2019-10-26 10:40:46.780,LG-H970,1.015,0.297,10.271,41.1040218,16.8799975,NONE,False
2019-10-26 10:40:46.800,LG-H970,0.322,-1.031,11.652,41.1040218,16.8799975,NONE,False
2019-10-26 10:40:46.820,LG-H970,-1.136,-1.584,9.061,41.1040218,16.8799975,NONE,False
2019-10-26 10:40:46.840,LG-H970,-1.379,1.023,9.797,41.1040218,16.8799975,NONE,False
2019-10-26 10:40:46.860,LG-H970,-1.512,0.05,8.401,41.1040218,16.8799975,NONE,False
2019-10-26 10:40:46.880,LG-H970,0.967,-0.91,10.644,41.1040218,16.8799975,NONE,False
2019-10-26 10:40:46.900,LG-H970,-0.988,-1.331,9.603,41.1040218,16.8799975,NONE,False
2019-10-26 10:40:46.920,LG-H970,-0.174,-1.531,8.387,41.1040218,16.8799975,NONE,False
2019-10-26 10:40:46.940,LG-H970,-2.273,-0.845,7.972,41.1040218,16.8799975,NONE,False
2019-10-26 10:40:46.960,LG-H970,-3.055,-0.178,8.956,41.1040218,16.8799975,NONE,False
2019-10-26 10:40:46.980,LG-H970,-0.762,-0.97,9.301,41.1040218,16.8799975,NONE,False
2019-10-26 10:40:47.000,LG-H970,-0.211,-0.02,10.848,41.1040218,16.8799975,NONE,False
2019-10-26 10:40:47.020,LG-H970,0.279,0.992,10.755,41.1040218,16.8799975,NONE,False
2019-10-26 10:40:47.040,LG-H970,0.635,1.553,10.804,41.1040218,16.8799975,NONE,False
2019-10-26 10:40:47.060,LG-H970,-1.642,1.24,11.433,41.1040218,16.8799975,NONE,False
2019-10-26 10:40:47.080,LG-H970,-1.168,0.839,11.441,41.1040218,16.8799975,NONE,False
2019-10-26 10:40:47.100,LG-H970,-0.198,1.219,10.291,41.1040218,16.8799975,NONE,False
2019-10-26 10:40:47.120,LG-H970,0.493,1.523,11.196,41.1040218,16.8799975,NONE,False
2019-10-26 10:40:47.140,LG-H970,-0.592,0.304,10.845,41.1040218,16.8799975,NONE,False
2019-10-26 10:40:47.160,LG-H970,-0.928,0.156,10.757,41.1040218,16.8799975,NONE,False
2019-10-26 10:40:47.180,LG-H970,-1.625,0.757,9.393,41.1040218,16.8799975,NONE,False
2019-10-26 10:40:47.200,LG-H970,0.102,0.783,9.699,41.1040218,16.8799975,NONE,False
2019-10-26 10:40:47.220,LG-H970,0.301,-1.076,9.195,41.1040218,16.8799975,NONE,False
2019-10-26 10:40:47.240,LG-H970,0.163,-1.181,10.783,41.1040218,16.8799975,NONE,False
2019-10-26 10:40:47.260,LG-H970,-0.481,0.194,10.335,41.1040218,16.8799975,NONE,False
2019-10-26 10:40:47.280,LG-H970,0.091,0.843,10.391,41.1040218,16.8799975,NONE,False
2019-10-26 10:40:47.300,LG-H970,-0.978,-0.916,8.836,41.1040218,16.8799975,NONE,False
2019-10-26 10:40:47.320,LG-H970,-0.815,-1.582,9.472,41.1040218,16.8799975,NONE,False
2019-10-26 10:40:47.340,LG-H970,-1.737,-1.19,8.639,41.1040218,16.8799975,NONE,False
2019-10-26 10:40:47.360,LG-H970,0.561,-0.317,9.069,41.1040218,16.8799975,NONE,False
