UTC_timestamp,device_name,x,y,z,lat,long,speed,event
2019-10-26 10:38:08.800,LG-H970,-2.249,1.826,12.575,41.1039846,16.8792228,NONE,False
2019-10-26 10:38:08.820,LG-H970,5.475,7.941,7.42,41.1039846,16.8792228,NONE,False
2019-10-26 10:38:08.840,LG-H970,3.224,5.991,9.347,41.1039846,16.8792228,NONE,False
2019-10-26 10:38:08.860,LG-H970,-4.011,-3.316,12.978,41.1039846,16.8792228,NONE,False
2019-10-26 10:38:08.880,LG-H970,-3.704,-3.861,13.943,41.1039846,16.8792228,NONE,False
2019-10-26 10:38:08.900,LG-H970,-0.133,1.131,8.455,41.1039846,16.8792228,NONE,False
2019-10-26 10:38:08.920,LG-H970,2.08,5.612,8.595,41.1039846,16.8792228,NONE,False
2019-10-26 10:38:08.940,LG-H970,0.609,-0.471,11.301,41.1039846,16.8792228,NONE,False
2019-10-26 10:38:08.960,LG-H970,-2.098,-5.556,13.044,41.1039846,16.8792228,NONE,False
2019-10-26 10:38:08.980,LG-H970,-2.13,-2.724,11.47,41.1039846,16.8792228,NONE,False
2019-10-26 10:38:09.000,LG-H970,-0.765,0.896,7.272,41.1039846,16.8792228,NONE,False
2019-10-26 10:38:09.020,LG-H970,1.299,1.227,8.165,41.1039846,16.8792228,NONE,False
2019-10-26 10:38:09.040,LG-H970,-1.144,-1.989,10.939,41.1039846,16.8792228,NONE,False
2019-10-26 10:38:09.060,LG-H970,-0.374,-3.511,12.333,41.1039846,16.8792228,NONE,False
2019-10-26 10:38:09.080,LG-H970,0.51,-0.779,10.142,41.1039846,16.8792228,NONE,False
2019-10-26 10:38:09.100,LG-H970,1.195,1.094,7.937,41.1039846,16.8792228,NONE,False
2019-10-26 10:38:09.120,LG-H970,0.102,-0.435,7.757,41.1039846,16.8792228,NONE,False
2019-10-26 10:38:09.140,LG-H970,-1.738,-2.167,9.354,41.1039846,16.8792228,NONE,False
2019-10-26 10:38:09.160,LG-H970,-0.149,-2.506,9.721,41.1039846,16.8792228,NONE,False
2019-10-26 10:38:09.180,LG-H970,1.575,-1.672,8.551,41.1039846,16.8792228,NONE,False
2019-10-26 10:38:09.200,LG-H970,0.944,-0.361,8.944,41.1039846,16.8792228,NONE,False
2019-10-26 10:38:09.220,LG-H970,1.245,-1.034,8.37,41.1039846,16.8792228,NONE,False
2019-10-26 10:38:09.240,LG-H970,1.828,0.077,9.937,41.1039846,16.8792228,NONE,False
2019-10-26 10:38:09.260,LG-H970,0.543,-0.682,9.918,41.1039846,16.8792228,NONE,False
2019-10-26 10:38:09.280,LG-H970,-2.551,3.135,11.953,41.1039846,16.8792228,NONE,False
2019-10-26 10:38:09.300,LG-H970,-1.164,2.162,5.841,41.1039846,16.8792228,NONE,False
2019-10-26 10:38:09.320,LG-H970,0.89,4.63,8.983,41.1039846,16.8792228,NONE,False
2019-10-26 10:38:09.340,LG-H970,-3.683,2.783,8.833,41.1039846,16.8792228,NONE,False
2019-10-26 10:38:09.360,LG-H970,0.465,0.34,13.622,41.1039846,16.8792228,NONE,False
2019-10-26 10:38:09.380,LG-H970,-2.007,-0.035,11.424,41.1039846,16.8792228,NONE,False
2019-10-26 10:38:09.400,LG-H970,0.063,3.087,11.51,41.1039846,16.8792228,NONE,False
2019-10-26 10:38:09.420,LG-H970,-2.452,3.435,8.935,41.1039846,16.8792228,NONE,False
2019-10-26 10:38:09.440,LG-H970,-2.099,1.24,10.282,41.1039846,16.8792228,NONE,False
2019-10-26 10:38:09.460,LG-H970,-1.884,-1.489,11.685,41.1039846,16.8792228,NONE,False
2019-10-26 10:38:09.480,LG-H970,-0.825,-3.789,11.039,41.1039846,16.8792228,NONE,False
2019-10-26 10:38:09.500,LG-H970,0.849,-1.093,9.275,41.1039846,16.8792228,NONE,False
2019-10-26 10:38:09.520,LG-H970,-0.225,0.83,8.75,41.1039846,16.8792228,NONE,False
2019-10-26 10:38:09.540,LG-H970,-2.07,-3.851,10.04,41.1039846,16.8792228,NONE,False
2019-10-26 10:38:09.560,LG-H970,-0.978,-7.388,10.773,41.1039846,16.8792228,NONE,False
2019-10-26 10:38:09.580,LG-H970,-0.285,-2.129,9.739,41.1039846,16.8792228,NONE,False
2019-10-26 10:38:09.600,LG-H970,2.735,1.083,9.186,41.1039846,16.8792228,NONE,False
2019-10-26 10:38:09.620,LG-H970,-0.031,-2.396,10.077,41.1039846,16.8792228,NONE,False
2019-10-26 10:38:09.640,LG-H970,-4.246,-5.579,12.043,41.1039846,16.8792228,NONE,False
2019-10-26 10:38:09.660,LG-H970,-2.995,-3.173,10.129,41.1039846,16.8792228,NONE,False
2019-10-26 10:38:09.680,LG-H970,0.076,2.794,8.381,41.1039846,16.8792228,NONE,False
2019-10-26 10:38:09.700,LG-H970,2.163,1.214,8.934,41.1039846,16.8792228,NONE,False
2019-10-26 10:38:09.720,LG-H970,-2.11,-3.201,12.152,41.1039846,16.8792228,NONE,False
2019-10-26 10:38:09.740,LG-H970,-2.5,-4.083,9.827,41.1039846,16.8792228,NONE,False
2019-10-26 10:38:09.760,LG-H970,-0.444,1.474,7.717,41.1039846,16.8792228,NONE,False
2019-10-26 10:38:09.780,LG-H970,-0.462,2.04,4.354,41.1039846,16.8792228,NONE,False
2019-10-26 10:38:09.800,LG-H970,-0.641,-1.35,8.3,41.1039846,16.8792228,NONE,False
2019-10-26 10:38:09.820,LG-H970,-2.984,-1.801,12.394,41.1039846,16.8792228,NONE,False
2019-10-26 10:38:09.840,LG-H970,0.506,0.753,11.244,41.1039846,16.8792228,NONE,False
2019-10-26 10:38:09.860,LG-H970,1.434,3.326,8.195,41.1039846,16.8792228,NONE,False
2019-10-26 10:38:09.880,LG-H970,-1.216,1.651,10.382,41.1039846,16.8792228,NONE,False
2019-10-26 10:38:09.900,LG-H970,-2.556,-1.739,9.921,41.1039846,16.8792228,NONE,False
2019-10-26 10:38:09.920,LG-H970,-2.14,0.267,9.663,41.1039846,16.8792228,NONE,False
2019-10-26 10:38:09.940,LG-H970,-0.886,2.51,9.405,41.1039846,16.8792228,NONE,False
2019-10-26 10:38:09.960,LG-H970,-2.118,0.494,8.633,41.1039846,16.8792228,NONE,False
2019-10-26 10:38:09.980,LG-H970,-2.235,-0.877,10.043,41.1039846,16.8792228,NONE,False
2019-10-26 10:38:10.000,LG-H970,0.126,-1.047,10.462,41.1039846,16.8792228,NONE,False
2019-10-26 10:38:10.020,LG-H970,-0.504,1.608,9.406,41.1039846,16.8792228,NONE,False
2019-10-26 10:38:10.040,LG-H970,-1.652,0.919,10.352,41.1039846,16.8792228,NONE,False
2019-10-26 10:38:10.060,LG-H970,-0.071,-2.595,9.413,41.1039846,16.8792228,NONE,False
2019-10-26 10:38:10.080,LG-H970,-0.263,-0.284,10.179,41.1039846,16.8792228,NONE,False
2019-10-26 10:38:10.100,LG-H970,-0.505,-1.736,10.881,41.1039846,16.8792228,NONE,False
2019-10-26 10:38:10.120,LG-H970,-0.184,-2.834,11.43,41.1039846,16.8792228,NONE,False
2019-10-26 10:38:10.140,LG-H970,1.027,-0.172,9.598,41.1039846,16.8792228,NONE,False
2019-10-26 10:38:10.160,LG-H970,-0.611,1.35,12.255,41.1039846,16.8792228,NONE,False
2019-10-26 10:38:10.180,LG-H970,-0.298,-3.119,10.581,41.1039846,16.8792228,NONE,False
2019-10-26 10:38:10.200,LG-H970,-0.579,-2.485,8.903,41.1039846,16.8792228,NONE,False
2019-10-26 10:38:10.220,LG-H970,-2.004,-0.897,7.872,41.1039846,16.8792228,NONE,False
2019-10-26 10:38:10.240,LG-H970,-0.71,-2.264,9.038,41.1039846,16.8792228,NONE,False
2019-10-26 10:38:10.260,LG-H970,-2.426,-1.152,10.393,41.1039846,16.8792228,NONE,False
2019-10-26 10:38:10.280,LG-H970,0.212,-0.078,9.905,41.1039846,16.8792228,NONE,False
2019-10-26 10:38:10.300,LG-H970,1.763,0.037,9.111,41.1039846,16.8792228,NONE,True
2019-10-26 10:38:10.320,LG-H970,-0.762,-1.205,9.307,41.1039846,16.8792228,NONE,True
2019-10-26 10:38:10.340,LG-H970,-1.102,-2.312,9.077,41.1039846,16.8792228,NONE,False
2019-10-26 10:38:10.360,LG-H970,-4.791,-0.569,9.314,41.1039846,16.8792228,NONE,False
2019-10-26 10:38:10.380,LG-H970,1.086,-0.577,8.947,41.1039846,16.8792228,NONE,False
2019-10-26 10:38:10.400,LG-H970,-0.243,0.947,10.38,41.1039846,16.8792228,NONE,False
2019-10-26 10:38:10.420,LG-H970,0.303,-1.685,9.702,41.1039846,16.8792228,NONE,False
2019-10-26 10:38:10.440,LG-H970,-2.813,-2.214,9.629,41.1039846,16.8792228,NONE,False
2019-10-26 10:38:10.460,LG-H970,-2.949,-0.967,8.182,41.1039846,16.8792228,NONE,False
2019-10-26 10:38:10.480,LG-H970,1.269,-0.02,7.874,41.1039846,16.8792228,NONE,False
2019-10-26 10:38:10.500,LG-H970,-0.191,-0.341,11.613,41.1039846,16.8792228,NONE,False
2019-10-26 10:38:10.520,LG-H970,0.701,-4.067,14.03,41.1039846,16.8792228,NONE,False
2019-10-26 10:38:10.540,LG-H970,-1.768,-2.535,11.781,41.1039846,16.8792228,NONE,False
2019-10-26 10:38:10.560,LG-H970,1.551,1.407,8.895,41.1039846,16.8792228,NONE,False
2019-10-26 10:38:10.580,LG-H970,-0.958,2.276,8.61,41.1039846,16.8792228,NONE,False
2019-10-26 10:38:10.600,LG-H970,-1.222,-2.606,11.653,41.1039846,16.8792228,NONE,False
2019-10-26 10:38:10.620,LG-H970,-1.789,-1.306,12.315,41.1039846,16.8792228,NONE,False
2019-10-26 10:38:10.640,LG-H970,1.24,1.903,7.824,41.1039846,16.8792228,NONE,False
2019-10-26 10:38:10.660,LG-H970,1.742,3.574,8.025,41.1039846,16.8792228,NONE,False
2019-10-26 10:38:10.680,LG-H970,-2.922,1.598,11.411,41.1039846,16.8792228,NONE,False
2019-10-26 10:38:10.700,LG-H970,-1.653,-3.672,11.984,41.1039846,16.8792228,NONE,False
2019-10-26 10:38:10.720,LG-H970,-0.155,0.089,9.968,41.1039846,16.8792228,NONE,False
2019-10-26 10:38:10.740,LG-H970,-1.169,3.015,4.959,41.1039846,16.8792228,NONE,False
2019-10-26 10:38:10.760,LG-H970,0.756,2.969,9.418,41.1039846,16.8792228,NONE,False
2019-10-26 10:38:10.780,LG-H970,-3.131,-3.198,10.019,41.1039846,16.8792228,NONE,False
2019-10-26 10:38:10.800,LG-H970,1.164,-1.783,13.291,41.1039846,16.8792228,NONE,False
2019-10-26 10:38:10.820,LG-H970,0.069,1.601,10.532,41.1039846,16.8792228,NONE,False
2019-10-26 10:38:10.840,LG-H970,2.303,0.707,10.119,41.1039846,16.8792228,NONE,False
2019-10-26 10:38:10.860,LG-H970,-2.833,-0.377,8.704,41.1039846,16.8792228,NONE,False
2019-10-26 10:38:10.880,LG-H970,-1.721,-1.653,8.181,41.1039846,16.8792228,NONE,False
2019-10-26 10:38:10.900,LG-H970,0.053,-0.356,10.37,41.1039846,16.8792228,NONE,False
2019-10-26 10:38:10.920,LG-H970,0.145,-0.427,10.529,41.1039846,16.8792228,NONE,False
2019-10-26 10:38:10.940,LG-H970,0.803,0.638,10.525,41.1039846,16.8792228,NONE,False
2019-10-26 10:38:10.960,LG-H970,-1.337,0.443,7.959,41.1039846,16.8792228,NONE,False
2019-10-26 10:38:10.980,LG-H970,-1.638,-1.293,9.672,41.1039846,16.8792228,NONE,False
2019-10-26 10:38:11.000,LG-H970,-3.054,-1.206,11.974,41.1039846,16.8792228,NONE,False
2019-10-26 10:38:11.020,LG-H970,0.34,-2.31,10.141,41.1039846,16.8792228,NONE,False
2019-10-26 10:38:11.040,LG-H970,-1.555,-0.17,10.408,41.1039846,16.8792228,NONE,False
2019-10-26 10:38:11.060,LG-H970,0.231,0.562,8.864,41.1039846,16.8792228,NONE,False
2019-10-26 10:38:11.080,LG-H970,-2.538,-0.295,10.015,41.1039846,16.8792228,NONE,False
2019-10-26 10:38:11.100,LG-H970,-2.382,-3.108,10.607,41.1039846,16.8792228,NONE,False
2019-10-26 10:38:11.120,LG-H970,-1.132,-0.336,9.711,41.1039846,16.8792228,NONE,False
2019-10-26 10:38:11.140,LG-H970,0.824,2.273,7.281,41.1039846,16.8792228,NONE,False
2019-10-26 10:38:11.160,LG-H970,0.959,0.706,8.715,41.1039846,16.8792228,NONE,False
2019-10-26 10:38:11.180,LG-H970,-3.996,-2.106,10.629,41.1039846,16.8792228,NONE,False
2019-10-26 10:38:11.200,LG-H970,-1.524,-1.877,11.688,41.1039846,16.8792228,NONE,False
2019-10-26 10:38:11.220,LG-H970,-0.338,1.708,8.048,41.1039846,16.8792228,NONE,False
2019-10-26 10:38:11.240,LG-H970,2.774,2.164,8.386,41.1039846,16.8792228,NONE,False
2019-10-26 10:38:11.260,LG-H970,-0.944,0.311,11.473,41.1039846,16.8792228,NONE,False
2019-10-26 10:38:11.280,LG-H970,-1.632,-1.294,12.866,41.1039846,16.8792228,NONE,False
2019-10-26 10:38:11.300,LG-H970,-1.553,-1.997,9.004,41.1039846,16.8792228,NONE,False
2019-10-26 10:38:11.320,LG-H970,1.914,1.067,8.658,41.1039846,16.8792228,NONE,False
2019-10-26 10:38:11.340,LG-H970,0.987,2.358,9.899,41.1039846,16.8792228,NONE,False
2019-10-26 10:38:11.360,LG-H970,-0.803,-2.167,11.878,41.1039846,16.8792228,NONE,False
2019-10-26 10:38:11.380,LG-H970,-1.558,-2.358,10.965,41.1039846,16.8792228,NONE,False
2019-10-26 10:38:11.400,LG-H970,-2.233,-0.773,4.828,41.1039846,16.8792228,NONE,False
2019-10-26 10:38:11.420,LG-H970,0.71,1.104,7.503,41.1039846,16.8792228,NONE,False
2019-10-26 10:38:11.440,LG-H970,-3.219,1.217,13.135,41.1039846,16.8792228,NONE,False
2019-10-26 10:38:11.460,LG-H970,1.707,-2.157,10.339,41.1039846,16.8792228,NONE,False
2019-10-26 10:38:11.480,LG-H970,0.361,0.934,8.038,41.1039846,16.8792228,NONE,False
2019-10-26 10:38:11.500,LG-H970,-3.598,0.949,9.505,41.1039846,16.8792228,NONE,False
2019-10-26 10:38:11.520,LG-H970,-1.549,-3.365,9.651,41.1039846,16.8792228,NONE,False
2019-10-26 10:38:11.540,LG-H970,-0.704,0.462,10.729,41.1039846,16.8792228,NONE,False
2019-10-26 10:38:11.560,LG-H970,1.292,1.758,10.045,41.1039846,16.8792228,NONE,False
2019-10-26 10:38:11.580,LG-H970,0.234,-0.984,12.363,41.1039846,16.8792228,NONE,False
2019-10-26 10:38:11.600,LG-H970,-0.66,-1.543,11.688,41.1039846,16.8792228,NONE,False
2019-10-26 10:38:11.620,LG-H970,-0.065,0.42,7.107,41.1039846,16.8792228,NONE,False
2019-10-26 10:38:11.640,LG-H970,-0.279,1.717,8.825,41.1039846,16.8792228,NONE,False
2019-10-26 10:38:11.660,LG-H970,-1.026,-1.529,11.236,41.1039846,16.8792228,NONE,False
2019-10-26 10:38:11.680,LG-H970,0.739,-2.446,12.297,41.1039846,16.8792228,NONE,False
2019-10-26 10:38:11.700,LG-H970,0.332,0.449,8.78,41.1039846,16.8792228,NONE,False
2019-10-26 10:38:11.720,LG-H970,-0.075,2.393,8.606,41.1039846,16.8792228,NONE,False
2019-10-26 10:38:11.740,LG-H970,-2.14,-0.184,8.701,41.1039846,16.8792228,NONE,False
2019-10-26 10:38:11.760,LG-H970,-2.154,-0.374,10.795,41.1039846,16.8792228,NONE,False
2019-10-26 10:38:11.780,LG-H970,0.389,1.626,9.902,41.1039846,16.8792228,NONE,False
