UTC_timestamp,device_name,x,y,z,lat,long,speed,event
2019-10-26 10:29:26.420,LG-H970,-0.687,-2.141,10.218,41.1039867,16.8796145,NONE,False
2019-10-26 10:29:26.440,LG-H970,-0.829,-2.519,11.249,41.1039867,16.8796145,NONE,False
2019-10-26 10:29:26.460,LG-H970,-0.337,-1.031,10.182,41.1039867,16.8796145,NONE,False
2019-10-26 10:29:26.480,LG-H970,0.592,1.037,8.582,41.1039867,16.8796145,NONE,False
2019-10-26 10:29:26.500,LG-H970,-0.171,-0.011,8.822,41.1039867,16.8796145,NONE,False
2019-10-26 10:29:26.520,LG-H970,-2.033,-1.917,10.757,41.1039867,16.8796145,NONE,False
2019-10-26 10:29:26.540,LG-H970,-0.829,-1.165,10.639,41.1039867,16.8796145,NONE,False
2019-10-26 10:29:26.560,LG-H970,0.464,1.408,8.988,41.1039867,16.8796145,NONE,False
2019-10-26 10:29:26.580,LG-H970,0.084,1.113,8.736,41.1039867,16.8796145,NONE,False
2019-10-26 10:29:26.600,LG-H970,-1.698,-1.556,10.035,41.1039867,16.8796145,NONE,False
2019-10-26 10:29:26.620,LG-H970,-1.331,-1.842,10.428,41.1039867,16.8796145,NONE,False
2019-10-26 10:29:26.640,LG-H970,-0.495,0.773,9.78,41.1039867,16.8796145,NONE,False
2019-10-26 10:29:26.660,LG-H970,-0.136,0.905,9.314,41.1039867,16.8796145,NONE,False
2019-10-26 10:29:26.680,LG-H970,-1.12,-0.857,9.15,41.1039867,16.8796145,NONE,False
2019-10-26 10:29:26.700,LG-H970,-1.717,-1.283,9.741,41.1039867,16.8796145,NONE,False
2019-10-26 10:29:26.720,LG-H970,-0.574,-0.878,10.053,41.1039867,16.8796145,NONE,False
2019-10-26 10:29:26.740,LG-H970,-0.195,-0.56,10.05,41.1039867,16.8796145,NONE,False
2019-10-26 10:29:26.760,LG-H970,0.437,-0.617,9.777,41.1039867,16.8796145,NONE,False
2019-10-26 10:29:26.780,LG-H970,-1.325,-0.725,10.534,41.1039867,16.8796145,NONE,False
2019-10-26 10:29:26.800,LG-H970,-0.543,-1.969,10.368,41.1039867,16.8796145,NONE,False
2019-10-26 10:29:26.820,LG-H970,-0.158,-0.487,9.548,41.1039867,16.8796145,NONE,False
2019-10-26 10:29:26.840,LG-H970,0.595,0.949,9.105,41.1039867,16.8796145,NONE,False
2019-10-26 10:29:26.860,LG-H970,-1.869,0.482,8.555,41.1039867,16.8796145,NONE,False
2019-10-26 10:29:26.880,LG-H970,-2.602,0.573,8.219,41.1039867,16.8796145,NONE,False
2019-10-26 10:29:26.900,LG-H970,-0.812,1.535,5.096,41.1039867,16.8796145,NONE,False
2019-10-26 10:29:26.920,LG-H970,-0.707,2.411,8.176,41.1039867,16.8796145,NONE,False
2019-10-26 10:29:26.940,LG-H970,-0.106,-1.428,10.9,41.1039867,16.8796145,NONE,False
2019-10-26 10:29:26.960,LG-H970,-0.523,-3.318,11.327,41.1039867,16.8796145,NONE,False
2019-10-26 10:29:26.980,LG-H970,-0.944,-0.259,9.539,41.1039867,16.8796145,NONE,False
2019-10-26 10:29:27.000,LG-H970,-0.077,1.339,8.728,41.1039867,16.8796145,NONE,False
2019-10-26 10:29:27.020,LG-H970,0.094,-2.388,9.563,41.1039867,16.8796145,NONE,False
2019-10-26 10:29:27.040,LG-H970,-1.061,-4.949,12.525,41.1039867,16.8796145,NONE,False
2019-10-26 10:29:27.060,LG-H970,0.821,-3.511,13.312,41.1039867,16.8796145,NONE,False
2019-10-26 10:29:27.080,LG-H970,3.398,-0.888,11.816,41.1039867,16.8796145,NONE,False
2019-10-26 10:29:27.100,LG-H970,1.412,-3.161,11.224,41.1039867,16.8796145,NONE,False
2019-10-26 10:29:27.120,LG-H970,-2.53,-6.079,12.518,41.1039867,16.8796145,NONE,False
2019-10-26 10:29:27.140,LG-H970,-2.181,-5.448,12.89,41.1039867,16.8796145,NONE,False
2019-10-26 10:29:27.160,LG-H970,3.615,-0.879,12.494,41.1039867,16.8796145,NONE,False
2019-10-26 10:29:27.180,LG-H970,4.174,-1.048,12.222,41.1039867,16.8796145,NONE,False
2019-10-26 10:29:27.200,LG-H970,-1.571,-5.351,13.814,41.1039867,16.8796145,NONE,False
2019-10-26 10:29:27.220,LG-H970,-4.126,-4.031,11.887,41.1039867,16.8796145,NONE,False
2019-10-26 10:29:27.240,LG-H970,-0.745,1.565,7.742,41.1039867,16.8796145,NONE,False
2019-10-26 10:29:27.260,LG-H970,1.871,2.967,7.164,41.1039867,16.8796145,NONE,False
2019-10-26 10:29:27.280,LG-H970,-1.076,-0.284,11.115,41.1039867,16.8796145,NONE,False
2019-10-26 10:29:27.300,LG-H970,-3.351,-3.385,12.025,41.1039867,16.8796145,NONE,False
2019-10-26 10:29:27.320,LG-H970,-1.383,0.502,9.651,41.1039867,16.8796145,NONE,False
2019-10-26 10:29:27.340,LG-H970,-0.168,4.612,5.531,41.1039867,16.8796145,NONE,False
2019-10-26 10:29:27.360,LG-H970,0.492,3.853,7.395,41.1039867,16.8796145,NONE,False
2019-10-26 10:29:27.380,LG-H970,-3.72,-0.368,8.964,41.1039867,16.8796145,NONE,False
2019-10-26 10:29:27.400,LG-H970,-1.319,-0.517,10.431,41.1039867,16.8796145,NONE,False
2019-10-26 10:29:27.420,LG-H970,0.559,3.045,7.376,41.1039867,16.8796145,NONE,False
2019-10-26 10:29:27.440,LG-H970,1.206,3.891,6.566,41.1039867,16.8796145,NONE,False
2019-10-26 10:29:27.460,LG-H970,-1.859,0.034,8.349,41.1039867,16.8796145,NONE,False
2019-10-26 10:29:27.480,LG-H970,-2.283,-1.839,10.23,41.1039867,16.8796145,NONE,False
2019-10-26 10:29:27.500,LG-H970,0.459,0.666,9.884,41.1039867,16.8796145,NONE,False
2019-10-26 10:29:27.520,LG-H970,1.426,2.394,6.856,41.1039867,16.8796145,NONE,False
2019-10-26 10:29:27.540,LG-H970,-0.178,1.617,9.645,41.1039867,16.8796145,NONE,False
2019-10-26 10:29:27.560,LG-H970,-2.906,-2.566,10.001,41.1039867,16.8796145,NONE,False
2019-10-26 10:29:27.580,LG-H970,-0.985,-0.468,9.4,41.1039867,16.8796145,NONE,False
2019-10-26 10:29:27.600,LG-H970,-0.291,1.589,7.528,41.1039867,16.8796145,NONE,False
2019-10-26 10:29:27.620,LG-H970,0.57,-0.0,10.18,41.1039867,16.8796145,NONE,False
2019-10-26 10:29:27.640,LG-H970,-1.826,-1.585,10.912,41.1039867,16.8796145,NONE,False
2019-10-26 10:29:27.660,LG-H970,0.203,-0.21,9.848,41.1039867,16.8796145,NONE,False
2019-10-26 10:29:27.680,LG-H970,1.22,2.163,7.975,41.1039867,16.8796145,NONE,False
2019-10-26 10:29:27.700,LG-H970,2.138,1.517,8.778,41.1039867,16.8796145,NONE,False
2019-10-26 10:29:27.720,LG-H970,-2.28,-1.863,11.742,41.1039867,16.8796145,NONE,False
2019-10-26 10:29:27.740,LG-H970,-1.525,-2.502,12.226,41.1039867,16.8796145,NONE,False
2019-10-26 10:29:27.760,LG-H970,0.52,0.094,8.056,41.1039867,16.8796145,NONE,False
2019-10-26 10:29:27.780,LG-H970,0.639,1.971,8.124,41.1039867,16.8796145,NONE,False
2019-10-26 10:29:27.800,LG-H970,-0.646,-1.811,12.104,41.1039867,16.8796145,NONE,False
2019-10-26 10:29:27.820,LG-H970,-2.986,-4.893,12.469,41.1039867,16.8796145,NONE,False
2019-10-26 10:29:27.840,LG-H970,-0.319,-3.927,11.713,41.1039867,16.8796145,NONE,False
2019-10-26 10:29:27.860,LG-H970,-1.882,-2.803,9.052,41.1039867,16.8796145,NONE,False
2019-10-26 10:29:27.880,LG-H970,-2.305,-3.086,10.957,41.1039867,16.8796145,NONE,False
2019-10-26 10:29:27.900,LG-H970,-2.677,-4.587,11.678,41.1039867,16.8796145,NONE,False
2019-10-26 10:29:27.920,LG-H970,0.436,-2.959,10.715,41.1039867,16.8796145,NONE,True
2019-10-26 10:29:27.940,LG-H970,0.114,-2.044,10.58,41.1039867,16.8796145,NONE,True
2019-10-26 10:29:27.960,LG-H970,-0.792,-3.478,11.759,41.1039867,16.8796145,NONE,False
2019-10-26 10:29:27.980,LG-H970,-2.396,-2.283,10.047,41.1039867,16.8796145,NONE,False
2019-10-26 10:29:28.000,LG-H970,0.797,0.525,7.851,41.1039867,16.8796145,NONE,False
2019-10-26 10:29:28.020,LG-H970,1.508,2.312,9.472,41.1039867,16.8796145,NONE,False
2019-10-26 10:29:28.040,LG-H970,0.753,0.181,10.882,41.1039867,16.8796145,NONE,False
2019-10-26 10:29:28.060,LG-H970,-0.41,0.245,10.968,41.1039867,16.8796145,NONE,False
2019-10-26 10:29:28.080,LG-H970,-0.712,2.705,7.272,41.1039867,16.8796145,NONE,False
2019-10-26 10:29:28.100,LG-H970,2.936,5.819,8.146,41.1039867,16.8796145,NONE,False
2019-10-26 10:29:28.120,LG-H970,0.316,2.247,9.244,41.1039867,16.8796145,NONE,False
2019-10-26 10:29:28.140,LG-H970,0.537,-0.108,12.771,41.1039867,16.8796145,NONE,False
2019-10-26 10:29:28.160,LG-H970,-0.385,1.58,10.593,41.1039867,16.8796145,NONE,False
2019-10-26 10:29:28.180,LG-H970,1.631,4.805,7.404,41.1039867,16.8796145,NONE,False
2019-10-26 10:29:28.200,LG-H970,0.655,3.867,8.233,41.1039867,16.8796145,NONE,False
2019-10-26 10:29:28.220,LG-H970,-2.562,-0.286,9.271,41.1039867,16.8796145,NONE,False
2019-10-26 10:29:28.240,LG-H970,-0.153,-0.675,11.439,41.1039867,16.8796145,NONE,False
2019-10-26 10:29:28.260,LG-H970,1.372,1.182,9.296,41.1039867,16.8796145,NONE,False
2019-10-26 10:29:28.280,LG-H970,1.335,2.315,8.859,41.1039867,16.8796145,NONE,False
2019-10-26 10:29:28.300,LG-H970,-2.213,0.193,9.773,41.1039867,16.8796145,NONE,False
2019-10-26 10:29:28.320,LG-H970,-2.057,-1.632,10.019,41.1039867,16.8796145,NONE,False
2019-10-26 10:29:28.340,LG-H970,-0.146,0.102,9.637,41.1039867,16.8796145,NONE,False
2019-10-26 10:29:28.360,LG-H970,0.704,1.915,9.38,41.1039867,16.8796145,NONE,False
2019-10-26 10:29:28.380,LG-H970,0.117,0.594,10.309,41.1039867,16.8796145,NONE,False
2019-10-26 10:29:28.400,LG-H970,-2.335,-1.045,10.85,41.1039867,16.8796145,NONE,False
2019-10-26 10:29:28.420,LG-H970,-2.15,-0.708,10.032,41.1039867,16.8796145,NONE,False
2019-10-26 10:29:28.440,LG-H970,-0.846,0.962,9.477,41.1039867,16.8796145,NONE,False
2019-10-26 10:29:28.460,LG-H970,0.822,0.514,10.254,41.1039867,16.8796145,NONE,False
2019-10-26 10:29:28.480,LG-H970,0.404,-0.99,11.251,41.1039867,16.8796145,NONE,False
2019-10-26 10:29:28.500,LG-H970,-1.191,-0.544,12.716,41.1039867,16.8796145,NONE,False
2019-10-26 10:29:28.520,LG-H970,-0.415,0.737,9.503,41.1039867,16.8796145,NONE,False
2019-10-26 10:29:28.540,LG-H970,0.002,1.325,8.424,41.1039867,16.8796145,NONE,False
2019-10-26 10:29:28.560,LG-H970,0.927,-1.88,9.522,41.1039867,16.8796145,NONE,False
2019-10-26 10:29:28.580,LG-H970,0.669,-2.995,11.837,41.1039867,16.8796145,NONE,False
2019-10-26 10:29:28.600,LG-H970,-0.897,-0.155,11.225,41.1039867,16.8796145,NONE,False
2019-10-26 10:29:28.620,LG-H970,2.318,0.531,10.216,41.1039867,16.8796145,NONE,False
2019-10-26 10:29:28.640,LG-H970,-1.089,-0.451,8.641,41.1039867,16.8796145,NONE,False
2019-10-26 10:29:28.660,LG-H970,-0.386,-0.031,9.381,41.1039867,16.8796145,NONE,False
2019-10-26 10:29:28.680,LG-H970,0.775,0.841,9.596,41.1039867,16.8796145,NONE,False
2019-10-26 10:29:28.700,LG-H970,1.02,0.314,10.903,41.1039867,16.8796145,NONE,False
2019-10-26 10:29:28.720,LG-H970,0.292,0.504,10.298,41.1039867,16.8796145,NONE,False
2019-10-26 10:29:28.740,LG-H970,-0.877,2.208,8.591,41.1039867,16.8796145,NONE,False
2019-10-26 10:29:28.760,LG-H970,0.507,1.954,8.266,41.1039867,16.8796145,NONE,False
2019-10-26 10:29:28.780,LG-H970,-0.26,1.253,10.212,41.1039867,16.8796145,NONE,False
2019-10-26 10:29:28.800,LG-H970,0.896,0.299,10.993,41.1039867,16.8796145,NONE,False
2019-10-26 10:29:28.820,LG-H970,0.626,1.429,10.287,41.1039867,16.8796145,NONE,False
2019-10-26 10:29:28.840,LG-H970,-0.335,2.83,8.97,41.1039867,16.8796145,NONE,False
2019-10-26 10:29:28.860,LG-H970,-0.397,2.705,9.438,41.1039867,16.8796145,NONE,False
2019-10-26 10:29:28.880,LG-H970,-0.778,2.442,9.907,41.1039867,16.8796145,NONE,False
2019-10-26 10:29:28.900,LG-H970,1.172,2.789,10.0,41.1039867,16.8796145,NONE,False
2019-10-26 10:29:28.920,LG-H970,-0.235,2.971,9.485,41.1039867,16.8796145,NONE,False
2019-10-26 10:29:28.940,LG-H970,-1.342,2.495,8.746,41.1039867,16.8796145,NONE,False
2019-10-26 10:29:28.960,LG-H970,-2.188,2.088,8.281,41.1039867,16.8796145,NONE,False
2019-10-26 10:29:28.980,LG-H970,-1.029,1.497,8.806,41.1039867,16.8796145,NONE,False
2019-10-26 10:29:29.000,LG-H970,0.207,0.901,10.041,41.1039867,16.8796145,NONE,False
2019-10-26 10:29:29.020,LG-H970,1.308,0.612,10.681,41.1039867,16.8796145,NONE,False
2019-10-26 10:29:29.040,LG-H970,-0.42,0.044,10.235,41.1039867,16.8796145,NONE,False
2019-10-26 10:29:29.060,LG-H970,-1.231,0.367,9.315,41.1039867,16.8796145,NONE,False
2019-10-26 10:29:29.080,LG-H970,-1.357,0.613,8.896,41.1039867,16.8796145,NONE,False
2019-10-26 10:29:29.100,LG-H970,0.049,1.41,10.165,41.1039867,16.8796145,NONE,False
2019-10-26 10:29:29.120,LG-H970,1.209,0.472,9.626,41.1039867,16.8796145,NONE,False
2019-10-26 10:29:29.140,LG-H970,-0.116,0.368,10.02,41.1039867,16.8796145,NONE,False
2019-10-26 10:29:29.160,LG-H970,-0.971,-1.016,9.285,41.1039867,16.8796145,NONE,False
2019-10-26 10:29:29.180,LG-H970,-1.234,-0.694,9.508,41.1039867,16.8796145,NONE,False
2019-10-26 10:29:29.200,LG-H970,0.309,-0.107,10.523,41.1039867,16.8796145,NONE,False
2019-10-26 10:29:29.220,LG-H970,0.866,-0.174,10.992,41.1039867,16.8796145,NONE,False
2019-10-26 10:29:29.240,LG-H970,0.311,0.429,10.494,41.1039867,16.8796145,NONE,False
2019-10-26 10:29:29.260,LG-H970,-0.948,0.609,8.018,41.1039867,16.8796145,NONE,False
2019-10-26 10:29:29.280,LG-H970,-1.942,1.817,7.738,41.1039867,16.8796145,NONE,False
2019-10-26 10:29:29.300,LG-H970,-0.773,2.711,7.203,41.1039867,16.8796145,NONE,False
2019-10-26 10:29:29.320,LG-H970,0.683,3.579,5.9,41.1039867,16.8796145,NONE,False
2019-10-26 10:29:29.340,LG-H970,1.091,0.123,8.521,41.1039867,16.8796145,NONE,False
2019-10-26 10:29:29.360,LG-H970,0.732,-2.527,14.115,41.1039867,16.8796145,NONE,False
2019-10-26 10:29:29.380,LG-H970,2.574,-2.698,12.977,41.1039867,16.8796145,NONE,False
2019-10-26 10:29:29.400,LG-H970,3.253,-2.119,11.88,41.1039867,16.8796145,NONE,False
