UTC_timestamp,device_name,x,y,z,lat,long,speed,event
2019-10-26 10:29:38.720,LG-H970,3.904,4.874,8.295,41.1040582,16.8800951,NONE,False
2019-10-26 10:29:38.740,LG-H970,0.257,-0.67,11.74,41.1040582,16.8800951,NONE,False
2019-10-26 10:29:38.760,LG-H970,-2.485,-3.494,13.705,41.1040582,16.8800951,NONE,False
2019-10-26 10:29:38.780,LG-H970,0.494,0.106,10.837,41.1040582,16.8800951,NONE,False
2019-10-26 10:29:38.800,LG-H970,3.739,6.12,7.616,41.1040582,16.8800951,NONE,False
2019-10-26 10:29:38.820,LG-H970,1.66,4.839,9.068,41.1040582,16.8800951,NONE,False
2019-10-26 10:29:38.840,LG-H970,-1.926,-1.803,11.264,41.1040582,16.8800951,NONE,False
2019-10-26 10:29:38.860,LG-H970,-1.571,-1.164,11.919,41.1040582,16.8800951,NONE,False
2019-10-26 10:29:38.880,LG-H970,1.502,3.352,8.042,41.1040582,16.8800951,NONE,False
2019-10-26 10:29:38.900,LG-H970,2.149,4.943,7.37,41.1040582,16.8800951,NONE,False
2019-10-26 10:29:38.920,LG-H970,-1.497,-0.175,9.41,41.1040582,16.8800951,NONE,False
2019-10-26 10:29:38.940,LG-H970,-2.318,-2.309,11.424,41.1040582,16.8800951,NONE,False
2019-10-26 10:29:38.960,LG-H970,0.342,1.74,9.061,41.1040582,16.8800951,NONE,False
2019-10-26 10:29:38.980,LG-H970,1.197,3.557,8.567,41.1040582,16.8800951,NONE,False
2019-10-26 10:29:39.000,LG-H970,-1.311,-0.64,8.974,41.1040582,16.8800951,NONE,False
2019-10-26 10:29:39.020,LG-H970,-2.9,-2.932,10.864,41.1040582,16.8800951,NONE,False
2019-10-26 10:29:39.040,LG-H970,-1.096,-0.414,9.767,41.1040582,16.8800951,NONE,False
2019-10-26 10:29:39.060,LG-H970,1.182,1.133,8.354,41.1040582,16.8800951,NONE,False
2019-10-26 10:29:39.080,LG-H970,-0.375,-0.617,10.288,41.1040582,16.8800951,NONE,False
2019-10-26 10:29:39.100,LG-H970,-1.083,-2.315,11.154,41.1040582,16.8800951,NONE,False
2019-10-26 10:29:39.120,LG-H970,0.212,-0.433,9.137,41.1040582,16.8800951,NONE,False
2019-10-26 10:29:39.140,LG-H970,0.002,0.373,7.594,41.1040582,16.8800951,NONE,False
2019-10-26 10:29:39.160,LG-H970,-1.061,-1.197,10.352,41.1040582,16.8800951,NONE,False
2019-10-26 10:29:39.180,LG-H970,-1.46,-3.345,10.778,41.1040582,16.8800951,NONE,False
2019-10-26 10:29:39.200,LG-H970,0.706,-1.23,10.146,41.1040582,16.8800951,NONE,False
2019-10-26 10:29:39.220,LG-H970,0.958,-0.334,8.754,41.1040582,16.8800951,NONE,False
2019-10-26 10:29:39.240,LG-H970,-0.815,-2.357,9.663,41.1040582,16.8800951,NONE,False
2019-10-26 10:29:39.260,LG-H970,-0.49,-3.852,10.7,41.1040582,16.8800951,NONE,False
2019-10-26 10:29:39.280,LG-H970,-0.094,-2.947,10.461,41.1040582,16.8800951,NONE,False
2019-10-26 10:29:39.300,LG-H970,0.98,-0.76,10.663,41.1040582,16.8800951,NONE,False
2019-10-26 10:29:39.320,LG-H970,0.223,-0.572,10.283,41.1040582,16.8800951,NONE,False
2019-10-26 10:29:39.340,LG-H970,-0.989,-1.745,10.031,41.1040582,16.8800951,NONE,False
2019-10-26 10:29:39.360,LG-H970,-1.486,-1.537,10.016,41.1040582,16.8800951,NONE,False
2019-10-26 10:29:39.380,LG-H970,-0.249,-0.238,9.512,41.1040582,16.8800951,NONE,False
2019-10-26 10:29:39.400,LG-H970,0.929,0.794,9.794,41.1040582,16.8800951,NONE,False
2019-10-26 10:29:39.420,LG-H970,-0.51,0.417,10.217,41.1040582,16.8800951,NONE,False
2019-10-26 10:29:39.440,LG-H970,-0.234,0.216,10.475,41.1040582,16.8800951,NONE,False
2019-10-26 10:29:39.460,LG-H970,-0.57,0.964,10.094,41.1040582,16.8800951,NONE,False
2019-10-26 10:29:39.480,LG-H970,0.424,1.123,9.633,41.1040582,16.8800951,NONE,False
2019-10-26 10:29:39.500,LG-H970,0.098,1.274,10.217,41.1040582,16.8800951,NONE,False
2019-10-26 10:29:39.520,LG-H970,-0.844,0.722,10.284,41.1040582,16.8800951,NONE,False
2019-10-26 10:29:39.540,LG-H970,0.148,0.439,9.646,41.1040582,16.8800951,NONE,False
2019-10-26 10:29:39.560,LG-H970,-0.232,-0.122,8.774,41.1040582,16.8800951,NONE,False
2019-10-26 10:29:39.580,LG-H970,-0.539,-0.576,10.073,41.1040582,16.8800951,NONE,False
2019-10-26 10:29:39.600,LG-H970,-0.309,-1.63,10.353,41.1040582,16.8800951,NONE,False
2019-10-26 10:29:39.620,LG-H970,-0.009,-1.348,9.123,41.1040582,16.8800951,NONE,False
2019-10-26 10:29:39.640,LG-H970,-0.64,0.144,9.379,41.1040582,16.8800951,NONE,False
2019-10-26 10:29:39.660,LG-H970,0.212,-0.705,9.581,41.1040582,16.8800951,NONE,False
2019-10-26 10:29:39.680,LG-H970,0.568,-0.451,11.098,41.1040582,16.8800951,NONE,False
2019-10-26 10:29:39.700,LG-H970,-0.359,-0.864,9.822,41.1040582,16.8800951,NONE,False
2019-10-26 10:29:39.720,LG-H970,-0.65,0.196,8.135,41.1040582,16.8800951,NONE,False
2019-10-26 10:29:39.740,LG-H970,-1.476,0.678,6.903,41.1040582,16.8800951,NONE,False
2019-10-26 10:29:39.760,LG-H970,-1.498,0.352,7.091,41.1040582,16.8800951,NONE,False
2019-10-26 10:29:39.780,LG-H970,-0.944,0.578,5.743,41.1040582,16.8800951,NONE,False
2019-10-26 10:29:39.800,LG-H970,-2.713,-0.575,8.475,41.1040582,16.8800951,NONE,False
2019-10-26 10:29:39.820,LG-H970,2.745,-1.894,11.324,41.1040582,16.8800951,NONE,False
2019-10-26 10:29:39.840,LG-H970,0.099,-1.638,9.93,41.1040582,16.8800951,NONE,False
2019-10-26 10:29:39.860,LG-H970,0.355,-1.167,11.981,41.1040582,16.8800951,NONE,False
2019-10-26 10:29:39.880,LG-H970,-2.015,-0.628,11.07,41.1040582,16.8800951,NONE,False
2019-10-26 10:29:39.900,LG-H970,0.462,-0.306,9.233,41.1040582,16.8800951,NONE,False
2019-10-26 10:29:39.920,LG-H970,0.309,-1.89,10.568,41.1040582,16.8800951,NONE,False
2019-10-26 10:29:39.940,LG-H970,-0.463,-3.491,13.835,41.1040582,16.8800951,NONE,False
2019-10-26 10:29:39.960,LG-H970,1.393,-2.981,13.282,41.1040582,16.8800951,NONE,False
2019-10-26 10:29:39.980,LG-H970,1.312,0.006,10.845,41.1040582,16.8800951,NONE,False
2019-10-26 10:29:40.000,LG-H970,-0.359,-1.628,9.796,41.1040582,16.8800951,NONE,False
2019-10-26 10:29:40.020,LG-H970,-3.157,-2.813,11.559,41.1040582,16.8800951,NONE,False
2019-10-26 10:29:40.040,LG-H970,-0.619,-1.344,11.574,41.1040582,16.8800951,NONE,False
2019-10-26 10:29:40.060,LG-H970,2.642,1.232,9.78,41.1040582,16.8800951,NONE,False
2019-10-26 10:29:40.080,LG-H970,0.265,0.851,10.84,41.1040582,16.8800951,NONE,False
2019-10-26 10:29:40.100,LG-H970,-2.619,-1.14,11.567,41.1040582,16.8800951,NONE,False
2019-10-26 10:29:40.120,LG-H970,-1.488,0.587,9.725,41.1040582,16.8800951,NONE,False
2019-10-26 10:29:40.140,LG-H970,-0.301,3.664,8.644,41.1040582,16.8800951,NONE,False
2019-10-26 10:29:40.160,LG-H970,-0.27,1.914,10.25,41.1040582,16.8800951,NONE,False
2019-10-26 10:29:40.180,LG-H970,-1.501,-0.799,11.657,41.1040582,16.8800951,NONE,False
2019-10-26 10:29:40.200,LG-H970,-0.991,0.446,10.958,41.1040582,16.8800951,NONE,False
2019-10-26 10:29:40.220,LG-H970,0.04,1.695,7.79,41.1040582,16.8800951,NONE,True
2019-10-26 10:29:40.240,LG-H970,-0.521,1.169,8.482,41.1040582,16.8800951,NONE,False
2019-10-26 10:29:40.260,LG-H970,-1.408,-1.608,9.567,41.1040582,16.8800951,NONE,False
2019-10-26 10:29:40.280,LG-H970,-1.007,-1.844,10.809,41.1040582,16.8800951,NONE,False
2019-10-26 10:29:40.300,LG-H970,0.644,-0.823,9.826,41.1040582,16.8800951,NONE,False
2019-10-26 10:29:40.320,LG-H970,0.883,0.528,8.187,41.1040582,16.8800951,NONE,False
2019-10-26 10:29:40.340,LG-H970,-0.863,-0.339,8.603,41.1040582,16.8800951,NONE,False
2019-10-26 10:29:40.360,LG-H970,-2.388,-1.883,9.344,41.1040582,16.8800951,NONE,False
2019-10-26 10:29:40.380,LG-H970,0.011,-0.863,9.265,41.1040582,16.8800951,NONE,False
2019-10-26 10:29:40.400,LG-H970,1.091,0.882,8.619,41.1040582,16.8800951,NONE,False
2019-10-26 10:29:40.420,LG-H970,0.916,0.421,9.854,41.1040582,16.8800951,NONE,False
2019-10-26 10:29:40.440,LG-H970,-1.421,-0.299,9.699,41.1040582,16.8800951,NONE,False
2019-10-26 10:29:40.460,LG-H970,-0.136,0.931,8.255,41.1040582,16.8800951,NONE,False
2019-10-26 10:29:40.480,LG-H970,2.006,2.811,7.571,41.1040582,16.8800951,NONE,False
2019-10-26 10:29:40.500,LG-H970,0.121,2.329,10.748,41.1040582,16.8800951,NONE,False
2019-10-26 10:29:40.520,LG-H970,-2.373,-3.263,11.433,41.1040582,16.8800951,NONE,False
2019-10-26 10:29:40.540,LG-H970,-1.71,-1.131,12.706,41.1040582,16.8800951,NONE,False
2019-10-26 10:29:40.560,LG-H970,-0.141,3.152,6.112,41.1040582,16.8800951,NONE,False
2019-10-26 10:29:40.580,LG-H970,0.707,3.988,6.314,41.1040582,16.8800951,NONE,False
2019-10-26 10:29:40.600,LG-H970,-2.687,-0.219,9.913,41.1040582,16.8800951,NONE,False
2019-10-26 10:29:40.620,LG-H970,0.037,-3.682,12.312,41.1040582,16.8800951,NONE,False
2019-10-26 10:29:40.640,LG-H970,-1.006,2.913,10.27,41.1040582,16.8800951,NONE,False
2019-10-26 10:29:40.660,LG-H970,-0.191,1.269,7.727,41.1040582,16.8800951,NONE,False
2019-10-26 10:29:40.680,LG-H970,-1.154,-2.629,10.695,41.1040582,16.8800951,NONE,False
2019-10-26 10:29:40.700,LG-H970,-3.563,-2.399,10.71,41.1040582,16.8800951,NONE,False
2019-10-26 10:29:40.720,LG-H970,1.643,0.585,12.074,41.1040582,16.8800951,NONE,False
2019-10-26 10:29:40.740,LG-H970,0.2,-0.125,10.001,41.1040582,16.8800951,NONE,False
2019-10-26 10:29:40.760,LG-H970,0.094,-0.448,11.067,41.1040582,16.8800951,NONE,False
2019-10-26 10:29:40.780,LG-H970,-1.439,-0.469,9.961,41.1040582,16.8800951,NONE,False
2019-10-26 10:29:40.800,LG-H970,0.775,1.083,10.913,41.1040582,16.8800951,NONE,False
2019-10-26 10:29:40.820,LG-H970,1.083,1.648,9.32,41.1040582,16.8800951,NONE,False
2019-10-26 10:29:40.840,LG-H970,1.379,1.128,10.228,41.1040582,16.8800951,NONE,False
2019-10-26 10:29:40.860,LG-H970,-0.541,-0.429,10.832,41.1040582,16.8800951,NONE,False
2019-10-26 10:29:40.880,LG-H970,-0.255,0.306,10.008,41.1040582,16.8800951,NONE,False
2019-10-26 10:29:40.900,LG-H970,-0.367,2.62,8.179,41.1040582,16.8800951,NONE,False
2019-10-26 10:29:40.920,LG-H970,0.781,2.034,9.244,41.1040582,16.8800951,NONE,False
2019-10-26 10:29:40.940,LG-H970,0.085,-0.944,9.58,41.1040582,16.8800951,NONE,False
2019-10-26 10:29:40.960,LG-H970,-0.346,-0.673,11.075,41.1040582,16.8800951,NONE,False
2019-10-26 10:29:40.980,LG-H970,-0.674,-0.301,8.397,41.1040582,16.8800951,NONE,False
2019-10-26 10:29:41.000,LG-H970,0.644,1.519,8.844,41.1040582,16.8800951,NONE,False
2019-10-26 10:29:41.020,LG-H970,-0.11,0.125,8.582,41.1040582,16.8800951,NONE,False
2019-10-26 10:29:41.040,LG-H970,0.131,0.374,12.575,41.1040582,16.8800951,NONE,False
2019-10-26 10:29:41.060,LG-H970,-0.926,-0.913,10.165,41.1040582,16.8800951,NONE,False
2019-10-26 10:29:41.080,LG-H970,1.013,0.562,9.127,41.1040582,16.8800951,NONE,False
2019-10-26 10:29:41.100,LG-H970,-1.3,1.055,8.491,41.1040582,16.8800951,NONE,False
2019-10-26 10:29:41.120,LG-H970,0.42,0.654,10.017,41.1040582,16.8800951,NONE,False
2019-10-26 10:29:41.140,LG-H970,-0.946,0.407,9.797,41.1040582,16.8800951,NONE,False
2019-10-26 10:29:41.160,LG-H970,0.923,0.264,10.805,41.1040582,16.8800951,NONE,False
2019-10-26 10:29:41.180,LG-H970,-1.234,0.606,10.045,41.1040582,16.8800951,NONE,False
2019-10-26 10:29:41.200,LG-H970,-0.887,0.587,9.722,41.1040582,16.8800951,NONE,False
2019-10-26 10:29:41.220,LG-H970,-0.962,0.731,9.6,41.1040582,16.8800951,NONE,False
2019-10-26 10:29:41.240,LG-H970,-0.27,0.847,9.881,41.1040582,16.8800951,NONE,False
2019-10-26 10:29:41.260,LG-H970,0.269,1.366,10.705,41.1040582,16.8800951,NONE,False
2019-10-26 10:29:41.280,LG-H970,-0.359,0.39,9.955,41.1040582,16.8800951,NONE,False
2019-10-26 10:29:41.300,LG-H970,0.288,0.91,9.77,41.1040582,16.8800951,NONE,False
2019-10-26 10:29:41.320,LG-H970,-0.962,1.109,8.54,41.1040582,16.8800951,NONE,False
2019-10-26 10:29:41.340,LG-H970,-0.064,0.725,10.807,41.1040582,16.8800951,NONE,False
2019-10-26 10:29:41.360,LG-H970,-0.744,-0.062,10.81,41.1040582,16.8800951,NONE,False
2019-10-26 10:29:41.380,LG-H970,1.101,0.656,10.449,41.1040582,16.8800951,NONE,False
2019-10-26 10:29:41.400,LG-H970,-0.342,1.622,9.333,41.1040582,16.8800951,NONE,False
2019-10-26 10:29:41.420,LG-H970,0.495,0.115,9.591,41.1040582,16.8800951,NONE,False
2019-10-26 10:29:41.440,LG-H970,-1.424,-0.642,10.109,41.1040582,16.8800951,NONE,False
2019-10-26 10:29:41.460,LG-H970,0.061,0.239,10.317,41.1040582,16.8800951,NONE,False
2019-10-26 10:29:41.480,LG-H970,0.704,1.081,9.065,41.1040582,16.8800951,NONE,False
2019-10-26 10:29:41.500,LG-H970,0.687,1.076,9.712,41.1040582,16.8800951,NONE,False
2019-10-26 10:29:41.520,LG-H970,-0.408,-0.456,10.044,41.1040582,16.8800951,NONE,False
2019-10-26 10:29:41.540,LG-H970,-0.93,0.134,10.74,41.1040582,16.8800951,NONE,False
2019-10-26 10:29:41.560,LG-H970,0.667,0.909,9.46,41.1040582,16.8800951,NONE,False
2019-10-26 10:29:41.580,LG-H970,0.859,1.32,9.844,41.1040582,16.8800951,NONE,False
2019-10-26 10:29:41.600,LG-H970,0.107,-0.568,10.238,41.1040582,16.8800951,NONE,False
2019-10-26 10:29:41.620,LG-H970,-0.614,-0.644,10.347,41.1040582,16.8800951,NONE,False
2019-10-26 10:29:41.640,LG-H970,0.134,-0.254,8.746,41.1040582,16.8800951,NONE,False
2019-10-26 10:29:41.660,LG-H970,0.155,-0.262,8.965,41.1040582,16.8800951,NONE,False
2019-10-26 10:29:41.680,LG-H970,-0.776,-0.745,10.246,41.1040582,16.8800951,NONE,False
2019-10-26 10:29:41.700,LG-H970,0.756,-0.191,10.065,41.1040582,16.8800951,NONE,False
