UTC_timestamp,device_name,x,y,z,lat,long,speed,event
2019-10-26 10:07:01.660,LG-H970,-0.505,-0.327,10.873,41.1098352,16.8739029,NONE,False
2019-10-26 10:07:01.680,LG-H970,-0.316,0.152,9.484,41.1098352,16.8739029,NONE,False
2019-10-26 10:07:01.700,LG-H970,-0.316,-0.202,9.391,41.1098352,16.8739029,NONE,False
2019-10-26 10:07:01.720,LG-H970,-0.654,-1.395,9.292,41.1098352,16.8739029,NONE,False
2019-10-26 10:07:01.740,LG-H970,-0.405,-1.365,10.405,41.1098352,16.8739029,NONE,False
2019-10-26 10:07:01.760,LG-H970,-0.003,-0.245,11.212,41.1098352,16.8739029,NONE,False
2019-10-26 10:07:01.780,LG-H970,-0.353,-0.254,10.544,41.1098352,16.8739029,NONE,False
2019-10-26 10:07:01.800,LG-H970,0.609,-0.592,10.268,41.1098352,16.8739029,NONE,False
2019-10-26 10:07:01.820,LG-H970,-0.919,0.075,11.23,41.1098352,16.8739029,NONE,False
2019-10-26 10:07:01.840,LG-H970,0.454,-0.398,10.127,41.1098352,16.8739029,NONE,False
2019-10-26 10:07:01.860,LG-H970,-0.361,-0.644,11.07,41.1098352,16.8739029,NONE,False
2019-10-26 10:07:01.880,LG-H970,-0.389,-0.853,10.619,41.1098352,16.8739029,NONE,False
2019-10-26 10:07:01.900,LG-H970,1.01,-0.481,9.678,41.1098352,16.8739029,NONE,False
2019-10-26 10:07:01.920,LG-H970,-1.335,-1.045,9.26,41.1098352,16.8739029,NONE,False
2019-10-26 10:07:01.940,LG-H970,-0.683,-2.392,10.029,41.1098352,16.8739029,NONE,False
2019-10-26 10:07:01.960,LG-H970,-1.081,-1.988,9.666,41.1098352,16.8739029,NONE,False
2019-10-26 10:07:01.980,LG-H970,0.694,0.168,9.814,41.1098352,16.8739029,NONE,False
2019-10-26 10:07:02.000,LG-H970,-0.49,0.36,10.091,41.1098352,16.8739029,NONE,False
2019-10-26 10:07:02.020,LG-H970,-0.207,-0.684,12.172,41.1098352,16.8739029,NONE,False
2019-10-26 10:07:02.040,LG-H970,-0.628,-1.595,9.996,41.1098352,16.8739029,NONE,False
2019-10-26 10:07:02.060,LG-H970,-0.086,-0.469,8.75,41.1098352,16.8739029,NONE,False
2019-10-26 10:07:02.080,LG-H970,-1.745,-0.106,7.604,41.1098352,16.8739029,NONE,False
2019-10-26 10:07:02.100,LG-H970,-0.972,-2.334,6.746,41.1098352,16.8739029,NONE,False
2019-10-26 10:07:02.120,LG-H970,-1.457,-4.796,6.151,41.1098352,16.8739029,NONE,False
2019-10-26 10:07:02.140,LG-H970,-3.096,-3.596,6.505,41.1098352,16.8739029,NONE,False
2019-10-26 10:07:02.160,LG-H970,-3.85,-0.329,8.536,41.1098352,16.8739029,NONE,False
2019-10-26 10:07:02.180,LG-H970,1.466,1.355,9.259,41.1098352,16.8739029,NONE,False
2019-10-26 10:07:02.200,LG-H970,-0.046,0.956,7.484,41.1098352,16.8739029,NONE,False
2019-10-26 10:07:02.220,LG-H970,1.559,0.889,12.168,41.1098352,16.8739029,NONE,False
2019-10-26 10:07:02.240,LG-H970,-1.432,2.578,18.029,41.1098352,16.8739029,NONE,False
2019-10-26 10:07:02.260,LG-H970,4.137,0.759,9.505,41.1098352,16.8739029,NONE,False
2019-10-26 10:07:02.280,LG-H970,0.043,1.664,6.694,41.1098352,16.8739029,NONE,False
2019-10-26 10:07:02.300,LG-H970,-4.325,-1.499,11.555,41.1098352,16.8739029,NONE,False
2019-10-26 10:07:02.320,LG-H970,-1.606,-4.82,13.347,41.1098352,16.8739029,NONE,False
2019-10-26 10:07:02.340,LG-H970,3.009,-0.367,10.733,41.1098352,16.8739029,NONE,False
2019-10-26 10:07:02.360,LG-H970,3.49,4.327,9.453,41.1098352,16.8739029,NONE,False
2019-10-26 10:07:02.380,LG-H970,-1.408,-0.7,11.161,41.1098352,16.8739029,NONE,False
2019-10-26 10:07:02.400,LG-H970,-2.259,-6.394,13.404,41.1098352,16.8739029,NONE,False
2019-10-26 10:07:02.420,LG-H970,-0.971,-4.414,9.675,41.1098352,16.8739029,NONE,False
2019-10-26 10:07:02.440,LG-H970,2.129,1.424,8.32,41.1098352,16.8739029,NONE,False
2019-10-26 10:07:02.460,LG-H970,4.758,-0.646,9.389,41.1098352,16.8739029,NONE,False
2019-10-26 10:07:02.480,LG-H970,2.436,-5.719,11.675,41.1098352,16.8739029,NONE,False
2019-10-26 10:07:02.500,LG-H970,-0.091,-4.817,12.322,41.1098352,16.8739029,NONE,False
2019-10-26 10:07:02.520,LG-H970,-3.071,1.266,9.946,41.1098352,16.8739029,NONE,False
2019-10-26 10:07:02.540,LG-H970,0.216,1.918,7.072,41.1098352,16.8739029,NONE,False
2019-10-26 10:07:02.560,LG-H970,-3.747,3.139,12.107,41.1098352,16.8739029,NONE,False
2019-10-26 10:07:02.580,LG-H970,-5.218,-1.285,7.908,41.1098352,16.8739029,NONE,False
2019-10-26 10:07:02.600,LG-H970,1.066,-1.566,8.032,41.1098352,16.8739029,NONE,False
2019-10-26 10:07:02.620,LG-H970,-2.071,1.074,9.137,41.1098352,16.8739029,NONE,False
2019-10-26 10:07:02.640,LG-H970,1.427,1.555,8.4,41.1098352,16.8739029,NONE,False
2019-10-26 10:07:02.660,LG-H970,-1.536,-0.059,10.092,41.1098352,16.8739029,NONE,False
2019-10-26 10:07:02.680,LG-H970,-1.589,-1.599,11.18,41.1098352,16.8739029,NONE,False
2019-10-26 10:07:02.700,LG-H970,1.521,-0.191,7.805,41.1098352,16.8739029,NONE,False
2019-10-26 10:07:02.720,LG-H970,-0.455,0.162,9.681,41.1098352,16.8739029,NONE,False
2019-10-26 10:07:02.740,LG-H970,-2.617,-3.516,12.115,41.1098352,16.8739029,NONE,False
2019-10-26 10:07:02.760,LG-H970,-0.76,-3.592,10.376,41.1098352,16.8739029,NONE,False
2019-10-26 10:07:02.780,LG-H970,-0.164,0.137,7.89,41.1098352,16.8739029,NONE,False
2019-10-26 10:07:02.800,LG-H970,1.698,0.265,9.203,41.1098352,16.8739029,NONE,False
2019-10-26 10:07:02.820,LG-H970,-1.761,-1.938,10.891,41.1098352,16.8739029,NONE,False
2019-10-26 10:07:02.840,LG-H970,0.124,-3.061,10.831,41.1098352,16.8739029,NONE,False
2019-10-26 10:07:02.860,LG-H970,0.15,-0.225,9.26,41.1098352,16.8739029,NONE,False
2019-10-26 10:07:02.880,LG-H970,1.262,1.227,8.578,41.1098352,16.8739029,NONE,False
2019-10-26 10:07:02.900,LG-H970,-0.568,-1.195,8.911,41.1098352,16.8739029,NONE,False
2019-10-26 10:07:02.920,LG-H970,-1.843,-2.541,10.865,41.1098352,16.8739029,NONE,False
2019-10-26 10:07:02.940,LG-H970,-0.17,-1.392,10.591,41.1098352,16.8739029,NONE,False
2019-10-26 10:07:02.960,LG-H970,-0.069,1.179,9.096,41.1098352,16.8739029,NONE,False
2019-10-26 10:07:02.980,LG-H970,0.208,0.608,9.592,41.1098352,16.8739029,NONE,False
2019-10-26 10:07:03.000,LG-H970,-2.262,-1.999,9.801,41.1098352,16.8739029,NONE,False
2019-10-26 10:07:03.020,LG-H970,-0.705,-1.3,10.587,41.1098352,16.8739029,NONE,False
2019-10-26 10:07:03.040,LG-H970,-0.228,0.369,8.944,41.1098352,16.8739029,NONE,False
2019-10-26 10:07:03.060,LG-H970,0.689,0.387,9.685,41.1098352,16.8739029,NONE,False
2019-10-26 10:07:03.080,LG-H970,-0.965,-1.599,10.224,41.1098352,16.8739029,NONE,False
2019-10-26 10:07:03.100,LG-H970,-0.954,-1.671,10.633,41.1098352,16.8739029,NONE,False
2019-10-26 10:07:03.120,LG-H970,-0.6,0.05,10.057,41.1098352,16.8739029,NONE,False
2019-10-26 10:07:03.140,LG-H970,-0.142,0.167,9.153,41.1098352,16.8739029,NONE,False
2019-10-26 10:07:03.160,LG-H970,-1.558,-1.325,10.411,41.1098352,16.8739029,NONE,True
2019-10-26 10:07:03.180,LG-H970,-1.002,-1.759,10.541,41.1098352,16.8739029,NONE,True
2019-10-26 10:07:03.200,LG-H970,-1.275,0.146,9.077,41.1098352,16.8739029,NONE,False
2019-10-26 10:07:03.220,LG-H970,0.368,0.531,9.075,41.1098352,16.8739029,NONE,False
2019-10-26 10:07:03.240,LG-H970,-1.197,-1.428,8.988,41.1098352,16.8739029,NONE,False
2019-10-26 10:07:03.260,LG-H970,-0.988,-1.709,10.612,41.1098352,16.8739029,NONE,False
2019-10-26 10:07:03.280,LG-H970,-0.511,-0.983,9.569,41.1098352,16.8739029,NONE,False
2019-10-26 10:07:03.300,LG-H970,-0.051,0.333,9.63,41.1098352,16.8739029,NONE,False
2019-10-26 10:07:03.320,LG-H970,-0.33,-0.391,10.235,41.1098352,16.8739029,NONE,False
2019-10-26 10:07:03.340,LG-H970,-1.19,-1.455,10.496,41.1098352,16.8739029,NONE,False
2019-10-26 10:07:03.360,LG-H970,-0.358,-1.062,10.286,41.1098352,16.8739029,NONE,False
2019-10-26 10:07:03.380,LG-H970,-0.5,-0.024,9.367,41.1098352,16.8739029,NONE,False
2019-10-26 10:07:03.400,LG-H970,-0.722,-0.311,9.311,41.1098352,16.8739029,NONE,False
2019-10-26 10:07:03.420,LG-H970,-0.673,-1.293,9.341,41.1098352,16.8739029,NONE,False
2019-10-26 10:07:03.440,LG-H970,-0.924,-1.069,9.433,41.1098352,16.8739029,NONE,False
2019-10-26 10:07:03.460,LG-H970,0.34,-0.223,9.769,41.1098352,16.8739029,NONE,False
2019-10-26 10:07:03.480,LG-H970,-0.169,-0.72,9.762,41.1098352,16.8739029,NONE,False
2019-10-26 10:07:03.500,LG-H970,-0.098,-1.323,10.331,41.1098352,16.8739029,NONE,False
2019-10-26 10:07:03.520,LG-H970,-1.074,-0.745,10.717,41.1098352,16.8739029,NONE,False
2019-10-26 10:07:03.540,LG-H970,-0.238,-0.176,9.636,41.1098352,16.8739029,NONE,False
2019-10-26 10:07:03.560,LG-H970,-0.056,0.121,9.78,41.1098352,16.8739029,NONE,False
2019-10-26 10:07:03.580,LG-H970,-0.308,0.012,9.499,41.1098352,16.8739029,NONE,False
2019-10-26 10:07:03.600,LG-H970,-0.801,1.035,11.48,41.1098352,16.8739029,NONE,False
2019-10-26 10:07:03.620,LG-H970,0.443,0.012,9.213,41.1098352,16.8739029,NONE,False
2019-10-26 10:07:03.640,LG-H970,-0.259,0.569,9.841,41.1098352,16.8739029,NONE,False
2019-10-26 10:07:03.660,LG-H970,-1.71,1.177,10.21,41.1098352,16.8739029,NONE,False
2019-10-26 10:07:03.680,LG-H970,-0.624,0.302,8.149,41.1098352,16.8739029,NONE,False
2019-10-26 10:07:03.700,LG-H970,0.042,-0.255,9.09,41.1098352,16.8739029,NONE,False
2019-10-26 10:07:03.720,LG-H970,-0.802,-1.481,10.555,41.1098352,16.8739029,NONE,False
2019-10-26 10:07:03.740,LG-H970,-0.127,-1.972,11.145,41.1098352,16.8739029,NONE,False
2019-10-26 10:07:03.760,LG-H970,0.298,-0.803,9.573,41.1098352,16.8739029,NONE,False
2019-10-26 10:07:03.780,LG-H970,0.463,-1.076,8.999,41.1098352,16.8739029,NONE,False
2019-10-26 10:07:03.800,LG-H970,-2.14,-3.092,8.798,41.1098352,16.8739029,NONE,False
2019-10-26 10:07:03.820,LG-H970,-0.969,-3.102,9.844,41.1098352,16.8739029,NONE,False
2019-10-26 10:07:03.840,LG-H970,-0.645,-2.299,8.275,41.1098352,16.8739029,NONE,False
2019-10-26 10:07:03.860,LG-H970,1.003,-0.809,10.179,41.1098352,16.8739029,NONE,False
2019-10-26 10:07:03.880,LG-H970,-0.754,-1.364,10.52,41.1098352,16.8739029,NONE,False
2019-10-26 10:07:03.900,LG-H970,1.055,0.145,11.665,41.1098352,16.8739029,NONE,False
2019-10-26 10:07:03.920,LG-H970,-1.867,-0.207,9.938,41.1098352,16.8739029,NONE,False
2019-10-26 10:07:03.940,LG-H970,-0.2,-0.62,12.211,41.1098352,16.8739029,NONE,False
2019-10-26 10:07:03.960,LG-H970,-2.011,0.501,10.098,41.1098352,16.8739029,NONE,False
2019-10-26 10:07:03.980,LG-H970,3.095,0.946,8.446,41.1098352,16.8739029,NONE,False
2019-10-26 10:07:04.000,LG-H970,-1.129,-0.211,10.802,41.1098352,16.8739029,NONE,False
2019-10-26 10:07:04.020,LG-H970,-0.821,-1.827,11.281,41.1098352,16.8739029,NONE,False
2019-10-26 10:07:04.040,LG-H970,-1.111,-0.097,9.71,41.1098352,16.8739029,NONE,False
2019-10-26 10:07:04.060,LG-H970,-0.383,0.481,8.383,41.1098352,16.8739029,NONE,False
2019-10-26 10:07:04.080,LG-H970,-0.736,-1.64,10.096,41.1098352,16.8739029,NONE,False
2019-10-26 10:07:04.100,LG-H970,-0.294,-3.601,9.924,41.1098352,16.8739029,NONE,False
2019-10-26 10:07:04.120,LG-H970,1.281,-2.331,10.536,41.1098352,16.8739029,NONE,False
2019-10-26 10:07:04.140,LG-H970,-0.259,-0.538,9.685,41.1098352,16.8739029,NONE,False
2019-10-26 10:07:04.160,LG-H970,-0.206,-1.781,9.521,41.1098352,16.8739029,NONE,False
2019-10-26 10:07:04.180,LG-H970,-2.184,-2.128,10.248,41.1098352,16.8739029,NONE,False
2019-10-26 10:07:04.200,LG-H970,0.084,-1.121,10.117,41.1098352,16.8739029,NONE,False
2019-10-26 10:07:04.220,LG-H970,-0.346,-0.722,9.203,41.1098352,16.8739029,NONE,False
2019-10-26 10:07:04.240,LG-H970,0.017,-1.274,9.914,41.1098352,16.8739029,NONE,False
2019-10-26 10:07:04.260,LG-H970,-1.896,-1.179,9.212,41.1098352,16.8739029,NONE,False
2019-10-26 10:07:04.280,LG-H970,-0.182,-0.281,9.371,41.1098352,16.8739029,NONE,False
2019-10-26 10:07:04.300,LG-H970,-0.819,0.109,8.477,41.1098352,16.8739029,NONE,False
2019-10-26 10:07:04.320,LG-H970,-0.273,-0.187,9.253,41.1098352,16.8739029,NONE,False
2019-10-26 10:07:04.340,LG-H970,-1.249,-1.105,9.495,41.1098352,16.8739029,NONE,False
2019-10-26 10:07:04.360,LG-H970,-0.777,-1.344,9.564,41.1098352,16.8739029,NONE,False
2019-10-26 10:07:04.380,LG-H970,-0.144,-0.646,9.564,41.1098352,16.8739029,NONE,False
2019-10-26 10:07:04.400,LG-H970,-0.228,-0.918,10.191,41.1098352,16.8739029,NONE,False
2019-10-26 10:07:04.420,LG-H970,-0.478,-1.642,10.778,41.1098352,16.8739029,NONE,False
2019-10-26 10:07:04.440,LG-H970,0.258,-0.558,11.324,41.1098352,16.8739029,NONE,False
2019-10-26 10:07:04.460,LG-H970,-0.046,-0.034,8.816,41.1098352,16.8739029,NONE,False
2019-10-26 10:07:04.480,LG-H970,-0.206,0.333,10.282,41.1098352,16.8739029,NONE,False
2019-10-26 10:07:04.500,LG-H970,-0.806,-0.569,11.169,41.1098352,16.8739029,NONE,False
2019-10-26 10:07:04.520,LG-H970,1.276,-1.396,9.632,41.1098352,16.8739029,NONE,False
2019-10-26 10:07:04.540,LG-H970,-0.714,-0.937,10.59,41.1098352,16.8739029,NONE,False
2019-10-26 10:07:04.560,LG-H970,-1.326,-1.042,10.214,41.1098352,16.8739029,NONE,False
2019-10-26 10:07:04.580,LG-H970,-0.776,0.23,8.657,41.1098352,16.8739029,NONE,False
2019-10-26 10:07:04.600,LG-H970,0.131,0.724,9.057,41.1098352,16.8739029,NONE,False
2019-10-26 10:07:04.620,LG-H970,-0.055,-0.464,10.933,41.1098352,16.8739029,NONE,False
2019-10-26 10:07:04.640,LG-H970,-0.134,-1.246,11.224,41.1098352,16.8739029,NONE,False
