UTC_timestamp,device_name,x,y,z,lat,long,speed,event
2019-10-26 09:45:46.480,SmartbBox,-0.155,0.118,-1.045,0,0,0.0,False
2019-10-26 09:45:46.500,SmartbBox,-0.18,0.103,-1.047,0,0,0.0,False
2019-10-26 09:45:46.520,SmartbBox,-0.196,0.126,-1.022,0,0,0.0,False
2019-10-26 09:45:46.540,SmartbBox,-0.128,0.005,-0.963,0,0,0.0,False
2019-10-26 09:45:46.560,SmartbBox,-0.132,-0.034,-1.043,0,0,0.0,False
2019-10-26 09:45:46.580,SmartbBox,-0.136,-0.034,-0.99,0,0,0.0,False
2019-10-26 09:45:46.600,SmartbBox,-0.128,-0.059,-0.91,0,0,0.0,False
2019-10-26 09:45:46.620,SmartbBox,-0.059,-0.053,-0.958,0,0,0.0,False
2019-10-26 09:45:46.640,SmartbBox,-0.086,-0.004,-0.986,0,0,0.0,False
2019-10-26 09:45:46.660,SmartbBox,-0.169,0.015,-0.94,0,0,0.0,False
2019-10-26 09:45:46.680,SmartbBox,-0.156,0.094,-0.86,0,0,0.0,False
2019-10-26 09:45:46.700,SmartbBox,-0.188,0.143,-0.836,0,0,0.0,False
2019-10-26 09:45:46.720,SmartbBox,-0.188,0.143,-0.836,0,0,0.0,False
2019-10-26 09:45:46.740,SmartbBox,-0.171,0.118,-0.862,0,0,0.0,False
2019-10-26 09:45:46.760,SmartbBox,-0.118,0.084,-0.83,0,0,0.0,False
2019-10-26 09:45:46.780,SmartbBox,-0.061,0.05,-0.852,0,0,0.0,False
2019-10-26 09:45:46.800,SmartbBox,-0.055,-0.014,-0.878,0,0,0.0,False
2019-10-26 09:45:46.820,SmartbBox,-0.055,-0.014,-0.878,0,0,0.0,False
2019-10-26 09:45:46.840,SmartbBox,-0.093,-0.068,-0.854,0,0,0.0,False
2019-10-26 09:45:46.860,SmartbBox,-0.09,-0.004,-0.934,0,0,0.0,False
2019-10-26 09:45:46.880,SmartbBox,-0.078,-0.029,-0.906,0,0,0.0,False
2019-10-26 09:45:46.900,SmartbBox,-0.049,-0.014,-0.957,0,0,0.0,False
2019-10-26 09:45:46.920,SmartbBox,-0.126,-0.059,-0.936,0,0,0.0,False
2019-10-26 09:45:46.940,SmartbBox,-0.1,0.02,-0.988,0,0,0.0,False
2019-10-26 09:45:46.960,SmartbBox,-0.147,0.03,-0.912,0,0,0.0,False
2019-10-26 09:45:46.980,SmartbBox,-0.134,0.005,-0.884,0,0,0.0,False
2019-10-26 09:45:47.000,SmartbBox,-0.116,-0.02,-0.936,0,0,0.0,False
2019-10-26 09:45:47.020,SmartbBox,-0.13,-0.059,-0.884,0,0,0.0,False
2019-10-26 09:45:47.040,SmartbBox,-0.134,0.005,-0.884,0,0,0.0,False
2019-10-26 09:45:47.060,SmartbBox,-0.143,-0.034,-0.912,0,0,0.0,False
2019-10-26 09:45:47.080,SmartbBox,-0.135,-0.059,-0.831,0,0,0.0,False
2019-10-26 09:45:47.100,SmartbBox,-0.128,-0.02,-0.778,0,0,0.0,False
2019-10-26 09:45:47.120,SmartbBox,-0.1,-0.004,-0.828,0,0,0.0,False
2019-10-26 09:45:47.140,SmartbBox,-0.066,-0.053,-0.879,0,0,0.0,False
2019-10-26 09:45:47.160,SmartbBox,-0.107,0.02,-0.909,0,0,0.0,False
2019-10-26 09:45:47.180,SmartbBox,-0.166,0.054,-0.86,0,0,0.0,False
2019-10-26 09:45:47.200,SmartbBox,-0.152,0.03,-0.859,0,0,0.0,False
2019-10-26 09:45:47.220,SmartbBox,-0.131,0.045,-0.805,0,0,0.0,False
2019-10-26 09:45:47.240,SmartbBox,-0.126,0.109,-0.911,0,0,0.0,False
2019-10-26 09:45:47.260,SmartbBox,-0.113,-0.02,-0.962,0,0,0.0,False
2019-10-26 09:45:47.280,SmartbBox,-0.1,0.02,-0.988,0,0,0.0,False
2019-10-26 09:45:47.300,SmartbBox,-0.088,-0.004,-0.96,0,0,0.0,False
2019-10-26 09:45:47.320,SmartbBox,-0.1,0.02,-0.988,0,0,0.0,False
2019-10-26 09:45:47.340,SmartbBox,-0.163,0.015,-1.02,0,0,0.0,False
2019-10-26 09:45:47.360,SmartbBox,-0.111,-0.02,-0.988,0,0,0.0,False
2019-10-26 09:45:47.380,SmartbBox,-0.072,0.035,-1.038,0,0,0.0,False
2019-10-26 09:45:47.400,SmartbBox,-0.04,0.05,-1.114,0,0,0.0,False
2019-10-26 09:45:47.420,SmartbBox,-0.142,0.054,-1.15,0,0,0.0,False
2019-10-26 09:45:47.440,SmartbBox,-0.174,0.039,-1.074,0,0,0.0,False
2019-10-26 09:45:47.460,SmartbBox,-0.103,0.02,-0.961,0,0,0.0,False
2019-10-26 09:45:47.480,SmartbBox,-0.14,-0.034,-0.938,0,0,0.0,False
2019-10-26 09:45:47.500,SmartbBox,-0.1,0.02,-0.988,0,0,0.0,False
2019-10-26 09:45:47.520,SmartbBox,-0.162,0.054,-0.914,0,0,0.0,False
2019-10-26 09:45:47.540,SmartbBox,-0.156,0.03,-0.807,0,0,0.0,False
2019-10-26 09:45:47.560,SmartbBox,-0.151,0.07,-0.754,0,0,0.0,False
2019-10-26 09:45:47.580,SmartbBox,-0.066,0.05,-0.8,0,0,0.0,False
2019-10-26 09:45:47.600,SmartbBox,-0.054,0.09,-0.825,0,0,0.0,False
2019-10-26 09:45:47.620,SmartbBox,-0.022,0.002,-0.981,0,0,0.0,False
2019-10-26 09:45:47.640,SmartbBox,-0.012,-0.023,-0.927,0,0,0.0,False
2019-10-26 09:45:47.660,SmartbBox,0.008,0.056,-0.899,0,0,0.0,False
2019-10-26 09:45:47.680,SmartbBox,0.05,0.214,-0.922,0,0,0.0,False
2019-10-26 09:45:47.700,SmartbBox,0.048,0.071,-1.081,0,0,0.0,False
2019-10-26 09:45:47.720,SmartbBox,-0.142,0.029,-0.965,0,0,0.0,False
2019-10-26 09:45:47.740,SmartbBox,-0.107,0.084,-0.962,0,0,0.0,False
2019-10-26 09:45:47.760,SmartbBox,-0.143,0.094,-1.018,0,0,0.0,False
2019-10-26 09:45:47.780,SmartbBox,-0.162,0.118,-0.966,0,0,0.0,False
2019-10-26 09:45:47.800,SmartbBox,-0.304,0.17,-0.873,0,0,0.0,False
2019-10-26 09:45:47.820,SmartbBox,-0.344,0.18,-0.876,0,0,0.0,False
2019-10-26 09:45:47.840,SmartbBox,-0.19,0.143,-0.81,0,0,0.0,False
2019-10-26 09:45:47.860,SmartbBox,-0.154,0.03,-0.833,0,0,0.0,False
2019-10-26 09:45:47.880,SmartbBox,-0.164,-0.01,-0.834,0,0,0.0,False
2019-10-26 09:45:47.900,SmartbBox,-0.164,-0.01,-0.834,0,0,0.0,False
2019-10-26 09:45:47.920,SmartbBox,-0.108,-0.044,-0.856,0,0,0.0,False
2019-10-26 09:45:47.940,SmartbBox,-0.095,-0.068,-0.828,0,0,0.0,False
2019-10-26 09:45:47.960,SmartbBox,-0.146,-0.058,-0.7,0,0,0.0,False
2019-10-26 09:45:47.980,SmartbBox,-0.092,-0.028,-0.748,0,0,0.0,True
2019-10-26 09:45:48.000,SmartbBox,-0.041,-0.038,-0.876,0,0,0.0,False
2019-10-26 09:45:48.020,SmartbBox,-0.095,-0.004,-0.882,0,0,0.0,False
2019-10-26 09:45:48.040,SmartbBox,-0.07,0.011,-0.879,0,0,0.0,False
2019-10-26 09:45:48.060,SmartbBox,-0.072,-0.029,-0.985,0,0,0.0,False
2019-10-26 09:45:48.080,SmartbBox,-0.072,-0.029,-0.985,0,0,0.0,False
2019-10-26 09:45:48.100,SmartbBox,-0.07,-0.052,-0.826,0,0,0.0,False
2019-10-26 09:45:48.120,SmartbBox,-0.106,-0.108,-0.829,0,0,0.0,False
2019-10-26 09:45:48.140,SmartbBox,-0.03,-0.102,-0.954,0,0,0.0,False
2019-10-26 09:45:48.160,SmartbBox,-0.074,-0.028,-0.958,0,0,0.0,False
2019-10-26 09:45:48.180,SmartbBox,-0.069,0.035,-1.064,0,0,0.0,False
2019-10-26 09:45:48.200,SmartbBox,-0.024,0.065,-1.008,0,0,0.0,False
2019-10-26 09:45:48.220,SmartbBox,-0.024,0.065,-1.008,0,0,0.0,False
2019-10-26 09:45:48.240,SmartbBox,-0.086,0.06,-1.039,0,0,0.0,False
2019-10-26 09:45:48.260,SmartbBox,0.025,0.056,-1.11,0,0,0.0,False
2019-10-26 09:45:48.280,SmartbBox,-0.072,0.035,-1.038,0,0,0.0,False
2019-10-26 09:45:48.300,SmartbBox,-0.001,0.08,-0.98,0,0,0.0,False
2019-10-26 09:45:48.320,SmartbBox,0.04,0.047,-0.816,0,0,0.0,False
2019-10-26 09:45:48.340,SmartbBox,0.016,0.008,-0.66,0,0,0.0,False
2019-10-26 09:45:48.360,SmartbBox,0.102,0.093,-0.653,0,0,0.0,False
2019-10-26 09:45:48.380,SmartbBox,0.143,0.171,-0.888,0,0,0.0,False
2019-10-26 09:45:48.400,SmartbBox,0.134,0.196,-0.968,0,0,0.0,False
2019-10-26 09:45:48.420,SmartbBox,0.136,0.426,-1.022,0,0,0.0,False
2019-10-26 09:45:48.440,SmartbBox,0.271,0.526,-1.3,0,0,0.0,False
2019-10-26 09:45:48.460,SmartbBox,-0.074,0.394,-1.145,0,0,0.0,False
2019-10-26 09:45:48.480,SmartbBox,-0.169,0.269,-1.152,0,0,0.0,False
2019-10-26 09:45:48.500,SmartbBox,0.082,0.165,-0.946,0,0,0.0,False
2019-10-26 09:45:48.520,SmartbBox,-0.014,0.081,-0.822,0,0,0.0,False
2019-10-26 09:45:48.540,SmartbBox,-0.145,0.03,-0.938,0,0,0.0,False
2019-10-26 09:45:48.560,SmartbBox,-0.116,0.02,-0.804,0,0,0.0,False
2019-10-26 09:45:48.580,SmartbBox,-0.046,0.002,-0.692,0,0,0.0,False
2019-10-26 09:45:48.600,SmartbBox,-0.071,-0.013,-0.694,0,0,0.0,False
2019-10-26 09:45:48.620,SmartbBox,-0.094,0.036,-0.776,0,0,0.0,False
2019-10-26 09:45:48.640,SmartbBox,-0.104,-0.004,-0.776,0,0,0.0,False
2019-10-26 09:45:48.660,SmartbBox,-0.037,0.002,-0.797,0,0,0.0,False
2019-10-26 09:45:48.680,SmartbBox,-0.035,0.002,-0.824,0,0,0.0,False
2019-10-26 09:45:48.700,SmartbBox,0.007,-0.008,-0.846,0,0,0.0,False
2019-10-26 09:45:48.720,SmartbBox,-0.026,-0.062,-0.875,0,0,0.0,False
2019-10-26 09:45:48.740,SmartbBox,-0.006,0.017,-0.874,0,0,0.0,False
2019-10-26 09:45:48.760,SmartbBox,0.024,0.032,-0.924,0,0,0.0,False
2019-10-26 09:45:48.780,SmartbBox,0.026,0.032,-0.95,0,0,0.0,False
2019-10-26 09:45:48.800,SmartbBox,0.026,0.032,-0.95,0,0,0.0,False
2019-10-26 09:45:48.820,SmartbBox,0.049,0.047,-0.922,0,0,0.0,False
2019-10-26 09:45:48.840,SmartbBox,0.168,0.082,-0.965,0,0,0.0,False
2019-10-26 09:45:48.860,SmartbBox,0.156,0.107,-0.992,0,0,0.0,False
2019-10-26 09:45:48.880,SmartbBox,0.162,0.107,-1.071,0,0,0.0,False
2019-10-26 09:45:48.900,SmartbBox,0.083,0.062,-1.025,0,0,0.0,False
2019-10-26 09:45:48.920,SmartbBox,0.156,0.107,-0.992,0,0,0.0,False
2019-10-26 09:45:48.940,SmartbBox,0.076,0.062,-0.946,0,0,0.0,False
2019-10-26 09:45:48.960,SmartbBox,0.064,0.086,-0.974,0,0,0.0,False
2019-10-26 09:45:48.980,SmartbBox,-0.037,0.066,-0.85,0,0,0.0,False
2019-10-26 09:45:49.000,SmartbBox,-0.048,0.09,-0.904,0,0,0.0,False
2019-10-26 09:45:49.020,SmartbBox,-0.091,0.099,-0.855,0,0,0.0,False
2019-10-26 09:45:49.040,SmartbBox,-0.062,0.114,-0.905,0,0,0.0,False
2019-10-26 09:45:49.060,SmartbBox,-0.114,0.084,-0.883,0,0,0.0,False
2019-10-26 09:45:49.080,SmartbBox,-0.084,0.099,-0.934,0,0,0.0,False
2019-10-26 09:45:49.100,SmartbBox,-0.045,0.09,-0.93,0,0,0.0,False
2019-10-26 09:45:49.120,SmartbBox,-0.026,0.065,-0.982,0,0,0.0,False
2019-10-26 09:45:49.140,SmartbBox,-0.013,0.041,-0.954,0,0,0.0,False
2019-10-26 09:45:49.160,SmartbBox,-0.026,0.002,-0.928,0,0,0.0,False
2019-10-26 09:45:49.180,SmartbBox,-0.013,0.041,-0.954,0,0,0.0,False
2019-10-26 09:45:49.200,SmartbBox,0.001,0.017,-0.952,0,0,0.0,False
2019-10-26 09:45:49.220,SmartbBox,-0.001,0.017,-0.926,0,0,0.0,False
2019-10-26 09:45:49.240,SmartbBox,0.049,0.047,-0.922,0,0,0.0,False
2019-10-26 09:45:49.260,SmartbBox,0.032,0.072,-0.897,0,0,0.0,False
2019-10-26 09:45:49.280,SmartbBox,0.086,0.102,-0.946,0,0,0.0,False
2019-10-26 09:45:49.300,SmartbBox,0.057,0.086,-0.895,0,0,0.0,False
2019-10-26 09:45:49.320,SmartbBox,0.094,0.077,-0.866,0,0,0.0,False
2019-10-26 09:45:49.340,SmartbBox,0.092,0.077,-0.839,0,0,0.0,False
2019-10-26 09:45:49.360,SmartbBox,0.09,0.077,-0.812,0,0,0.0,False
2019-10-26 09:45:49.380,SmartbBox,0.072,0.062,-0.894,0,0,0.0,False
2019-10-26 09:45:49.400,SmartbBox,0.008,0.096,-0.793,0,0,0.0,False
2019-10-26 09:45:49.420,SmartbBox,0.026,0.072,-0.818,0,0,0.0,False
2019-10-26 09:45:49.440,SmartbBox,-0.023,0.042,-0.848,0,0,0.0,False
2019-10-26 09:45:49.460,SmartbBox,-0.008,0.017,-0.848,0,0,0.0,False
