UTC_timestamp,device_name,x,y,z,lat,long,speed,event
2019-10-26 10:40:49.480,SmartbBox,-0.038,-0.038,-0.903,0,0,0.0,False
2019-10-26 10:40:49.500,SmartbBox,0.108,0.013,-0.97,0,0,0.0,False
2019-10-26 10:40:49.520,SmartbBox,-0.084,0.059,-1.066,0,0,0.0,False
2019-10-26 10:40:49.540,SmartbBox,-0.068,-0.053,-0.852,0,0,0.0,False
2019-10-26 10:40:49.560,SmartbBox,0.002,-0.047,-0.9,0,0,0.0,False
2019-10-26 10:40:49.580,SmartbBox,0.003,-0.047,-0.926,0,0,0.0,False
2019-10-26 10:40:49.600,SmartbBox,-0.019,0.001,-1.007,0,0,0.0,False
2019-10-26 10:40:49.620,SmartbBox,-0.017,0.001,-1.034,0,0,0.0,False
2019-10-26 10:40:49.640,SmartbBox,-0.009,-0.023,-0.954,0,0,0.0,False
2019-10-26 10:40:49.660,SmartbBox,0.023,-0.072,-0.977,0,0,0.0,False
2019-10-26 10:40:49.680,SmartbBox,0.016,0.056,-1.004,0,0,0.0,False
2019-10-26 10:40:49.700,SmartbBox,-0.024,0.002,-0.955,0,0,0.0,False
2019-10-26 10:40:49.720,SmartbBox,-0.026,0.002,-0.929,0,0,0.0,False
2019-10-26 10:40:49.740,SmartbBox,-0.028,0.066,-0.955,0,0,0.0,False
2019-10-26 10:40:49.760,SmartbBox,0.005,-0.048,-0.952,0,0,0.0,False
2019-10-26 10:40:49.780,SmartbBox,-0.153,-0.074,-0.913,0,0,0.0,False
2019-10-26 10:40:49.800,SmartbBox,-0.02,0.042,-0.875,0,0,0.0,False
2019-10-26 10:40:49.820,SmartbBox,-0.18,0.182,-0.809,0,0,0.0,False
2019-10-26 10:40:49.840,SmartbBox,0.246,-0.016,-1.196,0,0,0.0,False
2019-10-26 10:40:49.860,SmartbBox,0.056,0.062,-0.71,0,0,0.0,False
2019-10-26 10:40:49.880,SmartbBox,0.003,0.12,-0.9,0,0,0.0,False
2019-10-26 10:40:49.900,SmartbBox,0.037,0.072,-0.949,0,0,0.0,False
2019-10-26 10:40:49.920,SmartbBox,0.124,0.028,-0.862,0,0,0.0,False
2019-10-26 10:40:49.940,SmartbBox,-0.011,0.04,-0.98,0,0,0.0,False
2019-10-26 10:40:49.960,SmartbBox,-0.098,0.02,-1.014,0,0,0.0,False
2019-10-26 10:40:49.980,SmartbBox,-0.05,0.09,-0.878,0,0,0.0,False
2019-10-26 10:40:50.000,SmartbBox,-0.067,-0.029,-1.038,0,0,0.0,False
2019-10-26 10:40:50.020,SmartbBox,-0.076,0.035,-0.985,0,0,0.0,False
2019-10-26 10:40:50.040,SmartbBox,-0.062,0.05,-0.852,0,0,0.0,False
2019-10-26 10:40:50.060,SmartbBox,-0.043,0.026,-0.903,0,0,0.0,False
2019-10-26 10:40:50.080,SmartbBox,-0.15,0.054,-1.045,0,0,0.0,False
2019-10-26 10:40:50.100,SmartbBox,0.031,0.032,-1.002,0,0,0.0,False
2019-10-26 10:40:50.120,SmartbBox,-0.049,-0.014,-0.956,0,0,0.0,False
2019-10-26 10:40:50.140,SmartbBox,0.034,0.008,-0.87,0,0,0.0,False
2019-10-26 10:40:50.160,SmartbBox,-0.03,0.026,-1.061,0,0,0.0,False
2019-10-26 10:40:50.180,SmartbBox,-0.049,-0.078,-0.904,0,0,0.0,False
2019-10-26 10:40:50.200,SmartbBox,0.054,0.023,-0.816,0,0,0.0,False
2019-10-26 10:40:50.220,SmartbBox,0.02,-0.008,-1.004,0,0,0.0,False
2019-10-26 10:40:50.240,SmartbBox,-0.068,0.01,-0.906,0,0,0.0,False
2019-10-26 10:40:50.260,SmartbBox,-0.046,0.026,-0.877,0,0,0.0,False
2019-10-26 10:40:50.280,SmartbBox,-0.074,-0.029,-0.958,0,0,0.0,False
2019-10-26 10:40:50.300,SmartbBox,0.028,0.032,-0.977,0,0,0.0,False
2019-10-26 10:40:50.320,SmartbBox,-0.08,-0.068,-1.012,0,0,0.0,False
2019-10-26 10:40:50.340,SmartbBox,-0.01,0.081,-0.874,0,0,0.0,False
2019-10-26 10:40:50.360,SmartbBox,0.104,0.141,-1.024,0,0,0.0,False
2019-10-26 10:40:50.380,SmartbBox,0.076,0.126,-0.999,0,0,0.0,False
2019-10-26 10:40:50.400,SmartbBox,0.02,0.032,-0.871,0,0,0.0,False
2019-10-26 10:40:50.420,SmartbBox,0.055,0.086,-0.868,0,0,0.0,False
2019-10-26 10:40:50.440,SmartbBox,0.018,-0.008,-0.978,0,0,0.0,False
2019-10-26 10:40:50.460,SmartbBox,0.091,0.038,-0.945,0,0,0.0,False
2019-10-26 10:40:50.480,SmartbBox,0.067,0.126,-0.894,0,0,0.0,False
2019-10-26 10:40:50.500,SmartbBox,-0.066,0.114,-0.852,0,0,0.0,False
2019-10-26 10:40:50.520,SmartbBox,0.231,-0.015,-1.012,0,0,0.0,False
2019-10-26 10:40:50.540,SmartbBox,0.002,0.08,-1.006,0,0,0.0,False
2019-10-26 10:40:50.560,SmartbBox,0.002,0.12,-0.9,0,0,0.0,False
2019-10-26 10:40:50.580,SmartbBox,-0.022,0.041,-0.848,0,0,0.0,False
2019-10-26 10:40:50.600,SmartbBox,0.062,-0.017,-1.026,0,0,0.0,False
2019-10-26 10:40:50.620,SmartbBox,-0.09,0.123,-1.04,0,0,0.0,False
2019-10-26 10:40:50.640,SmartbBox,-0.02,0.041,-0.875,0,0,0.0,False
2019-10-26 10:40:50.660,SmartbBox,-0.144,0.133,-0.886,0,0,0.0,False
2019-10-26 10:40:50.680,SmartbBox,-0.052,0.154,-0.904,0,0,0.0,False
2019-10-26 10:40:50.700,SmartbBox,-0.092,0.163,-0.908,0,0,0.0,False
2019-10-26 10:40:50.720,SmartbBox,0.008,0.08,-1.084,0,0,0.0,False
2019-10-26 10:40:50.740,SmartbBox,0.063,0.19,-0.895,0,0,0.0,False
2019-10-26 10:40:50.760,SmartbBox,0.009,0.16,-0.846,0,0,0.0,False
2019-10-26 10:40:50.780,SmartbBox,-0.028,0.065,-0.955,0,0,0.0,False
2019-10-26 10:40:50.800,SmartbBox,-0.022,0.105,-0.902,0,0,0.0,False
2019-10-26 10:40:50.820,SmartbBox,-0.044,0.09,-0.93,0,0,0.0,False
2019-10-26 10:40:50.840,SmartbBox,-0.032,0.066,-0.903,0,0,0.0,False
2019-10-26 10:40:50.860,SmartbBox,0.001,0.016,-0.952,0,0,0.0,False
2019-10-26 10:40:50.880,SmartbBox,-0.07,-0.052,-0.826,0,0,0.0,False
2019-10-26 10:40:50.900,SmartbBox,-0.036,-0.038,-0.929,0,0,0.0,False
2019-10-26 10:40:50.920,SmartbBox,0.096,-0.066,-1.076,0,0,0.0,False
2019-10-26 10:40:50.940,SmartbBox,-0.108,0.124,-0.83,0,0,0.0,False
2019-10-26 10:40:50.960,SmartbBox,-0.07,0.011,-0.879,0,0,0.0,False
2019-10-26 10:40:50.980,SmartbBox,-0.111,-0.083,-0.936,0,0,0.0,True
2019-10-26 10:40:51.000,SmartbBox,-0.096,-0.148,-1.066,0,0,0.0,False
2019-10-26 10:40:51.020,SmartbBox,-0.081,0.012,-0.748,0,0,0.0,False
2019-10-26 10:40:51.040,SmartbBox,-0.033,0.002,-0.849,0,0,0.0,False
2019-10-26 10:40:51.060,SmartbBox,0.01,-0.048,-1.004,0,0,0.0,False
2019-10-26 10:40:51.080,SmartbBox,-0.011,-0.023,-0.927,0,0,0.0,False
2019-10-26 10:40:51.100,SmartbBox,0.016,-0.008,-0.951,0,0,0.0,False
2019-10-26 10:40:51.120,SmartbBox,-0.003,-0.047,-0.846,0,0,0.0,False
2019-10-26 10:40:51.140,SmartbBox,-0.024,0.002,-0.954,0,0,0.0,False
2019-10-26 10:40:51.160,SmartbBox,-0.042,-0.014,-1.035,0,0,0.0,False
2019-10-26 10:40:51.180,SmartbBox,0.009,-0.072,-0.819,0,0,0.0,False
2019-10-26 10:40:51.200,SmartbBox,-0.043,0.026,-0.904,0,0,0.0,False
2019-10-26 10:40:51.220,SmartbBox,-0.166,0.07,-0.57,0,0,0.0,False
2019-10-26 10:40:51.240,SmartbBox,-0.176,-0.153,-0.888,0,0,0.0,False
2019-10-26 10:40:51.260,SmartbBox,0.025,-0.008,-1.056,0,0,0.0,False
2019-10-26 10:40:51.280,SmartbBox,-0.007,0.041,-1.032,0,0,0.0,False
2019-10-26 10:40:51.300,SmartbBox,-0.16,-0.01,-0.887,0,0,0.0,False
2019-10-26 10:40:51.320,SmartbBox,-0.015,0.041,-0.928,0,0,0.0,False
2019-10-26 10:40:51.340,SmartbBox,-0.036,0.026,-0.982,0,0,0.0,False
2019-10-26 10:40:51.360,SmartbBox,-0.032,0.002,-0.85,0,0,0.0,False
2019-10-26 10:40:51.380,SmartbBox,0.046,0.007,-1.002,0,0,0.0,False
2019-10-26 10:40:51.400,SmartbBox,-0.07,0.011,-0.88,0,0,0.0,False
2019-10-26 10:40:51.420,SmartbBox,0.039,0.007,-0.923,0,0,0.0,False
2019-10-26 10:40:51.440,SmartbBox,0.057,0.086,-0.895,0,0,0.0,False
2019-10-26 10:40:51.460,SmartbBox,-0.018,0.041,-0.901,0,0,0.0,False
2019-10-26 10:40:51.480,SmartbBox,0.016,0.056,-1.004,0,0,0.0,False
2019-10-26 10:40:51.500,SmartbBox,-0.026,0.002,-0.928,0,0,0.0,False
2019-10-26 10:40:51.520,SmartbBox,0.074,-0.042,-0.999,0,0,0.0,False
2019-10-26 10:40:51.540,SmartbBox,-0.036,0.026,-0.982,0,0,0.0,False
2019-10-26 10:40:51.560,SmartbBox,0.016,-0.008,-0.952,0,0,0.0,False
2019-10-26 10:40:51.580,SmartbBox,0.012,-0.008,-0.899,0,0,0.0,False
2019-10-26 10:40:51.600,SmartbBox,0.005,-0.048,-0.952,0,0,0.0,False
2019-10-26 10:40:51.620,SmartbBox,-0.046,-0.078,-0.93,0,0,0.0,False
2019-10-26 10:40:51.640,SmartbBox,0.087,-0.13,-0.918,0,0,0.0,False
2019-10-26 10:40:51.660,SmartbBox,0.0,0.056,-0.82,0,0,0.0,False
2019-10-26 10:40:51.680,SmartbBox,0.014,-0.008,-0.924,0,0,0.0,False
2019-10-26 10:40:51.700,SmartbBox,0.006,-0.111,-0.899,0,0,0.0,False
2019-10-26 10:40:51.720,SmartbBox,-0.034,0.026,-1.009,0,0,0.0,False
2019-10-26 10:40:51.740,SmartbBox,0.037,0.135,-1.002,0,0,0.0,False
2019-10-26 10:40:51.760,SmartbBox,0.01,0.096,-0.82,0,0,0.0,False
2019-10-26 10:40:51.780,SmartbBox,0.006,0.016,-1.005,0,0,0.0,False
2019-10-26 10:40:51.800,SmartbBox,-0.02,0.105,-0.928,0,0,0.0,False
2019-10-26 10:40:51.820,SmartbBox,-0.034,0.13,-0.93,0,0,0.0,False
2019-10-26 10:40:51.840,SmartbBox,0.083,0.062,-1.025,0,0,0.0,False
2019-10-26 10:40:51.860,SmartbBox,-0.074,0.011,-0.826,0,0,0.0,False
2019-10-26 10:40:51.880,SmartbBox,0.168,0.004,-1.203,0,0,0.0,False
2019-10-26 10:40:51.900,SmartbBox,-0.137,0.069,-0.912,0,0,0.0,False
2019-10-26 10:40:51.920,SmartbBox,0.039,0.008,-0.923,0,0,0.0,False
2019-10-26 10:40:51.940,SmartbBox,0.052,0.046,-0.948,0,0,0.0,False
2019-10-26 10:40:51.960,SmartbBox,-0.025,0.042,-0.822,0,0,0.0,False
2019-10-26 10:40:51.980,SmartbBox,-0.116,0.084,-0.857,0,0,0.0,False
2019-10-26 10:40:52.000,SmartbBox,0.057,-0.041,-0.788,0,0,0.0,False
2019-10-26 10:40:52.020,SmartbBox,0.024,0.032,-0.924,0,0,0.0,False
2019-10-26 10:40:52.040,SmartbBox,-0.016,-0.022,-0.874,0,0,0.0,False
2019-10-26 10:40:52.060,SmartbBox,-0.006,0.184,-0.848,0,0,0.0,False
2019-10-26 10:40:52.080,SmartbBox,-0.06,0.05,-0.878,0,0,0.0,False
2019-10-26 10:40:52.100,SmartbBox,-0.039,0.13,-0.876,0,0,0.0,False
2019-10-26 10:40:52.120,SmartbBox,0.078,0.022,-1.078,0,0,0.0,False
2019-10-26 10:40:52.140,SmartbBox,-0.05,-0.117,-1.01,0,0,0.0,False
2019-10-26 10:40:52.160,SmartbBox,-0.006,0.057,-0.742,0,0,0.0,False
2019-10-26 10:40:52.180,SmartbBox,-0.033,0.169,-0.823,0,0,0.0,False
2019-10-26 10:40:52.200,SmartbBox,-0.014,0.041,-0.954,0,0,0.0,False
2019-10-26 10:40:52.220,SmartbBox,-0.02,0.041,-0.874,0,0,0.0,False
2019-10-26 10:40:52.240,SmartbBox,0.078,0.062,-0.972,0,0,0.0,False
2019-10-26 10:40:52.260,SmartbBox,-0.046,-0.038,-0.824,0,0,0.0,False
2019-10-26 10:40:52.280,SmartbBox,0.147,0.171,-0.941,0,0,0.0,False
2019-10-26 10:40:52.300,SmartbBox,0.046,0.047,-0.896,0,0,0.0,False
2019-10-26 10:40:52.320,SmartbBox,0.009,-0.008,-0.872,0,0,0.0,False
2019-10-26 10:40:52.340,SmartbBox,0.216,0.113,-0.934,0,0,0.0,False
2019-10-26 10:40:52.360,SmartbBox,0.076,0.165,-0.867,0,0,0.0,False
2019-10-26 10:40:52.380,SmartbBox,0.164,0.083,-0.912,0,0,0.0,False
2019-10-26 10:40:52.400,SmartbBox,0.206,0.137,-0.988,0,0,0.0,False
2019-10-26 10:40:52.420,SmartbBox,0.138,0.132,-0.968,0,0,0.0,False
2019-10-26 10:40:52.440,SmartbBox,0.134,0.132,-0.915,0,0,0.0,False
2019-10-26 10:40:52.460,SmartbBox,0.147,0.171,-0.94,0,0,0.0,False
