UTC_timestamp,device_name,x,y,z,lat,long,speed,event
2019-10-24 16:52:08.480,SmartbBox,-0.112,-0.044,-0.803,0,0,0.0,False
2019-10-24 16:52:08.500,SmartbBox,-0.139,-0.059,-0.779,0,0,0.0,False
2019-10-24 16:52:08.520,SmartbBox,-0.055,-0.014,-0.878,0,0,0.0,False
2019-10-24 16:52:08.540,SmartbBox,-0.076,-0.029,-0.932,0,0,0.0,False
2019-10-24 16:52:08.560,SmartbBox,-0.126,-0.059,-0.936,0,0,0.0,False
2019-10-24 16:52:08.580,SmartbBox,-0.048,-0.014,-0.957,0,0,0.0,False
2019-10-24 16:52:08.600,SmartbBox,-0.12,-0.02,-0.883,0,0,0.0,False
2019-10-24 16:52:08.620,SmartbBox,-0.087,-0.005,-0.986,0,0,0.0,False
2019-10-24 16:52:08.640,SmartbBox,-0.116,-0.02,-0.936,0,0,0.0,False
2019-10-24 16:52:08.660,SmartbBox,-0.114,-0.02,-0.962,0,0,0.0,False
2019-10-24 16:52:08.680,SmartbBox,-0.114,-0.02,-0.962,0,0,0.0,False
2019-10-24 16:52:08.700,SmartbBox,-0.076,-0.029,-0.932,0,0,0.0,False
2019-10-24 16:52:08.720,SmartbBox,-0.062,0.011,-0.984,0,0,0.0,False
2019-10-24 16:52:08.740,SmartbBox,-0.086,-0.004,-0.986,0,0,0.0,False
2019-10-24 16:52:08.760,SmartbBox,-0.059,0.011,-1.01,0,0,0.0,False
2019-10-24 16:52:08.780,SmartbBox,-0.088,-0.005,-0.96,0,0,0.0,False
2019-10-24 16:52:08.800,SmartbBox,-0.088,-0.005,-0.96,0,0,0.0,False
2019-10-24 16:52:08.820,SmartbBox,-0.074,-0.029,-0.959,0,0,0.0,False
2019-10-24 16:52:08.840,SmartbBox,-0.049,-0.014,-0.957,0,0,0.0,False
2019-10-24 16:52:08.860,SmartbBox,-0.074,-0.029,-0.959,0,0,0.0,False
2019-10-24 16:52:08.880,SmartbBox,-0.051,-0.014,-0.931,0,0,0.0,False
2019-10-24 16:52:08.900,SmartbBox,-0.078,0.035,-0.959,0,0,0.0,False
2019-10-24 16:52:08.920,SmartbBox,-0.116,-0.02,-0.936,0,0,0.0,False
2019-10-24 16:52:08.940,SmartbBox,-0.076,-0.029,-0.932,0,0,0.0,False
2019-10-24 16:52:08.960,SmartbBox,-0.088,-0.004,-0.96,0,0,0.0,False
2019-10-24 16:52:08.980,SmartbBox,-0.051,-0.014,-0.931,0,0,0.0,False
2019-10-24 16:52:09.000,SmartbBox,-0.088,-0.004,-0.96,0,0,0.0,False
2019-10-24 16:52:09.020,SmartbBox,-0.051,-0.014,-0.931,0,0,0.0,False
2019-10-24 16:52:09.040,SmartbBox,-0.064,0.011,-0.958,0,0,0.0,False
2019-10-24 16:52:09.060,SmartbBox,-0.13,0.005,-0.937,0,0,0.0,False
2019-10-24 16:52:09.080,SmartbBox,-0.132,0.005,-0.911,0,0,0.0,False
2019-10-24 16:52:09.100,SmartbBox,-0.092,-0.005,-0.908,0,0,0.0,False
2019-10-24 16:52:09.120,SmartbBox,-0.067,0.011,-0.906,0,0,0.0,False
2019-10-24 16:52:09.140,SmartbBox,-0.053,-0.014,-0.904,0,0,0.0,False
2019-10-24 16:52:09.160,SmartbBox,-0.051,-0.014,-0.931,0,0,0.0,False
2019-10-24 16:52:09.180,SmartbBox,-0.08,-0.029,-0.88,0,0,0.0,False
2019-10-24 16:52:09.200,SmartbBox,-0.053,-0.014,-0.904,0,0,0.0,False
2019-10-24 16:52:09.220,SmartbBox,-0.053,-0.014,-0.904,0,0,0.0,False
2019-10-24 16:52:09.240,SmartbBox,-0.097,-0.004,-0.855,0,0,0.0,False
2019-10-24 16:52:09.260,SmartbBox,-0.067,0.011,-0.906,0,0,0.0,False
2019-10-24 16:52:09.280,SmartbBox,-0.055,-0.014,-0.878,0,0,0.0,False
2019-10-24 16:52:09.300,SmartbBox,-0.043,0.026,-0.903,0,0,0.0,False
2019-10-24 16:52:09.320,SmartbBox,-0.078,0.035,-0.959,0,0,0.0,False
2019-10-24 16:52:09.340,SmartbBox,-0.053,-0.014,-0.904,0,0,0.0,False
2019-10-24 16:52:09.360,SmartbBox,-0.028,0.002,-0.902,0,0,0.0,False
2019-10-24 16:52:09.380,SmartbBox,-0.064,-0.054,-0.905,0,0,0.0,False
2019-10-24 16:52:09.400,SmartbBox,-0.054,-0.014,-0.905,0,0,0.0,False
2019-10-24 16:52:09.420,SmartbBox,-0.064,-0.054,-0.905,0,0,0.0,False
2019-10-24 16:52:09.440,SmartbBox,-0.038,-0.038,-0.903,0,0,0.0,False
2019-10-24 16:52:09.460,SmartbBox,-0.051,-0.014,-0.931,0,0,0.0,False
2019-10-24 16:52:09.480,SmartbBox,-0.104,-0.044,-0.908,0,0,0.0,False
2019-10-24 16:52:09.500,SmartbBox,-0.078,-0.092,-0.853,0,0,0.0,False
2019-10-24 16:52:09.520,SmartbBox,-0.051,-0.077,-0.877,0,0,0.0,False
2019-10-24 16:52:09.540,SmartbBox,-0.038,-0.038,-0.902,0,0,0.0,False
2019-10-24 16:52:09.560,SmartbBox,-0.076,-0.029,-0.932,0,0,0.0,False
2019-10-24 16:52:09.580,SmartbBox,-0.074,-0.029,-0.958,0,0,0.0,False
2019-10-24 16:52:09.600,SmartbBox,-0.067,0.011,-0.906,0,0,0.0,False
2019-10-24 16:52:09.620,SmartbBox,-0.049,-0.014,-0.957,0,0,0.0,False
2019-10-24 16:52:09.640,SmartbBox,-0.049,-0.014,-0.957,0,0,0.0,False
2019-10-24 16:52:09.660,SmartbBox,-0.074,-0.029,-0.958,0,0,0.0,False
2019-10-24 16:52:09.680,SmartbBox,0.008,-0.047,-0.978,0,0,0.0,False
2019-10-24 16:52:09.700,SmartbBox,-0.032,-0.038,-0.982,0,0,0.0,False
2019-10-24 16:52:09.720,SmartbBox,-0.082,-0.068,-0.986,0,0,0.0,False
2019-10-24 16:52:09.740,SmartbBox,-0.007,-0.086,-0.926,0,0,0.0,False
2019-10-24 16:52:09.760,SmartbBox,-0.032,-0.038,-0.982,0,0,0.0,False
2019-10-24 16:52:09.780,SmartbBox,-0.028,-0.038,-1.034,0,0,0.0,False
2019-10-24 16:52:09.800,SmartbBox,0.015,-0.048,-1.057,0,0,0.0,False
2019-10-24 16:52:09.820,SmartbBox,-0.004,-0.024,-1.006,0,0,0.0,False
2019-10-24 16:52:09.840,SmartbBox,0.008,-0.047,-0.978,0,0,0.0,False
2019-10-24 16:52:09.860,SmartbBox,-0.036,-0.038,-0.929,0,0,0.0,False
2019-10-24 16:52:09.880,SmartbBox,-0.011,-0.023,-0.927,0,0,0.0,False
2019-10-24 16:52:09.900,SmartbBox,0.056,-0.017,-0.948,0,0,0.0,False
2019-10-24 16:52:09.920,SmartbBox,0.11,0.013,-0.996,0,0,0.0,False
2019-10-24 16:52:09.940,SmartbBox,-0.017,-0.062,-0.981,0,0,0.0,False
2019-10-24 16:52:09.960,SmartbBox,-0.032,-0.038,-0.982,0,0,0.0,False
2019-10-24 16:52:09.980,SmartbBox,0.009,-0.072,-0.819,0,0,0.0,True
2019-10-24 16:52:10.000,SmartbBox,-0.01,-0.086,-0.9,0,0,0.0,False
2019-10-24 16:52:10.020,SmartbBox,-0.066,-0.053,-0.879,0,0,0.0,False
2019-10-24 16:52:10.040,SmartbBox,-0.014,-0.022,-0.901,0,0,0.0,False
2019-10-24 16:52:10.060,SmartbBox,-0.037,-0.038,-0.929,0,0,0.0,False
2019-10-24 16:52:10.080,SmartbBox,-0.064,0.011,-0.958,0,0,0.0,False
2019-10-24 16:52:10.100,SmartbBox,-0.122,-0.02,-0.857,0,0,0.0,False
2019-10-24 16:52:10.120,SmartbBox,-0.087,-0.029,-0.801,0,0,0.0,False
2019-10-24 16:52:10.140,SmartbBox,-0.126,-0.02,-0.804,0,0,0.0,False
2019-10-24 16:52:10.160,SmartbBox,-0.09,-0.005,-0.934,0,0,0.0,False
2019-10-24 16:52:10.180,SmartbBox,-0.108,-0.044,-0.856,0,0,0.0,False
2019-10-24 16:52:10.200,SmartbBox,-0.106,-0.044,-0.882,0,0,0.0,False
2019-10-24 16:52:10.220,SmartbBox,-0.133,-0.059,-0.858,0,0,0.0,False
2019-10-24 16:52:10.240,SmartbBox,-0.162,-0.074,-0.807,0,0,0.0,False
2019-10-24 16:52:10.260,SmartbBox,-0.16,-0.034,-0.702,0,0,0.0,False
2019-10-24 16:52:10.280,SmartbBox,-0.121,0.02,-0.751,0,0,0.0,False
2019-10-24 16:52:10.300,SmartbBox,-0.112,0.02,-0.856,0,0,0.0,False
2019-10-24 16:52:10.320,SmartbBox,-0.051,-0.014,-0.931,0,0,0.0,False
2019-10-24 16:52:10.340,SmartbBox,-0.049,-0.078,-0.904,0,0,0.0,False
2019-10-24 16:52:10.360,SmartbBox,0.02,-0.072,-0.951,0,0,0.0,False
2019-10-24 16:52:10.380,SmartbBox,0.026,-0.136,-0.976,0,0,0.0,False
2019-10-24 16:52:10.400,SmartbBox,0.052,-0.056,-1.027,0,0,0.0,False
2019-10-24 16:52:10.420,SmartbBox,0.01,-0.048,-1.005,0,0,0.0,False
2019-10-24 16:52:10.440,SmartbBox,-0.006,-0.063,-1.112,0,0,0.0,False
2019-10-24 16:52:10.460,SmartbBox,-0.027,-0.038,-1.034,0,0,0.0,False
2019-10-24 16:52:10.480,SmartbBox,-0.055,0.011,-1.063,0,0,0.0,False
2019-10-24 16:52:10.500,SmartbBox,-0.025,-0.038,-1.061,0,0,0.0,False
2019-10-24 16:52:10.520,SmartbBox,-0.006,-0.063,-1.112,0,0,0.0,False
2019-10-24 16:52:10.540,SmartbBox,-0.075,-0.068,-1.064,0,0,0.0,False
2019-10-24 16:52:10.560,SmartbBox,-0.035,-0.078,-1.061,0,0,0.0,False
2019-10-24 16:52:10.580,SmartbBox,-0.053,-0.118,-0.983,0,0,0.0,False
2019-10-24 16:52:10.600,SmartbBox,-0.038,-0.142,-0.982,0,0,0.0,False
2019-10-24 16:52:10.620,SmartbBox,0.09,-0.106,-1.13,0,0,0.0,False
2019-10-24 16:52:10.640,SmartbBox,-0.002,-0.127,-1.111,0,0,0.0,False
2019-10-24 16:52:10.660,SmartbBox,-0.071,-0.196,-1.011,0,0,0.0,False
2019-10-24 16:52:10.680,SmartbBox,-0.005,-0.086,-0.952,0,0,0.0,False
2019-10-24 16:52:10.700,SmartbBox,-0.072,0.011,-0.853,0,0,0.0,False
2019-10-24 16:52:10.720,SmartbBox,-0.122,-0.02,-0.857,0,0,0.0,False
2019-10-24 16:52:10.740,SmartbBox,-0.112,-0.044,-0.803,0,0,0.0,False
2019-10-24 16:52:10.760,SmartbBox,-0.023,0.042,-0.848,0,0,0.0,False
2019-10-24 16:52:10.780,SmartbBox,-0.037,0.066,-0.85,0,0,0.0,False
2019-10-24 16:52:10.800,SmartbBox,-0.06,-0.013,-0.826,0,0,0.0,False
2019-10-24 16:52:10.820,SmartbBox,0.005,-0.008,-0.82,0,0,0.0,False
2019-10-24 16:52:10.840,SmartbBox,-0.106,-0.004,-0.75,0,0,0.0,False
2019-10-24 16:52:10.860,SmartbBox,-0.042,0.002,-0.744,0,0,0.0,False
2019-10-24 16:52:10.880,SmartbBox,-0.037,0.002,-0.797,0,0,0.0,False
2019-10-24 16:52:10.900,SmartbBox,-0.06,-0.014,-0.825,0,0,0.0,False
2019-10-24 16:52:10.920,SmartbBox,-0.062,-0.013,-0.799,0,0,0.0,False
2019-10-24 16:52:10.940,SmartbBox,0.018,0.032,-0.845,0,0,0.0,False
2019-10-24 16:52:10.960,SmartbBox,-0.013,0.041,-0.954,0,0,0.0,False
2019-10-24 16:52:10.980,SmartbBox,-0.051,-0.014,-0.931,0,0,0.0,False
2019-10-24 16:52:11.000,SmartbBox,-0.051,-0.014,-0.931,0,0,0.0,False
2019-10-24 16:52:11.020,SmartbBox,-0.013,-0.022,-0.901,0,0,0.0,False
2019-10-24 16:52:11.040,SmartbBox,-0.055,-0.014,-0.878,0,0,0.0,False
2019-10-24 16:52:11.060,SmartbBox,-0.061,-0.053,-0.931,0,0,0.0,False
2019-10-24 16:52:11.080,SmartbBox,-0.032,-0.038,-0.982,0,0,0.0,False
2019-10-24 16:52:11.100,SmartbBox,0.01,-0.048,-1.005,0,0,0.0,False
2019-10-24 16:52:11.120,SmartbBox,0.017,-0.048,-1.083,0,0,0.0,False
2019-10-24 16:52:11.140,SmartbBox,-0.002,-0.023,-1.032,0,0,0.0,False
2019-10-24 16:52:11.160,SmartbBox,-0.036,-0.038,-0.929,0,0,0.0,False
2019-10-24 16:52:11.180,SmartbBox,-0.049,-0.014,-0.957,0,0,0.0,False
2019-10-24 16:52:11.200,SmartbBox,0.008,0.016,-1.031,0,0,0.0,False
2019-10-24 16:52:11.220,SmartbBox,-0.005,-0.023,-1.006,0,0,0.0,False
2019-10-24 16:52:11.240,SmartbBox,0.112,0.013,-1.022,0,0,0.0,False
2019-10-24 16:52:11.260,SmartbBox,0.085,-0.002,-0.998,0,0,0.0,False
2019-10-24 16:52:11.280,SmartbBox,0.15,0.003,-0.992,0,0,0.0,False
2019-10-24 16:52:11.300,SmartbBox,0.182,0.058,-0.964,0,0,0.0,False
2019-10-24 16:52:11.320,SmartbBox,0.143,0.068,-0.966,0,0,0.0,False
2019-10-24 16:52:11.340,SmartbBox,0.099,0.077,-0.918,0,0,0.0,False
2019-10-24 16:52:11.360,SmartbBox,0.084,0.102,-0.919,0,0,0.0,False
2019-10-24 16:52:11.380,SmartbBox,0.078,0.102,-0.84,0,0,0.0,False
2019-10-24 16:52:11.400,SmartbBox,0.044,0.047,-0.869,0,0,0.0,False
2019-10-24 16:52:11.420,SmartbBox,0.005,0.056,-0.873,0,0,0.0,False
2019-10-24 16:52:11.440,SmartbBox,-0.01,0.017,-0.821,0,0,0.0,False
2019-10-24 16:52:11.460,SmartbBox,-0.003,0.017,-0.9,0,0,0.0,False
