UTC_timestamp,device_name,x,y,z,lat,long,speed,event
2019-10-26 10:34:01.480,SmartbBox,-0.026,0.065,-0.981,0,0,0.0,False
2019-10-26 10:34:01.500,SmartbBox,-0.023,0.042,-0.848,0,0,0.0,False
2019-10-26 10:34:01.520,SmartbBox,0.001,0.017,-0.952,0,0,0.0,False
2019-10-26 10:34:01.540,SmartbBox,0.001,0.056,-0.82,0,0,0.0,False
2019-10-26 10:34:01.560,SmartbBox,-0.015,0.041,-0.928,0,0,0.0,False
2019-10-26 10:34:01.580,SmartbBox,-0.04,0.026,-0.93,0,0,0.0,False
2019-10-26 10:34:01.600,SmartbBox,-0.04,0.026,-0.93,0,0,0.0,False
2019-10-26 10:34:01.620,SmartbBox,-0.033,0.002,-0.849,0,0,0.0,False
2019-10-26 10:34:01.640,SmartbBox,-0.016,0.041,-0.927,0,0,0.0,False
2019-10-26 10:34:01.660,SmartbBox,0.002,0.016,-0.952,0,0,0.0,False
2019-10-26 10:34:01.680,SmartbBox,-0.034,0.026,-1.008,0,0,0.0,False
2019-10-26 10:34:01.700,SmartbBox,-0.006,0.017,-0.874,0,0,0.0,False
2019-10-26 10:34:01.720,SmartbBox,-0.055,0.05,-0.931,0,0,0.0,False
2019-10-26 10:34:01.740,SmartbBox,-0.024,0.002,-0.955,0,0,0.0,False
2019-10-26 10:34:01.760,SmartbBox,0.006,0.016,-1.004,0,0,0.0,False
2019-10-26 10:34:01.780,SmartbBox,-0.042,0.026,-0.904,0,0,0.0,False
2019-10-26 10:34:01.800,SmartbBox,-0.037,0.026,-0.982,0,0,0.0,False
2019-10-26 10:34:01.820,SmartbBox,0.005,0.056,-0.872,0,0,0.0,False
2019-10-26 10:34:01.840,SmartbBox,-0.003,0.017,-0.9,0,0,0.0,False
2019-10-26 10:34:01.860,SmartbBox,-0.041,0.026,-0.93,0,0,0.0,False
2019-10-26 10:34:01.880,SmartbBox,-0.003,0.08,-0.953,0,0,0.0,False
2019-10-26 10:34:01.900,SmartbBox,-0.018,0.041,-0.901,0,0,0.0,False
2019-10-26 10:34:01.920,SmartbBox,0.014,-0.008,-0.925,0,0,0.0,False
2019-10-26 10:34:01.940,SmartbBox,-0.068,0.075,-0.958,0,0,0.0,False
2019-10-26 10:34:01.960,SmartbBox,-0.094,0.06,-0.935,0,0,0.0,False
2019-10-26 10:34:01.980,SmartbBox,-0.022,0.002,-0.981,0,0,0.0,False
2019-10-26 10:34:02.000,SmartbBox,-0.03,0.002,-0.876,0,0,0.0,False
2019-10-26 10:34:02.020,SmartbBox,-0.024,0.002,-0.955,0,0,0.0,False
2019-10-26 10:34:02.040,SmartbBox,-0.045,-0.038,-0.824,0,0,0.0,False
2019-10-26 10:34:02.060,SmartbBox,-0.093,-0.004,-0.908,0,0,0.0,False
2019-10-26 10:34:02.080,SmartbBox,-0.051,-0.014,-0.931,0,0,0.0,False
2019-10-26 10:34:02.100,SmartbBox,-0.09,-0.004,-0.934,0,0,0.0,False
2019-10-26 10:34:02.120,SmartbBox,-0.038,0.026,-0.956,0,0,0.0,False
2019-10-26 10:34:02.140,SmartbBox,-0.108,-0.044,-0.855,0,0,0.0,False
2019-10-26 10:34:02.160,SmartbBox,-0.088,-0.004,-0.96,0,0,0.0,False
2019-10-26 10:34:02.180,SmartbBox,-0.053,0.05,-0.958,0,0,0.0,False
2019-10-26 10:34:02.200,SmartbBox,-0.051,0.05,-0.983,0,0,0.0,False
2019-10-26 10:34:02.220,SmartbBox,-0.028,0.065,-0.955,0,0,0.0,False
2019-10-26 10:34:02.240,SmartbBox,-0.046,-0.014,-0.982,0,0,0.0,False
2019-10-26 10:34:02.260,SmartbBox,-0.042,-0.038,-0.85,0,0,0.0,False
2019-10-26 10:34:02.280,SmartbBox,0.007,0.12,-0.952,0,0,0.0,False
2019-10-26 10:34:02.300,SmartbBox,-0.072,0.138,-0.958,0,0,0.0,False
2019-10-26 10:34:02.320,SmartbBox,-0.006,0.017,-0.874,0,0,0.0,False
2019-10-26 10:34:02.340,SmartbBox,-0.038,0.026,-0.956,0,0,0.0,False
2019-10-26 10:34:02.360,SmartbBox,-0.001,0.016,-0.926,0,0,0.0,False
2019-10-26 10:34:02.380,SmartbBox,0.043,0.008,-0.975,0,0,0.0,False
2019-10-26 10:34:02.400,SmartbBox,-0.024,0.002,-0.955,0,0,0.0,False
2019-10-26 10:34:02.420,SmartbBox,-0.056,-0.014,-0.878,0,0,0.0,False
2019-10-26 10:34:02.440,SmartbBox,-0.038,0.026,-0.956,0,0,0.0,False
2019-10-26 10:34:02.460,SmartbBox,0.001,0.016,-0.952,0,0,0.0,False
2019-10-26 10:34:02.480,SmartbBox,-0.072,0.011,-0.853,0,0,0.0,False
2019-10-26 10:34:02.500,SmartbBox,0.001,0.016,-0.952,0,0,0.0,False
2019-10-26 10:34:02.520,SmartbBox,-0.001,0.017,-0.926,0,0,0.0,False
2019-10-26 10:34:02.540,SmartbBox,0.012,-0.008,-0.898,0,0,0.0,False
2019-10-26 10:34:02.560,SmartbBox,-0.038,0.026,-0.956,0,0,0.0,False
2019-10-26 10:34:02.580,SmartbBox,-0.026,0.002,-0.928,0,0,0.0,False
2019-10-26 10:34:02.600,SmartbBox,0.024,0.032,-0.924,0,0,0.0,False
2019-10-26 10:34:02.620,SmartbBox,-0.018,0.041,-0.901,0,0,0.0,False
2019-10-26 10:34:02.640,SmartbBox,-0.038,-0.038,-0.903,0,0,0.0,False
2019-10-26 10:34:02.660,SmartbBox,0.016,-0.072,-0.898,0,0,0.0,False
2019-10-26 10:34:02.680,SmartbBox,-0.07,0.011,-0.88,0,0,0.0,False
2019-10-26 10:34:02.700,SmartbBox,-0.059,-0.053,-0.958,0,0,0.0,False
2019-10-26 10:34:02.720,SmartbBox,-0.028,0.002,-0.902,0,0,0.0,False
2019-10-26 10:34:02.740,SmartbBox,0.0,-0.024,-1.058,0,0,0.0,False
2019-10-26 10:34:02.760,SmartbBox,-0.018,0.041,-0.901,0,0,0.0,False
2019-10-26 10:34:02.780,SmartbBox,0.009,-0.008,-0.872,0,0,0.0,False
2019-10-26 10:34:02.800,SmartbBox,-0.066,0.01,-0.932,0,0,0.0,False
2019-10-26 10:34:02.820,SmartbBox,-0.001,0.08,-0.98,0,0,0.0,False
2019-10-26 10:34:02.840,SmartbBox,-0.028,0.002,-0.902,0,0,0.0,False
2019-10-26 10:34:02.860,SmartbBox,-0.026,0.066,-0.982,0,0,0.0,False
2019-10-26 10:34:02.880,SmartbBox,-0.124,0.045,-0.884,0,0,0.0,False
2019-10-26 10:34:02.900,SmartbBox,-0.04,0.026,-0.93,0,0,0.0,False
2019-10-26 10:34:02.920,SmartbBox,-0.058,-0.029,-1.142,0,0,0.0,False
2019-10-26 10:34:02.940,SmartbBox,-0.011,0.04,-0.98,0,0,0.0,False
2019-10-26 10:34:02.960,SmartbBox,-0.074,0.075,-0.88,0,0,0.0,False
2019-10-26 10:34:02.980,SmartbBox,-0.046,0.066,-0.745,0,0,0.0,True
2019-10-26 10:34:03.000,SmartbBox,0.005,-0.048,-0.952,0,0,0.0,False
2019-10-26 10:34:03.020,SmartbBox,-0.109,-0.084,-0.962,0,0,0.0,False
2019-10-26 10:34:03.040,SmartbBox,0.034,0.135,-0.976,0,0,0.0,False
2019-10-26 10:34:03.060,SmartbBox,-0.048,0.027,-0.851,0,0,0.0,False
2019-10-26 10:34:03.080,SmartbBox,-0.088,-0.068,-0.907,0,0,0.0,False
2019-10-26 10:34:03.100,SmartbBox,0.151,0.108,-0.94,0,0,0.0,False
2019-10-26 10:34:03.120,SmartbBox,-0.046,0.026,-0.877,0,0,0.0,False
2019-10-26 10:34:03.140,SmartbBox,-0.078,-0.029,-0.907,0,0,0.0,False
2019-10-26 10:34:03.160,SmartbBox,0.037,-0.032,-1.028,0,0,0.0,False
2019-10-26 10:34:03.180,SmartbBox,0.032,-0.056,-0.791,0,0,0.0,False
2019-10-26 10:34:03.200,SmartbBox,-0.089,0.035,-0.828,0,0,0.0,False
2019-10-26 10:34:03.220,SmartbBox,0.08,0.102,-0.866,0,0,0.0,False
2019-10-26 10:34:03.240,SmartbBox,-0.006,0.12,-0.794,0,0,0.0,False
2019-10-26 10:34:03.260,SmartbBox,0.06,0.046,-1.053,0,0,0.0,False
2019-10-26 10:34:03.280,SmartbBox,0.074,0.062,-0.92,0,0,0.0,False
2019-10-26 10:34:03.300,SmartbBox,-0.045,0.09,-0.93,0,0,0.0,False
2019-10-26 10:34:03.320,SmartbBox,0.002,0.056,-0.846,0,0,0.0,False
2019-10-26 10:34:03.340,SmartbBox,-0.085,-0.044,-1.118,0,0,0.0,False
2019-10-26 10:34:03.360,SmartbBox,-0.126,0.045,-0.857,0,0,0.0,False
2019-10-26 10:34:03.380,SmartbBox,-0.024,-0.022,-0.77,0,0,0.0,False
2019-10-26 10:34:03.400,SmartbBox,-0.038,-0.038,-0.903,0,0,0.0,False
2019-10-26 10:34:03.420,SmartbBox,-0.058,0.074,-1.064,0,0,0.0,False
2019-10-26 10:34:03.440,SmartbBox,0.086,0.102,-0.946,0,0,0.0,False
2019-10-26 10:34:03.460,SmartbBox,0.02,0.096,-0.924,0,0,0.0,False
2019-10-26 10:34:03.480,SmartbBox,0.005,0.056,-0.872,0,0,0.0,False
2019-10-26 10:34:03.500,SmartbBox,0.005,0.056,-0.873,0,0,0.0,False
2019-10-26 10:34:03.520,SmartbBox,-0.051,-0.014,-0.93,0,0,0.0,False
2019-10-26 10:34:03.540,SmartbBox,-0.024,0.002,-0.955,0,0,0.0,False
2019-10-26 10:34:03.560,SmartbBox,-0.114,0.084,-0.883,0,0,0.0,False
2019-10-26 10:34:03.580,SmartbBox,-0.03,0.002,-0.876,0,0,0.0,False
2019-10-26 10:34:03.600,SmartbBox,-0.048,-0.013,-0.957,0,0,0.0,False
2019-10-26 10:34:03.620,SmartbBox,-0.011,0.04,-0.98,0,0,0.0,False
2019-10-26 10:34:03.640,SmartbBox,0.022,0.032,-0.898,0,0,0.0,False
2019-10-26 10:34:03.660,SmartbBox,0.064,0.022,-0.921,0,0,0.0,False
2019-10-26 10:34:03.680,SmartbBox,0.012,-0.008,-0.899,0,0,0.0,False
2019-10-26 10:34:03.700,SmartbBox,0.056,0.047,-1.0,0,0,0.0,False
2019-10-26 10:34:03.720,SmartbBox,0.027,0.032,-0.95,0,0,0.0,False
2019-10-26 10:34:03.740,SmartbBox,-0.03,0.002,-0.876,0,0,0.0,False
2019-10-26 10:34:03.760,SmartbBox,0.024,0.032,-0.924,0,0,0.0,False
2019-10-26 10:34:03.780,SmartbBox,0.136,0.068,-0.889,0,0,0.0,False
2019-10-26 10:34:03.800,SmartbBox,0.002,0.016,-0.952,0,0,0.0,False
2019-10-26 10:34:03.820,SmartbBox,0.068,0.086,-1.026,0,0,0.0,False
2019-10-26 10:34:03.840,SmartbBox,-0.006,0.016,-0.874,0,0,0.0,False
2019-10-26 10:34:03.860,SmartbBox,0.042,0.047,-0.843,0,0,0.0,False
2019-10-26 10:34:03.880,SmartbBox,-0.042,0.09,-0.956,0,0,0.0,False
2019-10-26 10:34:03.900,SmartbBox,0.046,0.071,-1.054,0,0,0.0,False
2019-10-26 10:34:03.920,SmartbBox,-0.037,0.066,-0.85,0,0,0.0,False
2019-10-26 10:34:03.940,SmartbBox,-0.038,-0.038,-0.903,0,0,0.0,False
2019-10-26 10:34:03.960,SmartbBox,-0.116,0.02,-0.804,0,0,0.0,False
2019-10-26 10:34:03.980,SmartbBox,-0.06,0.114,-0.931,0,0,0.0,False
2019-10-26 10:34:04.000,SmartbBox,-0.053,0.154,-0.878,0,0,0.0,False
2019-10-26 10:34:04.020,SmartbBox,-0.066,0.114,-0.853,0,0,0.0,False
2019-10-26 10:34:04.040,SmartbBox,-0.053,0.05,-0.957,0,0,0.0,False
2019-10-26 10:34:04.060,SmartbBox,0.005,0.12,-0.926,0,0,0.0,False
2019-10-26 10:34:04.080,SmartbBox,-0.022,0.105,-0.902,0,0,0.0,False
2019-10-26 10:34:04.100,SmartbBox,-0.043,0.09,-0.956,0,0,0.0,False
2019-10-26 10:34:04.120,SmartbBox,-0.057,0.114,-0.958,0,0,0.0,False
2019-10-26 10:34:04.140,SmartbBox,-0.055,0.05,-0.931,0,0,0.0,False
2019-10-26 10:34:04.160,SmartbBox,-0.037,0.066,-0.85,0,0,0.0,False
2019-10-26 10:34:04.180,SmartbBox,-0.04,0.026,-0.93,0,0,0.0,False
2019-10-26 10:34:04.200,SmartbBox,-0.005,0.08,-0.926,0,0,0.0,False
2019-10-26 10:34:04.220,SmartbBox,-0.068,0.011,-0.906,0,0,0.0,False
2019-10-26 10:34:04.240,SmartbBox,-0.011,0.04,-0.98,0,0,0.0,False
2019-10-26 10:34:04.260,SmartbBox,-0.014,-0.023,-0.9,0,0,0.0,False
2019-10-26 10:34:04.280,SmartbBox,0.228,0.01,-1.145,0,0,0.0,False
2019-10-26 10:34:04.300,SmartbBox,-0.02,0.042,-0.874,0,0,0.0,False
2019-10-26 10:34:04.320,SmartbBox,-0.028,0.002,-0.902,0,0,0.0,False
2019-10-26 10:34:04.340,SmartbBox,-0.003,0.017,-0.9,0,0,0.0,False
2019-10-26 10:34:04.360,SmartbBox,0.052,-0.056,-1.027,0,0,0.0,False
2019-10-26 10:34:04.380,SmartbBox,-0.002,-0.063,-1.164,0,0,0.0,False
2019-10-26 10:34:04.400,SmartbBox,-0.045,-0.038,-0.824,0,0,0.0,False
2019-10-26 10:34:04.420,SmartbBox,0.016,-0.008,-0.951,0,0,0.0,False
2019-10-26 10:34:04.440,SmartbBox,-0.061,-0.116,-0.878,0,0,0.0,False
2019-10-26 10:34:04.460,SmartbBox,0.028,-0.032,-0.924,0,0,0.0,False
