UTC_timestamp,device_name,x,y,z,lat,long,speed,event
2019-10-27 16:21:57.480,SmartbBox,0.068,-0.057,-1.212,0,0,0.0,False
2019-10-27 16:21:57.500,SmartbBox,-0.022,0.001,-0.981,0,0,0.0,False
2019-10-27 16:21:57.520,SmartbBox,0.077,0.022,-1.078,0,0,0.0,False
2019-10-27 16:21:57.540,SmartbBox,0.017,-0.048,-1.083,0,0,0.0,False
2019-10-27 16:21:57.560,SmartbBox,0.031,-0.032,-0.95,0,0,0.0,False
2019-10-27 16:21:57.580,SmartbBox,0.029,-0.032,-0.924,0,0,0.0,False
2019-10-27 16:21:57.600,SmartbBox,0.012,-0.008,-0.899,0,0,0.0,False
2019-10-27 16:21:57.620,SmartbBox,0.044,0.047,-0.869,0,0,0.0,False
2019-10-27 16:21:57.640,SmartbBox,0.017,-0.032,-0.792,0,0,0.0,False
2019-10-27 16:21:57.660,SmartbBox,0.07,-0.002,-0.814,0,0,0.0,False
2019-10-27 16:21:57.680,SmartbBox,0.082,0.038,-0.84,0,0,0.0,False
2019-10-27 16:21:57.700,SmartbBox,0.06,0.062,-0.762,0,0,0.0,False
2019-10-27 16:21:57.720,SmartbBox,0.098,0.053,-0.732,0,0,0.0,False
2019-10-27 16:21:57.740,SmartbBox,0.057,0.022,-0.842,0,0,0.0,False
2019-10-27 16:21:57.760,SmartbBox,0.055,0.022,-0.815,0,0,0.0,False
2019-10-27 16:21:57.780,SmartbBox,-0.012,0.017,-0.795,0,0,0.0,False
2019-10-27 16:21:57.800,SmartbBox,-0.008,-0.047,-0.794,0,0,0.0,False
2019-10-27 16:21:57.820,SmartbBox,-0.008,-0.047,-0.794,0,0,0.0,False
2019-10-27 16:21:57.840,SmartbBox,-0.045,-0.038,-0.824,0,0,0.0,False
2019-10-27 16:21:57.860,SmartbBox,-0.112,-0.044,-0.803,0,0,0.0,False
2019-10-27 16:21:57.880,SmartbBox,-0.018,-0.022,-0.848,0,0,0.0,False
2019-10-27 16:21:57.900,SmartbBox,-0.008,0.017,-0.847,0,0,0.0,False
2019-10-27 16:21:57.920,SmartbBox,-0.03,0.002,-0.876,0,0,0.0,False
2019-10-27 16:21:57.940,SmartbBox,0.031,-0.032,-0.95,0,0,0.0,False
2019-10-27 16:21:57.960,SmartbBox,0.028,-0.032,-0.924,0,0,0.0,False
2019-10-27 16:21:57.980,SmartbBox,0.041,0.008,-0.949,0,0,0.0,False
2019-10-27 16:21:58.000,SmartbBox,0.018,-0.008,-0.977,0,0,0.0,False
2019-10-27 16:21:58.020,SmartbBox,-0.006,0.017,-0.874,0,0,0.0,False
2019-10-27 16:21:58.040,SmartbBox,-0.028,0.002,-0.902,0,0,0.0,False
2019-10-27 16:21:58.060,SmartbBox,-0.018,0.041,-0.901,0,0,0.0,False
2019-10-27 16:21:58.080,SmartbBox,0.02,0.072,-0.766,0,0,0.0,False
2019-10-27 16:21:58.100,SmartbBox,-0.022,-0.022,-0.796,0,0,0.0,False
2019-10-27 16:21:58.120,SmartbBox,0.013,-0.072,-0.871,0,0,0.0,False
2019-10-27 16:21:58.140,SmartbBox,0.027,-0.056,-0.738,0,0,0.0,False
2019-10-27 16:21:58.160,SmartbBox,0.122,0.156,-0.942,0,0,0.0,False
2019-10-27 16:21:58.180,SmartbBox,0.127,0.116,-1.127,0,0,0.0,False
2019-10-27 16:21:58.200,SmartbBox,-0.192,-0.128,-0.863,0,0,0.0,False
2019-10-27 16:21:58.220,SmartbBox,-0.038,0.042,-0.665,0,0,0.0,False
2019-10-27 16:21:58.240,SmartbBox,0.077,0.15,-1.184,0,0,0.0,False
2019-10-27 16:21:58.260,SmartbBox,-0.096,-0.044,-0.987,0,0,0.0,False
2019-10-27 16:21:58.280,SmartbBox,-0.068,0.051,-0.774,0,0,0.0,False
2019-10-27 16:21:58.300,SmartbBox,-0.005,0.105,-1.112,0,0,0.0,False
2019-10-27 16:21:58.320,SmartbBox,-0.002,-0.023,-1.032,0,0,0.0,False
2019-10-27 16:21:58.340,SmartbBox,-0.06,-0.077,-0.772,0,0,0.0,False
2019-10-27 16:21:58.360,SmartbBox,-0.144,-0.186,-0.62,0,0,0.0,False
2019-10-27 16:21:58.380,SmartbBox,-0.083,-0.22,-0.694,0,0,0.0,False
2019-10-27 16:21:58.400,SmartbBox,0.009,-0.135,-0.766,0,0,0.0,False
2019-10-27 16:21:58.420,SmartbBox,-0.242,-0.016,-0.682,0,0,0.0,False
2019-10-27 16:21:58.440,SmartbBox,-0.048,0.002,-0.666,0,0,0.0,False
2019-10-27 16:21:58.460,SmartbBox,0.515,0.327,-1.545,0,0,0.0,False
2019-10-27 16:21:58.480,SmartbBox,0.151,-0.53,-1.653,0,0,0.0,False
2019-10-27 16:21:58.500,SmartbBox,-0.416,0.246,-1.306,0,0,0.0,False
2019-10-27 16:21:58.520,SmartbBox,0.406,0.218,-1.104,0,0,0.0,False
2019-10-27 16:21:58.540,SmartbBox,-0.038,-0.157,-1.273,0,0,0.0,False
2019-10-27 16:21:58.560,SmartbBox,-0.21,-0.056,-1.182,0,0,0.0,False
2019-10-27 16:21:58.580,SmartbBox,-0.013,-0.022,-0.901,0,0,0.0,False
2019-10-27 16:21:58.600,SmartbBox,0.097,-0.154,-0.864,0,0,0.0,False
2019-10-27 16:21:58.620,SmartbBox,0.01,-0.048,-1.004,0,0,0.0,False
2019-10-27 16:21:58.640,SmartbBox,-0.158,-0.074,-0.86,0,0,0.0,False
2019-10-27 16:21:58.660,SmartbBox,0.076,-0.13,-0.787,0,0,0.0,False
2019-10-27 16:21:58.680,SmartbBox,0.015,-0.032,-0.766,0,0,0.0,False
2019-10-27 16:21:58.700,SmartbBox,-0.032,0.042,-0.744,0,0,0.0,False
2019-10-27 16:21:58.720,SmartbBox,-0.046,-0.062,-0.639,0,0,0.0,False
2019-10-27 16:21:58.740,SmartbBox,-0.103,-0.092,-0.564,0,0,0.0,False
2019-10-27 16:21:58.760,SmartbBox,-0.098,-0.092,-0.616,0,0,0.0,False
2019-10-27 16:21:58.780,SmartbBox,-0.085,-0.052,-0.642,0,0,0.0,False
2019-10-27 16:21:58.800,SmartbBox,-0.074,-0.077,-0.614,0,0,0.0,False
2019-10-27 16:21:58.820,SmartbBox,-0.034,-0.086,-0.611,0,0,0.0,False
2019-10-27 16:21:58.840,SmartbBox,-0.04,-0.062,-0.718,0,0,0.0,False
2019-10-27 16:21:58.860,SmartbBox,-0.019,0.017,-0.716,0,0,0.0,False
2019-10-27 16:21:58.880,SmartbBox,0.003,-0.008,-0.794,0,0,0.0,False
2019-10-27 16:21:58.900,SmartbBox,-0.035,0.002,-0.824,0,0,0.0,False
2019-10-27 16:21:58.920,SmartbBox,-0.057,-0.014,-0.852,0,0,0.0,False
2019-10-27 16:21:58.940,SmartbBox,-0.022,-0.062,-0.928,0,0,0.0,False
2019-10-27 16:21:58.960,SmartbBox,-0.022,-0.062,-0.928,0,0,0.0,False
2019-10-27 16:21:58.980,SmartbBox,-0.072,-0.029,-0.985,0,0,0.0,True
2019-10-27 16:21:59.000,SmartbBox,-0.053,-0.118,-0.983,0,0,0.0,False
2019-10-27 16:21:59.020,SmartbBox,-0.025,-0.038,-1.061,0,0,0.0,False
2019-10-27 16:21:59.040,SmartbBox,-0.038,-0.014,-1.088,0,0,0.0,False
2019-10-27 16:21:59.060,SmartbBox,0.012,0.016,-1.084,0,0,0.0,False
2019-10-27 16:21:59.080,SmartbBox,-0.01,0.001,-1.112,0,0,0.0,False
2019-10-27 16:21:59.100,SmartbBox,-0.017,0.001,-1.033,0,0,0.0,False
2019-10-27 16:21:59.120,SmartbBox,-0.042,-0.014,-1.036,0,0,0.0,False
2019-10-27 16:21:59.140,SmartbBox,-0.069,-0.029,-1.011,0,0,0.0,False
2019-10-27 16:21:59.160,SmartbBox,-0.046,-0.078,-0.93,0,0,0.0,False
2019-10-27 16:21:59.180,SmartbBox,-0.076,-0.092,-0.88,0,0,0.0,False
2019-10-27 16:21:59.200,SmartbBox,-0.036,-0.102,-0.876,0,0,0.0,False
2019-10-27 16:21:59.220,SmartbBox,-0.041,-0.038,-0.876,0,0,0.0,False
2019-10-27 16:21:59.240,SmartbBox,-0.055,-0.014,-0.878,0,0,0.0,False
2019-10-27 16:21:59.260,SmartbBox,-0.006,0.017,-0.874,0,0,0.0,False
2019-10-27 16:21:59.280,SmartbBox,-0.03,0.002,-0.876,0,0,0.0,False
2019-10-27 16:21:59.300,SmartbBox,-0.045,0.026,-0.877,0,0,0.0,False
2019-10-27 16:21:59.320,SmartbBox,-0.055,-0.014,-0.878,0,0,0.0,False
2019-10-27 16:21:59.340,SmartbBox,-0.078,-0.029,-0.906,0,0,0.0,False
2019-10-27 16:21:59.360,SmartbBox,-0.108,-0.044,-0.856,0,0,0.0,False
2019-10-27 16:21:59.380,SmartbBox,-0.083,-0.029,-0.854,0,0,0.0,False
2019-10-27 16:21:59.400,SmartbBox,-0.058,-0.013,-0.852,0,0,0.0,False
2019-10-27 16:21:59.420,SmartbBox,-0.058,-0.013,-0.852,0,0,0.0,False
2019-10-27 16:21:59.440,SmartbBox,-0.018,-0.022,-0.848,0,0,0.0,False
2019-10-27 16:21:59.460,SmartbBox,-0.028,0.002,-0.902,0,0,0.0,False
2019-10-27 16:21:59.480,SmartbBox,-0.003,0.017,-0.9,0,0,0.0,False
2019-10-27 16:21:59.500,SmartbBox,-0.026,0.002,-0.928,0,0,0.0,False
2019-10-27 16:21:59.520,SmartbBox,-0.012,-0.022,-0.926,0,0,0.0,False
2019-10-27 16:21:59.540,SmartbBox,-0.046,-0.014,-0.983,0,0,0.0,False
2019-10-27 16:21:59.560,SmartbBox,-0.049,-0.014,-0.957,0,0,0.0,False
2019-10-27 16:21:59.580,SmartbBox,-0.007,-0.023,-0.98,0,0,0.0,False
2019-10-27 16:21:59.600,SmartbBox,-0.051,-0.014,-0.931,0,0,0.0,False
2019-10-27 16:21:59.620,SmartbBox,-0.009,-0.022,-0.953,0,0,0.0,False
2019-10-27 16:21:59.640,SmartbBox,0.001,0.017,-0.952,0,0,0.0,False
2019-10-27 16:21:59.660,SmartbBox,0.002,0.016,-0.952,0,0,0.0,False
2019-10-27 16:21:59.680,SmartbBox,-0.003,0.017,-0.9,0,0,0.0,False
2019-10-27 16:21:59.700,SmartbBox,-0.001,0.017,-0.926,0,0,0.0,False
2019-10-27 16:21:59.720,SmartbBox,0.014,-0.008,-0.925,0,0,0.0,False
2019-10-27 16:21:59.740,SmartbBox,-0.024,0.002,-0.955,0,0,0.0,False
2019-10-27 16:21:59.760,SmartbBox,0.001,-0.047,-0.899,0,0,0.0,False
2019-10-27 16:21:59.780,SmartbBox,-0.028,0.002,-0.902,0,0,0.0,False
2019-10-27 16:21:59.800,SmartbBox,-0.041,-0.038,-0.876,0,0,0.0,False
2019-10-27 16:21:59.820,SmartbBox,-0.03,0.002,-0.876,0,0,0.0,False
2019-10-27 16:21:59.840,SmartbBox,-0.026,0.002,-0.929,0,0,0.0,False
2019-10-27 16:21:59.860,SmartbBox,-0.006,0.017,-0.874,0,0,0.0,False
2019-10-27 16:21:59.880,SmartbBox,-0.018,0.041,-0.901,0,0,0.0,False
2019-10-27 16:21:59.900,SmartbBox,-0.026,0.002,-0.929,0,0,0.0,False
2019-10-27 16:21:59.920,SmartbBox,-0.003,0.017,-0.9,0,0,0.0,False
2019-10-27 16:21:59.940,SmartbBox,0.012,-0.008,-0.899,0,0,0.0,False
2019-10-27 16:21:59.960,SmartbBox,0.009,-0.008,-0.872,0,0,0.0,False
2019-10-27 16:21:59.980,SmartbBox,0.007,-0.008,-0.846,0,0,0.0,False
2019-10-27 16:22:00.000,SmartbBox,0.024,-0.032,-0.871,0,0,0.0,False
2019-10-27 16:22:00.020,SmartbBox,-0.006,0.017,-0.874,0,0,0.0,False
2019-10-27 16:22:00.040,SmartbBox,-0.006,0.017,-0.874,0,0,0.0,False
2019-10-27 16:22:00.060,SmartbBox,-0.033,0.002,-0.849,0,0,0.0,False
2019-10-27 16:22:00.080,SmartbBox,-0.003,0.017,-0.9,0,0,0.0,False
2019-10-27 16:22:00.100,SmartbBox,-0.001,0.017,-0.926,0,0,0.0,False
2019-10-27 16:22:00.120,SmartbBox,0.014,-0.008,-0.925,0,0,0.0,False
2019-10-27 16:22:00.140,SmartbBox,0.014,-0.008,-0.925,0,0,0.0,False
2019-10-27 16:22:00.160,SmartbBox,0.012,-0.008,-0.899,0,0,0.0,False
2019-10-27 16:22:00.180,SmartbBox,-0.006,0.017,-0.874,0,0,0.0,False
2019-10-27 16:22:00.200,SmartbBox,-0.001,0.017,-0.926,0,0,0.0,False
2019-10-27 16:22:00.220,SmartbBox,-0.018,0.041,-0.901,0,0,0.0,False
2019-10-27 16:22:00.240,SmartbBox,-0.006,0.017,-0.874,0,0,0.0,False
2019-10-27 16:22:00.260,SmartbBox,-0.035,0.066,-0.876,0,0,0.0,False
2019-10-27 16:22:00.280,SmartbBox,-0.018,0.041,-0.901,0,0,0.0,False
2019-10-27 16:22:00.300,SmartbBox,-0.004,0.017,-0.9,0,0,0.0,False
2019-10-27 16:22:00.320,SmartbBox,0.012,-0.008,-0.899,0,0,0.0,False
2019-10-27 16:22:00.340,SmartbBox,-0.001,0.017,-0.926,0,0,0.0,False
2019-10-27 16:22:00.360,SmartbBox,-0.006,0.017,-0.874,0,0,0.0,False
2019-10-27 16:22:00.380,SmartbBox,-0.03,0.002,-0.876,0,0,0.0,False
2019-10-27 16:22:00.400,SmartbBox,-0.046,0.026,-0.877,0,0,0.0,False
2019-10-27 16:22:00.420,SmartbBox,-0.055,-0.014,-0.878,0,0,0.0,False
2019-10-27 16:22:00.440,SmartbBox,-0.037,0.066,-0.85,0,0,0.0,False
2019-10-27 16:22:00.460,SmartbBox,-0.057,0.05,-0.905,0,0,0.0,False
