UTC_timestamp,device_name,x,y,z,lat,long,speed,event
2019-10-27 10:56:10.480,SmartbBox,-0.053,-0.077,-0.851,0,0,0.0,False
2019-10-27 10:56:10.500,SmartbBox,-0.026,-0.062,-0.875,0,0,0.0,False
2019-10-27 10:56:10.520,SmartbBox,-0.041,-0.038,-0.876,0,0,0.0,False
2019-10-27 10:56:10.540,SmartbBox,-0.024,-0.062,-0.901,0,0,0.0,False
2019-10-27 10:56:10.560,SmartbBox,-0.049,-0.078,-0.904,0,0,0.0,False
2019-10-27 10:56:10.580,SmartbBox,-0.074,-0.093,-0.906,0,0,0.0,False
2019-10-27 10:56:10.600,SmartbBox,-0.037,-0.038,-0.929,0,0,0.0,False
2019-10-27 10:56:10.620,SmartbBox,-0.022,-0.062,-0.928,0,0,0.0,False
2019-10-27 10:56:10.640,SmartbBox,-0.017,-0.062,-0.981,0,0,0.0,False
2019-10-27 10:56:10.660,SmartbBox,-0.057,-0.054,-0.984,0,0,0.0,False
2019-10-27 10:56:10.680,SmartbBox,-0.034,-0.038,-0.956,0,0,0.0,False
2019-10-27 10:56:10.700,SmartbBox,-0.046,-0.014,-0.983,0,0,0.0,False
2019-10-27 10:56:10.720,SmartbBox,-0.046,-0.014,-0.983,0,0,0.0,False
2019-10-27 10:56:10.740,SmartbBox,-0.032,-0.038,-0.982,0,0,0.0,False
2019-10-27 10:56:10.760,SmartbBox,-0.046,-0.014,-0.983,0,0,0.0,False
2019-10-27 10:56:10.780,SmartbBox,-0.007,-0.023,-0.98,0,0,0.0,False
2019-10-27 10:56:10.800,SmartbBox,-0.03,-0.038,-1.008,0,0,0.0,False
2019-10-27 10:56:10.820,SmartbBox,-0.019,-0.062,-0.954,0,0,0.0,False
2019-10-27 10:56:10.840,SmartbBox,-0.017,-0.062,-0.981,0,0,0.0,False
2019-10-27 10:56:10.860,SmartbBox,-0.007,-0.086,-0.926,0,0,0.0,False
2019-10-27 10:56:10.880,SmartbBox,-0.022,-0.062,-0.928,0,0,0.0,False
2019-10-27 10:56:10.900,SmartbBox,-0.032,-0.038,-0.982,0,0,0.0,False
2019-10-27 10:56:10.920,SmartbBox,-0.055,-0.014,-0.878,0,0,0.0,False
2019-10-27 10:56:10.940,SmartbBox,-0.067,0.011,-0.906,0,0,0.0,False
2019-10-27 10:56:10.960,SmartbBox,-0.053,-0.014,-0.904,0,0,0.0,False
2019-10-27 10:56:10.980,SmartbBox,-0.055,-0.014,-0.878,0,0,0.0,False
2019-10-27 10:56:11.000,SmartbBox,-0.052,0.026,-0.798,0,0,0.0,False
2019-10-27 10:56:11.020,SmartbBox,0.024,-0.096,-0.818,0,0,0.0,False
2019-10-27 10:56:11.040,SmartbBox,0.032,-0.16,-0.87,0,0,0.0,False
2019-10-27 10:56:11.060,SmartbBox,0.046,-0.08,-0.79,0,0,0.0,False
2019-10-27 10:56:11.080,SmartbBox,0.038,-0.08,-0.684,0,0,0.0,False
2019-10-27 10:56:11.100,SmartbBox,0.316,0.134,-1.058,0,0,0.0,False
2019-10-27 10:56:11.120,SmartbBox,-0.04,0.241,-1.274,0,0,0.0,False
2019-10-27 10:56:11.140,SmartbBox,-0.328,-0.18,-0.927,0,0,0.0,False
2019-10-27 10:56:11.160,SmartbBox,-0.07,0.154,-0.694,0,0,0.0,False
2019-10-27 10:56:11.180,SmartbBox,0.156,-0.012,-1.362,0,0,0.0,False
2019-10-27 10:56:11.200,SmartbBox,-0.214,-0.055,-1.13,0,0,0.0,False
2019-10-27 10:56:11.220,SmartbBox,-0.062,-0.014,-0.799,0,0,0.0,False
2019-10-27 10:56:11.240,SmartbBox,-0.01,0.049,-1.457,0,0,0.0,False
2019-10-27 10:56:11.260,SmartbBox,-0.011,-0.038,-1.218,0,0,0.0,False
2019-10-27 10:56:11.280,SmartbBox,0.027,-0.136,-0.976,0,0,0.0,False
2019-10-27 10:56:11.300,SmartbBox,0.008,-0.214,-1.004,0,0,0.0,False
2019-10-27 10:56:11.320,SmartbBox,0.104,-0.258,-1.022,0,0,0.0,False
2019-10-27 10:56:11.340,SmartbBox,0.001,-0.111,-0.846,0,0,0.0,False
2019-10-27 10:56:11.360,SmartbBox,-0.074,-0.141,-0.562,0,0,0.0,False
2019-10-27 10:56:11.380,SmartbBox,0.019,-0.16,-0.712,0,0,0.0,False
2019-10-27 10:56:11.400,SmartbBox,-0.152,-0.034,-0.806,0,0,0.0,False
2019-10-27 10:56:11.420,SmartbBox,-0.016,-0.046,-0.689,0,0,0.0,False
2019-10-27 10:56:11.440,SmartbBox,-0.054,0.042,-0.481,0,0,0.0,False
2019-10-27 10:56:11.460,SmartbBox,0.6,0.476,-1.59,0,0,0.0,False
2019-10-27 10:56:11.480,SmartbBox,0.005,-0.454,-1.692,0,0,0.0,False
2019-10-27 10:56:11.500,SmartbBox,-0.21,0.184,-1.685,0,0,0.0,False
2019-10-27 10:56:11.520,SmartbBox,0.022,0.176,-0.712,0,0,0.0,False
2019-10-27 10:56:11.540,SmartbBox,0.08,0.11,-1.343,0,0,0.0,False
2019-10-27 10:56:11.560,SmartbBox,-0.285,-0.333,-1.161,0,0,0.0,False
2019-10-27 10:56:11.580,SmartbBox,-0.156,-0.05,-1.045,0,0,0.0,False
2019-10-27 10:56:11.600,SmartbBox,0.234,-0.039,-0.88,0,0,0.0,False
2019-10-27 10:56:11.620,SmartbBox,-0.013,-0.126,-0.98,0,0,0.0,False
2019-10-27 10:56:11.640,SmartbBox,-0.012,-0.166,-1.112,0,0,0.0,False
2019-10-27 10:56:11.660,SmartbBox,-0.132,-0.059,-0.857,0,0,0.0,False
2019-10-27 10:56:11.680,SmartbBox,0.064,-0.106,-0.814,0,0,0.0,False
2019-10-27 10:56:11.700,SmartbBox,0.03,0.008,-0.818,0,0,0.0,False
2019-10-27 10:56:11.720,SmartbBox,-0.06,-0.013,-0.826,0,0,0.0,False
2019-10-27 10:56:11.740,SmartbBox,-0.082,-0.052,-0.694,0,0,0.0,False
2019-10-27 10:56:11.760,SmartbBox,-0.08,-0.052,-0.721,0,0,0.0,False
2019-10-27 10:56:11.780,SmartbBox,0.023,0.008,-0.738,0,0,0.0,False
2019-10-27 10:56:11.800,SmartbBox,-0.012,0.017,-0.794,0,0,0.0,False
2019-10-27 10:56:11.820,SmartbBox,-0.032,-0.062,-0.796,0,0,0.0,False
2019-10-27 10:56:11.840,SmartbBox,-0.048,-0.038,-0.798,0,0,0.0,False
2019-10-27 10:56:11.860,SmartbBox,-0.016,-0.022,-0.874,0,0,0.0,False
2019-10-27 10:56:11.880,SmartbBox,0.007,-0.008,-0.846,0,0,0.0,False
2019-10-27 10:56:11.900,SmartbBox,-0.064,-0.013,-0.772,0,0,0.0,False
2019-10-27 10:56:11.920,SmartbBox,-0.036,-0.038,-0.929,0,0,0.0,False
2019-10-27 10:56:11.940,SmartbBox,-0.019,-0.062,-0.954,0,0,0.0,False
2019-10-27 10:56:11.960,SmartbBox,0.004,0.016,-0.978,0,0,0.0,False
2019-10-27 10:56:11.980,SmartbBox,0.018,-0.008,-0.977,0,0,0.0,True
2019-10-27 10:56:12.000,SmartbBox,0.012,0.016,-1.084,0,0,0.0,False
2019-10-27 10:56:12.020,SmartbBox,-0.035,-0.014,-1.114,0,0,0.0,False
2019-10-27 10:56:12.040,SmartbBox,-0.04,-0.014,-1.062,0,0,0.0,False
2019-10-27 10:56:12.060,SmartbBox,0.012,-0.048,-1.031,0,0,0.0,False
2019-10-27 10:56:12.080,SmartbBox,-0.046,-0.054,-1.115,0,0,0.0,False
2019-10-27 10:56:12.100,SmartbBox,-0.092,-0.044,-1.039,0,0,0.0,False
2019-10-27 10:56:12.120,SmartbBox,-0.044,-0.014,-1.009,0,0,0.0,False
2019-10-27 10:56:12.140,SmartbBox,-0.032,-0.038,-0.982,0,0,0.0,False
2019-10-27 10:56:12.160,SmartbBox,0.023,-0.008,-1.03,0,0,0.0,False
2019-10-27 10:56:12.180,SmartbBox,-0.042,-0.014,-1.036,0,0,0.0,False
2019-10-27 10:56:12.200,SmartbBox,-0.005,-0.023,-1.006,0,0,0.0,False
2019-10-27 10:56:12.220,SmartbBox,-0.009,-0.023,-0.954,0,0,0.0,False
2019-10-27 10:56:12.240,SmartbBox,-0.026,0.002,-0.928,0,0,0.0,False
2019-10-27 10:56:12.260,SmartbBox,-0.012,-0.023,-0.927,0,0,0.0,False
2019-10-27 10:56:12.280,SmartbBox,-0.038,-0.038,-0.902,0,0,0.0,False
2019-10-27 10:56:12.300,SmartbBox,-0.024,0.002,-0.955,0,0,0.0,False
2019-10-27 10:56:12.320,SmartbBox,0.028,-0.032,-0.924,0,0,0.0,False
2019-10-27 10:56:12.340,SmartbBox,0.014,-0.008,-0.925,0,0,0.0,False
2019-10-27 10:56:12.360,SmartbBox,0.002,-0.047,-0.9,0,0,0.0,False
2019-10-27 10:56:12.380,SmartbBox,-0.014,-0.023,-0.901,0,0,0.0,False
2019-10-27 10:56:12.400,SmartbBox,-0.051,-0.014,-0.931,0,0,0.0,False
2019-10-27 10:56:12.420,SmartbBox,-0.049,-0.014,-0.957,0,0,0.0,False
2019-10-27 10:56:12.440,SmartbBox,-0.028,0.002,-0.902,0,0,0.0,False
2019-10-27 10:56:12.460,SmartbBox,-0.022,0.002,-0.981,0,0,0.0,False
2019-10-27 10:56:12.480,SmartbBox,-0.034,-0.038,-0.956,0,0,0.0,False
2019-10-27 10:56:12.500,SmartbBox,-0.007,-0.023,-0.98,0,0,0.0,False
2019-10-27 10:56:12.520,SmartbBox,-0.022,0.002,-0.981,0,0,0.0,False
2019-10-27 10:56:12.540,SmartbBox,-0.03,-0.038,-1.008,0,0,0.0,False
2019-10-27 10:56:12.560,SmartbBox,-0.017,-0.062,-0.981,0,0,0.0,False
2019-10-27 10:56:12.580,SmartbBox,-0.032,-0.038,-0.982,0,0,0.0,False
2019-10-27 10:56:12.600,SmartbBox,-0.032,-0.038,-0.982,0,0,0.0,False
2019-10-27 10:56:12.620,SmartbBox,-0.034,-0.038,-0.956,0,0,0.0,False
2019-10-27 10:56:12.640,SmartbBox,-0.032,-0.038,-0.982,0,0,0.0,False
2019-10-27 10:56:12.660,SmartbBox,-0.032,-0.038,-0.982,0,0,0.0,False
2019-10-27 10:56:12.680,SmartbBox,-0.046,-0.014,-0.983,0,0,0.0,False
2019-10-27 10:56:12.700,SmartbBox,-0.004,-0.024,-1.006,0,0,0.0,False
2019-10-27 10:56:12.720,SmartbBox,-0.024,0.002,-0.955,0,0,0.0,False
2019-10-27 10:56:12.740,SmartbBox,-0.02,0.001,-1.007,0,0,0.0,False
2019-10-27 10:56:12.760,SmartbBox,-0.019,-0.062,-0.954,0,0,0.0,False
2019-10-27 10:56:12.780,SmartbBox,0.008,-0.048,-0.978,0,0,0.0,False
2019-10-27 10:56:12.800,SmartbBox,-0.006,-0.023,-0.98,0,0,0.0,False
2019-10-27 10:56:12.820,SmartbBox,-0.03,-0.038,-1.008,0,0,0.0,False
2019-10-27 10:56:12.840,SmartbBox,-0.034,-0.038,-0.956,0,0,0.0,False
2019-10-27 10:56:12.860,SmartbBox,0.001,0.017,-0.952,0,0,0.0,False
2019-10-27 10:56:12.880,SmartbBox,-0.022,0.001,-0.981,0,0,0.0,False
2019-10-27 10:56:12.900,SmartbBox,-0.022,0.002,-0.981,0,0,0.0,False
2019-10-27 10:56:12.920,SmartbBox,0.004,0.016,-0.978,0,0,0.0,False
2019-10-27 10:56:12.940,SmartbBox,-0.024,0.002,-0.955,0,0,0.0,False
2019-10-27 10:56:12.960,SmartbBox,-0.024,0.002,-0.955,0,0,0.0,False
2019-10-27 10:56:12.980,SmartbBox,-0.032,-0.038,-0.982,0,0,0.0,False
2019-10-27 10:56:13.000,SmartbBox,-0.022,0.001,-0.981,0,0,0.0,False
2019-10-27 10:56:13.020,SmartbBox,-0.034,-0.038,-0.956,0,0,0.0,False
2019-10-27 10:56:13.040,SmartbBox,-0.017,-0.062,-0.981,0,0,0.0,False
2019-10-27 10:56:13.060,SmartbBox,-0.034,-0.038,-0.956,0,0,0.0,False
2019-10-27 10:56:13.080,SmartbBox,-0.024,-0.062,-0.901,0,0,0.0,False
2019-10-27 10:56:13.100,SmartbBox,-0.034,-0.038,-0.956,0,0,0.0,False
2019-10-27 10:56:13.120,SmartbBox,-0.022,0.002,-0.981,0,0,0.0,False
2019-10-27 10:56:13.140,SmartbBox,-0.046,-0.014,-0.983,0,0,0.0,False
2019-10-27 10:56:13.160,SmartbBox,-0.024,0.002,-0.955,0,0,0.0,False
2019-10-27 10:56:13.180,SmartbBox,-0.024,0.002,-0.955,0,0,0.0,False
2019-10-27 10:56:13.200,SmartbBox,-0.046,-0.014,-0.983,0,0,0.0,False
2019-10-27 10:56:13.220,SmartbBox,-0.022,0.002,-0.981,0,0,0.0,False
2019-10-27 10:56:13.240,SmartbBox,-0.044,-0.014,-1.009,0,0,0.0,False
2019-10-27 10:56:13.260,SmartbBox,0.016,-0.008,-0.951,0,0,0.0,False
2019-10-27 10:56:13.280,SmartbBox,-0.049,-0.014,-0.957,0,0,0.0,False
2019-10-27 10:56:13.300,SmartbBox,-0.049,-0.014,-0.957,0,0,0.0,False
2019-10-27 10:56:13.320,SmartbBox,-0.024,0.002,-0.955,0,0,0.0,False
2019-10-27 10:56:13.340,SmartbBox,-0.024,0.002,-0.955,0,0,0.0,False
2019-10-27 10:56:13.360,SmartbBox,-0.051,-0.014,-0.931,0,0,0.0,False
2019-10-27 10:56:13.380,SmartbBox,-0.049,-0.014,-0.957,0,0,0.0,False
2019-10-27 10:56:13.400,SmartbBox,-0.066,0.011,-0.932,0,0,0.0,False
2019-10-27 10:56:13.420,SmartbBox,-0.051,-0.014,-0.931,0,0,0.0,False
2019-10-27 10:56:13.440,SmartbBox,-0.064,0.011,-0.958,0,0,0.0,False
2019-10-27 10:56:13.460,SmartbBox,-0.051,-0.014,-0.931,0,0,0.0,False
