UTC_timestamp,device_name,x,y,z,lat,long,speed,event
2019-10-22 15:32:41.480,SmartbBox,-0.072,-0.03,-1.098,0,0,0.0,False
2019-10-22 15:32:41.500,SmartbBox,-0.037,-0.036,-1.049,0,0,0.0,False
2019-10-22 15:32:41.520,SmartbBox,-0.037,-0.066,-1.023,0,0,0.0,False
2019-10-22 15:32:41.540,SmartbBox,-0.026,-0.038,-0.97,0,0,0.0,False
2019-10-22 15:32:41.560,SmartbBox,-0.033,-0.037,-1.023,0,0,0.0,False
2019-10-22 15:32:41.580,SmartbBox,-0.022,0.02,-0.996,0,0,0.0,False
2019-10-22 15:32:41.600,SmartbBox,-0.025,0.021,-1.022,0,0,0.0,False
2019-10-22 15:32:41.620,SmartbBox,-0.029,-0.008,-1.022,0,0,0.0,False
2019-10-22 15:32:41.640,SmartbBox,-0.029,-0.008,-1.022,0,0,0.0,False
2019-10-22 15:32:41.660,SmartbBox,-0.033,-0.037,-1.023,0,0,0.0,False
2019-10-22 15:32:41.680,SmartbBox,-0.033,-0.037,-1.023,0,0,0.0,False
2019-10-22 15:32:41.700,SmartbBox,-0.062,-0.033,-1.019,0,0,0.0,False
2019-10-22 15:32:41.720,SmartbBox,-0.029,-0.008,-1.022,0,0,0.0,False
2019-10-22 15:32:41.740,SmartbBox,-0.061,-0.003,-1.045,0,0,0.0,False
2019-10-22 15:32:41.760,SmartbBox,-0.028,0.022,-1.048,0,0,0.0,False
2019-10-22 15:32:41.780,SmartbBox,-0.082,0.028,-1.014,0,0,0.0,False
2019-10-22 15:32:41.800,SmartbBox,-0.028,0.022,-1.048,0,0,0.0,False
2019-10-22 15:32:41.820,SmartbBox,-0.064,-0.002,-1.072,0,0,0.0,False
2019-10-22 15:32:41.840,SmartbBox,-0.037,-0.036,-1.049,0,0,0.0,False
2019-10-22 15:32:41.860,SmartbBox,-0.029,-0.008,-1.022,0,0,0.0,False
2019-10-22 15:32:41.880,SmartbBox,-0.037,-0.036,-1.049,0,0,0.0,False
2019-10-22 15:32:41.900,SmartbBox,-0.065,-0.032,-1.046,0,0,0.0,False
2019-10-22 15:32:41.920,SmartbBox,-0.037,-0.036,-1.049,0,0,0.0,False
2019-10-22 15:32:41.940,SmartbBox,-0.037,-0.036,-1.049,0,0,0.0,False
2019-10-22 15:32:41.960,SmartbBox,-0.032,-0.007,-1.049,0,0,0.0,False
2019-10-22 15:32:41.980,SmartbBox,-0.061,0.027,-1.071,0,0,0.0,False
2019-10-22 15:32:42.000,SmartbBox,-0.025,0.021,-1.022,0,0,0.0,False
2019-10-22 15:32:42.020,SmartbBox,-0.057,0.026,-1.044,0,0,0.0,False
2019-10-22 15:32:42.040,SmartbBox,-0.028,0.022,-1.048,0,0,0.0,False
2019-10-22 15:32:42.060,SmartbBox,-0.033,-0.037,-1.023,0,0,0.0,False
2019-10-22 15:32:42.080,SmartbBox,-0.032,-0.007,-1.049,0,0,0.0,False
2019-10-22 15:32:42.100,SmartbBox,-0.033,-0.037,-1.023,0,0,0.0,False
2019-10-22 15:32:42.120,SmartbBox,-0.062,-0.033,-1.019,0,0,0.0,False
2019-10-22 15:32:42.140,SmartbBox,-0.032,-0.007,-1.049,0,0,0.0,False
2019-10-22 15:32:42.160,SmartbBox,-0.022,0.02,-0.996,0,0,0.0,False
2019-10-22 15:32:42.180,SmartbBox,-0.033,-0.037,-1.023,0,0,0.0,False
2019-10-22 15:32:42.200,SmartbBox,-0.025,0.021,-1.022,0,0,0.0,False
2019-10-22 15:32:42.220,SmartbBox,-0.062,-0.033,-1.019,0,0,0.0,False
2019-10-22 15:32:42.240,SmartbBox,-0.037,-0.036,-1.049,0,0,0.0,False
2019-10-22 15:32:42.260,SmartbBox,-0.033,-0.037,-1.023,0,0,0.0,False
2019-10-22 15:32:42.280,SmartbBox,-0.065,-0.032,-1.045,0,0,0.0,False
2019-10-22 15:32:42.300,SmartbBox,-0.064,-0.002,-1.072,0,0,0.0,False
2019-10-22 15:32:42.320,SmartbBox,-0.061,-0.003,-1.045,0,0,0.0,False
2019-10-22 15:32:42.340,SmartbBox,-0.086,0.0,-1.014,0,0,0.0,False
2019-10-22 15:32:42.360,SmartbBox,-0.057,0.026,-1.044,0,0,0.0,False
2019-10-22 15:32:42.380,SmartbBox,-0.057,0.026,-1.044,0,0,0.0,False
2019-10-22 15:32:42.400,SmartbBox,-0.037,-0.036,-1.049,0,0,0.0,False
2019-10-22 15:32:42.420,SmartbBox,-0.062,-0.033,-1.019,0,0,0.0,False
2019-10-22 15:32:42.440,SmartbBox,-0.005,-0.041,-1.027,0,0,0.0,False
2019-10-22 15:32:42.460,SmartbBox,-0.066,-0.062,-1.019,0,0,0.0,False
2019-10-22 15:32:42.480,SmartbBox,-0.037,-0.036,-1.049,0,0,0.0,False
2019-10-22 15:32:42.500,SmartbBox,-0.037,-0.036,-1.049,0,0,0.0,False
2019-10-22 15:32:42.520,SmartbBox,-0.029,-0.008,-1.022,0,0,0.0,False
2019-10-22 15:32:42.540,SmartbBox,-0.037,-0.036,-1.049,0,0,0.0,False
2019-10-22 15:32:42.560,SmartbBox,-0.033,-0.037,-1.023,0,0,0.0,False
2019-10-22 15:32:42.580,SmartbBox,-0.029,-0.008,-1.022,0,0,0.0,False
2019-10-22 15:32:42.600,SmartbBox,-0.062,-0.033,-1.019,0,0,0.0,False
2019-10-22 15:32:42.620,SmartbBox,-0.057,-0.004,-1.018,0,0,0.0,False
2019-10-22 15:32:42.640,SmartbBox,-0.05,-0.006,-0.966,0,0,0.0,False
2019-10-22 15:32:42.660,SmartbBox,-0.029,-0.008,-1.022,0,0,0.0,False
2019-10-22 15:32:42.680,SmartbBox,-0.028,0.052,-1.074,0,0,0.0,False
2019-10-22 15:32:42.700,SmartbBox,-0.061,-0.003,-1.045,0,0,0.0,False
2019-10-22 15:32:42.720,SmartbBox,-0.025,0.021,-1.022,0,0,0.0,False
2019-10-22 15:32:42.740,SmartbBox,-0.053,0.025,-1.018,0,0,0.0,False
2019-10-22 15:32:42.760,SmartbBox,-0.025,0.021,-1.022,0,0,0.0,False
2019-10-22 15:32:42.780,SmartbBox,-0.065,-0.032,-1.045,0,0,0.0,False
2019-10-22 15:32:42.800,SmartbBox,-0.062,-0.033,-1.019,0,0,0.0,False
2019-10-22 15:32:42.820,SmartbBox,-0.037,-0.036,-1.049,0,0,0.0,False
2019-10-22 15:32:42.840,SmartbBox,-0.037,-0.036,-1.049,0,0,0.0,False
2019-10-22 15:32:42.860,SmartbBox,-0.053,0.025,-1.018,0,0,0.0,False
2019-10-22 15:32:42.880,SmartbBox,-0.029,-0.008,-1.022,0,0,0.0,False
2019-10-22 15:32:42.900,SmartbBox,-0.037,-0.036,-1.049,0,0,0.0,False
2019-10-22 15:32:42.920,SmartbBox,-0.068,-0.001,-1.098,0,0,0.0,False
2019-10-22 15:32:42.940,SmartbBox,-0.036,-0.006,-1.076,0,0,0.0,False
2019-10-22 15:32:42.960,SmartbBox,-0.032,-0.007,-1.049,0,0,0.0,False
2019-10-22 15:32:42.980,SmartbBox,-0.033,-0.037,-1.023,0,0,0.0,True
2019-10-22 15:32:43.000,SmartbBox,-0.062,-0.032,-1.019,0,0,0.0,False
2019-10-22 15:32:43.020,SmartbBox,-0.033,-0.037,-1.023,0,0,0.0,False
2019-10-22 15:32:43.040,SmartbBox,-0.022,-0.01,-0.97,0,0,0.0,False
2019-10-22 15:32:43.060,SmartbBox,-0.062,-0.033,-1.019,0,0,0.0,False
2019-10-22 15:32:43.080,SmartbBox,-0.057,-0.004,-1.018,0,0,0.0,False
2019-10-22 15:32:43.100,SmartbBox,-0.022,-0.01,-0.97,0,0,0.0,False
2019-10-22 15:32:43.120,SmartbBox,-0.019,-0.07,-0.891,0,0,0.0,False
2019-10-22 15:32:43.140,SmartbBox,-0.03,-0.067,-0.97,0,0,0.0,False
2019-10-22 15:32:43.160,SmartbBox,-0.09,-0.029,-1.015,0,0,0.0,False
2019-10-22 15:32:43.180,SmartbBox,-0.062,-0.033,-1.019,0,0,0.0,False
2019-10-22 15:32:43.200,SmartbBox,-0.085,0.029,-1.04,0,0,0.0,False
2019-10-22 15:32:43.220,SmartbBox,-0.068,-0.001,-1.098,0,0,0.0,False
2019-10-22 15:32:43.240,SmartbBox,-0.053,0.054,-1.044,0,0,0.0,False
2019-10-22 15:32:43.260,SmartbBox,-0.018,0.019,-0.969,0,0,0.0,False
2019-10-22 15:32:43.280,SmartbBox,-0.02,0.108,-1.074,0,0,0.0,False
2019-10-22 15:32:43.300,SmartbBox,-0.088,0.09,-1.119,0,0,0.0,False
2019-10-22 15:32:43.320,SmartbBox,-0.053,0.055,-1.044,0,0,0.0,False
2019-10-22 15:32:43.340,SmartbBox,-0.017,0.048,-0.995,0,0,0.0,False
2019-10-22 15:32:43.360,SmartbBox,-0.036,0.024,-1.102,0,0,0.0,False
2019-10-22 15:32:43.380,SmartbBox,-0.065,-0.002,-1.072,0,0,0.0,False
2019-10-22 15:32:43.400,SmartbBox,-0.058,-0.034,-0.992,0,0,0.0,False
2019-10-22 15:32:43.420,SmartbBox,-0.03,-0.038,-0.996,0,0,0.0,False
2019-10-22 15:32:43.440,SmartbBox,-0.026,-0.038,-0.97,0,0,0.0,False
2019-10-22 15:32:43.460,SmartbBox,-0.026,-0.038,-0.97,0,0,0.0,False
2019-10-22 15:32:43.480,SmartbBox,-0.014,-0.012,-0.916,0,0,0.0,False
2019-10-22 15:32:43.500,SmartbBox,-0.032,-0.04,-0.807,0,0,0.0,False
2019-10-22 15:32:43.520,SmartbBox,-0.027,-0.068,-0.944,0,0,0.0,False
2019-10-22 15:32:43.540,SmartbBox,-0.037,-0.006,-1.076,0,0,0.0,False
2019-10-22 15:32:43.560,SmartbBox,-0.09,-0.058,-0.989,0,0,0.0,False
2019-10-22 15:32:43.580,SmartbBox,-0.149,0.069,-1.112,0,0,0.0,False
2019-10-22 15:32:43.600,SmartbBox,-0.051,-0.002,-1.182,0,0,0.0,False
2019-10-22 15:32:43.620,SmartbBox,-0.023,-0.006,-1.186,0,0,0.0,False
2019-10-22 15:32:43.640,SmartbBox,0.014,0.044,-0.972,0,0,0.0,False
2019-10-22 15:32:43.660,SmartbBox,-0.04,-0.005,-1.102,0,0,0.0,False
2019-10-22 15:32:43.680,SmartbBox,-0.04,-0.005,-1.102,0,0,0.0,False
2019-10-22 15:32:43.700,SmartbBox,-0.021,0.079,-1.047,0,0,0.0,False
2019-10-22 15:32:43.720,SmartbBox,-0.04,-0.035,-1.076,0,0,0.0,False
2019-10-22 15:32:43.740,SmartbBox,-0.032,0.023,-1.075,0,0,0.0,False
2019-10-22 15:32:43.760,SmartbBox,-0.037,-0.036,-1.049,0,0,0.0,False
2019-10-22 15:32:43.780,SmartbBox,-0.057,-0.004,-1.018,0,0,0.0,False
2019-10-22 15:32:43.800,SmartbBox,-0.033,-0.037,-1.023,0,0,0.0,False
2019-10-22 15:32:43.820,SmartbBox,-0.029,-0.008,-1.022,0,0,0.0,False
2019-10-22 15:32:43.840,SmartbBox,-0.033,-0.037,-1.023,0,0,0.0,False
2019-10-22 15:32:43.860,SmartbBox,-0.026,-0.038,-0.97,0,0,0.0,False
2019-10-22 15:32:43.880,SmartbBox,-0.033,-0.037,-1.023,0,0,0.0,False
2019-10-22 15:32:43.900,SmartbBox,-0.058,-0.034,-0.992,0,0,0.0,False
2019-10-22 15:32:43.920,SmartbBox,-0.026,-0.009,-0.996,0,0,0.0,False
2019-10-22 15:32:43.940,SmartbBox,-0.054,-0.005,-0.992,0,0,0.0,False
2019-10-22 15:32:43.960,SmartbBox,-0.037,-0.066,-1.023,0,0,0.0,False
2019-10-22 15:32:43.980,SmartbBox,-0.03,-0.038,-0.996,0,0,0.0,False
2019-10-22 15:32:44.000,SmartbBox,-0.03,-0.038,-0.996,0,0,0.0,False
2019-10-22 15:32:44.020,SmartbBox,-0.057,-0.004,-1.018,0,0,0.0,False
2019-10-22 15:32:44.040,SmartbBox,-0.025,0.021,-1.022,0,0,0.0,False
2019-10-22 15:32:44.060,SmartbBox,-0.032,-0.007,-1.049,0,0,0.0,False
2019-10-22 15:32:44.080,SmartbBox,-0.062,-0.033,-1.019,0,0,0.0,False
2019-10-22 15:32:44.100,SmartbBox,-0.026,-0.009,-0.996,0,0,0.0,False
2019-10-22 15:32:44.120,SmartbBox,-0.029,-0.008,-1.022,0,0,0.0,False
2019-10-22 15:32:44.140,SmartbBox,-0.029,-0.008,-1.022,0,0,0.0,False
2019-10-22 15:32:44.160,SmartbBox,-0.064,-0.002,-1.072,0,0,0.0,False
2019-10-22 15:32:44.180,SmartbBox,-0.04,-0.035,-1.076,0,0,0.0,False
2019-10-22 15:32:44.200,SmartbBox,-0.065,-0.032,-1.045,0,0,0.0,False
2019-10-22 15:32:44.220,SmartbBox,-0.065,-0.032,-1.045,0,0,0.0,False
2019-10-22 15:32:44.240,SmartbBox,-0.065,-0.032,-1.045,0,0,0.0,False
2019-10-22 15:32:44.260,SmartbBox,-0.037,-0.036,-1.049,0,0,0.0,False
2019-10-22 15:32:44.280,SmartbBox,-0.061,-0.003,-1.045,0,0,0.0,False
2019-10-22 15:32:44.300,SmartbBox,-0.037,-0.036,-1.049,0,0,0.0,False
2019-10-22 15:32:44.320,SmartbBox,-0.029,-0.008,-1.022,0,0,0.0,False
2019-10-22 15:32:44.340,SmartbBox,-0.03,-0.038,-0.996,0,0,0.0,False
2019-10-22 15:32:44.360,SmartbBox,-0.026,-0.009,-0.996,0,0,0.0,False
2019-10-22 15:32:44.380,SmartbBox,-0.057,0.026,-1.044,0,0,0.0,False
2019-10-22 15:32:44.400,SmartbBox,-0.032,-0.007,-1.049,0,0,0.0,False
2019-10-22 15:32:44.420,SmartbBox,-0.029,-0.008,-1.022,0,0,0.0,False
2019-10-22 15:32:44.440,SmartbBox,-0.026,-0.008,-0.996,0,0,0.0,False
2019-10-22 15:32:44.460,SmartbBox,-0.033,-0.037,-1.023,0,0,0.0,False
