UTC_timestamp,device_name,timestamp,x,y,z,lat,long,event,speed
2019-10-27 11:16:47.180,LG-H970,1572175007189.5,0.291,7.726,-2.734,41.1178265,16.8729705,False,10.142999999999999
2019-10-27 11:16:47.200,LG-H970,1572175007211.0,0.501,11.074,-1.516,41.1178265,16.8729705,False,10.142999999999999
2019-10-27 11:16:47.220,LG-H970,1572175007231.25,-1.377,8.169,0.491,41.1178265,16.8729705,False,10.142999999999999
2019-10-27 11:16:47.240,LG-H970,1572175007251.0,0.466,11.327,-0.333,41.1178265,16.8729705,False,10.142999999999999
2019-10-27 11:16:47.260,LG-H970,1572175007270.0,-0.513,10.916,-0.877,41.1178265,16.8729705,False,10.142999999999999
2019-10-27 11:16:47.280,LG-H970,1572175007290.0,-1.22,8.916,-0.404,41.1178265,16.8729705,False,10.142999999999999
2019-10-27 11:16:47.300,LG-H970,1572175007309.25,0.103,5.272,-2.056,41.1178265,16.8729705,False,10.142999999999999
2019-10-27 11:16:47.320,LG-H970,1572175007329.5,0.868,7.312,-2.784,41.1178265,16.8729705,False,10.142999999999999
2019-10-27 11:16:47.340,LG-H970,1572175007350.0,-1.56,9.204,-0.405,41.1178265,16.8729705,False,10.142999999999999
2019-10-27 11:16:47.360,LG-H970,1572175007370.25,-1.963,10.349,-0.218,41.1178265,16.8729705,False,10.142999999999999
2019-10-27 11:16:47.380,LG-H970,1572175007390.4,0.128,10.202,-0.108,41.1178265,16.8729705,False,10.142999999999999
2019-10-27 11:16:47.400,LG-H970,1572175007411.3333,0.307,8.921,-1.571,41.1178265,16.8729705,False,10.142999999999999
2019-10-27 11:16:47.420,LG-H970,1572175007428.75,-1.732,7.516,1.442,41.1178265,16.8729705,False,10.142999999999999
2019-10-27 11:16:47.440,LG-H970,1572175007448.0,0.383,10.463,-3.985,41.1178265,16.8729705,False,10.142999999999999
2019-10-27 11:16:47.460,LG-H970,1572175007468.0,-2.028,8.959,-1.761,41.1178265,16.8729705,False,10.142999999999999
2019-10-27 11:16:47.480,LG-H970,1572175007488.25,-1.099,9.593,2.814,41.1178265,16.8729705,False,10.142999999999999
2019-10-27 11:16:47.500,LG-H970,1572175007507.75,0.436,9.301,-1.242,41.1178265,16.8729705,False,10.142999999999999
2019-10-27 11:16:47.520,LG-H970,1572175007527.0,-0.307,11.731,0.769,41.1178265,16.8729705,False,10.142999999999999
2019-10-27 11:16:47.540,LG-H970,1572175007547.5,-0.762,8.524,-3.123,41.1178265,16.8729705,False,10.142999999999999
2019-10-27 11:16:47.560,LG-H970,1572175007566.0,-0.779,8.236,0.515,41.1178265,16.8729705,False,10.142999999999999
2019-10-27 11:16:47.580,LG-H970,1572175007587.8,0.593,9.524,-0.645,41.1178265,16.8729705,False,10.142999999999999
2019-10-27 11:16:47.600,LG-H970,1572175007609.6667,-0.377,11.447,0.22,41.1177109,16.8729956,False,9.940999999999999
2019-10-27 11:16:47.620,LG-H970,1572175007628.5,-0.618,12.113,-2.113,41.1176531,16.8730081,False,9.84
2019-10-27 11:16:47.640,LG-H970,1572175007649.0,-1.581,8.564,-0.556,41.1176531,16.8730081,False,9.84
2019-10-27 11:16:47.660,LG-H970,1572175007669.25,0.779,9.011,-0.528,41.1176531,16.8730081,False,9.84
2019-10-27 11:16:47.680,LG-H970,1572175007689.25,0.285,8.738,-1.118,41.1176531,16.8730081,False,9.84
2019-10-27 11:16:47.700,LG-H970,1572175007709.5,-0.876,10.442,-0.006,41.1176531,16.8730081,False,9.84
2019-10-27 11:16:47.720,LG-H970,1572175007729.0,-1.252,10.245,-1.275,41.1176531,16.8730081,False,9.84
2019-10-27 11:16:47.740,LG-H970,1572175007748.5,-0.321,10.074,-0.961,41.1176531,16.8730081,False,9.84
2019-10-27 11:16:47.760,LG-H970,1572175007770.4,-0.083,8.194,-1.331,41.1176531,16.8730081,False,9.84
2019-10-27 11:16:47.780,LG-H970,1572175007791.75,-0.632,8.642,-1.603,41.1176531,16.8730081,False,9.84
2019-10-27 11:16:47.800,LG-H970,1572175007810.3333,-0.659,9.569,-1.977,41.1176531,16.8730081,False,9.84
2019-10-27 11:16:47.820,LG-H970,1572175007830.0,-0.807,10.167,-0.07,41.1176531,16.8730081,False,9.84
2019-10-27 11:16:47.840,LG-H970,1572175007848.0,0.096,10.31,-0.721,41.1176531,16.8730081,False,9.84
2019-10-27 11:16:47.860,LG-H970,1572175007870.2,0.634,10.324,-0.863,41.1176531,16.8730081,False,9.84
2019-10-27 11:16:47.880,LG-H970,1572175007892.25,-0.927,8.626,-1.587,41.1176531,16.8730081,False,9.84
2019-10-27 11:16:47.900,LG-H970,1572175007911.5,0.054,11.182,-1.487,41.1176531,16.8730081,False,9.84
2019-10-27 11:16:47.920,LG-H970,1572175007930.25,-0.388,9.453,-1.51,41.1176531,16.8730081,False,9.84
2019-10-27 11:16:47.940,LG-H970,1572175007950.25,0.075,10.158,0.056,41.1176531,16.8730081,False,9.84
2019-10-27 11:16:47.960,LG-H970,1572175007969.75,-0.251,9.64,-0.668,41.1176531,16.8730081,False,9.84
2019-10-27 11:16:47.980,LG-H970,1572175007989.75,-0.74,10.147,-0.883,41.1176531,16.8730081,False,9.84
2019-10-27 11:16:48.000,LG-H970,1572175008007.3333,-0.76,9.893,-1.434,41.1176531,16.8730081,False,9.84
2019-10-27 11:16:48.020,LG-H970,1572175008028.0,-0.657,9.218,-1.33,41.1176531,16.8730081,False,9.84
2019-10-27 11:16:48.040,LG-H970,1572175008050.25,-0.417,8.986,-0.713,41.1176531,16.8730081,False,9.84
2019-10-27 11:16:48.060,LG-H970,1572175008070.5,-0.286,9.325,-1.334,41.1176531,16.8730081,False,9.84
2019-10-27 11:16:48.080,LG-H970,1572175008089.0,-0.353,9.852,-0.895,41.1176531,16.8730081,False,9.84
2019-10-27 11:16:48.100,LG-H970,1572175008110.0,-0.499,10.018,-1.069,41.1176531,16.8730081,False,9.84
2019-10-27 11:16:48.120,LG-H970,1572175008128.0,-0.384,10.406,-0.945,41.1176531,16.8730081,False,9.84
2019-10-27 11:16:48.140,LG-H970,1572175008149.4,-0.644,9.678,-0.765,41.1176531,16.8730081,False,9.84
2019-10-27 11:16:48.160,LG-H970,1572175008171.75,-0.468,9.669,-1.43,41.1176531,16.8730081,False,9.84
2019-10-27 11:16:48.180,LG-H970,1572175008191.5,-0.652,9.113,-1.286,41.1176531,16.8730081,False,9.84
2019-10-27 11:16:48.200,LG-H970,1572175008212.25,-0.581,9.117,-1.717,41.1176531,16.8730081,False,9.84
2019-10-27 11:16:48.220,LG-H970,1572175008231.5,-0.262,9.806,-1.132,41.1176531,16.8730081,False,9.84
2019-10-27 11:16:48.240,LG-H970,1572175008250.5,-0.225,9.875,-1.016,41.1176531,16.8730081,False,9.84
2019-10-27 11:16:48.260,LG-H970,1572175008269.5,-0.384,9.737,-1.055,41.1176531,16.8730081,False,9.84
2019-10-27 11:16:48.280,LG-H970,1572175008288.0,-0.131,10.755,-1.006,41.1176531,16.8730081,False,9.84
2019-10-27 11:16:48.300,LG-H970,1572175008308.0,-1.153,9.448,-1.418,41.1176531,16.8730081,False,9.84
2019-10-27 11:16:48.320,LG-H970,1572175008330.25,-0.564,10.141,-1.064,41.1176531,16.8730081,False,9.84
2019-10-27 11:16:48.340,LG-H970,1572175008350.75,-0.354,8.853,-1.808,41.1176531,16.8730081,False,9.84
2019-10-27 11:16:48.360,LG-H970,1572175008369.25,-0.44,9.457,-0.548,41.1176531,16.8730081,False,9.84
2019-10-27 11:16:48.380,LG-H970,1572175008388.75,-0.422,9.718,-1.422,41.1176531,16.8730081,False,9.84
2019-10-27 11:16:48.400,LG-H970,1572175008409.0,-0.231,10.075,-1.021,41.1176531,16.8730081,False,9.84
2019-10-27 11:16:48.420,LG-H970,1572175008428.5,0.163,10.744,-1.342,41.1176531,16.8730081,False,9.84
2019-10-27 11:16:48.440,LG-H970,1572175008448.25,-0.909,9.714,-0.973,41.1176531,16.8730081,False,9.84
2019-10-27 11:16:48.460,LG-H970,1572175008468.0,-1.11,9.657,-1.171,41.1176531,16.8730081,False,9.84
2019-10-27 11:16:48.480,LG-H970,1572175008487.25,-0.776,9.614,-1.485,41.1176531,16.8730081,False,9.84
2019-10-27 11:16:48.500,LG-H970,1572175008507.0,-0.304,9.211,-0.926,41.1176531,16.8730081,False,9.84
2019-10-27 11:16:48.520,LG-H970,1572175008529.2,-0.185,9.66,-1.185,41.1176531,16.8730081,False,9.84
2019-10-27 11:16:48.540,LG-H970,1572175008551.0,-0.614,9.481,-0.95,41.1176531,16.8730081,False,9.84
2019-10-27 11:16:48.560,LG-H970,1572175008569.6667,0.2,10.69,-1.182,41.1176531,16.8730081,False,9.84
2019-10-27 11:16:48.580,LG-H970,1572175008589.2,-0.368,9.669,-0.87,41.1176531,16.8730081,False,9.84
2019-10-27 11:16:48.600,LG-H970,1572175008609.0,0.098,10.425,-1.64,41.1176531,16.8730081,False,9.84
2019-10-27 11:16:48.620,LG-H970,1572175008627.75,-1.019,9.687,-0.933,41.1175671,16.8730224,False,10.18
2019-10-27 11:16:48.640,LG-H970,1572175008649.5,-0.894,9.722,-1.238,41.1175671,16.8730224,False,10.18
2019-10-27 11:16:48.660,LG-H970,1572175008661.0,-1.011,8.761,-0.086,41.1175671,16.8730224,False,10.18
2019-10-27 11:16:48.680,LG-H970,1572175008688.6667,-0.345,9.503,-0.909,41.1175671,16.8730224,True,10.18
2019-10-27 11:16:48.700,LG-H970,1572175008688.6667,-0.345,9.503,-0.909,41.1175671,16.8730224,True,10.18
2019-10-27 11:16:48.720,LG-H970,1572175008725.5,-0.034,10.129,-1.306,41.1175671,16.8730224,False,10.18
2019-10-27 11:16:48.740,LG-H970,1572175008746.6,-0.79,9.977,-0.803,41.1175671,16.8730224,False,10.18
2019-10-27 11:16:48.760,LG-H970,1572175008767.5,-0.771,10.338,-0.742,41.1175671,16.8730224,False,10.18
2019-10-27 11:16:48.780,LG-H970,1572175008788.0,-0.99,9.794,-1.021,41.1175671,16.8730224,False,10.18
2019-10-27 11:16:48.800,LG-H970,1572175008808.5,-0.733,9.199,-0.921,41.1175671,16.8730224,False,10.18
2019-10-27 11:16:48.820,LG-H970,1572175008828.0,-0.565,9.368,-1.067,41.1175671,16.8730224,False,10.18
2019-10-27 11:16:48.840,LG-H970,1572175008850.2,-0.478,10.042,-1.239,41.1175671,16.8730224,False,10.18
2019-10-27 11:16:48.860,LG-H970,1572175008870.0,-0.227,10.553,-0.952,41.1175671,16.8730224,False,10.18
2019-10-27 11:16:48.880,LG-H970,1572175008887.5,-0.198,10.314,-0.756,41.1175671,16.8730224,False,10.18
2019-10-27 11:16:48.900,LG-H970,1572175008907.75,-0.538,9.831,-0.939,41.1175671,16.8730224,False,10.18
2019-10-27 11:16:48.920,LG-H970,1572175008928.75,-1.115,9.733,-0.706,41.1175671,16.8730224,False,10.18
2019-10-27 11:16:48.940,LG-H970,1572175008947.8,-0.734,9.754,-1.198,41.1175671,16.8730224,False,10.18
2019-10-27 11:16:48.960,LG-H970,1572175008970.75,-0.247,9.12,-1.166,41.1175671,16.8730224,False,10.18
2019-10-27 11:16:48.980,LG-H970,1572175008990.75,0.057,9.788,-1.013,41.1175671,16.8730224,False,10.18
2019-10-27 11:16:49.000,LG-H970,1572175009010.75,-0.267,9.66,-1.277,41.1175671,16.8730224,False,10.18
2019-10-27 11:16:49.020,LG-H970,1572175009031.25,-0.133,10.201,-0.402,41.1175671,16.8730224,False,10.18
2019-10-27 11:16:49.040,LG-H970,1572175009049.25,-0.432,9.492,-1.29,41.1175671,16.8730224,False,10.18
2019-10-27 11:16:49.060,LG-H970,1572175009069.5,-0.772,9.737,-0.951,41.1175671,16.8730224,False,10.18
2019-10-27 11:16:49.080,LG-H970,1572175009089.5,-0.843,9.58,-1.222,41.1175671,16.8730224,False,10.18
2019-10-27 11:16:49.100,LG-H970,1572175009113.3333,-0.568,9.726,-1.014,41.1175671,16.8730224,False,10.18
2019-10-27 11:16:49.120,LG-H970,1572175009126.3333,-0.28,9.825,-0.831,41.1175671,16.8730224,False,10.18
2019-10-27 11:16:49.140,LG-H970,1572175009152.0,0.124,10.511,-0.762,41.1175671,16.8730224,False,10.18
2019-10-27 11:16:49.160,LG-H970,1572175009169.2,0.011,10.188,-1.05,41.1175671,16.8730224,False,10.18
2019-10-27 11:16:49.180,LG-H970,1572175009189.6667,-0.452,10.168,0.032,41.1175671,16.8730224,False,10.18
2019-10-27 11:16:49.200,LG-H970,1572175009209.4,-0.816,9.793,-1.464,41.1175671,16.8730224,False,10.18
2019-10-27 11:16:49.220,LG-H970,1572175009229.6667,-0.927,10.15,-0.391,41.1175671,16.8730224,False,10.18
2019-10-27 11:16:49.240,LG-H970,1572175009248.8,-0.29,9.682,-0.888,41.1175671,16.8730224,False,10.18
2019-10-27 11:16:49.260,LG-H970,1572175009271.5,-0.101,9.356,-0.316,41.1175671,16.8730224,False,10.18
2019-10-27 11:16:49.280,LG-H970,1572175009290.75,-0.08,9.716,-1.219,41.1175671,16.8730224,False,10.18
2019-10-27 11:16:49.300,LG-H970,1572175009310.25,-0.11,10.098,-1.137,41.1175671,16.8730224,False,10.18
2019-10-27 11:16:49.320,LG-H970,1572175009330.25,0.004,9.827,-0.957,41.1175671,16.8730224,False,10.18
2019-10-27 11:16:49.340,LG-H970,1572175009350.0,-0.017,9.656,-1.111,41.1175671,16.8730224,False,10.18
2019-10-27 11:16:49.360,LG-H970,1572175009370.75,-0.533,9.594,-0.954,41.1175671,16.8730224,False,10.18
2019-10-27 11:16:49.380,LG-H970,1572175009389.25,-0.676,9.654,-1.105,41.1175671,16.8730224,False,10.18
2019-10-27 11:16:49.400,LG-H970,1572175009410.0,-0.567,9.713,-0.809,41.1175671,16.8730224,False,10.18
2019-10-27 11:16:49.420,LG-H970,1572175009430.0,0.021,9.942,-1.202,41.1175671,16.8730224,False,10.18
2019-10-27 11:16:49.440,LG-H970,1572175009449.25,0.384,10.409,-0.424,41.1175671,16.8730224,False,10.18
2019-10-27 11:16:49.460,LG-H970,1572175009469.25,0.075,10.156,-0.869,41.1175671,16.8730224,False,10.18
2019-10-27 11:16:49.480,LG-H970,1572175009488.75,-0.304,10.234,-0.631,41.1175671,16.8730224,False,10.18
2019-10-27 11:16:49.500,LG-H970,1572175009509.0,-0.914,10.071,-1.482,41.1175671,16.8730224,False,10.18
2019-10-27 11:16:49.520,LG-H970,1572175009528.5,-0.973,9.582,-0.564,41.1175671,16.8730224,False,10.18
2019-10-27 11:16:49.540,LG-H970,1572175009548.0,0.395,9.711,-1.465,41.1175671,16.8730224,False,10.18
2019-10-27 11:16:49.560,LG-H970,1572175009569.6,0.578,9.678,-0.734,41.1175671,16.8730224,False,10.18
2019-10-27 11:16:49.580,LG-H970,1572175009590.0,-0.238,9.167,-0.97,41.1175671,16.8730224,False,10.18
2019-10-27 11:16:49.600,LG-H970,1572175009610.5,0.111,9.995,-0.773,41.1175671,16.8730224,False,10.18
2019-10-27 11:16:49.620,LG-H970,1572175009627.5,0.765,10.542,-1.27,41.1175671,16.8730224,False,10.18
2019-10-27 11:16:49.640,LG-H970,1572175009650.25,0.516,9.899,-0.914,41.1175671,16.8730224,False,10.18
2019-10-27 11:16:49.660,LG-H970,1572175009667.0,-0.269,9.299,-0.994,41.1175671,16.8730224,False,10.18
2019-10-27 11:16:49.680,LG-H970,1572175009688.6,-0.232,9.562,-0.868,41.1175671,16.8730224,False,10.18
2019-10-27 11:16:49.700,LG-H970,1572175009710.25,0.297,9.491,-1.238,41.1175671,16.8730224,False,10.18
2019-10-27 11:16:49.720,LG-H970,1572175009730.5,0.59,9.892,-0.325,41.1175671,16.8730224,False,10.18
2019-10-27 11:16:49.740,LG-H970,1572175009749.75,0.625,9.828,-0.634,41.1175671,16.8730224,False,10.18
2019-10-27 11:16:49.760,LG-H970,1572175009769.75,0.525,10.477,-0.334,41.1175671,16.8730224,False,10.18
2019-10-27 11:16:49.780,LG-H970,1572175009789.75,-0.144,10.189,-0.948,41.1175671,16.8730224,False,10.18
2019-10-27 11:16:49.800,LG-H970,1572175009809.0,-0.729,10.007,-0.546,41.1175671,16.8730224,False,10.18
2019-10-27 11:16:49.820,LG-H970,1572175009829.75,-0.145,9.746,-0.775,41.1175671,16.8730224,False,10.18
2019-10-27 11:16:49.840,LG-H970,1572175009849.5,0.384,9.556,-0.326,41.1175671,16.8730224,False,10.18
2019-10-27 11:16:49.860,LG-H970,1572175009869.5,0.442,9.96,-0.729,41.1175671,16.8730224,False,10.18
2019-10-27 11:16:49.880,LG-H970,1572175009888.75,0.294,10.459,-0.653,41.1175671,16.8730224,False,10.18
2019-10-27 11:16:49.900,LG-H970,1572175009908.25,0.105,9.966,-0.544,41.1175671,16.8730224,False,10.18
2019-10-27 11:16:49.920,LG-H970,1572175009928.0,0.023,9.623,-0.218,41.1175671,16.8730224,False,10.18
2019-10-27 11:16:49.940,LG-H970,1572175009948.6,-0.5,9.714,-0.913,41.1175671,16.8730224,False,10.18
2019-10-27 11:16:49.960,LG-H970,1572175009971.5,-0.848,9.639,-0.696,41.1175671,16.8730224,False,10.18
2019-10-27 11:16:49.980,LG-H970,1572175009991.0,-0.196,9.783,-0.458,41.1175671,16.8730224,False,10.18
2019-10-27 11:16:50.000,LG-H970,1572175010010.5,0.258,10.106,-0.841,41.1175671,16.8730224,False,10.18
2019-10-27 11:16:50.020,LG-H970,1572175010030.75,0.165,10.158,-0.482,41.1175671,16.8730224,False,10.18
2019-10-27 11:16:50.040,LG-H970,1572175010050.5,0.091,10.168,-0.456,41.1175671,16.8730224,False,10.18
2019-10-27 11:16:50.060,LG-H970,1572175010070.5,-0.445,9.951,-0.634,41.1175671,16.8730224,False,10.18
2019-10-27 11:16:50.080,LG-H970,1572175010090.0,-0.919,9.772,-0.84,41.1175671,16.8730224,False,10.18
2019-10-27 11:16:50.100,LG-H970,1572175010107.3333,-0.788,10.181,-0.244,41.1175671,16.8730224,False,10.18
2019-10-27 11:16:50.120,LG-H970,1572175010128.6,-0.308,9.52,-0.562,41.1175671,16.8730224,False,10.18
2019-10-27 11:16:50.140,LG-H970,1572175010149.25,-0.229,9.606,-0.626,41.1175671,16.8730224,False,10.18
2019-10-27 11:16:50.160,LG-H970,1572175010168.0,-0.585,9.9,-1.048,41.1175671,16.8730224,False,10.18
