UTC_timestamp,device_name,timestamp,x,y,z,lat,long,event,speed
2019-10-27 11:08:33.520,LG-H970,1572174513529.75,-0.936,9.153,-1.081,41.1208856,16.8738627,False,2.968
2019-10-27 11:08:33.540,LG-H970,1572174513549.75,-0.382,9.429,-0.792,41.1208856,16.8738627,False,2.968
2019-10-27 11:08:33.560,LG-H970,1572174513573.3333,0.063,10.393,-2.307,41.1208856,16.8738627,False,2.968
2019-10-27 11:08:33.580,LG-H970,1572174513587.6667,0.078,10.648,-2.219,41.1208856,16.8738627,False,2.968
2019-10-27 11:08:33.600,LG-H970,1572174513608.2,-0.125,9.01,-1.758,41.1208856,16.8738627,False,2.968
2019-10-27 11:08:33.620,LG-H970,1572174513628.5,-0.556,8.712,-0.785,41.1209362,16.8738508,False,4.922
2019-10-27 11:08:33.640,LG-H970,1572174513650.0,-0.402,10.217,-2.385,41.1209362,16.8738508,False,4.922
2019-10-27 11:08:33.660,LG-H970,1572174513669.0,-0.873,10.416,-1.312,41.1209362,16.8738508,False,4.922
2019-10-27 11:08:33.680,LG-H970,1572174513688.75,-0.285,9.852,-1.024,41.1209362,16.8738508,False,4.922
2019-10-27 11:08:33.700,LG-H970,1572174513709.5,-0.057,9.309,-1.716,41.1209362,16.8738508,False,4.922
2019-10-27 11:08:33.720,LG-H970,1572174513729.5,-0.91,9.489,-1.101,41.1209362,16.8738508,False,4.922
2019-10-27 11:08:33.740,LG-H970,1572174513749.75,-1.298,10.056,-2.176,41.1209362,16.8738508,False,4.922
2019-10-27 11:08:33.760,LG-H970,1572174513768.0,-0.064,10.72,-1.692,41.1209362,16.8738508,False,4.922
2019-10-27 11:08:33.780,LG-H970,1572174513791.6,0.53,8.743,-1.852,41.1209362,16.8738508,False,4.922
2019-10-27 11:08:33.800,LG-H970,1572174513811.6667,-0.007,9.572,-0.993,41.1209362,16.8738508,False,4.922
2019-10-27 11:08:33.820,LG-H970,1572174513827.5,-1.112,9.811,-1.831,41.1209362,16.8738508,False,4.922
2019-10-27 11:08:33.840,LG-H970,1572174513847.25,-0.271,11.283,-1.852,41.1209362,16.8738508,False,4.922
2019-10-27 11:08:33.860,LG-H970,1572174513868.5,0.096,9.722,-1.604,41.1209362,16.8738508,False,4.922
2019-10-27 11:08:33.880,LG-H970,1572174513890.2,0.425,9.853,-1.682,41.1209362,16.8738508,False,4.922
2019-10-27 11:08:33.900,LG-H970,1572174513913.0,-0.077,9.882,-1.482,41.1209362,16.8738508,False,4.922
2019-10-27 11:08:33.920,LG-H970,1572174513929.6667,-0.566,9.166,-1.042,41.1209362,16.8738508,False,4.922
2019-10-27 11:08:33.940,LG-H970,1572174513948.8,-0.593,10.226,-2.024,41.1209362,16.8738508,False,4.922
2019-10-27 11:08:33.960,LG-H970,1572174513970.5,-0.963,10.194,-1.635,41.1209362,16.8738508,False,4.922
2019-10-27 11:08:33.980,LG-H970,1572174513990.5,0.229,9.883,-2.071,41.1209362,16.8738508,False,4.922
2019-10-27 11:08:34.000,LG-H970,1572174514010.5,0.133,8.927,-1.715,41.1209362,16.8738508,False,4.922
2019-10-27 11:08:34.020,LG-H970,1572174514030.0,-0.288,9.33,-2.215,41.1209362,16.8738508,False,4.922
2019-10-27 11:08:34.040,LG-H970,1572174514050.5,-1.079,9.576,-1.218,41.1209362,16.8738508,False,4.922
2019-10-27 11:08:34.060,LG-H970,1572174514072.25,-0.439,9.954,-1.86,41.1209362,16.8738508,False,4.922
2019-10-27 11:08:34.080,LG-H970,1572174514089.75,0.006,9.747,-1.2,41.1209362,16.8738508,False,4.922
2019-10-27 11:08:34.100,LG-H970,1572174514110.0,0.575,10.434,-2.611,41.1209362,16.8738508,False,4.922
2019-10-27 11:08:34.120,LG-H970,1572174514129.0,-0.45,9.217,-0.602,41.1209362,16.8738508,False,4.922
2019-10-27 11:08:34.140,LG-H970,1572174514148.25,-0.677,9.243,-1.925,41.1209362,16.8738508,False,4.922
2019-10-27 11:08:34.160,LG-H970,1572174514167.75,-1.137,9.8,-1.961,41.1209362,16.8738508,False,4.922
2019-10-27 11:08:34.180,LG-H970,1572174514187.75,-0.628,10.036,-2.352,41.1209362,16.8738508,False,4.922
2019-10-27 11:08:34.200,LG-H970,1572174514210.4,-0.176,8.838,-0.989,41.1209362,16.8738508,False,4.922
2019-10-27 11:08:34.220,LG-H970,1572174514231.5,-0.602,8.832,-1.998,41.1209362,16.8738508,False,4.922
2019-10-27 11:08:34.240,LG-H970,1572174514252.25,-1.462,9.279,-2.897,41.1209362,16.8738508,False,4.922
2019-10-27 11:08:34.260,LG-H970,1572174514271.0,-0.68,10.041,-2.481,41.1209362,16.8738508,False,4.922
2019-10-27 11:08:34.280,LG-H970,1572174514291.0,-0.16,8.652,-1.24,41.1209362,16.8738508,False,4.922
2019-10-27 11:08:34.300,LG-H970,1572174514310.75,0.754,9.824,-0.164,41.1209362,16.8738508,False,4.922
2019-10-27 11:08:34.320,LG-H970,1572174514330.75,-0.211,10.17,-2.409,41.1209362,16.8738508,False,4.922
2019-10-27 11:08:34.340,LG-H970,1572174514350.75,-0.746,11.559,-1.804,41.1209362,16.8738508,False,4.922
2019-10-27 11:08:34.360,LG-H970,1572174514370.25,-0.295,9.373,-2.07,41.1209362,16.8738508,False,4.922
2019-10-27 11:08:34.380,LG-H970,1572174514390.75,1.34,9.557,-1.346,41.1209362,16.8738508,False,4.922
2019-10-27 11:08:34.400,LG-H970,1572174514410.0,0.498,9.243,-1.187,41.1209362,16.8738508,False,4.922
2019-10-27 11:08:34.420,LG-H970,1572174514429.75,-0.572,10.409,-1.682,41.1209362,16.8738508,False,4.922
2019-10-27 11:08:34.440,LG-H970,1572174514448.0,0.042,11.398,-2.706,41.1209362,16.8738508,False,4.922
2019-10-27 11:08:34.460,LG-H970,1572174514467.8,-0.082,8.882,-1.757,41.1209362,16.8738508,False,4.922
2019-10-27 11:08:34.480,LG-H970,1572174514489.0,1.222,9.152,-2.049,41.1209362,16.8738508,False,4.922
2019-10-27 11:08:34.500,LG-H970,1572174514509.0,0.326,9.052,-1.389,41.1209362,16.8738508,False,4.922
2019-10-27 11:08:34.520,LG-H970,1572174514529.25,-0.824,9.62,-1.779,41.1209362,16.8738508,False,4.922
2019-10-27 11:08:34.540,LG-H970,1572174514550.6,-1.107,10.428,-1.675,41.1209362,16.8738508,False,4.922
2019-10-27 11:08:34.560,LG-H970,1572174514570.0,-0.45,10.039,-1.835,41.1209362,16.8738508,False,4.922
2019-10-27 11:08:34.580,LG-H970,1572174514593.75,1.225,9.184,-0.551,41.1209362,16.8738508,False,4.922
2019-10-27 11:08:34.600,LG-H970,1572174514610.0,0.234,9.223,-1.707,41.1209362,16.8738508,False,4.922
2019-10-27 11:08:34.620,LG-H970,1572174514631.0,-1.499,10.445,-2.492,41.1209362,16.8738508,False,4.922
2019-10-27 11:08:34.640,LG-H970,1572174514650.0,-1.697,10.325,-1.971,41.1209362,16.8738508,False,4.922
2019-10-27 11:08:34.660,LG-H970,1572174514670.5,-0.203,9.312,-1.745,41.1209362,16.8738508,False,4.922
2019-10-27 11:08:34.680,LG-H970,1572174514690.0,0.736,8.992,-1.615,41.1209362,16.8738508,False,4.922
2019-10-27 11:08:34.700,LG-H970,1572174514709.5,-0.387,9.289,-1.357,41.1209362,16.8738508,False,4.922
2019-10-27 11:08:34.720,LG-H970,1572174514729.25,-0.864,10.425,-2.393,41.1209362,16.8738508,False,4.922
2019-10-27 11:08:34.740,LG-H970,1572174514749.5,-0.508,10.261,-1.727,41.1209362,16.8738508,False,4.922
2019-10-27 11:08:34.760,LG-H970,1572174514770.0,0.753,9.504,-1.859,41.1209362,16.8738508,False,4.922
2019-10-27 11:08:34.780,LG-H970,1572174514788.75,1.027,10.04,-1.392,41.1209362,16.8738508,False,4.922
2019-10-27 11:08:34.800,LG-H970,1572174514808.25,-0.42,9.657,-1.515,41.1209362,16.8738508,False,4.922
2019-10-27 11:08:34.820,LG-H970,1572174514828.5,-0.503,10.493,-2.445,41.1209362,16.8738508,False,4.922
2019-10-27 11:08:34.840,LG-H970,1572174514850.4,-0.644,10.514,-1.534,41.1209362,16.8738508,False,4.922
2019-10-27 11:08:34.860,LG-H970,1572174514870.0,-0.569,8.986,-1.8,41.1209362,16.8738508,False,4.922
2019-10-27 11:08:34.880,LG-H970,1572174514887.75,0.022,9.181,-1.171,41.1209362,16.8738508,False,4.922
2019-10-27 11:08:34.900,LG-H970,1572174514907.0,-0.311,9.205,-2.195,41.1209362,16.8738508,False,4.922
2019-10-27 11:08:34.920,LG-H970,1572174514929.2,-0.905,9.95,-2.062,41.1209362,16.8738508,False,4.922
2019-10-27 11:08:34.940,LG-H970,1572174514948.6667,-1.098,9.702,-1.423,41.1209362,16.8738508,False,4.922
2019-10-27 11:08:34.960,LG-H970,1572174514969.8,-0.042,9.637,-1.68,41.1209362,16.8738508,False,4.922
2019-10-27 11:08:34.980,LG-H970,1572174514991.25,0.331,9.139,-1.561,41.1209362,16.8738508,False,4.922
2019-10-27 11:08:35.000,LG-H970,1572174514991.25,0.331,9.139,-1.561,41.1209362,16.8738508,False,4.922
2019-10-27 11:08:35.020,LG-H970,1572174515021.0,0.325,9.793,-2.387,41.1209362,16.8738508,True,4.922
2019-10-27 11:08:35.040,LG-H970,1572174515049.5,-0.421,10.468,-1.561,41.1209362,16.8738508,False,4.922
2019-10-27 11:08:35.060,LG-H970,1572174515069.5,-0.372,9.751,-1.745,41.1209362,16.8738508,False,4.922
2019-10-27 11:08:35.080,LG-H970,1572174515090.4,0.026,9.297,-1.542,41.1209362,16.8738508,False,4.922
2019-10-27 11:08:35.100,LG-H970,1572174515113.3333,0.489,10.197,-2.309,41.1209362,16.8738508,False,4.922
2019-10-27 11:08:35.120,LG-H970,1572174515130.25,-0.251,9.839,-1.715,41.1209362,16.8738508,False,4.922
2019-10-27 11:08:35.140,LG-H970,1572174515150.0,-0.493,10.2,-1.282,41.1209362,16.8738508,False,4.922
2019-10-27 11:08:35.160,LG-H970,1572174515169.0,-0.596,10.399,-1.189,41.1209362,16.8738508,False,4.922
2019-10-27 11:08:35.180,LG-H970,1572174515190.0,-0.276,9.89,-1.81,41.1209362,16.8738508,False,4.922
2019-10-27 11:08:35.200,LG-H970,1572174515208.0,0.031,9.843,-1.313,41.1209362,16.8738508,False,4.922
2019-10-27 11:08:35.220,LG-H970,1572174515231.0,-0.553,9.287,-1.277,41.1209362,16.8738508,False,4.922
2019-10-27 11:08:35.240,LG-H970,1572174515248.0,-0.68,10.135,-1.723,41.1209362,16.8738508,False,4.922
2019-10-27 11:08:35.260,LG-H970,1572174515270.0,-0.83,9.785,-1.939,41.1209362,16.8738508,False,4.922
2019-10-27 11:08:35.280,LG-H970,1572174515291.0,-0.579,9.114,-1.214,41.1209362,16.8738508,False,4.922
2019-10-27 11:08:35.300,LG-H970,1572174515310.75,0.29,9.36,-2.207,41.1209362,16.8738508,False,4.922
2019-10-27 11:08:35.320,LG-H970,1572174515330.25,-0.491,9.256,-1.242,41.1209362,16.8738508,False,4.922
2019-10-27 11:08:35.340,LG-H970,1572174515350.0,-1.266,9.33,-2.114,41.1209362,16.8738508,False,4.922
2019-10-27 11:08:35.360,LG-H970,1572174515370.25,-0.426,10.443,-1.976,41.1209362,16.8738508,False,4.922
2019-10-27 11:08:35.380,LG-H970,1572174515390.0,0.581,9.572,-1.646,41.1209362,16.8738508,False,4.922
2019-10-27 11:08:35.400,LG-H970,1572174515407.3333,1.246,9.666,-1.431,41.1209362,16.8738508,False,4.922
2019-10-27 11:08:35.420,LG-H970,1572174515427.6,0.41,10.214,-1.522,41.1209362,16.8738508,False,4.922
2019-10-27 11:08:35.440,LG-H970,1572174515450.25,-1.012,10.449,-2.284,41.1209362,16.8738508,False,4.922
2019-10-27 11:08:35.460,LG-H970,1572174515469.0,-0.259,10.683,-2.083,41.1209362,16.8738508,False,4.922
2019-10-27 11:08:35.480,LG-H970,1572174515488.75,0.5,9.201,-1.215,41.1209362,16.8738508,False,4.922
2019-10-27 11:08:35.500,LG-H970,1572174515509.5,0.784,9.603,-1.189,41.1209362,16.8738508,False,4.922
2019-10-27 11:08:35.520,LG-H970,1572174515526.0,-0.312,9.608,-1.911,41.1209362,16.8738508,False,4.922
2019-10-27 11:08:35.540,LG-H970,1572174515546.2,-1.209,10.382,-1.971,41.1209362,16.8738508,False,4.922
2019-10-27 11:08:35.560,LG-H970,1572174515568.5,-0.569,9.8,-2.072,41.1209362,16.8738508,False,4.922
2019-10-27 11:08:35.580,LG-H970,1572174515588.3333,1.072,9.757,-1.012,41.1209831,16.8738489,False,5.808666666666667
2019-10-27 11:08:35.600,LG-H970,1572174515609.0,1.123,9.408,-1.204,41.1210768,16.8738452,False,7.582000000000001
2019-10-27 11:08:35.620,LG-H970,1572174515629.3333,-0.719,8.969,-1.379,41.1210768,16.8738452,False,7.582000000000001
2019-10-27 11:08:35.640,LG-H970,1572174515649.8,-1.231,10.056,-2.352,41.1210768,16.8738452,False,7.582000000000001
2019-10-27 11:08:35.660,LG-H970,1572174515671.0,-0.772,9.657,-1.598,41.1210768,16.8738452,False,7.582000000000001
2019-10-27 11:08:35.680,LG-H970,1572174515690.25,0.515,8.767,-1.429,41.1210768,16.8738452,False,7.582000000000001
2019-10-27 11:08:35.700,LG-H970,1572174515710.25,0.803,8.777,-0.944,41.1210768,16.8738452,False,7.582000000000001
2019-10-27 11:08:35.720,LG-H970,1572174515732.75,-0.584,9.591,-1.825,41.1210768,16.8738452,False,7.582000000000001
2019-10-27 11:08:35.740,LG-H970,1572174515749.25,-1.57,10.164,-2.223,41.1210768,16.8738452,False,7.582000000000001
2019-10-27 11:08:35.760,LG-H970,1572174515769.5,-0.402,10.472,-1.059,41.1210768,16.8738452,False,7.582000000000001
2019-10-27 11:08:35.780,LG-H970,1572174515789.25,1.017,9.935,-0.845,41.1210768,16.8738452,False,7.582000000000001
2019-10-27 11:08:35.800,LG-H970,1572174515809.5,0.524,9.553,-0.537,41.1210768,16.8738452,False,7.582000000000001
2019-10-27 11:08:35.820,LG-H970,1572174515829.75,-0.485,9.864,-2.177,41.1210768,16.8738452,False,7.582000000000001
2019-10-27 11:08:35.840,LG-H970,1572174515849.75,-1.179,9.833,-1.808,41.1210768,16.8738452,False,7.582000000000001
2019-10-27 11:08:35.860,LG-H970,1572174515869.0,-0.471,8.916,-1.813,41.1210768,16.8738452,False,7.582000000000001
2019-10-27 11:08:35.880,LG-H970,1572174515887.75,1.174,9.121,-0.658,41.1210768,16.8738452,False,7.582000000000001
2019-10-27 11:08:35.900,LG-H970,1572174515908.25,0.54,8.324,-1.248,41.1210768,16.8738452,False,7.582000000000001
2019-10-27 11:08:35.920,LG-H970,1572174515928.0,-1.277,9.614,-1.77,41.1210768,16.8738452,False,7.582000000000001
2019-10-27 11:08:35.940,LG-H970,1572174515949.8,-1.049,10.753,-2.103,41.1210768,16.8738452,False,7.582000000000001
2019-10-27 11:08:35.960,LG-H970,1572174515972.0,0.552,9.947,-0.709,41.1210768,16.8738452,False,7.582000000000001
2019-10-27 11:08:35.980,LG-H970,1572174515987.0,1.696,9.716,0.202,41.1210768,16.8738452,False,7.582000000000001
2019-10-27 11:08:36.000,LG-H970,1572174516006.75,0.659,9.546,-0.534,41.1210768,16.8738452,False,7.582000000000001
2019-10-27 11:08:36.020,LG-H970,1572174516029.0,-1.266,10.501,-2.069,41.1210768,16.8738452,False,7.582000000000001
2019-10-27 11:08:36.040,LG-H970,1572174516051.5,-1.275,9.857,-2.056,41.1210768,16.8738452,False,7.582000000000001
2019-10-27 11:08:36.060,LG-H970,1572174516070.5,0.587,9.724,-0.515,41.1210768,16.8738452,False,7.582000000000001
2019-10-27 11:08:36.080,LG-H970,1572174516091.25,0.694,9.273,-0.695,41.1210768,16.8738452,False,7.582000000000001
2019-10-27 11:08:36.100,LG-H970,1572174516109.75,-0.663,10.013,-0.887,41.1210768,16.8738452,False,7.582000000000001
2019-10-27 11:08:36.120,LG-H970,1572174516130.0,-1.487,10.27,-2.226,41.1210768,16.8738452,False,7.582000000000001
2019-10-27 11:08:36.140,LG-H970,1572174516149.5,-0.332,10.191,-0.833,41.1210768,16.8738452,False,7.582000000000001
2019-10-27 11:08:36.160,LG-H970,1572174516169.5,1.17,8.999,-0.615,41.1210768,16.8738452,False,7.582000000000001
2019-10-27 11:08:36.180,LG-H970,1572174516190.0,1.287,10.468,0.097,41.1210768,16.8738452,False,7.582000000000001
2019-10-27 11:08:36.200,LG-H970,1572174516210.25,-0.739,10.311,-1.412,41.1210768,16.8738452,False,7.582000000000001
2019-10-27 11:08:36.220,LG-H970,1572174516228.25,-1.437,10.395,-1.265,41.1210768,16.8738452,False,7.582000000000001
2019-10-27 11:08:36.240,LG-H970,1572174516249.5,-0.01,9.627,-1.861,41.1210768,16.8738452,False,7.582000000000001
2019-10-27 11:08:36.260,LG-H970,1572174516268.75,0.685,9.087,-0.721,41.1210768,16.8738452,False,7.582000000000001
2019-10-27 11:08:36.280,LG-H970,1572174516289.25,0.13,9.405,-0.893,41.1210768,16.8738452,False,7.582000000000001
2019-10-27 11:08:36.300,LG-H970,1572174516307.75,-0.909,10.502,-1.265,41.1210768,16.8738452,False,7.582000000000001
2019-10-27 11:08:36.320,LG-H970,1572174516327.5,-0.816,10.833,-1.347,41.1210768,16.8738452,False,7.582000000000001
2019-10-27 11:08:36.340,LG-H970,1572174516349.8,0.52,9.58,-0.722,41.1210768,16.8738452,False,7.582000000000001
2019-10-27 11:08:36.360,LG-H970,1572174516369.3333,1.485,9.939,-0.758,41.1210768,16.8738452,False,7.582000000000001
2019-10-27 11:08:36.380,LG-H970,1572174516386.5,0.236,9.631,-0.964,41.1210768,16.8738452,False,7.582000000000001
2019-10-27 11:08:36.400,LG-H970,1572174516408.8,-1.417,10.406,-1.395,41.1210768,16.8738452,False,7.582000000000001
2019-10-27 11:08:36.420,LG-H970,1572174516431.25,-1.402,9.86,-1.535,41.1210768,16.8738452,False,7.582000000000001
2019-10-27 11:08:36.440,LG-H970,1572174516451.5,0.41,9.995,-0.642,41.1210768,16.8738452,False,7.582000000000001
2019-10-27 11:08:36.460,LG-H970,1572174516471.5,0.78,9.048,-0.546,41.1210768,16.8738452,False,7.582000000000001
2019-10-27 11:08:36.480,LG-H970,1572174516491.25,-0.073,9.822,-1.266,41.1210768,16.8738452,False,7.582000000000001
2019-10-27 11:08:36.500,LG-H970,1572174516509.5,-0.841,10.211,-1.717,41.1210768,16.8738452,False,7.582000000000001
