UTC_timestamp,device_name,timestamp,x,y,z,lat,long,event,speed
2019-10-27 16:09:32.360,LG-H970,1572192572369.8,0.556,9.97,0.172,41.1087004,16.8754952,False,4.745
2019-10-27 16:09:32.380,LG-H970,1572192572388.6667,0.852,9.716,-0.028,41.1087004,16.8754952,False,4.745
2019-10-27 16:09:32.400,LG-H970,1572192572409.6,0.736,9.758,-0.017,41.1087004,16.8754952,False,4.745
2019-10-27 16:09:32.420,LG-H970,1572192572431.0,0.6,9.86,-0.321,41.1087004,16.8754952,False,4.745
2019-10-27 16:09:32.440,LG-H970,1572192572446.0,0.586,9.536,0.21,41.1087004,16.8754952,False,4.745
2019-10-27 16:09:32.460,LG-H970,1572192572468.6,0.796,9.708,-0.346,41.1087004,16.8754952,False,4.745
2019-10-27 16:09:32.480,LG-H970,1572192572490.0,0.658,9.74,-0.319,41.1087004,16.8754952,False,4.745
2019-10-27 16:09:32.500,LG-H970,1572192572509.0,0.65,9.587,-0.417,41.1087004,16.8754952,False,4.745
2019-10-27 16:09:32.520,LG-H970,1572192572529.25,0.716,9.743,-0.257,41.1087004,16.8754952,False,4.745
2019-10-27 16:09:32.540,LG-H970,1572192572550.5,0.773,9.626,-0.383,41.1087004,16.8754952,False,4.745
2019-10-27 16:09:32.560,LG-H970,1572192572568.5,0.757,9.705,-0.226,41.1087004,16.8754952,False,4.745
2019-10-27 16:09:32.580,LG-H970,1572192572588.0,0.713,9.709,-0.471,41.1087004,16.8754952,False,4.745
2019-10-27 16:09:32.600,LG-H970,1572192572609.75,0.951,9.795,-0.115,41.1087004,16.8754952,False,4.745
2019-10-27 16:09:32.620,LG-H970,1572192572627.75,0.937,9.649,-0.238,41.1087004,16.8754952,False,4.745
2019-10-27 16:09:32.640,LG-H970,1572192572650.8,0.786,9.98,-0.226,41.1087004,16.8754952,False,4.745
2019-10-27 16:09:32.660,LG-H970,1572192572671.0,0.869,9.82,-0.145,41.1087004,16.8754952,False,4.745
2019-10-27 16:09:32.680,LG-H970,1572192572690.0,0.993,9.899,-0.158,41.1087004,16.8754952,False,4.745
2019-10-27 16:09:32.700,LG-H970,1572192572707.3333,0.758,9.838,-0.155,41.1087004,16.8754952,False,4.745
2019-10-27 16:09:32.720,LG-H970,1572192572729.3333,0.846,10.002,-0.318,41.1087004,16.8754952,False,4.745
2019-10-27 16:09:32.740,LG-H970,1572192572749.2,0.851,9.815,-0.137,41.1087004,16.8754952,False,4.745
2019-10-27 16:09:32.760,LG-H970,1572192572770.0,0.77,9.761,-0.331,41.1087004,16.8754952,False,4.745
2019-10-27 16:09:32.780,LG-H970,1572192572789.5,0.749,9.633,-0.169,41.1087004,16.8754952,False,4.745
2019-10-27 16:09:32.800,LG-H970,1572192572809.25,0.757,9.707,-0.459,41.1087004,16.8754952,False,4.745
2019-10-27 16:09:32.820,LG-H970,1572192572830.0,0.645,9.887,-0.095,41.1087004,16.8754952,False,4.745
2019-10-27 16:09:32.840,LG-H970,1572192572848.25,0.624,9.784,-0.342,41.1087004,16.8754952,False,4.745
2019-10-27 16:09:32.860,LG-H970,1572192572869.25,0.572,9.926,-0.303,41.1087004,16.8754952,False,4.745
2019-10-27 16:09:32.880,LG-H970,1572192572888.25,0.667,9.84,-0.478,41.1087004,16.8754952,False,4.745
2019-10-27 16:09:32.900,LG-H970,1572192572908.25,0.705,9.898,-0.178,41.1087004,16.8754952,False,4.745
2019-10-27 16:09:32.920,LG-H970,1572192572928.25,0.554,9.862,-0.602,41.1087004,16.8754952,False,4.745
2019-10-27 16:09:32.940,LG-H970,1572192572948.25,0.709,9.954,-0.508,41.1087004,16.8754952,False,4.745
2019-10-27 16:09:32.960,LG-H970,1572192572967.5,0.749,9.629,-0.553,41.1087004,16.8754952,False,4.745
2019-10-27 16:09:32.980,LG-H970,1572192572987.0,0.69,9.888,-0.66,41.1087004,16.8754952,False,4.745
2019-10-27 16:09:33.000,LG-H970,1572192573009.0,0.717,9.701,-0.714,41.1087004,16.8754952,False,4.745
2019-10-27 16:09:33.020,LG-H970,1572192573031.75,0.843,9.818,-0.918,41.1087004,16.8754952,False,4.745
2019-10-27 16:09:33.040,LG-H970,1572192573051.0,0.69,9.869,-0.842,41.1087004,16.8754952,False,4.745
2019-10-27 16:09:33.060,LG-H970,1572192573070.25,0.774,9.773,-1.085,41.1087004,16.8754952,False,4.745
2019-10-27 16:09:33.080,LG-H970,1572192573089.75,0.798,9.775,-0.935,41.1087004,16.8754952,False,4.745
2019-10-27 16:09:33.100,LG-H970,1572192573110.25,0.73,9.883,-1.2,41.1087004,16.8754952,False,4.745
2019-10-27 16:09:33.120,LG-H970,1572192573130.0,0.693,9.8,-0.972,41.1087004,16.8754952,False,4.745
2019-10-27 16:09:33.140,LG-H970,1572192573149.75,0.76,9.724,-1.275,41.1087004,16.8754952,False,4.745
2019-10-27 16:09:33.160,LG-H970,1572192573169.25,0.801,9.757,-1.09,41.1087004,16.8754952,False,4.745
2019-10-27 16:09:33.180,LG-H970,1572192573189.0,0.715,9.652,-1.24,41.1087004,16.8754952,False,4.745
2019-10-27 16:09:33.200,LG-H970,1572192573208.0,0.59,9.778,-1.15,41.1087004,16.8754952,False,4.745
2019-10-27 16:09:33.220,LG-H970,1572192573228.25,0.737,9.678,-1.276,41.1087004,16.8754952,False,4.745
2019-10-27 16:09:33.240,LG-H970,1572192573247.75,0.758,9.539,-1.088,41.1087004,16.8754952,False,4.745
2019-10-27 16:09:33.260,LG-H970,1572192573270.2,0.57,9.57,-1.285,41.1087004,16.8754952,False,4.745
2019-10-27 16:09:33.280,LG-H970,1572192573292.5,0.712,9.616,-1.238,41.1087004,16.8754952,False,4.745
2019-10-27 16:09:33.300,LG-H970,1572192573311.5,0.697,9.477,-1.078,41.1087004,16.8754952,False,4.745
2019-10-27 16:09:33.320,LG-H970,1572192573331.5,0.595,9.66,-1.313,41.1087004,16.8754952,False,4.745
2019-10-27 16:09:33.340,LG-H970,1572192573351.75,0.642,9.451,-1.165,41.1087004,16.8754952,False,4.745
2019-10-27 16:09:33.360,LG-H970,1572192573371.0,0.801,9.532,-1.227,41.1087004,16.8754952,False,4.745
2019-10-27 16:09:33.380,LG-H970,1572192573390.25,0.684,9.594,-1.115,41.1087004,16.8754952,False,4.745
2019-10-27 16:09:33.400,LG-H970,1572192573410.25,0.724,9.739,-1.17,41.1087004,16.8754952,False,4.745
2019-10-27 16:09:33.420,LG-H970,1572192573427.3333,0.679,9.596,-1.052,41.1087004,16.8754952,False,4.745
2019-10-27 16:09:33.440,LG-H970,1572192573448.0,0.798,9.796,-1.165,41.1087004,16.8754952,False,4.745
2019-10-27 16:09:33.460,LG-H970,1572192573467.75,0.723,9.688,-1.019,41.1087004,16.8754952,False,4.745
2019-10-27 16:09:33.480,LG-H970,1572192573488.25,0.674,9.81,-1.219,41.1087004,16.8754952,False,4.745
2019-10-27 16:09:33.500,LG-H970,1572192573508.25,0.704,9.827,-1.124,41.1087004,16.8754952,False,4.745
2019-10-27 16:09:33.520,LG-H970,1572192573527.75,0.831,9.667,-1.197,41.1087004,16.8754952,False,4.745
2019-10-27 16:09:33.540,LG-H970,1572192573550.5,0.683,9.732,-1.145,41.1087004,16.8754952,False,4.745
2019-10-27 16:09:33.560,LG-H970,1572192573567.5,0.695,9.694,-1.357,41.1087004,16.8754952,False,4.745
2019-10-27 16:09:33.580,LG-H970,1572192573589.2,0.789,9.644,-1.05,41.1087004,16.8754952,False,4.745
2019-10-27 16:09:33.600,LG-H970,1572192573611.3333,0.635,9.67,-1.36,41.1087004,16.8754952,False,4.745
2019-10-27 16:09:33.620,LG-H970,1572192573627.5,0.651,9.766,-1.081,41.1087004,16.8754952,False,4.745
2019-10-27 16:09:33.640,LG-H970,1572192573646.25,0.737,9.536,-1.157,41.1087004,16.8754952,False,4.745
2019-10-27 16:09:33.660,LG-H970,1572192573672.0,0.747,9.762,-1.132,41.1087032,16.8755328,False,0.5670000000000001
2019-10-27 16:09:33.680,LG-H970,1572192573690.25,0.692,9.641,-1.136,41.1087032,16.8755328,False,0.5670000000000001
2019-10-27 16:09:33.700,LG-H970,1572192573709.5,0.727,9.708,-1.154,41.1087032,16.8755328,False,0.5670000000000001
2019-10-27 16:09:33.720,LG-H970,1572192573729.25,0.701,9.715,-1.231,41.1087032,16.8755328,False,0.5670000000000001
2019-10-27 16:09:33.740,LG-H970,1572192573748.5,0.761,9.682,-1.202,41.1087032,16.8755328,False,0.5670000000000001
2019-10-27 16:09:33.760,LG-H970,1572192573768.5,0.647,9.676,-1.192,41.1087032,16.8755328,False,0.5670000000000001
2019-10-27 16:09:33.780,LG-H970,1572192573788.0,0.685,9.752,-1.261,41.1087032,16.8755328,False,0.5670000000000001
2019-10-27 16:09:33.800,LG-H970,1572192573807.5,0.762,9.596,-1.085,41.1087032,16.8755328,False,0.5670000000000001
2019-10-27 16:09:33.820,LG-H970,1572192573827.5,0.694,9.655,-1.294,41.1087032,16.8755328,False,0.5670000000000001
2019-10-27 16:09:33.840,LG-H970,1572192573847.75,0.646,9.781,-1.15,41.1087032,16.8755328,False,0.5670000000000001
2019-10-27 16:09:33.860,LG-H970,1572192573877.0,0.792,9.773,-1.205,41.1087032,16.8755328,True,0.5670000000000001
2019-10-27 16:09:33.880,LG-H970,1572192573880.0,0.744,9.536,-1.13,41.1087032,16.8755328,False,0.5670000000000001
2019-10-27 16:09:33.900,LG-H970,1572192573914.3333,0.694,9.641,-1.11,41.1087032,16.8755328,False,0.5670000000000001
2019-10-27 16:09:33.920,LG-H970,1572192573933.3333,0.755,9.794,-0.971,41.1087032,16.8755328,False,0.5670000000000001
2019-10-27 16:09:33.940,LG-H970,1572192573951.75,0.655,9.624,-1.197,41.1087032,16.8755328,False,0.5670000000000001
2019-10-27 16:09:33.960,LG-H970,1572192573971.25,0.742,9.752,-1.102,41.1087032,16.8755328,False,0.5670000000000001
2019-10-27 16:09:33.980,LG-H970,1572192573991.25,0.672,9.57,-1.174,41.1087032,16.8755328,False,0.5670000000000001
2019-10-27 16:09:34.000,LG-H970,1572192574010.75,0.74,9.792,-1.129,41.1087032,16.8755328,False,0.5670000000000001
2019-10-27 16:09:34.020,LG-H970,1572192574030.5,0.754,9.557,-1.111,41.1087032,16.8755328,False,0.5670000000000001
2019-10-27 16:09:34.040,LG-H970,1572192574050.0,0.736,9.705,-1.16,41.1087032,16.8755328,False,0.5670000000000001
2019-10-27 16:09:34.060,LG-H970,1572192574070.5,0.612,9.705,-1.227,41.1087032,16.8755328,False,0.5670000000000001
2019-10-27 16:09:34.080,LG-H970,1572192574091.0,0.838,9.724,-1.074,41.1087032,16.8755328,False,0.5670000000000001
2019-10-27 16:09:34.100,LG-H970,1572192574109.25,0.725,9.669,-1.107,41.1087032,16.8755328,False,0.5670000000000001
2019-10-27 16:09:34.120,LG-H970,1572192574129.25,0.657,9.818,-1.282,41.1087032,16.8755328,False,0.5670000000000001
2019-10-27 16:09:34.140,LG-H970,1572192574148.5,0.727,9.617,-1.051,41.1087032,16.8755328,False,0.5670000000000001
2019-10-27 16:09:34.160,LG-H970,1572192574170.0,0.783,9.673,-1.195,41.1087032,16.8755328,False,0.5670000000000001
2019-10-27 16:09:34.180,LG-H970,1572192574188.0,0.656,9.793,-1.158,41.1087032,16.8755328,False,0.5670000000000001
2019-10-27 16:09:34.200,LG-H970,1572192574207.0,0.714,9.675,-1.166,41.1087032,16.8755328,False,0.5670000000000001
2019-10-27 16:09:34.220,LG-H970,1572192574228.5,0.723,9.74,-1.027,41.1087032,16.8755328,False,0.5670000000000001
2019-10-27 16:09:34.240,LG-H970,1572192574247.5,0.725,9.743,-1.337,41.1087032,16.8755328,False,0.5670000000000001
2019-10-27 16:09:34.260,LG-H970,1572192574268.0,0.67,9.689,-1.01,41.1087032,16.8755328,False,0.5670000000000001
2019-10-27 16:09:34.280,LG-H970,1572192574289.8,0.683,9.681,-1.367,41.1087032,16.8755328,False,0.5670000000000001
2019-10-27 16:09:34.300,LG-H970,1572192574311.25,0.764,9.768,-1.131,41.1087032,16.8755328,False,0.5670000000000001
2019-10-27 16:09:34.320,LG-H970,1572192574332.0,0.65,9.46,-1.297,41.1087032,16.8755328,False,0.5670000000000001
2019-10-27 16:09:34.340,LG-H970,1572192574353.25,0.665,9.781,-1.206,41.1087032,16.8755328,False,0.5670000000000001
2019-10-27 16:09:34.360,LG-H970,1572192574370.75,0.75,9.618,-1.267,41.1087032,16.8755328,False,0.5670000000000001
2019-10-27 16:09:34.380,LG-H970,1572192574390.5,0.798,9.795,-1.178,41.1087032,16.8755328,False,0.5670000000000001
2019-10-27 16:09:34.400,LG-H970,1572192574411.0,0.581,9.505,-1.116,41.1087032,16.8755328,False,0.5670000000000001
2019-10-27 16:09:34.420,LG-H970,1572192574430.0,0.742,9.726,-1.112,41.1087032,16.8755328,False,0.5670000000000001
2019-10-27 16:09:34.440,LG-H970,1572192574447.3333,0.703,9.548,-1.302,41.1087032,16.8755328,False,0.5670000000000001
2019-10-27 16:09:34.460,LG-H970,1572192574473.6667,0.738,9.77,-1.407,41.1087032,16.8755328,False,0.5670000000000001
2019-10-27 16:09:34.480,LG-H970,1572192574488.5,0.755,9.62,-1.203,41.1087032,16.8755328,False,0.5670000000000001
2019-10-27 16:09:34.500,LG-H970,1572192574508.5,0.789,9.739,-1.276,41.1087032,16.8755328,False,0.5670000000000001
2019-10-27 16:09:34.520,LG-H970,1572192574528.5,0.67,9.793,-1.278,41.1087032,16.8755328,False,0.5670000000000001
2019-10-27 16:09:34.540,LG-H970,1572192574548.0,0.761,9.656,-1.362,41.1087032,16.8755328,False,0.5670000000000001
2019-10-27 16:09:34.560,LG-H970,1572192574567.5,0.707,9.696,-1.121,41.1087032,16.8755328,False,0.5670000000000001
2019-10-27 16:09:34.580,LG-H970,1572192574587.75,0.691,9.666,-1.321,41.1087032,16.8755328,False,0.5670000000000001
2019-10-27 16:09:34.600,LG-H970,1572192574602.5,0.667,9.488,-1.086,41.1087032,16.8755328,False,0.5670000000000001
2019-10-27 16:09:34.620,LG-H970,1572192574628.5,0.737,9.697,-1.325,41.1087032,16.8755328,False,0.5670000000000001
2019-10-27 16:09:34.640,LG-H970,1572192574649.2,0.715,9.693,-1.137,41.1087032,16.8755328,False,0.5670000000000001
2019-10-27 16:09:34.660,LG-H970,1572192574670.5,0.713,9.473,-1.291,41.1087032,16.8755328,False,0.5670000000000001
2019-10-27 16:09:34.680,LG-H970,1572192574688.6667,0.698,9.926,-1.27,41.1087032,16.8755328,False,0.5670000000000001
2019-10-27 16:09:34.700,LG-H970,1572192574708.2,0.638,9.622,-1.37,41.1087032,16.8755328,False,0.5670000000000001
2019-10-27 16:09:34.720,LG-H970,1572192574730.25,0.774,9.725,-1.236,41.1087032,16.8755328,False,0.5670000000000001
2019-10-27 16:09:34.740,LG-H970,1572192574749.75,0.656,9.629,-1.31,41.1087032,16.8755328,False,0.5670000000000001
2019-10-27 16:09:34.760,LG-H970,1572192574770.25,0.762,9.748,-1.268,41.1087032,16.8755328,False,0.5670000000000001
2019-10-27 16:09:34.780,LG-H970,1572192574786.6667,0.666,9.659,-1.296,41.1087032,16.8755328,False,0.5670000000000001
2019-10-27 16:09:34.800,LG-H970,1572192574806.8,0.726,9.777,-1.305,41.1087032,16.8755328,False,0.5670000000000001
2019-10-27 16:09:34.820,LG-H970,1572192574829.5,0.812,9.498,-1.185,41.1087032,16.8755328,False,0.5670000000000001
2019-10-27 16:09:34.840,LG-H970,1572192574848.5,0.714,9.632,-1.412,41.1087032,16.8755328,False,0.5670000000000001
2019-10-27 16:09:34.860,LG-H970,1572192574868.5,0.567,9.813,-1.202,41.1087032,16.8755328,False,0.5670000000000001
2019-10-27 16:09:34.880,LG-H970,1572192574888.5,0.743,9.623,-1.322,41.1087032,16.8755328,False,0.5670000000000001
2019-10-27 16:09:34.900,LG-H970,1572192574907.75,0.751,9.663,-1.212,41.1087032,16.8755328,False,0.5670000000000001
2019-10-27 16:09:34.920,LG-H970,1572192574928.25,0.67,9.644,-1.482,41.1087032,16.8755328,False,0.5670000000000001
2019-10-27 16:09:34.940,LG-H970,1572192574948.25,0.689,9.716,-1.036,41.1087032,16.8755328,False,0.5670000000000001
2019-10-27 16:09:34.960,LG-H970,1572192574967.25,0.694,9.697,-1.445,41.1087032,16.8755328,False,0.5670000000000001
2019-10-27 16:09:34.980,LG-H970,1572192574988.8,0.733,9.75,-1.264,41.1087032,16.8755328,False,0.5670000000000001
2019-10-27 16:09:35.000,LG-H970,1572192575011.25,0.672,9.505,-1.333,41.1087032,16.8755328,False,0.5670000000000001
2019-10-27 16:09:35.020,LG-H970,1572192575031.0,0.676,9.736,-1.336,41.1087032,16.8755328,False,0.5670000000000001
2019-10-27 16:09:35.040,LG-H970,1572192575050.75,0.727,9.632,-1.271,41.1087032,16.8755328,False,0.5670000000000001
2019-10-27 16:09:35.060,LG-H970,1572192575070.75,0.74,9.654,-1.31,41.1087032,16.8755328,False,0.5670000000000001
2019-10-27 16:09:35.080,LG-H970,1572192575090.75,0.632,9.665,-1.3,41.1087032,16.8755328,False,0.5670000000000001
2019-10-27 16:09:35.100,LG-H970,1572192575110.25,0.762,9.572,-1.373,41.1087032,16.8755328,False,0.5670000000000001
2019-10-27 16:09:35.120,LG-H970,1572192575130.5,0.685,9.7,-1.225,41.1087032,16.8755328,False,0.5670000000000001
2019-10-27 16:09:35.140,LG-H970,1572192575150.0,0.682,9.749,-1.448,41.1087032,16.8755328,False,0.5670000000000001
2019-10-27 16:09:35.160,LG-H970,1572192575169.25,0.794,9.678,-1.123,41.1087032,16.8755328,False,0.5670000000000001
2019-10-27 16:09:35.180,LG-H970,1572192575189.25,0.748,9.564,-1.388,41.1087032,16.8755328,False,0.5670000000000001
2019-10-27 16:09:35.200,LG-H970,1572192575208.5,0.703,9.771,-1.282,41.1087032,16.8755328,False,0.5670000000000001
2019-10-27 16:09:35.220,LG-H970,1572192575228.5,0.73,9.624,-1.443,41.1087032,16.8755328,False,0.5670000000000001
2019-10-27 16:09:35.240,LG-H970,1572192575248.0,0.684,9.762,-1.175,41.1087032,16.8755328,False,0.5670000000000001
2019-10-27 16:09:35.260,LG-H970,1572192575267.75,0.68,9.575,-1.332,41.1087032,16.8755328,False,0.5670000000000001
2019-10-27 16:09:35.280,LG-H970,1572192575287.75,0.805,9.671,-1.234,41.1087032,16.8755328,False,0.5670000000000001
2019-10-27 16:09:35.300,LG-H970,1572192575307.5,0.603,9.66,-1.473,41.1087032,16.8755328,False,0.5670000000000001
2019-10-27 16:09:35.320,LG-H970,1572192575329.4,0.677,9.77,-1.285,41.1087032,16.8755328,False,0.5670000000000001
2019-10-27 16:09:35.340,LG-H970,1572192575351.5,0.687,9.599,-1.156,41.1087032,16.8755328,False,0.5670000000000001
