UTC_timestamp,device_name,timestamp,x,y,z,lat,long,event,speed
2019-10-27 16:11:15.900,LG-H970,1572192675907.25,0.475,10.654,2.521,41.105123,16.8787564,False,9.315
2019-10-27 16:11:15.920,LG-H970,1572192675929.2,0.306,10.385,2.049,41.105123,16.8787564,False,9.315
2019-10-27 16:11:15.940,LG-H970,1572192675952.0,0.534,10.087,1.431,41.105123,16.8787564,False,9.315
2019-10-27 16:11:15.960,LG-H970,1572192675970.5,0.727,9.559,1.293,41.105123,16.8787564,False,9.315
2019-10-27 16:11:15.980,LG-H970,1572192675990.25,0.513,10.537,1.409,41.105123,16.8787564,False,9.315
2019-10-27 16:11:16.000,LG-H970,1572192676010.75,0.119,10.364,1.356,41.105123,16.8787564,False,9.315
2019-10-27 16:11:16.020,LG-H970,1572192676029.3333,0.315,10.01,1.729,41.105123,16.8787564,False,9.315
2019-10-27 16:11:16.040,LG-H970,1572192676050.0,0.423,9.963,0.933,41.105123,16.8787564,False,9.315
2019-10-27 16:11:16.060,LG-H970,1572192676069.5,0.268,9.613,0.965,41.105123,16.8787564,False,9.315
2019-10-27 16:11:16.080,LG-H970,1572192676089.0,0.339,10.371,0.995,41.105123,16.8787564,False,9.315
2019-10-27 16:11:16.100,LG-H970,1572192676108.75,0.417,10.228,0.96,41.105123,16.8787564,False,9.315
2019-10-27 16:11:16.120,LG-H970,1572192676130.25,0.263,10.01,0.977,41.105123,16.8787564,False,9.315
2019-10-27 16:11:16.140,LG-H970,1572192676148.0,0.424,9.696,0.391,41.105123,16.8787564,False,9.315
2019-10-27 16:11:16.160,LG-H970,1572192676168.75,0.904,9.219,1.046,41.105123,16.8787564,False,9.315
2019-10-27 16:11:16.180,LG-H970,1572192676187.75,0.526,10.045,0.379,41.105123,16.8787564,False,9.315
2019-10-27 16:11:16.200,LG-H970,1572192676210.2,0.05,10.229,0.955,41.105123,16.8787564,False,9.315
2019-10-27 16:11:16.220,LG-H970,1572192676230.3333,0.858,9.611,0.858,41.105123,16.8787564,False,9.315
2019-10-27 16:11:16.240,LG-H970,1572192676249.6,1.054,9.804,0.832,41.105123,16.8787564,False,9.315
2019-10-27 16:11:16.260,LG-H970,1572192676272.25,0.199,9.867,0.633,41.105123,16.8787564,False,9.315
2019-10-27 16:11:16.280,LG-H970,1572192676292.25,0.291,10.545,0.815,41.105123,16.8787564,False,9.315
2019-10-27 16:11:16.300,LG-H970,1572192676311.0,0.697,10.205,1.599,41.105123,16.8787564,False,9.315
2019-10-27 16:11:16.320,LG-H970,1572192676327.4,0.49,10.123,1.227,41.105123,16.8787564,False,9.315
2019-10-27 16:11:16.340,LG-H970,1572192676350.5,0.054,10.486,0.793,41.105123,16.8787564,False,9.315
2019-10-27 16:11:16.360,LG-H970,1572192676369.75,0.602,9.69,1.375,41.105123,16.8787564,False,9.315
2019-10-27 16:11:16.380,LG-H970,1572192676388.5,0.951,10.311,1.474,41.105123,16.8787564,False,9.315
2019-10-27 16:11:16.400,LG-H970,1572192676409.25,0.36,10.088,0.862,41.105123,16.8787564,False,9.315
2019-10-27 16:11:16.420,LG-H970,1572192676430.0,0.49,9.742,0.912,41.105123,16.8787564,False,9.315
2019-10-27 16:11:16.440,LG-H970,1572192676448.5,0.982,9.563,1.281,41.105123,16.8787564,False,9.315
2019-10-27 16:11:16.460,LG-H970,1572192676468.25,0.746,9.558,1.016,41.105123,16.8787564,False,9.315
2019-10-27 16:11:16.480,LG-H970,1572192676487.75,-0.044,10.435,1.097,41.105123,16.8787564,False,9.315
2019-10-27 16:11:16.500,LG-H970,1572192676510.6,0.256,10.276,1.197,41.105123,16.8787564,False,9.315
2019-10-27 16:11:16.520,LG-H970,1572192676528.6667,0.821,9.942,1.735,41.105123,16.8787564,False,9.315
2019-10-27 16:11:16.540,LG-H970,1572192676548.6,0.436,10.363,0.915,41.105123,16.8787564,False,9.315
2019-10-27 16:11:16.560,LG-H970,1572192676569.6667,0.191,9.943,0.714,41.105123,16.8787564,False,9.315
2019-10-27 16:11:16.580,LG-H970,1572192676589.6,0.508,10.127,0.878,41.105123,16.8787564,False,9.315
2019-10-27 16:11:16.600,LG-H970,1572192676612.0,0.552,9.875,0.605,41.105123,16.8787564,False,9.315
2019-10-27 16:11:16.620,LG-H970,1572192676631.5,0.223,10.022,0.641,41.105123,16.8787564,False,9.315
2019-10-27 16:11:16.640,LG-H970,1572192676650.75,0.354,10.014,0.224,41.105123,16.8787564,False,9.315
2019-10-27 16:11:16.660,LG-H970,1572192676672.0,0.858,9.633,0.627,41.105123,16.8787564,False,9.315
2019-10-27 16:11:16.680,LG-H970,1572192676691.25,0.443,9.923,0.26,41.105123,16.8787564,False,9.315
2019-10-27 16:11:16.700,LG-H970,1572192676711.0,0.141,9.975,0.117,41.105123,16.8787564,False,9.315
2019-10-27 16:11:16.720,LG-H970,1572192676730.0,0.548,9.83,0.255,41.105123,16.8787564,False,9.315
2019-10-27 16:11:16.740,LG-H970,1572192676748.5,0.846,10.059,-0.079,41.105123,16.8787564,False,9.315
2019-10-27 16:11:16.760,LG-H970,1572192676770.25,0.333,9.551,0.401,41.105123,16.8787564,False,9.315
2019-10-27 16:11:16.780,LG-H970,1572192676789.75,0.58,10.337,-0.395,41.105123,16.8787564,False,9.315
2019-10-27 16:11:16.800,LG-H970,1572192676809.75,0.677,9.796,0.446,41.105123,16.8787564,False,9.315
2019-10-27 16:11:16.820,LG-H970,1572192676831.2,0.56,9.65,-0.125,41.105123,16.8787564,False,9.315
2019-10-27 16:11:16.840,LG-H970,1572192676852.3333,0.379,10.37,-0.031,41.105123,16.8787564,False,9.315
2019-10-27 16:11:16.860,LG-H970,1572192676869.75,0.475,9.639,0.089,41.105123,16.8787564,False,9.315
2019-10-27 16:11:16.880,LG-H970,1572192676889.5,0.588,10.006,0.412,41.105123,16.8787564,False,9.315
2019-10-27 16:11:16.900,LG-H970,1572192676910.6,0.372,9.947,-0.299,41.105123,16.8787564,False,9.315
2019-10-27 16:11:16.920,LG-H970,1572192676932.0,0.218,9.636,0.474,41.105123,16.8787564,False,9.315
2019-10-27 16:11:16.940,LG-H970,1572192676951.75,0.668,10.07,0.142,41.105123,16.8787564,False,9.315
2019-10-27 16:11:16.960,LG-H970,1572192676971.5,0.492,9.611,0.332,41.105123,16.8787564,False,9.315
2019-10-27 16:11:16.980,LG-H970,1572192676990.75,0.224,10.01,-0.202,41.105123,16.8787564,False,9.315
2019-10-27 16:11:17.000,LG-H970,1572192677005.5,0.161,9.621,0.066,41.105123,16.8787564,False,9.315
2019-10-27 16:11:17.020,LG-H970,1572192677027.1667,0.616,9.744,0.43,41.105123,16.8787564,False,9.315
2019-10-27 16:11:17.040,LG-H970,1572192677049.0,0.236,10.207,0.084,41.105123,16.8787564,False,9.315
2019-10-27 16:11:17.060,LG-H970,1572192677069.5,0.247,10.054,-0.009,41.105123,16.8787564,False,9.315
2019-10-27 16:11:17.080,LG-H970,1572192677088.5,0.458,10.358,0.416,41.105123,16.8787564,False,9.315
2019-10-27 16:11:17.100,LG-H970,1572192677109.5,0.448,10.387,0.324,41.105123,16.8787564,False,9.315
2019-10-27 16:11:17.120,LG-H970,1572192677130.2,0.505,10.356,0.258,41.105123,16.8787564,False,9.315
2019-10-27 16:11:17.140,LG-H970,1572192677150.6667,0.374,10.172,-0.2,41.105123,16.8787564,False,9.315
2019-10-27 16:11:17.160,LG-H970,1572192677170.2,0.671,9.733,0.044,41.105123,16.8787564,False,9.315
2019-10-27 16:11:17.180,LG-H970,1572192677190.3333,0.287,9.508,0.124,41.105123,16.8787564,False,9.315
2019-10-27 16:11:17.200,LG-H970,1572192677207.5,0.174,9.933,-0.402,41.105123,16.8787564,False,9.315
2019-10-27 16:11:17.220,LG-H970,1572192677227.0,0.42,9.566,0.178,41.105123,16.8787564,False,9.315
2019-10-27 16:11:17.240,LG-H970,1572192677249.0,0.582,9.76,-0.227,41.105123,16.8787564,False,9.315
2019-10-27 16:11:17.260,LG-H970,1572192677271.25,0.484,9.87,0.094,41.105123,16.8787564,False,9.315
2019-10-27 16:11:17.280,LG-H970,1572192677291.0,0.489,9.455,-0.045,41.105123,16.8787564,False,9.315
2019-10-27 16:11:17.300,LG-H970,1572192677310.0,0.747,10.09,-0.104,41.105123,16.8787564,False,9.315
2019-10-27 16:11:17.320,LG-H970,1572192677328.4,0.552,9.549,0.21,41.105123,16.8787564,False,9.315
2019-10-27 16:11:17.340,LG-H970,1572192677348.6667,0.522,9.978,0.071,41.105123,16.8787564,False,9.315
2019-10-27 16:11:17.360,LG-H970,1572192677370.6,0.363,9.964,0.025,41.105123,16.8787564,False,9.315
2019-10-27 16:11:17.380,LG-H970,1572192677390.25,0.548,9.835,0.055,41.1050491,16.8787794,False,4.713
2019-10-27 16:11:17.400,LG-H970,1572192677409.0,0.254,9.888,0.402,41.1050245,16.8787871,True,3.179
2019-10-27 16:11:17.420,LG-H970,1572192677432.0,0.418,10.659,0.098,41.1050245,16.8787871,False,3.179
2019-10-27 16:11:17.440,LG-H970,1572192677432.0,0.418,10.659,0.098,41.1050245,16.8787871,False,3.179
2019-10-27 16:11:17.460,LG-H970,1572192677469.6667,0.502,9.637,0.18,41.1050245,16.8787871,False,3.179
2019-10-27 16:11:17.480,LG-H970,1572192677491.75,0.627,9.724,0.307,41.1050245,16.8787871,False,3.179
2019-10-27 16:11:17.500,LG-H970,1572192677510.5,0.548,9.875,0.444,41.1050245,16.8787871,False,3.179
2019-10-27 16:11:17.520,LG-H970,1572192677530.5,0.497,9.976,0.343,41.1050245,16.8787871,False,3.179
2019-10-27 16:11:17.540,LG-H970,1572192677551.0,0.482,10.106,0.611,41.1050245,16.8787871,False,3.179
2019-10-27 16:11:17.560,LG-H970,1572192677571.0,0.168,9.986,0.378,41.1050245,16.8787871,False,3.179
2019-10-27 16:11:17.580,LG-H970,1572192677590.75,0.518,10.357,0.693,41.1050245,16.8787871,False,3.179
2019-10-27 16:11:17.600,LG-H970,1572192677610.5,0.411,9.844,0.68,41.1050245,16.8787871,False,3.179
2019-10-27 16:11:17.620,LG-H970,1572192677631.0,0.484,10.306,0.493,41.1050245,16.8787871,False,3.179
2019-10-27 16:11:17.640,LG-H970,1572192677647.3333,0.487,9.706,0.466,41.1050245,16.8787871,False,3.179
2019-10-27 16:11:17.660,LG-H970,1572192677668.0,0.54,9.965,0.657,41.1050245,16.8787871,False,3.179
2019-10-27 16:11:17.680,LG-H970,1572192677688.75,0.364,10.018,0.594,41.1050245,16.8787871,False,3.179
2019-10-27 16:11:17.700,LG-H970,1572192677709.0,0.491,9.83,0.525,41.1050245,16.8787871,False,3.179
2019-10-27 16:11:17.720,LG-H970,1572192677729.25,0.476,10.021,0.716,41.1050245,16.8787871,False,3.179
2019-10-27 16:11:17.740,LG-H970,1572192677748.0,0.44,9.854,0.445,41.1050245,16.8787871,False,3.179
2019-10-27 16:11:17.760,LG-H970,1572192677768.0,0.525,10.106,0.799,41.1050245,16.8787871,False,3.179
2019-10-27 16:11:17.780,LG-H970,1572192677787.75,0.332,9.897,0.466,41.1050245,16.8787871,False,3.179
2019-10-27 16:11:17.800,LG-H970,1572192677807.5,0.679,10.237,0.74,41.1050245,16.8787871,False,3.179
2019-10-27 16:11:17.820,LG-H970,1572192677827.5,0.511,9.784,0.618,41.1050245,16.8787871,False,3.179
2019-10-27 16:11:17.840,LG-H970,1572192677847.0,0.497,10.16,0.535,41.1050245,16.8787871,False,3.179
2019-10-27 16:11:17.860,LG-H970,1572192677869.6,0.502,10.006,0.56,41.1050245,16.8787871,False,3.179
2019-10-27 16:11:17.880,LG-H970,1572192677889.3333,0.356,9.91,0.467,41.1050245,16.8787871,False,3.179
2019-10-27 16:11:17.900,LG-H970,1572192677908.4,0.385,10.096,0.549,41.1050245,16.8787871,False,3.179
2019-10-27 16:11:17.920,LG-H970,1572192677930.5,0.461,9.681,0.311,41.1050245,16.8787871,False,3.179
2019-10-27 16:11:17.940,LG-H970,1572192677950.5,0.496,10.136,0.304,41.1050245,16.8787871,False,3.179
2019-10-27 16:11:17.960,LG-H970,1572192677970.25,0.361,9.739,0.178,41.1050245,16.8787871,False,3.179
2019-10-27 16:11:17.980,LG-H970,1572192677989.0,0.589,10.186,0.206,41.1050245,16.8787871,False,3.179
2019-10-27 16:11:18.000,LG-H970,1572192678007.8,0.345,9.757,0.1,41.1050245,16.8787871,False,3.179
2019-10-27 16:11:18.020,LG-H970,1572192678029.0,0.601,9.856,-0.073,41.1050245,16.8787871,False,3.179
2019-10-27 16:11:18.040,LG-H970,1572192678049.0,0.456,9.778,-0.01,41.1050245,16.8787871,False,3.179
2019-10-27 16:11:18.060,LG-H970,1572192678068.75,0.397,9.867,-0.213,41.1050245,16.8787871,False,3.179
2019-10-27 16:11:18.080,LG-H970,1572192678088.25,0.524,9.853,0.049,41.1050245,16.8787871,False,3.179
2019-10-27 16:11:18.100,LG-H970,1572192678088.25,0.524,9.853,0.049,41.1050245,16.8787871,False,3.179
2019-10-27 16:11:18.120,LG-H970,1572192678132.0,0.597,10.029,-0.265,41.1050245,16.8787871,False,3.179
2019-10-27 16:11:18.140,LG-H970,1572192678149.3333,0.546,9.651,-0.239,41.1050245,16.8787871,False,3.179
2019-10-27 16:11:18.160,LG-H970,1572192678169.2,0.468,10.072,-0.238,41.1050245,16.8787871,False,3.179
2019-10-27 16:11:18.180,LG-H970,1572192678188.0,0.39,9.781,-0.245,41.1050245,16.8787871,False,3.179
2019-10-27 16:11:18.200,LG-H970,1572192678210.0,0.493,9.871,-0.277,41.1050245,16.8787871,False,3.179
2019-10-27 16:11:18.220,LG-H970,1572192678231.25,0.411,9.916,-0.2,41.1050245,16.8787871,False,3.179
2019-10-27 16:11:18.240,LG-H970,1572192678250.75,0.563,9.772,-0.512,41.1050245,16.8787871,False,3.179
2019-10-27 16:11:18.260,LG-H970,1572192678270.5,0.393,9.993,-0.193,41.1050245,16.8787871,False,3.179
2019-10-27 16:11:18.280,LG-H970,1572192678287.3333,0.366,9.756,-0.559,41.1050245,16.8787871,False,3.179
2019-10-27 16:11:18.300,LG-H970,1572192678307.75,0.542,9.818,-0.097,41.1050245,16.8787871,False,3.179
2019-10-27 16:11:18.320,LG-H970,1572192678329.25,0.494,10.002,-0.675,41.1050245,16.8787871,False,3.179
2019-10-27 16:11:18.340,LG-H970,1572192678348.5,0.428,9.999,-0.251,41.1050245,16.8787871,False,3.179
2019-10-27 16:11:18.360,LG-H970,1572192678367.5,0.494,9.697,-0.305,41.1050245,16.8787871,False,3.179
2019-10-27 16:11:18.380,LG-H970,1572192678387.75,0.488,9.956,-0.404,41.1050245,16.8787871,False,3.179
2019-10-27 16:11:18.400,LG-H970,1572192678410.0,0.347,9.75,-0.347,41.1050245,16.8787871,False,3.179
2019-10-27 16:11:18.420,LG-H970,1572192678429.6,0.423,9.793,-0.444,41.1050245,16.8787871,False,3.179
2019-10-27 16:11:18.440,LG-H970,1572192678449.0,0.442,9.883,-0.332,41.1050245,16.8787871,False,3.179
2019-10-27 16:11:18.460,LG-H970,1572192678469.8,0.51,9.752,-0.558,41.1050245,16.8787871,False,3.179
2019-10-27 16:11:18.480,LG-H970,1572192678489.0,0.398,9.927,-0.415,41.1050245,16.8787871,False,3.179
2019-10-27 16:11:18.500,LG-H970,1572192678509.6,0.417,10.073,-1.135,41.1050245,16.8787871,False,3.179
2019-10-27 16:11:18.520,LG-H970,1572192678531.25,0.508,9.869,-1.026,41.1050245,16.8787871,False,3.179
2019-10-27 16:11:18.540,LG-H970,1572192678550.5,0.448,9.714,-1.409,41.1050245,16.8787871,False,3.179
2019-10-27 16:11:18.560,LG-H970,1572192678571.25,0.514,10.088,-1.371,41.1050245,16.8787871,False,3.179
2019-10-27 16:11:18.580,LG-H970,1572192678589.0,0.334,9.91,-1.461,41.1050245,16.8787871,False,3.179
2019-10-27 16:11:18.600,LG-H970,1572192678607.25,0.479,10.168,-1.501,41.1050245,16.8787871,False,3.179
2019-10-27 16:11:18.620,LG-H970,1572192678629.75,0.569,9.572,-1.445,41.1050245,16.8787871,False,3.179
2019-10-27 16:11:18.640,LG-H970,1572192678649.25,0.523,9.722,-1.907,41.1050245,16.8787871,False,3.179
2019-10-27 16:11:18.660,LG-H970,1572192678669.75,0.316,9.848,-1.638,41.1050245,16.8787871,False,3.179
2019-10-27 16:11:18.680,LG-H970,1572192678688.75,0.586,9.559,-1.901,41.1050245,16.8787871,False,3.179
2019-10-27 16:11:18.700,LG-H970,1572192678708.5,0.549,9.554,-1.553,41.1050245,16.8787871,False,3.179
2019-10-27 16:11:18.720,LG-H970,1572192678728.25,0.399,9.402,-2.192,41.1050245,16.8787871,False,3.179
2019-10-27 16:11:18.740,LG-H970,1572192678748.75,0.516,9.473,-1.646,41.1050245,16.8787871,False,3.179
2019-10-27 16:11:18.760,LG-H970,1572192678767.75,0.447,9.314,-1.963,41.1050245,16.8787871,False,3.179
2019-10-27 16:11:18.780,LG-H970,1572192678787.5,0.536,9.604,-1.674,41.1050245,16.8787871,False,3.179
2019-10-27 16:11:18.800,LG-H970,1572192678807.75,0.406,9.149,-1.773,41.1050245,16.8787871,False,3.179
2019-10-27 16:11:18.820,LG-H970,1572192678827.5,0.484,9.491,-1.815,41.1050245,16.8787871,False,3.179
2019-10-27 16:11:18.840,LG-H970,1572192678850.2,0.454,9.254,-1.523,41.1050245,16.8787871,False,3.179
2019-10-27 16:11:18.860,LG-H970,1572192678869.3333,0.433,9.476,-1.918,41.1050245,16.8787871,False,3.179
2019-10-27 16:11:18.880,LG-H970,1572192678889.2,0.359,9.544,-1.498,41.1050245,16.8787871,False,3.179
