UTC_timestamp,device_name,timestamp,x,y,z,lat,long,event,speed
2019-11-13 10:08:43.120,Mi 9T,1573639723129.5,-1.104,-11.661,-2.067,41.4565813,15.5354187,False,10.23
2019-11-13 10:08:43.140,Mi 9T,1573639723149.3,-3.674,-9.674,0.082,41.4565813,15.5354187,False,10.23
2019-11-13 10:08:43.160,Mi 9T,1573639723169.111,-1.814,-8.305,1.317,41.4565813,15.5354187,False,10.23
2019-11-13 10:08:43.180,Mi 9T,1573639723189.375,1.853,-13.003,-5.148,41.4565813,15.5354187,False,10.23
2019-11-13 10:08:43.200,Mi 9T,1573639723209.889,3.076,-9.226,1.848,41.4565813,15.5354187,False,10.23
2019-11-13 10:08:43.220,Mi 9T,1573639723229.7,-1.57,-11.205,-0.918,41.4565813,15.5354187,False,10.23
2019-11-13 10:08:43.240,Mi 9T,1573639723249.2222,-3.426,-8.672,0.68,41.4565813,15.5354187,False,10.23
2019-11-13 10:08:43.260,Mi 9T,1573639723269.4443,-0.746,-8.537,-0.192,41.4565813,15.5354187,False,10.23
2019-11-13 10:08:43.280,Mi 9T,1573639723290.625,1.667,-11.5,-4.007,41.4565813,15.5354187,False,10.23
2019-11-13 10:08:43.300,Mi 9T,1573639723310.3333,2.756,-7.986,1.716,41.4565813,15.5354187,False,10.23
2019-11-13 10:08:43.320,Mi 9T,1573639723331.1428,-0.692,-9.587,-0.674,41.4565813,15.5354187,False,10.23
2019-11-13 10:08:43.340,Mi 9T,1573639723349.0908,-3.558,-12.096,-1.113,41.4565813,15.5354187,False,10.23
2019-11-13 10:08:43.360,Mi 9T,1573639723369.9,-2.731,-7.128,3.541,41.4565813,15.5354187,False,10.23
2019-11-13 10:08:43.380,Mi 9T,1573639723390.0,2.0,-11.55,-1.873,41.4565813,15.5354187,False,10.23
2019-11-13 10:08:43.400,Mi 9T,1573639723410.2,3.068,-10.081,-1.785,41.4565813,15.5354187,False,10.23
2019-11-13 10:08:43.420,Mi 9T,1573639723430.4,1.348,-9.805,0.708,41.4565813,15.5354187,False,10.23
2019-11-13 10:08:43.440,Mi 9T,1573639723449.2222,-3.532,-9.079,-1.38,41.4565813,15.5354187,False,10.23
2019-11-13 10:08:43.460,Mi 9T,1573639723468.7,-3.508,-9.048,0.638,41.4565813,15.5354187,False,10.23
2019-11-13 10:08:43.480,Mi 9T,1573639723489.3,0.257,-9.65,-0.496,41.4565813,15.5354187,False,10.23
2019-11-13 10:08:43.500,Mi 9T,1573639723510.7144,3.297,-13.658,-3.034,41.4565813,15.5354187,False,10.23
2019-11-13 10:08:43.520,Mi 9T,1573639723528.9,2.459,-9.471,2.811,41.4565813,15.5354187,False,10.23
2019-11-13 10:08:43.540,Mi 9T,1573639723549.5557,-1.82,-10.74,0.754,41.4565813,15.5354187,False,10.23
2019-11-13 10:08:43.560,Mi 9T,1573639723569.3333,-4.143,-9.418,-0.021,41.4565813,15.5354187,False,10.23
2019-11-13 10:08:43.580,Mi 9T,1573639723589.375,-0.455,-7.913,-0.908,41.4565813,15.5354187,False,10.23
2019-11-13 10:08:43.600,Mi 9T,1573639723608.875,3.473,-10.431,-3.359,41.4565813,15.5354187,False,10.23
2019-11-13 10:08:43.620,Mi 9T,1573639723630.3333,1.86,-9.913,-1.328,41.4565813,15.5354187,False,10.23
2019-11-13 10:08:43.640,Mi 9T,1573639723648.0,-1.332,-9.618,0.918,41.4565813,15.5354187,False,10.23
2019-11-13 10:08:43.660,Mi 9T,1573639723669.1,-3.665,-9.26,1.767,41.4565813,15.5354187,False,10.23
2019-11-13 10:08:43.680,Mi 9T,1573639723689.4443,-1.677,-11.046,-0.969,41.4565813,15.5354187,False,10.23
2019-11-13 10:08:43.700,Mi 9T,1573639723709.2,2.664,-11.898,-0.798,41.4565813,15.5354187,False,10.23
2019-11-13 10:08:43.720,Mi 9T,1573639723729.2222,4.043,-9.701,0.879,41.4565813,15.5354187,False,10.23
2019-11-13 10:08:43.740,Mi 9T,1573639723748.889,0.6,-13.071,-2.061,41.4565813,15.5354187,False,10.23
2019-11-13 10:08:43.760,Mi 9T,1573639723769.4443,-3.176,-10.079,2.083,41.4565813,15.5354187,False,10.23
2019-11-13 10:08:43.780,Mi 9T,1573639723789.7,-3.566,-9.501,1.739,41.4565813,15.5354187,False,10.23
2019-11-13 10:08:43.800,Mi 9T,1573639723811.111,0.162,-8.184,0.059,41.4565813,15.5354187,False,10.23
2019-11-13 10:08:43.820,Mi 9T,1573639723831.5715,3.572,-10.429,-2.929,41.456615,15.53539,False,10.449
2019-11-13 10:08:43.840,Mi 9T,1573639723849.5,2.249,-9.189,-0.256,41.4566599,15.5353518,False,10.74
2019-11-13 10:08:43.860,Mi 9T,1573639723868.889,-1.969,-7.615,0.385,41.4566599,15.5353518,False,10.74
2019-11-13 10:08:43.880,Mi 9T,1573639723889.182,-3.222,-9.909,-1.137,41.4566599,15.5353518,False,10.74
2019-11-13 10:08:43.900,Mi 9T,1573639723910.4,0.171,-8.253,1.446,41.4566599,15.5353518,False,10.74
2019-11-13 10:08:43.920,Mi 9T,1573639723930.111,2.657,-12.232,-2.282,41.4566599,15.5353518,False,10.74
2019-11-13 10:08:43.940,Mi 9T,1573639723951.5557,1.276,-8.267,1.931,41.4566599,15.5353518,False,10.74
2019-11-13 10:08:43.960,Mi 9T,1573639723970.375,-1.346,-10.526,-0.813,41.4566599,15.5353518,False,10.74
2019-11-13 10:08:43.980,Mi 9T,1573639723989.1,-3.184,-8.563,-0.339,41.4566599,15.5353518,False,10.74
2019-11-13 10:08:44.000,Mi 9T,1573639724009.3333,-1.687,-7.615,0.18,41.4566599,15.5353518,False,10.74
2019-11-13 10:08:44.020,Mi 9T,1573639724029.5454,0.929,-8.575,-1.189,41.4566599,15.5353518,False,10.74
2019-11-13 10:08:44.040,Mi 9T,1573639724049.6667,2.663,-11.193,-0.51,41.4566599,15.5353518,False,10.74
2019-11-13 10:08:44.060,Mi 9T,1573639724068.7144,0.078,-10.31,2.077,41.4566599,15.5353518,False,10.74
2019-11-13 10:08:44.080,Mi 9T,1573639724089.2,-1.646,-10.314,2.066,41.4566599,15.5353518,False,10.74
2019-11-13 10:08:44.100,Mi 9T,1573639724108.4443,0.302,-8.627,1.815,41.4566599,15.5353518,False,10.74
2019-11-13 10:08:44.120,Mi 9T,1573639724129.0,1.583,-10.09,-1.826,41.4566599,15.5353518,False,10.74
2019-11-13 10:08:44.140,Mi 9T,1573639724149.2,1.155,-9.259,-0.312,41.4566599,15.5353518,False,10.74
2019-11-13 10:08:44.160,Mi 9T,1573639724169.7,-1.153,-8.533,0.826,41.4566599,15.5353518,False,10.74
2019-11-13 10:08:44.180,Mi 9T,1573639724189.4,-1.55,-10.187,0.361,41.4566599,15.5353518,False,10.74
2019-11-13 10:08:44.200,Mi 9T,1573639724210.2222,0.274,-9.256,2.307,41.4566599,15.5353518,False,10.74
2019-11-13 10:08:44.220,Mi 9T,1573639724229.0,1.664,-10.514,0.184,41.4566599,15.5353518,False,10.74
2019-11-13 10:08:44.240,Mi 9T,1573639724248.8572,0.978,-10.143,-0.311,41.4566599,15.5353518,False,10.74
2019-11-13 10:08:44.260,Mi 9T,1573639724268.9092,-1.314,-9.364,0.214,41.4566599,15.5353518,False,10.74
2019-11-13 10:08:44.280,Mi 9T,1573639724289.5557,-2.482,-9.509,0.01,41.4566599,15.5353518,False,10.74
2019-11-13 10:08:44.300,Mi 9T,1573639724310.0,-1.176,-8.649,0.472,41.4566599,15.5353518,False,10.74
2019-11-13 10:08:44.320,Mi 9T,1573639724331.0,1.631,-10.192,-1.217,41.4566599,15.5353518,False,10.74
2019-11-13 10:08:44.340,Mi 9T,1573639724348.9,1.949,-10.153,0.287,41.4566599,15.5353518,False,10.74
2019-11-13 10:08:44.360,Mi 9T,1573639724370.3333,-1.157,-10.491,-0.085,41.4566599,15.5353518,False,10.74
2019-11-13 10:08:44.380,Mi 9T,1573639724390.0,-2.367,-9.277,0.968,41.4566599,15.5353518,False,10.74
2019-11-13 10:08:44.400,Mi 9T,1573639724409.5,-0.982,-9.883,-0.455,41.4566599,15.5353518,False,10.74
2019-11-13 10:08:44.420,Mi 9T,1573639724429.5,0.858,-9.834,-0.9,41.4566599,15.5353518,False,10.74
2019-11-13 10:08:44.440,Mi 9T,1573639724449.7,1.397,-11.12,-0.51,41.4566599,15.5353518,False,10.74
2019-11-13 10:08:44.460,Mi 9T,1573639724469.8,0.045,-10.318,2.085,41.4566599,15.5353518,False,10.74
2019-11-13 10:08:44.480,Mi 9T,1573639724489.9,-2.341,-10.067,0.982,41.4566599,15.5353518,False,10.74
2019-11-13 10:08:44.500,Mi 9T,1573639724510.0,-1.417,-9.851,-0.4,41.4566599,15.5353518,False,10.74
2019-11-13 10:08:44.520,Mi 9T,1573639724530.0,0.929,-9.198,-0.166,41.4566599,15.5353518,False,10.74
2019-11-13 10:08:44.540,Mi 9T,1573639724550.5557,0.924,-10.36,-1.189,41.4566599,15.5353518,False,10.74
2019-11-13 10:08:44.560,Mi 9T,1573639724570.0,-0.781,-10.221,0.534,41.4566599,15.5353518,False,10.74
2019-11-13 10:08:44.580,Mi 9T,1573639724586.5,-1.983,-9.962,2.197,41.4566599,15.5353518,False,10.74
2019-11-13 10:08:44.600,Mi 9T,1573639724586.5,-1.983,-9.962,2.197,41.4566599,15.5353518,False,10.74
2019-11-13 10:08:44.620,Mi 9T,1573639724625.2,-1.744,-9.956,1.15,41.4566599,15.5353518,True,10.74
2019-11-13 10:08:44.640,Mi 9T,1573639724655.5,1.284,-9.614,-0.711,41.4566599,15.5353518,True,10.74
2019-11-13 10:08:44.660,Mi 9T,1573639724668.6667,0.43,-9.61,-0.738,41.4566599,15.5353518,True,10.74
2019-11-13 10:08:44.680,Mi 9T,1573639724688.5,-1.708,-9.295,0.401,41.4566599,15.5353518,True,10.74
2019-11-13 10:08:44.700,Mi 9T,1573639724709.1,-2.2,-9.059,1.578,41.4566599,15.5353518,False,10.74
2019-11-13 10:08:44.720,Mi 9T,1573639724729.3,-0.202,-10.238,-0.616,41.4566599,15.5353518,False,10.74
2019-11-13 10:08:44.740,Mi 9T,1573639724749.889,1.999,-9.964,0.885,41.4566599,15.5353518,False,10.74
2019-11-13 10:08:44.760,Mi 9T,1573639724768.2222,-0.444,-10.053,-0.391,41.4566599,15.5353518,False,10.74
2019-11-13 10:08:44.780,Mi 9T,1573639724788.7,-1.503,-9.779,1.085,41.4566599,15.5353518,False,10.74
2019-11-13 10:08:44.800,Mi 9T,1573639724809.6667,-1.721,-9.659,-0.301,41.4566599,15.5353518,False,10.74
2019-11-13 10:08:44.820,Mi 9T,1573639724830.5715,0.614,-10.565,-0.416,41.4566599,15.5353518,False,10.74
2019-11-13 10:08:44.840,Mi 9T,1573639724848.7273,0.946,-9.936,0.356,41.4567407,15.5352789,False,10.85
2019-11-13 10:08:44.860,Mi 9T,1573639724868.0,0.258,-10.64,1.411,41.4567407,15.5352789,False,10.85
2019-11-13 10:08:44.880,Mi 9T,1573639724890.0,-1.823,-9.951,0.358,41.4567407,15.5352789,False,10.85
2019-11-13 10:08:44.900,Mi 9T,1573639724909.6,-1.624,-9.291,0.89,41.4567407,15.5352789,False,10.85
2019-11-13 10:08:44.920,Mi 9T,1573639724929.9,-0.513,-8.425,-0.565,41.4567407,15.5352789,False,10.85
2019-11-13 10:08:44.940,Mi 9T,1573639724950.5557,0.882,-10.355,-1.659,41.4567407,15.5352789,False,10.85
2019-11-13 10:08:44.960,Mi 9T,1573639724968.4285,0.246,-8.987,0.376,41.4567407,15.5352789,False,10.85
2019-11-13 10:08:44.980,Mi 9T,1573639724989.5454,-0.782,-10.475,0.648,41.4567407,15.5352789,False,10.85
2019-11-13 10:08:45.000,Mi 9T,1573639725010.2,-1.391,-10.528,1.131,41.4567407,15.5352789,False,10.85
2019-11-13 10:08:45.020,Mi 9T,1573639725028.0,-0.622,-10.122,0.857,41.4567407,15.5352789,False,10.85
2019-11-13 10:08:45.040,Mi 9T,1573639725050.5,-0.111,-9.802,0.004,41.4567407,15.5352789,False,10.85
2019-11-13 10:08:45.060,Mi 9T,1573639725069.625,-1.055,-9.027,-0.632,41.4567407,15.5352789,False,10.85
2019-11-13 10:08:45.080,Mi 9T,1573639725088.25,-1.297,-9.658,-1.259,41.4567407,15.5352789,False,10.85
2019-11-13 10:08:45.100,Mi 9T,1573639725109.2856,-0.514,-8.713,0.536,41.4567407,15.5352789,False,10.85
2019-11-13 10:08:45.120,Mi 9T,1573639725129.5557,0.289,-11.448,-0.136,41.4567407,15.5352789,False,10.85
2019-11-13 10:08:45.140,Mi 9T,1573639725148.875,-0.694,-10.253,2.168,41.4567407,15.5352789,False,10.85
2019-11-13 10:08:45.160,Mi 9T,1573639725169.0,-2.515,-10.355,0.796,41.4567407,15.5352789,False,10.85
2019-11-13 10:08:45.180,Mi 9T,1573639725189.1,-3.381,-9.234,0.08,41.4567407,15.5352789,False,10.85
2019-11-13 10:08:45.200,Mi 9T,1573639725208.9,-2.023,-8.678,-0.822,41.4567407,15.5352789,False,10.85
2019-11-13 10:08:45.220,Mi 9T,1573639725229.5,0.784,-9.187,-1.0,41.4567407,15.5352789,False,10.85
2019-11-13 10:08:45.240,Mi 9T,1573639725249.2222,1.489,-10.522,-1.035,41.4567407,15.5352789,False,10.85
2019-11-13 10:08:45.260,Mi 9T,1573639725269.6,-0.755,-9.646,2.026,41.4567407,15.5352789,False,10.85
2019-11-13 10:08:45.280,Mi 9T,1573639725291.0,-2.828,-9.273,2.118,41.4567407,15.5352789,False,10.85
2019-11-13 10:08:45.300,Mi 9T,1573639725309.875,-2.388,-9.964,-0.5,41.4567407,15.5352789,False,10.85
2019-11-13 10:08:45.320,Mi 9T,1573639725330.3333,-0.637,-9.093,-0.442,41.4567407,15.5352789,False,10.85
2019-11-13 10:08:45.340,Mi 9T,1573639725349.5557,0.748,-9.753,-1.47,41.4567407,15.5352789,False,10.85
2019-11-13 10:08:45.360,Mi 9T,1573639725370.2222,0.657,-10.333,0.456,41.4567407,15.5352789,False,10.85
2019-11-13 10:08:45.380,Mi 9T,1573639725389.7,-1.68,-9.739,1.594,41.4567407,15.5352789,False,10.85
2019-11-13 10:08:45.400,Mi 9T,1573639725410.3333,-2.537,-9.766,1.81,41.4567407,15.5352789,False,10.85
2019-11-13 10:08:45.420,Mi 9T,1573639725429.0,-2.93,-9.343,-1.072,41.4567407,15.5352789,False,10.85
2019-11-13 10:08:45.440,Mi 9T,1573639725450.111,-0.121,-8.628,0.357,41.4567407,15.5352789,False,10.85
2019-11-13 10:08:45.460,Mi 9T,1573639725469.7,0.548,-10.269,-1.924,41.4567407,15.5352789,False,10.85
2019-11-13 10:08:45.480,Mi 9T,1573639725489.111,-0.051,-10.357,0.762,41.4567407,15.5352789,False,10.85
2019-11-13 10:08:45.500,Mi 9T,1573639725510.2,-1.24,-9.867,3.19,41.4567407,15.5352789,False,10.85
2019-11-13 10:08:45.520,Mi 9T,1573639725529.8,-1.319,-10.725,0.464,41.4567407,15.5352789,False,10.85
2019-11-13 10:08:45.540,Mi 9T,1573639725549.889,-0.028,-9.668,0.096,41.4567407,15.5352789,False,10.85
2019-11-13 10:08:45.560,Mi 9T,1573639725570.0,0.76,-8.907,-0.552,41.4567407,15.5352789,False,10.85
2019-11-13 10:08:45.580,Mi 9T,1573639725589.4443,0.252,-9.681,-0.618,41.4567407,15.5352789,False,10.85
2019-11-13 10:08:45.600,Mi 9T,1573639725609.5557,-2.08,-8.806,-0.484,41.4567407,15.5352789,False,10.85
2019-11-13 10:08:45.620,Mi 9T,1573639725628.2,-2.229,-9.688,0.674,41.4567407,15.5352789,False,10.85
2019-11-13 10:08:45.640,Mi 9T,1573639725648.5,-0.846,-9.824,1.041,41.4567407,15.5352789,False,10.85
2019-11-13 10:08:45.660,Mi 9T,1573639725669.0,2.623,-11.261,-0.048,41.4567407,15.5352789,False,10.85
2019-11-13 10:08:45.680,Mi 9T,1573639725689.5,1.97,-12.21,0.406,41.4567407,15.5352789,False,10.85
2019-11-13 10:08:45.700,Mi 9T,1573639725708.7,-2.03,-10.963,0.796,41.4567407,15.5352789,False,10.85
2019-11-13 10:08:45.720,Mi 9T,1573639725728.6667,-2.912,-9.933,1.444,41.4567407,15.5352789,False,10.85
2019-11-13 10:08:45.740,Mi 9T,1573639725749.3333,-0.787,-9.185,-0.232,41.4567407,15.5352789,False,10.85
2019-11-13 10:08:45.760,Mi 9T,1573639725769.3,0.523,-9.858,-1.236,41.4567407,15.5352789,False,10.85
2019-11-13 10:08:45.780,Mi 9T,1573639725789.4,0.086,-11.016,-2.396,41.4567407,15.5352789,False,10.85
2019-11-13 10:08:45.800,Mi 9T,1573639725809.4,0.157,-8.968,3.66,41.4567407,15.5352789,False,10.85
2019-11-13 10:08:45.820,Mi 9T,1573639725831.0,-1.616,-9.509,1.486,41.4567407,15.5352789,False,10.85
2019-11-13 10:08:45.840,Mi 9T,1573639725849.2,-0.675,-10.356,-1.035,41.4567407,15.5352789,False,10.85
2019-11-13 10:08:45.860,Mi 9T,1573639725869.3,1.219,-7.674,0.371,41.4567407,15.5352789,False,10.85
2019-11-13 10:08:45.880,Mi 9T,1573639725889.7,1.134,-9.646,-3.019,41.4567407,15.5352789,False,10.85
2019-11-13 10:08:45.900,Mi 9T,1573639725910.0,-1.219,-8.399,-0.449,41.4567407,15.5352789,False,10.85
2019-11-13 10:08:45.920,Mi 9T,1573639725930.625,-2.246,-7.614,0.851,41.4567407,15.5352789,False,10.85
2019-11-13 10:08:45.940,Mi 9T,1573639725949.4443,-1.029,-11.539,-1.599,41.4567407,15.5352789,False,10.85
2019-11-13 10:08:45.960,Mi 9T,1573639725969.4285,0.473,-8.309,2.741,41.4567407,15.5352789,False,10.85
2019-11-13 10:08:45.980,Mi 9T,1573639725988.1,0.578,-10.552,1.068,41.4567407,15.5352789,False,10.85
2019-11-13 10:08:46.000,Mi 9T,1573639726010.6667,-0.402,-10.462,-0.054,41.4567407,15.5352789,False,10.85
2019-11-13 10:08:46.020,Mi 9T,1573639726028.25,-0.492,-10.301,0.946,41.4567407,15.5352789,False,10.85
2019-11-13 10:08:46.040,Mi 9T,1573639726049.2727,-2.458,-9.096,0.808,41.4567407,15.5352789,False,10.85
2019-11-13 10:08:46.060,Mi 9T,1573639726071.6667,-1.249,-9.683,1.474,41.4567407,15.5352789,False,10.85
2019-11-13 10:08:46.080,Mi 9T,1573639726089.7273,-0.254,-8.993,0.139,41.4567407,15.5352789,False,10.85
2019-11-13 10:08:46.100,Mi 9T,1573639726109.3333,0.629,-11.501,-0.078,41.4567407,15.5352789,False,10.85
