UTC_timestamp,device_name,timestamp,x,y,z,lat,long,event,speed
2019-11-13 10:06:13.160,Mi 9T,1573639573168.5,-1.863,-9.874,0.478,41.4585943,15.5408907,False,7.238
2019-11-13 10:06:13.180,Mi 9T,1573639573189.7778,-1.207,-9.168,1.359,41.4585943,15.5408907,False,7.238
2019-11-13 10:06:13.200,Mi 9T,1573639573210.2222,0.288,-10.138,-0.695,41.4585943,15.5408907,False,7.238
2019-11-13 10:06:13.220,Mi 9T,1573639573230.0,0.027,-10.902,-1.717,41.4585943,15.5408907,False,7.238
2019-11-13 10:06:13.240,Mi 9T,1573639573248.4285,-0.726,-8.996,1.793,41.4585943,15.5408907,False,7.238
2019-11-13 10:06:13.260,Mi 9T,1573639573268.5,-2.597,-9.577,0.378,41.4585943,15.5408907,False,7.238
2019-11-13 10:06:13.280,Mi 9T,1573639573288.0,-1.49,-10.621,-0.354,41.4585943,15.5408907,False,7.238
2019-11-13 10:06:13.300,Mi 9T,1573639573309.2222,0.51,-9.597,0.237,41.4585943,15.5408907,False,7.238
2019-11-13 10:06:13.320,Mi 9T,1573639573330.8572,1.417,-10.222,-0.101,41.4585943,15.5408907,False,7.238
2019-11-13 10:06:13.340,Mi 9T,1573639573348.125,0.054,-9.584,-0.135,41.4585943,15.5408907,False,7.238
2019-11-13 10:06:13.360,Mi 9T,1573639573369.625,-1.306,-9.196,0.518,41.4585943,15.5408907,False,7.238
2019-11-13 10:06:13.380,Mi 9T,1573639573389.111,-1.133,-9.138,-0.401,41.4585943,15.5408907,False,7.238
2019-11-13 10:06:13.400,Mi 9T,1573639573410.2856,0.356,-9.419,-0.867,41.4585943,15.5408907,False,7.238
2019-11-13 10:06:13.420,Mi 9T,1573639573428.5557,0.911,-10.114,-0.719,41.4585943,15.5408907,False,7.238
2019-11-13 10:06:13.440,Mi 9T,1573639573450.3333,-0.043,-10.11,0.648,41.4585943,15.5408907,False,7.238
2019-11-13 10:06:13.460,Mi 9T,1573639573469.25,-1.067,-9.808,1.094,41.4585943,15.5408907,False,7.238
2019-11-13 10:06:13.480,Mi 9T,1573639573490.25,-1.021,-9.674,0.065,41.4585943,15.5408907,False,7.238
2019-11-13 10:06:13.500,Mi 9T,1573639573509.0,0.135,-9.713,-0.596,41.4585943,15.5408907,False,7.238
2019-11-13 10:06:13.520,Mi 9T,1573639573528.25,0.246,-9.748,-0.647,41.4585943,15.5408907,False,7.238
2019-11-13 10:06:13.540,Mi 9T,1573639573549.3333,-0.422,-9.5,-0.127,41.4585943,15.5408907,False,7.238
2019-11-13 10:06:13.560,Mi 9T,1573639573568.3333,-0.827,-9.562,-0.26,41.4585943,15.5408907,False,7.238
2019-11-13 10:06:13.580,Mi 9T,1573639573590.3333,-0.601,-9.775,-0.065,41.4585943,15.5408907,False,7.238
2019-11-13 10:06:13.600,Mi 9T,1573639573609.0,0.028,-9.485,-0.024,41.4585943,15.5408907,False,7.238
2019-11-13 10:06:13.620,Mi 9T,1573639573630.625,0.114,-9.547,-0.581,41.4585943,15.5408907,False,7.238
2019-11-13 10:06:13.640,Mi 9T,1573639573650.25,0.102,-9.921,0.215,41.4585943,15.5408907,False,7.238
2019-11-13 10:06:13.660,Mi 9T,1573639573670.5715,-1.238,-9.853,0.076,41.4585943,15.5408907,False,7.238
2019-11-13 10:06:13.680,Mi 9T,1573639573688.2,-0.715,-10.177,0.71,41.4585943,15.5408907,False,7.238
2019-11-13 10:06:13.700,Mi 9T,1573639573710.1428,-0.419,-9.15,0.87,41.4585943,15.5408907,False,7.238
2019-11-13 10:06:13.720,Mi 9T,1573639573729.875,0.036,-10.081,-0.587,41.4585943,15.5408907,False,7.238
2019-11-13 10:06:13.740,Mi 9T,1573639573748.25,0.026,-9.753,-0.763,41.4585943,15.5408907,False,7.238
2019-11-13 10:06:13.760,Mi 9T,1573639573767.5,0.066,-8.956,0.593,41.4585943,15.5408907,False,7.238
2019-11-13 10:06:13.780,Mi 9T,1573639573787.889,-0.261,-10.421,-0.646,41.4585943,15.5408907,False,7.238
2019-11-13 10:06:13.800,Mi 9T,1573639573808.5,-1.024,-9.664,0.545,41.4585943,15.5408907,False,7.238
2019-11-13 10:06:13.820,Mi 9T,1573639573828.8572,-0.741,-10.094,0.467,41.4585589,15.540826,False,7.5
2019-11-13 10:06:13.840,Mi 9T,1573639573848.4,-0.796,-9.875,-0.634,41.4585117,15.5407397,False,7.85
2019-11-13 10:06:13.860,Mi 9T,1573639573870.2856,-0.819,-9.857,-0.171,41.4585117,15.5407397,False,7.85
2019-11-13 10:06:13.880,Mi 9T,1573639573888.5557,-0.899,-9.643,0.376,41.4585117,15.5407397,False,7.85
2019-11-13 10:06:13.900,Mi 9T,1573639573908.5,-0.185,-9.987,0.064,41.4585117,15.5407397,False,7.85
2019-11-13 10:06:13.920,Mi 9T,1573639573931.1428,1.157,-11.278,-1.133,41.4585117,15.5407397,False,7.85
2019-11-13 10:06:13.940,Mi 9T,1573639573948.5557,0.609,-9.673,1.582,41.4585117,15.5407397,False,7.85
2019-11-13 10:06:13.960,Mi 9T,1573639573969.6667,-1.016,-11.132,-1.202,41.4585117,15.5407397,False,7.85
2019-11-13 10:06:13.980,Mi 9T,1573639573991.2856,-0.615,-10.142,0.118,41.4585117,15.5407397,False,7.85
2019-11-13 10:06:14.000,Mi 9T,1573639574007.0,-0.815,-10.033,-0.788,41.4585117,15.5407397,False,7.85
2019-11-13 10:06:14.020,Mi 9T,1573639574029.6667,-0.228,-10.047,-0.952,41.4585117,15.5407397,False,7.85
2019-11-13 10:06:14.040,Mi 9T,1573639574050.5715,-0.086,-10.28,-0.761,41.4585117,15.5407397,False,7.85
2019-11-13 10:06:14.060,Mi 9T,1573639574066.4,-0.757,-9.3,1.586,41.4585117,15.5407397,False,7.85
2019-11-13 10:06:14.080,Mi 9T,1573639574086.1428,-1.446,-9.777,0.707,41.4585117,15.5407397,False,7.85
2019-11-13 10:06:14.100,Mi 9T,1573639574109.375,-0.74,-10.581,0.199,41.4585117,15.5407397,False,7.85
2019-11-13 10:06:14.120,Mi 9T,1573639574130.2856,-0.64,-9.803,0.021,41.4585117,15.5407397,False,7.85
2019-11-13 10:06:14.140,Mi 9T,1573639574151.111,-0.121,-11.046,-0.586,41.4585117,15.5407397,False,7.85
2019-11-13 10:06:14.160,Mi 9T,1573639574171.2222,-1.272,-9.055,1.04,41.4585117,15.5407397,False,7.85
2019-11-13 10:06:14.180,Mi 9T,1573639574189.1667,-1.285,-10.885,-1.373,41.4585117,15.5407397,False,7.85
2019-11-13 10:06:14.200,Mi 9T,1573639574208.5715,-0.901,-8.212,0.476,41.4585117,15.5407397,False,7.85
2019-11-13 10:06:14.220,Mi 9T,1573639574229.3333,0.372,-10.764,-2.381,41.4585117,15.5407397,False,7.85
2019-11-13 10:06:14.240,Mi 9T,1573639574249.4443,0.571,-8.942,-0.246,41.4585117,15.5407397,False,7.85
2019-11-13 10:06:14.260,Mi 9T,1573639574268.625,-0.388,-11.32,-1.7,41.4585117,15.5407397,False,7.85
2019-11-13 10:06:14.280,Mi 9T,1573639574292.0,-1.289,-10.036,-0.388,41.4585117,15.5407397,False,7.85
2019-11-13 10:06:14.300,Mi 9T,1573639574310.3333,-0.208,-10.157,-0.489,41.4585117,15.5407397,False,7.85
2019-11-13 10:06:14.320,Mi 9T,1573639574331.25,0.506,-10.806,-1.641,41.4585117,15.5407397,False,7.85
2019-11-13 10:06:14.340,Mi 9T,1573639574347.8333,-0.061,-9.855,-1.695,41.4585117,15.5407397,False,7.85
2019-11-13 10:06:14.360,Mi 9T,1573639574367.1667,0.209,-9.408,0.132,41.4585117,15.5407397,False,7.85
2019-11-13 10:06:14.380,Mi 9T,1573639574388.375,-0.186,-9.644,-2.091,41.4585117,15.5407397,False,7.85
2019-11-13 10:06:14.400,Mi 9T,1573639574409.6365,-0.266,-8.811,-0.744,41.4585117,15.5407397,False,7.85
2019-11-13 10:06:14.420,Mi 9T,1573639574430.0,-1.141,-10.512,-2.466,41.4585117,15.5407397,False,7.85
2019-11-13 10:06:14.440,Mi 9T,1573639574450.0,-1.038,-8.222,0.403,41.4585117,15.5407397,False,7.85
2019-11-13 10:06:14.460,Mi 9T,1573639574470.0,-0.417,-10.782,-2.058,41.4585117,15.5407397,False,7.85
2019-11-13 10:06:14.480,Mi 9T,1573639574490.0,-0.084,-9.539,0.032,41.4585117,15.5407397,False,7.85
2019-11-13 10:06:14.500,Mi 9T,1573639574510.2,-0.387,-10.611,-1.759,41.4585117,15.5407397,False,7.85
2019-11-13 10:06:14.520,Mi 9T,1573639574529.3333,-0.797,-9.758,0.052,41.4585117,15.5407397,False,7.85
2019-11-13 10:06:14.540,Mi 9T,1573639574548.2,-1.291,-8.451,-1.413,41.4585117,15.5407397,False,7.85
2019-11-13 10:06:14.560,Mi 9T,1573639574567.375,0.611,-10.374,-2.346,41.4585117,15.5407397,False,7.85
2019-11-13 10:06:14.580,Mi 9T,1573639574588.5,-0.362,-8.551,-1.4,41.4585117,15.5407397,False,7.85
2019-11-13 10:06:14.600,Mi 9T,1573639574608.5,-0.847,-9.36,-0.69,41.4585117,15.5407397,False,7.85
2019-11-13 10:06:14.620,Mi 9T,1573639574628.5,-1.351,-10.853,-3.045,41.4585117,15.5407397,False,7.85
2019-11-13 10:06:14.640,Mi 9T,1573639574628.5,-1.351,-10.853,-3.045,41.4585117,15.5407397,False,7.85
2019-11-13 10:06:14.660,Mi 9T,1573639574668.5,-0.36,-9.809,-0.836,41.4585117,15.5407397,True,7.85
2019-11-13 10:06:14.680,Mi 9T,1573639574668.5,-0.36,-9.809,-0.836,41.4585117,15.5407397,True,7.85
2019-11-13 10:06:14.700,Mi 9T,1573639574710.5,-0.54,-9.897,-0.969,41.4585117,15.5407397,True,7.85
2019-11-13 10:06:14.720,Mi 9T,1573639574730.1667,-1.43,-9.357,-1.176,41.4585117,15.5407397,True,7.85
2019-11-13 10:06:14.740,Mi 9T,1573639574749.7,0.36,-10.267,-2.366,41.4585117,15.5407397,True,7.85
2019-11-13 10:06:14.760,Mi 9T,1573639574770.125,0.236,-10.539,-1.727,41.4585117,15.5407397,False,7.85
2019-11-13 10:06:14.780,Mi 9T,1573639574790.5557,-0.665,-9.718,0.026,41.4585117,15.5407397,False,7.85
2019-11-13 10:06:14.800,Mi 9T,1573639574810.7778,-0.685,-9.612,-0.9,41.4585117,15.5407397,False,7.85
2019-11-13 10:06:14.820,Mi 9T,1573639574832.25,-0.784,-10.726,-2.622,41.4585008,15.5407204,False,8.067
2019-11-13 10:06:14.840,Mi 9T,1573639574850.1,-0.734,-8.618,-0.609,41.4584683,15.5406623,False,8.719
2019-11-13 10:06:14.860,Mi 9T,1573639574870.3,-1.049,-9.922,-1.651,41.4584683,15.5406623,False,8.719
2019-11-13 10:06:14.880,Mi 9T,1573639574889.375,-1.7,-10.038,-1.881,41.4584683,15.5406623,False,8.719
2019-11-13 10:06:14.900,Mi 9T,1573639574908.5,-0.648,-9.405,-0.396,41.4584683,15.5406623,False,8.719
2019-11-13 10:06:14.920,Mi 9T,1573639574928.4,1.033,-9.803,-1.787,41.4584683,15.5406623,False,8.719
2019-11-13 10:06:14.940,Mi 9T,1573639574948.2222,1.266,-9.999,-1.774,41.4584683,15.5406623,False,8.719
2019-11-13 10:06:14.960,Mi 9T,1573639574968.0,-0.763,-9.039,-1.481,41.4584683,15.5406623,False,8.719
2019-11-13 10:06:14.980,Mi 9T,1573639574988.7,-1.238,-9.344,-1.805,41.4584683,15.5406623,False,8.719
2019-11-13 10:06:15.000,Mi 9T,1573639575008.4443,-1.096,-9.746,-1.929,41.4584683,15.5406623,False,8.719
2019-11-13 10:06:15.020,Mi 9T,1573639575028.8,-0.517,-9.614,-1.046,41.4584683,15.5406623,False,8.719
2019-11-13 10:06:15.040,Mi 9T,1573639575048.9,0.05,-10.494,-0.843,41.4584683,15.5406623,False,8.719
2019-11-13 10:06:15.060,Mi 9T,1573639575069.3333,-0.236,-9.198,0.684,41.4584683,15.5406623,False,8.719
2019-11-13 10:06:15.080,Mi 9T,1573639575089.6667,-0.487,-8.616,1.158,41.4584683,15.5406623,False,8.719
2019-11-13 10:06:15.100,Mi 9T,1573639575109.0,-0.704,-8.318,-0.591,41.4584683,15.5406623,False,8.719
2019-11-13 10:06:15.120,Mi 9T,1573639575129.2,-0.316,-8.666,-0.805,41.4584683,15.5406623,False,8.719
2019-11-13 10:06:15.140,Mi 9T,1573639575149.2222,-0.84,-8.709,0.425,41.4584683,15.5406623,False,8.719
2019-11-13 10:06:15.160,Mi 9T,1573639575168.9,-1.217,-10.723,-0.164,41.4584683,15.5406623,False,8.719
2019-11-13 10:06:15.180,Mi 9T,1573639575191.125,-0.652,-9.817,1.133,41.4584683,15.5406623,False,8.719
2019-11-13 10:06:15.200,Mi 9T,1573639575210.2222,1.191,-9.06,2.041,41.4584683,15.5406623,False,8.719
2019-11-13 10:06:15.220,Mi 9T,1573639575229.3,0.218,-10.115,-0.335,41.4584683,15.5406623,False,8.719
2019-11-13 10:06:15.240,Mi 9T,1573639575249.2222,-1.098,-10.46,0.941,41.4584683,15.5406623,False,8.719
2019-11-13 10:06:15.260,Mi 9T,1573639575269.0,-2.147,-7.789,2.421,41.4584683,15.5406623,False,8.719
2019-11-13 10:06:15.280,Mi 9T,1573639575290.125,-0.143,-11.395,-0.542,41.4584683,15.5406623,False,8.719
2019-11-13 10:06:15.300,Mi 9T,1573639575310.8572,0.28,-10.543,0.933,41.4584683,15.5406623,False,8.719
2019-11-13 10:06:15.320,Mi 9T,1573639575332.125,-0.163,-10.604,1.992,41.4584683,15.5406623,False,8.719
2019-11-13 10:06:15.340,Mi 9T,1573639575349.0,-1.165,-10.411,0.79,41.4584683,15.5406623,False,8.719
2019-11-13 10:06:15.360,Mi 9T,1573639575369.3333,-1.346,-10.498,0.718,41.4584683,15.5406623,False,8.719
2019-11-13 10:06:15.380,Mi 9T,1573639575388.6,-0.757,-9.587,1.091,41.4584683,15.5406623,False,8.719
2019-11-13 10:06:15.400,Mi 9T,1573639575409.889,0.322,-10.977,-0.11,41.4584683,15.5406623,False,8.719
2019-11-13 10:06:15.420,Mi 9T,1573639575430.5557,-0.632,-11.176,0.423,41.4584683,15.5406623,False,8.719
2019-11-13 10:06:15.440,Mi 9T,1573639575449.7778,-1.62,-8.171,3.809,41.4584683,15.5406623,False,8.719
2019-11-13 10:06:15.460,Mi 9T,1573639575469.4,-1.361,-10.402,-0.531,41.4584683,15.5406623,False,8.719
2019-11-13 10:06:15.480,Mi 9T,1573639575490.2222,0.566,-8.641,0.396,41.4584683,15.5406623,False,8.719
2019-11-13 10:06:15.500,Mi 9T,1573639575510.6667,0.609,-10.604,-1.393,41.4584683,15.5406623,False,8.719
2019-11-13 10:06:15.520,Mi 9T,1573639575527.375,-0.47,-9.071,1.458,41.4584683,15.5406623,False,8.719
2019-11-13 10:06:15.540,Mi 9T,1573639575549.0,-1.69,-10.544,0.951,41.4584683,15.5406623,False,8.719
2019-11-13 10:06:15.560,Mi 9T,1573639575569.1428,-2.376,-10.571,0.572,41.4584683,15.5406623,False,8.719
2019-11-13 10:06:15.580,Mi 9T,1573639575590.2856,-0.331,-10.153,1.137,41.4584683,15.5406623,False,8.719
2019-11-13 10:06:15.600,Mi 9T,1573639575610.0,0.862,-8.933,1.047,41.4584683,15.5406623,False,8.719
2019-11-13 10:06:15.620,Mi 9T,1573639575631.25,0.258,-10.657,-0.835,41.4584683,15.5406623,False,8.719
2019-11-13 10:06:15.640,Mi 9T,1573639575649.8572,-0.794,-8.048,1.308,41.4584683,15.5406623,False,8.719
2019-11-13 10:06:15.660,Mi 9T,1573639575671.0,-0.97,-9.173,0.44,41.4584683,15.5406623,False,8.719
2019-11-13 10:06:15.680,Mi 9T,1573639575690.0,-1.11,-9.335,-0.7,41.4584683,15.5406623,False,8.719
2019-11-13 10:06:15.700,Mi 9T,1573639575709.4285,0.065,-8.827,1.781,41.4584683,15.5406623,False,8.719
2019-11-13 10:06:15.720,Mi 9T,1573639575728.8572,-0.477,-9.762,-0.542,41.4584683,15.5406623,False,8.719
2019-11-13 10:06:15.740,Mi 9T,1573639575748.6,-0.064,-10.288,0.121,41.4584683,15.5406623,False,8.719
2019-11-13 10:06:15.760,Mi 9T,1573639575769.8,-0.206,-7.901,2.604,41.4584683,15.5406623,False,8.719
2019-11-13 10:06:15.780,Mi 9T,1573639575787.7144,-0.531,-9.904,-0.991,41.4584683,15.5406623,False,8.719
2019-11-13 10:06:15.800,Mi 9T,1573639575809.0,-1.045,-9.555,0.217,41.4584683,15.5406623,False,8.719
2019-11-13 10:06:15.820,Mi 9T,1573639575829.8,-1.35,-8.303,2.306,41.4584586,15.5406454,False,8.775
2019-11-13 10:06:15.840,Mi 9T,1573639575847.111,-0.382,-10.028,-0.703,41.4584198,15.5405778,False,9.0
2019-11-13 10:06:15.860,Mi 9T,1573639575867.889,1.121,-8.172,1.239,41.4584198,15.5405778,False,9.0
2019-11-13 10:06:15.880,Mi 9T,1573639575888.2222,-0.087,-10.206,-1.689,41.4584198,15.5405778,False,9.0
2019-11-13 10:06:15.900,Mi 9T,1573639575907.1428,-1.649,-7.211,2.933,41.4584198,15.5405778,False,9.0
2019-11-13 10:06:15.920,Mi 9T,1573639575928.1,-2.712,-9.361,1.168,41.4584198,15.5405778,False,9.0
2019-11-13 10:06:15.940,Mi 9T,1573639575948.1667,-1.227,-11.058,-0.15,41.4584198,15.5405778,False,9.0
2019-11-13 10:06:15.960,Mi 9T,1573639575968.8,1.107,-11.247,1.478,41.4584198,15.5405778,False,9.0
2019-11-13 10:06:15.980,Mi 9T,1573639575989.75,1.302,-8.225,3.089,41.4584198,15.5405778,False,9.0
2019-11-13 10:06:16.000,Mi 9T,1573639576009.25,-0.34,-11.578,-1.903,41.4584198,15.5405778,False,9.0
2019-11-13 10:06:16.020,Mi 9T,1573639576028.25,-2.059,-9.722,0.18,41.4584198,15.5405778,False,9.0
2019-11-13 10:06:16.040,Mi 9T,1573639576049.1,-1.073,-8.518,1.942,41.4584198,15.5405778,False,9.0
2019-11-13 10:06:16.060,Mi 9T,1573639576067.3333,0.274,-10.682,-0.971,41.4584198,15.5405778,False,9.0
2019-11-13 10:06:16.080,Mi 9T,1573639576088.7778,0.994,-10.617,0.984,41.4584198,15.5405778,False,9.0
2019-11-13 10:06:16.100,Mi 9T,1573639576108.625,0.185,-9.537,2.481,41.4584198,15.5405778,False,9.0
2019-11-13 10:06:16.120,Mi 9T,1573639576131.0,-0.039,-9.299,2.524,41.4584198,15.5405778,False,9.0
2019-11-13 10:06:16.140,Mi 9T,1573639576149.0,-1.187,-9.984,-0.275,41.4584198,15.5405778,False,9.0
