UTC_timestamp,device_name,timestamp,x,y,z,lat,long,event,speed
2019-11-13 10:07:03.980,Mi 9T,1573639623990.111,-0.76,-9.88,-0.06,41.4573955,15.5390621,False,0.034
2019-11-13 10:07:04.000,Mi 9T,1573639624008.5557,-0.337,-9.738,0.195,41.4573955,15.5390621,False,0.034
2019-11-13 10:07:04.020,Mi 9T,1573639624028.2222,-0.662,-9.827,0.048,41.4573955,15.5390621,False,0.034
2019-11-13 10:07:04.040,Mi 9T,1573639624049.4443,-0.742,-9.622,0.664,41.4573955,15.5390621,False,0.034
2019-11-13 10:07:04.060,Mi 9T,1573639624069.5715,-0.81,-9.976,0.127,41.4573955,15.5390621,False,0.034
2019-11-13 10:07:04.080,Mi 9T,1573639624089.3333,-0.529,-10.013,-0.172,41.4573955,15.5390621,False,0.034
2019-11-13 10:07:04.100,Mi 9T,1573639624109.4443,-0.28,-9.555,0.67,41.4573955,15.5390621,False,0.034
2019-11-13 10:07:04.120,Mi 9T,1573639624128.9,-0.833,-9.954,0.09,41.4573955,15.5390621,False,0.034
2019-11-13 10:07:04.140,Mi 9T,1573639624149.111,-0.803,-9.686,0.543,41.4573955,15.5390621,False,0.034
2019-11-13 10:07:04.160,Mi 9T,1573639624167.7,-0.58,-9.83,0.332,41.4573955,15.5390621,False,0.034
2019-11-13 10:07:04.180,Mi 9T,1573639624188.5,-0.459,-9.843,-0.058,41.4573955,15.5390621,False,0.034
2019-11-13 10:07:04.200,Mi 9T,1573639624210.5715,-0.449,-9.675,0.564,41.4573955,15.5390621,False,0.034
2019-11-13 10:07:04.220,Mi 9T,1573639624229.2856,-0.943,-9.893,0.163,41.4573955,15.5390621,False,0.034
2019-11-13 10:07:04.240,Mi 9T,1573639624249.875,-0.736,-9.717,0.307,41.4573955,15.5390621,False,0.034
2019-11-13 10:07:04.260,Mi 9T,1573639624268.8572,-0.548,-9.844,-0.004,41.4573955,15.5390621,False,0.034
2019-11-13 10:07:04.280,Mi 9T,1573639624289.3635,-0.587,-9.763,0.041,41.4573955,15.5390621,False,0.034
2019-11-13 10:07:04.300,Mi 9T,1573639624310.6667,-0.615,-9.601,0.609,41.4573955,15.5390621,False,0.034
2019-11-13 10:07:04.320,Mi 9T,1573639624332.2856,-0.865,-9.875,0.154,41.4573955,15.5390621,False,0.034
2019-11-13 10:07:04.340,Mi 9T,1573639624348.889,-0.595,-9.604,0.386,41.4573955,15.5390621,False,0.034
2019-11-13 10:07:04.360,Mi 9T,1573639624367.4285,-0.449,-10.024,0.026,41.4573955,15.5390621,False,0.034
2019-11-13 10:07:04.380,Mi 9T,1573639624389.3635,-0.623,-9.836,0.131,41.4573955,15.5390621,False,0.034
2019-11-13 10:07:04.400,Mi 9T,1573639624411.2222,-0.553,-9.738,0.645,41.4573955,15.5390621,False,0.034
2019-11-13 10:07:04.420,Mi 9T,1573639624430.125,-0.759,-9.888,0.24,41.4573955,15.5390621,False,0.034
2019-11-13 10:07:04.440,Mi 9T,1573639624449.4443,-0.514,-9.622,0.403,41.4573955,15.5390621,False,0.034
2019-11-13 10:07:04.460,Mi 9T,1573639624469.0,-0.536,-9.958,-0.016,41.4573955,15.5390621,False,0.034
2019-11-13 10:07:04.480,Mi 9T,1573639624488.2,-0.669,-9.64,0.29,41.4573955,15.5390621,False,0.034
2019-11-13 10:07:04.500,Mi 9T,1573639624509.5557,-0.583,-9.676,0.43,41.4573955,15.5390621,False,0.034
2019-11-13 10:07:04.520,Mi 9T,1573639624530.5,-0.789,-9.913,-0.005,41.4573955,15.5390621,False,0.034
2019-11-13 10:07:04.540,Mi 9T,1573639624549.3333,-0.626,-9.604,0.413,41.4573955,15.5390621,False,0.034
2019-11-13 10:07:04.560,Mi 9T,1573639624569.6667,-0.565,-10.002,0.043,41.4573955,15.5390621,False,0.034
2019-11-13 10:07:04.580,Mi 9T,1573639624589.7778,-0.643,-9.702,0.248,41.4573955,15.5390621,False,0.034
2019-11-13 10:07:04.600,Mi 9T,1573639624608.75,-0.667,-9.846,0.203,41.4573955,15.5390621,False,0.034
2019-11-13 10:07:04.620,Mi 9T,1573639624629.3333,-0.806,-9.876,0.222,41.4573955,15.5390621,False,0.034
2019-11-13 10:07:04.640,Mi 9T,1573639624648.375,-0.614,-9.505,0.498,41.4573955,15.5390621,False,0.034
2019-11-13 10:07:04.660,Mi 9T,1573639624668.875,-0.467,-10.073,-0.082,41.4573955,15.5390621,False,0.034
2019-11-13 10:07:04.680,Mi 9T,1573639624688.7778,-0.664,-9.585,0.445,41.4573955,15.5390621,False,0.034
2019-11-13 10:07:04.700,Mi 9T,1573639624710.375,-0.673,-9.886,0.294,41.4573955,15.5390621,False,0.034
2019-11-13 10:07:04.720,Mi 9T,1573639624727.5,-0.681,-9.716,0.38,41.4573955,15.5390621,False,0.034
2019-11-13 10:07:04.740,Mi 9T,1573639624747.375,-0.559,-9.746,0.184,41.4573955,15.5390621,False,0.034
2019-11-13 10:07:04.760,Mi 9T,1573639624769.2,-0.514,-10.022,-0.008,41.4573955,15.5390621,False,0.034
2019-11-13 10:07:04.780,Mi 9T,1573639624790.875,-0.729,-9.628,0.442,41.4573955,15.5390621,False,0.034
2019-11-13 10:07:04.800,Mi 9T,1573639624811.25,-0.713,-9.802,0.184,41.4573955,15.5390621,False,0.034
2019-11-13 10:07:04.820,Mi 9T,1573639624830.6,-0.6,-9.79,0.18,41.4573955,15.5390621,False,0.034
2019-11-13 10:07:04.840,Mi 9T,1573639624850.1,-0.545,-9.609,0.238,41.4573954,15.5390625,False,0.027
2019-11-13 10:07:04.860,Mi 9T,1573639624871.875,-0.617,-10.106,-0.035,41.4573954,15.5390625,False,0.027
2019-11-13 10:07:04.880,Mi 9T,1573639624889.875,-0.769,-9.445,0.754,41.4573954,15.5390625,False,0.027
2019-11-13 10:07:04.900,Mi 9T,1573639624909.1428,-0.683,-10.094,-0.071,41.4573954,15.5390625,False,0.027
2019-11-13 10:07:04.920,Mi 9T,1573639624929.889,-0.518,-9.744,0.243,41.4573954,15.5390625,False,0.027
2019-11-13 10:07:04.940,Mi 9T,1573639624950.5557,-0.627,-9.635,0.344,41.4573954,15.5390625,False,0.027
2019-11-13 10:07:04.960,Mi 9T,1573639624969.2222,-0.714,-10.066,0.027,41.4573954,15.5390625,False,0.027
2019-11-13 10:07:04.980,Mi 9T,1573639624989.125,-0.663,-9.472,0.716,41.4573954,15.5390625,False,0.027
2019-11-13 10:07:05.000,Mi 9T,1573639625009.9,-0.566,-9.933,-0.057,41.4573954,15.5390625,False,0.027
2019-11-13 10:07:05.020,Mi 9T,1573639625029.5557,-0.507,-9.711,0.397,41.4573954,15.5390625,False,0.027
2019-11-13 10:07:05.040,Mi 9T,1573639625048.111,-0.75,-9.778,0.196,41.4573954,15.5390625,False,0.027
2019-11-13 10:07:05.060,Mi 9T,1573639625068.5,-0.634,-9.794,0.306,41.4573954,15.5390625,False,0.027
2019-11-13 10:07:05.080,Mi 9T,1573639625088.9,-0.612,-9.538,0.534,41.4573954,15.5390625,False,0.027
2019-11-13 10:07:05.100,Mi 9T,1573639625108.7,-0.6,-9.999,-0.133,41.4573954,15.5390625,False,0.027
2019-11-13 10:07:05.120,Mi 9T,1573639625128.9,-0.532,-9.624,0.494,41.4573954,15.5390625,False,0.027
2019-11-13 10:07:05.140,Mi 9T,1573639625149.889,-0.785,-9.785,0.186,41.4573954,15.5390625,False,0.027
2019-11-13 10:07:05.160,Mi 9T,1573639625170.7144,-0.623,-9.92,0.112,41.4573954,15.5390625,False,0.027
2019-11-13 10:07:05.180,Mi 9T,1573639625189.0,-0.555,-9.609,0.469,41.4573954,15.5390625,False,0.027
2019-11-13 10:07:05.200,Mi 9T,1573639625209.3333,-0.685,-9.974,-0.151,41.4573954,15.5390625,False,0.027
2019-11-13 10:07:05.220,Mi 9T,1573639625229.889,-0.588,-9.673,0.584,41.4573954,15.5390625,False,0.027
2019-11-13 10:07:05.240,Mi 9T,1573639625249.1,-0.747,-9.867,0.177,41.4573954,15.5390625,False,0.027
2019-11-13 10:07:05.260,Mi 9T,1573639625269.3,-0.501,-9.774,0.243,41.4573954,15.5390625,False,0.027
2019-11-13 10:07:05.280,Mi 9T,1573639625289.889,-0.627,-9.68,0.348,41.4573954,15.5390625,False,0.027
2019-11-13 10:07:05.300,Mi 9T,1573639625309.0,-0.76,-9.861,0.086,41.4573954,15.5390625,False,0.027
2019-11-13 10:07:05.320,Mi 9T,1573639625330.6667,-0.512,-9.589,0.529,41.4573954,15.5390625,False,0.027
2019-11-13 10:07:05.340,Mi 9T,1573639625349.2,-0.641,-9.934,-0.017,41.4573954,15.5390625,False,0.027
2019-11-13 10:07:05.360,Mi 9T,1573639625369.6,-0.604,-9.671,0.355,41.4573954,15.5390625,False,0.027
2019-11-13 10:07:05.380,Mi 9T,1573639625389.3,-0.699,-9.863,0.279,41.4573954,15.5390625,False,0.027
2019-11-13 10:07:05.400,Mi 9T,1573639625409.4,-0.696,-9.746,0.166,41.4573954,15.5390625,False,0.027
2019-11-13 10:07:05.420,Mi 9T,1573639625429.6,-0.462,-9.729,0.274,41.4573954,15.5390625,False,0.027
2019-11-13 10:07:05.440,Mi 9T,1573639625448.7144,-0.646,-9.89,0.17,41.4573954,15.5390625,False,0.027
2019-11-13 10:07:05.460,Mi 9T,1573639625462.5,-0.737,-9.661,0.373,41.4573954,15.5390625,False,0.027
2019-11-13 10:07:05.480,Mi 9T,1573639625492.5,-0.657,-9.706,0.388,41.4573954,15.5390625,True,0.027
2019-11-13 10:07:05.500,Mi 9T,1573639625492.5,-0.657,-9.706,0.388,41.4573954,15.5390625,True,0.027
2019-11-13 10:07:05.520,Mi 9T,1573639625534.0,-0.561,-9.76,0.224,41.4573954,15.5390625,True,0.027
2019-11-13 10:07:05.540,Mi 9T,1573639625551.4,-0.632,-9.636,0.445,41.4573954,15.5390625,True,0.027
2019-11-13 10:07:05.560,Mi 9T,1573639625569.25,-0.766,-9.717,0.367,41.4573954,15.5390625,True,0.027
2019-11-13 10:07:05.580,Mi 9T,1573639625588.6,-0.507,-9.955,0.122,41.4573954,15.5390625,False,0.027
2019-11-13 10:07:05.600,Mi 9T,1573639625608.5,-0.468,-9.626,0.372,41.4573954,15.5390625,False,0.027
2019-11-13 10:07:05.620,Mi 9T,1573639625628.111,-0.763,-9.928,-0.03,41.4573954,15.5390625,False,0.027
2019-11-13 10:07:05.640,Mi 9T,1573639625648.5715,-0.755,-9.615,0.545,41.4573954,15.5390625,False,0.027
2019-11-13 10:07:05.660,Mi 9T,1573639625669.25,-0.674,-9.793,0.153,41.4573954,15.5390625,False,0.027
2019-11-13 10:07:05.680,Mi 9T,1573639625685.8,-0.379,-9.595,0.233,41.4573954,15.5390625,False,0.027
2019-11-13 10:07:05.700,Mi 9T,1573639625707.9,-0.641,-9.84,0.203,41.4573954,15.5390625,False,0.027
2019-11-13 10:07:05.720,Mi 9T,1573639625728.7778,-0.831,-9.763,0.422,41.4573954,15.5390625,False,0.027
2019-11-13 10:07:05.740,Mi 9T,1573639625749.25,-0.54,-9.652,0.375,41.4573954,15.5390625,False,0.027
2019-11-13 10:07:05.760,Mi 9T,1573639625769.2,-0.531,-10.025,-0.15,41.4573954,15.5390625,False,0.027
2019-11-13 10:07:05.780,Mi 9T,1573639625788.2222,-0.577,-9.534,0.501,41.4573954,15.5390625,False,0.027
2019-11-13 10:07:05.800,Mi 9T,1573639625809.4,-0.716,-9.85,0.394,41.4573954,15.5390625,False,0.027
2019-11-13 10:07:05.820,Mi 9T,1573639625830.889,-0.746,-9.747,0.143,41.4573954,15.5390625,False,0.027
2019-11-13 10:07:05.840,Mi 9T,1573639625851.25,-0.479,-9.789,0.144,41.4573954,15.5390625,False,0.027
2019-11-13 10:07:05.860,Mi 9T,1573639625869.4,-0.518,-9.821,0.37,41.4573954,15.5390625,False,0.027
2019-11-13 10:07:05.880,Mi 9T,1573639625889.7778,-0.65,-9.657,0.365,41.4573954,15.5390625,False,0.027
2019-11-13 10:07:05.900,Mi 9T,1573639625909.2222,-0.713,-10.054,0.057,41.4573954,15.5390625,False,0.027
2019-11-13 10:07:05.920,Mi 9T,1573639625929.4443,-0.728,-9.467,0.536,41.4573954,15.5390625,False,0.027
2019-11-13 10:07:05.940,Mi 9T,1573639625951.625,-0.493,-9.874,-0.009,41.4573954,15.5390625,False,0.027
2019-11-13 10:07:05.960,Mi 9T,1573639625971.75,-0.531,-9.738,0.187,41.4573954,15.5390625,False,0.027
2019-11-13 10:07:05.980,Mi 9T,1573639625989.9,-0.804,-9.84,0.207,41.4573954,15.5390625,False,0.027
2019-11-13 10:07:06.000,Mi 9T,1573639626008.8572,-0.754,-9.734,0.465,41.4573954,15.5390625,False,0.027
2019-11-13 10:07:06.020,Mi 9T,1573639626027.5557,-0.535,-9.83,0.237,41.4573954,15.5390625,False,0.027
2019-11-13 10:07:06.040,Mi 9T,1573639626049.5715,-0.492,-9.798,0.052,41.4573954,15.5390625,False,0.027
2019-11-13 10:07:06.060,Mi 9T,1573639626068.5557,-0.585,-9.695,0.377,41.4573954,15.5390625,False,0.027
2019-11-13 10:07:06.080,Mi 9T,1573639626088.6667,-0.925,-9.916,0.218,41.4573954,15.5390625,False,0.027
2019-11-13 10:07:06.100,Mi 9T,1573639626108.2222,-0.578,-9.567,0.459,41.4573954,15.5390625,False,0.027
2019-11-13 10:07:06.120,Mi 9T,1573639626128.6,-0.403,-9.969,-0.016,41.4573954,15.5390625,False,0.027
2019-11-13 10:07:06.140,Mi 9T,1573639626148.6,-0.565,-9.601,0.46,41.4573954,15.5390625,False,0.027
2019-11-13 10:07:06.160,Mi 9T,1573639626169.125,-0.824,-9.852,0.139,41.4573954,15.5390625,False,0.027
2019-11-13 10:07:06.180,Mi 9T,1573639626189.6365,-0.769,-9.836,0.253,41.4573954,15.5390625,False,0.027
2019-11-13 10:07:06.200,Mi 9T,1573639626209.5557,-0.472,-9.549,0.327,41.4573954,15.5390625,False,0.027
2019-11-13 10:07:06.220,Mi 9T,1573639626229.25,-0.382,-10.019,0.029,41.4573954,15.5390625,False,0.027
2019-11-13 10:07:06.240,Mi 9T,1573639626250.0,-0.723,-9.621,0.524,41.4573954,15.5390625,False,0.027
2019-11-13 10:07:06.260,Mi 9T,1573639626269.0,-0.888,-9.907,0.145,41.4573954,15.5390625,False,0.027
2019-11-13 10:07:06.280,Mi 9T,1573639626289.25,-0.559,-9.695,0.343,41.4573954,15.5390625,False,0.027
2019-11-13 10:07:06.300,Mi 9T,1573639626309.2222,-0.5,-9.774,0.024,41.4573954,15.5390625,False,0.027
2019-11-13 10:07:06.320,Mi 9T,1573639626331.0,-0.488,-9.808,0.324,41.4573954,15.5390625,False,0.027
2019-11-13 10:07:06.340,Mi 9T,1573639626350.111,-0.878,-9.748,0.376,41.4573954,15.5390625,False,0.027
2019-11-13 10:07:06.360,Mi 9T,1573639626368.4285,-0.778,-9.76,0.413,41.4573954,15.5390625,False,0.027
2019-11-13 10:07:06.380,Mi 9T,1573639626388.7273,-0.492,-9.62,0.146,41.4573954,15.5390625,False,0.027
2019-11-13 10:07:06.400,Mi 9T,1573639626409.5715,-0.49,-9.95,-0.015,41.4573954,15.5390625,False,0.027
2019-11-13 10:07:06.420,Mi 9T,1573639626430.5,-0.7,-9.622,0.429,41.4573954,15.5390625,False,0.027
2019-11-13 10:07:06.440,Mi 9T,1573639626448.5715,-0.744,-10.058,0.218,41.4573954,15.5390625,False,0.027
2019-11-13 10:07:06.460,Mi 9T,1573639626469.8,-0.627,-9.619,0.449,41.4573954,15.5390625,False,0.027
2019-11-13 10:07:06.480,Mi 9T,1573639626490.625,-0.383,-9.834,0.009,41.4573954,15.5390625,False,0.027
2019-11-13 10:07:06.500,Mi 9T,1573639626509.5,-0.591,-9.784,0.264,41.4573954,15.5390625,False,0.027
2019-11-13 10:07:06.520,Mi 9T,1573639626528.8,-0.882,-9.759,0.28,41.4573954,15.5390625,False,0.027
2019-11-13 10:07:06.540,Mi 9T,1573639626550.7144,-0.627,-9.879,0.327,41.4573954,15.5390625,False,0.027
2019-11-13 10:07:06.560,Mi 9T,1573639626567.8572,-0.481,-9.753,0.166,41.4573954,15.5390625,False,0.027
2019-11-13 10:07:06.580,Mi 9T,1573639626590.0,-0.546,-9.942,-0.014,41.4573954,15.5390625,False,0.027
2019-11-13 10:07:06.600,Mi 9T,1573639626609.4443,-0.726,-9.513,0.591,41.4573954,15.5390625,False,0.027
2019-11-13 10:07:06.620,Mi 9T,1573639626628.4,-0.862,-9.903,0.162,41.4573954,15.5390625,False,0.027
2019-11-13 10:07:06.640,Mi 9T,1573639626648.2222,-0.561,-9.63,0.193,41.4573954,15.5390625,False,0.027
2019-11-13 10:07:06.660,Mi 9T,1573639626669.5,-0.428,-9.927,0.074,41.4573954,15.5390625,False,0.027
2019-11-13 10:07:06.680,Mi 9T,1573639626689.1428,-0.729,-9.634,0.527,41.4573954,15.5390625,False,0.027
2019-11-13 10:07:06.700,Mi 9T,1573639626709.2222,-0.771,-9.852,0.241,41.4573954,15.5390625,False,0.027
2019-11-13 10:07:06.720,Mi 9T,1573639626729.375,-0.611,-9.825,0.305,41.4573954,15.5390625,False,0.027
2019-11-13 10:07:06.740,Mi 9T,1573639626748.5,-0.468,-9.658,0.186,41.4573954,15.5390625,False,0.027
2019-11-13 10:07:06.760,Mi 9T,1573639626768.5,-0.562,-9.901,0.143,41.4573954,15.5390625,False,0.027
2019-11-13 10:07:06.780,Mi 9T,1573639626788.875,-0.839,-9.59,0.515,41.4573954,15.5390625,False,0.027
2019-11-13 10:07:06.800,Mi 9T,1573639626809.6667,-0.731,-9.893,0.073,41.4573954,15.5390625,False,0.027
2019-11-13 10:07:06.820,Mi 9T,1573639626830.75,-0.387,-9.65,0.297,41.4573951,15.5390625,False,0.03
2019-11-13 10:07:06.840,Mi 9T,1573639626848.7778,-0.568,-9.895,0.005,41.4573947,15.5390626,False,0.035
2019-11-13 10:07:06.860,Mi 9T,1573639626869.6667,-0.708,-9.771,0.396,41.4573947,15.5390626,False,0.035
2019-11-13 10:07:06.880,Mi 9T,1573639626887.8333,-0.761,-9.89,0.279,41.4573947,15.5390626,False,0.035
2019-11-13 10:07:06.900,Mi 9T,1573639626908.3333,-0.606,-9.769,0.202,41.4573947,15.5390626,False,0.035
2019-11-13 10:07:06.920,Mi 9T,1573639626927.8,-0.442,-9.763,0.077,41.4573947,15.5390626,False,0.035
2019-11-13 10:07:06.940,Mi 9T,1573639626950.111,-0.651,-9.806,0.383,41.4573947,15.5390626,False,0.035
2019-11-13 10:07:06.960,Mi 9T,1573639626970.889,-0.72,-9.687,0.352,41.4573947,15.5390626,False,0.035
