UTC_timestamp,device_name,timestamp,x,y,z,lat,long,event,speed
2019-10-27 16:21:49.780,LG-H970,1572193309788.0,-0.662,9.798,-2.123,41.1087095,16.8877196,False,2.946
2019-10-27 16:21:49.800,LG-H970,1572193309808.5,-1.416,9.126,-3.137,41.1087095,16.8877196,False,2.946
2019-10-27 16:21:49.820,LG-H970,1572193309827.75,-0.803,9.952,-2.096,41.1087095,16.8877196,False,2.946
2019-10-27 16:21:49.840,LG-H970,1572193309847.5,-0.778,9.368,-2.42,41.1087095,16.8877196,False,2.946
2019-10-27 16:21:49.860,LG-H970,1572193309867.5,-0.688,10.038,-2.659,41.1087095,16.8877196,False,2.946
2019-10-27 16:21:49.880,LG-H970,1572193309888.0,-1.039,9.49,-2.403,41.1087095,16.8877196,False,2.946
2019-10-27 16:21:49.900,LG-H970,1572193309909.8,-0.92,9.3,-2.399,41.1087095,16.8877196,False,2.946
2019-10-27 16:21:49.920,LG-H970,1572193309931.6667,-0.835,10.033,-1.844,41.1087095,16.8877196,False,2.946
2019-10-27 16:21:49.940,LG-H970,1572193309951.5,-1.408,9.466,-2.915,41.1087095,16.8877196,False,2.946
2019-10-27 16:21:49.960,LG-H970,1572193309971.75,-0.851,10.033,-2.326,41.1087095,16.8877196,False,2.946
2019-10-27 16:21:49.980,LG-H970,1572193309991.75,-0.873,9.175,-2.173,41.1087095,16.8877196,False,2.946
2019-10-27 16:21:50.000,LG-H970,1572193310011.0,-0.911,9.933,-2.529,41.1087095,16.8877196,False,2.946
2019-10-27 16:21:50.020,LG-H970,1572193310031.0,-1.402,10.064,-2.451,41.1087095,16.8877196,False,2.946
2019-10-27 16:21:50.040,LG-H970,1572193310050.5,-1.637,9.492,-2.489,41.1087095,16.8877196,False,2.946
2019-10-27 16:21:50.060,LG-H970,1572193310070.75,-1.074,9.727,-2.541,41.1087095,16.8877196,False,2.946
2019-10-27 16:21:50.080,LG-H970,1572193310089.5,-1.189,9.093,-2.951,41.1087095,16.8877196,False,2.946
2019-10-27 16:21:50.100,LG-H970,1572193310109.75,-0.921,9.664,-3.023,41.1087095,16.8877196,False,2.946
2019-10-27 16:21:50.120,LG-H970,1572193310129.25,-1.663,9.25,-2.421,41.1087095,16.8877196,False,2.946
2019-10-27 16:21:50.140,LG-H970,1572193310148.75,-2.178,9.533,-2.851,41.1087095,16.8877196,False,2.946
2019-10-27 16:21:50.160,LG-H970,1572193310168.75,-1.772,9.753,-2.502,41.1087095,16.8877196,False,2.946
2019-10-27 16:21:50.180,LG-H970,1572193310188.75,-1.437,9.09,-2.178,41.1087095,16.8877196,False,2.946
2019-10-27 16:21:50.200,LG-H970,1572193310208.0,-1.348,9.274,-2.49,41.1087095,16.8877196,False,2.946
2019-10-27 16:21:50.220,LG-H970,1572193310227.75,-1.534,9.698,-2.501,41.1087095,16.8877196,False,2.946
2019-10-27 16:21:50.240,LG-H970,1572193310247.5,-1.363,9.803,-2.463,41.1087095,16.8877196,False,2.946
2019-10-27 16:21:50.260,LG-H970,1572193310269.8,-1.4,10.351,-2.484,41.1087095,16.8877196,False,2.946
2019-10-27 16:21:50.280,LG-H970,1572193310291.75,-1.59,10.283,-2.863,41.1087095,16.8877196,False,2.946
2019-10-27 16:21:50.300,LG-H970,1572193310312.0,-1.012,10.073,-2.784,41.1087095,16.8877196,False,2.946
2019-10-27 16:21:50.320,LG-H970,1572193310329.3333,-0.664,10.174,-2.945,41.1087095,16.8877196,False,2.946
2019-10-27 16:21:50.340,LG-H970,1572193310347.5,-1.963,9.737,-2.676,41.1087095,16.8877196,False,2.946
2019-10-27 16:21:50.360,LG-H970,1572193310370.75,-2.1,9.012,-2.097,41.1087095,16.8877196,False,2.946
2019-10-27 16:21:50.380,LG-H970,1572193310389.5,-0.603,9.566,-2.475,41.1087095,16.8877196,False,2.946
2019-10-27 16:21:50.400,LG-H970,1572193310410.25,-0.97,9.204,-2.845,41.1087095,16.8877196,False,2.946
2019-10-27 16:21:50.420,LG-H970,1572193310429.75,-1.086,9.418,-3.222,41.1087095,16.8877196,False,2.946
2019-10-27 16:21:50.440,LG-H970,1572193310449.75,-0.198,9.976,-2.785,41.1087095,16.8877196,False,2.946
2019-10-27 16:21:50.460,LG-H970,1572193310469.5,-0.409,9.996,-1.981,41.1087095,16.8877196,False,2.946
2019-10-27 16:21:50.480,LG-H970,1572193310489.25,-0.767,11.641,-1.915,41.1087095,16.8877196,False,2.946
2019-10-27 16:21:50.500,LG-H970,1572193310508.5,-1.534,9.898,-1.925,41.1087095,16.8877196,False,2.946
2019-10-27 16:21:50.520,LG-H970,1572193310528.5,-1.197,9.847,-3.614,41.1087095,16.8877196,False,2.946
2019-10-27 16:21:50.540,LG-H970,1572193310548.25,-0.235,9.152,-3.661,41.1087095,16.8877196,False,2.946
2019-10-27 16:21:50.560,LG-H970,1572193310570.2,-0.836,8.8,-1.349,41.1087095,16.8877196,False,2.946
2019-10-27 16:21:50.580,LG-H970,1572193310590.3333,-3.146,10.951,-3.007,41.1087095,16.8877196,False,2.946
2019-10-27 16:21:50.600,LG-H970,1572193310607.5,-3.487,10.562,-3.851,41.1087095,16.8877196,False,2.946
2019-10-27 16:21:50.620,LG-H970,1572193310629.6,-0.195,9.599,-2.058,41.1087095,16.8877196,False,2.946
2019-10-27 16:21:50.640,LG-H970,1572193310652.0,-1.055,8.771,-3.283,41.1087095,16.8877196,False,2.946
2019-10-27 16:21:50.660,LG-H970,1572193310671.75,-2.836,9.485,-4.312,41.1087095,16.8877196,False,2.946
2019-10-27 16:21:50.680,LG-H970,1572193310691.0,-1.073,9.463,-3.243,41.1087095,16.8877196,False,2.946
2019-10-27 16:21:50.700,LG-H970,1572193310711.75,-0.222,9.302,-1.236,41.1087095,16.8877196,False,2.946
2019-10-27 16:21:50.720,LG-H970,1572193310730.5,-2.71,8.917,-3.066,41.1087095,16.8877196,False,2.946
2019-10-27 16:21:50.740,LG-H970,1572193310750.5,-3.19,8.337,-3.986,41.1087095,16.8877196,False,2.946
2019-10-27 16:21:50.760,LG-H970,1572193310769.75,-2.052,6.859,-2.927,41.1087095,16.8877196,False,2.946
2019-10-27 16:21:50.780,LG-H970,1572193310789.75,-2.074,6.839,-2.022,41.1087095,16.8877196,False,2.946
2019-10-27 16:21:50.800,LG-H970,1572193310809.25,-1.774,8.416,-4.861,41.1087095,16.8877196,False,2.946
2019-10-27 16:21:50.820,LG-H970,1572193310829.25,-0.575,9.903,-2.303,41.1087095,16.8877196,False,2.946
2019-10-27 16:21:50.840,LG-H970,1572193310849.5,-0.8,9.244,-1.589,41.1087095,16.8877196,False,2.946
2019-10-27 16:21:50.860,LG-H970,1572193310868.25,-1.638,11.488,-2.105,41.1087095,16.8877196,False,2.946
2019-10-27 16:21:50.880,LG-H970,1572193310888.0,-0.456,11.86,-4.622,41.1087095,16.8877196,False,2.946
2019-10-27 16:21:50.900,LG-H970,1572193310907.5,-0.21,9.381,-3.672,41.1087095,16.8877196,False,2.946
2019-10-27 16:21:50.920,LG-H970,1572193310927.75,-0.313,9.597,-0.629,41.1087095,16.8877196,False,2.946
2019-10-27 16:21:50.940,LG-H970,1572193310951.0,1.26,11.419,-4.619,41.1087095,16.8877196,False,2.946
2019-10-27 16:21:50.960,LG-H970,1572193310971.75,0.397,11.406,-2.168,41.1087095,16.8877196,False,2.946
2019-10-27 16:21:50.980,LG-H970,1572193310991.75,0.186,11.462,-1.991,41.1087095,16.8877196,False,2.946
2019-10-27 16:21:51.000,LG-H970,1572193311011.0,-0.057,9.202,-2.169,41.1087095,16.8877196,False,2.946
2019-10-27 16:21:51.020,LG-H970,1572193311028.6667,0.777,9.46,-3.442,41.1087095,16.8877196,False,2.946
2019-10-27 16:21:51.040,LG-H970,1572193311049.2,0.21,9.962,-2.516,41.1087095,16.8877196,False,2.946
2019-10-27 16:21:51.060,LG-H970,1572193311071.25,-0.602,10.389,-1.348,41.1087095,16.8877196,False,2.946
2019-10-27 16:21:51.080,LG-H970,1572193311093.3333,0.187,9.357,-2.757,41.1087095,16.8877196,False,2.946
2019-10-27 16:21:51.100,LG-H970,1572193311107.3333,0.876,8.496,-2.501,41.1087095,16.8877196,False,2.946
2019-10-27 16:21:51.120,LG-H970,1572193311127.4,0.215,9.669,-3.212,41.1087095,16.8877196,False,2.946
2019-10-27 16:21:51.140,LG-H970,1572193311148.5,-0.928,10.092,-1.943,41.1087095,16.8877196,False,2.946
2019-10-27 16:21:51.160,LG-H970,1572193311168.5,-0.034,9.843,-2.258,41.1087095,16.8877196,False,2.946
2019-10-27 16:21:51.180,LG-H970,1572193311187.5,1.078,7.877,-0.247,41.1087095,16.8877196,False,2.946
2019-10-27 16:21:51.200,LG-H970,1572193311208.5,0.965,9.259,-4.762,41.1087095,16.8877196,False,2.946
2019-10-27 16:21:51.220,LG-H970,1572193311228.5,-0.563,9.576,-4.289,41.1087095,16.8877196,False,2.946
2019-10-27 16:21:51.240,LG-H970,1572193311248.25,1.609,8.043,-3.07,41.1087095,16.8877196,False,2.946
2019-10-27 16:21:51.260,LG-H970,1572193311267.75,3.294,9.19,-2.098,41.1087095,16.8877196,False,2.946
2019-10-27 16:21:51.280,LG-H970,1572193311290.0,0.021,9.498,-3.907,41.1087095,16.8877196,False,2.946
2019-10-27 16:21:51.300,LG-H970,1572193311312.0,0.13,8.786,-4.0,41.1087095,16.8877196,False,2.946
2019-10-27 16:21:51.320,LG-H970,1572193311331.5,3.512,8.589,-3.372,41.1087095,16.8877196,False,2.946
2019-10-27 16:21:51.340,LG-H970,1572193311351.25,2.929,8.948,-2.556,41.1087095,16.8877196,False,2.946
2019-10-27 16:21:51.360,LG-H970,1572193311371.6667,0.119,10.554,-3.651,41.1087095,16.8877196,False,2.946
2019-10-27 16:21:51.380,LG-H970,1572193311390.6,-0.613,9.849,-3.385,41.1086678,16.8875975,False,5.307
2019-10-27 16:21:51.400,LG-H970,1572193311410.6667,2.444,8.907,-2.94,41.1086678,16.8875975,False,5.307
2019-10-27 16:21:51.420,LG-H970,1572193311427.75,2.876,8.513,-2.262,41.1086678,16.8875975,False,5.307
2019-10-27 16:21:51.440,LG-H970,1572193311448.6,-0.896,9.746,-3.395,41.1086678,16.8875975,False,5.307
2019-10-27 16:21:51.460,LG-H970,1572193311470.5,-0.887,10.365,-3.358,41.1086678,16.8875975,False,5.307
2019-10-27 16:21:51.480,LG-H970,1572193311490.5,1.687,9.354,-1.803,41.1086678,16.8875975,False,5.307
2019-10-27 16:21:51.500,LG-H970,1572193311511.0,0.157,8.898,-1.928,41.1086678,16.8875975,False,5.307
2019-10-27 16:21:51.520,LG-H970,1572193311531.0,-2.397,9.898,-3.523,41.1086678,16.8875975,False,5.307
2019-10-27 16:21:51.540,LG-H970,1572193311551.0,-1.09,10.016,-3.096,41.1086678,16.8875975,False,5.307
2019-10-27 16:21:51.560,LG-H970,1572193311569.5,0.54,9.419,-1.311,41.1086678,16.8875975,False,5.307
2019-10-27 16:21:51.580,LG-H970,1572193311590.0,-1.533,9.426,-2.157,41.1086678,16.8875975,False,5.307
2019-10-27 16:21:51.600,LG-H970,1572193311609.5,-2.218,10.641,-3.929,41.1086678,16.8875975,False,5.307
2019-10-27 16:21:51.620,LG-H970,1572193311629.0,-0.418,9.889,-1.95,41.1086678,16.8875975,False,5.307
2019-10-27 16:21:51.640,LG-H970,1572193311649.0,-0.42,9.425,-1.13,41.1086678,16.8875975,False,5.307
2019-10-27 16:21:51.660,LG-H970,1572193311668.75,-1.789,10.583,-3.832,41.1086678,16.8875975,False,5.307
2019-10-27 16:21:51.680,LG-H970,1572193311688.75,-1.399,9.781,-3.394,41.1086678,16.8875975,False,5.307
2019-10-27 16:21:51.700,LG-H970,1572193311710.8,-0.524,8.955,-1.807,41.1086678,16.8875975,False,5.307
2019-10-27 16:21:51.720,LG-H970,1572193311732.3333,-1.716,9.298,-2.87,41.1086678,16.8875975,False,5.307
2019-10-27 16:21:51.740,LG-H970,1572193311747.25,-2.219,9.93,-3.421,41.1086678,16.8875975,False,5.307
2019-10-27 16:21:51.760,LG-H970,1572193311771.75,0.1,9.741,-2.624,41.1086678,16.8875975,False,5.307
2019-10-27 16:21:51.780,LG-H970,1572193311788.5,0.319,7.844,0.103,41.1086678,16.8875975,False,5.307
2019-10-27 16:21:51.800,LG-H970,1572193311807.0,-0.752,9.086,-3.474,41.1086678,16.8875975,False,5.307
2019-10-27 16:21:51.820,LG-H970,1572193311828.6,-0.526,10.126,-3.269,41.1086678,16.8875975,False,5.307
2019-10-27 16:21:51.840,LG-H970,1572193311852.5,0.173,9.004,-1.461,41.1086678,16.8875975,False,5.307
2019-10-27 16:21:51.860,LG-H970,1572193311871.0,-0.041,9.151,-3.481,41.1086678,16.8875975,False,5.307
2019-10-27 16:21:51.880,LG-H970,1572193311890.75,0.002,8.126,-3.997,41.1086678,16.8875975,False,5.307
2019-10-27 16:21:51.900,LG-H970,1572193311910.25,1.667,7.716,-3.156,41.1086678,16.8875975,False,5.307
2019-10-27 16:21:51.920,LG-H970,1572193311931.0,2.74,9.16,-3.052,41.1086678,16.8875975,False,5.307
2019-10-27 16:21:51.940,LG-H970,1572193311950.25,-0.072,10.343,-2.905,41.1086678,16.8875975,False,5.307
2019-10-27 16:21:51.960,LG-H970,1572193311969.25,-1.18,11.169,-3.204,41.1086678,16.8875975,False,5.307
2019-10-27 16:21:51.980,LG-H970,1572193311991.0,2.526,9.961,-2.386,41.1086678,16.8875975,False,5.307
2019-10-27 16:21:52.000,LG-H970,1572193312010.6667,3.07,8.528,-1.488,41.1086678,16.8875975,False,5.307
2019-10-27 16:21:52.020,LG-H970,1572193312029.25,-0.572,8.68,-3.218,41.1086678,16.8875975,False,5.307
2019-10-27 16:21:52.040,LG-H970,1572193312048.75,-0.573,9.708,-4.419,41.1086678,16.8875975,False,5.307
2019-10-27 16:21:52.060,LG-H970,1572193312068.75,4.495,7.918,-2.32,41.1086678,16.8875975,False,5.307
2019-10-27 16:21:52.080,LG-H970,1572193312087.25,5.357,4.134,1.199,41.1086678,16.8875975,False,5.307
2019-10-27 16:21:52.100,LG-H970,1572193312108.0,0.566,7.908,-4.259,41.1086678,16.8875975,False,5.307
2019-10-27 16:21:52.120,LG-H970,1572193312127.75,-3.111,13.666,-6.74,41.1086678,16.8875975,False,5.307
2019-10-27 16:21:52.140,LG-H970,1572193312147.5,-2.631,8.359,1.284,41.1086678,16.8875975,False,5.307
2019-10-27 16:21:52.160,LG-H970,1572193312166.75,4.072,7.534,1.927,41.1086678,16.8875975,False,5.307
2019-10-27 16:21:52.180,LG-H970,1572193312188.6,0.562,9.649,-5.816,41.1086678,16.8875975,False,5.307
2019-10-27 16:21:52.200,LG-H970,1572193312211.5,-2.233,9.825,-1.57,41.1086678,16.8875975,False,5.307
2019-10-27 16:21:52.220,LG-H970,1572193312230.5,2.52,8.8,-3.303,41.1086678,16.8875975,False,5.307
2019-10-27 16:21:52.240,LG-H970,1572193312250.5,3.658,11.339,-1.804,41.1086678,16.8875975,False,5.307
2019-10-27 16:21:52.260,LG-H970,1572193312270.5,-1.778,11.925,-2.599,41.1086678,16.8875975,False,5.307
2019-10-27 16:21:52.280,LG-H970,1572193312289.75,-3.684,12.61,-2.921,41.1086678,16.8875975,False,5.307
2019-10-27 16:21:52.300,LG-H970,1572193312310.75,-0.593,9.839,-2.628,41.1086678,16.8875975,False,5.307
2019-10-27 16:21:52.320,LG-H970,1572193312328.5,1.429,9.527,-0.195,41.1086678,16.8875975,False,5.307
2019-10-27 16:21:52.340,LG-H970,1572193312349.5,-0.193,11.942,-0.05,41.1086678,16.8875975,False,5.307
2019-10-27 16:21:52.360,LG-H970,1572193312370.25,-1.565,11.187,-1.619,41.1086678,16.8875975,False,5.307
2019-10-27 16:21:52.380,LG-H970,1572193312387.0,1.241,9.026,1.655,41.1086678,16.8875975,False,5.307
2019-10-27 16:21:52.400,LG-H970,1572193312407.0,3.476,13.134,-2.561,41.1086678,16.8875975,False,5.307
2019-10-27 16:21:52.420,LG-H970,1572193312427.5,-4.574,11.005,-2.487,41.1086678,16.8875975,False,5.307
2019-10-27 16:21:52.440,LG-H970,1572193312450.0,-2.644,10.748,-2.101,41.1086678,16.8875975,False,5.307
2019-10-27 16:21:52.460,LG-H970,1572193312470.0,5.33,5.356,0.836,41.1086678,16.8875975,False,5.307
2019-10-27 16:21:52.480,LG-H970,1572193312486.75,5.355,12.539,-1.76,41.1086678,16.8875975,False,5.307
2019-10-27 16:21:52.500,LG-H970,1572193312509.8,-4.091,9.888,-2.187,41.1086678,16.8875975,False,5.307
2019-10-27 16:21:52.520,LG-H970,1572193312531.0,-1.881,9.033,0.998,41.1086678,16.8875975,False,5.307
2019-10-27 16:21:52.540,LG-H970,1572193312550.25,4.52,8.51,1.048,41.1086678,16.8875975,False,5.307
2019-10-27 16:21:52.560,LG-H970,1572193312570.25,1.967,9.688,-2.129,41.1086678,16.8875975,False,5.307
2019-10-27 16:21:52.580,LG-H970,1572193312589.75,-2.655,10.089,-5.146,41.1086678,16.8875975,False,5.307
2019-10-27 16:21:52.600,LG-H970,1572193312610.0,-1.495,8.961,-3.077,41.1086678,16.8875975,False,5.307
2019-10-27 16:21:52.620,LG-H970,1572193312629.0,3.543,8.74,-0.306,41.1086678,16.8875975,False,5.307
2019-10-27 16:21:52.640,LG-H970,1572193312650.25,1.567,7.001,1.218,41.1086678,16.8875975,False,5.307
2019-10-27 16:21:52.660,LG-H970,1572193312669.75,-3.846,6.077,-3.056,41.1086678,16.8875975,False,5.307
2019-10-27 16:21:52.680,LG-H970,1572193312688.75,-3.299,7.759,-7.219,41.1086678,16.8875975,False,5.307
2019-10-27 16:21:52.700,LG-H970,1572193312708.75,1.684,8.372,2.374,41.1086678,16.8875975,False,5.307
2019-10-27 16:21:52.720,LG-H970,1572193312728.75,5.693,12.603,1.82,41.1086678,16.8875975,False,5.307
2019-10-27 16:21:52.740,LG-H970,1572193312747.75,1.426,12.627,2.926,41.1086678,16.8875975,False,5.307
2019-10-27 16:21:52.760,LG-H970,1572193312769.0,-1.577,11.891,-4.027,41.1086678,16.8875975,False,5.307
2019-10-27 16:21:52.780,LG-H970,1572193312787.75,0.828,10.555,-1.734,41.1086678,16.8875975,False,5.307
2019-10-27 16:21:52.800,LG-H970,1572193312807.25,4.705,9.47,0.834,41.1086678,16.8875975,False,5.307
2019-10-27 16:21:52.820,LG-H970,1572193312829.6,3.487,11.998,0.623,41.1086678,16.8875975,False,5.307
2019-10-27 16:21:52.840,LG-H970,1572193312852.6667,0.141,14.125,-2.597,41.1086678,16.8875975,False,5.307
2019-10-27 16:21:52.860,LG-H970,1572193312871.25,2.027,11.55,0.212,41.1086678,16.8875975,False,5.307
2019-10-27 16:21:52.880,LG-H970,1572193312894.0,4.812,8.203,0.011,41.1086678,16.8875975,False,5.307
2019-10-27 16:21:52.900,LG-H970,1572193312910.25,2.442,9.518,-3.004,41.1086678,16.8875975,False,5.307
2019-10-27 16:21:52.920,LG-H970,1572193312930.75,-0.266,11.273,-1.722,41.1086678,16.8875975,False,5.307
2019-10-27 16:21:52.940,LG-H970,1572193312949.75,1.872,10.189,3.338,41.1086678,16.8875975,False,5.307
2019-10-27 16:21:52.960,LG-H970,1572193312969.75,2.924,8.963,1.844,41.1086678,16.8875975,False,5.307
2019-10-27 16:21:52.980,LG-H970,1572193312989.75,-0.238,8.62,-2.132,41.1086678,16.8875975,False,5.307
2019-10-27 16:21:53.000,LG-H970,1572193313008.25,2.028,12.358,-7.063,41.1086678,16.8875975,False,5.307
2019-10-27 16:21:53.020,LG-H970,1572193313028.25,1.599,5.95,-0.669,41.1086678,16.8875975,False,5.307
2019-10-27 16:21:53.040,LG-H970,1572193313050.4,2.247,8.432,-0.372,41.1086678,16.8875975,False,5.307
2019-10-27 16:21:53.060,LG-H970,1572193313072.6667,1.321,9.52,-5.113,41.1086678,16.8875975,False,5.307
2019-10-27 16:21:53.080,LG-H970,1572193313088.25,1.242,9.636,-1.434,41.1086678,16.8875975,False,5.307
2019-10-27 16:21:53.100,LG-H970,1572193313108.0,1.238,7.827,-2.531,41.1086678,16.8875975,False,5.307
2019-10-27 16:21:53.120,LG-H970,1572193313127.5,2.537,8.71,-1.146,41.1086678,16.8875975,False,5.307
2019-10-27 16:21:53.140,LG-H970,1572193313147.5,2.53,9.14,-2.36,41.1086678,16.8875975,False,5.307
2019-10-27 16:21:53.160,LG-H970,1572193313170.2,1.413,10.741,-1.153,41.1086678,16.8875975,False,5.307
2019-10-27 16:21:53.180,LG-H970,1572193313191.25,1.878,10.337,-1.488,41.1086678,16.8875975,False,5.307
2019-10-27 16:21:53.200,LG-H970,1572193313211.5,1.717,8.78,-1.081,41.1086678,16.8875975,False,5.307
2019-10-27 16:21:53.220,LG-H970,1572193313230.25,1.223,8.788,-0.141,41.1086678,16.8875975,False,5.307
2019-10-27 16:21:53.240,LG-H970,1572193313250.5,1.544,9.97,-0.115,41.1086678,16.8875975,False,5.307
2019-10-27 16:21:53.260,LG-H970,1572193313270.5,1.945,9.577,0.314,41.1086678,16.8875975,False,5.307
2019-10-27 16:21:53.280,LG-H970,1572193313290.25,1.345,9.015,-0.429,41.1086678,16.8875975,False,5.307
2019-10-27 16:21:53.300,LG-H970,1572193313310.0,0.109,9.291,0.399,41.1086678,16.8875975,False,5.307
2019-10-27 16:21:53.320,LG-H970,1572193313329.75,0.73,8.926,0.435,41.1086678,16.8875975,False,5.307
2019-10-27 16:21:53.340,LG-H970,1572193313348.75,2.407,9.876,0.968,41.1086678,16.8875975,False,5.307
2019-10-27 16:21:53.360,LG-H970,1572193313368.5,1.147,9.547,0.802,41.1086678,16.8875975,False,5.307
2019-10-27 16:21:53.380,LG-H970,1572193313389.6667,0.151,11.196,-0.81,41.1086011,16.8874741,False,7.148333333333333
2019-10-27 16:21:53.400,LG-H970,1572193313407.75,0.776,9.892,-1.361,41.1085677,16.8874124,False,8.068999999999999
2019-10-27 16:21:53.420,LG-H970,1572193313427.75,1.819,9.113,-0.613,41.1085677,16.8874124,False,8.068999999999999
2019-10-27 16:21:53.440,LG-H970,1572193313447.5,0.913,10.06,-0.353,41.1085677,16.8874124,False,8.068999999999999
2019-10-27 16:21:53.460,LG-H970,1572193313468.25,0.417,10.708,-2.005,41.1085677,16.8874124,False,8.068999999999999
2019-10-27 16:21:53.480,LG-H970,1572193313489.0,1.495,9.098,-1.544,41.1085677,16.8874124,False,8.068999999999999
2019-10-27 16:21:53.500,LG-H970,1572193313508.6667,1.569,8.022,-0.973,41.1085677,16.8874124,False,8.068999999999999
2019-10-27 16:21:53.520,LG-H970,1572193313529.2,0.919,9.186,-1.567,41.1085677,16.8874124,False,8.068999999999999
2019-10-27 16:21:53.540,LG-H970,1572193313551.25,0.862,9.485,-1.782,41.1085677,16.8874124,False,8.068999999999999
2019-10-27 16:21:53.560,LG-H970,1572193313570.75,1.002,9.223,-1.2,41.1085677,16.8874124,False,8.068999999999999
2019-10-27 16:21:53.580,LG-H970,1572193313590.25,0.161,9.09,-1.334,41.1085677,16.8874124,False,8.068999999999999
2019-10-27 16:21:53.600,LG-H970,1572193313610.75,0.042,9.712,-1.569,41.1085677,16.8874124,False,8.068999999999999
2019-10-27 16:21:53.620,LG-H970,1572193313630.5,1.107,8.198,-1.056,41.1085677,16.8874124,False,8.068999999999999
2019-10-27 16:21:53.640,LG-H970,1572193313650.0,2.492,6.888,-2.56,41.1085677,16.8874124,False,8.068999999999999
2019-10-27 16:21:53.660,LG-H970,1572193313670.5,1.695,6.423,-2.453,41.1085677,16.8874124,False,8.068999999999999
2019-10-27 16:21:53.680,LG-H970,1572193313689.5,1.456,5.036,-1.132,41.1085677,16.8874124,False,8.068999999999999
2019-10-27 16:21:53.700,LG-H970,1572193313708.5,1.6,5.219,-2.359,41.1085677,16.8874124,False,8.068999999999999
2019-10-27 16:21:53.720,LG-H970,1572193313729.25,-1.738,7.973,-2.545,41.1085677,16.8874124,False,8.068999999999999
2019-10-27 16:21:53.740,LG-H970,1572193313746.75,-5.715,7.151,-2.685,41.1085677,16.8874124,False,8.068999999999999
2019-10-27 16:21:53.760,LG-H970,1572193313769.5,-0.954,10.499,-1.377,41.1085677,16.8874124,False,8.068999999999999
2019-10-27 16:21:53.780,LG-H970,1572193313787.75,5.34,14.237,1.545,41.1085677,16.8874124,False,8.068999999999999
2019-10-27 16:21:53.800,LG-H970,1572193313808.25,4.959,14.583,4.809,41.1085677,16.8874124,False,8.068999999999999
2019-10-27 16:21:53.820,LG-H970,1572193313826.75,-5.459,11.663,0.602,41.1085677,16.8874124,False,8.068999999999999
2019-10-27 16:21:53.840,LG-H970,1572193313845.3333,-4.337,14.762,-10.126,41.1085677,16.8874124,False,8.068999999999999
2019-10-27 16:21:53.860,LG-H970,1572193313869.6667,7.239,14.776,-0.692,41.1085677,16.8874124,False,8.068999999999999
2019-10-27 16:21:53.880,LG-H970,1572193313889.6,7.889,8.513,7.39,41.1085677,16.8874124,False,8.068999999999999
2019-10-27 16:21:53.900,LG-H970,1572193313910.75,-1.305,18.077,-6.241,41.1085677,16.8874124,False,8.068999999999999
2019-10-27 16:21:53.920,LG-H970,1572193313931.25,-2.01,16.968,-3.961,41.1085677,16.8874124,False,8.068999999999999
2019-10-27 16:21:53.940,LG-H970,1572193313950.0,6.284,10.802,6.107,41.1085677,16.8874124,False,8.068999999999999
2019-10-27 16:21:53.960,LG-H970,1572193313970.5,7.054,9.494,0.082,41.1085677,16.8874124,False,8.068999999999999
2019-10-27 16:21:53.980,LG-H970,1572193313989.5,-0.09,10.443,-5.618,41.1085677,16.8874124,False,8.068999999999999
2019-10-27 16:21:54.000,LG-H970,1572193314008.0,-0.516,10.648,-0.559,41.1085677,16.8874124,False,8.068999999999999
2019-10-27 16:21:54.020,LG-H970,1572193314029.0,1.79,8.717,-0.957,41.1085677,16.8874124,False,8.068999999999999
2019-10-27 16:21:54.040,LG-H970,1572193314049.5,-0.857,10.466,0.653,41.1085677,16.8874124,False,8.068999999999999
2019-10-27 16:21:54.060,LG-H970,1572193314069.25,-1.898,7.286,-1.905,41.1085677,16.8874124,False,8.068999999999999
2019-10-27 16:21:54.080,LG-H970,1572193314089.0,4.633,10.589,-7.237,41.1085677,16.8874124,False,8.068999999999999
2019-10-27 16:21:54.100,LG-H970,1572193314108.75,-3.263,4.809,-8.26,41.1085677,16.8874124,False,8.068999999999999
2019-10-27 16:21:54.120,LG-H970,1572193314127.25,-4.615,6.772,-0.795,41.1085677,16.8874124,False,8.068999999999999
2019-10-27 16:21:54.140,LG-H970,1572193314147.25,5.941,7.675,-5.98,41.1085677,16.8874124,False,8.068999999999999
2019-10-27 16:21:54.160,LG-H970,1572193314170.2,4.244,6.436,-1.859,41.1085677,16.8874124,False,8.068999999999999
2019-10-27 16:21:54.180,LG-H970,1572193314189.6667,-2.506,10.381,-4.317,41.1085677,16.8874124,False,8.068999999999999
2019-10-27 16:21:54.200,LG-H970,1572193314209.4,0.509,7.678,-4.979,41.1085677,16.8874124,False,8.068999999999999
2019-10-27 16:21:54.220,LG-H970,1572193314231.5,7.311,7.385,0.564,41.1085677,16.8874124,False,8.068999999999999
2019-10-27 16:21:54.240,LG-H970,1572193314250.75,2.304,8.753,-2.054,41.1085677,16.8874124,False,8.068999999999999
2019-10-27 16:21:54.260,LG-H970,1572193314269.75,-1.074,9.511,-1.854,41.1085677,16.8874124,False,8.068999999999999
2019-10-27 16:21:54.280,LG-H970,1572193314290.25,3.136,8.931,-0.917,41.1085677,16.8874124,False,8.068999999999999
2019-10-27 16:21:54.300,LG-H970,1572193314311.0,3.882,7.908,1.296,41.1085677,16.8874124,False,8.068999999999999
2019-10-27 16:21:54.320,LG-H970,1572193314329.5,0.803,9.633,-0.544,41.1085677,16.8874124,False,8.068999999999999
2019-10-27 16:21:54.340,LG-H970,1572193314350.3333,-0.004,10.008,-2.451,41.1085677,16.8874124,False,8.068999999999999
2019-10-27 16:21:54.360,LG-H970,1572193314367.0,2.379,8.541,-0.55,41.1085677,16.8874124,False,8.068999999999999
2019-10-27 16:21:54.380,LG-H970,1572193314389.25,1.617,9.277,-0.382,41.108544,16.8873658,False,8.1465
2019-10-27 16:21:54.400,LG-H970,1572193314409.6,-0.791,10.327,-0.764,41.1085204,16.8873192,False,8.224
2019-10-27 16:21:54.420,LG-H970,1572193314429.0,1.249,9.667,-1.373,41.1085204,16.8873192,False,8.224
2019-10-27 16:21:54.440,LG-H970,1572193314449.2,1.958,8.078,-0.314,41.1085204,16.8873192,False,8.224
2019-10-27 16:21:54.460,LG-H970,1572193314471.5,-0.056,8.69,-1.419,41.1085204,16.8873192,False,8.224
2019-10-27 16:21:54.480,LG-H970,1572193314491.75,0.023,9.729,-0.74,41.1085204,16.8873192,False,8.224
2019-10-27 16:21:54.500,LG-H970,1572193314511.0,1.505,9.175,-0.262,41.1085204,16.8873192,False,8.224
2019-10-27 16:21:54.520,LG-H970,1572193314531.0,1.302,9.28,-1.814,41.1085204,16.8873192,False,8.224
2019-10-27 16:21:54.540,LG-H970,1572193314550.25,0.406,9.453,-3.351,41.1085204,16.8873192,False,8.224
2019-10-27 16:21:54.560,LG-H970,1572193314570.25,1.284,9.135,-2.428,41.1085204,16.8873192,False,8.224
2019-10-27 16:21:54.580,LG-H970,1572193314589.5,1.376,9.744,-2.059,41.1085204,16.8873192,False,8.224
2019-10-27 16:21:54.600,LG-H970,1572193314609.5,0.569,10.555,-3.087,41.1085204,16.8873192,False,8.224
2019-10-27 16:21:54.620,LG-H970,1572193314629.25,1.143,9.723,-2.526,41.1085204,16.8873192,False,8.224
2019-10-27 16:21:54.640,LG-H970,1572193314649.25,2.079,8.435,-2.37,41.1085204,16.8873192,False,8.224
2019-10-27 16:21:54.660,LG-H970,1572193314669.0,1.593,9.804,-2.622,41.1085204,16.8873192,False,8.224
2019-10-27 16:21:54.680,LG-H970,1572193314686.0,0.281,9.291,-1.801,41.1085204,16.8873192,False,8.224
2019-10-27 16:21:54.700,LG-H970,1572193314708.6,1.506,10.334,-1.904,41.1085204,16.8873192,False,8.224
2019-10-27 16:21:54.720,LG-H970,1572193314729.0,1.884,9.536,-2.029,41.1085204,16.8873192,False,8.224
2019-10-27 16:21:54.740,LG-H970,1572193314748.25,1.437,9.623,-3.037,41.1085204,16.8873192,False,8.224
2019-10-27 16:21:54.760,LG-H970,1572193314765.3333,1.494,9.478,-2.22,41.1085204,16.8873192,False,8.224
2019-10-27 16:21:54.780,LG-H970,1572193314799.0,1.975,10.554,-2.564,41.1085204,16.8873192,True,8.224
2019-10-27 16:21:54.800,LG-H970,1572193314800.0,1.517,11.356,-3.153,41.1085204,16.8873192,False,8.224
2019-10-27 16:21:54.820,LG-H970,1572193314800.0,1.517,11.356,-3.153,41.1085204,16.8873192,False,8.224
2019-10-27 16:21:54.840,LG-H970,1572193314853.3333,1.588,9.896,-1.734,41.1085204,16.8873192,False,8.224
2019-10-27 16:21:54.860,LG-H970,1572193314873.0,0.61,9.373,-1.108,41.1085204,16.8873192,False,8.224
2019-10-27 16:21:54.880,LG-H970,1572193314889.0,0.401,10.415,-1.442,41.1085204,16.8873192,False,8.224
2019-10-27 16:21:54.900,LG-H970,1572193314908.2,0.917,9.943,-0.698,41.1085204,16.8873192,False,8.224
2019-10-27 16:21:54.920,LG-H970,1572193314930.5,1.218,9.662,-1.761,41.1085204,16.8873192,False,8.224
2019-10-27 16:21:54.940,LG-H970,1572193314950.0,0.862,9.881,-2.182,41.1085204,16.8873192,False,8.224
2019-10-27 16:21:54.960,LG-H970,1572193314969.5,0.76,9.6,-1.833,41.1085204,16.8873192,False,8.224
2019-10-27 16:21:54.980,LG-H970,1572193314989.75,0.876,9.913,-1.532,41.1085204,16.8873192,False,8.224
2019-10-27 16:21:55.000,LG-H970,1572193315009.0,0.849,9.858,-1.847,41.1085204,16.8873192,False,8.224
2019-10-27 16:21:55.020,LG-H970,1572193315028.3333,1.142,8.746,-1.186,41.1085204,16.8873192,False,8.224
2019-10-27 16:21:55.040,LG-H970,1572193315050.5,1.547,8.568,-1.732,41.1085204,16.8873192,False,8.224
2019-10-27 16:21:55.060,LG-H970,1572193315068.5,0.891,9.504,-1.668,41.1085204,16.8873192,False,8.224
2019-10-27 16:21:55.080,LG-H970,1572193315089.5,0.364,9.695,-0.955,41.1085204,16.8873192,False,8.224
2019-10-27 16:21:55.100,LG-H970,1572193315108.75,1.029,9.915,-1.455,41.1085204,16.8873192,False,8.224
2019-10-27 16:21:55.120,LG-H970,1572193315127.6667,1.386,9.63,-1.729,41.1085204,16.8873192,False,8.224
2019-10-27 16:21:55.140,LG-H970,1572193315148.0,1.205,9.466,-1.977,41.1085204,16.8873192,False,8.224
2019-10-27 16:21:55.160,LG-H970,1572193315168.75,0.87,10.037,-1.939,41.1085204,16.8873192,False,8.224
2019-10-27 16:21:55.180,LG-H970,1572193315187.75,0.761,10.393,-1.865,41.1085204,16.8873192,False,8.224
2019-10-27 16:21:55.200,LG-H970,1572193315206.25,0.958,10.013,-1.351,41.1085204,16.8873192,False,8.224
2019-10-27 16:21:55.220,LG-H970,1572193315229.0,1.194,9.227,-1.685,41.1085204,16.8873192,False,8.224
2019-10-27 16:21:55.240,LG-H970,1572193315251.0,1.395,9.347,-1.807,41.1085204,16.8873192,False,8.224
2019-10-27 16:21:55.260,LG-H970,1572193315271.75,1.354,9.585,-1.042,41.1085204,16.8873192,False,8.224
2019-10-27 16:21:55.280,LG-H970,1572193315291.0,0.922,9.891,-1.116,41.1085204,16.8873192,False,8.224
2019-10-27 16:21:55.300,LG-H970,1572193315309.25,0.947,9.851,-1.447,41.1085204,16.8873192,False,8.224
2019-10-27 16:21:55.320,LG-H970,1572193315330.25,1.391,9.436,-1.565,41.1085204,16.8873192,False,8.224
2019-10-27 16:21:55.340,LG-H970,1572193315348.75,1.172,9.48,-1.376,41.1085204,16.8873192,False,8.224
2019-10-27 16:21:55.360,LG-H970,1572193315367.3333,1.018,10.412,-1.63,41.1085204,16.8873192,False,8.224
2019-10-27 16:21:55.380,LG-H970,1572193315388.2,0.775,10.107,-1.177,41.1085204,16.8873192,False,8.224
2019-10-27 16:21:55.400,LG-H970,1572193315407.75,1.175,9.381,-1.202,41.1085204,16.8873192,False,8.224
2019-10-27 16:21:55.420,LG-H970,1572193315428.75,1.477,9.29,-1.753,41.1085204,16.8873192,False,8.224
2019-10-27 16:21:55.440,LG-H970,1572193315448.0,1.131,9.08,-1.433,41.1085204,16.8873192,False,8.224
2019-10-27 16:21:55.460,LG-H970,1572193315468.5,0.95,9.469,-1.115,41.1085204,16.8873192,False,8.224
2019-10-27 16:21:55.480,LG-H970,1572193315488.5,1.033,9.937,-1.098,41.1085204,16.8873192,False,8.224
2019-10-27 16:21:55.500,LG-H970,1572193315510.6,1.21,9.877,-1.518,41.1085204,16.8873192,False,8.224
2019-10-27 16:21:55.520,LG-H970,1572193315530.3333,1.012,9.295,-0.829,41.1085204,16.8873192,False,8.224
2019-10-27 16:21:55.540,LG-H970,1572193315550.4,1.287,9.761,-1.372,41.1085204,16.8873192,False,8.224
2019-10-27 16:21:55.560,LG-H970,1572193315571.75,1.042,9.994,-1.115,41.1085204,16.8873192,False,8.224
2019-10-27 16:21:55.580,LG-H970,1572193315590.5,0.715,9.511,-0.913,41.1085204,16.8873192,False,8.224
2019-10-27 16:21:55.600,LG-H970,1572193315612.25,1.339,9.283,-1.379,41.1085204,16.8873192,False,8.224
2019-10-27 16:21:55.620,LG-H970,1572193315630.75,1.552,8.824,-1.164,41.1085204,16.8873192,False,8.224
2019-10-27 16:21:55.640,LG-H970,1572193315651.0,1.291,9.225,-1.46,41.1085204,16.8873192,False,8.224
2019-10-27 16:21:55.660,LG-H970,1572193315670.5,0.756,9.591,-1.288,41.1085204,16.8873192,False,8.224
2019-10-27 16:21:55.680,LG-H970,1572193315690.25,1.082,10.0,-1.358,41.1085204,16.8873192,False,8.224
2019-10-27 16:21:55.700,LG-H970,1572193315709.5,1.389,9.702,-1.012,41.1085204,16.8873192,False,8.224
2019-10-27 16:21:55.720,LG-H970,1572193315730.0,1.183,9.806,-1.542,41.1085204,16.8873192,False,8.224
2019-10-27 16:21:55.740,LG-H970,1572193315749.25,0.552,9.703,-1.581,41.1085204,16.8873192,False,8.224
2019-10-27 16:21:55.760,LG-H970,1572193315768.75,0.534,9.433,-1.163,41.1085204,16.8873192,False,8.224
2019-10-27 16:21:55.780,LG-H970,1572193315788.5,0.877,9.526,-0.816,41.1085204,16.8873192,False,8.224
2019-10-27 16:21:55.800,LG-H970,1572193315810.6,0.84,9.532,-1.738,41.1085204,16.8873192,False,8.224
2019-10-27 16:21:55.820,LG-H970,1572193315830.6667,0.628,9.225,-1.031,41.1085204,16.8873192,False,8.224
2019-10-27 16:21:55.840,LG-H970,1572193315847.75,0.849,9.545,-1.442,41.1085204,16.8873192,False,8.224
2019-10-27 16:21:55.860,LG-H970,1572193315867.5,0.532,9.775,-0.921,41.1085204,16.8873192,False,8.224
2019-10-27 16:21:55.880,LG-H970,1572193315889.4,0.799,9.789,-1.537,41.1085204,16.8873192,False,8.224
2019-10-27 16:21:55.900,LG-H970,1572193315911.25,1.39,9.94,-0.902,41.1085204,16.8873192,False,8.224
2019-10-27 16:21:55.920,LG-H970,1572193315931.75,1.111,9.78,-1.04,41.1085204,16.8873192,False,8.224
2019-10-27 16:21:55.940,LG-H970,1572193315949.0,0.778,9.945,-0.941,41.1085204,16.8873192,False,8.224
2019-10-27 16:21:55.960,LG-H970,1572193315968.4,0.786,9.768,-1.06,41.1085204,16.8873192,False,8.224
2019-10-27 16:21:55.980,LG-H970,1572193315989.5,1.019,9.32,-1.488,41.1085204,16.8873192,False,8.224
2019-10-27 16:21:56.000,LG-H970,1572193316010.0,1.252,9.317,-1.794,41.1085204,16.8873192,False,8.224
2019-10-27 16:21:56.020,LG-H970,1572193316029.5,1.175,9.051,-1.432,41.1085204,16.8873192,False,8.224
2019-10-27 16:21:56.040,LG-H970,1572193316049.75,0.247,9.037,-0.938,41.1085204,16.8873192,False,8.224
2019-10-27 16:21:56.060,LG-H970,1572193316069.75,0.084,9.442,-1.827,41.1085204,16.8873192,False,8.224
2019-10-27 16:21:56.080,LG-H970,1572193316090.5,1.303,10.074,-1.089,41.1085204,16.8873192,False,8.224
2019-10-27 16:21:56.100,LG-H970,1572193316107.75,1.311,9.56,-0.376,41.1085204,16.8873192,False,8.224
2019-10-27 16:21:56.120,LG-H970,1572193316131.4,-0.039,9.54,-1.535,41.1085204,16.8873192,False,8.224
2019-10-27 16:21:56.140,LG-H970,1572193316152.25,0.06,9.979,-1.913,41.1085204,16.8873192,False,8.224
2019-10-27 16:21:56.160,LG-H970,1572193316171.75,0.927,9.412,-0.891,41.1085204,16.8873192,False,8.224
2019-10-27 16:21:56.180,LG-H970,1572193316190.75,1.096,9.576,-0.759,41.1085204,16.8873192,False,8.224
2019-10-27 16:21:56.200,LG-H970,1572193316211.25,0.241,9.808,-1.635,41.1085204,16.8873192,False,8.224
2019-10-27 16:21:56.220,LG-H970,1572193316231.25,-0.114,9.057,-1.909,41.1085204,16.8873192,False,8.224
2019-10-27 16:21:56.240,LG-H970,1572193316251.5,0.533,9.046,-0.895,41.1085204,16.8873192,False,8.224
2019-10-27 16:21:56.260,LG-H970,1572193316269.0,0.797,9.645,-1.739,41.1085204,16.8873192,False,8.224
2019-10-27 16:21:56.280,LG-H970,1572193316289.0,0.43,9.642,-0.743,41.1085204,16.8873192,False,8.224
2019-10-27 16:21:56.300,LG-H970,1572193316308.4,0.575,9.763,-1.445,41.1085204,16.8873192,False,8.224
2019-10-27 16:21:56.320,LG-H970,1572193316332.5,0.238,9.292,-0.795,41.1085204,16.8873192,False,8.224
2019-10-27 16:21:56.340,LG-H970,1572193316348.25,0.006,9.532,-1.567,41.1085204,16.8873192,False,8.224
2019-10-27 16:21:56.360,LG-H970,1572193316368.25,0.488,9.192,-1.059,41.1084606,16.8871912,False,8.37025
2019-10-27 16:21:56.380,LG-H970,1572193316388.0,1.326,9.305,-1.261,41.1084407,16.8871485,False,8.419
2019-10-27 16:21:56.400,LG-H970,1572193316408.25,0.935,8.091,-0.532,41.1084407,16.8871485,False,8.419
2019-10-27 16:21:56.420,LG-H970,1572193316428.5,0.361,10.352,-2.042,41.1084407,16.8871485,False,8.419
2019-10-27 16:21:56.440,LG-H970,1572193316448.25,-0.194,9.41,-1.501,41.1084407,16.8871485,False,8.419
2019-10-27 16:21:56.460,LG-H970,1572193316468.25,0.866,10.544,-0.322,41.1084407,16.8871485,False,8.419
2019-10-27 16:21:56.480,LG-H970,1572193316488.0,0.78,9.95,-1.437,41.1084407,16.8871485,False,8.419
2019-10-27 16:21:56.500,LG-H970,1572193316507.75,0.491,9.754,-0.772,41.1084407,16.8871485,False,8.419
2019-10-27 16:21:56.520,LG-H970,1572193316529.8,0.628,9.745,-1.754,41.1084407,16.8871485,False,8.419
2019-10-27 16:21:56.540,LG-H970,1572193316549.3333,0.722,10.176,-0.701,41.1084407,16.8871485,False,8.419
2019-10-27 16:21:56.560,LG-H970,1572193316569.0,0.87,10.263,-1.33,41.1084407,16.8871485,False,8.419
2019-10-27 16:21:56.580,LG-H970,1572193316589.0,0.833,9.178,-0.719,41.1084407,16.8871485,False,8.419
2019-10-27 16:21:56.600,LG-H970,1572193316609.2,1.188,9.494,-1.59,41.1084407,16.8871485,False,8.419
2019-10-27 16:21:56.620,LG-H970,1572193316630.25,0.494,9.256,-1.55,41.1084407,16.8871485,False,8.419
2019-10-27 16:21:56.640,LG-H970,1572193316651.75,0.622,10.104,-1.147,41.1084407,16.8871485,False,8.419
2019-10-27 16:21:56.660,LG-H970,1572193316670.25,1.239,9.697,-0.531,41.1084407,16.8871485,False,8.419
2019-10-27 16:21:56.680,LG-H970,1572193316691.0,1.407,9.459,-0.915,41.1084407,16.8871485,False,8.419
2019-10-27 16:21:56.700,LG-H970,1572193316710.0,1.208,9.067,-1.892,41.1084407,16.8871485,False,8.419
2019-10-27 16:21:56.720,LG-H970,1572193316730.0,0.708,9.504,-1.673,41.1084407,16.8871485,False,8.419
2019-10-27 16:21:56.740,LG-H970,1572193316749.5,0.844,9.554,-1.218,41.1084407,16.8871485,False,8.419
2019-10-27 16:21:56.760,LG-H970,1572193316769.75,1.538,9.435,-0.792,41.1084407,16.8871485,False,8.419
2019-10-27 16:21:56.780,LG-H970,1572193316788.0,1.228,8.586,-0.696,41.1084407,16.8871485,False,8.419
2019-10-27 16:21:56.800,LG-H970,1572193316815.3333,0.716,9.886,-2.085,41.1084407,16.8871485,False,8.419
2019-10-27 16:21:56.820,LG-H970,1572193316829.25,0.373,9.76,-1.197,41.1084407,16.8871485,False,8.419
2019-10-27 16:21:56.840,LG-H970,1572193316848.25,0.897,9.965,-0.527,41.1084407,16.8871485,False,8.419
2019-10-27 16:21:56.860,LG-H970,1572193316869.0,1.115,9.257,-0.418,41.1084407,16.8871485,False,8.419
2019-10-27 16:21:56.880,LG-H970,1572193316888.75,1.135,9.668,-0.526,41.1084407,16.8871485,False,8.419
2019-10-27 16:21:56.900,LG-H970,1572193316909.8,0.278,9.835,-0.41,41.1084407,16.8871485,False,8.419
2019-10-27 16:21:56.920,LG-H970,1572193316932.0,0.718,10.124,-0.416,41.1084407,16.8871485,False,8.419
2019-10-27 16:21:56.940,LG-H970,1572193316949.6667,1.738,9.563,-0.454,41.1084407,16.8871485,False,8.419
2019-10-27 16:21:56.960,LG-H970,1572193316970.0,1.154,10.156,-1.072,41.1084407,16.8871485,False,8.419
2019-10-27 16:21:56.980,LG-H970,1572193316991.75,0.298,10.517,-1.406,41.1084407,16.8871485,False,8.419
2019-10-27 16:21:57.000,LG-H970,1572193317010.0,0.609,10.483,-0.684,41.1084407,16.8871485,False,8.419
2019-10-27 16:21:57.020,LG-H970,1572193317030.5,1.441,10.521,-0.745,41.1084407,16.8871485,False,8.419
2019-10-27 16:21:57.040,LG-H970,1572193317049.5,1.165,10.551,-0.529,41.1084407,16.8871485,False,8.419
2019-10-27 16:21:57.060,LG-H970,1572193317069.75,0.263,10.417,-1.041,41.1084407,16.8871485,False,8.419
2019-10-27 16:21:57.080,LG-H970,1572193317090.0,0.483,10.335,-0.322,41.1084407,16.8871485,False,8.419
2019-10-27 16:21:57.100,LG-H970,1572193317106.0,1.513,9.747,-0.766,41.1084407,16.8871485,False,8.419
2019-10-27 16:21:57.120,LG-H970,1572193317127.6,0.958,9.989,-0.381,41.1084407,16.8871485,False,8.419
2019-10-27 16:21:57.140,LG-H970,1572193317148.5,0.36,8.827,-0.627,41.1084407,16.8871485,False,8.419
2019-10-27 16:21:57.160,LG-H970,1572193317169.3333,1.417,9.336,-1.705,41.1084407,16.8871485,False,8.419
2019-10-27 16:21:57.180,LG-H970,1572193317189.4,0.485,9.725,-1.12,41.1084407,16.8871485,False,8.419
2019-10-27 16:21:57.200,LG-H970,1572193317206.5,0.011,10.249,-2.046,41.1084407,16.8871485,False,8.419
2019-10-27 16:21:57.220,LG-H970,1572193317229.2,0.978,9.923,-0.784,41.1084407,16.8871485,False,8.419
2019-10-27 16:21:57.240,LG-H970,1572193317251.5,1.702,9.874,-0.942,41.1084407,16.8871485,False,8.419
2019-10-27 16:21:57.260,LG-H970,1572193317269.6667,0.254,9.821,-1.72,41.1084407,16.8871485,False,8.419
2019-10-27 16:21:57.280,LG-H970,1572193317286.5,-0.236,10.503,-1.288,41.1084407,16.8871485,False,8.419
2019-10-27 16:21:57.300,LG-H970,1572193317308.2,1.095,9.705,-0.598,41.1084407,16.8871485,False,8.419
2019-10-27 16:21:57.320,LG-H970,1572193317330.0,1.093,9.08,-0.653,41.1084407,16.8871485,False,8.419
2019-10-27 16:21:57.340,LG-H970,1572193317349.0,0.153,9.553,-1.334,41.1084407,16.8871485,False,8.419
2019-10-27 16:21:57.360,LG-H970,1572193317372.5,0.479,9.607,-1.363,41.1084407,16.8871485,False,8.419
2019-10-27 16:21:57.380,LG-H970,1572193317390.6667,1.226,9.416,-0.633,41.1084407,16.8871485,False,8.419
2019-10-27 16:21:57.400,LG-H970,1572193317404.5,1.133,10.54,-1.491,41.1084407,16.8871485,False,8.419
2019-10-27 16:21:57.420,LG-H970,1572193317432.5,0.886,9.851,-0.411,41.1084001,16.8870609,False,8.38
2019-10-27 16:21:57.440,LG-H970,1572193317448.0,1.25,10.104,-0.478,41.1084001,16.8870609,False,8.38
2019-10-27 16:21:57.460,LG-H970,1572193317470.0,0.475,9.644,-0.571,41.1084001,16.8870609,False,8.38
2019-10-27 16:21:57.480,LG-H970,1572193317489.3333,-0.013,10.225,-1.376,41.1084001,16.8870609,False,8.38
2019-10-27 16:21:57.500,LG-H970,1572193317506.75,0.381,9.702,-0.802,41.1084001,16.8870609,False,8.38
2019-10-27 16:21:57.520,LG-H970,1572193317527.0,1.111,9.004,-0.486,41.1084001,16.8870609,False,8.38
2019-10-27 16:21:57.540,LG-H970,1572193317549.6,0.496,8.91,-0.919,41.1084001,16.8870609,False,8.38
2019-10-27 16:21:57.560,LG-H970,1572193317569.3333,0.411,9.856,-2.074,41.1084001,16.8870609,False,8.38
2019-10-27 16:21:57.580,LG-H970,1572193317589.4,0.704,10.01,-0.273,41.1084001,16.8870609,False,8.38
2019-10-27 16:21:57.600,LG-H970,1572193317611.75,0.635,9.822,-1.016,41.1084001,16.8870609,False,8.38
2019-10-27 16:21:57.620,LG-H970,1572193317628.6667,0.626,10.334,-0.739,41.1084001,16.8870609,False,8.38
2019-10-27 16:21:57.640,LG-H970,1572193317649.6,0.661,9.918,-0.815,41.1084001,16.8870609,False,8.38
2019-10-27 16:21:57.660,LG-H970,1572193317671.25,0.818,9.675,-0.662,41.1084001,16.8870609,False,8.38
2019-10-27 16:21:57.680,LG-H970,1572193317691.25,0.344,9.898,-0.732,41.1084001,16.8870609,False,8.38
2019-10-27 16:21:57.700,LG-H970,1572193317710.5,-0.466,9.101,-1.712,41.1084001,16.8870609,False,8.38
2019-10-27 16:21:57.720,LG-H970,1572193317730.25,0.532,9.808,-0.809,41.1084001,16.8870609,False,8.38
2019-10-27 16:21:57.740,LG-H970,1572193317749.5,2.089,9.782,-1.362,41.1084001,16.8870609,False,8.38
2019-10-27 16:21:57.760,LG-H970,1572193317768.6667,1.71,8.945,1.195,41.1084001,16.8870609,False,8.38
2019-10-27 16:21:57.780,LG-H970,1572193317790.3333,-0.887,8.969,-2.074,41.1084001,16.8870609,False,8.38
2019-10-27 16:21:57.800,LG-H970,1572193317810.3333,-0.969,9.931,-2.068,41.1084001,16.8870609,False,8.38
2019-10-27 16:21:57.820,LG-H970,1572193317832.0,1.29,7.997,0.767,41.1084001,16.8870609,False,8.38
2019-10-27 16:21:57.840,LG-H970,1572193317848.25,0.029,8.346,-0.297,41.1084001,16.8870609,False,8.38
2019-10-27 16:21:57.860,LG-H970,1572193317868.75,-2.173,9.054,-2.465,41.1084001,16.8870609,False,8.38
2019-10-27 16:21:57.880,LG-H970,1572193317886.75,-0.225,9.349,-1.474,41.1084001,16.8870609,False,8.38
2019-10-27 16:21:57.900,LG-H970,1572193317909.0,0.963,8.221,0.034,41.1084001,16.8870609,False,8.38
2019-10-27 16:21:57.920,LG-H970,1572193317929.6667,-0.518,9.148,-1.746,41.1084001,16.8870609,False,8.38
2019-10-27 16:21:57.940,LG-H970,1572193317947.0,-0.645,10.082,-2.13,41.1084001,16.8870609,False,8.38
2019-10-27 16:21:57.960,LG-H970,1572193317968.6,1.72,9.416,0.311,41.1084001,16.8870609,False,8.38
2019-10-27 16:21:57.980,LG-H970,1572193317992.5,2.354,10.768,-0.672,41.1084001,16.8870609,False,8.38
2019-10-27 16:21:58.000,LG-H970,1572193318010.5,0.308,10.97,-0.712,41.1084001,16.8870609,False,8.38
2019-10-27 16:21:58.020,LG-H970,1572193318030.0,1.344,11.209,-0.125,41.1084001,16.8870609,False,8.38
2019-10-27 16:21:58.040,LG-H970,1572193318049.75,3.627,11.752,-0.618,41.1084001,16.8870609,False,8.38
2019-10-27 16:21:58.060,LG-H970,1572193318070.5,2.091,10.194,-0.021,41.1084001,16.8870609,False,8.38
2019-10-27 16:21:58.080,LG-H970,1572193318089.75,0.368,11.58,-1.067,41.1084001,16.8870609,False,8.38
2019-10-27 16:21:58.100,LG-H970,1572193318109.5,1.108,11.684,-1.144,41.1084001,16.8870609,False,8.38
2019-10-27 16:21:58.120,LG-H970,1572193318129.5,2.465,10.643,0.136,41.1084001,16.8870609,False,8.38
2019-10-27 16:21:58.140,LG-H970,1572193318148.5,1.458,10.871,-0.051,41.1084001,16.8870609,False,8.38
2019-10-27 16:21:58.160,LG-H970,1572193318169.0,-0.641,10.405,-0.586,41.1084001,16.8870609,False,8.38
2019-10-27 16:21:58.180,LG-H970,1572193318188.5,0.909,11.377,-1.309,41.1084001,16.8870609,False,8.38
2019-10-27 16:21:58.200,LG-H970,1572193318208.0,1.418,9.843,0.858,41.1084001,16.8870609,False,8.38
2019-10-27 16:21:58.220,LG-H970,1572193318227.5,0.302,9.157,-0.393,41.1084001,16.8870609,False,8.38
2019-10-27 16:21:58.240,LG-H970,1572193318249.6,-0.952,8.4,-2.227,41.1084001,16.8870609,False,8.38
2019-10-27 16:21:58.260,LG-H970,1572193318269.0,-0.657,8.138,-0.919,41.1084001,16.8870609,False,8.38
2019-10-27 16:21:58.280,LG-H970,1572193318288.8,-0.094,8.326,-1.81,41.1084001,16.8870609,False,8.38
2019-10-27 16:21:58.300,LG-H970,1572193318312.0,0.609,9.297,-2.3,41.1084001,16.8870609,False,8.38
2019-10-27 16:21:58.320,LG-H970,1572193318331.75,1.112,8.981,-1.817,41.1084001,16.8870609,False,8.38
2019-10-27 16:21:58.340,LG-H970,1572193318350.25,1.792,8.537,-1.151,41.1084001,16.8870609,False,8.38
2019-10-27 16:21:58.360,LG-H970,1572193318369.75,1.804,9.345,-1.485,41.1083917,16.8870412,False,8.27725
2019-10-27 16:21:58.380,LG-H970,1572193318389.0,0.465,9.734,-2.339,41.1083666,16.886982,False,7.968999999999999
2019-10-27 16:21:58.400,LG-H970,1572193318408.25,0.776,9.599,-0.317,41.1083666,16.886982,False,7.968999999999999
2019-10-27 16:21:58.420,LG-H970,1572193318428.75,1.782,8.61,-0.778,41.1083666,16.886982,False,7.968999999999999
2019-10-27 16:21:58.440,LG-H970,1572193318448.75,0.509,7.784,-1.27,41.1083666,16.886982,False,7.968999999999999
2019-10-27 16:21:58.460,LG-H970,1572193318470.0,-1.696,6.962,-1.71,41.1083666,16.886982,False,7.968999999999999
2019-10-27 16:21:58.480,LG-H970,1572193318488.0,-0.912,8.211,-2.903,41.1083666,16.886982,False,7.968999999999999
2019-10-27 16:21:58.500,LG-H970,1572193318507.5,0.397,6.93,-0.05,41.1083666,16.886982,False,7.968999999999999
2019-10-27 16:21:58.520,LG-H970,1572193318530.4,-0.473,7.567,-1.188,41.1083666,16.886982,False,7.968999999999999
2019-10-27 16:21:58.540,LG-H970,1572193318550.3333,-1.4,9.468,-0.739,41.1083666,16.886982,False,7.9689999999999985
2019-10-27 16:21:58.560,LG-H970,1572193318567.5,0.731,9.981,-0.316,41.1083666,16.886982,False,7.968999999999999
2019-10-27 16:21:58.580,LG-H970,1572193318587.25,1.942,10.222,1.971,41.1083666,16.886982,False,7.968999999999999
2019-10-27 16:21:58.600,LG-H970,1572193318608.0,-0.062,11.555,0.017,41.1083666,16.886982,False,7.968999999999999
2019-10-27 16:21:58.620,LG-H970,1572193318628.6,0.329,12.053,0.05,41.1083666,16.886982,False,7.968999999999999
2019-10-27 16:21:58.640,LG-H970,1572193318652.5,3.079,11.018,0.555,41.1083666,16.886982,False,7.968999999999999
2019-10-27 16:21:58.660,LG-H970,1572193318671.25,1.778,11.467,0.454,41.1083666,16.886982,False,7.968999999999999
2019-10-27 16:21:58.680,LG-H970,1572193318691.5,-0.256,12.303,-2.132,41.1083666,16.886982,False,7.968999999999999
2019-10-27 16:21:58.700,LG-H970,1572193318707.5,0.734,13.415,-0.734,41.1083666,16.886982,False,7.968999999999999
2019-10-27 16:21:58.720,LG-H970,1572193318729.0,2.785,12.216,0.703,41.1083666,16.886982,False,7.968999999999999
2019-10-27 16:21:58.740,LG-H970,1572193318748.75,1.487,10.781,-0.868,41.1083666,16.886982,False,7.968999999999999
2019-10-27 16:21:58.760,LG-H970,1572193318768.25,-0.78,11.749,-1.912,41.1083666,16.886982,False,7.968999999999999
2019-10-27 16:21:58.780,LG-H970,1572193318788.25,0.573,10.702,0.796,41.1083666,16.886982,False,7.968999999999999
2019-10-27 16:21:58.800,LG-H970,1572193318808.5,3.318,10.714,1.402,41.1083666,16.886982,False,7.968999999999999
2019-10-27 16:21:58.820,LG-H970,1572193318828.75,-0.253,9.787,-0.407,41.1083666,16.886982,False,7.968999999999999
2019-10-27 16:21:58.840,LG-H970,1572193318848.75,-3.451,9.846,-2.233,41.1083666,16.886982,False,7.968999999999999
2019-10-27 16:21:58.860,LG-H970,1572193318868.75,-0.174,9.943,-1.651,41.1083666,16.886982,False,7.968999999999999
2019-10-27 16:21:58.880,LG-H970,1572193318889.6,0.566,9.31,-0.25,41.1083666,16.886982,False,7.968999999999999
2019-10-27 16:21:58.900,LG-H970,1572193318912.25,-1.629,10.605,-3.045,41.1083666,16.886982,False,7.968999999999999
2019-10-27 16:21:58.920,LG-H970,1572193318930.0,-0.444,9.203,-2.657,41.1083666,16.886982,False,7.9689999999999985
2019-10-27 16:21:58.940,LG-H970,1572193318947.0,3.057,8.647,-2.502,41.1083666,16.886982,False,7.968999999999999
2019-10-27 16:21:58.960,LG-H970,1572193318969.6,1.506,7.519,-2.119,41.1083666,16.886982,False,7.968999999999999
2019-10-27 16:21:58.980,LG-H970,1572193318991.0,-0.271,9.785,-2.204,41.1083666,16.886982,False,7.968999999999999
2019-10-27 16:21:59.000,LG-H970,1572193319010.75,0.764,9.672,-1.828,41.1083666,16.886982,False,7.968999999999999
2019-10-27 16:21:59.020,LG-H970,1572193319030.5,1.67,10.211,-0.492,41.1083666,16.886982,False,7.968999999999999
2019-10-27 16:21:59.040,LG-H970,1572193319051.0,0.625,8.914,-1.632,41.1083666,16.886982,False,7.968999999999999
2019-10-27 16:21:59.060,LG-H970,1572193319070.5,0.045,9.975,-1.446,41.1083666,16.886982,False,7.968999999999999
2019-10-27 16:21:59.080,LG-H970,1572193319089.75,0.829,9.527,-1.235,41.1083666,16.886982,False,7.968999999999999
2019-10-27 16:21:59.100,LG-H970,1572193319112.3333,1.572,10.433,0.642,41.1083666,16.886982,False,7.9689999999999985
2019-10-27 16:21:59.120,LG-H970,1572193319129.25,0.427,10.322,-1.785,41.1083666,16.886982,False,7.968999999999999
2019-10-27 16:21:59.140,LG-H970,1572193319149.5,-0.288,9.921,-0.344,41.1083666,16.886982,False,7.968999999999999
2019-10-27 16:21:59.160,LG-H970,1572193319169.0,1.226,7.66,-0.799,41.1083666,16.886982,False,7.968999999999999
2019-10-27 16:21:59.180,LG-H970,1572193319189.25,0.915,9.09,-0.89,41.1083666,16.886982,False,7.968999999999999
2019-10-27 16:21:59.200,LG-H970,1572193319208.25,-1.471,8.99,-1.5,41.1083666,16.886982,False,7.968999999999999
2019-10-27 16:21:59.220,LG-H970,1572193319227.5,0.357,9.022,0.515,41.1083666,16.886982,False,7.968999999999999
2019-10-27 16:21:59.240,LG-H970,1572193319247.5,1.096,8.689,0.189,41.1083666,16.886982,False,7.968999999999999
2019-10-27 16:21:59.260,LG-H970,1572193319268.0,-0.133,8.981,-0.523,41.1083666,16.886982,False,7.968999999999999
2019-10-27 16:21:59.280,LG-H970,1572193319289.4,0.349,8.919,-1.225,41.1083666,16.886982,False,7.968999999999999
2019-10-27 16:21:59.300,LG-H970,1572193319312.25,1.922,8.135,-0.416,41.1083666,16.886982,False,7.968999999999999
2019-10-27 16:21:59.320,LG-H970,1572193319330.6667,1.81,9.527,-0.78,41.1083666,16.886982,False,7.9689999999999985
2019-10-27 16:21:59.340,LG-H970,1572193319350.75,-0.316,9.766,-1.096,41.1083666,16.886982,False,7.968999999999999
2019-10-27 16:21:59.360,LG-H970,1572193319369.6667,0.537,10.909,-1.377,41.1083666,16.886982,False,7.9689999999999985
2019-10-27 16:21:59.380,LG-H970,1572193319391.0,0.273,10.11,-0.384,41.1083453,16.8869279,False,7.6436666666666655
2019-10-27 16:21:59.400,LG-H970,1572193319408.75,-0.268,9.752,-1.131,41.1083347,16.8869008,False,7.481
2019-10-27 16:21:59.420,LG-H970,1572193319428.75,0.83,10.383,-1.106,41.1083347,16.8869008,False,7.481
2019-10-27 16:21:59.440,LG-H970,1572193319448.5,0.321,9.916,-0.276,41.1083347,16.8869008,False,7.481
2019-10-27 16:21:59.460,LG-H970,1572193319469.25,0.764,10.091,-1.125,41.1083347,16.8869008,False,7.481
2019-10-27 16:21:59.480,LG-H970,1572193319489.5,1.347,9.113,-1.212,41.1083347,16.8869008,False,7.481
2019-10-27 16:21:59.500,LG-H970,1572193319510.4,1.131,8.9,-1.081,41.1083347,16.8869008,False,7.481
2019-10-27 16:21:59.520,LG-H970,1572193319533.25,1.058,10.837,-0.557,41.1083347,16.8869008,False,7.481
2019-10-27 16:21:59.540,LG-H970,1572193319551.0,-0.047,11.123,-0.957,41.1083347,16.8869008,False,7.480999999999999
2019-10-27 16:21:59.560,LG-H970,1572193319570.4,0.052,11.279,-1.192,41.1083347,16.8869008,False,7.481
2019-10-27 16:21:59.580,LG-H970,1572193319590.3333,1.41,9.412,-0.918,41.1083347,16.8869008,False,7.480999999999999
2019-10-27 16:21:59.600,LG-H970,1572193319607.5,2.308,9.049,0.203,41.1083347,16.8869008,False,7.481
2019-10-27 16:21:59.620,LG-H970,1572193319629.4,-0.327,9.366,-1.545,41.1083347,16.8869008,False,7.481
2019-10-27 16:21:59.640,LG-H970,1572193319650.6667,0.691,10.516,-2.62,41.1083347,16.8869008,False,7.480999999999999
2019-10-27 16:21:59.660,LG-H970,1572193319669.4,2.797,9.153,1.341,41.1083347,16.8869008,False,7.481
2019-10-27 16:21:59.680,LG-H970,1572193319691.25,0.591,9.316,-1.74,41.1083347,16.8869008,False,7.481
2019-10-27 16:21:59.700,LG-H970,1572193319711.5,-1.771,10.556,-3.034,41.1083347,16.8869008,False,7.481
2019-10-27 16:21:59.720,LG-H970,1572193319730.75,0.773,8.956,-0.517,41.1083347,16.8869008,False,7.481
2019-10-27 16:21:59.740,LG-H970,1572193319749.75,2.452,9.725,1.48,41.1083347,16.8869008,False,7.481
2019-10-27 16:21:59.760,LG-H970,1572193319770.25,-1.359,10.479,-1.926,41.1083347,16.8869008,False,7.481
