UTC_timestamp,device_name,timestamp,x,y,z,lat,long,event,speed
2019-10-25 10:01:54.760,LG-H970,1571997714764.0,0.789,6.235,2.041,41.1076293,16.8818172,False,NONE
2019-10-25 10:01:54.780,LG-H970,1571997714790.4,-1.055,10.382,-0.879,41.1076293,16.8818172,False,NONE
2019-10-25 10:01:54.800,LG-H970,1571997714809.25,-3.491,10.811,-2.138,41.1076293,16.8818172,False,NONE
2019-10-25 10:01:54.820,LG-H970,1571997714828.6,0.162,9.338,-0.394,41.1076293,16.8818172,False,NONE
2019-10-25 10:01:54.840,LG-H970,1571997714852.0,2.195,8.765,-0.256,41.1076293,16.8818172,False,NONE
2019-10-25 10:01:54.860,LG-H970,1571997714869.2,-0.677,9.994,-0.137,41.1076293,16.8818172,False,NONE
2019-10-25 10:01:54.880,LG-H970,1571997714889.75,-2.799,10.65,-1.504,41.1076293,16.8818172,False,NONE
2019-10-25 10:01:54.900,LG-H970,1571997714910.0,-0.516,9.734,-0.703,41.1076293,16.8818172,False,NONE
2019-10-25 10:01:54.920,LG-H970,1571997714930.6667,1.491,9.09,-0.377,41.1076293,16.8818172,False,NONE
2019-10-25 10:01:54.940,LG-H970,1571997714950.6667,0.968,8.512,-0.342,41.1076293,16.8818172,False,NONE
2019-10-25 10:01:54.960,LG-H970,1571997714970.25,-1.0,10.422,-0.498,41.1076293,16.8818172,False,NONE
2019-10-25 10:01:54.980,LG-H970,1571997714986.5,-1.637,10.493,-1.675,41.1076293,16.8818172,False,NONE
2019-10-25 10:01:55.000,LG-H970,1571997715011.0,0.837,9.79,-0.849,41.1076293,16.8818172,False,NONE
2019-10-25 10:01:55.020,LG-H970,1571997715029.0,1.323,8.572,-0.662,41.1076293,16.8818172,False,NONE
2019-10-25 10:01:55.040,LG-H970,1571997715046.75,-0.934,10.007,-1.128,41.1076293,16.8818172,False,NONE
2019-10-25 10:01:55.060,LG-H970,1571997715069.4,-1.721,10.679,-1.457,41.1076293,16.8818172,False,NONE
2019-10-25 10:01:55.080,LG-H970,1571997715089.0,0.349,9.925,-0.135,41.1076293,16.8818172,False,NONE
2019-10-25 10:01:55.100,LG-H970,1571997715109.0,0.199,9.238,-1.045,41.1076293,16.8818172,False,NONE
2019-10-25 10:01:55.120,LG-H970,1571997715127.75,-0.622,10.667,-1.213,41.1076293,16.8818172,False,NONE
2019-10-25 10:01:55.140,LG-H970,1571997715150.5,-0.493,9.861,-1.752,41.1076293,16.8818172,False,NONE
2019-10-25 10:01:55.160,LG-H970,1571997715169.6,0.413,10.617,0.276,41.1076293,16.8818172,False,NONE
2019-10-25 10:01:55.180,LG-H970,1571997715191.25,-0.287,9.989,-0.698,41.1076293,16.8818172,False,NONE
2019-10-25 10:01:55.200,LG-H970,1571997715207.0,-0.492,10.896,-0.425,41.1076293,16.8818172,False,NONE
2019-10-25 10:01:55.220,LG-H970,1571997715229.25,-0.301,9.673,-2.086,41.1076293,16.8818172,False,NONE
2019-10-25 10:01:55.240,LG-H970,1571997715246.75,0.385,9.309,-0.754,41.1076293,16.8818172,False,NONE
2019-10-25 10:01:55.260,LG-H970,1571997715267.0,0.294,9.082,-0.686,41.1076293,16.8818172,False,NONE
2019-10-25 10:01:55.280,LG-H970,1571997715288.5,-0.565,9.733,-0.841,41.1076293,16.8818172,False,NONE
2019-10-25 10:01:55.300,LG-H970,1571997715311.25,-0.925,10.358,-0.832,41.1076293,16.8818172,False,NONE
2019-10-25 10:01:55.320,LG-H970,1571997715329.0,-0.695,9.392,-1.017,41.1076293,16.8818172,False,NONE
2019-10-25 10:01:55.340,LG-H970,1571997715348.8,-0.137,9.616,-0.489,41.1076293,16.8818172,False,NONE
2019-10-25 10:01:55.360,LG-H970,1571997715372.3333,-0.689,9.992,-1.456,41.1076293,16.8818172,False,NONE
2019-10-25 10:01:55.380,LG-H970,1571997715390.6,-0.585,10.981,-0.619,41.1076293,16.8818172,False,NONE
2019-10-25 10:01:55.400,LG-H970,1571997715410.6,0.406,9.123,-0.296,41.1076293,16.8818172,False,NONE
2019-10-25 10:01:55.420,LG-H970,1571997715429.5,0.382,9.453,-0.738,41.1076293,16.8818172,False,NONE
2019-10-25 10:01:55.440,LG-H970,1571997715451.25,-1.354,10.188,-1.898,41.1076293,16.8818172,False,NONE
2019-10-25 10:01:55.460,LG-H970,1571997715470.0,-1.148,10.586,-0.443,41.1076293,16.8818172,False,NONE
2019-10-25 10:01:55.480,LG-H970,1571997715491.25,0.479,9.481,-0.23,41.1076293,16.8818172,False,NONE
2019-10-25 10:01:55.500,LG-H970,1571997715511.6667,0.621,9.686,-0.861,41.1076293,16.8818172,False,NONE
2019-10-25 10:01:55.520,LG-H970,1571997715530.0,-0.283,10.107,-1.176,41.1076293,16.8818172,False,NONE
2019-10-25 10:01:55.540,LG-H970,1571997715548.6,-0.506,9.385,-1.471,41.1076293,16.8818172,False,NONE
2019-10-25 10:01:55.560,LG-H970,1571997715571.25,0.708,10.192,-0.796,41.1076293,16.8818172,False,NONE
2019-10-25 10:01:55.580,LG-H970,1571997715588.5,-0.178,9.743,-0.619,41.1076293,16.8818172,False,NONE
2019-10-25 10:01:55.600,LG-H970,1571997715607.5,-1.161,10.714,-0.212,41.1076293,16.8818172,False,NONE
2019-10-25 10:01:55.620,LG-H970,1571997715631.5,-1.162,9.113,-1.135,41.1076293,16.8818172,False,NONE
2019-10-25 10:01:55.640,LG-H970,1571997715649.5,-0.029,9.263,-1.102,41.1076293,16.8818172,False,NONE
2019-10-25 10:01:55.660,LG-H970,1571997715667.75,-0.318,9.526,-1.613,41.1076293,16.8818172,False,NONE
2019-10-25 10:01:55.680,LG-H970,1571997715688.75,-0.582,10.171,-0.292,41.1076293,16.8818172,False,NONE
2019-10-25 10:01:55.700,LG-H970,1571997715708.25,-0.011,9.866,-0.609,41.1076293,16.8818172,False,NONE
2019-10-25 10:01:55.720,LG-H970,1571997715730.6667,-0.186,10.038,-0.121,41.1076293,16.8818172,False,NONE
2019-10-25 10:01:55.740,LG-H970,1571997715749.0,-1.456,10.186,-1.017,41.1076293,16.8818172,False,NONE
2019-10-25 10:01:55.760,LG-H970,1571997715770.6667,-1.591,9.95,-0.833,41.1076293,16.8818172,False,NONE
2019-10-25 10:01:55.780,LG-H970,1571997715788.0,-0.063,9.579,-0.823,41.1076293,16.8818172,False,NONE
2019-10-25 10:01:55.800,LG-H970,1571997715806.75,-0.175,9.487,-0.769,41.1076293,16.8818172,False,NONE
2019-10-25 10:01:55.820,LG-H970,1571997715830.0,-1.399,9.33,-0.315,41.1076293,16.8818172,False,NONE
2019-10-25 10:01:55.840,LG-H970,1571997715851.25,-1.152,9.615,-1.601,41.1076293,16.8818172,False,NONE
2019-10-25 10:01:55.860,LG-H970,1571997715869.75,-0.341,9.786,-0.674,41.1076293,16.8818172,False,NONE
2019-10-25 10:01:55.880,LG-H970,1571997715886.75,-0.826,9.332,-0.78,41.1076293,16.8818172,False,NONE
2019-10-25 10:01:55.900,LG-H970,1571997715910.8,-1.145,10.488,-0.397,41.1076293,16.8818172,False,NONE
2019-10-25 10:01:55.920,LG-H970,1571997715925.0,-0.697,10.51,-1.396,41.1076293,16.8818172,False,NONE
2019-10-25 10:01:55.940,LG-H970,1571997715925.0,-0.697,10.51,-1.396,41.1076293,16.8818172,False,NONE
2019-10-25 10:01:55.960,LG-H970,1571997715977.0,-0.537,9.714,-1.218,41.1076293,16.8818172,True,NONE
2019-10-25 10:01:55.980,LG-H970,1571997715990.6,-0.195,10.221,-0.553,41.1076293,16.8818172,True,NONE
2019-10-25 10:01:56.000,LG-H970,1571997716008.75,-0.639,9.389,-1.172,41.1076293,16.8818172,False,NONE
2019-10-25 10:01:56.020,LG-H970,1571997716029.3333,-0.135,10.416,-0.689,41.1076293,16.8818172,False,NONE
2019-10-25 10:01:56.040,LG-H970,1571997716048.6,0.263,10.036,-0.715,41.1076293,16.8818172,False,NONE
2019-10-25 10:01:56.060,LG-H970,1571997716070.5,-0.087,10.387,-0.086,41.1076293,16.8818172,False,NONE
2019-10-25 10:01:56.080,LG-H970,1571997716089.75,-0.584,10.825,-0.852,41.1076293,16.8818172,False,NONE
2019-10-25 10:01:56.100,LG-H970,1571997716109.5,-0.585,10.121,-0.891,41.1076293,16.8818172,False,NONE
2019-10-25 10:01:56.120,LG-H970,1571997716129.5,0.22,9.851,-0.722,41.1076293,16.8818172,False,NONE
2019-10-25 10:01:56.140,LG-H970,1571997716149.25,0.445,8.93,-0.783,41.1076293,16.8818172,False,NONE
2019-10-25 10:01:56.160,LG-H970,1571997716169.5,-0.041,9.365,-0.996,41.1076293,16.8818172,False,NONE
2019-10-25 10:01:56.180,LG-H970,1571997716189.0,-1.009,9.806,-1.317,41.1076293,16.8818172,False,NONE
2019-10-25 10:01:56.200,LG-H970,1571997716212.6667,-0.934,9.941,-0.804,41.1076293,16.8818172,False,NONE
2019-10-25 10:01:56.220,LG-H970,1571997716228.2,-0.215,9.508,-0.306,41.1076293,16.8818172,False,NONE
2019-10-25 10:01:56.240,LG-H970,1571997716248.4,-0.402,10.369,-1.215,41.1076293,16.8818172,False,NONE
2019-10-25 10:01:56.260,LG-H970,1571997716266.75,-1.305,9.195,-0.226,41.1076293,16.8818172,False,NONE
2019-10-25 10:01:56.280,LG-H970,1571997716291.25,-0.167,10.639,-0.345,41.1076293,16.8818172,False,NONE
2019-10-25 10:01:56.300,LG-H970,1571997716310.0,-0.299,10.333,-0.594,41.1076293,16.8818172,False,NONE
2019-10-25 10:01:56.320,LG-H970,1571997716328.6667,-1.064,10.68,-1.341,41.1076293,16.8818172,False,NONE
2019-10-25 10:01:56.340,LG-H970,1571997716350.0,-0.635,10.354,-0.888,41.1076293,16.8818172,False,NONE
2019-10-25 10:01:56.360,LG-H970,1571997716370.5,0.391,9.132,-0.829,41.1076293,16.8818172,False,NONE
2019-10-25 10:01:56.380,LG-H970,1571997716389.6,-0.852,10.437,-0.875,41.1076293,16.8818172,False,NONE
2019-10-25 10:01:56.400,LG-H970,1571997716410.6667,-1.419,9.363,-2.107,41.1076293,16.8818172,False,NONE
2019-10-25 10:01:56.420,LG-H970,1571997716430.4,0.606,9.288,-0.417,41.1076293,16.8818172,False,NONE
2019-10-25 10:01:56.440,LG-H970,1571997716451.2,0.397,9.119,-1.453,41.1076293,16.8818172,False,NONE
2019-10-25 10:01:56.460,LG-H970,1571997716469.0,-1.141,11.115,-0.705,41.1076293,16.8818172,False,NONE
2019-10-25 10:01:56.480,LG-H970,1571997716486.75,-0.928,9.751,-1.266,41.1076293,16.8818172,False,NONE
2019-10-25 10:01:56.500,LG-H970,1571997716512.25,0.603,10.217,-0.386,41.1076293,16.8818172,False,NONE
2019-10-25 10:01:56.520,LG-H970,1571997716530.5,-0.107,9.271,-1.49,41.1076293,16.8818172,False,NONE
2019-10-25 10:01:56.540,LG-H970,1571997716549.0,-0.635,10.34,-0.82,41.1076293,16.8818172,False,NONE
2019-10-25 10:01:56.560,LG-H970,1571997716567.0,-0.244,9.492,-1.544,41.1076293,16.8818172,False,NONE
2019-10-25 10:01:56.580,LG-H970,1571997716589.75,0.627,9.708,-0.152,41.1076293,16.8818172,False,NONE
2019-10-25 10:01:56.600,LG-H970,1571997716600.0,0.837,8.952,-0.587,41.1076293,16.8818172,False,NONE
2019-10-25 10:01:56.620,LG-H970,1571997716623.0,0.531,7.937,-0.525,41.1076293,16.8818172,False,NONE
2019-10-25 10:01:56.640,LG-H970,1571997716647.6667,0.331,9.017,-1.639,41.1076293,16.8818172,False,NONE
2019-10-25 10:01:56.660,LG-H970,1571997716669.6667,-0.74,9.895,0.047,41.1076293,16.8818172,False,NONE
2019-10-25 10:01:56.680,LG-H970,1571997716690.0,-1.196,10.327,-0.661,41.1076293,16.8818172,False,NONE
2019-10-25 10:01:56.700,LG-H970,1571997716711.0,-0.404,10.392,0.273,41.1076293,16.8818172,False,NONE
2019-10-25 10:01:56.720,LG-H970,1571997716730.0,0.189,9.49,-1.094,41.1076293,16.8818172,False,NONE
2019-10-25 10:01:56.740,LG-H970,1571997716744.6667,-0.891,10.164,-1.008,41.1076293,16.8818172,False,NONE
2019-10-25 10:01:56.760,LG-H970,1571997716768.8,-1.7,10.033,-1.308,41.1076293,16.8818172,False,NONE
2019-10-25 10:01:56.780,LG-H970,1571997716790.0,0.255,10.305,-0.607,41.1076293,16.8818172,False,NONE
2019-10-25 10:01:56.800,LG-H970,1571997716809.5,0.268,10.14,-0.088,41.1076293,16.8818172,False,NONE
2019-10-25 10:01:56.820,LG-H970,1571997716828.4,-1.353,10.104,-1.696,41.1076293,16.8818172,False,NONE
2019-10-25 10:01:56.840,LG-H970,1571997716849.6667,-1.105,9.721,-2.165,41.1076293,16.8818172,False,NONE
2019-10-25 10:01:56.860,LG-H970,1571997716869.2,-0.128,9.421,-1.654,41.1076293,16.8818172,False,NONE
2019-10-25 10:01:56.880,LG-H970,1571997716889.5,-0.335,10.422,-0.853,41.1076293,16.8818172,False,NONE
2019-10-25 10:01:56.900,LG-H970,1571997716910.25,-0.62,10.417,-0.751,41.1076293,16.8818172,False,NONE
2019-10-25 10:01:56.920,LG-H970,1571997716930.4,0.143,10.08,-0.895,41.1076293,16.8818172,False,NONE
2019-10-25 10:01:56.940,LG-H970,1571997716949.3333,-0.117,9.653,-0.694,41.1076293,16.8818172,False,NONE
2019-10-25 10:01:56.960,LG-H970,1571997716970.5,-1.028,9.438,-1.44,41.1076293,16.8818172,False,NONE
2019-10-25 10:01:56.980,LG-H970,1571997716990.2,-0.617,9.91,-1.322,41.1076293,16.8818172,False,NONE
2019-10-25 10:01:57.000,LG-H970,1571997717009.5,0.406,9.36,-1.461,41.1076293,16.8818172,False,NONE
2019-10-25 10:01:57.020,LG-H970,1571997717024.3333,0.638,9.605,-0.675,41.1076293,16.8818172,False,NONE
2019-10-25 10:01:57.040,LG-H970,1571997717048.4,-0.129,9.099,-1.304,41.1076293,16.8818172,False,NONE
2019-10-25 10:01:57.060,LG-H970,1571997717069.8,-0.795,10.643,-1.855,41.1076293,16.8818172,False,NONE
2019-10-25 10:01:57.080,LG-H970,1571997717089.3333,-1.402,10.657,-2.614,41.1076293,16.8818172,False,NONE
2019-10-25 10:01:57.100,LG-H970,1571997717110.4,-0.387,9.622,-0.866,41.1076293,16.8818172,False,NONE
2019-10-25 10:01:57.120,LG-H970,1571997717129.0,1.31,8.775,-1.102,41.1076293,16.8818172,False,NONE
2019-10-25 10:01:57.140,LG-H970,1571997717149.0,-0.259,9.921,-1.237,41.1076293,16.8818172,False,NONE
2019-10-25 10:01:57.160,LG-H970,1571997717170.8,-1.749,10.762,-1.921,41.1076293,16.8818172,False,NONE
2019-10-25 10:01:57.180,LG-H970,1571997717189.75,-0.011,9.007,-0.149,41.1076293,16.8818172,False,NONE
2019-10-25 10:01:57.200,LG-H970,1571997717208.8,0.511,8.966,-1.364,41.1076293,16.8818172,False,NONE
2019-10-25 10:01:57.220,LG-H970,1571997717227.5,-1.561,10.404,-2.634,41.1076293,16.8818172,False,NONE
2019-10-25 10:01:57.240,LG-H970,1571997717250.5,-1.383,10.379,-2.027,41.1076293,16.8818172,False,NONE
2019-10-25 10:01:57.260,LG-H970,1571997717269.8,0.642,8.836,-0.894,41.1076293,16.8818172,False,NONE
2019-10-25 10:01:57.280,LG-H970,1571997717289.25,0.423,9.815,-1.376,41.1076293,16.8818172,False,NONE
2019-10-25 10:01:57.300,LG-H970,1571997717305.3333,-1.839,9.717,-2.314,41.1076293,16.8818172,False,NONE
2019-10-25 10:01:57.320,LG-H970,1571997717329.25,-1.423,10.869,-1.129,41.1076293,16.8818172,False,NONE
2019-10-25 10:01:57.340,LG-H970,1571997717348.75,0.348,9.216,-1.656,41.1076293,16.8818172,False,NONE
2019-10-25 10:01:57.360,LG-H970,1571997717368.6,0.408,10.25,-0.127,41.1076293,16.8818172,False,NONE
2019-10-25 10:01:57.380,LG-H970,1571997717389.3333,-1.732,9.532,-2.086,41.1076293,16.8818172,False,NONE
2019-10-25 10:01:57.400,LG-H970,1571997717409.8,-1.194,10.351,-1.354,41.1076293,16.8818172,False,NONE
2019-10-25 10:01:57.420,LG-H970,1571997717429.25,0.076,8.978,-2.455,41.1076293,16.8818172,False,NONE
2019-10-25 10:01:57.440,LG-H970,1571997717450.3333,-0.503,9.066,-1.152,41.1076293,16.8818172,False,NONE
2019-10-25 10:01:57.460,LG-H970,1571997717470.25,-0.899,10.488,-1.528,41.1076293,16.8818172,False,NONE
2019-10-25 10:01:57.480,LG-H970,1571997717487.75,-0.991,9.526,-1.806,41.1076293,16.8818172,False,NONE
2019-10-25 10:01:57.500,LG-H970,1571997717512.0,0.186,9.52,-0.681,41.1076293,16.8818172,False,NONE
2019-10-25 10:01:57.520,LG-H970,1571997717529.25,0.351,9.139,-2.26,41.1076293,16.8818172,False,NONE
2019-10-25 10:01:57.540,LG-H970,1571997717549.3333,-0.764,9.546,-0.505,41.1076293,16.8818172,False,NONE
2019-10-25 10:01:57.560,LG-H970,1571997717568.6,-0.95,9.687,-2.025,41.1076293,16.8818172,False,NONE
2019-10-25 10:01:57.580,LG-H970,1571997717590.4,0.362,10.488,-0.74,41.1076293,16.8818172,False,NONE
2019-10-25 10:01:57.600,LG-H970,1571997717615.0,0.256,9.358,-1.412,41.1076293,16.8818172,False,NONE
2019-10-25 10:01:57.620,LG-H970,1571997717631.3333,-0.422,10.011,-0.888,41.1076293,16.8818172,False,NONE
2019-10-25 10:01:57.640,LG-H970,1571997717648.0,-1.204,10.47,-2.035,41.1076293,16.8818172,False,NONE
2019-10-25 10:01:57.660,LG-H970,1571997717668.6,-0.722,10.314,-1.872,41.1076293,16.8818172,False,NONE
2019-10-25 10:01:57.680,LG-H970,1571997717686.0,0.017,9.012,-0.751,41.1076293,16.8818172,False,NONE
2019-10-25 10:01:57.700,LG-H970,1571997717709.25,0.117,9.508,-1.067,41.1076293,16.8818172,False,NONE
2019-10-25 10:01:57.720,LG-H970,1571997717729.2,-0.665,10.963,-1.677,41.1076293,16.8818172,False,NONE
2019-10-25 10:01:57.740,LG-H970,1571997717751.5,-1.062,9.986,-1.791,41.1076293,16.8818172,False,NONE
2019-10-25 10:01:57.760,LG-H970,1571997717777.0,0.215,9.925,-0.209,41.1076293,16.8818172,False,NONE
2019-10-25 10:01:57.780,LG-H970,1571997717789.5,0.943,8.757,-1.911,41.1076293,16.8818172,False,NONE
2019-10-25 10:01:57.800,LG-H970,1571997717808.6,0.064,9.838,-0.944,41.1076293,16.8818172,False,NONE
2019-10-25 10:01:57.820,LG-H970,1571997717830.0,-1.479,9.146,-2.669,41.1076293,16.8818172,False,NONE
2019-10-25 10:01:57.840,LG-H970,1571997717848.6,-0.96,9.851,-1.445,41.1076293,16.8818172,False,NONE
2019-10-25 10:01:57.860,LG-H970,1571997717869.8,0.055,9.1,-1.994,41.1076293,16.8818172,False,NONE
2019-10-25 10:01:57.880,LG-H970,1571997717891.6667,-0.499,10.018,-0.489,41.1076293,16.8818172,False,NONE
2019-10-25 10:01:57.900,LG-H970,1571997717909.0,-1.438,9.943,-1.553,41.1076293,16.8818172,False,NONE
2019-10-25 10:01:57.920,LG-H970,1571997717928.0,-1.232,10.024,-1.442,41.1076293,16.8818172,False,NONE
2019-10-25 10:01:57.940,LG-H970,1571997717950.0,-0.193,9.641,-1.987,41.1076293,16.8818172,False,NONE
2019-10-25 10:01:57.960,LG-H970,1571997717970.0,-0.12,9.005,-1.077,41.1076293,16.8818172,False,NONE
2019-10-25 10:01:57.980,LG-H970,1571997717989.5,-0.183,10.326,-1.698,41.1076293,16.8818172,False,NONE
2019-10-25 10:01:58.000,LG-H970,1571997718008.5,-0.845,10.148,-1.59,41.1076293,16.8818172,False,NONE
2019-10-25 10:01:58.020,LG-H970,1571997718029.25,-0.795,9.73,-1.254,41.1076293,16.8818172,False,NONE
2019-10-25 10:01:58.040,LG-H970,1571997718048.6,-0.469,8.782,-1.638,41.1076293,16.8818172,False,NONE
2019-10-25 10:01:58.060,LG-H970,1571997718070.3333,0.437,10.514,-2.046,41.1076293,16.8818172,False,NONE
2019-10-25 10:01:58.080,LG-H970,1571997718088.6,-0.258,8.939,-2.135,41.1076293,16.8818172,False,NONE
2019-10-25 10:01:58.100,LG-H970,1571997718105.3333,-0.764,9.842,-0.245,41.1076293,16.8818172,False,NONE
2019-10-25 10:01:58.120,LG-H970,1571997718129.4,-0.763,9.484,-1.727,41.1076293,16.8818172,False,NONE
2019-10-25 10:01:58.140,LG-H970,1571997718150.6,0.296,10.402,-1.181,41.1076293,16.8818172,False,NONE
2019-10-25 10:01:58.160,LG-H970,1571997718170.75,-0.12,9.477,-2.393,41.1076293,16.8818172,False,NONE
2019-10-25 10:01:58.180,LG-H970,1571997718192.2,-0.905,10.54,-1.466,41.1076293,16.8818172,False,NONE
2019-10-25 10:01:58.200,LG-H970,1571997718209.0,-1.56,8.488,-1.174,41.1076293,16.8818172,False,NONE
2019-10-25 10:01:58.220,LG-H970,1571997718234.5,0.408,12.524,-0.891,41.1076293,16.8818172,False,NONE
2019-10-25 10:01:58.240,LG-H970,1571997718250.2,-0.313,9.985,-1.346,41.1076293,16.8818172,False,NONE
2019-10-25 10:01:58.260,LG-H970,1571997718270.25,-0.89,10.545,-0.614,41.1076293,16.8818172,False,NONE
2019-10-25 10:01:58.280,LG-H970,1571997718287.0,-0.283,11.283,-2.901,41.1076293,16.8818172,False,NONE
2019-10-25 10:01:58.300,LG-H970,1571997718312.0,-0.794,7.907,-1.714,41.1076293,16.8818172,False,NONE
2019-10-25 10:01:58.320,LG-H970,1571997718329.6,1.465,12.096,-1.027,41.1076293,16.8818172,False,NONE
2019-10-25 10:01:58.340,LG-H970,1571997718349.5,-0.087,8.607,-1.219,41.1076293,16.8818172,False,NONE
2019-10-25 10:01:58.360,LG-H970,1571997718370.4,-0.643,11.285,-1.436,41.1076293,16.8818172,False,NONE
2019-10-25 10:01:58.380,LG-H970,1571997718390.5,-1.306,9.386,-2.278,41.1076293,16.8818172,False,NONE
2019-10-25 10:01:58.400,LG-H970,1571997718409.5,-0.077,9.769,-0.194,41.1076293,16.8818172,False,NONE
2019-10-25 10:01:58.420,LG-H970,1571997718430.75,-0.832,9.086,-1.828,41.1076293,16.8818172,False,NONE
2019-10-25 10:01:58.440,LG-H970,1571997718448.0,-2.523,11.233,-1.831,41.1076293,16.8818172,False,NONE
2019-10-25 10:01:58.460,LG-H970,1571997718468.8,-1.579,9.833,-1.313,41.1076293,16.8818172,False,NONE
2019-10-25 10:01:58.480,LG-H970,1571997718490.0,0.332,7.602,-0.538,41.1076293,16.8818172,False,NONE
2019-10-25 10:01:58.500,LG-H970,1571997718512.5,0.221,10.411,-3.049,41.1076293,16.8818172,False,NONE
2019-10-25 10:01:58.520,LG-H970,1571997718530.6,-2.295,11.588,-1.786,41.1076293,16.8818172,False,NONE
2019-10-25 10:01:58.540,LG-H970,1571997718550.8,-1.57,10.662,-0.971,41.1076293,16.8818172,False,NONE
2019-10-25 10:01:58.560,LG-H970,1571997718568.75,1.401,8.393,-0.022,41.1076293,16.8818172,False,NONE
2019-10-25 10:01:58.580,LG-H970,1571997718588.2,-0.056,9.477,-1.349,41.1076293,16.8818172,False,NONE
2019-10-25 10:01:58.600,LG-H970,1571997718606.3333,-2.689,10.319,-3.807,41.1076293,16.8818172,False,NONE
2019-10-25 10:01:58.620,LG-H970,1571997718628.0,-2.736,7.7,-2.681,41.1076293,16.8818172,False,NONE
2019-10-25 10:01:58.640,LG-H970,1571997718648.8,-1.653,5.575,-1.344,41.1076293,16.8818172,False,NONE
2019-10-25 10:01:58.660,LG-H970,1571997718668.75,-3.684,6.662,-1.055,41.1076293,16.8818172,False,NONE
2019-10-25 10:01:58.680,LG-H970,1571997718691.5,-5.005,6.284,-5.157,41.1076293,16.8818172,False,NONE
2019-10-25 10:01:58.700,LG-H970,1571997718710.6,-0.604,9.677,-1.031,41.1076293,16.8818172,False,NONE
2019-10-25 10:01:58.720,LG-H970,1571997718729.3333,2.962,9.65,-2.241,41.1076293,16.8818172,False,NONE
2019-10-25 10:01:58.740,LG-H970,1571997718749.25,2.41,9.787,-0.878,41.1076293,16.8818172,False,NONE
2019-10-25 10:01:58.760,LG-H970,1571997718768.8,-0.691,12.502,0.588,41.1076293,16.8818172,False,NONE
2019-10-25 10:01:58.780,LG-H970,1571997718784.5,1.15,17.443,-2.369,41.1076293,16.8818172,False,NONE
2019-10-25 10:01:58.800,LG-H970,1571997718811.5,3.053,11.857,0.63,41.1076293,16.8818172,False,NONE
2019-10-25 10:01:58.820,LG-H970,1571997718830.5,3.65,5.926,1.13,41.1076293,16.8818172,False,NONE
2019-10-25 10:01:58.840,LG-H970,1571997718849.2,-1.858,11.857,-4.831,41.1076293,16.8818172,False,NONE
2019-10-25 10:01:58.860,LG-H970,1571997718870.6,-5.16,13.26,-1.769,41.1076293,16.8818172,False,NONE
2019-10-25 10:01:58.880,LG-H970,1571997718891.6667,1.817,7.492,0.811,41.1076293,16.8818172,False,NONE
2019-10-25 10:01:58.900,LG-H970,1571997718910.4,5.146,11.511,0.785,41.1076293,16.8818172,False,NONE
2019-10-25 10:01:58.920,LG-H970,1571997718929.25,-4.064,10.43,-3.143,41.1076293,16.8818172,False,NONE
2019-10-25 10:01:58.940,LG-H970,1571997718948.4,-5.481,12.243,-2.674,41.1076293,16.8818172,False,NONE
2019-10-25 10:01:58.960,LG-H970,1571997718972.6667,0.876,9.11,-3.315,41.1076293,16.8818172,False,NONE
2019-10-25 10:01:58.980,LG-H970,1571997718989.0,2.168,9.908,1.567,41.1076293,16.8818172,False,NONE
2019-10-25 10:01:59.000,LG-H970,1571997719009.8,-4.159,11.647,0.053,41.1076293,16.8818172,False,NONE
2019-10-25 10:01:59.020,LG-H970,1571997719028.6667,-6.329,9.471,2.222,41.1076293,16.8818172,False,NONE
2019-10-25 10:01:59.040,LG-H970,1571997719050.0,-1.778,8.508,0.073,41.1076293,16.8818172,False,NONE
2019-10-25 10:01:59.060,LG-H970,1571997719069.25,1.232,10.238,-2.087,41.1076293,16.8818172,False,NONE
2019-10-25 10:01:59.080,LG-H970,1571997719089.25,-1.3,11.07,-4.196,41.1076293,16.8818172,False,NONE
2019-10-25 10:01:59.100,LG-H970,1571997719109.25,-2.346,8.359,-1.05,41.1076293,16.8818172,False,NONE
2019-10-25 10:01:59.120,LG-H970,1571997719126.0,1.826,10.202,-0.586,41.1076293,16.8818172,False,NONE
2019-10-25 10:01:59.140,LG-H970,1571997719150.5,3.962,9.156,-6.799,41.1076293,16.8818172,False,NONE
2019-10-25 10:01:59.160,LG-H970,1571997719170.0,-0.815,7.431,-2.548,41.1076293,16.8818172,False,NONE
2019-10-25 10:01:59.180,LG-H970,1571997719189.5,-0.293,10.185,-4.149,41.1076293,16.8818172,False,NONE
2019-10-25 10:01:59.200,LG-H970,1571997719206.6667,1.362,8.094,-3.765,41.1076293,16.8818172,False,NONE
2019-10-25 10:01:59.220,LG-H970,1571997719230.0,1.928,11.042,2.525,41.1076293,16.8818172,False,NONE
2019-10-25 10:01:59.240,LG-H970,1571997719249.5,-2.027,8.588,-2.37,41.1076293,16.8818172,False,NONE
2019-10-25 10:01:59.260,LG-H970,1571997719270.25,-0.819,11.499,-1.951,41.1076293,16.8818172,False,NONE
2019-10-25 10:01:59.280,LG-H970,1571997719289.25,0.364,7.508,-3.034,41.1076293,16.8818172,False,NONE
2019-10-25 10:01:59.300,LG-H970,1571997719308.4,-1.601,10.408,-1.298,41.1076293,16.8818172,False,NONE
2019-10-25 10:01:59.320,LG-H970,1571997719326.6667,-3.422,10.682,-2.514,41.1076293,16.8818172,False,NONE
2019-10-25 10:01:59.340,LG-H970,1571997719347.4,-1.294,9.689,-0.052,41.1076293,16.8818172,False,NONE
2019-10-25 10:01:59.360,LG-H970,1571997719368.6,-0.388,7.992,-1.474,41.1076293,16.8818172,False,NONE
2019-10-25 10:01:59.380,LG-H970,1571997719392.25,-1.28,11.716,-2.481,41.1076293,16.8818172,False,NONE
2019-10-25 10:01:59.400,LG-H970,1571997719410.8,-1.616,9.525,-1.665,41.1076293,16.8818172,False,NONE
2019-10-25 10:01:59.420,LG-H970,1571997719429.5,0.805,10.328,-0.038,41.1076293,16.8818172,False,NONE
2019-10-25 10:01:59.440,LG-H970,1571997719446.5,-0.331,6.41,2.229,41.1076293,16.8818172,False,NONE
2019-10-25 10:01:59.460,LG-H970,1571997719468.4,-0.369,10.258,-1.344,41.1076293,16.8818172,False,NONE
2019-10-25 10:01:59.480,LG-H970,1571997719491.2,-1.356,10.005,-2.724,41.1076293,16.8818172,False,NONE
2019-10-25 10:01:59.500,LG-H970,1571997719510.0,0.291,9.462,-2.389,41.1076293,16.8818172,False,NONE
2019-10-25 10:01:59.520,LG-H970,1571997719531.4,0.47,9.522,-1.292,41.1076293,16.8818172,False,NONE
2019-10-25 10:01:59.540,LG-H970,1571997719553.5,-0.969,9.036,-0.751,41.1076293,16.8818172,False,NONE
2019-10-25 10:01:59.560,LG-H970,1571997719571.6,-0.721,10.619,-1.75,41.1076293,16.8818172,False,NONE
2019-10-25 10:01:59.580,LG-H970,1571997719591.0,0.299,9.133,-1.745,41.1076293,16.8818172,False,NONE
2019-10-25 10:01:59.600,LG-H970,1571997719609.3333,0.629,9.161,-1.526,41.1076293,16.8818172,False,NONE
2019-10-25 10:01:59.620,LG-H970,1571997719609.3333,0.629,9.161,-1.526,41.1076293,16.8818172,False,NONE
2019-10-25 10:01:59.640,LG-H970,1571997719650.75,-0.824,9.12,-1.055,41.1076293,16.8818172,False,NONE
2019-10-25 10:01:59.660,LG-H970,1571997719669.0,-1.258,11.69,-2.799,41.1076293,16.8818172,False,NONE
2019-10-25 10:01:59.680,LG-H970,1571997719688.4,-1.09,11.023,-1.155,41.1076293,16.8818172,False,NONE
2019-10-25 10:01:59.700,LG-H970,1571997719711.75,0.363,9.93,-1.319,41.1076293,16.8818172,False,NONE
2019-10-25 10:01:59.720,LG-H970,1571997719729.4285,-0.71,9.192,-1.864,41.1076293,16.8818172,False,NONE
2019-10-25 10:01:59.740,LG-H970,1571997719750.0,-1.758,10.206,-2.221,41.1076293,16.8818172,False,NONE
2019-10-25 10:01:59.760,LG-H970,1571997719767.0,0.168,9.61,-0.927,41.1076293,16.8818172,True,NONE
2019-10-25 10:01:59.780,LG-H970,1571997719787.5,-0.359,9.329,-0.988,41.1076293,16.8818172,True,NONE
2019-10-25 10:01:59.800,LG-H970,1571997719809.4,-1.499,9.374,-2.278,41.1076293,16.8818172,False,NONE
2019-10-25 10:01:59.820,LG-H970,1571997719829.0,-0.536,10.52,-1.762,41.1076293,16.8818172,False,NONE
2019-10-25 10:01:59.840,LG-H970,1571997719840.0,-1.588,5.844,-0.355,41.1076293,16.8818172,False,NONE
2019-10-25 10:01:59.860,LG-H970,1571997719869.3333,-0.74,9.427,-1.046,41.1076293,16.8818172,False,NONE
2019-10-25 10:01:59.880,LG-H970,1571997719890.2,-1.577,10.566,-2.04,41.1076293,16.8818172,False,NONE
2019-10-25 10:01:59.900,LG-H970,1571997719913.0,-0.717,10.649,-2.565,41.1076293,16.8818172,False,NONE
2019-10-25 10:01:59.920,LG-H970,1571997719931.4,-0.161,9.32,-1.594,41.1076293,16.8818172,False,NONE
2019-10-25 10:01:59.940,LG-H970,1571997719951.2,-0.654,9.507,-1.409,41.1076293,16.8818172,False,NONE
2019-10-25 10:01:59.960,LG-H970,1571997719970.25,-0.819,10.94,-1.209,41.1076293,16.8818172,False,NONE
2019-10-25 10:01:59.980,LG-H970,1571997719991.25,-0.831,9.267,-1.501,41.1076293,16.8818172,False,NONE
2019-10-25 10:02:00.000,LG-H970,1571997720008.5,-0.609,7.634,-0.278,41.1076293,16.8818172,False,NONE
2019-10-25 10:02:00.020,LG-H970,1571997720033.0,-0.321,8.047,-0.343,41.1076293,16.8818172,False,NONE
2019-10-25 10:02:00.040,LG-H970,1571997720033.0,-0.321,8.047,-0.343,41.1076293,16.8818172,False,NONE
2019-10-25 10:02:00.060,LG-H970,1571997720069.0,0.765,11.027,-3.778,41.1076293,16.8818172,False,NONE
2019-10-25 10:02:00.080,LG-H970,1571997720085.3333,-0.856,7.369,-0.904,41.1076293,16.8818172,False,NONE
2019-10-25 10:02:00.100,LG-H970,1571997720112.25,-0.748,10.253,-1.846,41.1076293,16.8818172,False,NONE
2019-10-25 10:02:00.120,LG-H970,1571997720139.0,-1.55,9.139,-0.805,41.1076293,16.8818172,False,NONE
2019-10-25 10:02:00.140,LG-H970,1571997720145.0,-0.893,11.049,-2.621,41.1076293,16.8818172,False,NONE
2019-10-25 10:02:00.160,LG-H970,1571997720168.0,-0.842,10.454,-1.42,41.1076293,16.8818172,False,NONE
2019-10-25 10:02:00.180,LG-H970,1571997720190.0,-0.765,9.852,-1.825,41.1076293,16.8818172,False,NONE
2019-10-25 10:02:00.200,LG-H970,1571997720208.6,-0.773,9.562,-1.433,41.1076293,16.8818172,False,NONE
2019-10-25 10:02:00.220,LG-H970,1571997720227.0,-0.913,8.334,-1.444,41.1076293,16.8818172,False,NONE
2019-10-25 10:02:00.240,LG-H970,1571997720249.5,-0.258,10.174,-0.823,41.1076293,16.8818172,False,NONE
2019-10-25 10:02:00.260,LG-H970,1571997720274.0,0.473,12.294,-2.598,41.1076293,16.8818172,False,NONE
2019-10-25 10:02:00.280,LG-H970,1571997720289.2,-0.689,9.94,-0.671,41.1076293,16.8818172,False,NONE
2019-10-25 10:02:00.300,LG-H970,1571997720310.1667,-0.738,9.38,-1.271,41.1076293,16.8818172,False,NONE
2019-10-25 10:02:00.320,LG-H970,1571997720331.4,0.636,9.0,-1.468,41.1076293,16.8818172,False,NONE
2019-10-25 10:02:00.340,LG-H970,1571997720349.8333,0.833,10.683,-1.133,41.1076293,16.8818172,False,NONE
2019-10-25 10:02:00.360,LG-H970,1571997720370.0,-1.302,9.338,-1.722,41.1076293,16.8818172,False,NONE
2019-10-25 10:02:00.380,LG-H970,1571997720388.5,-0.462,11.136,-1.409,41.1076293,16.8818172,False,NONE
2019-10-25 10:02:00.400,LG-H970,1571997720407.6,-0.037,9.511,-2.327,41.1076293,16.8818172,False,NONE
2019-10-25 10:02:00.420,LG-H970,1571997720427.5,-0.265,7.728,-1.385,41.1076293,16.8818172,False,NONE
2019-10-25 10:02:00.440,LG-H970,1571997720449.0,-1.196,10.129,-1.827,41.1076293,16.8818172,False,NONE
2019-10-25 10:02:00.460,LG-H970,1571997720469.6,-1.096,11.311,-0.334,41.1076293,16.8818172,False,NONE
2019-10-25 10:02:00.480,LG-H970,1571997720489.2,-0.476,9.724,-0.001,41.1076293,16.8818172,False,NONE
2019-10-25 10:02:00.500,LG-H970,1571997720507.6,-1.754,9.51,-1.232,41.1076293,16.8818172,False,NONE
2019-10-25 10:02:00.520,LG-H970,1571997720529.6,-3.52,8.782,-2.894,41.1076293,16.8818172,False,NONE
2019-10-25 10:02:00.540,LG-H970,1571997720551.8333,-1.767,8.696,-1.065,41.1076293,16.8818172,False,NONE
2019-10-25 10:02:00.560,LG-H970,1571997720570.8333,-1.595,9.236,-0.836,41.1076293,16.8818172,False,NONE
2019-10-25 10:02:00.580,LG-H970,1571997720588.4,-1.585,11.15,-1.434,41.1076293,16.8818172,False,NONE
2019-10-25 10:02:00.600,LG-H970,1571997720608.6,1.513,11.454,-0.317,41.1076293,16.8818172,False,NONE
2019-10-25 10:02:00.620,LG-H970,1571997720631.6667,1.962,7.955,-2.0,41.1076293,16.8818172,False,NONE
2019-10-25 10:02:00.640,LG-H970,1571997720647.3333,-0.163,9.931,-0.79,41.1076293,16.8818172,False,NONE
2019-10-25 10:02:00.660,LG-H970,1571997720667.5,-0.453,13.762,-0.599,41.1076293,16.8818172,False,NONE
2019-10-25 10:02:00.680,LG-H970,1571997720692.5,-0.251,13.555,-4.406,41.1076293,16.8818172,False,NONE
2019-10-25 10:02:00.700,LG-H970,1571997720707.4,0.96,9.14,-0.004,41.1076293,16.8818172,False,NONE
2019-10-25 10:02:00.720,LG-H970,1571997720726.5,2.101,9.141,1.822,41.1076293,16.8818172,False,NONE
2019-10-25 10:02:00.740,LG-H970,1571997720726.5,2.101,9.141,1.822,41.1076293,16.8818172,False,NONE
2019-10-25 10:02:00.760,LG-H970,1571997720776.0,1.498,10.857,-1.729,41.1076293,16.8818172,False,NONE
2019-10-25 10:02:00.780,LG-H970,1571997720786.25,-0.629,11.085,-2.585,41.1076293,16.8818172,False,NONE
2019-10-25 10:02:00.800,LG-H970,1571997720809.0,-0.826,10.802,-1.456,41.1076293,16.8818172,False,NONE
2019-10-25 10:02:00.820,LG-H970,1571997720833.5,0.97,8.022,-1.658,41.1076293,16.8818172,False,NONE
2019-10-25 10:02:00.840,LG-H970,1571997720847.25,0.329,9.69,-0.198,41.1076293,16.8818172,False,NONE
2019-10-25 10:02:00.860,LG-H970,1571997720874.0,-2.028,10.58,-1.699,41.1076293,16.8818172,False,NONE
2019-10-25 10:02:00.880,LG-H970,1571997720889.75,-3.146,10.624,-0.766,41.1076293,16.8818172,False,NONE
2019-10-25 10:02:00.900,LG-H970,1571997720909.0,-1.216,9.77,-0.28,41.1076293,16.8818172,False,NONE
2019-10-25 10:02:00.920,LG-H970,1571997720928.8,-0.595,8.617,-0.341,41.1076293,16.8818172,False,NONE
2019-10-25 10:02:00.940,LG-H970,1571997720950.3333,-2.752,10.385,-0.604,41.1076293,16.8818172,False,NONE
2019-10-25 10:02:00.960,LG-H970,1571997720967.0,-2.763,11.436,-2.352,41.1076293,16.8818172,False,NONE
2019-10-25 10:02:00.980,LG-H970,1571997720989.4,-1.303,10.157,-1.502,41.1076293,16.8818172,False,NONE
2019-10-25 10:02:01.000,LG-H970,1571997721010.5,-0.133,8.219,-0.794,41.1076293,16.8818172,False,NONE
2019-10-25 10:02:01.020,LG-H970,1571997721022.0,-0.843,9.97,-1.29,41.1076293,16.8818172,False,NONE
2019-10-25 10:02:01.040,LG-H970,1571997721022.0,-0.843,9.97,-1.29,41.1076293,16.8818172,False,NONE
2019-10-25 10:02:01.060,LG-H970,1571997721071.0,-1.927,9.788,-2.228,41.1076293,16.8818172,False,NONE
2019-10-25 10:02:01.080,LG-H970,1571997721090.0,-0.623,9.807,-0.807,41.1076293,16.8818172,False,NONE
2019-10-25 10:02:01.100,LG-H970,1571997721108.0,0.143,8.981,-0.801,41.1076293,16.8818172,False,NONE
2019-10-25 10:02:01.120,LG-H970,1571997721129.1667,-0.586,9.505,-1.529,41.1076293,16.8818172,False,NONE
2019-10-25 10:02:01.140,LG-H970,1571997721153.0,-0.785,9.026,-1.79,41.1076293,16.8818172,False,NONE
2019-10-25 10:02:01.160,LG-H970,1571997721171.0,-0.92,9.673,-0.653,41.1076293,16.8818172,False,NONE
2019-10-25 10:02:01.180,LG-H970,1571997721188.6667,-1.877,9.309,0.027,41.1076293,16.8818172,False,NONE
2019-10-25 10:02:01.200,LG-H970,1571997721209.6667,-1.04,10.722,-1.264,41.1076293,16.8818172,False,NONE
2019-10-25 10:02:01.220,LG-H970,1571997721231.0,0.153,10.268,-0.723,41.1076293,16.8818172,False,NONE
2019-10-25 10:02:01.240,LG-H970,1571997721249.0,-0.92,8.74,-0.01,41.1076293,16.8818172,False,NONE
2019-10-25 10:02:01.260,LG-H970,1571997721268.2,-1.144,10.938,-1.326,41.1076293,16.8818172,False,NONE
2019-10-25 10:02:01.280,LG-H970,1571997721287.8,-0.291,11.738,-0.84,41.1076293,16.8818172,False,NONE
2019-10-25 10:02:01.300,LG-H970,1571997721311.2,0.403,9.88,0.697,41.1076293,16.8818172,False,NONE
2019-10-25 10:02:01.320,LG-H970,1571997721329.6,-1.184,10.739,-1.623,41.1076293,16.8818172,False,NONE
2019-10-25 10:02:01.340,LG-H970,1571997721347.4,-2.393,10.287,-1.534,41.1076293,16.8818172,False,NONE
2019-10-25 10:02:01.360,LG-H970,1571997721372.25,0.262,8.257,-0.367,41.1076293,16.8818172,False,NONE
2019-10-25 10:02:01.380,LG-H970,1571997721389.2,0.218,8.861,-0.55,41.1076293,16.8818172,False,NONE
2019-10-25 10:02:01.400,LG-H970,1571997721408.2,-2.304,11.239,-0.973,41.1076293,16.8818172,False,NONE
2019-10-25 10:02:01.420,LG-H970,1571997721425.25,-0.588,9.846,-0.522,41.1076293,16.8818172,False,NONE
2019-10-25 10:02:01.440,LG-H970,1571997721451.5,1.1,8.987,-0.664,41.1076293,16.8818172,False,NONE
2019-10-25 10:02:01.460,LG-H970,1571997721468.8333,-1.835,10.592,-1.589,41.1076293,16.8818172,False,NONE
2019-10-25 10:02:01.480,LG-H970,1571997721489.6,-2.07,10.777,-0.409,41.1076293,16.8818172,False,NONE
2019-10-25 10:02:01.500,LG-H970,1571997721507.0,0.976,9.341,-0.772,41.1076293,16.8818172,False,NONE
2019-10-25 10:02:01.520,LG-H970,1571997721530.8,-0.789,10.113,-0.984,41.1076293,16.8818172,False,NONE
2019-10-25 10:02:01.540,LG-H970,1571997721549.6,-1.816,9.016,-1.496,41.1076293,16.8818172,False,NONE
2019-10-25 10:02:01.560,LG-H970,1571997721570.0,0.554,8.946,-1.65,41.1076293,16.8818172,False,NONE
2019-10-25 10:02:01.580,LG-H970,1571997721589.8,-0.483,9.139,-0.458,41.1076293,16.8818172,False,NONE
2019-10-25 10:02:01.600,LG-H970,1571997721609.4,-1.783,10.044,-2.153,41.1076293,16.8818172,False,NONE
2019-10-25 10:02:01.620,LG-H970,1571997721629.0,0.317,9.396,0.387,41.1076293,16.8818172,False,NONE
2019-10-25 10:02:01.640,LG-H970,1571997721656.5,1.242,9.263,-0.232,41.1076293,16.8818172,False,NONE
2019-10-25 10:02:01.660,LG-H970,1571997721667.5,-1.146,10.194,-0.944,41.1076293,16.8818172,False,NONE
2019-10-25 10:02:01.680,LG-H970,1571997721688.5,-1.816,10.99,-1.161,41.1076293,16.8818172,False,NONE
2019-10-25 10:02:01.700,LG-H970,1571997721710.2,0.441,9.81,-0.281,41.1076293,16.8818172,False,NONE
2019-10-25 10:02:01.720,LG-H970,1571997721729.4,-0.136,9.735,-0.808,41.1076293,16.8818172,False,NONE
2019-10-25 10:02:01.740,LG-H970,1571997721749.0,-1.574,10.653,-0.222,41.1076293,16.8818172,False,NONE
2019-10-25 10:02:01.760,LG-H970,1571997721771.0,-0.46,9.821,-0.778,41.1076293,16.8818172,False,NONE
2019-10-25 10:02:01.780,LG-H970,1571997721789.0,0.056,9.467,0.591,41.1076293,16.8818172,False,NONE
2019-10-25 10:02:01.800,LG-H970,1571997721812.2,-0.558,9.074,-1.545,41.1076293,16.8818172,False,NONE
2019-10-25 10:02:01.820,LG-H970,1571997721829.75,-1.028,10.557,-1.512,41.1076293,16.8818172,False,NONE
2019-10-25 10:02:01.840,LG-H970,1571997721843.5,-1.13,9.263,-1.94,41.1076293,16.8818172,False,NONE
2019-10-25 10:02:01.860,LG-H970,1571997721868.2,0.305,10.262,0.761,41.1076293,16.8818172,False,NONE
2019-10-25 10:02:01.880,LG-H970,1571997721887.0,-0.167,9.615,-0.846,41.1076293,16.8818172,False,NONE
2019-10-25 10:02:01.900,LG-H970,1571997721912.5,-1.76,11.18,-0.824,41.1076293,16.8818172,False,NONE
2019-10-25 10:02:01.920,LG-H970,1571997721929.75,-1.35,9.46,-1.808,41.1076293,16.8818172,False,NONE
2019-10-25 10:02:01.940,LG-H970,1571997721947.25,0.772,9.071,0.011,41.1076293,16.8818172,False,NONE
2019-10-25 10:02:01.960,LG-H970,1571997721967.0,0.757,9.208,-0.82,41.1076293,16.8818172,False,NONE
2019-10-25 10:02:01.980,LG-H970,1571997721991.5,-0.878,9.724,-0.651,41.1076293,16.8818172,False,NONE
2019-10-25 10:02:02.000,LG-H970,1571997722009.2,-1.094,10.282,-0.736,41.1076293,16.8818172,False,NONE
2019-10-25 10:02:02.020,LG-H970,1571997722028.8,0.524,8.754,-0.834,41.1076293,16.8818172,False,NONE
2019-10-25 10:02:02.040,LG-H970,1571997722049.0,-0.242,9.076,-0.708,41.1076293,16.8818172,False,NONE
2019-10-25 10:02:02.060,LG-H970,1571997722071.6667,-1.327,11.527,-1.714,41.1076293,16.8818172,False,NONE
2019-10-25 10:02:02.080,LG-H970,1571997722089.6,-0.781,10.802,-0.607,41.1076293,16.8818172,False,NONE
2019-10-25 10:02:02.100,LG-H970,1571997722109.75,0.287,9.375,-0.465,41.1076293,16.8818172,False,NONE
2019-10-25 10:02:02.120,LG-H970,1571997722130.5,-0.154,10.027,-0.343,41.1076293,16.8818172,False,NONE
2019-10-25 10:02:02.140,LG-H970,1571997722149.25,-1.553,10.064,-1.729,41.1076293,16.8818172,False,NONE
2019-10-25 10:02:02.160,LG-H970,1571997722168.75,-0.803,10.996,-0.061,41.1076293,16.8818172,False,NONE
2019-10-25 10:02:02.180,LG-H970,1571997722190.0,0.422,9.129,-0.912,41.1076293,16.8818172,False,NONE
2019-10-25 10:02:02.200,LG-H970,1571997722208.5,0.49,10.475,0.2,41.1076293,16.8818172,False,NONE
2019-10-25 10:02:02.220,LG-H970,1571997722229.75,-1.093,10.062,-2.37,41.1076293,16.8818172,False,NONE
2019-10-25 10:02:02.240,LG-H970,1571997722248.25,-1.129,9.892,-0.599,41.1076293,16.8818172,False,NONE
2019-10-25 10:02:02.260,LG-H970,1571997722268.25,0.17,9.109,-1.123,41.1076293,16.8818172,False,NONE
2019-10-25 10:02:02.280,LG-H970,1571997722290.2,0.109,9.964,-0.233,41.1076293,16.8818172,False,NONE
2019-10-25 10:02:02.300,LG-H970,1571997722311.5,-1.121,9.634,-0.763,41.1076293,16.8818172,False,NONE
2019-10-25 10:02:02.320,LG-H970,1571997722329.6667,-0.778,9.594,-1.204,41.1076293,16.8818172,False,NONE
2019-10-25 10:02:02.340,LG-H970,1571997722348.8,0.03,9.684,-0.792,41.1076293,16.8818172,False,NONE
2019-10-25 10:02:02.360,LG-H970,1571997722371.0,-0.466,9.616,-0.664,41.1076293,16.8818172,False,NONE
2019-10-25 10:02:02.380,LG-H970,1571997722391.0,-0.576,10.656,0.07,41.1076293,16.8818172,False,NONE
2019-10-25 10:02:02.400,LG-H970,1571997722409.6667,-0.459,9.386,-0.807,41.1076293,16.8818172,False,NONE
2019-10-25 10:02:02.420,LG-H970,1571997722430.4,0.041,10.085,-0.244,41.1076293,16.8818172,False,NONE
2019-10-25 10:02:02.440,LG-H970,1571997722450.25,-0.905,9.569,-1.774,41.1076293,16.8818172,False,NONE
2019-10-25 10:02:02.460,LG-H970,1571997722472.0,-0.968,10.204,-0.871,41.1076293,16.8818172,False,NONE
2019-10-25 10:02:02.480,LG-H970,1571997722489.0,-0.457,9.972,-1.495,41.1076293,16.8818172,False,NONE
2019-10-25 10:02:02.500,LG-H970,1571997722508.6,-0.157,10.445,-0.085,41.1076293,16.8818172,False,NONE
2019-10-25 10:02:02.520,LG-H970,1571997722529.25,-0.039,10.724,-1.041,41.1076293,16.8818172,False,NONE
2019-10-25 10:02:02.540,LG-H970,1571997722550.6667,-0.598,9.393,0.364,41.1076293,16.8818172,False,NONE
2019-10-25 10:02:02.560,LG-H970,1571997722570.4,-0.075,10.258,-0.731,41.1076293,16.8818172,False,NONE
2019-10-25 10:02:02.580,LG-H970,1571997722586.6667,-0.685,8.977,-1.426,41.1076293,16.8818172,False,NONE
2019-10-25 10:02:02.600,LG-H970,1571997722606.8,-2.27,8.056,-1.014,41.1076293,16.8818172,False,NONE
2019-10-25 10:02:02.620,LG-H970,1571997722629.75,-3.751,7.829,-2.818,41.1076293,16.8818172,False,NONE
2019-10-25 10:02:02.640,LG-H970,1571997722649.2,0.126,9.537,-0.666,41.1076293,16.8818172,False,NONE
2019-10-25 10:02:02.660,LG-H970,1571997722672.25,3.371,9.594,0.301,41.1076293,16.8818172,False,NONE
2019-10-25 10:02:02.680,LG-H970,1571997722691.0,0.968,10.435,1.666,41.1076293,16.8818172,False,NONE
2019-10-25 10:02:02.700,LG-H970,1571997722711.0,-1.548,11.844,-2.121,41.1076293,16.8818172,False,NONE
2019-10-25 10:02:02.720,LG-H970,1571997722729.2,-0.457,12.378,-1.655,41.1076293,16.8818172,False,NONE
2019-10-25 10:02:02.740,LG-H970,1571997722748.3333,3.042,8.829,-0.0,41.1076293,16.8818172,False,NONE
2019-10-25 10:02:02.760,LG-H970,1571997722770.0,1.979,7.192,0.64,41.1076293,16.8818172,False,NONE
2019-10-25 10:02:02.780,LG-H970,1571997722791.0,-3.713,11.177,-3.501,41.1076293,16.8818172,False,NONE
2019-10-25 10:02:02.800,LG-H970,1571997722809.75,-3.642,12.969,-1.719,41.1076293,16.8818172,False,NONE
2019-10-25 10:02:02.820,LG-H970,1571997722830.0,1.267,9.878,1.057,41.1076293,16.8818172,False,NONE
2019-10-25 10:02:02.840,LG-H970,1571997722849.25,4.73,6.846,1.682,41.1076293,16.8818172,False,NONE
2019-10-25 10:02:02.860,LG-H970,1571997722868.8333,0.491,10.692,-1.303,41.1076293,16.8818172,False,NONE
2019-10-25 10:02:02.880,LG-H970,1571997722886.3333,-4.258,13.249,-4.046,41.1076293,16.8818172,False,NONE
2019-10-25 10:02:02.900,LG-H970,1571997722909.6,-0.46,7.642,-0.918,41.1076293,16.8818172,False,NONE
2019-10-25 10:02:02.920,LG-H970,1571997722929.25,4.21,8.848,1.805,41.1076293,16.8818172,False,NONE
2019-10-25 10:02:02.940,LG-H970,1571997722949.0,-1.982,9.873,-0.778,41.1076293,16.8818172,False,NONE
2019-10-25 10:02:02.960,LG-H970,1571997722967.5,-5.898,13.982,0.346,41.1076293,16.8818172,False,NONE
2019-10-25 10:02:02.980,LG-H970,1571997722989.0,-1.473,9.981,-1.599,41.1076293,16.8818172,False,NONE
2019-10-25 10:02:03.000,LG-H970,1571997723008.0,3.089,7.526,-0.112,41.1076293,16.8818172,False,NONE
2019-10-25 10:02:03.020,LG-H970,1571997723028.75,0.889,8.764,-0.576,41.1076293,16.8818172,False,NONE
2019-10-25 10:02:03.040,LG-H970,1571997723049.75,-3.293,10.177,-3.059,41.1076293,16.8818172,False,NONE
2019-10-25 10:02:03.060,LG-H970,1571997723069.8,0.448,12.032,-2.253,41.1076293,16.8818172,False,NONE
2019-10-25 10:02:03.080,LG-H970,1571997723089.6667,1.113,5.254,1.215,41.1076293,16.8818172,False,NONE
2019-10-25 10:02:03.100,LG-H970,1571997723106.0,1.286,10.638,1.7,41.1076293,16.8818172,False,NONE
2019-10-25 10:02:03.120,LG-H970,1571997723128.8,-2.309,7.971,-2.208,41.1076293,16.8818172,False,NONE
2019-10-25 10:02:03.140,LG-H970,1571997723149.0,0.34,14.49,-1.054,41.1076293,16.8818172,False,NONE
2019-10-25 10:02:03.160,LG-H970,1571997723169.5,0.279,9.326,-3.247,41.1076293,16.8818172,False,NONE
2019-10-25 10:02:03.180,LG-H970,1571997723189.25,-0.336,9.374,2.18,41.1076293,16.8818172,False,NONE
2019-10-25 10:02:03.200,LG-H970,1571997723209.4,-0.953,10.046,-1.597,41.1076293,16.8818172,False,NONE
2019-10-25 10:02:03.220,LG-H970,1571997723226.0,-0.894,10.323,-0.494,41.1076293,16.8818172,False,NONE
2019-10-25 10:02:03.240,LG-H970,1571997723249.75,-0.119,11.151,-0.787,41.1076293,16.8818172,False,NONE
2019-10-25 10:02:03.260,LG-H970,1571997723267.2,-0.615,9.627,-0.184,41.1076293,16.8818172,False,NONE
2019-10-25 10:02:03.280,LG-H970,1571997723289.75,-0.272,9.925,-0.471,41.1076293,16.8818172,False,NONE
2019-10-25 10:02:03.300,LG-H970,1571997723308.25,-0.861,9.298,-1.593,41.1076293,16.8818172,False,NONE
2019-10-25 10:02:03.320,LG-H970,1571997723327.0,-0.75,10.659,-0.635,41.1076293,16.8818172,False,NONE
2019-10-25 10:02:03.340,LG-H970,1571997723350.75,-0.733,8.564,-1.143,41.1076293,16.8818172,False,NONE
2019-10-25 10:02:03.360,LG-H970,1571997723367.0,0.218,9.933,-0.158,41.1076293,16.8818172,False,NONE
2019-10-25 10:02:03.380,LG-H970,1571997723390.2,-0.577,9.734,-1.176,41.1076293,16.8818172,False,NONE
2019-10-25 10:02:03.400,LG-H970,1571997723410.5,-0.857,10.043,-0.361,41.1076293,16.8818172,False,NONE
2019-10-25 10:02:03.420,LG-H970,1571997723430.75,0.044,9.897,-0.546,41.1076293,16.8818172,False,NONE
2019-10-25 10:02:03.440,LG-H970,1571997723448.6667,0.27,10.376,-0.719,41.1076293,16.8818172,False,NONE
2019-10-25 10:02:03.460,LG-H970,1571997723468.6,-0.677,10.511,-0.684,41.1076293,16.8818172,False,NONE
2019-10-25 10:02:03.480,LG-H970,1571997723492.0,-0.895,10.353,-0.347,41.1076293,16.8818172,False,NONE
2019-10-25 10:02:03.500,LG-H970,1571997723509.5,0.272,10.128,-0.924,41.1076293,16.8818172,False,NONE
2019-10-25 10:02:03.520,LG-H970,1571997723529.25,0.131,9.546,-0.954,41.1076293,16.8818172,False,NONE
2019-10-25 10:02:03.540,LG-H970,1571997723549.5,-0.928,9.755,-1.099,41.1076293,16.8818172,False,NONE
2019-10-25 10:02:03.560,LG-H970,1571997723569.0,-0.863,10.076,-1.025,41.1076293,16.8818172,False,NONE
2019-10-25 10:02:03.580,LG-H970,1571997723588.5,-0.027,9.195,-0.871,41.1076293,16.8818172,False,NONE
2019-10-25 10:02:03.600,LG-H970,1571997723608.5,0.263,9.743,-0.619,41.1076293,16.8818172,False,NONE
2019-10-25 10:02:03.620,LG-H970,1571997723631.5,-0.756,9.482,-1.313,41.1076293,16.8818172,False,NONE
2019-10-25 10:02:03.640,LG-H970,1571997723650.0,-0.836,10.506,-0.802,41.1076293,16.8818172,False,NONE
2019-10-25 10:02:03.660,LG-H970,1571997723664.0,-0.582,9.892,-1.426,41.1076293,16.8818172,False,NONE
2019-10-25 10:02:03.680,LG-H970,1571997723688.0,0.06,10.415,-0.266,41.1076293,16.8818172,False,NONE
2019-10-25 10:02:03.700,LG-H970,1571997723706.75,-0.712,9.227,-0.313,41.1076293,16.8818172,False,NONE
2019-10-25 10:02:03.720,LG-H970,1571997723732.2,-0.492,10.234,-0.813,41.1076293,16.8818172,False,NONE
2019-10-25 10:02:03.740,LG-H970,1571997723750.5,-0.891,9.313,-0.996,41.1076293,16.8818172,False,NONE
2019-10-25 10:02:03.760,LG-H970,1571997723771.25,-0.828,10.024,-0.903,41.1076293,16.8818172,False,NONE
2019-10-25 10:02:03.780,LG-H970,1571997723790.5,-0.616,10.065,-0.968,41.1076293,16.8818172,False,NONE
2019-10-25 10:02:03.800,LG-H970,1571997723810.25,-0.228,9.372,-0.79,41.1076293,16.8818172,False,NONE
2019-10-25 10:02:03.820,LG-H970,1571997723831.75,-0.424,9.223,-0.902,41.1076293,16.8818172,False,NONE
2019-10-25 10:02:03.840,LG-H970,1571997723850.25,-0.834,8.919,-0.94,41.1076293,16.8818172,False,NONE
2019-10-25 10:02:03.860,LG-H970,1571997723870.0,-0.483,10.103,-1.294,41.1076293,16.8818172,False,NONE
2019-10-25 10:02:03.880,LG-H970,1571997723889.75,-0.833,10.035,-0.836,41.1076293,16.8818172,False,NONE
2019-10-25 10:02:03.900,LG-H970,1571997723908.75,-0.503,10.93,-0.492,41.1076293,16.8818172,False,NONE
2019-10-25 10:02:03.920,LG-H970,1571997723929.5,-0.599,9.525,-0.311,41.1076293,16.8818172,False,NONE
2019-10-25 10:02:03.940,LG-H970,1571997723949.3333,-0.121,10.406,-0.405,41.1076293,16.8818172,False,NONE
2019-10-25 10:02:03.960,LG-H970,1571997723967.3333,-0.643,9.926,-1.466,41.1076293,16.8818172,False,NONE
2019-10-25 10:02:03.980,LG-H970,1571997723991.1667,-0.805,10.174,-0.614,41.1076293,16.8818172,False,NONE
2019-10-25 10:02:04.000,LG-H970,1571997724014.0,-1.005,9.269,-0.71,41.1076293,16.8818172,False,NONE
2019-10-25 10:02:04.020,LG-H970,1571997724029.1667,-0.475,9.958,-0.691,41.1076293,16.8818172,False,NONE
2019-10-25 10:02:04.040,LG-H970,1571997724051.5,-0.308,9.467,-0.922,41.1076293,16.8818172,False,NONE
2019-10-25 10:02:04.060,LG-H970,1571997724069.0,-0.159,9.642,-1.62,41.1076293,16.8818172,False,NONE
2019-10-25 10:02:04.080,LG-H970,1571997724090.2,-0.091,9.956,-0.866,41.1076293,16.8818172,False,NONE
2019-10-25 10:02:04.100,LG-H970,1571997724108.6667,-0.717,9.714,-0.592,41.1076293,16.8818172,False,NONE
2019-10-25 10:02:04.120,LG-H970,1571997724129.8,-0.78,10.977,-0.26,41.1076293,16.8818172,False,NONE
2019-10-25 10:02:04.140,LG-H970,1571997724150.25,-0.805,9.767,-0.848,41.1076293,16.8818172,False,NONE
2019-10-25 10:02:04.160,LG-H970,1571997724168.6667,-0.007,10.185,-0.164,41.1076293,16.8818172,False,NONE
2019-10-25 10:02:04.180,LG-H970,1571997724188.8,-0.468,9.586,-1.136,41.1076293,16.8818172,False,NONE
2019-10-25 10:02:04.200,LG-H970,1571997724211.25,-0.573,11.345,-0.969,41.1076293,16.8818172,False,NONE
2019-10-25 10:02:04.220,LG-H970,1571997724229.0,-0.845,9.702,-0.407,41.1076293,16.8818172,False,NONE
2019-10-25 10:02:04.240,LG-H970,1571997724248.5,-0.047,9.348,-0.393,41.1076293,16.8818172,False,NONE
2019-10-25 10:02:04.260,LG-H970,1571997724269.0,-0.126,9.191,-1.047,41.1076293,16.8818172,False,NONE
2019-10-25 10:02:04.280,LG-H970,1571997724288.5,-0.466,9.764,-1.658,41.1076293,16.8818172,False,NONE
2019-10-25 10:02:04.300,LG-H970,1571997724311.0,-0.155,10.031,-0.926,41.1076293,16.8818172,False,NONE
2019-10-25 10:02:04.320,LG-H970,1571997724328.0,0.364,9.782,-0.422,41.1076293,16.8818172,False,NONE
2019-10-25 10:02:04.340,LG-H970,1571997724347.5,-0.207,10.3,-0.127,41.1076293,16.8818172,False,NONE
2019-10-25 10:02:04.360,LG-H970,1571997724367.75,-1.123,10.203,-1.015,41.1076293,16.8818172,False,NONE
2019-10-25 10:02:04.380,LG-H970,1571997724388.0,-0.159,10.493,-0.931,41.1076293,16.8818172,False,NONE
2019-10-25 10:02:04.400,LG-H970,1571997724409.2,0.62,9.174,-0.636,41.1076293,16.8818172,False,NONE
2019-10-25 10:02:04.420,LG-H970,1571997724430.3333,0.26,10.608,-0.146,41.1076293,16.8818172,False,NONE
2019-10-25 10:02:04.440,LG-H970,1571997724445.6667,-0.759,10.466,-0.889,41.1076293,16.8818172,False,NONE
2019-10-25 10:02:04.460,LG-H970,1571997724469.0,-0.312,10.279,-0.379,41.1076293,16.8818172,False,NONE
2019-10-25 10:02:04.480,LG-H970,1571997724489.3333,0.484,9.12,-1.157,41.1076293,16.8818172,False,NONE
2019-10-25 10:02:04.500,LG-H970,1571997724509.0,0.275,10.008,-0.423,41.1076293,16.8818172,False,NONE
2019-10-25 10:02:04.520,LG-H970,1571997724531.0,-0.542,9.583,-0.739,41.1076293,16.8818172,False,NONE
2019-10-25 10:02:04.540,LG-H970,1571997724550.0,-0.097,9.896,0.229,41.1076293,16.8818172,False,NONE
2019-10-25 10:02:04.560,LG-H970,1571997724569.25,-0.15,9.725,-0.373,41.1076293,16.8818172,False,NONE
2019-10-25 10:02:04.580,LG-H970,1571997724586.3333,-0.29,11.333,-0.491,41.1076293,16.8818172,False,NONE
2019-10-25 10:02:04.600,LG-H970,1571997724607.2,-0.997,10.078,-0.446,41.1076293,16.8818172,False,NONE
2019-10-25 10:02:04.620,LG-H970,1571997724628.25,-0.148,10.147,-0.365,41.1076293,16.8818172,False,NONE
2019-10-25 10:02:04.640,LG-H970,1571997724649.0,-0.237,10.217,0.39,41.1076293,16.8818172,False,NONE
2019-10-25 10:02:04.660,LG-H970,1571997724668.5,-0.863,9.45,-0.183,41.1076293,16.8818172,False,NONE
2019-10-25 10:02:04.680,LG-H970,1571997724688.25,-0.292,9.867,-0.983,41.1076293,16.8818172,False,NONE
2019-10-25 10:02:04.700,LG-H970,1571997724709.8,-0.21,9.298,-0.899,41.1076293,16.8818172,False,NONE
2019-10-25 10:02:04.720,LG-H970,1571997724731.0,-0.423,9.906,0.013,41.1076293,16.8818172,False,NONE
2019-10-25 10:02:04.740,LG-H970,1571997724750.2,-0.315,10.034,-0.454,41.1076293,16.8818172,False,NONE
