UTC_timestamp,device_name,timestamp,x,y,z,lat,long,event,speed
2019-10-26 10:29:33.560,LG-H970,1572085773568.3333,1.031,8.437,-0.351,41.1039867,16.8796145,False,NONE
2019-10-26 10:29:33.580,LG-H970,1572085773589.0,0.225,10.392,-1.533,41.1039867,16.8796145,False,NONE
2019-10-26 10:29:33.600,LG-H970,1572085773608.25,-0.054,10.236,-0.745,41.1039867,16.8796145,False,NONE
2019-10-26 10:29:33.620,LG-H970,1572085773628.0,0.725,9.855,-0.866,41.1039867,16.8796145,False,NONE
2019-10-26 10:29:33.640,LG-H970,1572085773648.5,0.764,9.306,0.034,41.1039867,16.8796145,False,NONE
2019-10-26 10:29:33.660,LG-H970,1572085773667.5,-0.465,9.32,-1.604,41.1039867,16.8796145,False,NONE
2019-10-26 10:29:33.680,LG-H970,1572085773688.0,-1.383,9.933,-1.048,41.1039867,16.8796145,False,NONE
2019-10-26 10:29:33.700,LG-H970,1572085773709.2,-0.456,9.487,-0.91,41.1039867,16.8796145,False,NONE
2019-10-26 10:29:33.720,LG-H970,1572085773731.5,0.451,9.832,-0.141,41.1039867,16.8796145,False,NONE
2019-10-26 10:29:33.740,LG-H970,1572085773751.5,-1.106,9.458,-1.393,41.1039867,16.8796145,False,NONE
2019-10-26 10:29:33.760,LG-H970,1572085773771.25,-1.347,9.982,-1.208,41.1039867,16.8796145,False,NONE
2019-10-26 10:29:33.780,LG-H970,1572085773790.75,-0.305,9.945,-0.361,41.1039867,16.8796145,False,NONE
2019-10-26 10:29:33.800,LG-H970,1572085773810.75,-0.646,8.979,0.464,41.1039867,16.8796145,False,NONE
2019-10-26 10:29:33.820,LG-H970,1572085773830.5,-1.023,9.977,-0.508,41.1039867,16.8796145,False,NONE
2019-10-26 10:29:33.840,LG-H970,1572085773850.0,-1.533,10.318,-1.834,41.1039867,16.8796145,False,NONE
2019-10-26 10:29:33.860,LG-H970,1572085773869.5,-0.119,9.894,-0.272,41.1039867,16.8796145,False,NONE
2019-10-26 10:29:33.880,LG-H970,1572085773889.5,0.288,8.193,-0.364,41.1039867,16.8796145,False,NONE
2019-10-26 10:29:33.900,LG-H970,1572085773909.5,-0.292,9.527,0.515,41.1039867,16.8796145,False,NONE
2019-10-26 10:29:33.920,LG-H970,1572085773929.5,-1.613,9.822,-0.995,41.1039867,16.8796145,False,NONE
2019-10-26 10:29:33.940,LG-H970,1572085773948.75,-0.787,10.779,-0.304,41.1039867,16.8796145,False,NONE
2019-10-26 10:29:33.960,LG-H970,1572085773967.75,0.072,9.806,-0.457,41.1039867,16.8796145,False,NONE
2019-10-26 10:29:33.980,LG-H970,1572085773988.25,0.485,10.21,0.252,41.1039867,16.8796145,False,NONE
2019-10-26 10:29:34.000,LG-H970,1572085774008.0,-0.463,9.944,-1.363,41.1039867,16.8796145,False,NONE
2019-10-26 10:29:34.020,LG-H970,1572085774027.75,-0.924,8.841,-2.062,41.1039867,16.8796145,False,NONE
2019-10-26 10:29:34.040,LG-H970,1572085774047.75,0.849,8.972,-0.997,41.1039867,16.8796145,False,NONE
2019-10-26 10:29:34.060,LG-H970,1572085774067.0,0.351,8.363,-0.069,41.1039867,16.8796145,False,NONE
2019-10-26 10:29:34.080,LG-H970,1572085774090.2,-0.54,11.399,0.361,41.1039867,16.8796145,False,NONE
2019-10-26 10:29:34.100,LG-H970,1572085774110.75,-1.899,11.547,-0.445,41.1039867,16.8796145,False,NONE
2019-10-26 10:29:34.120,LG-H970,1572085774130.5,-0.618,11.183,-1.384,41.1039867,16.8796145,False,NONE
2019-10-26 10:29:34.140,LG-H970,1572085774150.25,0.004,8.876,-0.554,41.1039867,16.8796145,False,NONE
2019-10-26 10:29:34.160,LG-H970,1572085774170.25,1.076,9.47,-0.179,41.1039867,16.8796145,False,NONE
2019-10-26 10:29:34.180,LG-H970,1572085774190.5,-0.231,10.322,-0.337,41.1039867,16.8796145,False,NONE
2019-10-26 10:29:34.200,LG-H970,1572085774210.0,-1.555,12.037,-0.295,41.1039867,16.8796145,False,NONE
2019-10-26 10:29:34.220,LG-H970,1572085774229.75,-1.046,10.167,-0.716,41.1039867,16.8796145,False,NONE
2019-10-26 10:29:34.240,LG-H970,1572085774249.5,1.013,8.533,-0.629,41.1039867,16.8796145,False,NONE
2019-10-26 10:29:34.260,LG-H970,1572085774269.25,1.022,9.378,-0.455,41.1039867,16.8796145,False,NONE
2019-10-26 10:29:34.280,LG-H970,1572085774288.75,-1.773,10.601,-0.146,41.1039867,16.8796145,False,NONE
2019-10-26 10:29:34.300,LG-H970,1572085774308.5,-1.932,10.868,-1.255,41.1039867,16.8796145,False,NONE
2019-10-26 10:29:34.320,LG-H970,1572085774328.75,-0.087,9.059,-0.444,41.1039867,16.8796145,False,NONE
2019-10-26 10:29:34.340,LG-H970,1572085774348.0,2.717,8.13,-1.311,41.1039867,16.8796145,False,NONE
2019-10-26 10:29:34.360,LG-H970,1572085774368.0,1.223,6.732,-1.012,41.1039867,16.8796145,False,NONE
2019-10-26 10:29:34.380,LG-H970,1572085774388.0,1.18,9.813,-1.368,41.1039867,16.8796145,False,NONE
2019-10-26 10:29:34.400,LG-H970,1572085774409.4,-0.954,10.691,0.056,41.1039867,16.8796145,False,NONE
2019-10-26 10:29:34.420,LG-H970,1572085774432.0,-0.462,11.71,0.446,41.1039867,16.8796145,False,NONE
2019-10-26 10:29:34.440,LG-H970,1572085774451.75,-0.685,10.228,0.191,41.1039867,16.8796145,False,NONE
2019-10-26 10:29:34.460,LG-H970,1572085774471.0,1.77,11.187,-0.583,41.1039867,16.8796145,False,NONE
2019-10-26 10:29:34.480,LG-H970,1572085774491.0,0.494,9.448,-0.271,41.1039867,16.8796145,False,NONE
2019-10-26 10:29:34.500,LG-H970,1572085774510.5,-0.879,11.312,0.776,41.1039867,16.8796145,False,NONE
2019-10-26 10:29:34.520,LG-H970,1572085774530.5,-1.277,10.608,-1.182,41.1039867,16.8796145,False,NONE
2019-10-26 10:29:34.540,LG-H970,1572085774550.0,1.165,11.499,0.622,41.1039867,16.8796145,False,NONE
2019-10-26 10:29:34.560,LG-H970,1572085774570.0,0.205,7.744,-1.257,41.1039867,16.8796145,False,NONE
2019-10-26 10:29:34.580,LG-H970,1572085774589.0,0.251,10.528,0.226,41.1039867,16.8796145,False,NONE
2019-10-26 10:29:34.600,LG-H970,1572085774608.75,0.475,9.006,-2.343,41.1039867,16.8796145,False,NONE
2019-10-26 10:29:34.620,LG-H970,1572085774628.75,2.95,9.687,0.138,41.1039867,16.8796145,False,NONE
2019-10-26 10:29:34.640,LG-H970,1572085774648.25,2.765,7.146,-1.001,41.1039867,16.8796145,False,NONE
2019-10-26 10:29:34.660,LG-H970,1572085774668.0,-0.52,8.718,0.212,41.1039867,16.8796145,False,NONE
2019-10-26 10:29:34.680,LG-H970,1572085774688.5,-0.886,11.008,-2.471,41.1039867,16.8796145,False,NONE
2019-10-26 10:29:34.700,LG-H970,1572085774707.5,-0.181,10.097,-1.752,41.1039867,16.8796145,False,NONE
2019-10-26 10:29:34.720,LG-H970,1572085774727.25,0.648,8.083,1.168,41.1039867,16.8796145,False,NONE
2019-10-26 10:29:34.740,LG-H970,1572085774749.6,0.901,7.678,-1.759,41.1039867,16.8796145,False,NONE
2019-10-26 10:29:34.760,LG-H970,1572085774771.5,-0.633,9.216,-1.217,41.1039867,16.8796145,False,NONE
2019-10-26 10:29:34.780,LG-H970,1572085774791.75,-0.149,10.59,-2.296,41.1039867,16.8796145,False,NONE
2019-10-26 10:29:34.800,LG-H970,1572085774811.75,-1.286,9.806,0.644,41.1039867,16.8796145,False,NONE
2019-10-26 10:29:34.820,LG-H970,1572085774831.25,-2.466,9.863,0.766,41.1039867,16.8796145,False,NONE
2019-10-26 10:29:34.840,LG-H970,1572085774850.5,-1.795,10.922,-1.05,41.1039867,16.8796145,False,NONE
2019-10-26 10:29:34.860,LG-H970,1572085774870.5,-1.739,10.915,-0.698,41.1039867,16.8796145,False,NONE
2019-10-26 10:29:34.880,LG-H970,1572085774890.25,-1.657,9.622,0.009,41.1039867,16.8796145,False,NONE
2019-10-26 10:29:34.900,LG-H970,1572085774910.5,-2.197,10.51,0.167,41.1039867,16.8796145,False,NONE
2019-10-26 10:29:34.920,LG-H970,1572085774930.25,-1.751,11.968,-0.458,41.1039867,16.8796145,False,NONE
2019-10-26 10:29:34.940,LG-H970,1572085774950.25,-0.733,11.65,0.579,41.1039867,16.8796145,False,NONE
2019-10-26 10:29:34.960,LG-H970,1572085774969.25,-1.268,8.992,1.374,41.1039867,16.8796145,False,NONE
2019-10-26 10:29:34.980,LG-H970,1572085774988.75,0.431,9.661,0.083,41.1039867,16.8796145,False,NONE
2019-10-26 10:29:35.000,LG-H970,1572085775008.75,-0.723,10.323,-1.794,41.1039867,16.8796145,False,NONE
2019-10-26 10:29:35.020,LG-H970,1572085775028.5,-2.508,11.169,-0.657,41.1039867,16.8796145,False,NONE
2019-10-26 10:29:35.040,LG-H970,1572085775048.5,-2.271,11.582,-0.404,41.1039867,16.8796145,False,NONE
2019-10-26 10:29:35.060,LG-H970,1572085775068.0,3.716,13.479,5.438,41.1039867,16.8796145,False,NONE
2019-10-26 10:29:35.080,LG-H970,1572085775088.0,-5.306,13.708,0.176,41.1039867,16.8796145,False,NONE
2019-10-26 10:29:35.100,LG-H970,1572085775110.2,-9.56,16.145,-5.187,41.1039867,16.8796145,False,NONE
2019-10-26 10:29:35.120,LG-H970,1572085775131.25,2.46,8.433,0.121,41.1039867,16.8796145,False,NONE
2019-10-26 10:29:35.140,LG-H970,1572085775151.25,7.658,2.169,4.92,41.1039867,16.8796145,False,NONE
2019-10-26 10:29:35.160,LG-H970,1572085775171.25,1.39,11.043,-0.631,41.1039867,16.8796145,False,NONE
2019-10-26 10:29:35.180,LG-H970,1572085775191.0,-4.883,15.712,-5.769,41.1039867,16.8796145,False,NONE
2019-10-26 10:29:35.200,LG-H970,1572085775210.75,-1.815,9.969,-3.213,41.1039867,16.8796145,False,NONE
2019-10-26 10:29:35.220,LG-H970,1572085775230.5,8.177,5.683,5.819,41.1039867,16.8796145,False,NONE
2019-10-26 10:29:35.240,LG-H970,1572085775250.5,5.945,5.193,1.266,41.1039867,16.8796145,False,NONE
2019-10-26 10:29:35.260,LG-H970,1572085775270.5,-0.928,10.046,-5.549,41.1039867,16.8796145,False,NONE
2019-10-26 10:29:35.280,LG-H970,1572085775290.0,-0.432,11.617,-1.047,41.1039867,16.8796145,False,NONE
2019-10-26 10:29:35.300,LG-H970,1572085775309.25,4.988,6.702,0.061,41.1039867,16.8796145,False,NONE
2019-10-26 10:29:35.320,LG-H970,1572085775329.75,5.484,5.619,2.549,41.1039867,16.8796145,False,NONE
2019-10-26 10:29:35.340,LG-H970,1572085775350.75,3.288,9.204,1.003,41.1039867,16.8796145,False,NONE
2019-10-26 10:29:35.360,LG-H970,1572085775367.75,-1.836,8.392,-3.119,41.1039867,16.8796145,False,NONE
2019-10-26 10:29:35.380,LG-H970,1572085775388.0,0.8,11.435,-0.414,41.1039867,16.8796145,False,NONE
2019-10-26 10:29:35.400,LG-H970,1572085775407.5,2.16,7.179,0.688,41.1039867,16.8796145,False,NONE
2019-10-26 10:29:35.420,LG-H970,1572085775430.8,2.485,7.74,-0.144,41.1039867,16.8796145,False,NONE
2019-10-26 10:29:35.440,LG-H970,1572085775449.3333,-0.866,8.445,-2.568,41.1039867,16.8796145,False,NONE
2019-10-26 10:29:35.460,LG-H970,1572085775467.25,-1.447,10.283,-1.238,41.1039867,16.8796145,False,NONE
2019-10-26 10:29:35.480,LG-H970,1572085775490.2,0.095,9.768,0.363,41.1040439,16.879999,False,NONE
2019-10-26 10:29:35.500,LG-H970,1572085775509.5,0.004,10.262,0.438,41.1040582,16.8800951,False,NONE
2019-10-26 10:29:35.520,LG-H970,1572085775529.5,-1.789,10.961,-0.905,41.1040582,16.8800951,False,NONE
2019-10-26 10:29:35.540,LG-H970,1572085775549.75,-3.107,11.044,-0.948,41.1040582,16.8800951,False,NONE
2019-10-26 10:29:35.560,LG-H970,1572085775570.0,-2.529,10.48,-0.385,41.1040582,16.8800951,False,NONE
2019-10-26 10:29:35.580,LG-H970,1572085775589.5,0.469,11.032,0.917,41.1040582,16.8800951,False,NONE
2019-10-26 10:29:35.600,LG-H970,1572085775609.25,-1.016,10.831,0.805,41.1040582,16.8800951,False,NONE
2019-10-26 10:29:35.620,LG-H970,1572085775629.25,-4.63,11.112,1.627,41.1040582,16.8800951,False,NONE
2019-10-26 10:29:35.640,LG-H970,1572085775649.0,0.367,12.66,-1.02,41.1040582,16.8800951,False,NONE
2019-10-26 10:29:35.660,LG-H970,1572085775669.75,-5.211,9.135,-3.821,41.1040582,16.8800951,False,NONE
2019-10-26 10:29:35.680,LG-H970,1572085775688.75,-8.295,11.661,-2.678,41.1040582,16.8800951,False,NONE
2019-10-26 10:29:35.700,LG-H970,1572085775708.0,-0.788,9.263,-0.806,41.1040582,16.8800951,False,NONE
2019-10-26 10:29:35.720,LG-H970,1572085775727.75,4.423,7.641,6.67,41.1040582,16.8800951,False,NONE
2019-10-26 10:29:35.740,LG-H970,1572085775749.8,-3.24,13.15,-1.81,41.1040582,16.8800951,False,NONE
2019-10-26 10:29:35.760,LG-H970,1572085775772.0,-6.378,14.656,-2.233,41.1040582,16.8800951,False,NONE
2019-10-26 10:29:35.780,LG-H970,1572085775791.5,1.388,7.347,0.315,41.1040582,16.8800951,False,NONE
2019-10-26 10:29:35.800,LG-H970,1572085775811.5,8.689,6.63,4.834,41.1040582,16.8800951,False,NONE
2019-10-26 10:29:35.820,LG-H970,1572085775831.0,1.648,9.636,0.163,41.1040582,16.8800951,False,NONE
2019-10-26 10:29:35.840,LG-H970,1572085775850.25,-4.138,14.634,-0.922,41.1040582,16.8800951,True,NONE
2019-10-26 10:29:35.860,LG-H970,1572085775869.75,-0.852,12.239,0.672,41.1040582,16.8800951,True,NONE
2019-10-26 10:29:35.880,LG-H970,1572085775889.5,5.901,7.183,1.661,41.1040582,16.8800951,False,NONE
2019-10-26 10:29:35.900,LG-H970,1572085775909.5,5.7,5.989,1.833,41.1040582,16.8800951,False,NONE
2019-10-26 10:29:35.920,LG-H970,1572085775929.5,1.957,9.658,-2.183,41.1040582,16.8800951,False,NONE
2019-10-26 10:29:35.940,LG-H970,1572085775950.25,-0.486,9.537,-1.607,41.1040582,16.8800951,False,NONE
2019-10-26 10:29:35.960,LG-H970,1572085775969.75,3.18,8.447,1.584,41.1040582,16.8800951,False,NONE
2019-10-26 10:29:35.980,LG-H970,1572085775989.5,4.369,4.934,0.828,41.1040582,16.8800951,False,NONE
2019-10-26 10:29:36.000,LG-H970,1572085776009.25,2.237,8.337,-1.231,41.1040582,16.8800951,False,NONE
2019-10-26 10:29:36.020,LG-H970,1572085776029.0,-2.146,8.512,-1.505,41.1040582,16.8800951,False,NONE
2019-10-26 10:29:36.040,LG-H970,1572085776048.75,0.203,10.868,0.93,41.1040582,16.8800951,False,NONE
2019-10-26 10:29:36.060,LG-H970,1572085776068.25,1.338,10.902,2.986,41.1040582,16.8800951,False,NONE
2019-10-26 10:29:36.080,LG-H970,1572085776089.25,-1.354,10.132,-0.345,41.1040582,16.8800951,False,NONE
2019-10-26 10:29:36.100,LG-H970,1572085776109.4,-2.457,10.079,-2.54,41.1040582,16.8800951,False,NONE
2019-10-26 10:29:36.120,LG-H970,1572085776131.75,-1.701,9.315,0.391,41.1040582,16.8800951,False,NONE
2019-10-26 10:29:36.140,LG-H970,1572085776151.5,0.044,11.167,1.097,41.1040582,16.8800951,False,NONE
2019-10-26 10:29:36.160,LG-H970,1572085776171.75,-4.856,11.379,0.866,41.1040582,16.8800951,False,NONE
2019-10-26 10:29:36.180,LG-H970,1572085776191.5,-5.885,12.654,-1.722,41.1040582,16.8800951,False,NONE
2019-10-26 10:29:36.200,LG-H970,1572085776211.6667,-2.728,10.053,-0.988,41.1040582,16.8800951,False,NONE
2019-10-26 10:29:36.220,LG-H970,1572085776231.25,-0.748,8.932,0.841,41.1040582,16.8800951,False,NONE
2019-10-26 10:29:36.240,LG-H970,1572085776250.5,-4.675,11.003,-0.688,41.1040582,16.8800951,False,NONE
2019-10-26 10:29:36.260,LG-H970,1572085776270.25,-3.244,14.442,-1.182,41.1040582,16.8800951,False,NONE
2019-10-26 10:29:36.280,LG-H970,1572085776290.0,-1.235,9.973,0.139,41.1040582,16.8800951,False,NONE
2019-10-26 10:29:36.300,LG-H970,1572085776309.5,-0.287,10.155,4.159,41.1040582,16.8800951,False,NONE
2019-10-26 10:29:36.320,LG-H970,1572085776329.75,-0.448,12.574,-1.338,41.1040582,16.8800951,False,NONE
2019-10-26 10:29:36.340,LG-H970,1572085776350.25,-5.267,14.228,-0.666,41.1040582,16.8800951,False,NONE
2019-10-26 10:29:36.360,LG-H970,1572085776370.75,-2.84,12.366,0.294,41.1040582,16.8800951,False,NONE
2019-10-26 10:29:36.380,LG-H970,1572085776387.75,1.776,8.34,1.906,41.1040582,16.8800951,False,NONE
2019-10-26 10:29:36.400,LG-H970,1572085776407.5,2.285,9.231,1.463,41.1040582,16.8800951,False,NONE
2019-10-26 10:29:36.420,LG-H970,1572085776429.0,-2.091,10.352,-2.061,41.1040582,16.8800951,False,NONE
2019-10-26 10:29:36.440,LG-H970,1572085776447.25,-3.622,10.654,-0.683,41.1040582,16.8800951,False,NONE
2019-10-26 10:29:36.460,LG-H970,1572085776467.25,0.517,7.768,0.462,41.1040582,16.8800951,False,NONE
2019-10-26 10:29:36.480,LG-H970,1572085776486.75,3.08,6.729,0.998,41.1040582,16.8800951,False,NONE
2019-10-26 10:29:36.500,LG-H970,1572085776509.6,-0.834,7.578,-1.147,41.1040582,16.8800951,False,NONE
2019-10-26 10:29:36.520,LG-H970,1572085776531.25,-0.257,11.021,-1.548,41.1040582,16.8800951,False,NONE
2019-10-26 10:29:36.540,LG-H970,1572085776550.75,3.777,9.652,-0.09,41.1040582,16.8800951,False,NONE
2019-10-26 10:29:36.560,LG-H970,1572085776570.5,3.052,7.761,3.768,41.1040582,16.8800951,False,NONE
2019-10-26 10:29:36.580,LG-H970,1572085776588.6667,0.678,8.915,0.042,41.1040582,16.8800951,False,NONE
2019-10-26 10:29:36.600,LG-H970,1572085776609.0,-0.748,9.126,-2.157,41.1040582,16.8800951,False,NONE
2019-10-26 10:29:36.620,LG-H970,1572085776629.75,2.507,8.311,0.85,41.1040582,16.8800951,False,NONE
2019-10-26 10:29:36.640,LG-H970,1572085776650.0,3.843,7.75,-0.209,41.1040582,16.8800951,False,NONE
2019-10-26 10:29:36.660,LG-H970,1572085776669.75,2.814,11.072,0.904,41.1040582,16.8800951,False,NONE
2019-10-26 10:29:36.680,LG-H970,1572085776689.5,-1.737,9.116,-2.432,41.1040582,16.8800951,False,NONE
2019-10-26 10:29:36.700,LG-H970,1572085776709.0,-0.648,10.171,-1.362,41.1040582,16.8800951,False,NONE
2019-10-26 10:29:36.720,LG-H970,1572085776728.5,2.324,7.914,-1.792,41.1040582,16.8800951,False,NONE
2019-10-26 10:29:36.740,LG-H970,1572085776748.5,1.494,8.953,1.754,41.1040582,16.8800951,False,NONE
2019-10-26 10:29:36.760,LG-H970,1572085776768.25,-0.167,11.094,-0.784,41.1040582,16.8800951,False,NONE
2019-10-26 10:29:36.780,LG-H970,1572085776788.0,-3.152,10.51,-3.1,41.1040582,16.8800951,False,NONE
2019-10-26 10:29:36.800,LG-H970,1572085776807.5,-1.289,10.075,0.397,41.1040582,16.8800951,False,NONE
2019-10-26 10:29:36.820,LG-H970,1572085776829.4,1.384,8.405,-0.334,41.1040582,16.8800951,False,NONE
2019-10-26 10:29:36.840,LG-H970,1572085776851.75,-0.867,11.604,1.573,41.1040582,16.8800951,False,NONE
2019-10-26 10:29:36.860,LG-H970,1572085776869.6667,-2.814,11.713,-3.405,41.1040582,16.8800951,False,NONE
2019-10-26 10:29:36.880,LG-H970,1572085776889.2,-2.641,11.094,-1.029,41.1040582,16.8800951,False,NONE
2019-10-26 10:29:36.900,LG-H970,1572085776911.25,1.455,8.194,-0.102,41.1040582,16.8800951,False,NONE
2019-10-26 10:29:36.920,LG-H970,1572085776930.5,-0.022,8.305,0.753,41.1040582,16.8800951,False,NONE
2019-10-26 10:29:36.940,LG-H970,1572085776951.0,-3.454,11.354,-0.506,41.1040582,16.8800951,False,NONE
2019-10-26 10:29:36.960,LG-H970,1572085776970.75,-3.493,11.904,-2.235,41.1040582,16.8800951,False,NONE
2019-10-26 10:29:36.980,LG-H970,1572085776990.25,-1.862,11.261,0.657,41.1040582,16.8800951,False,NONE
2019-10-26 10:29:37.000,LG-H970,1572085777010.75,-0.415,7.219,0.379,41.1040582,16.8800951,False,NONE
2019-10-26 10:29:37.020,LG-H970,1572085777029.75,0.275,8.786,0.063,41.1040582,16.8800951,False,NONE
2019-10-26 10:29:37.040,LG-H970,1572085777047.0,-3.135,10.765,-0.656,41.1040582,16.8800951,False,NONE
2019-10-26 10:29:37.060,LG-H970,1572085777067.4,-3.564,12.862,1.09,41.1040582,16.8800951,False,NONE
2019-10-26 10:29:37.080,LG-H970,1572085777088.5,-0.338,11.396,0.17,41.1040582,16.8800951,False,NONE
2019-10-26 10:29:37.100,LG-H970,1572085777108.25,0.496,8.717,2.144,41.1040582,16.8800951,False,NONE
2019-10-26 10:29:37.120,LG-H970,1572085777129.4,0.717,8.475,-1.003,41.1040582,16.8800951,False,NONE
2019-10-26 10:29:37.140,LG-H970,1572085777151.5,-0.894,9.428,-0.354,41.1040582,16.8800951,False,NONE
2019-10-26 10:29:37.160,LG-H970,1572085777171.25,0.982,9.633,-0.071,41.1040582,16.8800951,False,NONE
2019-10-26 10:29:37.180,LG-H970,1572085777190.5,3.073,8.533,0.656,41.1040582,16.8800951,False,NONE
2019-10-26 10:29:37.200,LG-H970,1572085777210.5,1.095,9.403,1.408,41.1040582,16.8800951,False,NONE
2019-10-26 10:29:37.220,LG-H970,1572085777230.5,-2.536,8.342,-1.457,41.1040582,16.8800951,False,NONE
2019-10-26 10:29:37.240,LG-H970,1572085777251.25,-0.315,10.369,-2.447,41.1040582,16.8800951,False,NONE
2019-10-26 10:29:37.260,LG-H970,1572085777270.5,1.394,8.094,0.746,41.1040582,16.8800951,False,NONE
2019-10-26 10:29:37.280,LG-H970,1572085777291.0,3.27,10.143,1.765,41.1040582,16.8800951,False,NONE
2019-10-26 10:29:37.300,LG-H970,1572085777310.0,2.364,11.288,1.072,41.1040582,16.8800951,False,NONE
2019-10-26 10:29:37.320,LG-H970,1572085777329.75,0.146,10.089,-0.708,41.1040582,16.8800951,False,NONE
2019-10-26 10:29:37.340,LG-H970,1572085777349.5,0.492,10.2,-1.929,41.1040582,16.8800951,False,NONE
2019-10-26 10:29:37.360,LG-H970,1572085777369.5,2.069,9.936,-0.161,41.1040582,16.8800951,False,NONE
2019-10-26 10:29:37.380,LG-H970,1572085777390.0,2.831,9.326,2.002,41.1040582,16.8800951,False,NONE
2019-10-26 10:29:37.400,LG-H970,1572085777409.25,2.161,10.918,0.054,41.1040582,16.8800951,False,NONE
2019-10-26 10:29:37.420,LG-H970,1572085777428.5,-1.209,10.441,-1.673,41.1040582,16.8800951,False,NONE
2019-10-26 10:29:37.440,LG-H970,1572085777447.5,-1.2,9.618,-0.972,41.1040582,16.8800951,False,NONE
2019-10-26 10:29:37.460,LG-H970,1572085777467.5,2.165,8.954,-0.991,41.1040582,16.8800951,False,NONE
2019-10-26 10:29:37.480,LG-H970,1572085777487.25,2.786,10.477,0.983,41.1040582,16.8800951,False,NONE
2019-10-26 10:29:37.500,LG-H970,1572085777509.6,-0.707,10.651,-0.042,41.1040582,16.8800951,False,NONE
2019-10-26 10:29:37.520,LG-H970,1572085777531.75,-0.334,10.477,-0.134,41.1040582,16.8800951,False,NONE
2019-10-26 10:29:37.540,LG-H970,1572085777549.3333,1.607,8.254,-1.52,41.1040582,16.8800951,False,NONE
2019-10-26 10:29:37.560,LG-H970,1572085777567.25,0.993,8.715,1.959,41.1040582,16.8800951,False,NONE
2019-10-26 10:29:37.580,LG-H970,1572085777589.4,-0.729,10.506,0.451,41.1040582,16.8800951,False,NONE
2019-10-26 10:29:37.600,LG-H970,1572085777612.0,-1.611,11.87,1.357,41.1040582,16.8800951,False,NONE
2019-10-26 10:29:37.620,LG-H970,1572085777630.75,-0.242,10.743,-0.066,41.1040582,16.8800951,False,NONE
2019-10-26 10:29:37.640,LG-H970,1572085777650.75,-0.344,8.384,-0.045,41.1040582,16.8800951,False,NONE
2019-10-26 10:29:37.660,LG-H970,1572085777670.75,0.475,7.972,-1.135,41.1040582,16.8800951,False,NONE
2019-10-26 10:29:37.680,LG-H970,1572085777690.25,0.551,7.944,-1.898,41.1040582,16.8800951,False,NONE
2019-10-26 10:29:37.700,LG-H970,1572085777709.25,1.22,8.093,0.665,41.1040582,16.8800951,False,NONE
2019-10-26 10:29:37.720,LG-H970,1572085777729.5,2.02,7.043,-1.158,41.1040582,16.8800951,False,NONE
2019-10-26 10:29:37.740,LG-H970,1572085777749.25,-0.08,10.009,0.357,41.1040582,16.8800951,False,NONE
2019-10-26 10:29:37.760,LG-H970,1572085777769.25,-4.028,10.231,-3.768,41.1040582,16.8800951,False,NONE
2019-10-26 10:29:37.780,LG-H970,1572085777788.5,-3.546,11.589,0.172,41.1040582,16.8800951,False,NONE
2019-10-26 10:29:37.800,LG-H970,1572085777807.75,-1.043,10.56,-0.238,41.1040582,16.8800951,False,NONE
2019-10-26 10:29:37.820,LG-H970,1572085777827.5,-2.727,10.909,1.515,41.1040582,16.8800951,False,NONE
2019-10-26 10:29:37.840,LG-H970,1572085777847.5,-3.975,12.607,0.34,41.1040582,16.8800951,False,NONE
2019-10-26 10:29:37.860,LG-H970,1572085777867.75,-1.941,12.432,0.899,41.1040582,16.8800951,False,NONE
2019-10-26 10:29:37.880,LG-H970,1572085777887.5,-5.081,12.475,2.336,41.1040582,16.8800951,False,NONE
2019-10-26 10:29:37.900,LG-H970,1572085777907.25,-5.646,12.106,-1.972,41.1040582,16.8800951,False,NONE
2019-10-26 10:29:37.920,LG-H970,1572085777929.4,0.498,10.179,0.287,41.1040582,16.8800951,False,NONE
2019-10-26 10:29:37.940,LG-H970,1572085777952.25,0.102,7.546,1.251,41.1040582,16.8800951,False,NONE
2019-10-26 10:29:37.960,LG-H970,1572085777971.0,-2.749,13.243,-1.339,41.1040582,16.8800951,False,NONE
2019-10-26 10:29:37.980,LG-H970,1572085777990.75,-2.745,12.667,-2.441,41.1040582,16.8800951,False,NONE
2019-10-26 10:29:38.000,LG-H970,1572085778010.5,1.236,9.155,-0.47,41.1040582,16.8800951,False,NONE
2019-10-26 10:29:38.020,LG-H970,1572085778030.75,3.299,7.254,1.281,41.1040582,16.8800951,False,NONE
2019-10-26 10:29:38.040,LG-H970,1572085778050.25,0.757,8.313,0.253,41.1040582,16.8800951,False,NONE
2019-10-26 10:29:38.060,LG-H970,1572085778069.25,-0.214,10.736,-2.886,41.1040582,16.8800951,False,NONE
2019-10-26 10:29:38.080,LG-H970,1572085778091.0,1.417,11.414,-1.541,41.1040582,16.8800951,False,NONE
2019-10-26 10:29:38.100,LG-H970,1572085778108.25,2.426,8.737,0.034,41.1040582,16.8800951,False,NONE
2019-10-26 10:29:38.120,LG-H970,1572085778128.5,2.083,8.199,-0.261,41.1040582,16.8800951,False,NONE
2019-10-26 10:29:38.140,LG-H970,1572085778148.25,1.918,9.733,-3.356,41.1040582,16.8800951,False,NONE
2019-10-26 10:29:38.160,LG-H970,1572085778170.4,0.885,9.798,-2.345,41.1040582,16.8800951,False,NONE
2019-10-26 10:29:38.180,LG-H970,1572085778189.3333,2.191,9.943,-0.756,41.1040582,16.8800951,False,NONE
2019-10-26 10:29:38.200,LG-H970,1572085778207.25,1.67,7.66,-0.453,41.1040582,16.8800951,False,NONE
2019-10-26 10:29:38.220,LG-H970,1572085778227.25,1.693,9.016,0.211,41.1040582,16.8800951,False,NONE
2019-10-26 10:29:38.240,LG-H970,1572085778249.2,0.33,8.868,-1.663,41.1040582,16.8800951,False,NONE
2019-10-26 10:29:38.260,LG-H970,1572085778271.75,0.898,10.288,-0.127,41.1040582,16.8800951,False,NONE
2019-10-26 10:29:38.280,LG-H970,1572085778291.25,0.557,8.319,-0.328,41.1040582,16.8800951,False,NONE
2019-10-26 10:29:38.300,LG-H970,1572085778310.5,1.055,9.855,0.261,41.1040582,16.8800951,False,NONE
2019-10-26 10:29:38.320,LG-H970,1572085778330.0,-0.236,8.893,-1.273,41.1040582,16.8800951,False,NONE
2019-10-26 10:29:38.340,LG-H970,1572085778350.0,-0.442,9.85,-0.095,41.1040582,16.8800951,False,NONE
2019-10-26 10:29:38.360,LG-H970,1572085778370.5,0.836,9.014,-0.772,41.1040582,16.8800951,False,NONE
2019-10-26 10:29:38.380,LG-H970,1572085778390.0,0.995,9.047,0.531,41.1040582,16.8800951,False,NONE
2019-10-26 10:29:38.400,LG-H970,1572085778409.75,1.019,10.064,0.538,41.1040582,16.8800951,False,NONE
2019-10-26 10:29:38.420,LG-H970,1572085778429.0,1.257,10.453,-0.403,41.1040582,16.8800951,False,NONE
2019-10-26 10:29:38.440,LG-H970,1572085778449.0,0.214,9.187,-3.112,41.1040582,16.8800951,False,NONE
2019-10-26 10:29:38.460,LG-H970,1572085778468.75,-1.258,8.151,-2.273,41.1040582,16.8800951,False,NONE
2019-10-26 10:29:38.480,LG-H970,1572085778489.0,-2.093,8.032,-0.678,41.1040582,16.8800951,False,NONE
2019-10-26 10:29:38.500,LG-H970,1572085778508.25,-2.203,11.292,-1.071,41.1040582,16.8800951,False,NONE
2019-10-26 10:29:38.520,LG-H970,1572085778528.0,-5.481,10.765,-2.163,41.1040582,16.8800951,False,NONE
2019-10-26 10:29:38.540,LG-H970,1572085778549.8,-0.653,9.867,1.634,41.1040582,16.8800951,False,NONE
2019-10-26 10:29:38.560,LG-H970,1572085778571.25,-8.084,5.885,-4.494,41.1040582,16.8800951,True,NONE
2019-10-26 10:29:38.580,LG-H970,1572085778590.75,-11.029,13.365,-5.838,41.1040582,16.8800951,True,NONE
2019-10-26 10:29:38.600,LG-H970,1572085778611.25,-5.575,9.652,-2.567,41.1040582,16.8800951,False,NONE
2019-10-26 10:29:38.620,LG-H970,1572085778629.75,2.949,6.562,5.021,41.1040582,16.8800951,False,NONE
2019-10-26 10:29:38.640,LG-H970,1572085778649.5,-1.065,10.654,1.875,41.1040582,16.8800951,False,NONE
2019-10-26 10:29:38.660,LG-H970,1572085778669.5,-8.469,14.737,-2.925,41.1040582,16.8800951,False,NONE
2019-10-26 10:29:38.680,LG-H970,1572085778690.75,-5.707,13.076,-2.9,41.1040582,16.8800951,False,NONE
2019-10-26 10:29:38.700,LG-H970,1572085778708.5,2.227,9.185,2.594,41.1040582,16.8800951,False,NONE
2019-10-26 10:29:38.720,LG-H970,1572085778728.5,4.874,8.295,3.904,41.1040582,16.8800951,False,NONE
2019-10-26 10:29:38.740,LG-H970,1572085778748.5,-0.67,11.74,0.257,41.1040582,16.8800951,False,NONE
2019-10-26 10:29:38.760,LG-H970,1572085778768.0,-3.494,13.705,-2.485,41.1040582,16.8800951,False,NONE
2019-10-26 10:29:38.780,LG-H970,1572085778788.5,0.106,10.837,0.494,41.1040582,16.8800951,False,NONE
2019-10-26 10:29:38.800,LG-H970,1572085778808.5,6.12,7.616,3.739,41.1040582,16.8800951,False,NONE
2019-10-26 10:29:38.820,LG-H970,1572085778828.75,4.839,9.068,1.66,41.1040582,16.8800951,False,NONE
2019-10-26 10:29:38.840,LG-H970,1572085778848.5,-1.803,11.264,-1.926,41.1040582,16.8800951,False,NONE
2019-10-26 10:29:38.860,LG-H970,1572085778868.25,-1.164,11.919,-1.571,41.1040582,16.8800951,False,NONE
2019-10-26 10:29:38.880,LG-H970,1572085778888.5,3.352,8.042,1.502,41.1040582,16.8800951,False,NONE
2019-10-26 10:29:38.900,LG-H970,1572085778907.25,4.943,7.37,2.149,41.1040582,16.8800951,False,NONE
2019-10-26 10:29:38.920,LG-H970,1572085778927.0,-0.175,9.41,-1.497,41.1040582,16.8800951,False,NONE
2019-10-26 10:29:38.940,LG-H970,1572085778949.4,-2.309,11.424,-2.318,41.1040582,16.8800951,False,NONE
2019-10-26 10:29:38.960,LG-H970,1572085778971.25,1.74,9.061,0.342,41.1040582,16.8800951,False,NONE
2019-10-26 10:29:38.980,LG-H970,1572085778990.75,3.557,8.567,1.197,41.1040582,16.8800951,False,NONE
2019-10-26 10:29:39.000,LG-H970,1572085779008.0,-0.64,8.974,-1.311,41.1040582,16.8800951,False,NONE
2019-10-26 10:29:39.020,LG-H970,1572085779028.8,-2.932,10.864,-2.9,41.1040582,16.8800951,False,NONE
2019-10-26 10:29:39.040,LG-H970,1572085779050.25,-0.414,9.767,-1.096,41.1040582,16.8800951,False,NONE
2019-10-26 10:29:39.060,LG-H970,1572085779070.25,1.133,8.354,1.182,41.1040582,16.8800951,False,NONE
2019-10-26 10:29:39.080,LG-H970,1572085779089.75,-0.617,10.288,-0.375,41.1040582,16.8800951,False,NONE
2019-10-26 10:29:39.100,LG-H970,1572085779109.25,-2.315,11.154,-1.083,41.1040582,16.8800951,False,NONE
2019-10-26 10:29:39.120,LG-H970,1572085779129.25,-0.433,9.137,0.212,41.1040582,16.8800951,False,NONE
2019-10-26 10:29:39.140,LG-H970,1572085779148.75,0.373,7.594,0.002,41.1040582,16.8800951,False,NONE
2019-10-26 10:29:39.160,LG-H970,1572085779168.5,-1.197,10.352,-1.061,41.1040582,16.8800951,False,NONE
2019-10-26 10:29:39.180,LG-H970,1572085779191.0,-3.345,10.778,-1.46,41.1040582,16.8800951,False,NONE
2019-10-26 10:29:39.200,LG-H970,1572085779207.75,-1.23,10.146,0.706,41.1040582,16.8800951,False,NONE
2019-10-26 10:29:39.220,LG-H970,1572085779229.8,-0.334,8.754,0.958,41.1040582,16.8800951,False,NONE
2019-10-26 10:29:39.240,LG-H970,1572085779252.0,-2.357,9.663,-0.815,41.1040582,16.8800951,False,NONE
2019-10-26 10:29:39.260,LG-H970,1572085779271.75,-3.852,10.7,-0.49,41.1040582,16.8800951,False,NONE
2019-10-26 10:29:39.280,LG-H970,1572085779291.5,-2.947,10.461,-0.094,41.1040582,16.8800951,False,NONE
2019-10-26 10:29:39.300,LG-H970,1572085779311.25,-0.76,10.663,0.98,41.1040582,16.8800951,False,NONE
2019-10-26 10:29:39.320,LG-H970,1572085779330.75,-0.572,10.283,0.223,41.1040582,16.8800951,False,NONE
2019-10-26 10:29:39.340,LG-H970,1572085779351.25,-1.745,10.031,-0.989,41.1040582,16.8800951,False,NONE
2019-10-26 10:29:39.360,LG-H970,1572085779370.75,-1.537,10.016,-1.486,41.1040582,16.8800951,False,NONE
2019-10-26 10:29:39.380,LG-H970,1572085779391.25,-0.238,9.512,-0.249,41.1040582,16.8800951,False,NONE
2019-10-26 10:29:39.400,LG-H970,1572085779409.75,0.794,9.794,0.929,41.1040582,16.8800951,False,NONE
2019-10-26 10:29:39.420,LG-H970,1572085779430.0,0.417,10.217,-0.51,41.1040582,16.8800951,False,NONE
2019-10-26 10:29:39.440,LG-H970,1572085779448.5,0.216,10.475,-0.234,41.1040582,16.8800951,False,NONE
2019-10-26 10:29:39.460,LG-H970,1572085779468.5,0.964,10.094,-0.57,41.1040582,16.8800951,False,NONE
2019-10-26 10:29:39.480,LG-H970,1572085779489.5,1.123,9.633,0.424,41.1040582,16.8800951,False,NONE
2019-10-26 10:29:39.500,LG-H970,1572085779508.75,1.274,10.217,0.098,41.1040582,16.8800951,False,NONE
2019-10-26 10:29:39.520,LG-H970,1572085779529.0,0.722,10.284,-0.844,41.1040582,16.8800951,False,NONE
2019-10-26 10:29:39.540,LG-H970,1572085779548.25,0.439,9.646,0.148,41.1040582,16.8800951,False,NONE
2019-10-26 10:29:39.560,LG-H970,1572085779568.5,-0.122,8.774,-0.232,41.1040582,16.8800951,False,NONE
2019-10-26 10:29:39.580,LG-H970,1572085779587.5,-0.576,10.073,-0.539,41.1040582,16.8800951,False,NONE
2019-10-26 10:29:39.600,LG-H970,1572085779610.2,-1.63,10.353,-0.309,41.1040582,16.8800951,False,NONE
2019-10-26 10:29:39.620,LG-H970,1572085779631.5,-1.348,9.123,-0.009,41.1040582,16.8800951,False,NONE
2019-10-26 10:29:39.640,LG-H970,1572085779651.25,0.144,9.379,-0.64,41.1040582,16.8800951,False,NONE
2019-10-26 10:29:39.660,LG-H970,1572085779671.25,-0.705,9.581,0.212,41.1040582,16.8800951,False,NONE
2019-10-26 10:29:39.680,LG-H970,1572085779689.6667,-0.451,11.098,0.568,41.1040582,16.8800951,False,NONE
2019-10-26 10:29:39.700,LG-H970,1572085779708.8,-0.864,9.822,-0.359,41.1040582,16.8800951,False,NONE
2019-10-26 10:29:39.720,LG-H970,1572085779730.25,0.196,8.135,-0.65,41.1040582,16.8800951,False,NONE
2019-10-26 10:29:39.740,LG-H970,1572085779750.5,0.678,6.903,-1.476,41.1040582,16.8800951,False,NONE
2019-10-26 10:29:39.760,LG-H970,1572085779770.25,0.352,7.091,-1.498,41.1040582,16.8800951,False,NONE
2019-10-26 10:29:39.780,LG-H970,1572085779790.0,0.578,5.743,-0.944,41.1040582,16.8800951,False,NONE
2019-10-26 10:29:39.800,LG-H970,1572085779809.75,-0.575,8.475,-2.713,41.1040582,16.8800951,False,NONE
2019-10-26 10:29:39.820,LG-H970,1572085779829.5,-1.894,11.324,2.745,41.1040582,16.8800951,False,NONE
2019-10-26 10:29:39.840,LG-H970,1572085779849.25,-1.638,9.93,0.099,41.1040582,16.8800951,False,NONE
2019-10-26 10:29:39.860,LG-H970,1572085779868.5,-1.167,11.981,0.355,41.1040582,16.8800951,False,NONE
2019-10-26 10:29:39.880,LG-H970,1572085779888.75,-0.628,11.07,-2.015,41.1040582,16.8800951,False,NONE
2019-10-26 10:29:39.900,LG-H970,1572085779907.75,-0.306,9.233,0.462,41.1040582,16.8800951,False,NONE
2019-10-26 10:29:39.920,LG-H970,1572085779927.5,-1.89,10.568,0.309,41.1040582,16.8800951,False,NONE
2019-10-26 10:29:39.940,LG-H970,1572085779949.8,-3.491,13.835,-0.463,41.1040582,16.8800951,False,NONE
2019-10-26 10:29:39.960,LG-H970,1572085779971.0,-2.981,13.282,1.393,41.1040582,16.8800951,False,NONE
2019-10-26 10:29:39.980,LG-H970,1572085779988.6,0.006,10.845,1.312,41.1040582,16.8800951,False,NONE
2019-10-26 10:29:40.000,LG-H970,1572085780010.0,-1.628,9.796,-0.359,41.1040582,16.8800951,False,NONE
2019-10-26 10:29:40.020,LG-H970,1572085780028.3333,-2.813,11.559,-3.157,41.1040582,16.8800951,False,NONE
2019-10-26 10:29:40.040,LG-H970,1572085780047.8,-1.344,11.574,-0.619,41.1040582,16.8800951,False,NONE
2019-10-26 10:29:40.060,LG-H970,1572085780069.25,1.232,9.78,2.642,41.1040582,16.8800951,False,NONE
2019-10-26 10:29:40.080,LG-H970,1572085780088.5,0.851,10.84,0.265,41.1040582,16.8800951,False,NONE
2019-10-26 10:29:40.100,LG-H970,1572085780108.5,-1.14,11.567,-2.619,41.1040582,16.8800951,False,NONE
2019-10-26 10:29:40.120,LG-H970,1572085780129.0,0.587,9.725,-1.488,41.1040582,16.8800951,False,NONE
2019-10-26 10:29:40.140,LG-H970,1572085780149.0,3.664,8.644,-0.301,41.1040582,16.8800951,False,NONE
2019-10-26 10:29:40.160,LG-H970,1572085780168.75,1.914,10.25,-0.27,41.1040582,16.8800951,False,NONE
2019-10-26 10:29:40.180,LG-H970,1572085780188.25,-0.799,11.657,-1.501,41.1040582,16.8800951,False,NONE
2019-10-26 10:29:40.200,LG-H970,1572085780208.0,0.446,10.958,-0.991,41.1040582,16.8800951,False,NONE
2019-10-26 10:29:40.220,LG-H970,1572085780227.75,1.695,7.79,0.04,41.1040582,16.8800951,True,NONE
2019-10-26 10:29:40.240,LG-H970,1572085780249.6,1.169,8.482,-0.521,41.1040582,16.8800951,False,NONE
2019-10-26 10:29:40.260,LG-H970,1572085780271.5,-1.608,9.567,-1.408,41.1040582,16.8800951,False,NONE
2019-10-26 10:29:40.280,LG-H970,1572085780290.3333,-1.844,10.809,-1.007,41.1040582,16.8800951,False,NONE
2019-10-26 10:29:40.300,LG-H970,1572085780307.25,-0.823,9.826,0.644,41.1040582,16.8800951,False,NONE
2019-10-26 10:29:40.320,LG-H970,1572085780329.4,0.528,8.187,0.883,41.1040582,16.8800951,False,NONE
2019-10-26 10:29:40.340,LG-H970,1572085780349.0,-0.339,8.603,-0.863,41.1040582,16.8800951,False,NONE
2019-10-26 10:29:40.360,LG-H970,1572085780369.2,-1.883,9.344,-2.388,41.1040582,16.8800951,False,NONE
2019-10-26 10:29:40.380,LG-H970,1572085780391.25,-0.863,9.265,0.011,41.1040582,16.8800951,False,NONE
2019-10-26 10:29:40.400,LG-H970,1572085780411.0,0.882,8.619,1.091,41.1040582,16.8800951,False,NONE
2019-10-26 10:29:40.420,LG-H970,1572085780430.75,0.421,9.854,0.916,41.1040582,16.8800951,False,NONE
2019-10-26 10:29:40.440,LG-H970,1572085780450.0,-0.299,9.699,-1.421,41.1040582,16.8800951,False,NONE
2019-10-26 10:29:40.460,LG-H970,1572085780470.0,0.931,8.255,-0.136,41.1040582,16.8800951,False,NONE
2019-10-26 10:29:40.480,LG-H970,1572085780490.5,2.811,7.571,2.006,41.1040582,16.8800951,False,NONE
2019-10-26 10:29:40.500,LG-H970,1572085780510.0,2.329,10.748,0.121,41.1040582,16.8800951,False,NONE
2019-10-26 10:29:40.520,LG-H970,1572085780529.75,-3.263,11.433,-2.373,41.1040582,16.8800951,False,NONE
2019-10-26 10:29:40.540,LG-H970,1572085780548.5,-1.131,12.706,-1.71,41.1040582,16.8800951,False,NONE
2019-10-26 10:29:40.560,LG-H970,1572085780568.75,3.152,6.112,-0.141,41.1040582,16.8800951,False,NONE
2019-10-26 10:29:40.580,LG-H970,1572085780586.5,3.988,6.314,0.707,41.1040582,16.8800951,False,NONE
2019-10-26 10:29:40.600,LG-H970,1572085780611.0,-0.219,9.913,-2.687,41.1040582,16.8800951,False,NONE
2019-10-26 10:29:40.620,LG-H970,1572085780631.5,-3.682,12.312,0.037,41.1040582,16.8800951,False,NONE
2019-10-26 10:29:40.640,LG-H970,1572085780652.25,2.913,10.27,-1.006,41.1040582,16.8800951,False,NONE
2019-10-26 10:29:40.660,LG-H970,1572085780671.5,1.269,7.727,-0.191,41.1040582,16.8800951,False,NONE
2019-10-26 10:29:40.680,LG-H970,1572085780691.25,-2.629,10.695,-1.154,41.1040582,16.8800951,False,NONE
2019-10-26 10:29:40.700,LG-H970,1572085780711.5,-2.399,10.71,-3.563,41.1040582,16.8800951,False,NONE
2019-10-26 10:29:40.720,LG-H970,1572085780731.0,0.585,12.074,1.643,41.1040582,16.8800951,False,NONE
2019-10-26 10:29:40.740,LG-H970,1572085780751.25,-0.125,10.001,0.2,41.1040582,16.8800951,False,NONE
2019-10-26 10:29:40.760,LG-H970,1572085780770.75,-0.448,11.067,0.094,41.1040582,16.8800951,False,NONE
2019-10-26 10:29:40.780,LG-H970,1572085780790.5,-0.469,9.961,-1.439,41.1040582,16.8800951,False,NONE
2019-10-26 10:29:40.800,LG-H970,1572085780810.25,1.083,10.913,0.775,41.1040582,16.8800951,False,NONE
2019-10-26 10:29:40.820,LG-H970,1572085780830.0,1.648,9.32,1.083,41.1040582,16.8800951,False,NONE
2019-10-26 10:29:40.840,LG-H970,1572085780849.5,1.128,10.228,1.379,41.1040582,16.8800951,False,NONE
2019-10-26 10:29:40.860,LG-H970,1572085780869.5,-0.429,10.832,-0.541,41.1040582,16.8800951,False,NONE
2019-10-26 10:29:40.880,LG-H970,1572085780889.0,0.306,10.008,-0.255,41.1040582,16.8800951,False,NONE
2019-10-26 10:29:40.900,LG-H970,1572085780908.75,2.62,8.179,-0.367,41.1040582,16.8800951,False,NONE
2019-10-26 10:29:40.920,LG-H970,1572085780928.75,2.034,9.244,0.781,41.1040582,16.8800951,False,NONE
2019-10-26 10:29:40.940,LG-H970,1572085780948.75,-0.944,9.58,0.085,41.1040582,16.8800951,False,NONE
2019-10-26 10:29:40.960,LG-H970,1572085780968.25,-0.673,11.075,-0.346,41.1040582,16.8800951,False,NONE
2019-10-26 10:29:40.980,LG-H970,1572085780987.75,-0.301,8.397,-0.674,41.1040582,16.8800951,False,NONE
2019-10-26 10:29:41.000,LG-H970,1572085781010.2,1.519,8.844,0.644,41.1040582,16.8800951,False,NONE
2019-10-26 10:29:41.020,LG-H970,1572085781031.5,0.125,8.582,-0.11,41.1040582,16.8800951,False,NONE
2019-10-26 10:29:41.040,LG-H970,1572085781048.6667,0.374,12.575,0.131,41.1040582,16.8800951,False,NONE
2019-10-26 10:29:41.060,LG-H970,1572085781070.0,-0.913,10.165,-0.926,41.1040582,16.8800951,False,NONE
2019-10-26 10:29:41.080,LG-H970,1572085781090.5,0.562,9.127,1.013,41.1040582,16.8800951,False,NONE
2019-10-26 10:29:41.100,LG-H970,1572085781110.5,1.055,8.491,-1.3,41.1040582,16.8800951,False,NONE
2019-10-26 10:29:41.120,LG-H970,1572085781129.5,0.654,10.017,0.42,41.1040582,16.8800951,False,NONE
2019-10-26 10:29:41.140,LG-H970,1572085781149.75,0.407,9.797,-0.946,41.1040582,16.8800951,False,NONE
2019-10-26 10:29:41.160,LG-H970,1572085781169.75,0.264,10.805,0.923,41.1040582,16.8800951,False,NONE
2019-10-26 10:29:41.180,LG-H970,1572085781189.5,0.606,10.045,-1.234,41.1040582,16.8800951,False,NONE
2019-10-26 10:29:41.200,LG-H970,1572085781209.0,0.587,9.722,-0.887,41.1040582,16.8800951,False,NONE
2019-10-26 10:29:41.220,LG-H970,1572085781228.0,0.731,9.6,-0.962,41.1040582,16.8800951,False,NONE
2019-10-26 10:29:41.240,LG-H970,1572085781248.25,0.847,9.881,-0.27,41.1040582,16.8800951,False,NONE
2019-10-26 10:29:41.260,LG-H970,1572085781268.5,1.366,10.705,0.269,41.1040582,16.8800951,False,NONE
2019-10-26 10:29:41.280,LG-H970,1572085781288.5,0.39,9.955,-0.359,41.1040582,16.8800951,False,NONE
2019-10-26 10:29:41.300,LG-H970,1572085781307.5,0.91,9.77,0.288,41.1040582,16.8800951,False,NONE
2019-10-26 10:29:41.320,LG-H970,1572085781327.5,1.109,8.54,-0.962,41.1040582,16.8800951,False,NONE
2019-10-26 10:29:41.340,LG-H970,1572085781347.5,0.725,10.807,-0.064,41.1040582,16.8800951,False,NONE
2019-10-26 10:29:41.360,LG-H970,1572085781367.5,-0.062,10.81,-0.744,41.1040582,16.8800951,False,NONE
2019-10-26 10:29:41.380,LG-H970,1572085781389.6,0.656,10.449,1.101,41.1040582,16.8800951,False,NONE
2019-10-26 10:29:41.400,LG-H970,1572085781411.0,1.622,9.333,-0.342,41.1040582,16.8800951,False,NONE
2019-10-26 10:29:41.420,LG-H970,1572085781430.75,0.115,9.591,0.495,41.1040582,16.8800951,False,NONE
2019-10-26 10:29:41.440,LG-H970,1572085781450.5,-0.642,10.109,-1.424,41.1040582,16.8800951,False,NONE
2019-10-26 10:29:41.460,LG-H970,1572085781470.75,0.239,10.317,0.061,41.1040582,16.8800951,False,NONE
2019-10-26 10:29:41.480,LG-H970,1572085781489.75,1.081,9.065,0.704,41.1040582,16.8800951,False,NONE
2019-10-26 10:29:41.500,LG-H970,1572085781510.0,1.076,9.712,0.687,41.1040582,16.8800951,False,NONE
2019-10-26 10:29:41.520,LG-H970,1572085781529.75,-0.456,10.044,-0.408,41.1040582,16.8800951,False,NONE
2019-10-26 10:29:41.540,LG-H970,1572085781550.0,0.134,10.74,-0.93,41.1040582,16.8800951,False,NONE
2019-10-26 10:29:41.560,LG-H970,1572085781569.5,0.909,9.46,0.667,41.1040582,16.8800951,False,NONE
2019-10-26 10:29:41.580,LG-H970,1572085781590.0,1.32,9.844,0.859,41.1040582,16.8800951,False,NONE
2019-10-26 10:29:41.600,LG-H970,1572085781608.5,-0.568,10.238,0.107,41.1040582,16.8800951,False,NONE
2019-10-26 10:29:41.620,LG-H970,1572085781627.5,-0.644,10.347,-0.614,41.1040582,16.8800951,False,NONE
2019-10-26 10:29:41.640,LG-H970,1572085781647.25,-0.254,8.746,0.134,41.1040582,16.8800951,False,NONE
2019-10-26 10:29:41.660,LG-H970,1572085781667.25,-0.262,8.965,0.155,41.1040582,16.8800951,False,NONE
2019-10-26 10:29:41.680,LG-H970,1572085781687.25,-0.745,10.246,-0.776,41.1040582,16.8800951,False,NONE
2019-10-26 10:29:41.700,LG-H970,1572085781710.0,-0.191,10.065,0.756,41.1040582,16.8800951,False,NONE
2019-10-26 10:29:41.720,LG-H970,1572085781730.75,0.928,9.245,0.475,41.1040582,16.8800951,False,NONE
2019-10-26 10:29:41.740,LG-H970,1572085781750.75,-0.199,10.156,0.294,41.1040582,16.8800951,False,NONE
2019-10-26 10:29:41.760,LG-H970,1572085781770.75,-1.461,9.687,-0.592,41.1040582,16.8800951,False,NONE
2019-10-26 10:29:41.780,LG-H970,1572085781790.25,-1.03,9.957,0.277,41.1040582,16.8800951,False,NONE
2019-10-26 10:29:41.800,LG-H970,1572085781810.75,-0.777,9.57,0.453,41.1040582,16.8800951,False,NONE
2019-10-26 10:29:41.820,LG-H970,1572085781830.25,-0.391,10.334,1.233,41.1040582,16.8800951,False,NONE
2019-10-26 10:29:41.840,LG-H970,1572085781849.75,-0.811,10.072,0.185,41.1040582,16.8800951,False,NONE
2019-10-26 10:29:41.860,LG-H970,1572085781870.0,-0.661,10.522,-0.238,41.1040582,16.8800951,False,NONE
2019-10-26 10:29:41.880,LG-H970,1572085781890.0,-0.512,9.755,0.22,41.1040582,16.8800951,False,NONE
2019-10-26 10:29:41.900,LG-H970,1572085781909.25,-0.388,9.978,0.796,41.1040582,16.8800951,False,NONE
2019-10-26 10:29:41.920,LG-H970,1572085781929.25,-0.485,9.84,0.122,41.1040582,16.8800951,False,NONE
2019-10-26 10:29:41.940,LG-H970,1572085781948.75,-0.39,9.645,0.03,41.1040582,16.8800951,False,NONE
2019-10-26 10:29:41.960,LG-H970,1572085781968.25,-0.761,9.834,-0.035,41.1040582,16.8800951,False,NONE
2019-10-26 10:29:41.980,LG-H970,1572085781988.5,-0.481,9.874,0.219,41.1040582,16.8800951,False,NONE
2019-10-26 10:29:42.000,LG-H970,1572085782008.25,0.151,9.31,0.547,41.1040582,16.8800951,False,NONE
2019-10-26 10:29:42.020,LG-H970,1572085782030.4,0.669,9.883,-0.19,41.1040582,16.8800951,False,NONE
2019-10-26 10:29:42.040,LG-H970,1572085782049.0,0.258,9.532,0.262,41.1040582,16.8800951,False,NONE
2019-10-26 10:29:42.060,LG-H970,1572085782068.8,0.571,9.939,0.268,41.1040582,16.8800951,False,NONE
2019-10-26 10:29:42.080,LG-H970,1572085782091.75,0.163,9.819,0.283,41.1040582,16.8800951,False,NONE
2019-10-26 10:29:42.100,LG-H970,1572085782112.25,0.449,9.447,0.477,41.1040582,16.8800951,False,NONE
2019-10-26 10:29:42.120,LG-H970,1572085782130.75,0.504,9.55,0.501,41.1040582,16.8800951,False,NONE
2019-10-26 10:29:42.140,LG-H970,1572085782149.3333,1.601,11.474,1.304,41.1040582,16.8800951,False,NONE
2019-10-26 10:29:42.160,LG-H970,1572085782170.25,-0.022,9.852,0.289,41.1040582,16.8800951,False,NONE
2019-10-26 10:29:42.180,LG-H970,1572085782188.5,-0.135,10.994,1.597,41.1040582,16.8800951,False,NONE
2019-10-26 10:29:42.200,LG-H970,1572085782209.25,-0.531,10.429,-0.333,41.1040582,16.8800951,False,NONE
2019-10-26 10:29:42.220,LG-H970,1572085782229.5,0.185,10.867,2.242,41.1040582,16.8800951,False,NONE
2019-10-26 10:29:42.240,LG-H970,1572085782249.25,0.296,8.553,0.762,41.1040582,16.8800951,False,NONE
2019-10-26 10:29:42.260,LG-H970,1572085782269.25,-0.052,11.03,2.004,41.1040582,16.8800951,False,NONE
2019-10-26 10:29:42.280,LG-H970,1572085782288.75,-1.259,10.911,-0.057,41.1040582,16.8800951,False,NONE
2019-10-26 10:29:42.300,LG-H970,1572085782308.5,-0.506,10.653,1.684,41.1040582,16.8800951,False,NONE
2019-10-26 10:29:42.320,LG-H970,1572085782328.75,-0.23,8.783,0.515,41.1040582,16.8800951,False,NONE
2019-10-26 10:29:42.340,LG-H970,1572085782350.0,-0.48,9.793,1.181,41.1040582,16.8800951,False,NONE
2019-10-26 10:29:42.360,LG-H970,1572085782368.0,-0.833,9.881,0.644,41.1040582,16.8800951,False,NONE
2019-10-26 10:29:42.380,LG-H970,1572085782388.0,-0.383,10.31,1.421,41.1040582,16.8800951,False,NONE
2019-10-26 10:29:42.400,LG-H970,1572085782407.25,0.24,9.892,1.106,41.1040582,16.8800951,False,NONE
2019-10-26 10:29:42.420,LG-H970,1572085782430.2,0.099,9.255,0.81,41.1040582,16.8800951,False,NONE
2019-10-26 10:29:42.440,LG-H970,1572085782451.25,-0.482,9.495,0.359,41.1040582,16.8800951,False,NONE
2019-10-26 10:29:42.460,LG-H970,1572085782471.0,-0.424,9.563,0.461,41.1040582,16.8800951,False,NONE
2019-10-26 10:29:42.480,LG-H970,1572085782490.5,-0.038,9.12,1.916,41.1040582,16.8800951,False,NONE
2019-10-26 10:29:42.500,LG-H970,1572085782510.0,0.659,9.927,0.802,41.1040582,16.8800951,False,NONE
2019-10-26 10:29:42.520,LG-H970,1572085782530.5,0.35,10.697,1.292,41.1040582,16.8800951,False,NONE
2019-10-26 10:29:42.540,LG-H970,1572085782550.5,-0.296,9.628,0.832,41.1040582,16.8800951,False,NONE
2019-10-26 10:29:42.560,LG-H970,1572085782570.5,-0.092,10.1,1.042,41.1040582,16.8800951,False,NONE
2019-10-26 10:29:42.580,LG-H970,1572085782588.5,0.185,10.474,1.52,41.1040582,16.8800951,False,NONE
2019-10-26 10:29:42.600,LG-H970,1572085782609.0,-0.377,10.131,1.273,41.1040582,16.8800951,False,NONE
2019-10-26 10:29:42.620,LG-H970,1572085782628.5,-0.436,10.319,1.401,41.1040582,16.8800951,False,NONE
2019-10-26 10:29:42.640,LG-H970,1572085782648.25,-0.937,9.858,0.286,41.1040582,16.8800951,False,NONE
2019-10-26 10:29:42.660,LG-H970,1572085782668.25,-0.939,10.044,1.503,41.1040582,16.8800951,False,NONE
2019-10-26 10:29:42.680,LG-H970,1572085782687.5,-0.803,9.709,0.708,41.1040582,16.8800951,False,NONE
2019-10-26 10:29:42.700,LG-H970,1572085782710.0,-0.659,10.252,1.27,41.1040582,16.8800951,False,NONE
2019-10-26 10:29:42.720,LG-H970,1572085782731.5,-1.053,9.444,0.835,41.1040582,16.8800951,False,NONE
2019-10-26 10:29:42.740,LG-H970,1572085782749.0,-0.708,9.748,1.106,41.1040582,16.8800951,False,NONE
2019-10-26 10:29:42.760,LG-H970,1572085782769.2,-0.768,8.926,0.809,41.1040582,16.8800951,False,NONE
2019-10-26 10:29:42.780,LG-H970,1572085782791.75,-1.031,9.381,0.975,41.1040582,16.8800951,False,NONE
2019-10-26 10:29:42.800,LG-H970,1572085782810.75,-0.599,10.71,0.455,41.1040582,16.8800951,False,NONE
2019-10-26 10:29:42.820,LG-H970,1572085782830.25,-0.48,9.94,1.34,41.1040582,16.8800951,False,NONE
2019-10-26 10:29:42.840,LG-H970,1572085782850.5,0.555,9.553,1.458,41.1040582,16.8800951,False,NONE
2019-10-26 10:29:42.860,LG-H970,1572085782870.5,0.115,9.804,1.51,41.1040582,16.8800951,False,NONE
2019-10-26 10:29:42.880,LG-H970,1572085782890.25,-0.99,10.874,0.532,41.1040582,16.8800951,False,NONE
2019-10-26 10:29:42.900,LG-H970,1572085782909.5,-0.677,10.688,1.086,41.1040582,16.8800951,False,NONE
2019-10-26 10:29:42.920,LG-H970,1572085782929.25,0.876,9.447,1.053,41.1040582,16.8800951,False,NONE
2019-10-26 10:29:42.940,LG-H970,1572085782949.25,0.856,9.069,1.428,41.1040582,16.8800951,False,NONE
2019-10-26 10:29:42.960,LG-H970,1572085782969.0,-0.403,9.776,0.047,41.1040582,16.8800951,False,NONE
2019-10-26 10:29:42.980,LG-H970,1572085782988.75,-0.702,10.45,0.056,41.1040582,16.8800951,False,NONE
2019-10-26 10:29:43.000,LG-H970,1572085783008.5,0.071,10.279,1.115,41.1040582,16.8800951,False,NONE
2019-10-26 10:29:43.020,LG-H970,1572085783028.0,0.667,10.255,1.309,41.1040582,16.8800951,False,NONE
2019-10-26 10:29:43.040,LG-H970,1572085783048.25,0.504,10.346,1.481,41.1040582,16.8800951,False,NONE
2019-10-26 10:29:43.060,LG-H970,1572085783067.25,-0.433,10.244,0.213,41.1040582,16.8800951,False,NONE
2019-10-26 10:29:43.080,LG-H970,1572085783089.6,-0.879,10.415,0.316,41.1040582,16.8800951,False,NONE
2019-10-26 10:29:43.100,LG-H970,1572085783113.25,-0.309,9.467,0.625,41.1040582,16.8800951,False,NONE
2019-10-26 10:29:43.120,LG-H970,1572085783131.25,0.097,9.73,1.106,41.1040582,16.8800951,False,NONE
2019-10-26 10:29:43.140,LG-H970,1572085783150.5,-0.642,9.942,-0.034,41.1040582,16.8800951,False,NONE
2019-10-26 10:29:43.160,LG-H970,1572085783171.25,-1.437,10.021,0.175,41.1040582,16.8800951,False,NONE
2019-10-26 10:29:43.180,LG-H970,1572085783190.5,-0.666,9.472,0.324,41.1040582,16.8800951,False,NONE
2019-10-26 10:29:43.200,LG-H970,1572085783211.25,-0.238,9.661,0.739,41.1040582,16.8800951,False,NONE
2019-10-26 10:29:43.220,LG-H970,1572085783229.75,-1.118,9.876,0.432,41.1040582,16.8800951,False,NONE
2019-10-26 10:29:43.240,LG-H970,1572085783250.0,-1.683,9.997,0.289,41.1040582,16.8800951,False,NONE
2019-10-26 10:29:43.260,LG-H970,1572085783270.3333,-1.047,9.623,0.25,41.1040582,16.8800951,False,NONE
2019-10-26 10:29:43.280,LG-H970,1572085783289.0,-0.53,9.265,0.844,41.1040582,16.8800951,False,NONE
2019-10-26 10:29:43.300,LG-H970,1572085783308.75,-0.678,10.028,0.249,41.1040582,16.8800951,False,NONE
2019-10-26 10:29:43.320,LG-H970,1572085783328.5,-1.302,10.36,0.547,41.1040582,16.8800951,False,NONE
2019-10-26 10:29:43.340,LG-H970,1572085783348.5,-0.4,9.873,0.752,41.1040582,16.8800951,False,NONE
2019-10-26 10:29:43.360,LG-H970,1572085783368.5,-0.123,9.361,1.047,41.1040582,16.8800951,False,NONE
2019-10-26 10:29:43.380,LG-H970,1572085783388.0,-0.863,10.049,0.528,41.1040582,16.8800951,False,NONE
2019-10-26 10:29:43.400,LG-H970,1572085783408.0,-1.34,10.666,0.237,41.1040582,16.8800951,False,NONE
2019-10-26 10:29:43.420,LG-H970,1572085783430.0,-0.224,9.925,0.934,41.1040582,16.8800951,False,NONE
2019-10-26 10:29:43.440,LG-H970,1572085783451.5,0.256,9.78,1.088,41.1040582,16.8800951,False,NONE
2019-10-26 10:29:43.460,LG-H970,1572085783471.0,-0.552,9.924,0.431,41.1040582,16.8800951,False,NONE
2019-10-26 10:29:43.480,LG-H970,1572085783492.5,-1.467,10.52,0.364,41.1040582,16.8800951,False,NONE
2019-10-26 10:29:43.500,LG-H970,1572085783511.25,-0.484,10.14,0.415,41.1040582,16.8800951,False,NONE
2019-10-26 10:29:43.520,LG-H970,1572085783530.0,1.088,9.771,1.342,41.1040582,16.8800951,False,NONE
2019-10-26 10:29:43.540,LG-H970,1572085783550.5,0.444,9.435,1.02,41.1040582,16.8800951,False,NONE
