UTC_timestamp,device_name,timestamp,x,y,z,lat,long,event,speed
2019-10-26 10:29:30.840,LG-H970,1572085770849.25,2.049,7.759,-0.253,41.1039867,16.8796145,False,NONE
2019-10-26 10:29:30.860,LG-H970,1572085770868.0,1.15,7.459,-0.625,41.1039867,16.8796145,False,NONE
2019-10-26 10:29:30.880,LG-H970,1572085770890.6,-1.186,8.833,-1.897,41.1039867,16.8796145,False,NONE
2019-10-26 10:29:30.900,LG-H970,1572085770909.6667,0.098,9.403,-2.106,41.1039867,16.8796145,False,NONE
2019-10-26 10:29:30.920,LG-H970,1572085770927.75,2.043,7.902,-0.239,41.1039867,16.8796145,False,NONE
2019-10-26 10:29:30.940,LG-H970,1572085770949.6,3.275,7.828,0.159,41.1039867,16.8796145,False,NONE
2019-10-26 10:29:30.960,LG-H970,1572085770971.75,1.034,9.804,-1.498,41.1039867,16.8796145,False,NONE
2019-10-26 10:29:30.980,LG-H970,1572085770991.5,-1.669,10.759,-2.884,41.1039867,16.8796145,False,NONE
2019-10-26 10:29:31.000,LG-H970,1572085771011.5,-0.863,11.147,-1.799,41.1039867,16.8796145,False,NONE
2019-10-26 10:29:31.020,LG-H970,1572085771030.5,0.583,8.657,-0.702,41.1039867,16.8796145,False,NONE
2019-10-26 10:29:31.040,LG-H970,1572085771051.25,0.847,7.859,-0.892,41.1039867,16.8796145,False,NONE
2019-10-26 10:29:31.060,LG-H970,1572085771072.0,-1.628,9.545,-2.002,41.1039867,16.8796145,False,NONE
2019-10-26 10:29:31.080,LG-H970,1572085771089.75,-3.925,9.97,-2.271,41.1039867,16.8796145,False,NONE
2019-10-26 10:29:31.100,LG-H970,1572085771109.75,-1.198,9.766,-0.258,41.1039867,16.8796145,False,NONE
2019-10-26 10:29:31.120,LG-H970,1572085771129.0,0.445,8.296,0.692,41.1039867,16.8796145,False,NONE
2019-10-26 10:29:31.140,LG-H970,1572085771149.5,1.417,11.027,0.977,41.1039867,16.8796145,False,NONE
2019-10-26 10:29:31.160,LG-H970,1572085771169.25,-0.569,10.672,0.172,41.1039867,16.8796145,False,NONE
2019-10-26 10:29:31.180,LG-H970,1572085771189.75,0.694,9.713,0.586,41.1039867,16.8796145,False,NONE
2019-10-26 10:29:31.200,LG-H970,1572085771209.0,1.375,8.774,-1.7,41.1039867,16.8796145,False,NONE
2019-10-26 10:29:31.220,LG-H970,1572085771227.5,-1.825,9.247,-0.88,41.1039867,16.8796145,False,NONE
2019-10-26 10:29:31.240,LG-H970,1572085771247.75,-3.557,11.257,-2.524,41.1039867,16.8796145,False,NONE
2019-10-26 10:29:31.260,LG-H970,1572085771270.2,-1.174,11.374,-0.992,41.1039867,16.8796145,False,NONE
2019-10-26 10:29:31.280,LG-H970,1572085771291.75,-0.741,8.021,1.446,41.1039867,16.8796145,False,NONE
2019-10-26 10:29:31.300,LG-H970,1572085771311.0,-2.738,10.254,-2.637,41.1039867,16.8796145,False,NONE
2019-10-26 10:29:31.320,LG-H970,1572085771330.5,-5.13,12.13,-4.441,41.1039867,16.8796145,False,NONE
2019-10-26 10:29:31.340,LG-H970,1572085771351.0,-2.646,10.377,-0.923,41.1039867,16.8796145,False,NONE
2019-10-26 10:29:31.360,LG-H970,1572085771370.75,2.37,8.182,2.202,41.1039867,16.8796145,False,NONE
2019-10-26 10:29:31.380,LG-H970,1572085771391.25,-0.186,9.505,2.469,41.1039867,16.8796145,False,NONE
2019-10-26 10:29:31.400,LG-H970,1572085771410.5,-4.824,14.073,-5.029,41.1039867,16.8796145,False,NONE
2019-10-26 10:29:31.420,LG-H970,1572085771430.0,-4.627,13.436,-9.096,41.1039867,16.8796145,False,NONE
2019-10-26 10:29:31.440,LG-H970,1572085771449.5,2.741,7.218,1.622,41.1039867,16.8796145,False,NONE
2019-10-26 10:29:31.460,LG-H970,1572085771469.5,8.245,5.761,2.214,41.1039867,16.8796145,False,NONE
2019-10-26 10:29:31.480,LG-H970,1572085771489.0,-0.262,10.89,-2.091,41.1039867,16.8796145,False,NONE
2019-10-26 10:29:31.500,LG-H970,1572085771509.75,-5.069,15.786,-3.224,41.1039867,16.8796145,False,NONE
2019-10-26 10:29:31.520,LG-H970,1572085771528.75,-1.805,9.609,-2.842,41.1039867,16.8796145,False,NONE
2019-10-26 10:29:31.540,LG-H970,1572085771548.75,6.937,6.867,4.763,41.1039867,16.8796145,False,NONE
2019-10-26 10:29:31.560,LG-H970,1572085771569.75,5.284,6.693,1.913,41.1039867,16.8796145,False,NONE
2019-10-26 10:29:31.580,LG-H970,1572085771587.5,-1.978,12.211,-2.778,41.1039867,16.8796145,False,NONE
2019-10-26 10:29:31.600,LG-H970,1572085771609.6,-3.082,12.184,-1.434,41.1039867,16.8796145,False,NONE
2019-10-26 10:29:31.620,LG-H970,1572085771631.5,2.2,5.779,3.253,41.1039867,16.8796145,False,NONE
2019-10-26 10:29:31.640,LG-H970,1572085771651.5,3.684,5.91,4.12,41.1039867,16.8796145,False,NONE
2019-10-26 10:29:31.660,LG-H970,1572085771671.25,-1.587,9.511,-1.181,41.1039867,16.8796145,False,NONE
2019-10-26 10:29:31.680,LG-H970,1572085771691.75,-5.776,12.415,-2.396,41.1039867,16.8796145,False,NONE
2019-10-26 10:29:31.700,LG-H970,1572085771710.5,-2.571,10.734,1.932,41.1039867,16.8796145,False,NONE
2019-10-26 10:29:31.720,LG-H970,1572085771730.5,1.585,7.938,2.325,41.1039867,16.8796145,False,NONE
2019-10-26 10:29:31.740,LG-H970,1572085771750.5,-0.168,8.682,0.31,41.1039867,16.8796145,False,NONE
2019-10-26 10:29:31.760,LG-H970,1572085771770.5,-4.695,10.352,-3.824,41.1039867,16.8796145,False,NONE
2019-10-26 10:29:31.780,LG-H970,1572085771789.5,-4.066,10.709,-2.62,41.1039867,16.8796145,False,NONE
2019-10-26 10:29:31.800,LG-H970,1572085771809.5,0.572,8.441,0.369,41.1039867,16.8796145,False,NONE
2019-10-26 10:29:31.820,LG-H970,1572085771829.25,2.291,9.05,1.868,41.1039867,16.8796145,False,NONE
2019-10-26 10:29:31.840,LG-H970,1572085771849.25,-1.15,11.106,-3.658,41.1039867,16.8796145,False,NONE
2019-10-26 10:29:31.860,LG-H970,1572085771869.0,-3.59,10.6,-3.428,41.1039867,16.8796145,False,NONE
2019-10-26 10:29:31.880,LG-H970,1572085771889.5,0.09,8.667,-3.162,41.1039867,16.8796145,False,NONE
2019-10-26 10:29:31.900,LG-H970,1572085771908.5,2.512,8.588,-0.619,41.1039867,16.8796145,False,NONE
2019-10-26 10:29:31.920,LG-H970,1572085771928.5,0.31,11.287,-0.935,41.1039867,16.8796145,False,NONE
2019-10-26 10:29:31.940,LG-H970,1572085771948.25,-2.597,11.866,-2.646,41.1039867,16.8796145,False,NONE
2019-10-26 10:29:31.960,LG-H970,1572085771968.25,-0.763,10.724,-1.021,41.1039867,16.8796145,False,NONE
2019-10-26 10:29:31.980,LG-H970,1572085771984.5,1.252,8.319,-1.097,41.1039867,16.8796145,False,NONE
2019-10-26 10:29:32.000,LG-H970,1572085772012.0,-1.524,9.002,-1.189,41.1039867,16.8796145,False,NONE
2019-10-26 10:29:32.020,LG-H970,1572085772030.75,-3.909,11.376,-2.271,41.1039867,16.8796145,False,NONE
2019-10-26 10:29:32.040,LG-H970,1572085772050.25,-2.222,11.749,0.463,41.1039867,16.8796145,False,NONE
2019-10-26 10:29:32.060,LG-H970,1572085772070.0,0.454,10.102,1.461,41.1039867,16.8796145,False,NONE
2019-10-26 10:29:32.080,LG-H970,1572085772089.75,-0.079,10.531,2.213,41.1039867,16.8796145,False,NONE
2019-10-26 10:29:32.100,LG-H970,1572085772109.75,-1.917,10.935,-2.109,41.1039867,16.8796145,False,NONE
2019-10-26 10:29:32.120,LG-H970,1572085772129.75,-1.756,11.019,-1.414,41.1039867,16.8796145,False,NONE
2019-10-26 10:29:32.140,LG-H970,1572085772149.75,0.112,9.271,0.873,41.1039867,16.8796145,False,NONE
2019-10-26 10:29:32.160,LG-H970,1572085772169.25,0.818,10.351,2.204,41.1039867,16.8796145,False,NONE
2019-10-26 10:29:32.180,LG-H970,1572085772189.25,-1.472,11.728,0.657,41.1039867,16.8796145,False,NONE
2019-10-26 10:29:32.200,LG-H970,1572085772208.5,-2.944,11.515,-1.362,41.1039867,16.8796145,False,NONE
2019-10-26 10:29:32.220,LG-H970,1572085772228.0,0.169,9.415,-0.92,41.1039867,16.8796145,False,NONE
2019-10-26 10:29:32.240,LG-H970,1572085772247.75,3.001,6.77,-0.419,41.1039867,16.8796145,False,NONE
2019-10-26 10:29:32.260,LG-H970,1572085772268.75,1.682,8.098,0.133,41.1039867,16.8796145,False,NONE
2019-10-26 10:29:32.280,LG-H970,1572085772287.75,-1.065,9.872,-2.39,41.1039867,16.8796145,False,NONE
2019-10-26 10:29:32.300,LG-H970,1572085772309.4,-1.528,10.848,-0.748,41.1039867,16.8796145,False,NONE
2019-10-26 10:29:32.320,LG-H970,1572085772332.0,0.953,8.126,-0.085,41.1039867,16.8796145,False,NONE
2019-10-26 10:29:32.340,LG-H970,1572085772351.5,2.122,8.475,0.292,41.1039867,16.8796145,False,NONE
2019-10-26 10:29:32.360,LG-H970,1572085772371.0,-0.754,9.028,-1.926,41.1039867,16.8796145,False,NONE
2019-10-26 10:29:32.380,LG-H970,1572085772390.5,-2.263,10.871,-1.578,41.1039867,16.8796145,False,NONE
2019-10-26 10:29:32.400,LG-H970,1572085772410.5,-1.221,10.052,-1.343,41.1039867,16.8796145,False,NONE
2019-10-26 10:29:32.420,LG-H970,1572085772430.25,-0.421,8.644,0.024,41.1039867,16.8796145,False,NONE
2019-10-26 10:29:32.440,LG-H970,1572085772449.75,-0.654,8.145,-1.443,41.1039867,16.8796145,False,NONE
2019-10-26 10:29:32.460,LG-H970,1572085772470.5,-1.449,9.867,-2.171,41.1039867,16.8796145,False,NONE
2019-10-26 10:29:32.480,LG-H970,1572085772490.25,-1.671,10.337,-1.149,41.1039867,16.8796145,False,NONE
2019-10-26 10:29:32.500,LG-H970,1572085772510.0,-0.432,10.769,0.137,41.1039867,16.8796145,False,NONE
2019-10-26 10:29:32.520,LG-H970,1572085772529.75,-0.497,10.875,0.569,41.1039867,16.8796145,False,NONE
2019-10-26 10:29:32.540,LG-H970,1572085772549.75,-1.349,9.645,-2.05,41.1039867,16.8796145,False,NONE
2019-10-26 10:29:32.560,LG-H970,1572085772570.25,-1.18,9.876,-1.315,41.1039867,16.8796145,False,NONE
2019-10-26 10:29:32.580,LG-H970,1572085772587.75,-0.32,9.171,-0.714,41.1039867,16.8796145,False,NONE
2019-10-26 10:29:32.600,LG-H970,1572085772608.0,-0.88,10.271,0.953,41.1039867,16.8796145,False,NONE
2019-10-26 10:29:32.620,LG-H970,1572085772627.75,-1.665,11.149,-1.597,41.1039867,16.8796145,False,NONE
2019-10-26 10:29:32.640,LG-H970,1572085772647.5,-1.267,10.553,-1.907,41.1039867,16.8796145,False,NONE
2019-10-26 10:29:32.660,LG-H970,1572085772667.25,0.427,8.463,0.091,41.1039867,16.8796145,False,NONE
2019-10-26 10:29:32.680,LG-H970,1572085772689.4,-0.552,8.864,0.26,41.1039867,16.8796145,False,NONE
2019-10-26 10:29:32.700,LG-H970,1572085772711.0,-4.876,11.473,-0.625,41.1039867,16.8796145,False,NONE
2019-10-26 10:29:32.720,LG-H970,1572085772730.5,-3.227,11.47,-2.187,41.1039867,16.8796145,False,NONE
2019-10-26 10:29:32.740,LG-H970,1572085772750.75,1.354,10.235,0.816,41.1039867,16.8796145,False,NONE
2019-10-26 10:29:32.760,LG-H970,1572085772770.5,2.083,8.655,-0.175,41.1039867,16.8796145,False,NONE
2019-10-26 10:29:32.780,LG-H970,1572085772790.5,-0.851,10.276,-1.861,41.1039867,16.8796145,False,NONE
2019-10-26 10:29:32.800,LG-H970,1572085772810.5,-0.078,11.456,-1.036,41.1039867,16.8796145,False,NONE
2019-10-26 10:29:32.820,LG-H970,1572085772830.25,1.061,9.805,-0.162,41.1039867,16.8796145,False,NONE
2019-10-26 10:29:32.840,LG-H970,1572085772850.0,1.558,9.617,0.444,41.1039867,16.8796145,False,NONE
2019-10-26 10:29:32.860,LG-H970,1572085772869.25,0.434,8.728,-2.309,41.1039867,16.8796145,False,NONE
2019-10-26 10:29:32.880,LG-H970,1572085772889.5,-0.759,10.047,-1.393,41.1039867,16.8796145,False,NONE
2019-10-26 10:29:32.900,LG-H970,1572085772908.5,-0.287,10.346,-2.251,41.1039867,16.8796145,False,NONE
2019-10-26 10:29:32.920,LG-H970,1572085772929.0,1.128,8.922,1.627,41.1039867,16.8796145,False,NONE
2019-10-26 10:29:32.940,LG-H970,1572085772949.0,1.599,8.963,0.514,41.1039867,16.8796145,False,NONE
2019-10-26 10:29:32.960,LG-H970,1572085772967.75,-0.902,11.187,-1.464,41.1039867,16.8796145,False,NONE
2019-10-26 10:29:32.980,LG-H970,1572085772987.5,-1.972,11.08,-1.575,41.1039867,16.8796145,False,NONE
2019-10-26 10:29:33.000,LG-H970,1572085773007.5,-0.128,9.083,-0.019,41.1039867,16.8796145,False,NONE
2019-10-26 10:29:33.020,LG-H970,1572085773030.0,1.514,8.987,0.737,41.1039867,16.8796145,False,NONE
2019-10-26 10:29:33.040,LG-H970,1572085773049.0,-0.452,10.289,-0.236,41.1039867,16.8796145,False,NONE
2019-10-26 10:29:33.060,LG-H970,1572085773069.8,-2.459,11.507,-1.847,41.1039867,16.8796145,False,NONE
2019-10-26 10:29:33.080,LG-H970,1572085773090.5,-0.417,10.77,-0.353,41.1039867,16.8796145,False,NONE
2019-10-26 10:29:33.100,LG-H970,1572085773110.5,1.58,8.955,1.35,41.1039867,16.8796145,False,NONE
2019-10-26 10:29:33.120,LG-H970,1572085773131.0,-0.213,9.272,0.332,41.1039867,16.8796145,False,NONE
2019-10-26 10:29:33.140,LG-H970,1572085773150.5,-3.199,10.394,-2.479,41.1039867,16.8796145,False,NONE
2019-10-26 10:29:33.160,LG-H970,1572085773169.5,-2.529,10.762,-2.09,41.1039867,16.8796145,False,NONE
2019-10-26 10:29:33.180,LG-H970,1572085773189.25,-0.558,9.13,-1.603,41.1039867,16.8796145,False,NONE
2019-10-26 10:29:33.200,LG-H970,1572085773209.25,0.653,9.074,1.439,41.1039867,16.8796145,False,NONE
2019-10-26 10:29:33.220,LG-H970,1572085773228.5,-0.222,9.366,-0.48,41.1039867,16.8796145,False,NONE
2019-10-26 10:29:33.240,LG-H970,1572085773248.75,-3.13,10.825,-1.691,41.1039867,16.8796145,False,NONE
2019-10-26 10:29:33.260,LG-H970,1572085773269.25,-2.376,10.632,-2.314,41.1039867,16.8796145,False,NONE
2019-10-26 10:29:33.280,LG-H970,1572085773289.0,0.282,7.701,-0.672,41.1039867,16.8796145,False,NONE
2019-10-26 10:29:33.300,LG-H970,1572085773309.75,1.298,8.107,1.077,41.1039867,16.8796145,False,NONE
2019-10-26 10:29:33.320,LG-H970,1572085773330.4,-1.686,10.202,-1.808,41.1039867,16.8796145,False,NONE
2019-10-26 10:29:33.340,LG-H970,1572085773349.3333,-3.95,11.346,-0.09,41.1039867,16.8796145,False,NONE
2019-10-26 10:29:33.360,LG-H970,1572085773369.6,-1.328,9.621,-0.99,41.1039867,16.8796145,False,NONE
2019-10-26 10:29:33.380,LG-H970,1572085773391.0,0.984,10.437,0.637,41.1039867,16.8796145,False,NONE
2019-10-26 10:29:33.400,LG-H970,1572085773411.5,-1.41,9.53,-1.232,41.1039867,16.8796145,False,NONE
2019-10-26 10:29:33.420,LG-H970,1572085773431.0,-0.386,10.787,-1.337,41.1039867,16.8796145,False,NONE
2019-10-26 10:29:33.440,LG-H970,1572085773451.0,-0.645,8.178,-0.842,41.1039867,16.8796145,False,NONE
2019-10-26 10:29:33.460,LG-H970,1572085773470.75,1.565,9.712,-0.335,41.1039867,16.8796145,False,NONE
2019-10-26 10:29:33.480,LG-H970,1572085773490.25,0.773,9.71,-0.567,41.1039867,16.8796145,False,NONE
2019-10-26 10:29:33.500,LG-H970,1572085773509.75,-0.632,10.894,-0.097,41.1039867,16.8796145,False,NONE
2019-10-26 10:29:33.520,LG-H970,1572085773529.5,-0.056,10.654,-1.031,41.1039867,16.8796145,False,NONE
2019-10-26 10:29:33.540,LG-H970,1572085773549.5,1.738,9.166,-0.665,41.1039867,16.8796145,False,NONE
2019-10-26 10:29:33.560,LG-H970,1572085773568.3333,1.031,8.437,-0.351,41.1039867,16.8796145,False,NONE
2019-10-26 10:29:33.580,LG-H970,1572085773589.0,0.225,10.392,-1.533,41.1039867,16.8796145,False,NONE
2019-10-26 10:29:33.600,LG-H970,1572085773608.25,-0.054,10.236,-0.745,41.1039867,16.8796145,False,NONE
2019-10-26 10:29:33.620,LG-H970,1572085773628.0,0.725,9.855,-0.866,41.1039867,16.8796145,False,NONE
2019-10-26 10:29:33.640,LG-H970,1572085773648.5,0.764,9.306,0.034,41.1039867,16.8796145,False,NONE
2019-10-26 10:29:33.660,LG-H970,1572085773667.5,-0.465,9.32,-1.604,41.1039867,16.8796145,False,NONE
2019-10-26 10:29:33.680,LG-H970,1572085773688.0,-1.383,9.933,-1.048,41.1039867,16.8796145,False,NONE
2019-10-26 10:29:33.700,LG-H970,1572085773709.2,-0.456,9.487,-0.91,41.1039867,16.8796145,False,NONE
2019-10-26 10:29:33.720,LG-H970,1572085773731.5,0.451,9.832,-0.141,41.1039867,16.8796145,False,NONE
2019-10-26 10:29:33.740,LG-H970,1572085773751.5,-1.106,9.458,-1.393,41.1039867,16.8796145,False,NONE
2019-10-26 10:29:33.760,LG-H970,1572085773771.25,-1.347,9.982,-1.208,41.1039867,16.8796145,False,NONE
2019-10-26 10:29:33.780,LG-H970,1572085773790.75,-0.305,9.945,-0.361,41.1039867,16.8796145,False,NONE
2019-10-26 10:29:33.800,LG-H970,1572085773810.75,-0.646,8.979,0.464,41.1039867,16.8796145,False,NONE
2019-10-26 10:29:33.820,LG-H970,1572085773830.5,-1.023,9.977,-0.508,41.1039867,16.8796145,False,NONE
2019-10-26 10:29:33.840,LG-H970,1572085773850.0,-1.533,10.318,-1.834,41.1039867,16.8796145,False,NONE
2019-10-26 10:29:33.860,LG-H970,1572085773869.5,-0.119,9.894,-0.272,41.1039867,16.8796145,False,NONE
2019-10-26 10:29:33.880,LG-H970,1572085773889.5,0.288,8.193,-0.364,41.1039867,16.8796145,False,NONE
2019-10-26 10:29:33.900,LG-H970,1572085773909.5,-0.292,9.527,0.515,41.1039867,16.8796145,False,NONE
2019-10-26 10:29:33.920,LG-H970,1572085773929.5,-1.613,9.822,-0.995,41.1039867,16.8796145,False,NONE
2019-10-26 10:29:33.940,LG-H970,1572085773948.75,-0.787,10.779,-0.304,41.1039867,16.8796145,False,NONE
2019-10-26 10:29:33.960,LG-H970,1572085773967.75,0.072,9.806,-0.457,41.1039867,16.8796145,False,NONE
2019-10-26 10:29:33.980,LG-H970,1572085773988.25,0.485,10.21,0.252,41.1039867,16.8796145,False,NONE
2019-10-26 10:29:34.000,LG-H970,1572085774008.0,-0.463,9.944,-1.363,41.1039867,16.8796145,False,NONE
2019-10-26 10:29:34.020,LG-H970,1572085774027.75,-0.924,8.841,-2.062,41.1039867,16.8796145,False,NONE
2019-10-26 10:29:34.040,LG-H970,1572085774047.75,0.849,8.972,-0.997,41.1039867,16.8796145,False,NONE
2019-10-26 10:29:34.060,LG-H970,1572085774067.0,0.351,8.363,-0.069,41.1039867,16.8796145,False,NONE
2019-10-26 10:29:34.080,LG-H970,1572085774090.2,-0.54,11.399,0.361,41.1039867,16.8796145,False,NONE
2019-10-26 10:29:34.100,LG-H970,1572085774110.75,-1.899,11.547,-0.445,41.1039867,16.8796145,False,NONE
2019-10-26 10:29:34.120,LG-H970,1572085774130.5,-0.618,11.183,-1.384,41.1039867,16.8796145,False,NONE
2019-10-26 10:29:34.140,LG-H970,1572085774150.25,0.004,8.876,-0.554,41.1039867,16.8796145,False,NONE
2019-10-26 10:29:34.160,LG-H970,1572085774170.25,1.076,9.47,-0.179,41.1039867,16.8796145,False,NONE
2019-10-26 10:29:34.180,LG-H970,1572085774190.5,-0.231,10.322,-0.337,41.1039867,16.8796145,False,NONE
2019-10-26 10:29:34.200,LG-H970,1572085774210.0,-1.555,12.037,-0.295,41.1039867,16.8796145,False,NONE
2019-10-26 10:29:34.220,LG-H970,1572085774229.75,-1.046,10.167,-0.716,41.1039867,16.8796145,False,NONE
2019-10-26 10:29:34.240,LG-H970,1572085774249.5,1.013,8.533,-0.629,41.1039867,16.8796145,False,NONE
2019-10-26 10:29:34.260,LG-H970,1572085774269.25,1.022,9.378,-0.455,41.1039867,16.8796145,False,NONE
2019-10-26 10:29:34.280,LG-H970,1572085774288.75,-1.773,10.601,-0.146,41.1039867,16.8796145,False,NONE
2019-10-26 10:29:34.300,LG-H970,1572085774308.5,-1.932,10.868,-1.255,41.1039867,16.8796145,False,NONE
2019-10-26 10:29:34.320,LG-H970,1572085774328.75,-0.087,9.059,-0.444,41.1039867,16.8796145,False,NONE
2019-10-26 10:29:34.340,LG-H970,1572085774348.0,2.717,8.13,-1.311,41.1039867,16.8796145,False,NONE
2019-10-26 10:29:34.360,LG-H970,1572085774368.0,1.223,6.732,-1.012,41.1039867,16.8796145,False,NONE
2019-10-26 10:29:34.380,LG-H970,1572085774388.0,1.18,9.813,-1.368,41.1039867,16.8796145,False,NONE
2019-10-26 10:29:34.400,LG-H970,1572085774409.4,-0.954,10.691,0.056,41.1039867,16.8796145,False,NONE
2019-10-26 10:29:34.420,LG-H970,1572085774432.0,-0.462,11.71,0.446,41.1039867,16.8796145,False,NONE
2019-10-26 10:29:34.440,LG-H970,1572085774451.75,-0.685,10.228,0.191,41.1039867,16.8796145,False,NONE
2019-10-26 10:29:34.460,LG-H970,1572085774471.0,1.77,11.187,-0.583,41.1039867,16.8796145,False,NONE
2019-10-26 10:29:34.480,LG-H970,1572085774491.0,0.494,9.448,-0.271,41.1039867,16.8796145,False,NONE
2019-10-26 10:29:34.500,LG-H970,1572085774510.5,-0.879,11.312,0.776,41.1039867,16.8796145,False,NONE
2019-10-26 10:29:34.520,LG-H970,1572085774530.5,-1.277,10.608,-1.182,41.1039867,16.8796145,False,NONE
2019-10-26 10:29:34.540,LG-H970,1572085774550.0,1.165,11.499,0.622,41.1039867,16.8796145,False,NONE
2019-10-26 10:29:34.560,LG-H970,1572085774570.0,0.205,7.744,-1.257,41.1039867,16.8796145,False,NONE
2019-10-26 10:29:34.580,LG-H970,1572085774589.0,0.251,10.528,0.226,41.1039867,16.8796145,False,NONE
2019-10-26 10:29:34.600,LG-H970,1572085774608.75,0.475,9.006,-2.343,41.1039867,16.8796145,False,NONE
2019-10-26 10:29:34.620,LG-H970,1572085774628.75,2.95,9.687,0.138,41.1039867,16.8796145,False,NONE
2019-10-26 10:29:34.640,LG-H970,1572085774648.25,2.765,7.146,-1.001,41.1039867,16.8796145,False,NONE
2019-10-26 10:29:34.660,LG-H970,1572085774668.0,-0.52,8.718,0.212,41.1039867,16.8796145,False,NONE
2019-10-26 10:29:34.680,LG-H970,1572085774688.5,-0.886,11.008,-2.471,41.1039867,16.8796145,False,NONE
2019-10-26 10:29:34.700,LG-H970,1572085774707.5,-0.181,10.097,-1.752,41.1039867,16.8796145,False,NONE
2019-10-26 10:29:34.720,LG-H970,1572085774727.25,0.648,8.083,1.168,41.1039867,16.8796145,False,NONE
2019-10-26 10:29:34.740,LG-H970,1572085774749.6,0.901,7.678,-1.759,41.1039867,16.8796145,False,NONE
2019-10-26 10:29:34.760,LG-H970,1572085774771.5,-0.633,9.216,-1.217,41.1039867,16.8796145,False,NONE
2019-10-26 10:29:34.780,LG-H970,1572085774791.75,-0.149,10.59,-2.296,41.1039867,16.8796145,False,NONE
2019-10-26 10:29:34.800,LG-H970,1572085774811.75,-1.286,9.806,0.644,41.1039867,16.8796145,False,NONE
2019-10-26 10:29:34.820,LG-H970,1572085774831.25,-2.466,9.863,0.766,41.1039867,16.8796145,False,NONE
2019-10-26 10:29:34.840,LG-H970,1572085774850.5,-1.795,10.922,-1.05,41.1039867,16.8796145,False,NONE
2019-10-26 10:29:34.860,LG-H970,1572085774870.5,-1.739,10.915,-0.698,41.1039867,16.8796145,False,NONE
2019-10-26 10:29:34.880,LG-H970,1572085774890.25,-1.657,9.622,0.009,41.1039867,16.8796145,False,NONE
2019-10-26 10:29:34.900,LG-H970,1572085774910.5,-2.197,10.51,0.167,41.1039867,16.8796145,False,NONE
2019-10-26 10:29:34.920,LG-H970,1572085774930.25,-1.751,11.968,-0.458,41.1039867,16.8796145,False,NONE
2019-10-26 10:29:34.940,LG-H970,1572085774950.25,-0.733,11.65,0.579,41.1039867,16.8796145,False,NONE
2019-10-26 10:29:34.960,LG-H970,1572085774969.25,-1.268,8.992,1.374,41.1039867,16.8796145,False,NONE
2019-10-26 10:29:34.980,LG-H970,1572085774988.75,0.431,9.661,0.083,41.1039867,16.8796145,False,NONE
2019-10-26 10:29:35.000,LG-H970,1572085775008.75,-0.723,10.323,-1.794,41.1039867,16.8796145,False,NONE
2019-10-26 10:29:35.020,LG-H970,1572085775028.5,-2.508,11.169,-0.657,41.1039867,16.8796145,False,NONE
2019-10-26 10:29:35.040,LG-H970,1572085775048.5,-2.271,11.582,-0.404,41.1039867,16.8796145,False,NONE
2019-10-26 10:29:35.060,LG-H970,1572085775068.0,3.716,13.479,5.438,41.1039867,16.8796145,False,NONE
2019-10-26 10:29:35.080,LG-H970,1572085775088.0,-5.306,13.708,0.176,41.1039867,16.8796145,False,NONE
2019-10-26 10:29:35.100,LG-H970,1572085775110.2,-9.56,16.145,-5.187,41.1039867,16.8796145,False,NONE
2019-10-26 10:29:35.120,LG-H970,1572085775131.25,2.46,8.433,0.121,41.1039867,16.8796145,False,NONE
2019-10-26 10:29:35.140,LG-H970,1572085775151.25,7.658,2.169,4.92,41.1039867,16.8796145,False,NONE
2019-10-26 10:29:35.160,LG-H970,1572085775171.25,1.39,11.043,-0.631,41.1039867,16.8796145,False,NONE
2019-10-26 10:29:35.180,LG-H970,1572085775191.0,-4.883,15.712,-5.769,41.1039867,16.8796145,False,NONE
2019-10-26 10:29:35.200,LG-H970,1572085775210.75,-1.815,9.969,-3.213,41.1039867,16.8796145,False,NONE
2019-10-26 10:29:35.220,LG-H970,1572085775230.5,8.177,5.683,5.819,41.1039867,16.8796145,False,NONE
2019-10-26 10:29:35.240,LG-H970,1572085775250.5,5.945,5.193,1.266,41.1039867,16.8796145,False,NONE
2019-10-26 10:29:35.260,LG-H970,1572085775270.5,-0.928,10.046,-5.549,41.1039867,16.8796145,False,NONE
2019-10-26 10:29:35.280,LG-H970,1572085775290.0,-0.432,11.617,-1.047,41.1039867,16.8796145,False,NONE
2019-10-26 10:29:35.300,LG-H970,1572085775309.25,4.988,6.702,0.061,41.1039867,16.8796145,False,NONE
2019-10-26 10:29:35.320,LG-H970,1572085775329.75,5.484,5.619,2.549,41.1039867,16.8796145,False,NONE
2019-10-26 10:29:35.340,LG-H970,1572085775350.75,3.288,9.204,1.003,41.1039867,16.8796145,False,NONE
2019-10-26 10:29:35.360,LG-H970,1572085775367.75,-1.836,8.392,-3.119,41.1039867,16.8796145,False,NONE
2019-10-26 10:29:35.380,LG-H970,1572085775388.0,0.8,11.435,-0.414,41.1039867,16.8796145,False,NONE
2019-10-26 10:29:35.400,LG-H970,1572085775407.5,2.16,7.179,0.688,41.1039867,16.8796145,False,NONE
2019-10-26 10:29:35.420,LG-H970,1572085775430.8,2.485,7.74,-0.144,41.1039867,16.8796145,False,NONE
2019-10-26 10:29:35.440,LG-H970,1572085775449.3333,-0.866,8.445,-2.568,41.1039867,16.8796145,False,NONE
2019-10-26 10:29:35.460,LG-H970,1572085775467.25,-1.447,10.283,-1.238,41.1039867,16.8796145,False,NONE
2019-10-26 10:29:35.480,LG-H970,1572085775490.2,0.095,9.768,0.363,41.1040439,16.879999,False,NONE
2019-10-26 10:29:35.500,LG-H970,1572085775509.5,0.004,10.262,0.438,41.1040582,16.8800951,False,NONE
2019-10-26 10:29:35.520,LG-H970,1572085775529.5,-1.789,10.961,-0.905,41.1040582,16.8800951,False,NONE
2019-10-26 10:29:35.540,LG-H970,1572085775549.75,-3.107,11.044,-0.948,41.1040582,16.8800951,False,NONE
2019-10-26 10:29:35.560,LG-H970,1572085775570.0,-2.529,10.48,-0.385,41.1040582,16.8800951,False,NONE
2019-10-26 10:29:35.580,LG-H970,1572085775589.5,0.469,11.032,0.917,41.1040582,16.8800951,False,NONE
2019-10-26 10:29:35.600,LG-H970,1572085775609.25,-1.016,10.831,0.805,41.1040582,16.8800951,False,NONE
2019-10-26 10:29:35.620,LG-H970,1572085775629.25,-4.63,11.112,1.627,41.1040582,16.8800951,False,NONE
2019-10-26 10:29:35.640,LG-H970,1572085775649.0,0.367,12.66,-1.02,41.1040582,16.8800951,False,NONE
2019-10-26 10:29:35.660,LG-H970,1572085775669.75,-5.211,9.135,-3.821,41.1040582,16.8800951,False,NONE
2019-10-26 10:29:35.680,LG-H970,1572085775688.75,-8.295,11.661,-2.678,41.1040582,16.8800951,False,NONE
2019-10-26 10:29:35.700,LG-H970,1572085775708.0,-0.788,9.263,-0.806,41.1040582,16.8800951,False,NONE
2019-10-26 10:29:35.720,LG-H970,1572085775727.75,4.423,7.641,6.67,41.1040582,16.8800951,False,NONE
2019-10-26 10:29:35.740,LG-H970,1572085775749.8,-3.24,13.15,-1.81,41.1040582,16.8800951,False,NONE
2019-10-26 10:29:35.760,LG-H970,1572085775772.0,-6.378,14.656,-2.233,41.1040582,16.8800951,False,NONE
2019-10-26 10:29:35.780,LG-H970,1572085775791.5,1.388,7.347,0.315,41.1040582,16.8800951,False,NONE
2019-10-26 10:29:35.800,LG-H970,1572085775811.5,8.689,6.63,4.834,41.1040582,16.8800951,False,NONE
2019-10-26 10:29:35.820,LG-H970,1572085775831.0,1.648,9.636,0.163,41.1040582,16.8800951,False,NONE
2019-10-26 10:29:35.840,LG-H970,1572085775850.25,-4.138,14.634,-0.922,41.1040582,16.8800951,True,NONE
2019-10-26 10:29:35.860,LG-H970,1572085775869.75,-0.852,12.239,0.672,41.1040582,16.8800951,True,NONE
2019-10-26 10:29:35.880,LG-H970,1572085775889.5,5.901,7.183,1.661,41.1040582,16.8800951,False,NONE
2019-10-26 10:29:35.900,LG-H970,1572085775909.5,5.7,5.989,1.833,41.1040582,16.8800951,False,NONE
2019-10-26 10:29:35.920,LG-H970,1572085775929.5,1.957,9.658,-2.183,41.1040582,16.8800951,False,NONE
2019-10-26 10:29:35.940,LG-H970,1572085775950.25,-0.486,9.537,-1.607,41.1040582,16.8800951,False,NONE
2019-10-26 10:29:35.960,LG-H970,1572085775969.75,3.18,8.447,1.584,41.1040582,16.8800951,False,NONE
2019-10-26 10:29:35.980,LG-H970,1572085775989.5,4.369,4.934,0.828,41.1040582,16.8800951,False,NONE
2019-10-26 10:29:36.000,LG-H970,1572085776009.25,2.237,8.337,-1.231,41.1040582,16.8800951,False,NONE
2019-10-26 10:29:36.020,LG-H970,1572085776029.0,-2.146,8.512,-1.505,41.1040582,16.8800951,False,NONE
2019-10-26 10:29:36.040,LG-H970,1572085776048.75,0.203,10.868,0.93,41.1040582,16.8800951,False,NONE
2019-10-26 10:29:36.060,LG-H970,1572085776068.25,1.338,10.902,2.986,41.1040582,16.8800951,False,NONE
2019-10-26 10:29:36.080,LG-H970,1572085776089.25,-1.354,10.132,-0.345,41.1040582,16.8800951,False,NONE
2019-10-26 10:29:36.100,LG-H970,1572085776109.4,-2.457,10.079,-2.54,41.1040582,16.8800951,False,NONE
2019-10-26 10:29:36.120,LG-H970,1572085776131.75,-1.701,9.315,0.391,41.1040582,16.8800951,False,NONE
2019-10-26 10:29:36.140,LG-H970,1572085776151.5,0.044,11.167,1.097,41.1040582,16.8800951,False,NONE
2019-10-26 10:29:36.160,LG-H970,1572085776171.75,-4.856,11.379,0.866,41.1040582,16.8800951,False,NONE
2019-10-26 10:29:36.180,LG-H970,1572085776191.5,-5.885,12.654,-1.722,41.1040582,16.8800951,False,NONE
2019-10-26 10:29:36.200,LG-H970,1572085776211.6667,-2.728,10.053,-0.988,41.1040582,16.8800951,False,NONE
2019-10-26 10:29:36.220,LG-H970,1572085776231.25,-0.748,8.932,0.841,41.1040582,16.8800951,False,NONE
2019-10-26 10:29:36.240,LG-H970,1572085776250.5,-4.675,11.003,-0.688,41.1040582,16.8800951,False,NONE
2019-10-26 10:29:36.260,LG-H970,1572085776270.25,-3.244,14.442,-1.182,41.1040582,16.8800951,False,NONE
2019-10-26 10:29:36.280,LG-H970,1572085776290.0,-1.235,9.973,0.139,41.1040582,16.8800951,False,NONE
2019-10-26 10:29:36.300,LG-H970,1572085776309.5,-0.287,10.155,4.159,41.1040582,16.8800951,False,NONE
2019-10-26 10:29:36.320,LG-H970,1572085776329.75,-0.448,12.574,-1.338,41.1040582,16.8800951,False,NONE
2019-10-26 10:29:36.340,LG-H970,1572085776350.25,-5.267,14.228,-0.666,41.1040582,16.8800951,False,NONE
2019-10-26 10:29:36.360,LG-H970,1572085776370.75,-2.84,12.366,0.294,41.1040582,16.8800951,False,NONE
2019-10-26 10:29:36.380,LG-H970,1572085776387.75,1.776,8.34,1.906,41.1040582,16.8800951,False,NONE
2019-10-26 10:29:36.400,LG-H970,1572085776407.5,2.285,9.231,1.463,41.1040582,16.8800951,False,NONE
2019-10-26 10:29:36.420,LG-H970,1572085776429.0,-2.091,10.352,-2.061,41.1040582,16.8800951,False,NONE
2019-10-26 10:29:36.440,LG-H970,1572085776447.25,-3.622,10.654,-0.683,41.1040582,16.8800951,False,NONE
2019-10-26 10:29:36.460,LG-H970,1572085776467.25,0.517,7.768,0.462,41.1040582,16.8800951,False,NONE
2019-10-26 10:29:36.480,LG-H970,1572085776486.75,3.08,6.729,0.998,41.1040582,16.8800951,False,NONE
2019-10-26 10:29:36.500,LG-H970,1572085776509.6,-0.834,7.578,-1.147,41.1040582,16.8800951,False,NONE
2019-10-26 10:29:36.520,LG-H970,1572085776531.25,-0.257,11.021,-1.548,41.1040582,16.8800951,False,NONE
2019-10-26 10:29:36.540,LG-H970,1572085776550.75,3.777,9.652,-0.09,41.1040582,16.8800951,False,NONE
2019-10-26 10:29:36.560,LG-H970,1572085776570.5,3.052,7.761,3.768,41.1040582,16.8800951,False,NONE
2019-10-26 10:29:36.580,LG-H970,1572085776588.6667,0.678,8.915,0.042,41.1040582,16.8800951,False,NONE
2019-10-26 10:29:36.600,LG-H970,1572085776609.0,-0.748,9.126,-2.157,41.1040582,16.8800951,False,NONE
2019-10-26 10:29:36.620,LG-H970,1572085776629.75,2.507,8.311,0.85,41.1040582,16.8800951,False,NONE
2019-10-26 10:29:36.640,LG-H970,1572085776650.0,3.843,7.75,-0.209,41.1040582,16.8800951,False,NONE
2019-10-26 10:29:36.660,LG-H970,1572085776669.75,2.814,11.072,0.904,41.1040582,16.8800951,False,NONE
2019-10-26 10:29:36.680,LG-H970,1572085776689.5,-1.737,9.116,-2.432,41.1040582,16.8800951,False,NONE
2019-10-26 10:29:36.700,LG-H970,1572085776709.0,-0.648,10.171,-1.362,41.1040582,16.8800951,False,NONE
2019-10-26 10:29:36.720,LG-H970,1572085776728.5,2.324,7.914,-1.792,41.1040582,16.8800951,False,NONE
2019-10-26 10:29:36.740,LG-H970,1572085776748.5,1.494,8.953,1.754,41.1040582,16.8800951,False,NONE
2019-10-26 10:29:36.760,LG-H970,1572085776768.25,-0.167,11.094,-0.784,41.1040582,16.8800951,False,NONE
2019-10-26 10:29:36.780,LG-H970,1572085776788.0,-3.152,10.51,-3.1,41.1040582,16.8800951,False,NONE
2019-10-26 10:29:36.800,LG-H970,1572085776807.5,-1.289,10.075,0.397,41.1040582,16.8800951,False,NONE
2019-10-26 10:29:36.820,LG-H970,1572085776829.4,1.384,8.405,-0.334,41.1040582,16.8800951,False,NONE
2019-10-26 10:29:36.840,LG-H970,1572085776851.75,-0.867,11.604,1.573,41.1040582,16.8800951,False,NONE
2019-10-26 10:29:36.860,LG-H970,1572085776869.6667,-2.814,11.713,-3.405,41.1040582,16.8800951,False,NONE
2019-10-26 10:29:36.880,LG-H970,1572085776889.2,-2.641,11.094,-1.029,41.1040582,16.8800951,False,NONE
2019-10-26 10:29:36.900,LG-H970,1572085776911.25,1.455,8.194,-0.102,41.1040582,16.8800951,False,NONE
2019-10-26 10:29:36.920,LG-H970,1572085776930.5,-0.022,8.305,0.753,41.1040582,16.8800951,False,NONE
2019-10-26 10:29:36.940,LG-H970,1572085776951.0,-3.454,11.354,-0.506,41.1040582,16.8800951,False,NONE
2019-10-26 10:29:36.960,LG-H970,1572085776970.75,-3.493,11.904,-2.235,41.1040582,16.8800951,False,NONE
2019-10-26 10:29:36.980,LG-H970,1572085776990.25,-1.862,11.261,0.657,41.1040582,16.8800951,False,NONE
2019-10-26 10:29:37.000,LG-H970,1572085777010.75,-0.415,7.219,0.379,41.1040582,16.8800951,False,NONE
2019-10-26 10:29:37.020,LG-H970,1572085777029.75,0.275,8.786,0.063,41.1040582,16.8800951,False,NONE
2019-10-26 10:29:37.040,LG-H970,1572085777047.0,-3.135,10.765,-0.656,41.1040582,16.8800951,False,NONE
2019-10-26 10:29:37.060,LG-H970,1572085777067.4,-3.564,12.862,1.09,41.1040582,16.8800951,False,NONE
2019-10-26 10:29:37.080,LG-H970,1572085777088.5,-0.338,11.396,0.17,41.1040582,16.8800951,False,NONE
2019-10-26 10:29:37.100,LG-H970,1572085777108.25,0.496,8.717,2.144,41.1040582,16.8800951,False,NONE
2019-10-26 10:29:37.120,LG-H970,1572085777129.4,0.717,8.475,-1.003,41.1040582,16.8800951,False,NONE
2019-10-26 10:29:37.140,LG-H970,1572085777151.5,-0.894,9.428,-0.354,41.1040582,16.8800951,False,NONE
2019-10-26 10:29:37.160,LG-H970,1572085777171.25,0.982,9.633,-0.071,41.1040582,16.8800951,False,NONE
2019-10-26 10:29:37.180,LG-H970,1572085777190.5,3.073,8.533,0.656,41.1040582,16.8800951,False,NONE
2019-10-26 10:29:37.200,LG-H970,1572085777210.5,1.095,9.403,1.408,41.1040582,16.8800951,False,NONE
2019-10-26 10:29:37.220,LG-H970,1572085777230.5,-2.536,8.342,-1.457,41.1040582,16.8800951,False,NONE
2019-10-26 10:29:37.240,LG-H970,1572085777251.25,-0.315,10.369,-2.447,41.1040582,16.8800951,False,NONE
2019-10-26 10:29:37.260,LG-H970,1572085777270.5,1.394,8.094,0.746,41.1040582,16.8800951,False,NONE
2019-10-26 10:29:37.280,LG-H970,1572085777291.0,3.27,10.143,1.765,41.1040582,16.8800951,False,NONE
2019-10-26 10:29:37.300,LG-H970,1572085777310.0,2.364,11.288,1.072,41.1040582,16.8800951,False,NONE
2019-10-26 10:29:37.320,LG-H970,1572085777329.75,0.146,10.089,-0.708,41.1040582,16.8800951,False,NONE
2019-10-26 10:29:37.340,LG-H970,1572085777349.5,0.492,10.2,-1.929,41.1040582,16.8800951,False,NONE
2019-10-26 10:29:37.360,LG-H970,1572085777369.5,2.069,9.936,-0.161,41.1040582,16.8800951,False,NONE
2019-10-26 10:29:37.380,LG-H970,1572085777390.0,2.831,9.326,2.002,41.1040582,16.8800951,False,NONE
2019-10-26 10:29:37.400,LG-H970,1572085777409.25,2.161,10.918,0.054,41.1040582,16.8800951,False,NONE
2019-10-26 10:29:37.420,LG-H970,1572085777428.5,-1.209,10.441,-1.673,41.1040582,16.8800951,False,NONE
2019-10-26 10:29:37.440,LG-H970,1572085777447.5,-1.2,9.618,-0.972,41.1040582,16.8800951,False,NONE
2019-10-26 10:29:37.460,LG-H970,1572085777467.5,2.165,8.954,-0.991,41.1040582,16.8800951,False,NONE
2019-10-26 10:29:37.480,LG-H970,1572085777487.25,2.786,10.477,0.983,41.1040582,16.8800951,False,NONE
2019-10-26 10:29:37.500,LG-H970,1572085777509.6,-0.707,10.651,-0.042,41.1040582,16.8800951,False,NONE
2019-10-26 10:29:37.520,LG-H970,1572085777531.75,-0.334,10.477,-0.134,41.1040582,16.8800951,False,NONE
2019-10-26 10:29:37.540,LG-H970,1572085777549.3333,1.607,8.254,-1.52,41.1040582,16.8800951,False,NONE
2019-10-26 10:29:37.560,LG-H970,1572085777567.25,0.993,8.715,1.959,41.1040582,16.8800951,False,NONE
2019-10-26 10:29:37.580,LG-H970,1572085777589.4,-0.729,10.506,0.451,41.1040582,16.8800951,False,NONE
2019-10-26 10:29:37.600,LG-H970,1572085777612.0,-1.611,11.87,1.357,41.1040582,16.8800951,False,NONE
2019-10-26 10:29:37.620,LG-H970,1572085777630.75,-0.242,10.743,-0.066,41.1040582,16.8800951,False,NONE
2019-10-26 10:29:37.640,LG-H970,1572085777650.75,-0.344,8.384,-0.045,41.1040582,16.8800951,False,NONE
2019-10-26 10:29:37.660,LG-H970,1572085777670.75,0.475,7.972,-1.135,41.1040582,16.8800951,False,NONE
2019-10-26 10:29:37.680,LG-H970,1572085777690.25,0.551,7.944,-1.898,41.1040582,16.8800951,False,NONE
2019-10-26 10:29:37.700,LG-H970,1572085777709.25,1.22,8.093,0.665,41.1040582,16.8800951,False,NONE
2019-10-26 10:29:37.720,LG-H970,1572085777729.5,2.02,7.043,-1.158,41.1040582,16.8800951,False,NONE
2019-10-26 10:29:37.740,LG-H970,1572085777749.25,-0.08,10.009,0.357,41.1040582,16.8800951,False,NONE
2019-10-26 10:29:37.760,LG-H970,1572085777769.25,-4.028,10.231,-3.768,41.1040582,16.8800951,False,NONE
2019-10-26 10:29:37.780,LG-H970,1572085777788.5,-3.546,11.589,0.172,41.1040582,16.8800951,False,NONE
2019-10-26 10:29:37.800,LG-H970,1572085777807.75,-1.043,10.56,-0.238,41.1040582,16.8800951,False,NONE
2019-10-26 10:29:37.820,LG-H970,1572085777827.5,-2.727,10.909,1.515,41.1040582,16.8800951,False,NONE
2019-10-26 10:29:37.840,LG-H970,1572085777847.5,-3.975,12.607,0.34,41.1040582,16.8800951,False,NONE
2019-10-26 10:29:37.860,LG-H970,1572085777867.75,-1.941,12.432,0.899,41.1040582,16.8800951,False,NONE
2019-10-26 10:29:37.880,LG-H970,1572085777887.5,-5.081,12.475,2.336,41.1040582,16.8800951,False,NONE
2019-10-26 10:29:37.900,LG-H970,1572085777907.25,-5.646,12.106,-1.972,41.1040582,16.8800951,False,NONE
2019-10-26 10:29:37.920,LG-H970,1572085777929.4,0.498,10.179,0.287,41.1040582,16.8800951,False,NONE
2019-10-26 10:29:37.940,LG-H970,1572085777952.25,0.102,7.546,1.251,41.1040582,16.8800951,False,NONE
2019-10-26 10:29:37.960,LG-H970,1572085777971.0,-2.749,13.243,-1.339,41.1040582,16.8800951,False,NONE
2019-10-26 10:29:37.980,LG-H970,1572085777990.75,-2.745,12.667,-2.441,41.1040582,16.8800951,False,NONE
2019-10-26 10:29:38.000,LG-H970,1572085778010.5,1.236,9.155,-0.47,41.1040582,16.8800951,False,NONE
2019-10-26 10:29:38.020,LG-H970,1572085778030.75,3.299,7.254,1.281,41.1040582,16.8800951,False,NONE
2019-10-26 10:29:38.040,LG-H970,1572085778050.25,0.757,8.313,0.253,41.1040582,16.8800951,False,NONE
2019-10-26 10:29:38.060,LG-H970,1572085778069.25,-0.214,10.736,-2.886,41.1040582,16.8800951,False,NONE
2019-10-26 10:29:38.080,LG-H970,1572085778091.0,1.417,11.414,-1.541,41.1040582,16.8800951,False,NONE
2019-10-26 10:29:38.100,LG-H970,1572085778108.25,2.426,8.737,0.034,41.1040582,16.8800951,False,NONE
2019-10-26 10:29:38.120,LG-H970,1572085778128.5,2.083,8.199,-0.261,41.1040582,16.8800951,False,NONE
2019-10-26 10:29:38.140,LG-H970,1572085778148.25,1.918,9.733,-3.356,41.1040582,16.8800951,False,NONE
2019-10-26 10:29:38.160,LG-H970,1572085778170.4,0.885,9.798,-2.345,41.1040582,16.8800951,False,NONE
2019-10-26 10:29:38.180,LG-H970,1572085778189.3333,2.191,9.943,-0.756,41.1040582,16.8800951,False,NONE
2019-10-26 10:29:38.200,LG-H970,1572085778207.25,1.67,7.66,-0.453,41.1040582,16.8800951,False,NONE
2019-10-26 10:29:38.220,LG-H970,1572085778227.25,1.693,9.016,0.211,41.1040582,16.8800951,False,NONE
2019-10-26 10:29:38.240,LG-H970,1572085778249.2,0.33,8.868,-1.663,41.1040582,16.8800951,False,NONE
2019-10-26 10:29:38.260,LG-H970,1572085778271.75,0.898,10.288,-0.127,41.1040582,16.8800951,False,NONE
2019-10-26 10:29:38.280,LG-H970,1572085778291.25,0.557,8.319,-0.328,41.1040582,16.8800951,False,NONE
2019-10-26 10:29:38.300,LG-H970,1572085778310.5,1.055,9.855,0.261,41.1040582,16.8800951,False,NONE
2019-10-26 10:29:38.320,LG-H970,1572085778330.0,-0.236,8.893,-1.273,41.1040582,16.8800951,False,NONE
2019-10-26 10:29:38.340,LG-H970,1572085778350.0,-0.442,9.85,-0.095,41.1040582,16.8800951,False,NONE
2019-10-26 10:29:38.360,LG-H970,1572085778370.5,0.836,9.014,-0.772,41.1040582,16.8800951,False,NONE
2019-10-26 10:29:38.380,LG-H970,1572085778390.0,0.995,9.047,0.531,41.1040582,16.8800951,False,NONE
2019-10-26 10:29:38.400,LG-H970,1572085778409.75,1.019,10.064,0.538,41.1040582,16.8800951,False,NONE
2019-10-26 10:29:38.420,LG-H970,1572085778429.0,1.257,10.453,-0.403,41.1040582,16.8800951,False,NONE
2019-10-26 10:29:38.440,LG-H970,1572085778449.0,0.214,9.187,-3.112,41.1040582,16.8800951,False,NONE
2019-10-26 10:29:38.460,LG-H970,1572085778468.75,-1.258,8.151,-2.273,41.1040582,16.8800951,False,NONE
2019-10-26 10:29:38.480,LG-H970,1572085778489.0,-2.093,8.032,-0.678,41.1040582,16.8800951,False,NONE
2019-10-26 10:29:38.500,LG-H970,1572085778508.25,-2.203,11.292,-1.071,41.1040582,16.8800951,False,NONE
2019-10-26 10:29:38.520,LG-H970,1572085778528.0,-5.481,10.765,-2.163,41.1040582,16.8800951,False,NONE
2019-10-26 10:29:38.540,LG-H970,1572085778549.8,-0.653,9.867,1.634,41.1040582,16.8800951,False,NONE
2019-10-26 10:29:38.560,LG-H970,1572085778571.25,-8.084,5.885,-4.494,41.1040582,16.8800951,True,NONE
2019-10-26 10:29:38.580,LG-H970,1572085778590.75,-11.029,13.365,-5.838,41.1040582,16.8800951,True,NONE
2019-10-26 10:29:38.600,LG-H970,1572085778611.25,-5.575,9.652,-2.567,41.1040582,16.8800951,False,NONE
2019-10-26 10:29:38.620,LG-H970,1572085778629.75,2.949,6.562,5.021,41.1040582,16.8800951,False,NONE
2019-10-26 10:29:38.640,LG-H970,1572085778649.5,-1.065,10.654,1.875,41.1040582,16.8800951,False,NONE
2019-10-26 10:29:38.660,LG-H970,1572085778669.5,-8.469,14.737,-2.925,41.1040582,16.8800951,False,NONE
2019-10-26 10:29:38.680,LG-H970,1572085778690.75,-5.707,13.076,-2.9,41.1040582,16.8800951,False,NONE
2019-10-26 10:29:38.700,LG-H970,1572085778708.5,2.227,9.185,2.594,41.1040582,16.8800951,False,NONE
2019-10-26 10:29:38.720,LG-H970,1572085778728.5,4.874,8.295,3.904,41.1040582,16.8800951,False,NONE
2019-10-26 10:29:38.740,LG-H970,1572085778748.5,-0.67,11.74,0.257,41.1040582,16.8800951,False,NONE
2019-10-26 10:29:38.760,LG-H970,1572085778768.0,-3.494,13.705,-2.485,41.1040582,16.8800951,False,NONE
2019-10-26 10:29:38.780,LG-H970,1572085778788.5,0.106,10.837,0.494,41.1040582,16.8800951,False,NONE
2019-10-26 10:29:38.800,LG-H970,1572085778808.5,6.12,7.616,3.739,41.1040582,16.8800951,False,NONE
2019-10-26 10:29:38.820,LG-H970,1572085778828.75,4.839,9.068,1.66,41.1040582,16.8800951,False,NONE
2019-10-26 10:29:38.840,LG-H970,1572085778848.5,-1.803,11.264,-1.926,41.1040582,16.8800951,False,NONE
2019-10-26 10:29:38.860,LG-H970,1572085778868.25,-1.164,11.919,-1.571,41.1040582,16.8800951,False,NONE
2019-10-26 10:29:38.880,LG-H970,1572085778888.5,3.352,8.042,1.502,41.1040582,16.8800951,False,NONE
2019-10-26 10:29:38.900,LG-H970,1572085778907.25,4.943,7.37,2.149,41.1040582,16.8800951,False,NONE
2019-10-26 10:29:38.920,LG-H970,1572085778927.0,-0.175,9.41,-1.497,41.1040582,16.8800951,False,NONE
2019-10-26 10:29:38.940,LG-H970,1572085778949.4,-2.309,11.424,-2.318,41.1040582,16.8800951,False,NONE
2019-10-26 10:29:38.960,LG-H970,1572085778971.25,1.74,9.061,0.342,41.1040582,16.8800951,False,NONE
2019-10-26 10:29:38.980,LG-H970,1572085778990.75,3.557,8.567,1.197,41.1040582,16.8800951,False,NONE
2019-10-26 10:29:39.000,LG-H970,1572085779008.0,-0.64,8.974,-1.311,41.1040582,16.8800951,False,NONE
2019-10-26 10:29:39.020,LG-H970,1572085779028.8,-2.932,10.864,-2.9,41.1040582,16.8800951,False,NONE
2019-10-26 10:29:39.040,LG-H970,1572085779050.25,-0.414,9.767,-1.096,41.1040582,16.8800951,False,NONE
2019-10-26 10:29:39.060,LG-H970,1572085779070.25,1.133,8.354,1.182,41.1040582,16.8800951,False,NONE
2019-10-26 10:29:39.080,LG-H970,1572085779089.75,-0.617,10.288,-0.375,41.1040582,16.8800951,False,NONE
2019-10-26 10:29:39.100,LG-H970,1572085779109.25,-2.315,11.154,-1.083,41.1040582,16.8800951,False,NONE
2019-10-26 10:29:39.120,LG-H970,1572085779129.25,-0.433,9.137,0.212,41.1040582,16.8800951,False,NONE
2019-10-26 10:29:39.140,LG-H970,1572085779148.75,0.373,7.594,0.002,41.1040582,16.8800951,False,NONE
2019-10-26 10:29:39.160,LG-H970,1572085779168.5,-1.197,10.352,-1.061,41.1040582,16.8800951,False,NONE
2019-10-26 10:29:39.180,LG-H970,1572085779191.0,-3.345,10.778,-1.46,41.1040582,16.8800951,False,NONE
2019-10-26 10:29:39.200,LG-H970,1572085779207.75,-1.23,10.146,0.706,41.1040582,16.8800951,False,NONE
2019-10-26 10:29:39.220,LG-H970,1572085779229.8,-0.334,8.754,0.958,41.1040582,16.8800951,False,NONE
2019-10-26 10:29:39.240,LG-H970,1572085779252.0,-2.357,9.663,-0.815,41.1040582,16.8800951,False,NONE
2019-10-26 10:29:39.260,LG-H970,1572085779271.75,-3.852,10.7,-0.49,41.1040582,16.8800951,False,NONE
2019-10-26 10:29:39.280,LG-H970,1572085779291.5,-2.947,10.461,-0.094,41.1040582,16.8800951,False,NONE
2019-10-26 10:29:39.300,LG-H970,1572085779311.25,-0.76,10.663,0.98,41.1040582,16.8800951,False,NONE
2019-10-26 10:29:39.320,LG-H970,1572085779330.75,-0.572,10.283,0.223,41.1040582,16.8800951,False,NONE
2019-10-26 10:29:39.340,LG-H970,1572085779351.25,-1.745,10.031,-0.989,41.1040582,16.8800951,False,NONE
2019-10-26 10:29:39.360,LG-H970,1572085779370.75,-1.537,10.016,-1.486,41.1040582,16.8800951,False,NONE
2019-10-26 10:29:39.380,LG-H970,1572085779391.25,-0.238,9.512,-0.249,41.1040582,16.8800951,False,NONE
2019-10-26 10:29:39.400,LG-H970,1572085779409.75,0.794,9.794,0.929,41.1040582,16.8800951,False,NONE
2019-10-26 10:29:39.420,LG-H970,1572085779430.0,0.417,10.217,-0.51,41.1040582,16.8800951,False,NONE
2019-10-26 10:29:39.440,LG-H970,1572085779448.5,0.216,10.475,-0.234,41.1040582,16.8800951,False,NONE
2019-10-26 10:29:39.460,LG-H970,1572085779468.5,0.964,10.094,-0.57,41.1040582,16.8800951,False,NONE
2019-10-26 10:29:39.480,LG-H970,1572085779489.5,1.123,9.633,0.424,41.1040582,16.8800951,False,NONE
2019-10-26 10:29:39.500,LG-H970,1572085779508.75,1.274,10.217,0.098,41.1040582,16.8800951,False,NONE
2019-10-26 10:29:39.520,LG-H970,1572085779529.0,0.722,10.284,-0.844,41.1040582,16.8800951,False,NONE
2019-10-26 10:29:39.540,LG-H970,1572085779548.25,0.439,9.646,0.148,41.1040582,16.8800951,False,NONE
2019-10-26 10:29:39.560,LG-H970,1572085779568.5,-0.122,8.774,-0.232,41.1040582,16.8800951,False,NONE
2019-10-26 10:29:39.580,LG-H970,1572085779587.5,-0.576,10.073,-0.539,41.1040582,16.8800951,False,NONE
2019-10-26 10:29:39.600,LG-H970,1572085779610.2,-1.63,10.353,-0.309,41.1040582,16.8800951,False,NONE
2019-10-26 10:29:39.620,LG-H970,1572085779631.5,-1.348,9.123,-0.009,41.1040582,16.8800951,False,NONE
2019-10-26 10:29:39.640,LG-H970,1572085779651.25,0.144,9.379,-0.64,41.1040582,16.8800951,False,NONE
2019-10-26 10:29:39.660,LG-H970,1572085779671.25,-0.705,9.581,0.212,41.1040582,16.8800951,False,NONE
2019-10-26 10:29:39.680,LG-H970,1572085779689.6667,-0.451,11.098,0.568,41.1040582,16.8800951,False,NONE
2019-10-26 10:29:39.700,LG-H970,1572085779708.8,-0.864,9.822,-0.359,41.1040582,16.8800951,False,NONE
2019-10-26 10:29:39.720,LG-H970,1572085779730.25,0.196,8.135,-0.65,41.1040582,16.8800951,False,NONE
2019-10-26 10:29:39.740,LG-H970,1572085779750.5,0.678,6.903,-1.476,41.1040582,16.8800951,False,NONE
2019-10-26 10:29:39.760,LG-H970,1572085779770.25,0.352,7.091,-1.498,41.1040582,16.8800951,False,NONE
2019-10-26 10:29:39.780,LG-H970,1572085779790.0,0.578,5.743,-0.944,41.1040582,16.8800951,False,NONE
2019-10-26 10:29:39.800,LG-H970,1572085779809.75,-0.575,8.475,-2.713,41.1040582,16.8800951,False,NONE
2019-10-26 10:29:39.820,LG-H970,1572085779829.5,-1.894,11.324,2.745,41.1040582,16.8800951,False,NONE
2019-10-26 10:29:39.840,LG-H970,1572085779849.25,-1.638,9.93,0.099,41.1040582,16.8800951,False,NONE
2019-10-26 10:29:39.860,LG-H970,1572085779868.5,-1.167,11.981,0.355,41.1040582,16.8800951,False,NONE
2019-10-26 10:29:39.880,LG-H970,1572085779888.75,-0.628,11.07,-2.015,41.1040582,16.8800951,False,NONE
2019-10-26 10:29:39.900,LG-H970,1572085779907.75,-0.306,9.233,0.462,41.1040582,16.8800951,False,NONE
2019-10-26 10:29:39.920,LG-H970,1572085779927.5,-1.89,10.568,0.309,41.1040582,16.8800951,False,NONE
2019-10-26 10:29:39.940,LG-H970,1572085779949.8,-3.491,13.835,-0.463,41.1040582,16.8800951,False,NONE
2019-10-26 10:29:39.960,LG-H970,1572085779971.0,-2.981,13.282,1.393,41.1040582,16.8800951,False,NONE
2019-10-26 10:29:39.980,LG-H970,1572085779988.6,0.006,10.845,1.312,41.1040582,16.8800951,False,NONE
2019-10-26 10:29:40.000,LG-H970,1572085780010.0,-1.628,9.796,-0.359,41.1040582,16.8800951,False,NONE
2019-10-26 10:29:40.020,LG-H970,1572085780028.3333,-2.813,11.559,-3.157,41.1040582,16.8800951,False,NONE
2019-10-26 10:29:40.040,LG-H970,1572085780047.8,-1.344,11.574,-0.619,41.1040582,16.8800951,False,NONE
2019-10-26 10:29:40.060,LG-H970,1572085780069.25,1.232,9.78,2.642,41.1040582,16.8800951,False,NONE
2019-10-26 10:29:40.080,LG-H970,1572085780088.5,0.851,10.84,0.265,41.1040582,16.8800951,False,NONE
2019-10-26 10:29:40.100,LG-H970,1572085780108.5,-1.14,11.567,-2.619,41.1040582,16.8800951,False,NONE
2019-10-26 10:29:40.120,LG-H970,1572085780129.0,0.587,9.725,-1.488,41.1040582,16.8800951,False,NONE
2019-10-26 10:29:40.140,LG-H970,1572085780149.0,3.664,8.644,-0.301,41.1040582,16.8800951,False,NONE
2019-10-26 10:29:40.160,LG-H970,1572085780168.75,1.914,10.25,-0.27,41.1040582,16.8800951,False,NONE
2019-10-26 10:29:40.180,LG-H970,1572085780188.25,-0.799,11.657,-1.501,41.1040582,16.8800951,False,NONE
2019-10-26 10:29:40.200,LG-H970,1572085780208.0,0.446,10.958,-0.991,41.1040582,16.8800951,False,NONE
2019-10-26 10:29:40.220,LG-H970,1572085780227.75,1.695,7.79,0.04,41.1040582,16.8800951,True,NONE
2019-10-26 10:29:40.240,LG-H970,1572085780249.6,1.169,8.482,-0.521,41.1040582,16.8800951,False,NONE
2019-10-26 10:29:40.260,LG-H970,1572085780271.5,-1.608,9.567,-1.408,41.1040582,16.8800951,False,NONE
2019-10-26 10:29:40.280,LG-H970,1572085780290.3333,-1.844,10.809,-1.007,41.1040582,16.8800951,False,NONE
2019-10-26 10:29:40.300,LG-H970,1572085780307.25,-0.823,9.826,0.644,41.1040582,16.8800951,False,NONE
2019-10-26 10:29:40.320,LG-H970,1572085780329.4,0.528,8.187,0.883,41.1040582,16.8800951,False,NONE
2019-10-26 10:29:40.340,LG-H970,1572085780349.0,-0.339,8.603,-0.863,41.1040582,16.8800951,False,NONE
2019-10-26 10:29:40.360,LG-H970,1572085780369.2,-1.883,9.344,-2.388,41.1040582,16.8800951,False,NONE
2019-10-26 10:29:40.380,LG-H970,1572085780391.25,-0.863,9.265,0.011,41.1040582,16.8800951,False,NONE
2019-10-26 10:29:40.400,LG-H970,1572085780411.0,0.882,8.619,1.091,41.1040582,16.8800951,False,NONE
2019-10-26 10:29:40.420,LG-H970,1572085780430.75,0.421,9.854,0.916,41.1040582,16.8800951,False,NONE
2019-10-26 10:29:40.440,LG-H970,1572085780450.0,-0.299,9.699,-1.421,41.1040582,16.8800951,False,NONE
2019-10-26 10:29:40.460,LG-H970,1572085780470.0,0.931,8.255,-0.136,41.1040582,16.8800951,False,NONE
2019-10-26 10:29:40.480,LG-H970,1572085780490.5,2.811,7.571,2.006,41.1040582,16.8800951,False,NONE
2019-10-26 10:29:40.500,LG-H970,1572085780510.0,2.329,10.748,0.121,41.1040582,16.8800951,False,NONE
2019-10-26 10:29:40.520,LG-H970,1572085780529.75,-3.263,11.433,-2.373,41.1040582,16.8800951,False,NONE
2019-10-26 10:29:40.540,LG-H970,1572085780548.5,-1.131,12.706,-1.71,41.1040582,16.8800951,False,NONE
2019-10-26 10:29:40.560,LG-H970,1572085780568.75,3.152,6.112,-0.141,41.1040582,16.8800951,False,NONE
2019-10-26 10:29:40.580,LG-H970,1572085780586.5,3.988,6.314,0.707,41.1040582,16.8800951,False,NONE
2019-10-26 10:29:40.600,LG-H970,1572085780611.0,-0.219,9.913,-2.687,41.1040582,16.8800951,False,NONE
2019-10-26 10:29:40.620,LG-H970,1572085780631.5,-3.682,12.312,0.037,41.1040582,16.8800951,False,NONE
2019-10-26 10:29:40.640,LG-H970,1572085780652.25,2.913,10.27,-1.006,41.1040582,16.8800951,False,NONE
2019-10-26 10:29:40.660,LG-H970,1572085780671.5,1.269,7.727,-0.191,41.1040582,16.8800951,False,NONE
2019-10-26 10:29:40.680,LG-H970,1572085780691.25,-2.629,10.695,-1.154,41.1040582,16.8800951,False,NONE
2019-10-26 10:29:40.700,LG-H970,1572085780711.5,-2.399,10.71,-3.563,41.1040582,16.8800951,False,NONE
2019-10-26 10:29:40.720,LG-H970,1572085780731.0,0.585,12.074,1.643,41.1040582,16.8800951,False,NONE
2019-10-26 10:29:40.740,LG-H970,1572085780751.25,-0.125,10.001,0.2,41.1040582,16.8800951,False,NONE
2019-10-26 10:29:40.760,LG-H970,1572085780770.75,-0.448,11.067,0.094,41.1040582,16.8800951,False,NONE
2019-10-26 10:29:40.780,LG-H970,1572085780790.5,-0.469,9.961,-1.439,41.1040582,16.8800951,False,NONE
2019-10-26 10:29:40.800,LG-H970,1572085780810.25,1.083,10.913,0.775,41.1040582,16.8800951,False,NONE
2019-10-26 10:29:40.820,LG-H970,1572085780830.0,1.648,9.32,1.083,41.1040582,16.8800951,False,NONE
